;loss
0;880.4634399414062
1;879.4266357421875
2;878.3970336914062
3;877.4666748046875
4;876.4505615234375
5;875.4411010742188
6;874.4381103515625
7;873.4411010742188
8;872.4496459960938
9;871.4636840820312
10;870.4824829101562
11;869.5059204101562
12;868.5336303710938
13;867.5651245117188
14;866.6002807617188
15;865.638671875
16;864.6727294921875
17;863.716796875
18;862.7628173828125
19;861.8109130859375
20;860.8602294921875
21;859.9105834960938
22;858.9614868164062
23;858.0125732421875
24;857.0633544921875
25;856.11328125
26;855.1509399414062
27;854.1868286132812
28;853.2205810546875
29;852.2516479492188
30;851.2910766601562
31;850.3268432617188
32;849.3473510742188
33;848.3746337890625
34;847.3857421875
35;846.3914794921875
36;845.4024658203125
37;844.3960571289062
38;843.3939819335938
39;842.3861694335938
40;841.3609008789062
41;840.32763671875
42;839.2858276367188
43;838.2352294921875
44;837.1857299804688
45;836.1260986328125
46;835.0455932617188
47;833.9539184570312
48;832.8505859375
49;831.7352294921875
50;830.6067504882812
51;829.46484375
52;828.3087158203125
53;827.1378173828125
54;825.9517211914062
55;824.7495727539062
56;823.5305786132812
57;822.3041381835938
58;821.048828125
59;819.7740478515625
60;818.4790649414062
61;817.1727905273438
62;815.8446655273438
63;814.4935913085938
64;813.1080322265625
65;811.7073364257812
66;810.2700805664062
67;808.8053588867188
68;807.3129272460938
69;805.8035888671875
70;804.25244140625
71;802.6689453125
72;801.0623779296875
73;799.4205322265625
74;797.7421875
75;796.0145874023438
76;794.2467651367188
77;792.4494018554688
78;790.5977783203125
79;788.7120971679688
80;786.7794799804688
81;784.7978515625
82;782.7532348632812
83;780.66650390625
84;778.5238647460938
85;776.3239135742188
86;774.0525512695312
87;771.71826171875
88;769.3317260742188
89;766.8645629882812
90;764.32666015625
91;761.7290649414062
92;759.0555419921875
93;756.3026123046875
94;753.4673461914062
95;750.5468139648438
96;747.5385131835938
97;744.4388427734375
98;741.2452392578125
99;737.9385986328125
100;734.5310668945312
101;731.0182495117188
102;727.3982543945312
103;723.6668701171875
104;719.8400268554688
105;715.8982543945312
106;711.8380737304688
107;707.6590576171875
108;703.359375
109;698.921875
110;694.3811645507812
111;689.7199096679688
112;684.9398193359375
113;680.0433349609375
114;675.0340576171875
115;669.8956298828125
116;664.6749877929688
117;659.36181640625
118;653.9649047851562
119;648.4721069335938
120;642.9385986328125
121;637.3338623046875
122;631.69384765625
123;626.0549926757812
124;620.4137573242188
125;614.7828979492188
126;609.1790161132812
127;603.6178588867188
128;598.1121215820312
129;592.6827392578125
130;587.3656005859375
131;582.1300659179688
132;577.0280151367188
133;572.0394287109375
134;567.202392578125
135;562.4990234375
136;557.9437866210938
137;553.5376586914062
138;549.27734375
139;545.1708374023438
140;541.2344360351562
141;537.4606323242188
142;533.8477783203125
143;530.3584594726562
144;527.0030517578125
145;523.7791748046875
146;520.6908569335938
147;517.736083984375
148;514.8866577148438
149;512.1544189453125
150;509.5221252441406
151;506.9836120605469
152;504.53955078125
153;502.1890563964844
154;499.91748046875
155;497.7187194824219
156;495.586181640625
157;493.5257263183594
158;491.5343933105469
159;489.5957336425781
160;487.71197509765625
161;485.87738037109375
162;484.0919494628906
163;482.3510437011719
164;480.6546936035156
165;479.00494384765625
166;477.3918762207031
167;475.8076171875
168;474.2541809082031
169;472.7336730957031
170;471.2360534667969
171;469.7684020996094
172;468.3254089355469
173;466.9020690917969
174;465.5016174316406
175;464.1256408691406
176;462.7659606933594
177;461.4255676269531
178;460.1033020019531
179;458.79833984375
180;457.5130310058594
181;456.2410583496094
182;454.9851379394531
183;453.744140625
184;452.5168762207031
185;451.30267333984375
186;450.101318359375
187;448.91265869140625
188;447.73590087890625
189;446.5710144042969
190;445.41986083984375
191;444.279296875
192;443.1489562988281
193;442.02587890625
194;440.9125671386719
195;439.80853271484375
196;438.71356201171875
197;437.6272888183594
198;436.5494689941406
199;435.4822082519531
200;434.42047119140625
201;433.3664245605469
202;432.3198547363281
203;431.28057861328125
204;430.2486877441406
205;429.22607421875
206;428.20806884765625
207;427.19683837890625
208;426.1941833496094
209;425.1978454589844
210;424.2076721191406
211;423.2234191894531
212;422.2430114746094
213;421.2702941894531
214;420.30145263671875
215;419.34014892578125
216;418.38226318359375
217;417.4296875
218;416.4822082519531
219;415.5400085449219
220;414.6029357910156
221;413.6707458496094
222;412.7434997558594
223;411.82293701171875
224;410.9051818847656
225;409.99212646484375
226;409.0852355957031
227;408.18115234375
228;407.28155517578125
229;406.38629150390625
230;405.49700927734375
231;404.6101989746094
232;403.727783203125
233;402.8493347167969
234;401.97650146484375
235;401.1074523925781
236;400.2422790527344
237;399.38092041015625
238;398.5232849121094
239;397.6692810058594
240;396.81732177734375
241;395.9689025878906
242;395.12548828125
243;394.2856140136719
244;393.4490051269531
245;392.6158142089844
246;391.7843933105469
247;390.9562072753906
248;390.1326599121094
249;389.310791015625
250;388.49212646484375
251;387.6765441894531
252;386.86395263671875
253;386.0558166503906
254;385.24920654296875
255;384.44683837890625
256;383.6474914550781
257;382.8509216308594
258;382.0571594238281
259;381.2648010253906
260;380.47662353515625
261;379.6911315917969
262;378.9082946777344
263;378.128173828125
264;377.35064697265625
265;376.57574462890625
266;375.8021545410156
267;375.0310974121094
268;374.2626647949219
269;373.49664306640625
270;372.734375
271;371.974609375
272;371.21722412109375
273;370.4622497558594
274;369.70965576171875
275;368.9594421386719
276;368.2115783691406
277;367.46484375
278;366.720458984375
279;365.9794921875
280;365.24078369140625
281;364.5032043457031
282;363.7678527832031
283;363.03472900390625
284;362.3049011230469
285;361.57611083984375
286;360.8494567871094
287;360.1260681152344
288;359.40478515625
289;358.68450927734375
290;357.9674377441406
291;357.25238037109375
292;356.5393371582031
293;355.8273620605469
294;355.1174011230469
295;354.4104309082031
296;353.7044372558594
297;353.0004577636719
298;352.29937744140625
299;351.5993347167969
300;350.9011535644531
301;350.2059631347656
302;349.5116271972656
303;348.8191833496094
304;348.128662109375
305;347.44000244140625
306;346.753173828125
307;346.06817626953125
308;345.3850402832031
309;344.70465087890625
310;344.0260925292969
311;343.3492736816406
312;342.67425537109375
313;342.0009765625
314;341.3294372558594
315;340.65966796875
316;339.99072265625
317;339.323486328125
318;338.6588439941406
319;337.9959411621094
320;337.3346862792969
321;336.67425537109375
322;336.0154724121094
323;335.3583679199219
324;334.7037658691406
325;334.05078125
326;333.3986511230469
327;332.74810791015625
328;332.09918212890625
329;331.45269775390625
330;330.8077697753906
331;330.1636047363281
332;329.52191162109375
333;328.8816833496094
334;328.2422790527344
335;327.605224609375
336;326.9689025878906
337;326.33404541015625
338;325.7016296386719
339;325.0706481933594
340;324.4411926269531
341;323.81243896484375
342;323.18597412109375
343;322.5610046386719
344;321.9375305175781
345;321.3147277832031
346;320.69342041015625
347;320.0743103027344
348;319.4559020996094
349;318.83892822265625
350;318.2234191894531
351;317.6093444824219
352;316.9966125488281
353;316.3853454589844
354;315.7755432128906
355;315.1677551269531
356;314.56146240234375
357;313.9558410644531
358;313.35162353515625
359;312.7487487792969
360;312.1479187011719
361;311.54852294921875
362;310.94970703125
363;310.3522644042969
364;309.7568664550781
365;309.162109375
366;308.5686950683594
367;307.97662353515625
368;307.3858947753906
369;306.7964172363281
370;306.2083435058594
371;305.62158203125
372;305.0367736816406
373;304.45257568359375
374;303.8696594238281
375;303.2880554199219
376;302.70831298828125
377;302.1292419433594
378;301.5514831542969
379;300.97491455078125
380;300.4002990722656
381;299.8268737792969
382;299.2546691894531
383;298.6831359863281
384;298.11346435546875
385;297.54437255859375
386;296.97650146484375
387;296.409912109375
388;295.8450622558594
389;295.28094482421875
390;294.7185363769531
391;294.15679931640625
392;293.59625244140625
393;293.0368957519531
394;292.4793395996094
395;291.9223937988281
396;291.3666076660156
397;290.8120422363281
398;290.2591857910156
399;289.7069091796875
400;289.1558532714844
401;288.6059265136719
402;288.0571594238281
403;287.5101013183594
404;286.963623046875
405;286.4188537597656
406;285.8746643066406
407;285.3315734863281
408;284.7896423339844
409;284.24884033203125
410;283.70916748046875
411;283.17059326171875
412;282.6336364746094
413;282.0972595214844
414;281.56201171875
415;281.0278625488281
416;280.4947814941406
417;279.9628601074219
418;279.43255615234375
419;278.90277099609375
420;278.37408447265625
421;277.8465270996094
422;277.32000732421875
423;276.7950744628906
424;276.27069091796875
425;275.7473449707031
426;275.2251281738281
427;274.70440673828125
428;274.18475341796875
429;273.6656799316406
430;273.1476135253906
431;272.6305847167969
432;272.11505126953125
433;271.60009765625
434;271.086669921875
435;270.5738220214844
436;270.06243896484375
437;269.55206298828125
438;269.04229736328125
439;268.5334777832031
440;268.0257263183594
441;267.51898193359375
442;267.0132141113281
443;266.5088806152344
444;266.0055847167969
445;265.5028381347656
446;265.00103759765625
447;264.5007019042969
448;264.00091552734375
449;263.5021057128906
450;263.0042724609375
451;262.5078430175781
452;262.0119934082031
453;261.5170593261719
454;261.02313232421875
455;260.53057861328125
456;260.0386047363281
457;259.547607421875
458;259.0579528808594
459;258.5688171386719
460;258.0806884765625
461;257.593505859375
462;257.107666015625
463;256.6223449707031
464;256.1379699707031
465;255.65457153320312
466;255.17208862304688
467;254.6905517578125
468;254.2103271484375
469;253.73104858398438
470;253.252685546875
471;252.77490234375
472;252.29798889160156
473;251.822021484375
474;251.34693908691406
475;250.87281799316406
476;250.3999786376953
477;249.9276580810547
478;249.45626831054688
479;248.9861602783203
480;248.51657104492188
481;248.0478515625
482;247.58004760742188
483;247.1131591796875
484;246.6471405029297
485;246.18240356445312
486;245.7182159423828
487;245.25485229492188
488;244.7924041748047
489;244.33082580566406
490;243.87022399902344
491;243.410400390625
492;242.9514617919922
493;242.4937744140625
494;242.03659057617188
495;241.5802459716797
496;241.1248321533203
497;240.67027282714844
498;240.216552734375
499;239.7637176513672
500;239.31173706054688
501;238.86056518554688
502;238.41067504882812
503;237.96157836914062
504;237.51303100585938
505;237.06532287597656
506;236.61878967285156
507;236.1727752685547
508;235.72793579101562
509;235.28395080566406
510;234.8407440185547
511;234.39845275878906
512;233.9569549560547
513;233.51596069335938
514;233.0761260986328
515;232.63681030273438
516;232.19827270507812
517;231.7609100341797
518;231.3240509033203
519;230.88804626464844
520;230.4528045654297
521;230.01844787597656
522;229.58518981933594
523;229.15272521972656
524;228.7207794189453
525;228.2896270751953
526;227.85928344726562
527;227.4297332763672
528;227.00100708007812
529;226.57310485839844
530;226.14599609375
531;225.71969604492188
532;225.29444885253906
533;224.87001037597656
534;224.4460906982422
535;224.02296447753906
536;223.6008758544922
537;223.1796112060547
538;222.75888061523438
539;222.3391876220703
540;221.91995239257812
541;221.50157165527344
542;221.0839385986328
543;220.6670684814453
544;220.25099182128906
545;219.835693359375
546;219.421142578125
547;219.0073699951172
548;218.59439086914062
549;218.18215942382812
550;217.77073669433594
551;217.3600616455078
552;216.9501495361328
553;216.541259765625
554;216.1331787109375
555;215.7257843017578
556;215.3189239501953
557;214.91307067871094
558;214.50772094726562
559;214.1031036376953
560;213.69924926757812
561;213.29641723632812
562;212.89404296875
563;212.4927520751953
564;212.0918426513672
565;211.69200134277344
566;211.2926483154297
567;210.89404296875
568;210.4964141845703
569;210.0992431640625
570;209.70285034179688
571;209.30740356445312
572;208.9127197265625
573;208.51853942871094
574;208.1250762939453
575;207.73257446289062
576;207.34080505371094
577;206.94973754882812
578;206.55917358398438
579;206.1693572998047
580;205.7802276611328
581;205.39183044433594
582;205.004150390625
583;204.6171875
584;204.231201171875
585;203.84567260742188
586;203.4608612060547
587;203.07676696777344
588;202.693603515625
589;202.31114196777344
590;201.92919921875
591;201.5479278564453
592;201.16737365722656
593;200.78775024414062
594;200.40882873535156
595;200.03038024902344
596;199.65261840820312
597;199.2755889892578
598;198.89920043945312
599;198.52354431152344
600;198.1486053466797
601;197.7743377685547
602;197.40098571777344
603;197.02810668945312
604;196.65614318847656
605;196.28465270996094
606;195.91384887695312
607;195.543701171875
608;195.17428588867188
609;194.80551147460938
610;194.43763732910156
611;194.07046508789062
612;193.70375061035156
613;193.3377227783203
614;192.97254943847656
615;192.60787963867188
616;192.243896484375
617;191.88075256347656
618;191.51809692382812
619;191.15611267089844
620;190.7947998046875
621;190.43411254882812
622;190.0741424560547
623;189.71481323242188
624;189.35618591308594
625;188.99838256835938
626;188.6410675048828
627;188.2843780517578
628;187.92837524414062
629;187.57302856445312
630;187.2183380126953
631;186.86428833007812
632;186.51112365722656
633;186.1584014892578
634;185.80653381347656
635;185.45510864257812
636;185.10433959960938
637;184.7542266845703
638;184.40475463867188
639;184.055908203125
640;183.70791625976562
641;183.36058044433594
642;183.0137176513672
643;182.66744995117188
644;182.32180786132812
645;181.97689819335938
646;181.63255310058594
647;181.2888946533203
648;180.94580078125
649;180.6033935546875
650;180.26182556152344
651;179.92086791992188
652;179.58053588867188
653;179.24085998535156
654;178.9017791748047
655;178.56333923339844
656;178.22532653808594
657;177.887939453125
658;177.5511932373047
659;177.2152557373047
660;176.8799591064453
661;176.54505920410156
662;176.2108612060547
663;175.8773651123047
664;175.5445556640625
665;175.212158203125
666;174.88058471679688
667;174.54959106445312
668;174.2190704345703
669;173.88914489746094
670;173.5600128173828
671;173.23147583007812
672;172.90342712402344
673;172.5760955810547
674;172.24925231933594
675;171.9230194091797
676;171.59751892089844
677;171.2726287841797
678;170.94837951660156
679;170.6246795654297
680;170.3014678955078
681;169.97900390625
682;169.65696716308594
683;169.33572387695312
684;169.01502990722656
685;168.69480895996094
686;168.3751983642578
687;168.05615234375
688;167.73768615722656
689;167.4200439453125
690;167.10279846191406
691;166.7861328125
692;166.47024536132812
693;166.15480041503906
694;165.84007263183594
695;165.52578735351562
696;165.2121124267578
697;164.89913940429688
698;164.58663940429688
699;164.274658203125
700;163.96334838867188
701;163.65255737304688
702;163.34251403808594
703;163.03305053710938
704;162.72401428222656
705;162.4156036376953
706;162.107666015625
707;161.8003692626953
708;161.49363708496094
709;161.18763732910156
710;160.88204956054688
711;160.57704162597656
712;160.2726287841797
713;159.96875
714;159.6654510498047
715;159.36270141601562
716;159.06068420410156
717;158.7591094970703
718;158.4580841064453
719;158.15774536132812
720;157.85801696777344
721;157.5586700439453
722;157.25990295410156
723;156.96182250976562
724;156.66432189941406
725;156.3672637939453
726;156.07070922851562
727;155.77474975585938
728;155.4793243408203
729;155.18446350097656
730;154.8903045654297
731;154.59671020507812
732;154.30369567871094
733;154.01119995117188
734;153.71910095214844
735;153.4275665283203
736;153.13673400878906
737;152.84629821777344
738;152.55654907226562
739;152.26722717285156
740;151.97848510742188
741;151.6902313232422
742;151.40257263183594
743;151.11557006835938
744;150.82896423339844
745;150.5428924560547
746;150.2574920654297
747;149.97254943847656
748;149.68812561035156
749;149.40426635742188
750;149.12088012695312
751;148.8380889892578
752;148.5558319091797
753;148.27406311035156
754;147.99302673339844
755;147.7124786376953
756;147.43246459960938
757;147.1528778076172
758;146.87393188476562
759;146.5953826904297
760;146.3173828125
761;146.0398712158203
762;145.7630615234375
763;145.48660278320312
764;145.21070861816406
765;144.93531799316406
766;144.6605987548828
767;144.38626098632812
768;144.11256408691406
769;143.83929443359375
770;143.5665283203125
771;143.2942657470703
772;143.02255249023438
773;142.75143432617188
774;142.4807586669922
775;142.21072387695312
776;141.94114685058594
777;141.67198181152344
778;141.4033660888672
779;141.13526916503906
780;140.8677520751953
781;140.6006317138672
782;140.33407592773438
783;140.06796264648438
784;139.80239868164062
785;139.53733825683594
786;139.2727813720703
787;139.0088653564453
788;138.74539184570312
789;138.4824676513672
790;138.2200164794922
791;137.9581298828125
792;137.6967010498047
793;137.435791015625
794;137.17538452148438
795;136.9154510498047
796;136.65602111816406
797;136.39712524414062
798;136.13868713378906
799;135.88072204589844
800;135.62332153320312
801;135.3663787841797
802;135.1099395751953
803;134.85397338867188
804;134.5985107421875
805;134.3434600830078
806;134.08897399902344
807;133.83485412597656
808;133.58139038085938
809;133.32838439941406
810;133.0758819580078
811;132.82383728027344
812;132.5722198486328
813;132.32113647460938
814;132.07046508789062
815;131.8203582763672
816;131.5707550048828
817;131.32164001464844
818;131.07298278808594
819;130.82484436035156
820;130.57705688476562
821;130.3298797607422
822;130.08314514160156
823;129.83692932128906
824;129.5911102294922
825;129.34573364257812
826;129.1009521484375
827;128.85650634765625
828;128.61265563964844
829;128.36923217773438
830;128.12623596191406
831;127.88370513916016
832;127.6417465209961
833;127.40022277832031
834;127.15919494628906
835;126.91862487792969
836;126.67848205566406
837;126.43885040283203
838;126.19971466064453
839;125.96099090576172
840;125.7227783203125
841;125.48503875732422
842;125.24773406982422
843;125.0108871459961
844;124.7745361328125
845;124.53862762451172
846;124.30309295654297
847;124.06810760498047
848;123.83349609375
849;123.59931945800781
850;123.3656997680664
851;123.13258361816406
852;122.8998794555664
853;122.66767120361328
854;122.43587493896484
855;122.20457458496094
856;121.97369384765625
857;121.74327087402344
858;121.51322937011719
859;121.28374481201172
860;121.05467987060547
861;120.82604217529297
862;120.59788513183594
863;120.37010192871094
864;120.14276885986328
865;119.91582489013672
866;119.68941497802734
867;119.4634780883789
868;119.238037109375
869;119.01289367675781
870;118.78824615478516
871;118.56400299072266
872;118.34024810791016
873;118.11689758300781
874;117.89409637451172
875;117.67171478271484
876;117.44977569580078
877;117.22828674316406
878;117.00727844238281
879;116.78662872314453
880;116.56646728515625
881;116.34664154052734
882;116.12725830078125
883;115.90840911865234
884;115.68987274169922
885;115.47187042236328
886;115.2542724609375
887;115.03704833984375
888;114.82035827636719
889;114.60400390625
890;114.38807678222656
891;114.17261505126953
892;113.95762634277344
893;113.74303436279297
894;113.5289077758789
895;113.31522369384766
896;113.10186004638672
897;112.88893127441406
898;112.67652893066406
899;112.46455383300781
900;112.25291442871094
901;112.04169464111328
902;111.83087921142578
903;111.62060546875
904;111.41065979003906
905;111.20115661621094
906;110.99201965332031
907;110.78336334228516
908;110.57514190673828
909;110.3673095703125
910;110.1599349975586
911;109.9530029296875
912;109.7464828491211
913;109.54032135009766
914;109.33464050292969
915;109.12928009033203
916;108.9244155883789
917;108.7198715209961
918;108.51578521728516
919;108.31209564208984
920;108.10880279541016
921;107.90592956542969
922;107.70354461669922
923;107.50157165527344
924;107.29998779296875
925;107.09880828857422
926;106.89803314208984
927;106.69769287109375
928;106.49774932861328
929;106.2982177734375
930;106.09906005859375
931;105.90026092529297
932;105.7018814086914
933;105.50386047363281
934;105.30628204345703
935;105.10909271240234
936;104.91234588623047
937;104.71599578857422
938;104.52001190185547
939;104.32445526123047
940;104.12932586669922
941;103.93460845947266
942;103.74024963378906
943;103.54627990722656
944;103.3526840209961
945;103.15947723388672
946;102.96671295166016
947;102.77433013916016
948;102.58232116699219
949;102.39075469970703
950;102.19956970214844
951;102.00873565673828
952;101.81827545166016
953;101.62822723388672
954;101.43861389160156
955;101.24942779541016
956;101.06060028076172
957;100.87208557128906
958;100.6839828491211
959;100.49626159667969
960;100.30892181396484
961;100.1219482421875
962;99.93546295166016
963;99.74933624267578
964;99.56353759765625
965;99.37812042236328
966;99.19316864013672
967;99.00858306884766
968;98.82437896728516
969;98.6405258178711
970;98.45707702636719
971;98.2739486694336
972;98.0912094116211
973;97.9088363647461
974;97.72684478759766
975;97.5452651977539
976;97.36406707763672
977;97.18328857421875
978;97.00279235839844
979;96.82275390625
980;96.6430892944336
981;96.4637222290039
982;96.28472900390625
983;96.10614776611328
984;95.9278793334961
985;95.75004577636719
986;95.57252502441406
987;95.39540100097656
988;95.21864318847656
989;95.04234313964844
990;94.86631774902344
991;94.69072723388672
992;94.51544952392578
993;94.34053039550781
994;94.16597747802734
995;93.99183654785156
996;93.81803894042969
997;93.64457702636719
998;93.47154998779297
999;93.2988052368164
