;loss
0;859.6512451171875
1;858.8811645507812
2;858.1071166992188
3;857.3290405273438
4;856.5466918945312
5;855.7938232421875
6;855.0263671875
7;854.2467041015625
8;853.4560546875
9;852.6549682617188
10;851.8399658203125
11;851.017578125
12;850.1870727539062
13;849.3453979492188
14;848.4970703125
15;847.6390380859375
16;846.763671875
17;845.8759765625
18;844.9834594726562
19;844.06884765625
20;843.1488647460938
21;842.2135620117188
22;841.2510986328125
23;840.2703247070312
24;839.2815551757812
25;838.2601928710938
26;837.2288208007812
27;836.1611328125
28;835.0806274414062
29;833.9728393554688
30;832.822265625
31;831.6538696289062
32;830.4379272460938
33;829.1852416992188
34;827.8931884765625
35;826.5740966796875
36;825.1944580078125
37;823.7816772460938
38;822.3001098632812
39;820.7776489257812
40;819.1937866210938
41;817.5439453125
42;815.8226928710938
43;814.0235595703125
44;812.1400756835938
45;810.1648559570312
46;808.0889892578125
47;805.9035034179688
48;803.5763549804688
49;801.1395263671875
50;798.5340576171875
51;795.7677001953125
52;792.8238525390625
53;789.6825561523438
54;786.3226318359375
55;782.7183837890625
56;778.8743286132812
57;774.693359375
58;770.2069091796875
59;765.3381958007812
60;759.99560546875
61;754.1590576171875
62;747.8158569335938
63;740.8019409179688
64;733.0936279296875
65;724.6281127929688
66;715.4293823242188
67;705.35595703125
68;694.6015625
69;683.2284545898438
70;671.453125
71;659.4785766601562
72;647.7666625976562
73;636.4255981445312
74;625.7265625
75;615.8469848632812
76;606.68896484375
77;598.2808227539062
78;590.5883178710938
79;583.6019897460938
80;577.1555786132812
81;571.2515869140625
82;565.7821044921875
83;560.7552490234375
84;556.0872192382812
85;551.7474975585938
86;547.6754760742188
87;543.8612670898438
88;540.2976684570312
89;536.9407348632812
90;533.7750244140625
91;530.7666015625
92;527.9337158203125
93;525.2312622070312
94;522.6638793945312
95;520.2228393554688
96;517.8740234375
97;515.6172485351562
98;513.4556274414062
99;511.3639831542969
100;509.3482971191406
101;507.40252685546875
102;505.5274963378906
103;503.70758056640625
104;501.9317932128906
105;500.2131042480469
106;498.53173828125
107;496.89208984375
108;495.28997802734375
109;493.72308349609375
110;492.188232421875
111;490.68975830078125
112;489.2187194824219
113;487.7676696777344
114;486.3467102050781
115;484.9490661621094
116;483.56744384765625
117;482.2120666503906
118;480.8759460449219
119;479.55816650390625
120;478.2579650878906
121;476.97418212890625
122;475.7062072753906
123;474.4532775878906
124;473.2101135253906
125;471.9853515625
126;470.7693176269531
127;469.5660705566406
128;468.37506103515625
129;467.20013427734375
130;466.0364074707031
131;464.8796691894531
132;463.7375183105469
133;462.60137939453125
134;461.47509765625
135;460.35845947265625
136;459.2513122558594
137;458.1531066894531
138;457.0671081542969
139;455.9895324707031
140;454.91998291015625
141;453.85833740234375
142;452.8009338378906
143;451.7545471191406
144;450.71240234375
145;449.67742919921875
146;448.65277099609375
147;447.6352233886719
148;446.6247253417969
149;445.617919921875
150;444.6207580566406
151;443.63031005859375
152;442.6462707519531
153;441.66827392578125
154;440.6935729980469
155;439.7248840332031
156;438.7619934082031
157;437.8075866699219
158;436.85845947265625
159;435.9145202636719
160;434.9755859375
161;434.04168701171875
162;433.1100769042969
163;432.18585205078125
164;431.2661437988281
165;430.3484802246094
166;429.4352722167969
167;428.52886962890625
168;427.62689208984375
169;426.7265930175781
170;425.83062744140625
171;424.9388122558594
172;424.0511779785156
173;423.16986083984375
174;422.29248046875
175;421.41680908203125
176;420.54742431640625
177;419.6819763183594
178;418.8180236816406
179;417.9598693847656
180;417.10308837890625
181;416.2521667480469
182;415.40472412109375
183;414.55902099609375
184;413.7168884277344
185;412.8802185058594
186;412.0451354980469
187;411.21539306640625
188;410.3890075683594
189;409.5659484863281
190;408.74609375
191;407.92938232421875
192;407.1157531738281
193;406.30328369140625
194;405.4956359863281
195;404.6890563964844
196;403.88531494140625
197;403.08636474609375
198;402.2901916503906
199;401.4967346191406
200;400.70599365234375
201;399.91796875
202;399.1325988769531
203;398.3498229980469
204;397.569580078125
205;396.7901916503906
206;396.01507568359375
207;395.2425231933594
208;394.47247314453125
209;393.70318603515625
210;392.9377746582031
211;392.17315673828125
212;391.4123840332031
213;390.65234375
214;389.89453125
215;389.1390075683594
216;388.38726806640625
217;387.6361999511719
218;386.8888244628906
219;386.14202880859375
220;385.39739990234375
221;384.6564025878906
222;383.91595458984375
223;383.1790466308594
224;382.4442443847656
225;381.71136474609375
226;380.9806213378906
227;380.2518615722656
228;379.5250549316406
229;378.80023193359375
230;378.0759582519531
231;377.35504150390625
232;376.6347351074219
233;375.9177551269531
234;375.2027282714844
235;374.4895935058594
236;373.7770080566406
237;373.0662536621094
238;372.35748291015625
239;371.6504821777344
240;370.9466857910156
241;370.24334716796875
242;369.54193115234375
243;368.84356689453125
244;368.1459045410156
245;367.451171875
246;366.7581481933594
247;366.06573486328125
248;365.37506103515625
249;364.6861877441406
250;364.0002136230469
251;363.3147277832031
252;362.6310119628906
253;361.95013427734375
254;361.26983642578125
255;360.5912170410156
256;359.9153137207031
257;359.2398986816406
258;358.56719970703125
259;357.89617919921875
260;357.2267761230469
261;356.55889892578125
262;355.8916320800781
263;355.225830078125
264;354.56170654296875
265;353.8991394042969
266;353.2380676269531
267;352.5796813964844
268;351.9217224121094
269;351.266357421875
270;350.6114196777344
271;349.9591369628906
272;349.3072814941406
273;348.6579895019531
274;348.0091247558594
275;347.36273193359375
276;346.71783447265625
277;346.0744323730469
278;345.43255615234375
279;344.791015625
280;344.1519470214844
281;343.5143737792969
282;342.8780822753906
283;342.2433166503906
284;341.6098327636719
285;340.9777526855469
286;340.34710693359375
287;339.7178039550781
288;339.08984375
289;338.4632873535156
290;337.8380432128906
291;337.21319580078125
292;336.5906677246094
293;335.9685363769531
294;335.34869384765625
295;334.729248046875
296;334.1111755371094
297;333.49530029296875
298;332.8799133300781
299;332.26666259765625
300;331.6538391113281
301;331.04327392578125
302;330.43310546875
303;329.8241882324219
304;329.2165832519531
305;328.611083984375
306;328.0060119628906
307;327.4021911621094
308;326.8004455566406
309;326.1999206542969
310;325.6006164550781
311;325.0025939941406
312;324.405029296875
313;323.8094787597656
314;323.21435546875
315;322.6213073730469
316;322.02947998046875
317;321.4381408691406
318;320.8481140136719
319;320.2593078613281
320;319.67254638671875
321;319.0861511230469
322;318.50091552734375
323;317.9168395996094
324;317.333984375
325;316.75225830078125
326;316.17181396484375
327;315.5924377441406
328;315.0141906738281
329;314.4378356933594
330;313.86273193359375
331;313.28875732421875
332;312.7151184082031
333;312.1426696777344
334;311.5713195800781
335;311.00115966796875
336;310.4327697753906
337;309.865478515625
338;309.2986145019531
339;308.733642578125
340;308.1697692871094
341;307.60693359375
342;307.0445251464844
343;306.48388671875
344;305.9244079589844
345;305.365234375
346;304.8071594238281
347;304.25018310546875
348;303.69500732421875
349;303.140869140625
350;302.5877990722656
351;302.0358581542969
352;301.4848937988281
353;300.9350280761719
354;300.3855285644531
355;299.8377380371094
356;299.2903747558594
357;298.7446594238281
358;298.20001220703125
359;297.6564025878906
360;297.11376953125
361;296.571533203125
362;296.0309753417969
363;295.4914245605469
364;294.95220947265625
365;294.4140625
366;293.8774719238281
367;293.3419494628906
368;292.8067932128906
369;292.27264404296875
370;291.7400817871094
371;291.20794677734375
372;290.67681884765625
373;290.1466369628906
374;289.6180419921875
375;289.08984375
376;288.5632019042969
377;288.0375061035156
378;287.5127868652344
379;286.9884948730469
380;286.46514892578125
381;285.9433288574219
382;285.42242431640625
383;284.9025573730469
384;284.3830871582031
385;283.8645324707031
386;283.346923828125
387;282.830810546875
388;282.31512451171875
389;281.80035400390625
390;281.2870788574219
391;280.77471923828125
392;280.26275634765625
393;279.7517395019531
394;279.2421569824219
395;278.7335510253906
396;278.22528076171875
397;277.7179870605469
398;277.21209716796875
399;276.70660400390625
400;276.2020568847656
401;275.6984558105469
402;275.1957092285156
403;274.69390869140625
404;274.1935119628906
405;273.69354248046875
406;273.1949157714844
407;272.697265625
408;272.20050048828125
409;271.7041320800781
410;271.2086486816406
411;270.7145690917969
412;270.22137451171875
413;269.72900390625
414;269.23712158203125
415;268.74658203125
416;268.25640869140625
417;267.76715087890625
418;267.27874755859375
419;266.7917175292969
420;266.30548095703125
421;265.8202209472656
422;265.3357849121094
423;264.8522033691406
424;264.3689880371094
425;263.88714599609375
426;263.4060974121094
427;262.9259948730469
428;262.44671630859375
429;261.96826171875
430;261.4906921386719
431;261.0139465332031
432;260.5376281738281
433;260.0621643066406
434;259.5875549316406
435;259.11419677734375
436;258.6416931152344
437;258.1700744628906
438;257.6987609863281
439;257.2287902832031
440;256.75958251953125
441;256.2912902832031
442;255.8237762451172
443;255.35670471191406
444;254.89083862304688
445;254.42581176757812
446;253.96163940429688
447;253.4982147216797
448;253.03526306152344
449;252.5731201171875
450;252.11178588867188
451;251.6516571044922
452;251.19198608398438
453;250.73350524902344
454;250.27584838867188
455;249.8189697265625
456;249.36251831054688
457;248.9072723388672
458;248.4528045654297
459;247.99916076660156
460;247.54592895507812
461;247.0938720703125
462;246.64222717285156
463;246.19137573242188
464;245.74171447753906
465;245.29244995117188
466;244.84432983398438
467;244.3970184326172
468;243.9505157470703
469;243.5047607421875
470;243.05978393554688
471;242.61521911621094
472;242.17147827148438
473;241.7288360595703
474;241.28662109375
475;240.84518432617188
476;240.4048614501953
477;239.96530151367188
478;239.52658081054688
479;239.08859252929688
480;238.65135192871094
481;238.2145233154297
482;237.77847290039062
483;237.34317016601562
484;236.90896606445312
485;236.47518920898438
486;236.0421600341797
487;235.61026000976562
488;235.17874145507812
489;234.74803161621094
490;234.31808471679688
491;233.88882446289062
492;233.46034240722656
493;233.03257751464844
494;232.6056365966797
495;232.1797332763672
496;231.75454711914062
497;231.3301544189453
498;230.9061279296875
499;230.4828643798828
