;loss
0;882.1024780273438
1;881.5234375
2;880.8545532226562
3;880.0742797851562
4;879.3407592773438
5;878.5576171875
6;877.795654296875
7;877.006591796875
8;876.2238159179688
9;875.4308471679688
10;874.6275024414062
11;873.8119506835938
12;872.986328125
13;872.1515502929688
14;871.305908203125
15;870.4429321289062
16;869.566162109375
17;868.6749877929688
18;867.7684936523438
19;866.8456420898438
20;865.9056396484375
21;864.9470825195312
22;863.9799194335938
23;862.9921875
24;861.9708862304688
25;860.9255981445312
26;859.8673706054688
27;858.7822875976562
28;857.6689453125
29;856.511474609375
30;855.3347778320312
31;854.1234130859375
32;852.8751831054688
33;851.5869750976562
34;850.2411499023438
35;848.8494262695312
36;847.424560546875
37;845.9310302734375
38;844.3807983398438
39;842.7691650390625
40;841.0916137695312
41;839.3427124023438
42;837.5355224609375
43;835.6259155273438
44;833.625
45;831.5238647460938
46;829.3355712890625
47;827.029541015625
48;824.5704956054688
49;821.967041015625
50;819.2301025390625
51;816.3203735351562
52;813.1915893554688
53;809.847900390625
54;806.2670288085938
55;802.4227905273438
56;798.287353515625
57;793.8672485351562
58;789.095947265625
59;783.8960571289062
60;778.269775390625
61;772.23046875
62;765.7047119140625
63;758.671142578125
64;751.1209106445312
65;743.0640258789062
66;734.4754028320312
67;725.54443359375
68;716.30859375
69;706.8269653320312
70;697.3670043945312
71;687.9374389648438
72;678.7237548828125
73;669.8812255859375
74;661.3604736328125
75;653.2593383789062
76;645.5938720703125
77;638.406005859375
78;631.6361083984375
79;625.2686157226562
80;619.2808227539062
81;613.6509399414062
82;608.3241577148438
83;603.3118896484375
84;598.5916137695312
85;594.1683959960938
86;589.9921875
87;586.0225830078125
88;582.2860717773438
89;578.7425537109375
90;575.3619995117188
91;572.1495971679688
92;569.1065063476562
93;566.2056274414062
94;563.4219360351562
95;560.764892578125
96;558.2197875976562
97;555.7794799804688
98;553.4346313476562
99;551.1876220703125
100;549.0091552734375
101;546.914306640625
102;544.88671875
103;542.9212036132812
104;541.0035400390625
105;539.1388549804688
106;537.3241577148438
107;535.5658569335938
108;533.8497924804688
109;532.16552734375
110;530.5183715820312
111;528.9122314453125
112;527.331787109375
113;525.7811889648438
114;524.259521484375
115;522.770751953125
116;521.3009643554688
117;519.8558349609375
118;518.43896484375
119;517.0433959960938
120;515.6622924804688
121;514.3051147460938
122;512.9608154296875
123;511.6341857910156
124;510.3241271972656
125;509.0295715332031
126;507.7543640136719
127;506.4883117675781
128;505.23565673828125
129;504.0003662109375
130;502.7776184082031
131;501.5621337890625
132;500.3579406738281
133;499.1645812988281
134;497.9865417480469
135;496.8152160644531
136;495.6577453613281
137;494.5059509277344
138;493.36737060546875
139;492.2342834472656
140;491.1139831542969
141;489.9984130859375
142;488.8946533203125
143;487.7959899902344
144;486.7088928222656
145;485.6296691894531
146;484.5578308105469
147;483.49334716796875
148;482.4360656738281
149;481.3825988769531
150;480.3394775390625
151;479.3029479980469
152;478.2700500488281
153;477.2436828613281
154;476.22686767578125
155;475.2160339355469
156;474.2113342285156
157;473.2093505859375
158;472.2158203125
159;471.22509765625
160;470.2426452636719
161;469.2628173828125
162;468.2907409667969
163;467.3207092285156
164;466.3555603027344
165;465.39501953125
166;464.4391784667969
167;463.4879150390625
168;462.54376220703125
169;461.60382080078125
170;460.6682434082031
171;459.7344665527344
172;458.8049621582031
173;457.8821105957031
174;456.96075439453125
175;456.04571533203125
176;455.13232421875
177;454.2225646972656
178;453.3188171386719
179;452.4186706542969
180;451.5220031738281
181;450.62664794921875
182;449.7346496582031
183;448.8483581542969
184;447.9654541015625
185;447.0835876464844
186;446.2049865722656
187;445.3318176269531
188;444.4595947265625
189;443.5906982421875
190;442.7248840332031
191;441.8621826171875
192;441.0024719238281
193;440.14776611328125
194;439.2961730957031
195;438.447265625
196;437.59930419921875
197;436.75421142578125
198;435.9139404296875
199;435.07635498046875
200;434.2415771484375
201;433.4094543457031
202;432.5801696777344
203;431.7534484863281
204;430.9276123046875
205;430.1061706542969
206;429.2873229980469
207;428.4693298339844
208;427.6538391113281
209;426.84259033203125
210;426.0321350097656
211;425.2242126464844
212;424.4186706542969
213;423.6172180175781
214;422.8182373046875
215;422.0198974609375
216;421.2255554199219
217;420.4319152832031
218;419.6405944824219
219;418.8516540527344
220;418.0649719238281
221;417.2805480957031
222;416.4999084472656
223;415.7214660644531
224;414.9437255859375
225;414.1695556640625
226;413.3975524902344
227;412.6276550292969
228;411.8583984375
229;411.09259033203125
230;410.3289794921875
231;409.5658264160156
232;408.8061828613281
233;408.04852294921875
234;407.2914733886719
235;406.53778076171875
236;405.7860412597656
237;405.0362243652344
238;404.28839111328125
239;403.5424499511719
240;402.79705810546875
241;402.0548095703125
242;401.3144836425781
243;400.5760803222656
244;399.8381042480469
245;399.1033935546875
246;398.3704833984375
247;397.6379699707031
248;396.9073486328125
249;396.1798095703125
250;395.4528503417969
251;394.7289123535156
252;394.0067443847656
253;393.28631591796875
254;392.56756591796875
255;391.8506164550781
256;391.1353454589844
257;390.4205322265625
258;389.7086181640625
259;388.9984436035156
260;388.2886657714844
261;387.5805358886719
262;386.8741149902344
263;386.17041015625
264;385.4672546386719
265;384.76678466796875
266;384.0669250488281
267;383.36865234375
268;382.6719970703125
269;381.9780578613281
270;381.2845764160156
271;380.59375
272;379.9044189453125
273;379.2167053222656
274;378.5293884277344
275;377.8447265625
276;377.1615905761719
277;376.4789733886719
278;375.79901123046875
279;375.1205139160156
280;374.4435729980469
281;373.76708984375
282;373.0920104980469
283;372.4184265136719
284;371.7463073730469
285;371.0756530761719
286;370.40740966796875
287;369.7406311035156
288;369.0753173828125
289;368.4114074707031
290;367.7489318847656
291;367.0867919921875
292;366.4271240234375
293;365.7677917480469
294;365.1098937988281
295;364.4542236328125
296;363.7990417480469
297;363.14605712890625
298;362.4945068359375
299;361.8433837890625
300;361.1944580078125
301;360.5459899902344
302;359.8988037109375
303;359.2530212402344
304;358.6094055175781
305;357.9671630859375
306;357.326171875
307;356.6864929199219
308;356.0481262207031
309;355.4110412597656
310;354.7743835449219
311;354.13983154296875
312;353.5056457519531
313;352.8736572265625
314;352.2428894042969
315;351.6134033203125
316;350.9851379394531
317;350.35723876953125
318;349.7305908203125
319;349.1059875488281
320;348.4818420410156
321;347.8597412109375
322;347.238037109375
323;346.6183776855469
324;345.9999084472656
325;345.38262939453125
326;344.7657470703125
327;344.1500244140625
328;343.5355529785156
329;342.9222412109375
330;342.3109130859375
331;341.7007141113281
332;341.09173583984375
333;340.4831237792969
334;339.8764343261719
335;339.2701416015625
336;338.6658020019531
337;338.0618896484375
338;337.4598388671875
339;336.85821533203125
340;336.2576904296875
341;335.65911865234375
342;335.0616149902344
343;334.4652404785156
344;333.86932373046875
345;333.2751770019531
346;332.6821594238281
347;332.0895690917969
348;331.4980773925781
349;330.90838623046875
350;330.319091796875
351;329.7308654785156
352;329.1437683105469
353;328.5577087402344
354;327.9734802246094
355;327.3896179199219
356;326.806884765625
357;326.2258605957031
358;325.6459045410156
359;325.06707763671875
360;324.48858642578125
361;323.9118347167969
362;323.3360900878906
363;322.7614440917969
364;322.1878967285156
365;321.61468505859375
366;321.0431823730469
367;320.4727478027344
368;319.9033508300781
369;319.3343200683594
370;318.7663269042969
371;318.1993713378906
372;317.6334228515625
373;317.0691223144531
374;316.5058288574219
375;315.9436340332031
376;315.3823547363281
377;314.821533203125
378;314.2623291015625
379;313.7034912109375
380;313.1462707519531
381;312.5894775390625
382;312.0336608886719
383;311.4788513183594
384;310.92572021484375
385;310.3728942871094
386;309.8216857910156
387;309.27142333984375
388;308.72216796875
389;308.173828125
390;307.6259460449219
391;307.0790710449219
392;306.5330810546875
393;305.9886474609375
394;305.4451599121094
395;304.9020690917969
396;304.3599853515625
397;303.8188171386719
398;303.2791748046875
399;302.74041748046875
400;302.2026672363281
401;301.6658935546875
402;301.1294250488281
403;300.59454345703125
404;300.0605163574219
405;299.52691650390625
406;298.9948425292969
407;298.4631042480469
408;297.9322509765625
409;297.40289306640625
410;296.8744812011719
411;296.3469543457031
412;295.8198547363281
413;295.2941589355469
414;294.7693786621094
415;294.24505615234375
416;293.7215881347656
417;293.1995544433594
418;292.6779479980469
419;292.1571960449219
420;291.6373291015625
421;291.1188659667969
422;290.6013488769531
423;290.0846862792969
424;289.56842041015625
425;289.0535583496094
426;288.5395812988281
427;288.0264892578125
428;287.5142822265625
429;287.0028991699219
430;286.492431640625
431;285.9828796386719
432;285.4740905761719
433;284.9662780761719
434;284.4592590332031
435;283.9526672363281
436;283.4474792480469
437;282.94305419921875
438;282.43951416015625
439;281.9364013671875
440;281.4345397949219
441;280.9335632324219
442;280.4330139160156
443;279.9333190917969
444;279.4348449707031
445;278.9368896484375
446;278.44012451171875
447;277.9437561035156
448;277.44830322265625
449;276.95367431640625
450;276.4603271484375
451;275.9673156738281
452;275.4756164550781
453;274.9847717285156
454;274.4947204589844
455;274.0054931640625
456;273.5171203613281
457;273.0295715332031
458;272.5428466796875
459;272.0565185546875
460;271.5710144042969
461;271.0863037109375
462;270.6028137207031
463;270.11981201171875
464;269.637939453125
465;269.15692138671875
466;268.6767272949219
467;268.1968994140625
468;267.7178955078125
469;267.2401123046875
470;266.76312255859375
471;266.28692626953125
472;265.8111572265625
473;265.3361511230469
474;264.8619689941406
475;264.3885803222656
476;263.9164123535156
477;263.44500732421875
478;262.9743957519531
479;262.5045166015625
480;262.0351257324219
481;261.5668640136719
482;261.0989990234375
483;260.6319580078125
484;260.1656494140625
485;259.7001647949219
486;259.23541259765625
487;258.7718811035156
488;258.3087158203125
489;257.8467102050781
490;257.3851318359375
491;256.9242858886719
492;256.464599609375
493;256.00531005859375
494;255.54678344726562
495;255.08900451660156
496;254.63238525390625
497;254.176513671875
498;253.72103881835938
499;253.26670837402344
