;loss
0;897.1767578125
1;896.6586303710938
2;895.96337890625
3;895.3318481445312
4;894.680908203125
5;894.0178833007812
6;893.3463745117188
7;892.6544799804688
8;891.9723510742188
9;891.2864379882812
10;890.5939331054688
11;889.9015502929688
12;889.2058715820312
13;888.5068359375
14;887.8074340820312
15;887.1050415039062
16;886.3934936523438
17;885.682861328125
18;884.9602661132812
19;884.2385864257812
20;883.510009765625
21;882.76611328125
22;882.0133666992188
23;881.259765625
24;880.4872436523438
25;879.70361328125
26;878.9169311523438
27;878.1078491210938
28;877.284423828125
29;876.45556640625
30;875.600341796875
31;874.7373046875
32;873.8552856445312
33;872.952880859375
34;872.0176391601562
35;871.0690307617188
36;870.0947875976562
37;869.0816040039062
38;868.0494995117188
39;866.9735717773438
40;865.8624877929688
41;864.7254028320312
42;863.535400390625
43;862.3008422851562
44;861.03125
45;859.7103881835938
46;858.3204956054688
47;856.8699340820312
48;855.3679809570312
49;853.7952270507812
50;852.1466674804688
51;850.4152221679688
52;848.593505859375
53;846.6741333007812
54;844.6481323242188
55;842.48681640625
56;840.2160034179688
57;837.7854614257812
58;835.2000122070312
59;832.44384765625
60;829.4996948242188
61;826.372314453125
62;823.01806640625
63;819.3858032226562
64;815.474365234375
65;811.2858276367188
66;806.7638549804688
67;801.841552734375
68;796.5592651367188
69;790.8566284179688
70;784.6689453125
71;778.0678100585938
72;770.9663696289062
73;763.4771118164062
74;755.5973510742188
75;747.3401489257812
76;738.8987426757812
77;730.275146484375
78;721.6904296875
79;713.2089233398438
80;704.88623046875
81;696.8611450195312
82;689.2412109375
83;681.9775390625
84;675.1725463867188
85;668.783935546875
86;662.8038940429688
87;657.1841430664062
88;651.9347534179688
89;647.0551147460938
90;642.4885864257812
91;638.2097778320312
92;634.1953125
93;630.4033203125
94;626.832275390625
95;623.4812622070312
96;620.30029296875
97;617.3151245117188
98;614.495361328125
99;611.8250732421875
100;609.2632446289062
101;606.823974609375
102;604.4808959960938
103;602.2277221679688
104;600.0486450195312
105;597.9506225585938
106;595.9224243164062
107;593.957763671875
108;592.0504760742188
109;590.2024536132812
110;588.4013671875
111;586.63671875
112;584.9196166992188
113;583.2321166992188
114;581.5859985351562
115;579.9713745117188
116;578.3853759765625
117;576.8267211914062
118;575.2874145507812
119;573.7789306640625
120;572.2933349609375
121;570.823486328125
122;569.3792114257812
123;567.9539794921875
124;566.5466918945312
125;565.1513061523438
126;563.7776489257812
127;562.4195556640625
128;561.0712890625
129;559.7422485351562
130;558.427001953125
131;557.1203002929688
132;555.8306274414062
133;554.5530395507812
134;553.2870483398438
135;552.028076171875
136;550.7842407226562
137;549.551025390625
138;548.3238525390625
139;547.1106567382812
140;545.9067993164062
141;544.712158203125
142;543.5263061523438
143;542.3491821289062
144;541.1768188476562
145;540.0165405273438
146;538.8643188476562
147;537.7197875976562
148;536.5794677734375
149;535.449951171875
150;534.32763671875
151;533.2123413085938
152;532.1004028320312
153;530.9949340820312
154;529.899169921875
155;528.8063354492188
156;527.7227172851562
157;526.64501953125
158;525.570068359375
159;524.500732421875
160;523.4370727539062
161;522.3787231445312
162;521.328857421875
163;520.2810668945312
164;519.2412719726562
165;518.2064208984375
166;517.1763305664062
167;516.1510620117188
168;515.1304321289062
169;514.1115112304688
170;513.09716796875
171;512.090087890625
172;511.0874938964844
173;510.0889587402344
174;509.0948181152344
175;508.1022033691406
176;507.1161193847656
177;506.1316223144531
178;505.153564453125
179;504.1769104003906
180;503.2041931152344
181;502.2376403808594
182;501.2749938964844
183;500.3134765625
184;499.3556823730469
185;498.4036865234375
186;497.4552307128906
187;496.5103759765625
188;495.5691833496094
189;494.6292419433594
190;493.6949768066406
191;492.7621154785156
192;491.8350524902344
193;490.9114074707031
194;489.989013671875
195;489.0698547363281
196;488.1541442871094
197;487.2418518066406
198;486.3350830078125
199;485.4315490722656
200;484.5311584472656
201;483.6336975097656
202;482.7372741699219
203;481.8437805175781
204;480.9532470703125
205;480.0674133300781
206;479.1843566894531
207;478.30224609375
208;477.4247741699219
209;476.5481872558594
210;475.6742248535156
211;474.804931640625
212;473.9380798339844
213;473.0719299316406
214;472.2100830078125
215;471.3507995605469
216;470.4920959472656
217;469.6376647949219
218;468.7839050292969
219;467.934326171875
220;467.087158203125
221;466.2422790527344
222;465.3998107910156
223;464.5596008300781
224;463.7200012207031
225;462.88427734375
226;462.0509338378906
227;461.2181091308594
228;460.38916015625
229;459.5623779296875
230;458.7364196777344
231;457.9125671386719
232;457.0924987792969
233;456.2745361328125
234;455.458740234375
235;454.6451110839844
236;453.8321228027344
237;453.022705078125
238;452.2154235839844
239;451.40869140625
240;450.6040344238281
241;449.8014221191406
242;449.00244140625
243;448.2053527832031
244;447.4104919433594
245;446.6175537109375
246;445.8266906738281
247;445.0377502441406
248;444.2508850097656
249;443.4659118652344
250;442.6828918457031
251;441.9004821777344
252;441.119873046875
253;440.3424987792969
254;439.5670166015625
255;438.7921142578125
256;438.0204162597656
257;437.2504577636719
258;436.4811096191406
259;435.7149353027344
260;434.9491882324219
261;434.1853332519531
262;433.4244689941406
263;432.6641540527344
264;431.9068298339844
265;431.1512451171875
266;430.3961181640625
267;429.6439514160156
268;428.8934631347656
269;428.1446838378906
270;427.3963928222656
271;426.6509094238281
272;425.9071350097656
273;425.1649475097656
274;424.4244689941406
275;423.6843566894531
276;422.9459533691406
277;422.2102966308594
278;421.4750671386719
279;420.7425842285156
280;420.0116271972656
281;419.28125
282;418.5523376464844
283;417.8250427246094
284;417.100341796875
285;416.3761291503906
286;415.6534729003906
287;414.9322509765625
288;414.2137756347656
289;413.4956970214844
290;412.7801513671875
291;412.0650329589844
292;411.3525390625
293;410.6415100097656
294;409.9308776855469
295;409.2227478027344
296;408.51611328125
297;407.8108215332031
298;407.1070861816406
299;406.4037780761719
300;405.7018127441406
301;405.0023498535156
302;404.3033447265625
303;403.6057434082031
304;402.9095153808594
305;402.2156677246094
306;401.5232849121094
307;400.8321838378906
308;400.1415710449219
309;399.4523010253906
310;398.7644348144531
311;398.0779724121094
312;397.3937072753906
313;396.7109069824219
314;396.0284729003906
315;395.3473815917969
316;394.6676330566406
317;393.9893493652344
318;393.3131408691406
319;392.6383361816406
320;391.9638977050781
321;391.2917175292969
322;390.619873046875
323;389.949462890625
324;389.2802734375
325;388.6132507324219
326;387.947509765625
327;387.2821960449219
328;386.6181335449219
329;385.9562072753906
330;385.2955322265625
331;384.6361389160156
332;383.97802734375
333;383.3202819824219
334;382.6646423339844
335;382.0094299316406
336;381.3562927246094
337;380.704345703125
338;380.0536193847656
339;379.4034423828125
340;378.7552185058594
341;378.108154296875
342;377.4615783691406
343;376.8169860839844
344;376.173583984375
345;375.5306396484375
346;374.8888244628906
347;374.2490539550781
348;373.6104431152344
349;372.9722595214844
350;372.3359680175781
351;371.7008972167969
352;371.0669860839844
353;370.4342041015625
354;369.8025817871094
355;369.172119140625
356;368.5428466796875
357;367.9146728515625
358;367.2877197265625
359;366.661865234375
360;366.0364074707031
361;365.412109375
362;364.7897033691406
363;364.1683654785156
364;363.5482177734375
365;362.9291076660156
366;362.3111267089844
367;361.6942443847656
368;361.0785217285156
369;360.4638977050781
370;359.850341796875
371;359.2378845214844
372;358.6258544921875
373;358.0155944824219
374;357.4064025878906
375;356.7982482910156
376;356.1912536621094
377;355.5852966308594
378;354.9797668457031
379;354.3759460449219
380;353.7725524902344
381;353.1702575683594
382;352.5690002441406
383;351.9693908691406
384;351.3703308105469
385;350.7722473144531
386;350.1758728027344
387;349.5805358886719
388;348.985595703125
389;348.3917236328125
390;347.7995300292969
391;347.2076721191406
392;346.6169128417969
393;346.0278015136719
394;345.439697265625
395;344.8519592285156
396;344.2658996582031
397;343.6802673339844
398;343.09619140625
399;342.5126037597656
400;341.9306335449219
401;341.3496398925781
402;340.7696838378906
403;340.1907043457031
404;339.6121520996094
405;339.0351257324219
406;338.4591064453125
407;337.8841247558594
408;337.3095703125
409;336.7359313964844
410;336.1633605957031
411;335.59173583984375
412;335.0216369628906
413;334.45196533203125
414;333.8833312988281
415;333.316162109375
416;332.75
417;332.1842041015625
418;331.6199645996094
419;331.0566711425781
420;330.4942932128906
421;329.9328918457031
422;329.3724365234375
423;328.81298828125
424;328.2544250488281
425;327.6963195800781
426;327.1396789550781
427;326.583984375
428;326.0287170410156
429;325.4748840332031
430;324.9219665527344
431;324.3695373535156
432;323.8184814453125
433;323.26788330078125
434;322.7181701660156
435;322.169921875
436;321.6221008300781
437;321.07513427734375
438;320.52911376953125
439;319.9840087890625
440;319.4398498535156
441;318.8970642089844
442;318.3551330566406
443;317.8141784667969
444;317.27410888671875
445;316.7344055175781
446;316.1957092285156
447;315.6578369140625
448;315.120849609375
449;314.5847473144531
450;314.04962158203125
451;313.5152893066406
452;312.9823303222656
453;312.4502868652344
454;311.9190979003906
455;311.3887939453125
456;310.859375
457;310.3307800292969
458;309.8031005859375
459;309.2763366699219
460;308.7499084472656
461;308.224365234375
462;307.69970703125
463;307.1763610839844
464;306.6538391113281
465;306.1322326660156
466;305.6109924316406
467;305.09063720703125
468;304.5711669921875
469;304.052978515625
470;303.5351867675781
471;303.0187072753906
472;302.5025939941406
473;301.9873962402344
474;301.4729919433594
475;300.9598693847656
476;300.4475402832031
477;299.9361267089844
478;299.4255065917969
479;298.915283203125
480;298.4063415527344
481;297.8982849121094
482;297.39056396484375
483;296.8836975097656
484;296.3776550292969
485;295.8724670410156
486;295.3680725097656
487;294.8645324707031
488;294.3622131347656
489;293.8602600097656
490;293.35955810546875
491;292.8592834472656
492;292.3601989746094
493;291.8619384765625
494;291.3641052246094
495;290.8670654296875
496;290.370849609375
497;289.8753967285156
498;289.3811950683594
499;288.8877868652344
500;288.3947448730469
501;287.9029235839844
502;287.4118957519531
503;286.9212951660156
504;286.4314880371094
505;285.94244384765625
506;285.4542236328125
507;284.9667663574219
508;284.4801330566406
509;283.99462890625
510;283.50994873046875
511;283.0260009765625
512;282.54254150390625
513;282.0601501464844
514;281.5782165527344
515;281.0970458984375
516;280.6166687011719
517;280.1371154785156
518;279.6582946777344
519;279.1802062988281
520;278.70330810546875
521;278.2271423339844
522;277.7517395019531
523;277.277099609375
524;276.8029479980469
525;276.3298645019531
526;275.8575134277344
527;275.3855895996094
528;274.9144592285156
529;274.4444274902344
530;273.97479248046875
531;273.50628662109375
532;273.0381774902344
533;272.5711364746094
534;272.1045227050781
535;271.638671875
536;271.1739196777344
537;270.70953369140625
538;270.2459411621094
539;269.7830810546875
540;269.3210144042969
541;268.8599548339844
542;268.3993225097656
543;267.9397888183594
544;267.4806213378906
545;267.0222473144531
546;266.56488037109375
547;266.1082763671875
548;265.652099609375
549;265.1969909667969
550;264.7425842285156
551;264.28887939453125
552;263.8356018066406
553;263.3830871582031
554;262.9313049316406
555;262.48052978515625
556;262.0301818847656
557;261.58056640625
558;261.1316833496094
559;260.6835021972656
560;260.2360534667969
561;259.789306640625
562;259.34332275390625
563;258.8979797363281
564;258.4537353515625
565;258.0098571777344
566;257.5666809082031
567;257.1242370605469
568;256.6828308105469
569;256.2417907714844
570;255.80149841308594
571;255.3618927001953
572;254.9230194091797
573;254.485107421875
574;254.0479278564453
575;253.6114501953125
576;253.1753387451172
577;252.73997497558594
578;252.30555725097656
579;251.87159729003906
580;251.43833923339844
581;251.0057373046875
582;250.5738525390625
583;250.1426544189453
584;249.7122039794922
585;249.2823944091797
586;248.85353088378906
587;248.42515563964844
588;247.99737548828125
589;247.57032775878906
590;247.1442413330078
591;246.7185821533203
592;246.29383850097656
593;245.8695526123047
594;245.4462127685547
595;245.0232696533203
596;244.6010284423828
597;244.17967224121094
598;243.75901794433594
599;243.33880615234375
600;242.9195098876953
601;242.5009002685547
602;242.0829315185547
603;241.6656951904297
604;241.2488250732422
605;240.8328857421875
606;240.41761779785156
607;240.00299072265625
608;239.5890655517578
609;239.1758270263672
610;238.7629852294922
611;238.35105895996094
612;237.9395294189453
613;237.5286407470703
614;237.1184844970703
615;236.70892333984375
616;236.30029296875
617;235.892333984375
618;235.4850311279297
619;235.078125
620;234.671875
621;234.26625061035156
622;233.861328125
623;233.45729064941406
624;233.0538787841797
625;232.6511688232422
626;232.2490234375
627;231.8476104736328
628;231.44677734375
629;231.04661560058594
630;230.6468963623047
631;230.24803161621094
632;229.8497772216797
633;229.45220947265625
634;229.0552520751953
635;228.65895080566406
636;228.2630615234375
637;227.86781311035156
638;227.4732208251953
639;227.0794677734375
640;226.6861114501953
641;226.29364013671875
642;225.9015655517578
643;225.5101318359375
644;225.11932373046875
645;224.72938537597656
646;224.33984375
647;223.950927734375
648;223.56263732910156
649;223.17498779296875
650;222.7879638671875
651;222.4017791748047
652;222.0161895751953
653;221.6312713623047
654;221.2469940185547
655;220.86305236816406
656;220.47999572753906
657;220.0975341796875
658;219.71568298339844
659;219.33447265625
660;218.9536895751953
661;218.57373046875
662;218.19435119628906
663;217.8155975341797
664;217.4374542236328
665;217.0599365234375
666;216.68284606933594
667;216.3063201904297
668;215.93043518066406
669;215.5551300048828
670;215.1806640625
671;214.8068084716797
672;214.4335174560547
673;214.0608673095703
674;213.68861389160156
675;213.31719970703125
676;212.9463348388672
677;212.57591247558594
678;212.20606994628906
679;211.8370361328125
680;211.4684295654297
681;211.10057067871094
682;210.7331085205078
683;210.3663330078125
684;210.0000762939453
685;209.6346435546875
686;209.2698211669922
687;208.905517578125
688;208.5418243408203
689;208.17860412597656
690;207.8161163330078
691;207.4542236328125
692;207.0928955078125
693;206.7320098876953
694;206.37171936035156
695;206.01219177246094
696;205.65306091308594
697;205.2945098876953
698;204.93653869628906
699;204.57933044433594
700;204.22254943847656
701;203.86651611328125
702;203.5108642578125
703;203.156005859375
704;202.8017120361328
705;202.44786071777344
706;202.09454345703125
707;201.7418212890625
708;201.38983154296875
709;201.0384521484375
710;200.6874542236328
711;200.33702087402344
712;199.9871826171875
713;199.63807678222656
714;199.2893829345703
715;198.94126892089844
716;198.5937042236328
717;198.2467041015625
718;197.90045166015625
719;197.5547637939453
720;197.2095184326172
721;196.86492919921875
722;196.5207977294922
723;196.17738342285156
724;195.83436584472656
725;195.49192810058594
726;195.1500244140625
727;194.8086700439453
728;194.46812438964844
729;194.1278839111328
730;193.7884063720703
731;193.44932556152344
732;193.11097717285156
733;192.7729949951172
734;192.43560791015625
735;192.0987091064453
736;191.7625732421875
737;191.4268341064453
738;191.0916748046875
739;190.7570343017578
740;190.42311096191406
741;190.08958435058594
742;189.7566375732422
743;189.42431640625
744;189.09246826171875
745;188.7613067626953
746;188.4305419921875
747;188.1002655029297
748;187.770751953125
749;187.4417724609375
750;187.1133270263672
751;186.7852783203125
752;186.4578094482422
753;186.13096618652344
754;185.8045196533203
755;185.4786834716797
756;185.1534881591797
757;184.8288116455078
758;184.50457763671875
759;184.1808624267578
760;183.8578338623047
761;183.5352783203125
762;183.21319580078125
763;182.8917694091797
764;182.57090759277344
765;182.25038146972656
766;181.93055725097656
767;181.61126708984375
768;181.29249572753906
769;180.97425842285156
770;180.6565704345703
771;180.33937072753906
772;180.02259826660156
773;179.7063446044922
774;179.39060974121094
775;179.07542419433594
776;178.76087951660156
777;178.44671630859375
778;178.13323974609375
779;177.8201446533203
780;177.50758361816406
781;177.195556640625
782;176.8839874267578
783;176.5731201171875
784;176.26263427734375
785;175.9526824951172
786;175.64337158203125
787;175.3345947265625
788;175.02618408203125
789;174.71827697753906
790;174.41102600097656
791;174.1043243408203
792;173.7979736328125
793;173.4921417236328
794;173.1868438720703
795;172.8821563720703
796;172.5780029296875
797;172.2743682861328
798;171.97108459472656
799;171.66831970214844
800;171.36619567871094
801;171.0646209716797
802;170.76348876953125
803;170.46292114257812
804;170.1627197265625
805;169.86302185058594
806;169.56382751464844
807;169.2650909423828
808;168.96693420410156
809;168.6693572998047
810;168.37229919433594
811;168.0756072998047
812;167.7794647216797
813;167.4837646484375
814;167.188720703125
815;166.8941650390625
816;166.60008239746094
817;166.3065185546875
818;166.01336669921875
819;165.7206573486328
820;165.4285888671875
821;165.13690185546875
822;164.84585571289062
823;164.5552520751953
824;164.26515197753906
825;163.97557067871094
826;163.6864471435547
827;163.39772033691406
828;163.1095733642578
829;162.8218536376953
830;162.5347137451172
831;162.24789428710938
832;161.96160888671875
833;161.6758575439453
834;161.39053344726562
835;161.1058349609375
836;160.8216094970703
837;160.53787231445312
838;160.2545928955078
839;159.9718475341797
840;159.6895751953125
841;159.40765380859375
842;159.12635803222656
843;158.84547424316406
844;158.5651092529297
845;158.28514099121094
846;158.0057373046875
847;157.72682189941406
848;157.44827270507812
849;157.17031860351562
850;156.89280700683594
851;156.61570739746094
852;156.3391571044922
853;156.06298828125
854;155.78738403320312
855;155.5122833251953
856;155.23756408691406
857;154.96339416503906
858;154.68968200683594
859;154.41636657714844
860;154.14353942871094
861;153.87110900878906
862;153.59930419921875
863;153.3279266357422
864;153.05694580078125
865;152.78656005859375
866;152.5166473388672
867;152.2471466064453
868;151.97804260253906
869;151.70947265625
870;151.4412841796875
871;151.173583984375
872;150.90635681152344
873;150.63963317871094
874;150.37339782714844
875;150.10751342773438
876;149.84213256835938
877;149.57728576660156
878;149.31289672851562
879;149.04896545410156
880;148.78549194335938
881;148.52247619628906
882;148.2599334716797
883;147.9976806640625
884;147.73606872558594
885;147.4747772216797
886;147.2140350341797
887;146.95375061035156
888;146.69393920898438
889;146.43446350097656
890;146.17543029785156
891;145.91697692871094
892;145.6589813232422
893;145.40138244628906
894;145.14419555664062
895;144.8875274658203
896;144.6312713623047
897;144.37542724609375
898;144.12010192871094
899;143.86521911621094
900;143.61070251464844
901;143.35659790039062
902;143.1030731201172
903;142.84999084472656
904;142.5973358154297
905;142.34503173828125
906;142.09324645996094
907;141.84193420410156
908;141.5909881591797
909;141.3405303955078
910;141.0905303955078
911;140.84092712402344
912;140.5918426513672
913;140.34315490722656
914;140.0948944091797
915;139.84703063964844
916;139.5995635986328
917;139.35264587402344
918;139.1061248779297
919;138.8600616455078
920;138.61444091796875
921;138.36924743652344
922;138.12445068359375
923;137.8800811767578
924;137.63609313964844
925;137.3926239013672
926;137.14959716796875
927;136.90692138671875
928;136.6647186279297
929;136.42291259765625
930;136.1815948486328
931;135.94068908691406
932;135.70025634765625
933;135.46022033691406
934;135.2206573486328
935;134.9813690185547
936;134.74256896972656
937;134.504150390625
938;134.2661895751953
939;134.02865600585938
940;133.79161071777344
941;133.55502319335938
942;133.31871032714844
943;133.0829315185547
944;132.8475341796875
945;132.61253356933594
946;132.3780059814453
947;132.14390563964844
948;131.91018676757812
949;131.67691040039062
950;131.44407653808594
951;131.21156311035156
952;130.97947692871094
953;130.747802734375
954;130.5165557861328
955;130.2857208251953
956;130.05528259277344
957;129.8253173828125
958;129.59580993652344
959;129.36659240722656
960;129.13783264160156
961;128.90953063964844
962;128.6815643310547
963;128.45404052734375
964;128.2269287109375
965;128.00022888183594
966;127.77404022216797
967;127.54817962646484
968;127.32275390625
969;127.09765625
970;126.87297821044922
971;126.64874267578125
972;126.42493438720703
973;126.20154571533203
974;125.9784927368164
975;125.75589752197266
976;125.53369903564453
977;125.3119125366211
978;125.09054565429688
979;124.86959075927734
980;124.64896392822266
981;124.42880249023438
982;124.2090072631836
983;123.98953247070312
984;123.77056121826172
985;123.55191040039062
986;123.3337173461914
987;123.11597442626953
988;122.8985595703125
989;122.68160247802734
990;122.46490478515625
991;122.24871063232422
992;122.03286743164062
993;121.81744384765625
994;121.60244750976562
995;121.38774871826172
996;121.1734390258789
997;120.9595947265625
998;120.7461166381836
999;120.53304290771484
1000;120.32034301757812
1001;120.10799407958984
1002;119.8960952758789
1003;119.68453979492188
1004;119.47344970703125
1005;119.26274871826172
1006;119.05239868164062
1007;118.84243774414062
1008;118.6328353881836
1009;118.42361450195312
1010;118.21475219726562
1011;118.00627899169922
1012;117.79821014404297
1013;117.59056854248047
1014;117.38326263427734
1015;117.1764144897461
1016;116.96984100341797
1017;116.7637710571289
1018;116.55804443359375
1019;116.35262298583984
1020;116.1476058959961
1021;115.94303131103516
1022;115.73877716064453
1023;115.53488159179688
1024;115.3314208984375
1025;115.1283187866211
1026;114.9256362915039
1027;114.72323608398438
1028;114.52133178710938
1029;114.31973266601562
1030;114.1185302734375
1031;113.91771697998047
1032;113.7172622680664
1033;113.5171890258789
1034;113.31743621826172
1035;113.11808013916016
1036;112.91915130615234
1037;112.72049713134766
1038;112.52227783203125
1039;112.324462890625
1040;112.12694549560547
1041;111.9297866821289
1042;111.73306274414062
1043;111.53670501708984
1044;111.34066009521484
1045;111.14501953125
1046;110.94976806640625
1047;110.7548599243164
1048;110.56029510498047
1049;110.3661117553711
1050;110.17229461669922
1051;109.9788589477539
1052;109.78577423095703
1053;109.593017578125
1054;109.40067291259766
1055;109.2086181640625
1056;109.01696014404297
1057;108.82565307617188
1058;108.63475799560547
1059;108.44424438476562
1060;108.2540054321289
1061;108.06420135498047
1062;107.87469482421875
1063;107.68560028076172
1064;107.49686431884766
1065;107.3084716796875
1066;107.12039947509766
1067;106.93268585205078
1068;106.74533081054688
1069;106.55841064453125
1070;106.37178802490234
1071;106.185546875
1072;105.99959564208984
1073;105.81404876708984
1074;105.62884521484375
1075;105.4439468383789
1076;105.25948333740234
1077;105.07530975341797
1078;104.89151000976562
1079;104.70807647705078
1080;104.52496337890625
1081;104.3421859741211
1082;104.15978240966797
1083;103.97774505615234
1084;103.79598999023438
1085;103.61468505859375
1086;103.43366241455078
1087;103.25299072265625
1088;103.0726547241211
1089;102.89273071289062
1090;102.71304321289062
1091;102.53375244140625
1092;102.35479736328125
1093;102.17618560791016
1094;101.9979019165039
1095;101.81997680664062
1096;101.64241790771484
1097;101.46515655517578
1098;101.28829956054688
1099;101.11177825927734
1100;100.9355697631836
1101;100.7596664428711
1102;100.58414459228516
1103;100.4089584350586
1104;100.23416900634766
1105;100.05963897705078
1106;99.88552856445312
1107;99.71166229248047
1108;99.53813934326172
1109;99.364990234375
1110;99.19222259521484
1111;99.01970672607422
1112;98.84754180908203
1113;98.67569732666016
1114;98.50421905517578
1115;98.33309936523438
1116;98.16229248046875
1117;97.99179077148438
1118;97.82161712646484
1119;97.65179443359375
1120;97.48226165771484
1121;97.3131332397461
1122;97.14429473876953
1123;96.97576904296875
1124;96.80760955810547
1125;96.6397933959961
1126;96.47228240966797
1127;96.30511474609375
1128;96.1383056640625
1129;95.97173309326172
1130;95.8055419921875
1131;95.63968658447266
1132;95.4740982055664
1133;95.3088607788086
1134;95.14398956298828
1135;94.97940826416016
1136;94.815185546875
1137;94.6512222290039
1138;94.48761749267578
1139;94.3243408203125
1140;94.16141510009766
1141;93.99874114990234
1142;93.83639526367188
1143;93.6744155883789
1144;93.51274871826172
1145;93.35134887695312
1146;93.19027709960938
1147;93.029541015625
1148;92.8691635131836
1149;92.70906829833984
1150;92.54931640625
1151;92.38983917236328
1152;92.230712890625
1153;92.07190704345703
1154;91.91336059570312
1155;91.75519561767578
1156;91.59729766845703
1157;91.43975830078125
1158;91.28247833251953
1159;91.12552642822266
1160;90.96886444091797
1161;90.81253814697266
1162;90.65654754638672
1163;90.5008773803711
1164;90.345458984375
1165;90.19037628173828
1166;90.03560638427734
1167;89.88113403320312
1168;89.72696685791016
1169;89.57318115234375
1170;89.41963958740234
1171;89.26639556884766
1172;89.1135025024414
1173;88.96087646484375
1174;88.80854034423828
1175;88.65655517578125
1176;88.50482940673828
1177;88.35342407226562
1178;88.20230865478516
1179;88.05157470703125
1180;87.9011001586914
1181;87.75091552734375
1182;87.60102081298828
1183;87.45148468017578
1184;87.30220794677734
1185;87.15328216552734
1186;87.00460052490234
1187;86.85626220703125
1188;86.70818328857422
1189;86.56039428710938
1190;86.4129638671875
1191;86.26575469970703
1192;86.11890411376953
1193;85.97232055664062
1194;85.8260498046875
1195;85.6800765991211
1196;85.534423828125
1197;85.3890609741211
1198;85.24395751953125
1199;85.09913635253906
1200;84.95465850830078
1201;84.8104248046875
1202;84.66649627685547
1203;84.52291870117188
1204;84.37960052490234
1205;84.2365493774414
1206;84.09381866455078
1207;83.95137023925781
1208;83.80919647216797
1209;83.6673583984375
1210;83.5257568359375
1211;83.38446807861328
1212;83.24347686767578
1213;83.10275268554688
1214;82.96231842041016
1215;82.82218933105469
1216;82.68233489990234
1217;82.54279327392578
1218;82.40357208251953
1219;82.26458740234375
1220;82.12584686279297
1221;81.98741912841797
1222;81.84928894042969
1223;81.71143341064453
1224;81.57392120361328
1225;81.43661499023438
1226;81.29962921142578
1227;81.1629409790039
1228;81.02649688720703
1229;80.89034271240234
1230;80.75450897216797
1231;80.61893463134766
1232;80.483642578125
1233;80.34864044189453
1234;80.2138900756836
1235;80.07943725585938
1236;79.94527435302734
1237;79.8113784790039
1238;79.67774963378906
1239;79.54444122314453
1240;79.41136932373047
1241;79.27857208251953
1242;79.14608001708984
1243;79.01386260986328
1244;78.88190460205078
1245;78.7502212524414
1246;78.61883544921875
1247;78.4876937866211
1248;78.35684967041016
1249;78.22626495361328
1250;78.09596252441406
1251;77.9659423828125
1252;77.83618927001953
1253;77.70670318603516
1254;77.57748413085938
1255;77.44856262207031
1256;77.31990051269531
1257;77.19149017333984
1258;77.06331634521484
1259;76.93543243408203
1260;76.807861328125
1261;76.68053436279297
1262;76.55349731445312
1263;76.42668914794922
1264;76.3001708984375
1265;76.17391204833984
1266;76.04792022705078
1267;75.92220306396484
1268;75.79676055908203
1269;75.67157745361328
1270;75.546630859375
1271;75.42198181152344
1272;75.29759216308594
1273;75.17345428466797
1274;75.04956817626953
1275;74.92594909667969
1276;74.80257415771484
1277;74.67949676513672
1278;74.55670166015625
1279;74.43412017822266
1280;74.31183624267578
1281;74.18976593017578
1282;74.0679931640625
1283;73.9465103149414
1284;73.82524108886719
1285;73.7042465209961
1286;73.5834732055664
1287;73.46300506591797
1288;73.3427963256836
1289;73.22280883789062
1290;73.10308074951172
1291;72.98361206054688
1292;72.8644027709961
1293;72.7454605102539
1294;72.62676239013672
1295;72.50830841064453
1296;72.39014434814453
1297;72.27220916748047
1298;72.15455627441406
1299;72.03714752197266
1300;71.91999053955078
1301;71.8030776977539
1302;71.68639373779297
1303;71.57001495361328
1304;71.45382690429688
1305;71.33792877197266
1306;71.2222671508789
1307;71.10688018798828
1308;70.99172973632812
1309;70.87680053710938
1310;70.76214599609375
1311;70.64769744873047
1312;70.5335464477539
1313;70.41963958740234
1314;70.30596160888672
1315;70.19255828857422
1316;70.07937622070312
1317;69.9664535522461
1318;69.85374450683594
1319;69.74130249023438
1320;69.6291275024414
1321;69.5171890258789
1322;69.4054946899414
1323;69.2940444946289
1324;69.18282318115234
1325;69.07186126708984
1326;68.96113586425781
1327;68.85066986083984
1328;68.74044036865234
1329;68.63043975830078
1330;68.52064514160156
1331;68.41114044189453
1332;68.30184936523438
1333;68.19282531738281
1334;68.08405303955078
1335;67.97550201416016
1336;67.86714935302734
1337;67.75908660888672
1338;67.6512451171875
1339;67.54363250732422
1340;67.43628692626953
1341;67.32915496826172
1342;67.22225189208984
1343;67.1155776977539
1344;67.0091552734375
1345;66.90296173095703
1346;66.7970199584961
1347;66.6913070678711
1348;66.5858154296875
1349;66.4805679321289
1350;66.37552642822266
1351;66.27074432373047
1352;66.16619873046875
1353;66.06189727783203
1354;65.95781707763672
1355;65.85397338867188
1356;65.7503662109375
1357;65.6469497680664
1358;65.5438003540039
1359;65.44084930419922
1360;65.33817291259766
1361;65.23571014404297
1362;65.13346099853516
1363;65.03144836425781
1364;64.92965698242188
1365;64.82809448242188
1366;64.72675323486328
1367;64.62564849853516
1368;64.5247802734375
1369;64.42410278320312
1370;64.32369232177734
1371;64.22349548339844
1372;64.12352752685547
1373;64.02377319335938
1374;63.92422866821289
1375;63.82493591308594
1376;63.7258415222168
1377;63.62697219848633
1378;63.52833938598633
1379;63.4299430847168
1380;63.33172607421875
1381;63.23374938964844
1382;63.135986328125
1383;63.03847885131836
1384;62.94117736816406
1385;62.84408950805664
1386;62.74723434448242
1387;62.65058517456055
1388;62.554141998291016
1389;62.457916259765625
1390;62.3619499206543
1391;62.26619338989258
1392;62.17063903808594
1393;62.07530212402344
1394;61.980194091796875
1395;61.88530349731445
1396;61.79059982299805
1397;61.696109771728516
1398;61.60188293457031
1399;61.507843017578125
1400;61.41401290893555
1401;61.320404052734375
1402;61.22703170776367
1403;61.13383102416992
1404;61.04086685180664
1405;60.94810104370117
1406;60.85557174682617
1407;60.76322555541992
1408;60.671142578125
1409;60.5792236328125
1410;60.4875373840332
1411;60.39603805541992
1412;60.30476760864258
1413;60.21369934082031
1414;60.12282180786133
1415;60.03219985961914
1416;59.9417839050293
1417;59.8515510559082
1418;59.76152420043945
1419;59.67173385620117
1420;59.582122802734375
1421;59.49272155761719
1422;59.403533935546875
1423;59.31455612182617
1424;59.22578430175781
1425;59.137237548828125
1426;59.04886245727539
1427;58.9607048034668
1428;58.87274169921875
1429;58.78500747680664
1430;58.697452545166016
1431;58.610107421875
1432;58.5229606628418
1433;58.43605041503906
1434;58.34933090209961
1435;58.2628059387207
1436;58.176483154296875
1437;58.09036636352539
1438;58.00444030761719
1439;57.91872024536133
1440;57.833187103271484
1441;57.747859954833984
1442;57.662723541259766
1443;57.57780456542969
1444;57.49308395385742
1445;57.40855026245117
1446;57.32421875
1447;57.240081787109375
1448;57.15616226196289
1449;57.07242965698242
1450;56.988895416259766
1451;56.90556716918945
1452;56.82243728637695
1453;56.73948669433594
1454;56.65671920776367
1455;56.57417297363281
1456;56.4918212890625
1457;56.40964889526367
1458;56.32768630981445
1459;56.24591064453125
1460;56.164310455322266
1461;56.08293151855469
1462;56.00172805786133
1463;55.92073440551758
1464;55.839908599853516
1465;55.75929641723633
1466;55.67885208129883
1467;55.5986442565918
1468;55.518585205078125
1469;55.438720703125
1470;55.35908126831055
1471;55.27961730957031
1472;55.20034408569336
1473;55.12123107910156
1474;55.0423469543457
1475;54.9636116027832
1476;54.885101318359375
1477;54.806758880615234
1478;54.72861862182617
1479;54.65066909790039
1480;54.5728759765625
1481;54.49528884887695
1482;54.41789245605469
1483;54.3406982421875
1484;54.26364517211914
1485;54.18680953979492
1486;54.11012268066406
1487;54.03364181518555
1488;53.95736312866211
1489;53.88125228881836
1490;53.80532455444336
1491;53.72958755493164
1492;53.65403366088867
1493;53.57863998413086
1494;53.50343704223633
1495;53.42842102050781
1496;53.35359573364258
1497;53.2789421081543
1498;53.20445251464844
1499;53.13015365600586
1500;53.056060791015625
1501;52.982120513916016
1502;52.90837097167969
1503;52.83480453491211
1504;52.76141357421875
1505;52.68821716308594
1506;52.61518859863281
1507;52.54232406616211
1508;52.46964645385742
1509;52.39712905883789
1510;52.3248291015625
1511;52.2526741027832
1512;52.18071365356445
1513;52.10890579223633
1514;52.03729248046875
1515;51.96585464477539
1516;51.894596099853516
1517;51.8234977722168
1518;51.75257873535156
1519;51.681827545166016
1520;51.611270904541016
1521;51.54086685180664
1522;51.47064208984375
1523;51.40060806274414
1524;51.33071517944336
1525;51.26103210449219
1526;51.19146728515625
1527;51.122127532958984
1528;51.05292892456055
1529;50.983917236328125
1530;50.915069580078125
1531;50.84639358520508
1532;50.777896881103516
1533;50.70955276489258
1534;50.64138412475586
1535;50.57338333129883
1536;50.505550384521484
1537;50.437896728515625
1538;50.37041091918945
1539;50.30308151245117
1540;50.23592758178711
1541;50.16892623901367
1542;50.10211181640625
1543;50.03544998168945
1544;49.96896743774414
1545;49.90263366699219
1546;49.83647155761719
1547;49.77048110961914
1548;49.704654693603516
1549;49.63899230957031
1550;49.573490142822266
1551;49.50815200805664
1552;49.4429931640625
1553;49.37797546386719
1554;49.31312561035156
1555;49.24845886230469
1556;49.18394088745117
1557;49.11957931518555
1558;49.055389404296875
1559;48.99135208129883
1560;48.927486419677734
1561;48.863773345947266
1562;48.80023193359375
1563;48.73683166503906
1564;48.67359924316406
1565;48.610538482666016
1566;48.5476188659668
1567;48.484867095947266
1568;48.42228317260742
1569;48.35984420776367
1570;48.29756546020508
1571;48.23545455932617
1572;48.17348098754883
1573;48.11167907714844
1574;48.05002975463867
1575;47.988555908203125
1576;47.92720413208008
1577;47.866031646728516
1578;47.80501174926758
1579;47.744136810302734
1580;47.68342208862305
1581;47.62287521362305
1582;47.562469482421875
1583;47.50222396850586
1584;47.4421272277832
1585;47.38218307495117
1586;47.32240295410156
1587;47.26276779174805
1588;47.20328903198242
1589;47.14396286010742
1590;47.08479309082031
1591;47.025760650634766
1592;46.96689987182617
1593;46.908172607421875
1594;46.849609375
1595;46.79118728637695
1596;46.73293685913086
1597;46.67482376098633
1598;46.61684036254883
1599;46.55903625488281
1600;46.50137710571289
1601;46.4438591003418
1602;46.386505126953125
1603;46.32928466796875
1604;46.272212982177734
1605;46.21529006958008
1606;46.15852355957031
1607;46.10187911987305
1608;46.04539108276367
1609;45.98906326293945
1610;45.932865142822266
1611;45.8768310546875
1612;45.8209228515625
1613;45.76517105102539
1614;45.709564208984375
1615;45.65409469604492
1616;45.598785400390625
1617;45.54359817504883
1618;45.488582611083984
1619;45.433685302734375
1620;45.37895584106445
1621;45.32436752319336
1622;45.269893646240234
1623;45.21559143066406
1624;45.16141891479492
1625;45.10738754272461
1626;45.05350112915039
1627;44.999759674072266
1628;44.946136474609375
1629;44.892669677734375
1630;44.839351654052734
1631;44.78618240356445
1632;44.733123779296875
1633;44.68023681640625
1634;44.62746810913086
1635;44.57484436035156
1636;44.52235412597656
1637;44.47001647949219
1638;44.41780090332031
1639;44.3657341003418
1640;44.313812255859375
1641;44.26201248168945
1642;44.21037292480469
1643;44.15884780883789
1644;44.107479095458984
1645;44.05623245239258
1646;44.005123138427734
1647;43.954158782958984
1648;43.90330505371094
1649;43.85261154174805
1650;43.80203628540039
1651;43.75161361694336
1652;43.70132064819336
1653;43.651153564453125
1654;43.60113525390625
1655;43.55124282836914
1656;43.5014762878418
1657;43.45183181762695
1658;43.4023551940918
1659;43.35296630859375
1660;43.303741455078125
1661;43.254642486572266
1662;43.20570373535156
1663;43.1568489074707
1664;43.1081657409668
1665;43.05958938598633
1666;43.01115798950195
1667;42.96284103393555
1668;42.91465377807617
1669;42.86661148071289
1670;42.818695068359375
1671;42.770904541015625
1672;42.72324752807617
1673;42.675716400146484
1674;42.62831115722656
1675;42.58102798461914
1676;42.533870697021484
1677;42.48686218261719
1678;42.43997573852539
1679;42.39320755004883
1680;42.3465576171875
1681;42.3000602722168
1682;42.253665924072266
1683;42.207401275634766
1684;42.16128158569336
1685;42.11528015136719
1686;42.06940460205078
1687;42.02363967895508
1688;41.978004455566406
1689;41.932491302490234
1690;41.887115478515625
1691;41.84186935424805
1692;41.796730041503906
1693;41.7517204284668
1694;41.70682907104492
1695;41.66206741333008
1696;41.617427825927734
1697;41.572906494140625
1698;41.528507232666016
1699;41.48423385620117
1700;41.44007873535156
1701;41.39604568481445
1702;41.352134704589844
1703;41.3083381652832
1704;41.26466751098633
1705;41.22113037109375
1706;41.177696228027344
1707;41.13438415527344
1708;41.091190338134766
1709;41.04813766479492
1710;41.005184173583984
1711;40.96235656738281
1712;40.91965103149414
1713;40.877052307128906
1714;40.83457565307617
1715;40.79222106933594
1716;40.74998474121094
1717;40.70785140991211
1718;40.665855407714844
1719;40.62397003173828
1720;40.58219909667969
1721;40.54054641723633
1722;40.49900817871094
1723;40.45759201049805
1724;40.41629409790039
1725;40.37508773803711
1726;40.33402633666992
1727;40.29305648803711
1728;40.25221633911133
1729;40.21147918701172
1730;40.170860290527344
1731;40.13036346435547
1732;40.089969635009766
1733;40.04969787597656
1734;40.0095329284668
1735;39.969482421875
1736;39.92954635620117
1737;39.88972091674805
1738;39.850013732910156
1739;39.810401916503906
1740;39.770912170410156
1741;39.73155212402344
1742;39.69227981567383
1743;39.653133392333984
1744;39.61409378051758
1745;39.575164794921875
1746;39.53632736206055
1747;39.49760818481445
1748;39.45900344848633
1749;39.42050552368164
1750;39.38212203979492
1751;39.34384536743164
1752;39.305686950683594
1753;39.267616271972656
1754;39.22967529296875
1755;39.191837310791016
1756;39.15410232543945
1757;39.11647033691406
1758;39.07896041870117
1759;39.04153823852539
1760;39.004241943359375
1761;38.967044830322266
1762;38.92995834350586
1763;38.89297866821289
1764;38.85608673095703
1765;38.81931686401367
1766;38.782657623291016
1767;38.746089935302734
1768;38.70962905883789
1769;38.673282623291016
1770;38.637020111083984
1771;38.600868225097656
1772;38.56483459472656
1773;38.528907775878906
1774;38.493072509765625
1775;38.457340240478516
1776;38.42172622680664
1777;38.38620376586914
1778;38.350772857666016
1779;38.31545639038086
1780;38.28024673461914
1781;38.24512481689453
1782;38.210113525390625
1783;38.17520523071289
1784;38.14040756225586
1785;38.105690002441406
1786;38.07108688354492
1787;38.03657150268555
1788;38.002166748046875
1789;37.96786117553711
1790;37.933650970458984
1791;37.89955520629883
1792;37.865543365478516
1793;37.831634521484375
1794;37.79781723022461
1795;37.76411819458008
1796;37.73050308227539
1797;37.69699478149414
1798;37.66358947753906
1799;37.63026809692383
1800;37.597049713134766
1801;37.56392288208008
1802;37.53091049194336
1803;37.49797439575195
1804;37.465152740478516
1805;37.43241882324219
1806;37.3997688293457
1807;37.36723709106445
1808;37.33478927612305
1809;37.30244064331055
1810;37.27018356323242
1811;37.2380256652832
1812;37.20596694946289
1813;37.17399215698242
1814;37.14210891723633
1815;37.1103401184082
1816;37.07865524291992
1817;37.04706954956055
1818;37.01556396484375
1819;36.984161376953125
1820;36.95285415649414
1821;36.921627044677734
1822;36.890499114990234
1823;36.859466552734375
1824;36.82852554321289
1825;36.79767990112305
1826;36.76692581176758
1827;36.736263275146484
1828;36.705684661865234
1829;36.67520523071289
1830;36.64480972290039
1831;36.61450958251953
1832;36.58429718017578
1833;36.5541877746582
1834;36.52415084838867
1835;36.49421691894531
1836;36.464359283447266
1837;36.434600830078125
1838;36.40493392944336
1839;36.3753662109375
1840;36.345863342285156
1841;36.31645584106445
1842;36.28715133666992
1843;36.25791931152344
1844;36.22877883911133
1845;36.19972229003906
1846;36.170772552490234
1847;36.14189529418945
1848;36.11310958862305
1849;36.08440017700195
1850;36.0557861328125
1851;36.02726364135742
1852;35.99882507324219
1853;35.9704704284668
1854;35.942203521728516
1855;35.91401290893555
1856;35.885929107666016
1857;35.85791015625
1858;35.82998275756836
1859;35.80214309692383
1860;35.77438735961914
1861;35.746707916259766
1862;35.71912384033203
1863;35.69161605834961
1864;35.66420364379883
1865;35.636863708496094
1866;35.6096076965332
1867;35.58243179321289
1868;35.555355072021484
1869;35.52835464477539
1870;35.50142288208008
1871;35.47459030151367
1872;35.44783401489258
1873;35.421165466308594
1874;35.394588470458984
1875;35.36807632446289
1876;35.34164047241211
1877;35.315303802490234
1878;35.28902816772461
1879;35.26284408569336
1880;35.23674392700195
1881;35.210723876953125
1882;35.184783935546875
1883;35.15891647338867
1884;35.13313293457031
1885;35.1074333190918
1886;35.08181381225586
1887;35.0562744140625
1888;35.03080749511719
1889;35.005428314208984
1890;34.9801139831543
1891;34.954891204833984
1892;34.92974853515625
1893;34.9046745300293
1894;34.87968444824219
1895;34.85476303100586
1896;34.829933166503906
1897;34.805171966552734
1898;34.780487060546875
1899;34.75587844848633
1900;34.73134994506836
1901;34.706905364990234
1902;34.682525634765625
1903;34.65822982788086
1904;34.634010314941406
1905;34.60986328125
1906;34.58578872680664
1907;34.56180191040039
1908;34.53787612915039
1909;34.5140380859375
1910;34.49026870727539
1911;34.46657180786133
1912;34.44295120239258
1913;34.419410705566406
1914;34.395938873291016
1915;34.37254333496094
1916;34.34922409057617
1917;34.32597351074219
1918;34.302791595458984
1919;34.279701232910156
1920;34.25666809082031
1921;34.23370361328125
1922;34.21082305908203
1923;34.188018798828125
1924;34.16526794433594
1925;34.14261245727539
1926;34.12001419067383
1927;34.09749221801758
1928;34.07503128051758
1929;34.05265808105469
1930;34.03034973144531
1931;34.008113861083984
1932;33.98594665527344
1933;33.96385192871094
1934;33.94182205200195
1935;33.91987609863281
1936;33.89798355102539
1937;33.87617111206055
1938;33.85442352294922
1939;33.83274459838867
1940;33.8111457824707
1941;33.789615631103516
1942;33.76814651489258
1943;33.74674987792969
1944;33.72542190551758
1945;33.70416259765625
1946;33.6829719543457
1947;33.66183853149414
1948;33.64080047607422
1949;33.61980056762695
1950;33.59888458251953
1951;33.578033447265625
1952;33.5572509765625
1953;33.53654479980469
1954;33.5158805847168
1955;33.495304107666016
1956;33.47479248046875
1957;33.454341888427734
1958;33.4339485168457
1959;33.413631439208984
1960;33.39338302612305
1961;33.37320327758789
1962;33.35308074951172
1963;33.333030700683594
1964;33.31303405761719
1965;33.29310607910156
1966;33.273250579833984
1967;33.25346374511719
1968;33.233726501464844
1969;33.21406555175781
1970;33.19446563720703
1971;33.174922943115234
1972;33.155452728271484
1973;33.13604736328125
1974;33.116695404052734
1975;33.09741973876953
1976;33.07819747924805
1977;33.05903625488281
1978;33.039947509765625
1979;33.02092361450195
1980;33.001949310302734
1981;32.9830436706543
1982;32.96419906616211
1983;32.94541931152344
1984;32.926700592041016
1985;32.908042907714844
1986;32.88944625854492
1987;32.870914459228516
1988;32.85244369506836
1989;32.83403015136719
1990;32.815677642822266
1991;32.797386169433594
1992;32.77915954589844
1993;32.760990142822266
1994;32.74287796020508
1995;32.72483444213867
1996;32.706844329833984
1997;32.68891525268555
1998;32.67104721069336
1999;32.65324401855469
