;loss
0;886.586181640625
1;886.1259155273438
2;885.7310180664062
3;885.271240234375
4;884.8114624023438
5;884.371337890625
6;883.911376953125
7;883.450927734375
8;882.9961547851562
9;882.5381469726562
10;882.0767822265625
11;881.6115112304688
12;881.1441650390625
13;880.674560546875
14;880.2020874023438
15;879.7265014648438
16;879.2474365234375
17;878.7603149414062
18;878.2685546875
19;877.7767944335938
20;877.2799072265625
21;876.7722778320312
22;876.2640991210938
23;875.749755859375
24;875.22265625
25;874.6884765625
26;874.146484375
27;873.5961303710938
28;873.037109375
29;872.46875
30;871.8904418945312
31;871.3085327148438
32;870.7153930664062
33;870.103515625
34;869.4788818359375
35;868.8406372070312
36;868.1879272460938
37;867.5197143554688
38;866.835205078125
39;866.140380859375
40;865.427001953125
41;864.6939697265625
42;863.9398193359375
43;863.1552124023438
44;862.345947265625
45;861.510986328125
46;860.6484375
47;859.7648315429688
48;858.8413696289062
49;857.8842163085938
50;856.9004516601562
51;855.8792724609375
52;854.808349609375
53;853.7039184570312
54;852.5537719726562
55;851.3447265625
56;850.082763671875
57;848.7644653320312
58;847.3859252929688
59;845.9546508789062
60;844.4556884765625
61;842.8717041015625
62;841.2221069335938
63;839.4766235351562
64;837.6552734375
65;835.739501953125
66;833.7074584960938
67;831.5816040039062
68;829.3394165039062
69;826.956787109375
70;824.4400634765625
71;821.779052734375
72;818.9644775390625
73;816.0052490234375
74;812.8511962890625
75;809.509521484375
76;805.9673461914062
77;802.2119140625
78;798.2537231445312
79;794.057373046875
80;789.584228515625
81;784.8753662109375
82;779.8947143554688
83;774.602783203125
84;769.0226440429688
85;763.1532592773438
86;757.0318603515625
87;750.6039428710938
88;743.9220581054688
89;737.013427734375
90;729.9180297851562
91;722.6881103515625
92;715.3838500976562
93;708.0712280273438
94;700.8616333007812
95;693.7534790039062
96;686.8557739257812
97;680.22900390625
98;673.921142578125
99;667.990478515625
100;662.3992309570312
101;657.1782836914062
102;652.3374633789062
103;647.8140258789062
104;643.6305541992188
105;639.7421875
106;636.137451171875
107;632.7638549804688
108;629.6016845703125
109;626.6203002929688
110;623.8038330078125
111;621.1192016601562
112;618.548583984375
113;616.0772094726562
114;613.6963500976562
115;611.39453125
116;609.1549682617188
117;606.987548828125
118;604.877197265625
119;602.809326171875
120;600.7879638671875
121;598.8074951171875
122;596.8641967773438
123;594.95556640625
124;593.0779418945312
125;591.228271484375
126;589.4042358398438
127;587.6102905273438
128;585.838134765625
129;584.0858764648438
130;582.3525390625
131;580.6370849609375
132;578.9315795898438
133;577.2470703125
134;575.5717163085938
135;573.91845703125
136;572.2811889648438
137;570.6571655273438
138;569.0469360351562
139;567.4500122070312
140;565.8638305664062
141;564.2964477539062
142;562.73779296875
143;561.1997680664062
144;559.6786499023438
145;558.17724609375
146;556.6849975585938
147;555.2061157226562
148;553.7451171875
149;552.297607421875
150;550.8641967773438
151;549.445068359375
152;548.039794921875
153;546.6448974609375
154;545.2647094726562
155;543.9027709960938
156;542.550537109375
157;541.2115478515625
158;539.8894653320312
159;538.57666015625
160;537.2759399414062
161;535.987060546875
162;534.709716796875
163;533.4439086914062
164;532.1923828125
165;530.9500732421875
166;529.724365234375
167;528.510986328125
168;527.3052978515625
169;526.1092529296875
170;524.9235229492188
171;523.7496337890625
172;522.5829467773438
173;521.4244995117188
174;520.272705078125
175;519.1275024414062
176;517.9902954101562
177;516.8651733398438
178;515.7479858398438
179;514.6382446289062
180;513.532470703125
181;512.43212890625
182;511.3398742675781
183;510.2533874511719
184;509.1692199707031
185;508.08966064453125
186;507.0153503417969
187;505.9460144042969
188;504.8838806152344
189;503.8236083984375
190;502.767578125
191;501.7185363769531
192;500.6715087890625
193;499.6317138671875
194;498.5968017578125
195;497.5660095214844
196;496.53985595703125
197;495.51788330078125
198;494.4976806640625
199;493.4843444824219
200;492.4750061035156
201;491.4698181152344
202;490.4685363769531
203;489.4690246582031
204;488.4733581542969
205;487.4836120605469
206;486.49542236328125
207;485.51300048828125
208;484.5322570800781
209;483.55712890625
210;482.5834045410156
211;481.6133117675781
212;480.6466979980469
213;479.6855773925781
214;478.7279052734375
215;477.7737121582031
216;476.82275390625
217;475.8751220703125
218;474.9310302734375
219;473.9881896972656
220;473.04864501953125
221;472.1141662597656
222;471.18096923828125
223;470.2528381347656
224;469.3277587890625
225;468.4058837890625
226;467.48699951171875
227;466.5693359375
228;465.65478515625
229;464.7431640625
230;463.8363342285156
231;462.9325256347656
232;462.0298156738281
233;461.1319274902344
234;460.2369079589844
235;459.34490966796875
236;458.4557800292969
237;457.5695495605469
238;456.6860656738281
239;455.8053894042969
240;454.9275207519531
241;454.0523681640625
242;453.1784362792969
243;452.3072204589844
244;451.43865966796875
245;450.57440185546875
246;449.7112121582031
247;448.85223388671875
248;447.99432373046875
249;447.1390686035156
250;446.28631591796875
251;445.4361572265625
252;444.58856201171875
253;443.74346923828125
254;442.90234375
255;442.0636901855469
256;441.2261047363281
257;440.3909912109375
258;439.5596618652344
259;438.72930908203125
260;437.9014892578125
261;437.0760803222656
262;436.2543029785156
263;435.43487548828125
264;434.61785888671875
265;433.8031921386719
266;432.9894714355469
267;432.1793212890625
268;431.3702087402344
269;430.56463623046875
270;429.7612609863281
271;428.96014404296875
272;428.1598815917969
273;427.3631591796875
274;426.56854248046875
275;425.77606201171875
276;424.9857482910156
277;424.19757080078125
278;423.4114990234375
279;422.6275329589844
280;421.8444519042969
281;421.0634765625
282;420.2857666015625
283;419.50897216796875
284;418.7341613769531
285;417.9624938964844
286;417.1917724609375
287;416.42303466796875
288;415.6561584472656
289;414.8924865722656
290;414.1308288574219
291;413.3698425292969
292;412.61199951171875
293;411.8560485839844
294;411.1019592285156
295;410.3487243652344
296;409.5983581542969
297;408.84881591796875
298;408.1022644042969
299;407.3564453125
300;406.61248779296875
301;405.8713684082031
302;405.13104248046875
303;404.3924865722656
304;403.6557922363281
305;402.9208068847656
306;402.1876220703125
307;401.45623779296875
308;400.7265319824219
309;399.9985656738281
310;399.2733459472656
311;398.5498962402344
312;397.8271484375
313;397.1060485839844
314;396.3866271972656
315;395.6689453125
316;394.9529113769531
317;394.2384948730469
318;393.5267333984375
319;392.8156433105469
320;392.1061706542969
321;391.3992919921875
322;390.6930847167969
323;389.9893798828125
324;389.28729248046875
325;388.5859375
326;387.8861083984375
327;387.1879577636719
328;386.4914245605469
329;385.7966613769531
330;385.1043701171875
331;384.4128112792969
332;383.72381591796875
333;383.0354309082031
334;382.3487243652344
335;381.6635437011719
336;380.9807434082031
337;380.2985534667969
338;379.6186828613281
339;378.9395751953125
340;378.2627868652344
341;377.58740234375
342;376.9126281738281
343;376.2393798828125
344;375.5675048828125
345;374.8970947265625
346;374.2280578613281
347;373.5605163574219
348;372.8951110839844
349;372.2303771972656
350;371.5669860839844
351;370.9049987792969
352;370.2451477050781
353;369.5867004394531
354;368.9295959472656
355;368.2738342285156
356;367.61865234375
357;366.9656066894531
358;366.3138732910156
359;365.6627197265625
360;365.013671875
361;364.3659362792969
362;363.7194519042969
363;363.0743408203125
364;362.4305419921875
365;361.7873229980469
366;361.14532470703125
367;360.5046691894531
368;359.8652648925781
369;359.2272033691406
370;358.5903625488281
371;357.95550537109375
372;357.3211975097656
373;356.68817138671875
374;356.056396484375
375;355.4258117675781
376;354.79656982421875
377;354.1684875488281
378;353.5417175292969
379;352.9161071777344
380;352.2917175292969
381;351.66925048828125
382;351.0480041503906
383;350.4272766113281
384;349.8084716796875
385;349.1907958984375
386;348.5736999511719
387;347.9584045410156
388;347.3437194824219
389;346.7308044433594
390;346.1191101074219
391;345.5078125
392;344.8984375
393;344.28955078125
394;343.6818542480469
395;343.075927734375
396;342.4705505371094
397;341.8669128417969
398;341.264404296875
399;340.6630554199219
400;340.062255859375
401;339.4631042480469
402;338.8645935058594
403;338.26715087890625
404;337.6708068847656
405;337.0762023925781
406;336.48211669921875
407;335.8891296386719
408;335.2972717285156
409;334.7065124511719
410;334.1168212890625
411;333.52825927734375
412;332.94134521484375
413;332.35552978515625
414;331.770751953125
415;331.1865234375
416;330.6033935546875
417;330.0218505859375
418;329.4414367675781
419;328.8620300292969
420;328.2837219238281
421;327.7064514160156
422;327.1302490234375
423;326.5550842285156
424;325.9809875488281
425;325.4079284667969
426;324.8353576660156
427;324.26434326171875
428;323.6943664550781
429;323.1254577636719
430;322.55755615234375
431;321.9902038574219
432;321.4237976074219
433;320.8584289550781
434;320.2940979003906
435;319.7313232421875
436;319.1695556640625
437;318.6087646484375
438;318.04901123046875
439;317.490234375
440;316.9324951171875
441;316.375732421875
442;315.8194580078125
443;315.2646789550781
444;314.71038818359375
445;314.1575012207031
446;313.6056823730469
447;313.05487060546875
448;312.5044860839844
449;311.9551086425781
450;311.40667724609375
451;310.8592224121094
452;310.3127136230469
453;309.76727294921875
454;309.22314453125
455;308.6800537109375
456;308.1379089355469
457;307.5966491699219
458;307.056396484375
459;306.5166320800781
460;305.9782409667969
461;305.4403991699219
462;304.90386962890625
463;304.3683776855469
464;303.8332824707031
465;303.2995910644531
466;302.7668762207031
467;302.2345886230469
468;301.7032470703125
469;301.17327880859375
470;300.6437683105469
471;300.1152038574219
472;299.5880126953125
473;299.06170654296875
474;298.535888671875
475;298.0109558105469
476;297.4869689941406
477;296.9643249511719
478;296.442138671875
479;295.9212646484375
480;295.40087890625
481;294.8813781738281
482;294.3631896972656
483;293.84552001953125
484;293.3291320800781
485;292.8136291503906
486;292.2990417480469
487;291.784912109375
488;291.27203369140625
489;290.76007080078125
490;290.24859619140625
491;289.73797607421875
492;289.2282409667969
493;288.7193603515625
494;288.21173095703125
495;287.70501708984375
496;287.1991882324219
497;286.69415283203125
498;286.1896057128906
499;285.6859130859375
500;285.1830749511719
501;284.68115234375
502;284.1800537109375
503;283.6798400878906
504;283.1807861328125
505;282.6826477050781
506;282.185302734375
507;281.6888122558594
508;281.1932067871094
509;280.6983947753906
510;280.2040710449219
511;279.7105712890625
512;279.21795654296875
513;278.7261047363281
514;278.2351379394531
515;277.7449951171875
516;277.2556457519531
517;276.7672119140625
518;276.27984619140625
519;275.79302978515625
520;275.3070068359375
521;274.8221435546875
522;274.3377380371094
523;273.8542175292969
524;273.3717956542969
525;272.8898620605469
526;272.4087219238281
527;271.9284362792969
528;271.4489440917969
529;270.9702453613281
530;270.4927062988281
531;270.0159606933594
532;269.5400390625
533;269.06451416015625
534;268.5898742675781
535;268.1163330078125
536;267.6435546875
537;267.1712341308594
538;266.6997375488281
539;266.2294006347656
540;265.7597961425781
541;265.2906799316406
542;264.8226318359375
543;264.3551025390625
544;263.8883056640625
545;263.4223327636719
546;262.9574279785156
547;262.4932861328125
548;262.0296630859375
549;261.56707763671875
550;261.1052551269531
551;260.6439208984375
552;260.1833801269531
553;259.7236022949219
554;259.2645568847656
555;258.80657958984375
556;258.3490905761719
557;257.8923645019531
558;257.4367370605469
559;256.98150634765625
560;256.52734375
561;256.0736389160156
562;255.62071228027344
563;255.16851806640625
564;254.71713256835938
565;254.26644897460938
566;253.81683349609375
567;253.3676300048828
568;252.91949462890625
569;252.47178649902344
570;252.0251922607422
571;251.57899475097656
572;251.13352966308594
573;250.68881225585938
574;250.2451171875
575;249.80218505859375
576;249.36000061035156
577;248.918212890625
578;248.47747802734375
579;248.03746032714844
580;247.5981903076172
581;247.15965270996094
582;246.72181701660156
583;246.2847137451172
584;245.84832763671875
585;245.41265869140625
586;244.97776794433594
587;244.54327392578125
588;244.10952758789062
589;243.67677307128906
590;243.24468994140625
591;242.81341552734375
592;242.38250732421875
593;241.95233154296875
594;241.52285766601562
595;241.09414672851562
596;240.66610717773438
597;240.23876953125
598;239.81219482421875
599;239.3865203857422
600;238.96157836914062
601;238.53709411621094
602;238.11328125
603;237.6904754638672
604;237.26806640625
605;236.8463897705078
606;236.42539978027344
607;236.00535583496094
608;235.58602905273438
609;235.16709899902344
610;234.74916076660156
611;234.33189392089844
612;233.9150848388672
613;233.49920654296875
614;233.08375549316406
615;232.66900634765625
616;232.2551727294922
617;231.842041015625
618;231.42935180664062
619;231.01759338378906
620;230.6064910888672
621;230.1960906982422
622;229.786376953125
623;229.37733459472656
624;228.96893310546875
625;228.56121826171875
626;228.15419006347656
627;227.7478485107422
628;227.34214782714844
629;226.93714904785156
630;226.53285217285156
631;226.129150390625
632;225.72593688964844
633;225.32359313964844
634;224.92193603515625
635;224.5207061767578
636;224.12013244628906
637;223.72027587890625
638;223.3212432861328
639;222.92286682128906
640;222.52520751953125
641;222.128173828125
642;221.73175048828125
643;221.33583068847656
644;220.94053649902344
645;220.5459442138672
646;220.15194702148438
647;219.7588348388672
648;219.36639404296875
649;218.97438049316406
650;218.5832061767578
651;218.19268798828125
652;217.80282592773438
653;217.41343688964844
654;217.02484130859375
655;216.6369171142578
656;216.24961853027344
657;215.86297607421875
658;215.476806640625
659;215.09121704101562
660;214.706298828125
661;214.3222198486328
662;213.93856811523438
663;213.55575561523438
664;213.1733856201172
665;212.79164123535156
666;212.41053771972656
667;212.0302276611328
668;211.650390625
669;211.27117919921875
670;210.89259338378906
671;210.5146484375
672;210.13734436035156
673;209.76083374023438
674;209.3847198486328
675;209.00929260253906
676;208.63465881347656
677;208.26043701171875
678;207.88706970214844
679;207.5141143798828
680;207.14198303222656
681;206.77044677734375
682;206.39952087402344
683;206.029052734375
684;205.65919494628906
685;205.28990173339844
686;204.92149353027344
687;204.55345153808594
688;204.18603515625
689;203.81924438476562
690;203.45326232910156
691;203.08766174316406
692;202.72267150878906
693;202.3583526611328
694;201.99461364746094
695;201.63145446777344
696;201.26910400390625
697;200.90713500976562
698;200.54600524902344
699;200.18540954589844
700;199.82528686523438
701;199.46595764160156
702;199.10702514648438
703;198.74867248535156
704;198.39111328125
705;198.0341796875
706;197.67762756347656
707;197.32186889648438
708;196.9665069580078
709;196.61175537109375
710;196.25758361816406
711;195.9040069580078
712;195.551025390625
713;195.19866943359375
714;194.8468780517578
715;194.49562072753906
716;194.14501953125
717;193.795166015625
718;193.44570922851562
719;193.09701538085938
720;192.74876403808594
721;192.40121459960938
722;192.05426025390625
723;191.70790100097656
724;191.36195373535156
725;191.0165557861328
726;190.67178344726562
727;190.32772827148438
728;189.98423767089844
729;189.641357421875
730;189.298828125
731;188.95709228515625
732;188.6157684326172
733;188.27500915527344
734;187.93496704101562
735;187.59536743164062
736;187.25645446777344
737;186.91798400878906
738;186.58026123046875
739;186.24305725097656
740;185.90626525878906
741;185.57005310058594
742;185.2344207763672
743;184.89947509765625
744;184.56512451171875
745;184.23118591308594
746;183.89791870117188
747;183.56509399414062
748;183.23284912109375
749;182.90113830566406
750;182.56997680664062
751;182.23941040039062
752;181.90940856933594
753;181.58006286621094
754;181.2512969970703
755;180.9230499267578
756;180.59544372558594
757;180.2682647705078
758;179.94171142578125
759;179.6156768798828
760;179.29013061523438
761;178.965087890625
762;178.64056396484375
763;178.31663513183594
764;177.9933624267578
765;177.67063903808594
766;177.34837341308594
767;177.0265655517578
768;176.70538330078125
769;176.3847198486328
770;176.06459045410156
771;175.7449951171875
772;175.4259490966797
773;175.10757446289062
774;174.78964233398438
775;174.47222900390625
776;174.15545654296875
777;173.83909606933594
778;173.52330017089844
779;173.20802307128906
780;172.89328002929688
781;172.57908630371094
782;172.26559448242188
783;171.95245361328125
784;171.63998413085938
785;171.32803344726562
786;171.0165252685547
787;170.70562744140625
788;170.3951416015625
789;170.08522033691406
790;169.77593994140625
791;169.46705627441406
792;169.15879821777344
793;168.85113525390625
794;168.54379272460938
795;168.23715209960938
796;167.93089294433594
797;167.62525939941406
798;167.32017517089844
799;167.01548767089844
800;166.71141052246094
801;166.4077606201172
802;166.10462951660156
803;165.802001953125
804;165.49993896484375
805;165.19834899902344
806;164.89727783203125
807;164.5968780517578
808;164.29693603515625
809;163.99755859375
810;163.69871520996094
811;163.40017700195312
812;163.10220336914062
813;162.80487060546875
814;162.50794982910156
815;162.21148681640625
816;161.91566467285156
817;161.62037658691406
818;161.3255615234375
819;161.03114318847656
820;160.73721313476562
821;160.44395446777344
822;160.1511688232422
823;159.85879516601562
824;159.56689453125
825;159.27549743652344
826;158.98464965820312
827;158.69439697265625
828;158.40460205078125
829;158.11524963378906
830;157.82635498046875
831;157.53799438476562
832;157.25010681152344
833;156.96275329589844
834;156.67596435546875
835;156.38958740234375
836;156.10369873046875
837;155.8182830810547
838;155.53347778320312
839;155.24908447265625
840;154.96531677246094
841;154.681884765625
842;154.39891052246094
843;154.11648559570312
844;153.83453369140625
845;153.55308532714844
846;153.27215576171875
847;152.99163818359375
848;152.71165466308594
849;152.4322509765625
850;152.15333557128906
851;151.8748779296875
852;151.59693908691406
853;151.31935119628906
854;151.04237365722656
855;150.7659149169922
856;150.48977661132812
857;150.21421813964844
858;149.93917846679688
859;149.66461181640625
860;149.39051818847656
861;149.11679077148438
862;148.8436737060547
863;148.57098388671875
864;148.29879760742188
865;148.02708435058594
866;147.75572204589844
867;147.48487854003906
868;147.214599609375
869;146.9447021484375
870;146.6753692626953
871;146.40638732910156
872;146.13790893554688
873;145.86997985839844
874;145.60240173339844
875;145.3353271484375
876;145.06871032714844
877;144.8025665283203
878;144.53692626953125
879;144.27166748046875
880;144.0070343017578
881;143.7428436279297
882;143.47915649414062
883;143.21588134765625
884;142.95310974121094
885;142.69065856933594
886;142.4287872314453
887;142.16732788085938
888;141.90638732910156
889;141.64590454101562
890;141.3858642578125
891;141.12631225585938
892;140.8671417236328
893;140.6083984375
894;140.35009765625
895;140.09228515625
896;139.83493041992188
897;139.57801818847656
898;139.32164001464844
899;139.06565856933594
900;138.81008911132812
901;138.5550079345703
902;138.30035400390625
903;138.04617309570312
904;137.79244995117188
905;137.53915405273438
906;137.2864227294922
907;137.0340118408203
908;136.78208923339844
909;136.5305938720703
910;136.27955627441406
911;136.02906799316406
912;135.7790069580078
913;135.52938842773438
914;135.28009033203125
915;135.03138732910156
916;134.78314208984375
917;134.5352020263672
918;134.2877960205078
919;134.04083251953125
920;133.79434204101562
921;133.5482635498047
922;133.30259704589844
923;133.05743408203125
924;132.81268310546875
925;132.568359375
926;132.32437133789062
927;132.08087158203125
928;131.83786010742188
929;131.59519958496094
930;131.3531036376953
931;131.11129760742188
932;130.86996459960938
933;130.62913513183594
934;130.38873291015625
935;130.14878845214844
936;129.90928649902344
937;129.67015075683594
938;129.43138122558594
939;129.19305419921875
940;128.95518493652344
941;128.71771240234375
942;128.4807586669922
943;128.24424743652344
944;128.0081329345703
945;127.77243041992188
946;127.53713989257812
947;127.30225372314453
948;127.0678482055664
949;126.8338851928711
950;126.60026550292969
951;126.36707305908203
952;126.13433074951172
953;125.90206909179688
954;125.67012023925781
955;125.4386215209961
956;125.2075424194336
957;124.97687530517578
958;124.74658203125
959;124.51675415039062
960;124.2873764038086
961;124.05835723876953
962;123.82980346679688
963;123.60160827636719
964;123.37384796142578
965;123.1465072631836
966;122.91960144042969
967;122.69316101074219
968;122.46707153320312
969;122.24138641357422
970;122.01612091064453
971;121.7913589477539
972;121.56696319580078
973;121.3429946899414
974;121.119384765625
975;120.896240234375
976;120.67345428466797
977;120.45109558105469
978;120.22911834716797
979;120.0075454711914
980;119.78638458251953
981;119.56558227539062
982;119.34530639648438
983;119.12533569335938
984;118.9057846069336
985;118.68663787841797
986;118.46788787841797
987;118.24956512451172
988;118.03169250488281
989;117.81415557861328
990;117.5970230102539
991;117.3803482055664
992;117.16398620605469
993;116.94807434082031
994;116.7325439453125
995;116.51738739013672
996;116.30266571044922
997;116.0883560180664
998;115.87446594238281
999;115.66091918945312
