;loss
0;895.569091796875
1;894.8955078125
2;893.9874877929688
3;893.0755004882812
4;892.1598510742188
5;891.240234375
6;890.3164672851562
7;889.3882446289062
8;888.468505859375
9;887.530517578125
10;886.5870971679688
11;885.6389770507812
12;884.6821899414062
13;883.7163696289062
14;882.7413940429688
15;881.76318359375
16;880.7688598632812
17;879.7728881835938
18;878.757568359375
19;877.73095703125
20;876.7033081054688
21;875.6526489257812
22;874.5888671875
23;873.51123046875
24;872.419189453125
25;871.31201171875
26;870.1885375976562
27;869.061767578125
28;867.9039916992188
29;866.7273559570312
30;865.5449829101562
31;864.3279418945312
32;863.103515625
33;861.8564453125
34;860.5709838867188
35;859.26025390625
36;857.9231567382812
37;856.5582885742188
38;855.1642456054688
39;853.7548217773438
40;852.2984008789062
41;850.8241577148438
42;849.3152465820312
43;847.769775390625
44;846.1701049804688
45;844.546142578125
46;842.8639526367188
47;841.1544799804688
48;839.3828125
49;837.5631713867188
50;835.7099609375
51;833.787109375
52;831.8095703125
53;829.7748413085938
54;827.6803588867188
55;825.5237426757812
56;823.3207397460938
57;821.0320434570312
58;818.6921997070312
59;816.2800903320312
60;813.79296875
61;811.2078247070312
62;808.5411987304688
63;805.7900390625
64;802.9518432617188
65;800.0227661132812
66;797.0223999023438
67;793.9048461914062
68;790.6892700195312
69;787.396484375
70;783.980224609375
71;780.4613647460938
72;776.8626098632812
73;773.160400390625
74;769.32958984375
75;765.3935546875
76;761.3535766601562
77;757.2130737304688
78;752.99951171875
79;748.6930541992188
80;744.2721557617188
81;739.7685546875
82;735.189453125
83;730.54296875
84;725.8388671875
85;721.1150512695312
86;716.3292846679688
87;711.5184936523438
88;706.6968383789062
89;701.8776245117188
90;697.0846557617188
91;692.3370971679688
92;687.6328125
93;682.982177734375
94;678.3961181640625
95;673.9066772460938
96;669.4764404296875
97;665.1597290039062
98;660.9528198242188
99;656.838134765625
100;652.862548828125
101;649.0025634765625
102;645.2513427734375
103;641.6190795898438
104;638.0932006835938
105;634.6541748046875
106;631.31787109375
107;628.0874633789062
108;624.9692993164062
109;621.943115234375
110;618.99365234375
111;616.1433715820312
112;613.3753662109375
113;610.6748657226562
114;608.0597534179688
115;605.5048217773438
116;603.0156860351562
117;600.5977783203125
118;598.2313842773438
119;595.9210205078125
120;593.6737670898438
121;591.47265625
122;589.329833984375
123;587.2329711914062
124;585.1751098632812
125;583.1603393554688
126;581.1853637695312
127;579.259521484375
128;577.3676147460938
129;575.5106811523438
130;573.6874389648438
131;571.8967895507812
132;570.1372680664062
133;568.4078979492188
134;566.7070922851562
135;565.0342407226562
136;563.3895874023438
137;561.7708129882812
138;560.1766967773438
139;558.6064453125
140;557.0577392578125
141;555.5308227539062
142;554.0244750976562
143;552.5380249023438
144;551.0755004882812
145;549.6277465820312
146;548.2023315429688
147;546.805908203125
148;545.4242553710938
149;544.0549926757812
150;542.7020263671875
151;541.36767578125
152;540.0490112304688
153;538.7444458007812
154;537.4525756835938
155;536.1741943359375
156;534.9047241210938
157;533.64794921875
158;532.40234375
159;531.1707153320312
160;529.9500122070312
161;528.7391967773438
162;527.5377807617188
163;526.34521484375
164;525.1609497070312
165;523.9813842773438
166;522.8132934570312
167;521.6497192382812
168;520.4966430664062
169;519.3510131835938
170;518.21240234375
171;517.0807495117188
172;515.955810546875
173;514.8377075195312
174;513.7262573242188
175;512.62109375
176;511.5190734863281
177;510.4232482910156
178;509.3362731933594
179;508.252685546875
180;507.175048828125
181;506.1031799316406
182;505.0395202636719
183;503.9786682128906
184;502.9258117675781
185;501.8783874511719
186;500.8363952636719
187;499.7997131347656
188;498.768798828125
189;497.7431640625
190;496.7222595214844
191;495.7037048339844
192;494.6900329589844
193;493.6814270019531
194;492.6775207519531
195;491.6803283691406
196;490.685546875
197;489.695068359375
198;488.708984375
199;487.7294921875
200;486.7520751953125
201;485.7810363769531
202;484.8140869140625
203;483.8511657714844
204;482.8924865722656
205;481.9377746582031
206;480.9870910644531
207;480.0402526855469
208;479.0972900390625
209;478.1581115722656
210;477.2227783203125
211;476.2911376953125
212;475.361083984375
213;474.4347229003906
214;473.511962890625
215;472.5928039550781
216;471.6770324707031
217;470.7647399902344
218;469.8558654785156
219;468.950439453125
220;468.0482482910156
221;467.1494445800781
222;466.2557067871094
223;465.36328125
224;464.4741516113281
225;463.588134765625
226;462.705322265625
227;461.8272399902344
228;460.9504699707031
229;460.0767822265625
230;459.2078552246094
231;458.3401794433594
232;457.4753723144531
233;456.6136474609375
234;455.7564392089844
235;454.9019775390625
236;454.0503234863281
237;453.2015380859375
238;452.3553771972656
239;451.511962890625
240;450.6711730957031
241;449.8315124511719
242;448.9945373535156
243;448.1615905761719
244;447.3312683105469
245;446.5019226074219
246;445.6766662597656
247;444.8523864746094
248;444.0306091308594
249;443.2112731933594
250;442.3943786621094
251;441.579833984375
252;440.7677307128906
253;439.9594421386719
254;439.1520080566406
255;438.346923828125
256;437.544189453125
257;436.7437438964844
258;435.9454650878906
259;435.1494445800781
260;434.3570251464844
261;433.5654296875
262;432.7773132324219
263;431.9900817871094
264;431.206298828125
265;430.4232482910156
266;429.6424255371094
267;428.8636169433594
268;428.0869140625
269;427.3123474121094
270;426.5397033691406
271;425.7691955566406
272;425.0007019042969
273;424.2341613769531
274;423.4696350097656
275;422.7070617675781
276;421.9464416503906
277;421.187744140625
278;420.43212890625
279;419.6772766113281
280;418.92431640625
281;418.1732177734375
282;417.4251403808594
283;416.677734375
284;415.9322204589844
285;415.1885070800781
286;414.4466247558594
287;413.7076416015625
288;412.9703674316406
289;412.2339172363281
290;411.4991455078125
291;410.76611328125
292;410.0359191894531
293;409.306396484375
294;408.5785827636719
295;407.8524475097656
296;407.1290588378906
297;406.4073791503906
298;405.6874084472656
299;404.9690856933594
300;404.2524108886719
301;403.5362854003906
302;402.8229064941406
303;402.111083984375
304;401.3998718261719
305;400.6903076171875
306;399.9822998046875
307;399.27685546875
308;398.5730285644531
309;397.8707275390625
310;397.1700134277344
311;396.4698791503906
312;395.7721862792969
313;395.0760192871094
314;394.3804931640625
315;393.6864318847656
316;392.993896484375
317;392.3037414550781
318;391.6151428222656
319;390.9270935058594
320;390.2414245605469
321;389.5562744140625
322;388.8734436035156
323;388.192138671875
324;387.5122375488281
325;386.8337707519531
326;386.1567687988281
327;385.4811706542969
328;384.8060607910156
329;384.13330078125
330;383.4618835449219
331;382.7918395996094
332;382.1231689453125
333;381.4559631347656
334;380.7900695800781
335;380.1246643066406
336;379.4607238769531
337;378.798095703125
338;378.1368103027344
339;377.4776916503906
340;376.8190612792969
341;376.16259765625
342;375.5066833496094
343;374.8520202636719
344;374.19873046875
345;373.5467529296875
346;372.8961181640625
347;372.246826171875
348;371.5987854003906
349;370.9527893066406
350;370.3081970214844
351;369.6639709472656
352;369.0218505859375
353;368.3802185058594
354;367.7406005859375
355;367.1014709472656
356;366.46435546875
357;365.8277587890625
358;365.1923522949219
359;364.5581970214844
360;363.926025390625
361;363.2943420410156
362;362.6646423339844
363;362.0361328125
364;361.4089050292969
365;360.7820739746094
366;360.1565246582031
367;359.5328674316406
368;358.9097595214844
369;358.2878112792969
370;357.6677551269531
371;357.048828125
372;356.4311828613281
373;355.8146057128906
374;355.1986083984375
375;354.583740234375
376;353.9700012207031
377;353.357421875
378;352.74609375
379;352.1358337402344
380;351.5268249511719
381;350.9188537597656
382;350.3120422363281
383;349.7064514160156
384;349.1025390625
385;348.499755859375
386;347.8981018066406
387;347.2975769042969
388;346.6981506347656
389;346.0998229980469
390;345.502685546875
391;344.9065856933594
392;344.31103515625
393;343.7171325683594
394;343.1243591308594
395;342.5326232910156
396;341.94140625
397;341.351806640625
398;340.7633056640625
399;340.1758728027344
400;339.5895080566406
401;339.0041809082031
402;338.4199523925781
403;337.8367614746094
404;337.2546081542969
405;336.6734924316406
406;336.0934753417969
407;335.5138244628906
408;334.935302734375
409;334.3577880859375
410;333.78131103515625
411;333.2063903808594
412;332.6325988769531
413;332.0591735839844
414;331.48681640625
415;330.9159851074219
416;330.34619140625
417;329.7774658203125
418;329.20965576171875
419;328.64288330078125
420;328.0771484375
421;327.51239013671875
422;326.9486389160156
423;326.3858947753906
424;325.8241271972656
425;325.26336669921875
426;324.70361328125
427;324.1448059082031
428;323.5870056152344
429;323.0302429199219
430;322.47393798828125
431;321.9190979003906
432;321.365234375
433;320.8118591308594
434;320.2599182128906
435;319.7084655761719
436;319.1579895019531
437;318.6089782714844
438;318.06097412109375
439;317.51385498046875
440;316.96771240234375
441;316.4224853515625
442;315.8777160644531
443;315.33392333984375
444;314.79156494140625
445;314.2501220703125
446;313.7095947265625
447;313.1700134277344
448;312.6313171386719
449;312.0935974121094
450;311.5567932128906
451;311.0209045410156
452;310.4859313964844
453;309.9518737792969
454;309.4183044433594
455;308.8860778808594
456;308.3543701171875
457;307.823974609375
458;307.2945251464844
459;306.7659606933594
460;306.2383117675781
461;305.7115173339844
462;305.1856994628906
463;304.6606750488281
464;304.1361389160156
465;303.6125183105469
466;303.0902099609375
467;302.5687561035156
468;302.0482482910156
469;301.5281677246094
470;301.0093688964844
471;300.4910583496094
472;299.9736022949219
473;299.45703125
474;298.9412841796875
475;298.4264831542969
476;297.9125061035156
477;297.3993835449219
478;296.88714599609375
479;296.3761901855469
480;295.8661193847656
481;295.3564758300781
482;294.8476257324219
483;294.3397216796875
484;293.8326110839844
485;293.3263854980469
486;292.8210144042969
487;292.3164367675781
488;291.81317138671875
489;291.3106994628906
490;290.80908203125
491;290.308349609375
492;289.8083801269531
493;289.3092956542969
494;288.8106384277344
495;288.3127746582031
496;287.81622314453125
497;287.3200378417969
498;286.8250427246094
499;286.3305358886719
500;285.8372497558594
501;285.3444519042969
502;284.8523864746094
503;284.3611755371094
504;283.8711242675781
505;283.3815612792969
506;282.8927307128906
507;282.4051818847656
508;281.9184265136719
509;281.4320373535156
510;280.9465026855469
511;280.462158203125
512;279.9786071777344
513;279.4954833984375
514;279.01318359375
515;278.5316467285156
516;278.0513000488281
517;277.57171630859375
518;277.0929260253906
519;276.6146240234375
520;276.1370544433594
521;275.6603088378906
522;275.1847229003906
523;274.7095642089844
524;274.23516845703125
525;273.7615661621094
526;273.28875732421875
527;272.8167419433594
528;272.345458984375
529;271.8749694824219
530;271.4053039550781
531;270.9363708496094
532;270.4685363769531
533;270.0014953613281
534;269.534912109375
535;269.0690612792969
536;268.60400390625
537;268.1400146484375
538;267.676513671875
539;267.21405029296875
540;266.7520751953125
541;266.2911071777344
542;265.83062744140625
543;265.3712463378906
544;264.9125671386719
545;264.4547119140625
546;263.9972229003906
547;263.5408020019531
548;263.085205078125
549;262.6302795410156
550;262.1761169433594
551;261.7224426269531
552;261.2697448730469
553;260.8175354003906
554;260.36602783203125
555;259.915283203125
556;259.46527099609375
557;259.01605224609375
558;258.5675354003906
559;258.1197204589844
560;257.6729431152344
561;257.2269592285156
562;256.7813720703125
563;256.3364562988281
564;255.8926544189453
565;255.44956970214844
566;255.0068817138672
567;254.5652618408203
568;254.1243133544922
569;253.68409729003906
570;253.24436950683594
571;252.8055877685547
572;252.36753845214844
573;251.93019104003906
574;251.49359130859375
575;251.0574188232422
576;250.6219482421875
577;250.1872100830078
578;249.7531280517578
579;249.31980895996094
580;248.88746643066406
581;248.45556640625
582;248.0246124267578
583;247.5941619873047
584;247.1643524169922
585;246.7352752685547
586;246.306884765625
587;245.8794403076172
588;245.45277404785156
589;245.02674865722656
590;244.60142517089844
591;244.1765594482422
592;243.7526092529297
593;243.3293914794922
594;242.9068145751953
595;242.48500061035156
596;242.06382751464844
597;241.6433563232422
598;241.2235565185547
599;240.8044891357422
600;240.38580322265625
601;239.96778869628906
602;239.55076599121094
603;239.13441467285156
604;238.7187042236328
605;238.303466796875
606;237.8888702392578
607;237.4752655029297
608;237.06227111816406
609;236.6500244140625
610;236.2384033203125
611;235.8272247314453
612;235.41693115234375
613;235.00733947753906
614;234.598388671875
615;234.1901397705078
616;233.7825469970703
617;233.3756561279297
618;232.96937561035156
619;232.5637664794922
620;232.15887451171875
621;231.7543487548828
622;231.35052490234375
623;230.9475860595703
624;230.5452880859375
625;230.1436767578125
626;229.7427215576172
627;229.3421630859375
628;228.94227600097656
629;228.5432891845703
630;228.14495849609375
631;227.74725341796875
632;227.35020446777344
633;226.9538116455078
634;226.557861328125
635;226.1625213623047
636;225.76783752441406
637;225.37403869628906
638;224.9806671142578
639;224.58795166015625
640;224.1958465576172
641;223.8043975830078
642;223.4136199951172
643;223.023681640625
644;222.6341552734375
645;222.2452850341797
646;221.8570556640625
647;221.46966552734375
648;221.0827178955078
649;220.6963653564453
650;220.3106689453125
651;219.92579650878906
652;219.5415802001953
653;219.1577911376953
654;218.774658203125
655;218.392333984375
656;218.01043701171875
657;217.629150390625
658;217.2487030029297
659;216.868896484375
660;216.48948669433594
661;216.1107177734375
662;215.7327423095703
663;215.355224609375
664;214.97850036621094
665;214.60243225097656
666;214.2269744873047
667;213.85191345214844
668;213.47767639160156
669;213.1038818359375
670;212.730712890625
671;212.3581085205078
672;211.986328125
673;211.61497497558594
674;211.2444305419922
675;210.87449645996094
676;210.505126953125
677;210.13624572753906
678;209.76792907714844
679;209.4004364013672
680;209.0333709716797
681;208.6668701171875
682;208.3011932373047
683;207.93609619140625
684;207.5714111328125
685;207.20751953125
686;206.8440704345703
687;206.48118591308594
688;206.1189422607422
689;205.7572784423828
690;205.39617919921875
691;205.0357666015625
692;204.67608642578125
693;204.3167266845703
694;203.958251953125
695;203.600341796875
696;203.24302673339844
697;202.88629150390625
698;202.53016662597656
699;202.1746063232422
700;201.81964111328125
701;201.465087890625
702;201.1111602783203
703;200.75775146484375
704;200.4051513671875
705;200.0529327392578
706;199.7014923095703
707;199.35047912597656
708;199.00001525878906
709;198.65032958984375
710;198.30120849609375
711;197.95265197753906
712;197.60472106933594
713;197.25730895996094
714;196.9103546142578
715;196.56394958496094
716;196.2183074951172
717;195.87322998046875
718;195.528564453125
719;195.1846160888672
720;194.84124755859375
721;194.4984588623047
722;194.15625
723;193.81459045410156
724;193.4735565185547
725;193.1330108642578
726;192.7928924560547
727;192.4535369873047
728;192.1145477294922
729;191.7762908935547
730;191.43846130371094
731;191.10118103027344
732;190.7646026611328
733;190.4285888671875
734;190.093017578125
735;189.75811767578125
736;189.42381286621094
737;189.0900421142578
738;188.75669860839844
739;188.4238739013672
740;188.091796875
741;187.76026916503906
742;187.4293212890625
743;187.098876953125
744;186.76885986328125
745;186.43939208984375
746;186.1104736328125
747;185.7822723388672
748;185.45458984375
749;185.1273193359375
750;184.80064392089844
751;184.47447204589844
752;184.1488494873047
753;183.82391357421875
754;183.49952697753906
755;183.175537109375
756;182.85227966308594
757;182.529541015625
758;182.2073516845703
759;181.88568115234375
760;181.56439208984375
761;181.24378967285156
762;180.9236297607422
763;180.60400390625
764;180.28489685058594
765;179.96630859375
766;179.6482696533203
767;179.3309326171875
768;179.013916015625
769;178.697509765625
770;178.38160705566406
771;178.06629943847656
772;177.75157165527344
773;177.4374237060547
774;177.12367248535156
775;176.81044006347656
776;176.49774169921875
777;176.185546875
778;175.8740692138672
779;175.5630645751953
780;175.2524871826172
781;174.9424285888672
782;174.6328582763672
783;174.3238525390625
784;174.01536560058594
785;173.7073974609375
786;173.39996337890625
787;173.0930633544922
788;172.7867889404297
789;172.4810333251953
790;172.17579650878906
791;171.8709259033203
792;171.5666046142578
793;171.26283264160156
794;170.95953369140625
795;170.65675354003906
796;170.35462951660156
797;170.05299377441406
798;169.75193786621094
799;169.45130920410156
800;169.15121459960938
801;168.85154724121094
802;168.55245971679688
803;168.25381469726562
804;167.95562744140625
805;167.6580047607422
806;167.36085510253906
807;167.0642547607422
808;166.76820373535156
809;166.4725799560547
810;166.17747497558594
811;165.8828582763672
812;165.5888671875
813;165.29527282714844
814;165.0021514892578
815;164.7095489501953
816;164.41758728027344
817;164.12611389160156
818;163.83511352539062
819;163.54449462890625
820;163.25442504882812
821;162.9649200439453
822;162.6758270263672
823;162.38734436035156
824;162.09922790527344
825;161.81175231933594
826;161.52468872070312
827;161.2380828857422
828;160.95204162597656
829;160.6665496826172
830;160.38148498535156
831;160.0968475341797
832;159.81280517578125
833;159.5292205810547
834;159.2461395263672
835;158.9635772705078
836;158.6814422607422
837;158.3998260498047
838;158.11871337890625
839;157.8380889892578
840;157.5578155517578
841;157.27801513671875
842;156.9987335205078
843;156.7199249267578
844;156.4416961669922
845;156.1639862060547
846;155.88670349121094
847;155.6098175048828
848;155.33343505859375
849;155.05760192871094
850;154.78224182128906
851;154.50729370117188
852;154.23289489746094
853;153.95884704589844
854;153.6853485107422
855;153.41224670410156
856;153.13970947265625
857;152.8675537109375
858;152.59603881835938
859;152.32496643066406
860;152.0543670654297
861;151.7842559814453
862;151.51463317871094
863;151.2453155517578
864;150.97650146484375
865;150.7081756591797
866;150.44039916992188
867;150.17308044433594
868;149.90623474121094
869;149.63987731933594
870;149.3739776611328
871;149.10853576660156
872;148.84353637695312
873;148.57904052734375
874;148.3148956298828
875;148.05130004882812
876;147.78807067871094
877;147.52545166015625
878;147.26319885253906
879;147.00144958496094
880;146.74017333984375
881;146.47938537597656
882;146.21897888183594
883;145.95909118652344
884;145.6996307373047
885;145.44064331054688
886;145.1820068359375
887;144.923828125
888;144.66619873046875
889;144.4090118408203
890;144.1522979736328
891;143.89601135253906
892;143.6400909423828
893;143.38467407226562
894;143.1297607421875
895;142.87521362304688
896;142.62109375
897;142.367431640625
898;142.11431884765625
899;141.86163330078125
900;141.6093292236328
901;141.3574676513672
902;141.1060333251953
903;140.85508728027344
904;140.60455322265625
905;140.35447692871094
906;140.10484313964844
907;139.8556365966797
908;139.60691833496094
909;139.3585968017578
910;139.11082458496094
911;138.86341857910156
912;138.61651611328125
913;138.3700408935547
914;138.12396240234375
915;137.87826538085938
916;137.6331024169922
917;137.38844299316406
918;137.1441650390625
919;136.9003448486328
920;136.6569366455078
921;136.41397094726562
922;136.1714324951172
923;135.92933654785156
924;135.6876678466797
925;135.4464569091797
926;135.20565795898438
927;134.9652862548828
928;134.725341796875
929;134.48583984375
930;134.24676513671875
931;134.0080108642578
932;133.7696990966797
933;133.5319366455078
934;133.2944793701172
935;133.05747985839844
936;132.8209686279297
937;132.5847930908203
938;132.34913635253906
939;132.1138153076172
940;131.87892150878906
941;131.64454650878906
942;131.4105682373047
943;131.177001953125
944;130.94390869140625
945;130.7111358642578
946;130.478759765625
947;130.24681091308594
948;130.01541137695312
949;129.78427124023438
950;129.55360412597656
951;129.3233184814453
952;129.0935516357422
953;128.86415100097656
954;128.6351318359375
955;128.40650939941406
956;128.17840576171875
957;127.95064544677734
958;127.72335052490234
959;127.49649047851562
960;127.26993560791016
961;127.04390716552734
962;126.8182601928711
963;126.59296417236328
964;126.36807250976562
965;126.14360809326172
966;125.91963958740234
967;125.69603729248047
968;125.4727783203125
969;125.24993896484375
970;125.02752685546875
971;124.80547332763672
972;124.58392333984375
973;124.3627700805664
974;124.1419677734375
975;123.92156982421875
976;123.70157623291016
977;123.48199462890625
978;123.26285552978516
979;123.0440444946289
980;122.82564544677734
981;122.607666015625
982;122.39008331298828
983;122.17288970947266
984;121.95614624023438
985;121.73983001708984
986;121.5238265991211
987;121.30828857421875
988;121.0931625366211
989;120.8784408569336
990;120.66402435302734
991;120.45001220703125
992;120.2364273071289
993;120.02327728271484
994;119.81051635742188
995;119.59807586669922
996;119.38605499267578
997;119.17437744140625
998;118.96319580078125
999;118.7523422241211
