;loss
0;866.2723388671875
1;865.3536376953125
2;864.1209716796875
3;862.8905639648438
4;861.6624145507812
5;860.4364013671875
6;859.21240234375
7;857.9900512695312
8;856.7691040039062
9;855.5491333007812
10;854.3352661132812
11;853.1174926757812
12;851.8975219726562
13;850.6727294921875
14;849.4445190429688
15;848.2127685546875
16;846.98681640625
17;845.7477416992188
18;844.5161743164062
19;843.28125
20;842.0296020507812
21;840.77294921875
22;839.5250854492188
23;838.2721557617188
24;836.9990234375
25;835.7193603515625
26;834.4478759765625
27;833.1692504882812
28;831.8829345703125
29;830.5881958007812
30;829.2845458984375
31;827.9713745117188
32;826.6483154296875
33;825.314453125
34;823.9694213867188
35;822.6127319335938
36;821.2434692382812
37;819.861328125
38;818.4655151367188
39;817.0556030273438
40;815.630859375
41;814.1908569335938
42;812.73486328125
43;811.2621459960938
44;809.7721557617188
45;808.26416015625
46;806.7374267578125
47;805.19140625
48;803.6100463867188
49;802.02294921875
50;800.4143676757812
51;798.7832641601562
52;797.1143798828125
53;795.4216918945312
54;793.7044067382812
55;791.9761962890625
56;790.2069091796875
57;788.4251098632812
58;786.61572265625
59;784.7778930664062
60;782.9107666015625
61;780.9984741210938
62;779.06982421875
63;777.1094360351562
64;775.1160888671875
65;773.0889892578125
66;771.0274047851562
67;768.9306030273438
68;766.7977294921875
69;764.6284790039062
70;762.4222412109375
71;760.1629638671875
72;757.8649291992188
73;755.5274658203125
74;753.14990234375
75;750.7315673828125
76;748.2716064453125
77;745.7854614257812
78;743.2573852539062
79;740.6866455078125
80;738.0730590820312
81;735.400390625
82;732.6848754882812
83;729.9256591796875
84;727.1387329101562
85;724.2933349609375
86;721.4052734375
87;718.4907836914062
88;715.5189819335938
89;712.5054931640625
90;709.4505004882812
91;706.3560180664062
92;703.2234497070312
93;700.0834350585938
94;696.9022827148438
95;693.6884765625
96;690.4427490234375
97;687.1812744140625
98;683.8745727539062
99;680.5558471679688
100;677.1951904296875
101;673.8258666992188
102;670.4202270507812
103;666.994140625
104;663.5498046875
105;660.0884399414062
106;656.6129760742188
107;653.1259155273438
108;649.64453125
109;646.1557006835938
110;642.64697265625
111;639.1533813476562
112;635.65673828125
113;632.1639404296875
114;628.6764526367188
115;625.1964111328125
116;621.7271118164062
117;618.2832641601562
118;614.8396606445312
119;611.4154052734375
120;608.0211181640625
121;604.6466064453125
122;601.27978515625
123;597.9547729492188
124;594.6567993164062
125;591.3894653320312
126;588.1538696289062
127;584.94580078125
128;581.7655639648438
129;578.6056518554688
130;575.4902954101562
131;572.4130249023438
132;569.3572387695312
133;566.3563232421875
134;563.4154663085938
135;560.5318603515625
136;557.7200927734375
137;554.9537353515625
138;552.2153930664062
139;549.51611328125
140;546.8671875
141;544.2504272460938
142;541.6715698242188
143;539.1278076171875
144;536.6263427734375
145;534.1527709960938
146;531.7244873046875
147;529.3261108398438
148;526.9730834960938
149;524.6570434570312
150;522.3759155273438
151;520.1294555664062
152;517.9100341796875
153;515.7327880859375
154;513.5845947265625
155;511.4708557128906
156;509.38995361328125
157;507.3416442871094
158;505.3232116699219
159;503.3352355957031
160;501.37945556640625
161;499.46173095703125
162;497.571044921875
163;495.7048034667969
164;493.86627197265625
165;492.0534973144531
166;490.2646484375
167;488.4958801269531
168;486.7472839355469
169;485.02203369140625
170;483.31988525390625
171;481.6398010253906
172;479.9739074707031
173;478.3304138183594
174;476.7064514160156
175;475.107177734375
176;473.5224609375
177;471.95318603515625
178;470.4054870605469
179;468.875
180;467.3583679199219
181;465.8637390136719
182;464.3918151855469
183;462.9450988769531
184;461.52532958984375
185;460.1291198730469
186;458.74359130859375
187;457.375
188;456.02191162109375
189;454.68115234375
190;453.3576354980469
191;452.0439453125
192;450.7454528808594
193;449.4622497558594
194;448.18792724609375
195;446.9272155761719
196;445.67718505859375
197;444.4362487792969
198;443.2087707519531
199;441.991455078125
200;440.78173828125
201;439.58258056640625
202;438.39251708984375
203;437.21197509765625
204;436.0419921875
205;434.88153076171875
206;433.73193359375
207;432.58905029296875
208;431.45758056640625
209;430.33160400390625
210;429.2179260253906
211;428.1131286621094
212;427.0140075683594
213;425.925048828125
214;424.8408203125
215;423.7636413574219
216;422.69317626953125
217;421.6294250488281
218;420.5726623535156
219;419.5226745605469
220;418.479248046875
221;417.445068359375
222;416.41522216796875
223;415.3941345214844
224;414.37689208984375
225;413.367919921875
226;412.36474609375
227;411.3674011230469
228;410.37396240234375
229;409.38641357421875
230;408.40618896484375
231;407.4313049316406
232;406.4596862792969
233;405.49493408203125
234;404.5340270996094
235;403.57830810546875
236;402.6292419433594
237;401.6832580566406
238;400.7439270019531
239;399.8075256347656
240;398.8756408691406
241;397.9486389160156
242;397.02783203125
243;396.111572265625
244;395.19970703125
245;394.2924499511719
246;393.38861083984375
247;392.489501953125
248;391.5950622558594
249;390.7052307128906
250;389.8210754394531
251;388.9396667480469
252;388.062255859375
253;387.1886291503906
254;386.3186950683594
255;385.4539489746094
256;384.5927429199219
257;383.7351989746094
258;382.88116455078125
259;382.0306701660156
260;381.18218994140625
261;380.3385925292969
262;379.4983215332031
263;378.6600036621094
264;377.8266296386719
265;376.99664306640625
266;376.16986083984375
267;375.34478759765625
268;374.52435302734375
269;373.7070007324219
270;372.8926086425781
271;372.0802307128906
272;371.2708435058594
273;370.4645690917969
274;369.66119384765625
275;368.862060546875
276;368.0645446777344
277;367.2711486816406
278;366.4805603027344
279;365.6927795410156
280;364.90777587890625
281;364.12542724609375
282;363.3457946777344
283;362.56890869140625
284;361.794921875
285;361.0237731933594
286;360.25531005859375
287;359.48828125
288;358.72503662109375
289;357.9645690917969
290;357.20635986328125
291;356.4518127441406
292;355.69976806640625
293;354.9503479003906
294;354.2023620605469
295;353.45806884765625
296;352.71630859375
297;351.9769592285156
298;351.2389221191406
299;350.50439453125
300;349.77252197265625
301;349.0419921875
302;348.3166809082031
303;347.5928649902344
304;346.87115478515625
305;346.1525573730469
306;345.43505859375
307;344.7207336425781
308;344.0086364746094
309;343.2986145019531
310;342.5896911621094
311;341.8829650878906
312;341.1792297363281
313;340.47662353515625
314;339.7771911621094
315;339.07891845703125
316;338.38275146484375
317;337.6896667480469
318;336.9976501464844
319;336.3077697753906
320;335.62060546875
321;334.93560791015625
322;334.2522277832031
323;333.5706481933594
324;332.8908996582031
325;332.2137145996094
326;331.53741455078125
327;330.86480712890625
328;330.19329833984375
329;329.5235900878906
330;328.8556823730469
331;328.1903991699219
332;327.5260314941406
333;326.86431884765625
334;326.20361328125
335;325.54547119140625
336;324.88909912109375
337;324.2345275878906
338;323.5816955566406
339;322.9300231933594
340;322.2805480957031
341;321.6325378417969
342;320.9859924316406
343;320.3414001464844
344;319.69921875
345;319.0578918457031
346;318.4184265136719
347;317.7805480957031
348;317.14447021484375
349;316.5108947753906
350;315.87908935546875
351;315.2480773925781
352;314.61871337890625
353;313.990966796875
354;313.36480712890625
355;312.7402648925781
356;312.1181335449219
357;311.4970703125
358;310.87750244140625
359;310.2602844238281
360;309.6445007324219
361;309.0302734375
362;308.41680908203125
363;307.8058776855469
364;307.1963195800781
365;306.58843994140625
366;305.98199462890625
367;305.37701416015625
368;304.7735900878906
369;304.1708984375
370;303.5696716308594
371;302.97015380859375
372;302.37188720703125
373;301.775390625
374;301.1803894042969
375;300.58673095703125
376;299.99505615234375
377;299.40411376953125
378;298.8146667480469
379;298.2267150878906
380;297.6401062011719
381;297.0556640625
382;296.4720153808594
383;295.8898620605469
384;295.3097839355469
385;294.7310485839844
386;294.153564453125
387;293.5774230957031
388;293.0027160644531
389;292.4292907714844
390;291.85723876953125
391;291.28656005859375
392;290.7171630859375
393;290.1486511230469
394;289.5816345214844
395;289.015625
396;288.4509582519531
397;287.88751220703125
398;287.3252868652344
399;286.76434326171875
400;286.20458984375
401;285.64678955078125
402;285.08966064453125
403;284.5338439941406
404;283.9792785644531
405;283.426025390625
406;282.8741149902344
407;282.3235168457031
408;281.77410888671875
409;281.22589111328125
410;280.6789855957031
411;280.13323974609375
412;279.5888366699219
413;279.0459899902344
414;278.50445556640625
415;277.9640808105469
416;277.4250793457031
417;276.8869323730469
418;276.3501892089844
419;275.8146057128906
420;275.2796936035156
421;274.7463684082031
422;274.2143859863281
423;273.6833190917969
424;273.15362548828125
425;272.6250915527344
426;272.0976257324219
427;271.5713806152344
428;271.0462951660156
429;270.5223083496094
430;269.9993591308594
431;269.4775390625
432;268.9569396972656
433;268.4373474121094
434;267.9189147949219
435;267.401611328125
436;266.88494873046875
437;266.3693542480469
438;265.85540771484375
439;265.3424987792969
440;264.83026123046875
441;264.3190612792969
442;263.80889892578125
443;263.3002624511719
444;262.7925720214844
445;262.28546142578125
446;261.77972412109375
447;261.27520751953125
448;260.7716979980469
449;260.2695617675781
450;259.76800537109375
451;259.26788330078125
452;258.7683410644531
453;258.2702331542969
454;257.7731018066406
455;257.2776184082031
456;256.78228759765625
457;256.2879333496094
458;255.79483032226562
459;255.30264282226562
460;254.81141662597656
461;254.32115173339844
462;253.8319091796875
463;253.3435821533203
464;252.8567657470703
465;252.3701934814453
466;251.885498046875
467;251.40150451660156
468;250.91845703125
469;250.4366912841797
470;249.95545959472656
471;249.4755859375
472;248.99661254882812
473;248.51832580566406
474;248.0413360595703
475;247.5652618408203
476;247.08973693847656
477;246.6156768798828
478;246.1425018310547
479;245.66981506347656
480;245.19869995117188
481;244.72830200195312
482;244.25875854492188
483;243.79042053222656
484;243.32261657714844
485;242.8561248779297
486;242.3905487060547
487;241.92613220214844
488;241.4625701904297
489;240.99951171875
490;240.5375518798828
491;240.076904296875
492;239.61708068847656
493;239.1581268310547
494;238.69973754882812
495;238.2427520751953
496;237.7862091064453
497;237.33056640625
498;236.87583923339844
499;236.42221069335938
