;loss
0;888.0404663085938
1;887.8919677734375
2;887.6929931640625
3;887.4946899414062
4;887.297119140625
5;887.100341796875
6;886.9100952148438
7;886.71875
8;886.5239868164062
9;886.3316650390625
10;886.1392822265625
11;885.9467163085938
12;885.7545166015625
13;885.5634155273438
14;885.3718872070312
15;885.1820678710938
16;884.992919921875
17;884.8042602539062
18;884.6162109375
19;884.4269409179688
20;884.238037109375
21;884.0515747070312
22;883.8634643554688
23;883.6757202148438
24;883.4904174804688
25;883.3054809570312
26;883.1206665039062
27;882.9341430664062
28;882.749755859375
29;882.5654907226562
30;882.381591796875
31;882.1974487304688
32;882.0134887695312
33;881.8272094726562
34;881.6431274414062
35;881.456787109375
36;881.270263671875
37;881.0836181640625
38;880.898681640625
39;880.713623046875
40;880.528076171875
41;880.3421630859375
42;880.1541137695312
43;879.9654541015625
44;879.7783813476562
45;879.5907592773438
46;879.402587890625
47;879.2140502929688
48;879.0248413085938
49;878.8334350585938
50;878.6431884765625
51;878.4506225585938
52;878.2591552734375
53;878.0669555664062
54;877.8726806640625
55;877.679443359375
56;877.4853515625
57;877.290771484375
58;877.0955200195312
59;876.8995971679688
60;876.701416015625
61;876.504150390625
62;876.3046264648438
63;876.1058959960938
64;875.9050903320312
65;875.7035522460938
66;875.501220703125
67;875.2982788085938
68;875.0946655273438
69;874.8916625976562
70;874.6879272460938
71;874.482177734375
72;874.2769775390625
73;874.071044921875
74;873.8643188476562
75;873.656982421875
76;873.4486694335938
77;873.2398681640625
78;873.0288696289062
79;872.817138671875
80;872.6058959960938
81;872.3939819335938
82;872.1800537109375
83;871.9664306640625
84;871.7509155273438
85;871.5357666015625
86;871.3199462890625
87;871.1031494140625
88;870.8857421875
89;870.666259765625
90;870.446044921875
91;870.2250366210938
92;870.0043334960938
93;869.7828369140625
94;869.5606079101562
95;869.3375244140625
96;869.1136474609375
97;868.8888549804688
98;868.6634521484375
99;868.4359741210938
100;868.208740234375
101;867.9796752929688
102;867.7496337890625
103;867.5189819335938
104;867.288330078125
105;867.056884765625
106;866.8236083984375
107;866.5894775390625
108;866.3544311523438
109;866.1195068359375
110;865.8837890625
111;865.647216796875
112;865.4097290039062
113;865.1713256835938
114;864.9321899414062
115;864.6919555664062
116;864.450927734375
117;864.208984375
118;863.9661865234375
119;863.7224731445312
120;863.477783203125
121;863.2322387695312
122;862.9849243164062
123;862.737548828125
124;862.4890747070312
125;862.239990234375
126;861.9888305664062
127;861.7366943359375
128;861.4845581054688
129;861.2315063476562
130;860.9765625
131;860.7214965820312
132;860.4646606445312
133;860.2075805664062
134;859.9495849609375
135;859.6903686523438
136;859.4302368164062
137;859.1680297851562
138;858.9058837890625
139;858.6416625976562
140;858.3764038085938
141;858.110107421875
142;857.843505859375
143;857.5757446289062
144;857.3060913085938
145;857.0360717773438
146;856.764892578125
147;856.4918212890625
148;856.2174072265625
149;855.9427490234375
150;855.6668090820312
151;855.3896484375
152;855.1103515625
153;854.8306274414062
154;854.5496215820312
155;854.2665405273438
156;853.9827880859375
157;853.6976928710938
158;853.4113159179688
159;853.1234741210938
160;852.834228515625
161;852.5435180664062
162;852.2514038085938
163;851.9576416015625
164;851.662353515625
165;851.3656616210938
166;851.0673217773438
167;850.7665405273438
168;850.4642333984375
169;850.1611328125
170;849.8563842773438
171;849.5498657226562
172;849.2416381835938
173;848.931640625
174;848.6199340820312
175;848.3064575195312
176;847.9902954101562
177;847.673095703125
178;847.353271484375
179;847.0321655273438
180;846.7084350585938
181;846.3828125
182;846.0550537109375
183;845.7254028320312
184;845.3935546875
185;845.0596313476562
186;844.7244262695312
187;844.386962890625
188;844.0474853515625
189;843.7048950195312
190;843.3599853515625
191;843.0127563476562
192;842.6641235351562
193;842.3131103515625
194;841.9597778320312
195;841.6040649414062
196;841.2449340820312
197;840.8833618164062
198;840.5193481445312
199;840.1535034179688
200;839.7843627929688
201;839.4132690429688
202;839.0386962890625
203;838.6622924804688
204;838.283203125
205;837.9014282226562
206;837.5161743164062
207;837.1279907226562
208;836.7379150390625
209;836.3447875976562
210;835.9480590820312
211;835.5491943359375
212;835.1465454101562
213;834.740966796875
214;834.3330688476562
215;833.9223022460938
216;833.5087280273438
217;833.091064453125
218;832.6714477539062
219;832.2478637695312
220;831.8212890625
221;831.3916625976562
222;830.9591674804688
223;830.5234985351562
224;830.0857543945312
225;829.6451416015625
226;829.2007446289062
227;828.753662109375
228;828.3036499023438
229;827.8507690429688
230;827.3951416015625
231;826.936767578125
232;826.4756469726562
233;826.011962890625
234;825.5458374023438
235;825.077880859375
236;824.6065063476562
237;824.1338500976562
238;823.6607055664062
239;823.1863403320312
240;822.7094116210938
241;822.230712890625
242;821.751220703125
243;821.2691650390625
244;820.785888671875
245;820.3018188476562
246;819.8179931640625
247;819.3333740234375
248;818.8497924804688
249;818.3654174804688
250;817.8812255859375
251;817.3966674804688
252;816.9126586914062
253;816.4296264648438
254;815.9464721679688
255;815.4634399414062
256;814.9827880859375
257;814.502685546875
258;814.0230712890625
259;813.5440063476562
260;813.0656127929688
261;812.5878295898438
262;812.1102905273438
263;811.633544921875
264;811.158935546875
265;810.686279296875
266;810.2146606445312
267;809.7439575195312
268;809.2752075195312
269;808.8091430664062
270;808.3446655273438
271;807.8817749023438
272;807.4220581054688
273;806.9656372070312
274;806.5106811523438
275;806.0589599609375
276;805.6117553710938
277;805.1687622070312
278;804.7315063476562
279;804.298828125
280;803.8718872070312
281;803.4468994140625
282;803.026611328125
283;802.6091918945312
284;802.1962280273438
285;801.7865600585938
286;801.3799438476562
287;800.9777221679688
288;800.5801391601562
289;800.1851806640625
290;799.7923583984375
291;799.4024047851562
292;799.0142822265625
293;798.6290893554688
294;798.246337890625
295;797.8668212890625
296;797.4896850585938
297;797.1165771484375
298;796.7462768554688
299;796.3787231445312
300;796.0130615234375
301;795.6502075195312
302;795.2896118164062
303;794.931396484375
304;794.5753784179688
305;794.2217407226562
306;793.870361328125
307;793.5208740234375
308;793.1740112304688
309;792.8294677734375
310;792.4868774414062
311;792.1458740234375
312;791.8067016601562
313;791.4692993164062
314;791.1337280273438
315;790.8003540039062
316;790.4685668945312
317;790.1394653320312
318;789.8119506835938
319;789.4867553710938
320;789.1630859375
321;788.8414306640625
322;788.5209350585938
323;788.2019653320312
324;787.885009765625
325;787.5699462890625
326;787.2562866210938
327;786.9447021484375
328;786.6342163085938
329;786.3253784179688
330;786.0179443359375
331;785.7122802734375
332;785.4083862304688
333;785.1056518554688
334;784.8048706054688
335;784.5053100585938
336;784.2070922851562
337;783.9100952148438
338;783.6138916015625
339;783.3193359375
340;783.0259399414062
341;782.733642578125
342;782.4424438476562
343;782.15234375
344;781.8629150390625
345;781.5750122070312
346;781.2880249023438
347;781.001708984375
348;780.716796875
349;780.4326782226562
350;780.1494750976562
351;779.8673706054688
352;779.5864868164062
353;779.3062133789062
354;779.0267944335938
355;778.7486572265625
356;778.471435546875
357;778.195068359375
358;777.9195556640625
359;777.6451416015625
360;777.3712768554688
361;777.0985717773438
362;776.8265380859375
363;776.5552978515625
364;776.28515625
365;776.015869140625
366;775.7474365234375
367;775.4794311523438
368;775.212158203125
369;774.9462280273438
370;774.6806640625
371;774.4158325195312
372;774.152099609375
373;773.8888549804688
374;773.6264038085938
375;773.3646240234375
376;773.103515625
377;772.843017578125
378;772.5836181640625
379;772.3245849609375
380;772.066162109375
381;771.80859375
382;771.5517578125
383;771.295166015625
384;771.0392456054688
385;770.7842407226562
386;770.5299072265625
387;770.276123046875
388;770.0230102539062
389;769.7705688476562
390;769.5183715820312
391;769.2672119140625
392;769.0165405273438
393;768.766357421875
394;768.5167846679688
395;768.267822265625
396;768.0193481445312
397;767.771240234375
398;767.523681640625
399;767.2767944335938
400;767.0306396484375
401;766.7846069335938
402;766.5391235351562
403;766.2943725585938
404;766.0501708984375
405;765.8062133789062
406;765.562744140625
407;765.3197631835938
408;765.0773315429688
409;764.8353271484375
410;764.59375
411;764.3526000976562
412;764.1122436523438
413;763.8720703125
414;763.6326293945312
415;763.3935546875
416;763.1549072265625
417;762.9169311523438
418;762.6793212890625
419;762.4419555664062
420;762.2048950195312
421;761.9683837890625
422;761.7324829101562
423;761.496826171875
424;761.2616577148438
425;761.0267944335938
426;760.7926025390625
427;760.5586547851562
428;760.3253784179688
429;760.0923461914062
430;759.8594360351562
431;759.627197265625
432;759.3954467773438
433;759.1636962890625
434;758.9324340820312
435;758.7017822265625
436;758.471435546875
437;758.2412719726562
438;758.0116577148438
439;757.7822265625
440;757.5533447265625
441;757.3248291015625
442;757.0966796875
443;756.8687133789062
444;756.6409912109375
445;756.4136962890625
446;756.186767578125
447;755.9603271484375
448;755.7340087890625
449;755.508056640625
450;755.282470703125
451;755.0574340820312
452;754.8326416015625
453;754.6083374023438
454;754.3839721679688
455;754.1602172851562
456;753.9365844726562
457;753.7134399414062
458;753.4906616210938
459;753.2679443359375
460;753.0457153320312
461;752.8238525390625
462;752.6023559570312
463;752.381103515625
464;752.159912109375
465;751.9390258789062
466;751.718505859375
467;751.4984741210938
468;751.2786865234375
469;751.0592041015625
470;750.8400268554688
471;750.62109375
472;750.40234375
473;750.1840209960938
474;749.9660034179688
475;749.748291015625
476;749.5308837890625
477;749.313720703125
478;749.0968627929688
479;748.8802490234375
480;748.6640625
481;748.4480590820312
482;748.232177734375
483;748.0165405273438
484;747.8013305664062
485;747.586181640625
486;747.3714599609375
487;747.1570434570312
488;746.9427490234375
489;746.7288818359375
490;746.5152587890625
491;746.3019409179688
492;746.0888061523438
493;745.8759765625
494;745.663330078125
495;745.4511108398438
496;745.2388305664062
497;745.0269775390625
498;744.8154296875
499;744.6040649414062
