;loss
0;867.6221923828125
1;867.5115966796875
2;867.4009399414062
3;867.30029296875
4;867.1897583007812
5;867.0791625976562
6;866.9719848632812
7;866.8614501953125
8;866.7509765625
9;866.6405029296875
10;866.5305786132812
11;866.4200439453125
12;866.3092651367188
13;866.1986694335938
14;866.08740234375
15;865.9765014648438
16;865.8653564453125
17;865.7542114257812
18;865.6416625976562
19;865.5299072265625
20;865.4166870117188
21;865.3031005859375
22;865.1890869140625
23;865.0758056640625
24;864.9608764648438
25;864.84521484375
26;864.7291259765625
27;864.6123046875
28;864.4949951171875
29;864.3768310546875
30;864.2581176757812
31;864.1383666992188
32;864.0194091796875
33;863.8995971679688
34;863.7789306640625
35;863.6560668945312
36;863.5336303710938
37;863.4102783203125
38;863.2860107421875
39;863.16064453125
40;863.0343017578125
41;862.9071044921875
42;862.7787475585938
43;862.6493530273438
44;862.5189819335938
45;862.3861083984375
46;862.2522583007812
47;862.1171264648438
48;861.9822998046875
49;861.8461303710938
50;861.7075805664062
51;861.5692138671875
52;861.4281616210938
53;861.2872314453125
54;861.1438598632812
55;861.0003662109375
56;860.8543701171875
57;860.7083129882812
58;860.5596923828125
59;860.4108276367188
60;860.2608032226562
61;860.1092529296875
62;859.9563598632812
63;859.8008422851562
64;859.64501953125
65;859.4877319335938
66;859.3277587890625
67;859.1663208007812
68;859.0033569335938
69;858.8399658203125
70;858.6749267578125
71;858.50732421875
72;858.3380126953125
73;858.1672973632812
74;857.9947509765625
75;857.8204956054688
76;857.6446533203125
77;857.4671020507812
78;857.2877807617188
79;857.1067504882812
80;856.9239501953125
81;856.7403564453125
82;856.5538940429688
83;856.3667602539062
84;856.1767578125
85;855.9859008789062
86;855.7931518554688
87;855.5985107421875
88;855.4019165039062
89;855.2034301757812
90;855.0028076171875
91;854.7992553710938
92;854.5946044921875
93;854.3880004882812
94;854.1792602539062
95;853.9684448242188
96;853.7545166015625
97;853.5385131835938
98;853.3212280273438
99;853.1016845703125
100;852.8798828125
101;852.6548461914062
102;852.4285888671875
103;852.2000732421875
104;851.9691772460938
105;851.7360229492188
106;851.5004272460938
107;851.2623901367188
108;851.0209350585938
109;850.7778930664062
110;850.5325317382812
111;850.2835083007812
112;850.0328979492188
113;849.7799072265625
114;849.5231323242188
115;849.2637939453125
116;849.0017700195312
117;848.7371215820312
118;848.4696044921875
119;848.2005004882812
120;847.9274291992188
121;847.6527709960938
122;847.3741455078125
123;847.0936279296875
124;846.8104248046875
125;846.52294921875
126;846.2327270507812
127;845.9404296875
128;845.64404296875
129;845.3455810546875
130;845.04296875
131;844.7372436523438
132;844.42822265625
133;844.1160888671875
134;843.80078125
135;843.4822998046875
136;843.1602783203125
137;842.8350830078125
138;842.5076293945312
139;842.1756591796875
140;841.8413696289062
141;841.5037841796875
142;841.16259765625
143;840.8179321289062
144;840.4686279296875
145;840.1168823242188
146;839.7606201171875
147;839.4007568359375
148;839.0372924804688
149;838.6714477539062
150;838.3009033203125
151;837.9266967773438
152;837.5501098632812
153;837.1686401367188
154;836.7837524414062
155;836.3950805664062
156;836.0042114257812
157;835.6096801757812
158;835.2115478515625
159;834.8086547851562
160;834.4034423828125
161;833.9948120117188
162;833.5816040039062
163;833.1650390625
164;832.7449951171875
165;832.3217163085938
166;831.8950805664062
167;831.4652099609375
168;831.0321655273438
169;830.5960083007812
170;830.15673828125
171;829.7144165039062
172;829.2705688476562
173;828.8238525390625
174;828.3745727539062
175;827.9212036132812
176;827.4666748046875
177;827.0084228515625
178;826.5491333007812
179;826.0875244140625
180;825.6227416992188
181;825.1572265625
182;824.6897583007812
183;824.2192993164062
184;823.7485961914062
185;823.2763671875
186;822.8014526367188
187;822.3253784179688
188;821.8493041992188
189;821.3724365234375
190;820.8934326171875
191;820.4149169921875
192;819.9359130859375
193;819.4553833007812
194;818.974609375
195;818.49365234375
196;818.0138549804688
197;817.5341796875
198;817.0537109375
199;816.5735473632812
200;816.0949096679688
201;815.6168823242188
202;815.1396484375
203;814.662109375
204;814.1856689453125
205;813.7113647460938
206;813.23828125
207;812.7666015625
208;812.2962646484375
209;811.8263549804688
210;811.3596801757812
211;810.8937377929688
212;810.4296264648438
213;809.96728515625
214;809.5068969726562
215;809.0485229492188
216;808.5921020507812
217;808.1386108398438
218;807.6871948242188
219;807.2379760742188
220;806.7909545898438
221;806.34619140625
222;805.9036865234375
223;805.4625854492188
224;805.0247192382812
225;804.5883178710938
226;804.1549682617188
227;803.7233276367188
228;803.2940063476562
229;802.8671875
230;802.4426879882812
231;802.0206298828125
232;801.6010131835938
233;801.1837768554688
234;800.76904296875
235;800.3575439453125
236;799.9483642578125
237;799.5410766601562
238;799.1368408203125
239;798.7349853515625
240;798.3355712890625
241;797.9378051757812
242;797.5433349609375
243;797.1508178710938
244;796.7613525390625
245;796.37353515625
246;795.9880981445312
247;795.6055297851562
248;795.2251586914062
249;794.8464965820312
250;794.4699096679688
251;794.0962524414062
252;793.7239379882812
253;793.3536987304688
254;792.9863891601562
255;792.6212158203125
256;792.2574462890625
257;791.8963623046875
258;791.5368041992188
259;791.1801147460938
260;790.8253173828125
261;790.4719848632812
262;790.12109375
263;789.7720336914062
264;789.4248657226562
265;789.0796508789062
266;788.7362060546875
267;788.3939819335938
268;788.0533447265625
269;787.7145385742188
270;787.3775024414062
271;787.0425415039062
272;786.7101440429688
273;786.3792114257812
274;786.0498046875
275;785.7230834960938
276;785.3975219726562
277;785.0734252929688
278;784.7516479492188
279;784.4307861328125
280;784.1119384765625
281;783.7944946289062
282;783.478515625
283;783.1635131835938
284;782.8499145507812
285;782.5381469726562
286;782.2277221679688
287;781.9181518554688
288;781.6099243164062
289;781.3029174804688
290;780.9976806640625
291;780.6935424804688
292;780.3905029296875
293;780.0885620117188
294;779.7879638671875
295;779.4884033203125
296;779.1904296875
297;778.8931884765625
298;778.5971069335938
299;778.30224609375
300;778.0088500976562
301;777.7166748046875
302;777.4251098632812
303;777.1350708007812
304;776.8455810546875
305;776.5572509765625
306;776.2698974609375
307;775.9838256835938
308;775.6989135742188
309;775.4151611328125
310;775.1322631835938
311;774.8504028320312
312;774.5693969726562
313;774.2898559570312
314;774.01123046875
315;773.7335205078125
316;773.4566040039062
317;773.1807250976562
318;772.9058227539062
319;772.6317749023438
320;772.3590698242188
321;772.08740234375
322;771.8161010742188
323;771.5457763671875
324;771.2766723632812
325;771.0078735351562
326;770.7403564453125
327;770.4738159179688
328;770.2076416015625
329;769.9427490234375
330;769.6781616210938
331;769.4144287109375
332;769.1513671875
333;768.8890380859375
334;768.6278076171875
335;768.3667602539062
336;768.1068115234375
337;767.8472290039062
338;767.5882568359375
339;767.3299560546875
340;767.072265625
341;766.8153686523438
342;766.5593872070312
343;766.3040161132812
344;766.0488891601562
345;765.7947998046875
346;765.5411376953125
347;765.2877807617188
348;765.03515625
349;764.7830810546875
350;764.5317993164062
351;764.2808837890625
352;764.03076171875
353;763.7810668945312
354;763.53173828125
355;763.2832641601562
356;763.0350341796875
357;762.7872924804688
358;762.5405883789062
359;762.2944946289062
360;762.0490112304688
361;761.8040771484375
362;761.5601196289062
363;761.3168334960938
364;761.0741577148438
365;760.8317260742188
366;760.5901489257812
367;760.3493041992188
368;760.1090698242188
369;759.8694458007812
370;759.6302490234375
371;759.3919067382812
372;759.1538696289062
373;758.9164428710938
374;758.6795654296875
375;758.4432373046875
376;758.2075805664062
377;757.9721069335938
378;757.7374267578125
379;757.5032348632812
380;757.2696533203125
381;757.03662109375
382;756.8040161132812
383;756.5715942382812
384;756.3396606445312
385;756.1082763671875
386;755.8773803710938
387;755.6471557617188
388;755.4174194335938
389;755.1884155273438
390;754.9595336914062
391;754.7314453125
392;754.50390625
393;754.2766723632812
394;754.0499267578125
395;753.8239135742188
396;753.59814453125
397;753.3729248046875
398;753.1481323242188
399;752.923828125
400;752.6998901367188
401;752.4763793945312
402;752.2530517578125
403;752.0301513671875
404;751.8079223632812
405;751.5859375
406;751.3641357421875
407;751.1427612304688
408;750.9219360351562
409;750.7012939453125
410;750.48095703125
411;750.26123046875
412;750.0416259765625
413;749.8223876953125
414;749.6036987304688
415;749.3853759765625
416;749.1671142578125
417;748.9491577148438
418;748.7317504882812
419;748.5146484375
420;748.2979125976562
421;748.0814819335938
422;747.8653564453125
423;747.6495361328125
424;747.4341430664062
425;747.2191162109375
426;747.0044555664062
427;746.7902221679688
428;746.5762939453125
429;746.3624877929688
430;746.1494140625
431;745.9364013671875
432;745.7239990234375
433;745.51171875
434;745.2998046875
435;745.08837890625
436;744.87744140625
437;744.66650390625
438;744.4559326171875
439;744.2455444335938
440;744.0355834960938
441;743.8257446289062
442;743.6166381835938
443;743.4075317382812
444;743.1986694335938
445;742.9901733398438
446;742.7819213867188
447;742.5740356445312
448;742.3665161132812
449;742.1590576171875
450;741.9520263671875
451;741.7451171875
452;741.5385131835938
453;741.3320922851562
454;741.1259155273438
455;740.9202270507812
456;740.7147216796875
457;740.5092163085938
458;740.3038940429688
459;740.0989379882812
460;739.8942260742188
461;739.6898803710938
462;739.4854736328125
463;739.2813110351562
464;739.0774536132812
465;738.8739013671875
466;738.6705932617188
467;738.4675903320312
468;738.2646484375
469;738.0620727539062
470;737.8596801757812
471;737.6574096679688
472;737.4555053710938
473;737.2536010742188
474;737.0521240234375
475;736.8507690429688
476;736.6494750976562
477;736.4486083984375
478;736.2479248046875
479;736.0474243164062
480;735.8469848632812
481;735.6468505859375
482;735.4470825195312
483;735.2474365234375
484;735.0480346679688
485;734.8489379882812
486;734.6499633789062
487;734.4512329101562
488;734.2526245117188
489;734.0541381835938
490;733.8560180664062
491;733.6581420898438
492;733.4603271484375
493;733.2628784179688
494;733.0657958984375
495;732.86865234375
496;732.671875
497;732.4752197265625
498;732.2789306640625
499;732.0828857421875
500;731.8870239257812
501;731.6912841796875
502;731.4957275390625
503;731.3002319335938
504;731.1051025390625
505;730.9099731445312
506;730.7152099609375
507;730.5205688476562
508;730.3260498046875
509;730.1315307617188
510;729.9375
511;729.7437133789062
512;729.5499877929688
513;729.3564453125
514;729.1629638671875
515;728.9697265625
516;728.7767944335938
517;728.5838012695312
518;728.3911743164062
519;728.1986694335938
520;728.0064086914062
521;727.8141479492188
522;727.6220703125
523;727.4302368164062
524;727.2384643554688
525;727.0468139648438
526;726.8553466796875
527;726.6641235351562
528;726.4730834960938
529;726.2821044921875
530;726.0912475585938
531;725.9005126953125
532;725.7098388671875
533;725.51953125
534;725.3294067382812
535;725.1392211914062
536;724.9492797851562
537;724.7596435546875
538;724.5700073242188
539;724.3804321289062
540;724.1911010742188
541;724.0018310546875
542;723.8128051757812
543;723.6238403320312
544;723.4349975585938
545;723.2464599609375
546;723.0580444335938
547;722.86962890625
548;722.6812744140625
549;722.4932250976562
550;722.3052978515625
551;722.1173706054688
552;721.9297485351562
553;721.7422485351562
554;721.5548095703125
555;721.3676147460938
556;721.1802978515625
557;720.9933471679688
558;720.8065795898438
559;720.6196899414062
560;720.4331665039062
561;720.24658203125
562;720.0602416992188
563;719.8739624023438
564;719.6879272460938
565;719.5020141601562
566;719.3162231445312
567;719.1305541992188
568;718.9450073242188
569;718.7596435546875
570;718.57421875
571;718.3890991210938
572;718.2040405273438
573;718.0191040039062
574;717.8342895507812
575;717.6495971679688
576;717.4650268554688
577;717.2806396484375
578;717.0963134765625
579;716.9121704101562
580;716.7280883789062
581;716.5440673828125
582;716.3602294921875
583;716.1764526367188
584;715.9927978515625
585;715.8093872070312
586;715.6259155273438
587;715.4427490234375
588;715.2595825195312
589;715.0765991210938
590;714.8938598632812
591;714.7109985351562
592;714.5284423828125
593;714.3458251953125
594;714.1633911132812
595;713.98095703125
596;713.7987060546875
597;713.6166381835938
598;713.4346313476562
599;713.2528076171875
600;713.0711669921875
601;712.8896484375
602;712.7080688476562
603;712.5267333984375
604;712.3453369140625
605;712.1641845703125
606;711.9832763671875
607;711.8024291992188
608;711.6216430664062
609;711.4409790039062
610;711.2604370117188
611;711.0800170898438
612;710.8995361328125
613;710.7191772460938
614;710.5391235351562
615;710.3590698242188
616;710.17919921875
617;709.9994506835938
618;709.8197631835938
619;709.6400756835938
620;709.4605102539062
621;709.2811279296875
622;709.1018676757812
623;708.9225463867188
624;708.7435302734375
625;708.5645751953125
626;708.3856811523438
627;708.2069091796875
628;708.0281372070312
629;707.849609375
630;707.6710205078125
631;707.4927368164062
632;707.3143920898438
633;707.1361694335938
634;706.9580078125
635;706.7799682617188
636;706.60205078125
637;706.42431640625
638;706.2466430664062
639;706.0690307617188
640;705.8917236328125
641;705.7141723632812
642;705.5368041992188
643;705.3596801757812
644;705.1826171875
645;705.0056762695312
646;704.8287353515625
647;704.6520385742188
648;704.4754638671875
649;704.2988891601562
650;704.1224365234375
651;703.9459228515625
652;703.7696533203125
653;703.5933837890625
654;703.4173583984375
655;703.2412109375
656;703.0653686523438
657;702.8895263671875
658;702.7138671875
659;702.5382080078125
660;702.3627319335938
661;702.1871948242188
662;702.0118408203125
663;701.8364868164062
664;701.6613159179688
665;701.4862060546875
666;701.3110961914062
667;701.1361083984375
668;700.9613037109375
669;700.7864990234375
670;700.6117553710938
671;700.4370727539062
672;700.2626342773438
673;700.0881958007812
674;699.9137573242188
675;699.7396240234375
676;699.5654907226562
677;699.3914184570312
678;699.2174682617188
679;699.0435180664062
680;698.8697509765625
681;698.6961669921875
682;698.5225219726562
683;698.3490600585938
684;698.1756591796875
685;698.0023193359375
686;697.8291015625
687;697.6558227539062
688;697.4827880859375
689;697.3098754882812
690;697.1368408203125
691;696.9639282226562
692;696.7911376953125
693;696.6185302734375
694;696.4459228515625
695;696.2734375
696;696.1010131835938
697;695.9287109375
698;695.7565307617188
699;695.5842895507812
700;695.4122314453125
701;695.2401123046875
702;695.0681762695312
703;694.8961791992188
704;694.7244262695312
705;694.552734375
706;694.3811645507812
707;694.2095336914062
708;694.0380859375
709;693.8666381835938
710;693.6953125
711;693.5239868164062
712;693.3528442382812
713;693.181640625
714;693.0106811523438
715;692.8397216796875
716;692.6688842773438
717;692.498046875
718;692.3273315429688
719;692.1566772460938
720;691.9860229492188
721;691.8156127929688
722;691.6452026367188
723;691.4749145507812
724;691.3046875
725;691.1345825195312
726;690.9644165039062
727;690.7944946289062
728;690.62451171875
729;690.4546508789062
730;690.2848510742188
731;690.115234375
732;689.9456176757812
733;689.7759399414062
734;689.6063842773438
735;689.43701171875
736;689.2676391601562
737;689.0982055664062
738;688.9290161132812
739;688.759765625
740;688.5907592773438
741;688.4216918945312
742;688.2527465820312
743;688.0838623046875
744;687.9149780273438
745;687.7463989257812
746;687.5776977539062
747;687.4091796875
748;687.2406616210938
749;687.072265625
750;686.9038696289062
751;686.7355346679688
752;686.5673828125
753;686.3992919921875
754;686.2312622070312
755;686.0632934570312
756;685.8953857421875
757;685.7275390625
758;685.5596923828125
759;685.3920288085938
760;685.2243041992188
761;685.0567626953125
762;684.8892211914062
763;684.7218017578125
764;684.5545043945312
765;684.38720703125
766;684.2200317382812
767;684.052734375
768;683.8856811523438
769;683.7186279296875
770;683.5516967773438
771;683.3848876953125
772;683.2179565429688
773;683.0512084960938
774;682.8845825195312
775;682.7178955078125
776;682.55126953125
777;682.3848266601562
778;682.2184448242188
779;682.0521240234375
780;681.8857421875
781;681.7196044921875
782;681.5533447265625
783;681.3872680664062
784;681.22119140625
785;681.0552368164062
786;680.8893432617188
787;680.7235107421875
788;680.5577392578125
789;680.3920288085938
790;680.2263793945312
791;680.0607299804688
792;679.8953247070312
793;679.7298583984375
794;679.564453125
795;679.3992919921875
796;679.2340087890625
797;679.06884765625
798;678.9037475585938
799;678.73876953125
800;678.5737915039062
801;678.4088745117188
802;678.2440185546875
803;678.0791625976562
804;677.9144897460938
805;677.7498168945312
806;677.5851440429688
807;677.4205932617188
808;677.2561645507812
809;677.0917358398438
810;676.9274291992188
811;676.76318359375
812;676.5989379882812
813;676.4346923828125
814;676.2706298828125
815;676.1065673828125
816;675.9425048828125
817;675.7786254882812
818;675.61474609375
819;675.4508666992188
820;675.2871704101562
821;675.1234741210938
822;674.9598388671875
823;674.7962646484375
824;674.6326904296875
825;674.4692993164062
826;674.3058471679688
827;674.1424560546875
828;673.9791870117188
829;673.8159790039062
830;673.6528930664062
831;673.4898681640625
832;673.3267822265625
833;673.1638793945312
834;673.0009765625
835;672.8381958007812
836;672.6753540039062
837;672.5126953125
838;672.3500366210938
839;672.1873779296875
840;672.0249633789062
841;671.8624267578125
842;671.7000122070312
843;671.5376586914062
844;671.3753662109375
845;671.2130126953125
846;671.0509033203125
847;670.8887329101562
848;670.7266235351562
849;670.5646362304688
850;670.4027709960938
851;670.2407836914062
852;670.0789794921875
853;669.9171752929688
854;669.7554321289062
855;669.59375
856;669.43212890625
857;669.2705688476562
858;669.1090698242188
859;668.9476928710938
860;668.7862548828125
861;668.6248779296875
862;668.4636840820312
863;668.3023681640625
864;668.1411743164062
865;667.9800415039062
866;667.8189086914062
867;667.6578979492188
868;667.4969482421875
869;667.3360595703125
870;667.1752319335938
871;667.0144653320312
872;666.8536376953125
873;666.6929321289062
874;666.5323486328125
875;666.3717041015625
876;666.2112426757812
877;666.05078125
878;665.8903198242188
879;665.72998046875
880;665.5696411132812
881;665.4094848632812
882;665.2493286132812
883;665.0890502929688
884;664.9290161132812
885;664.7689819335938
886;664.6089477539062
887;664.4490356445312
888;664.2890625
889;664.1293334960938
890;663.9695434570312
891;663.8097534179688
892;663.6500244140625
893;663.4905395507812
894;663.3309936523438
895;663.1714477539062
896;663.0119018554688
897;662.8526000976562
898;662.6932983398438
899;662.5340576171875
900;662.3746948242188
901;662.2156372070312
902;662.0564575195312
903;661.8973388671875
904;661.73828125
905;661.5792236328125
906;661.4203491210938
907;661.2614135742188
908;661.1025390625
909;660.94384765625
910;660.7850952148438
911;660.6264038085938
912;660.4677734375
913;660.3092041015625
914;660.1506958007812
915;659.9921875
916;659.8338012695312
917;659.6754150390625
918;659.51708984375
919;659.3588256835938
920;659.2006225585938
921;659.04248046875
922;658.8843994140625
923;658.7262573242188
924;658.568359375
925;658.4104614257812
926;658.2525024414062
927;658.0947265625
928;657.9368896484375
929;657.7791748046875
930;657.6214599609375
931;657.4638061523438
932;657.30615234375
933;657.1486206054688
934;656.9911499023438
935;656.8336181640625
936;656.6762084960938
937;656.5189819335938
938;656.3616943359375
939;656.2042846679688
940;656.0471801757812
941;655.8900146484375
942;655.73291015625
943;655.5757446289062
944;655.4188232421875
945;655.2617797851562
946;655.1049194335938
947;654.9480590820312
948;654.7913208007812
949;654.6344604492188
950;654.4777221679688
951;654.3211059570312
952;654.1644287109375
953;654.0078125
954;653.8513793945312
955;653.6948852539062
956;653.5384521484375
957;653.3821411132812
958;653.2257080078125
959;653.0695190429688
960;652.9132080078125
961;652.7571411132812
962;652.6009521484375
963;652.44482421875
964;652.2887573242188
965;652.1327514648438
966;651.9768676757812
967;651.8208618164062
968;651.6650390625
969;651.5092163085938
970;651.3534545898438
971;651.1976928710938
972;651.0419921875
973;650.8862915039062
974;650.7307739257812
975;650.5751342773438
976;650.4196166992188
977;650.26416015625
978;650.1087646484375
979;649.9534301757812
980;649.7979736328125
981;649.6427612304688
982;649.4874877929688
983;649.3323364257812
984;649.17724609375
985;649.0220947265625
986;648.8670654296875
987;648.7120361328125
988;648.55712890625
989;648.4022216796875
990;648.2471923828125
991;648.0924682617188
992;647.9376220703125
993;647.7828979492188
994;647.6282958984375
995;647.4735717773438
996;647.3189086914062
997;647.1644287109375
998;647.0098876953125
999;646.85546875
1000;646.7010498046875
1001;646.5465698242188
1002;646.3922729492188
1003;646.2379760742188
1004;646.0838012695312
1005;645.9296264648438
1006;645.7754516601562
1007;645.6213989257812
1008;645.46728515625
1009;645.3132934570312
1010;645.1593017578125
1011;645.0054321289062
1012;644.8514404296875
1013;644.6976928710938
1014;644.5439453125
1015;644.3900756835938
1016;644.2364501953125
1017;644.0828857421875
1018;643.9292602539062
1019;643.7756958007812
1020;643.6221313476562
1021;643.4686889648438
1022;643.3152465820312
1023;643.1619262695312
1024;643.0084838867188
1025;642.8551635742188
1026;642.7019653320312
1027;642.5487060546875
1028;642.3955688476562
1029;642.2424926757812
1030;642.08935546875
1031;641.9363403320312
1032;641.7833251953125
1033;641.6303100585938
1034;641.4774169921875
1035;641.3245849609375
1036;641.1717529296875
1037;641.0189819335938
1038;640.8662109375
1039;640.7134399414062
1040;640.5608520507812
1041;640.408203125
1042;640.2557373046875
1043;640.1031494140625
1044;639.95068359375
1045;639.7982177734375
1046;639.6458129882812
1047;639.4935302734375
1048;639.3411865234375
1049;639.1889038085938
1050;639.0367431640625
1051;638.8846435546875
1052;638.7323608398438
1053;638.5802001953125
1054;638.42822265625
1055;638.2762451171875
1056;638.1242065429688
1057;637.9722900390625
1058;637.8203735351562
1059;637.6685791015625
1060;637.5167236328125
1061;637.3649291992188
1062;637.2132568359375
1063;637.0615234375
1064;636.9098510742188
1065;636.75830078125
1066;636.6068115234375
1067;636.4552612304688
1068;636.3037719726562
1069;636.1522827148438
1070;636.0009765625
1071;635.849609375
1072;635.6982421875
1073;635.5469970703125
1074;635.3956909179688
1075;635.2445678710938
1076;635.0933837890625
1077;634.9423217773438
1078;634.7913208007812
1079;634.6401977539062
1080;634.4891357421875
1081;634.3381958007812
1082;634.1871948242188
1083;634.0363159179688
1084;633.8855590820312
1085;633.7347412109375
1086;633.583984375
1087;633.4332275390625
1088;633.2825927734375
1089;633.1319580078125
1090;632.9814453125
1091;632.8309326171875
1092;632.6802978515625
1093;632.5298461914062
1094;632.3794555664062
1095;632.2290649414062
1096;632.0786743164062
1097;631.9283447265625
1098;631.7781372070312
1099;631.6279296875
1100;631.4777221679688
1101;631.32763671875
1102;631.1774291992188
1103;631.0274658203125
1104;630.8773803710938
1105;630.7273559570312
1106;630.5774536132812
1107;630.4275512695312
1108;630.2776489257812
1109;630.1278076171875
1110;629.97802734375
1111;629.8282470703125
1112;629.6785278320312
1113;629.52880859375
1114;629.3792114257812
1115;629.2295532226562
1116;629.0800170898438
1117;628.9303588867188
1118;628.7808837890625
1119;628.6314697265625
1120;628.4820556640625
1121;628.3326416015625
1122;628.1832885742188
1123;628.0339965820312
1124;627.884765625
1125;627.7354736328125
1126;627.58642578125
1127;627.4371948242188
1128;627.2881469726562
1129;627.1390991210938
1130;626.9901123046875
1131;626.8411254882812
1132;626.6920776367188
1133;626.5432739257812
1134;626.3944091796875
1135;626.2455444335938
1136;626.0967407226562
1137;625.9479370117188
1138;625.79931640625
1139;625.6505737304688
1140;625.501953125
1141;625.3533935546875
1142;625.2047729492188
1143;625.0562133789062
1144;624.9077758789062
1145;624.7593383789062
1146;624.6109008789062
1147;624.4625244140625
1148;624.3142700195312
1149;624.1659545898438
1150;624.0177001953125
1151;623.8695678710938
1152;623.7212524414062
1153;623.5731811523438
1154;623.4249877929688
1155;623.2770385742188
1156;623.1290283203125
1157;622.9810180664062
1158;622.8330688476562
1159;622.6851196289062
1160;622.5372924804688
1161;622.3895263671875
1162;622.24169921875
1163;622.0939331054688
1164;621.9462280273438
1165;621.7984619140625
1166;621.65087890625
1167;621.5033569335938
1168;621.3558349609375
1169;621.2083129882812
1170;621.0608520507812
1171;620.9133911132812
1172;620.7659912109375
1173;620.61865234375
1174;620.4712524414062
1175;620.3240356445312
1176;620.1767578125
1177;620.0296020507812
1178;619.8823852539062
1179;619.7352294921875
1180;619.5880737304688
1181;619.4410400390625
1182;619.2939453125
1183;619.1470336914062
1184;619.0000610351562
1185;618.8531494140625
1186;618.7063598632812
1187;618.5595703125
1188;618.4127197265625
1189;618.2659912109375
1190;618.1192626953125
1191;617.9725952148438
1192;617.8258666992188
1193;617.6793212890625
1194;617.5327758789062
1195;617.3862915039062
1196;617.2398071289062
1197;617.0933227539062
1198;616.9469604492188
1199;616.8006591796875
1200;616.654296875
1201;616.5079956054688
1202;616.3617553710938
1203;616.2154541015625
1204;616.0693359375
1205;615.9232177734375
1206;615.7771606445312
1207;615.6309814453125
1208;615.4849853515625
1209;615.3389892578125
1210;615.1929931640625
1211;615.0471801757812
1212;614.9013061523438
1213;614.75537109375
1214;614.6095581054688
1215;614.4638061523438
1216;614.3180541992188
1217;614.1724243164062
1218;614.0267944335938
1219;613.8810424804688
1220;613.7354736328125
1221;613.5899658203125
1222;613.4444580078125
1223;613.2989501953125
1224;613.1535034179688
1225;613.0081176757812
1226;612.8627319335938
1227;612.7174072265625
1228;612.5722045898438
1229;612.4268798828125
1230;612.2816772460938
1231;612.1365966796875
1232;611.9913330078125
1233;611.8462524414062
1234;611.701171875
1235;611.55615234375
1236;611.4111328125
1237;611.2661743164062
1238;611.1212158203125
1239;610.9762573242188
1240;610.8314819335938
1241;610.6867065429688
1242;610.5419311523438
1243;610.3971557617188
1244;610.2525634765625
1245;610.10791015625
1246;609.9632568359375
1247;609.8187255859375
1248;609.6741943359375
1249;609.5297241210938
1250;609.3851928710938
1251;609.2407836914062
1252;609.0963745117188
1253;608.9520263671875
1254;608.8076782226562
1255;608.6633911132812
1256;608.51904296875
1257;608.3748779296875
1258;608.2305908203125
1259;608.0864868164062
1260;607.9423217773438
1261;607.7982788085938
1262;607.6542358398438
1263;607.5101928710938
1264;607.3662109375
1265;607.22216796875
1266;607.0783081054688
1267;606.9344482421875
1268;606.7905883789062
1269;606.6467895507812
1270;606.5029907226562
1271;606.3593139648438
1272;606.2156372070312
1273;606.0718383789062
1274;605.9281616210938
1275;605.7846069335938
1276;605.6410522460938
1277;605.4974975585938
1278;605.35400390625
1279;605.2105102539062
1280;605.0670776367188
1281;604.9236450195312
1282;604.7802734375
1283;604.6369018554688
1284;604.49365234375
1285;604.3504028320312
1286;604.20703125
1287;604.0639038085938
1288;603.9207763671875
1289;603.7775268554688
1290;603.6344604492188
1291;603.4913940429688
1292;603.3483276367188
1293;603.2053833007812
1294;603.0623779296875
1295;602.9194946289062
1296;602.7765502929688
1297;602.6337280273438
1298;602.4908447265625
1299;602.3480834960938
1300;602.2053833007812
1301;602.0626220703125
1302;601.919921875
1303;601.7772827148438
1304;601.6346435546875
1305;601.4920654296875
1306;601.3494873046875
1307;601.2069091796875
1308;601.0643920898438
1309;600.921875
1310;600.7794189453125
1311;600.6370239257812
1312;600.4946899414062
1313;600.3523559570312
1314;600.2100830078125
1315;600.0678100585938
1316;599.9255981445312
1317;599.7833251953125
1318;599.6411743164062
1319;599.4990234375
1320;599.35693359375
1321;599.21484375
1322;599.0728149414062
1323;598.9307861328125
1324;598.7888793945312
1325;598.6469116210938
1326;598.5050048828125
1327;598.3630981445312
1328;598.22119140625
1329;598.0794067382812
1330;597.9376220703125
1331;597.7958984375
1332;597.6541748046875
1333;597.5125122070312
1334;597.3707885742188
1335;597.2291259765625
1336;597.0875244140625
1337;596.9459838867188
1338;596.8045043945312
1339;596.6630249023438
1340;596.5215454101562
1341;596.3801879882812
1342;596.23876953125
1343;596.0973510742188
1344;595.9560546875
1345;595.8147583007812
1346;595.6734619140625
1347;595.5322265625
1348;595.3910522460938
1349;595.2498779296875
1350;595.1087036132812
1351;594.9676513671875
1352;594.8264770507812
1353;594.685546875
1354;594.54443359375
1355;594.4034423828125
1356;594.2625122070312
1357;594.12158203125
1358;593.9807739257812
1359;593.83984375
1360;593.6990966796875
1361;593.5582275390625
1362;593.41748046875
1363;593.2767944335938
1364;593.1361083984375
1365;592.9954223632812
1366;592.8547973632812
1367;592.7141723632812
1368;592.5735473632812
1369;592.4330444335938
1370;592.2925415039062
1371;592.1520385742188
1372;592.0115966796875
1373;591.8711547851562
1374;591.7307739257812
1375;591.5903930664062
1376;591.4500732421875
1377;591.3097534179688
1378;591.1694946289062
1379;591.029296875
1380;590.8890380859375
1381;590.7489013671875
1382;590.6087036132812
1383;590.4686279296875
1384;590.3284912109375
1385;590.1884765625
1386;590.0484008789062
1387;589.9085083007812
1388;589.7685546875
1389;589.6286010742188
1390;589.48876953125
1391;589.3488159179688
1392;589.2090454101562
1393;589.0692138671875
1394;588.9295043945312
1395;588.7897338867188
1396;588.6500244140625
1397;588.5103759765625
1398;588.3706665039062
1399;588.2311401367188
1400;588.0914916992188
1401;587.9520263671875
1402;587.8125
1403;587.6730346679688
1404;587.5335693359375
1405;587.3941040039062
1406;587.2547607421875
1407;587.1153564453125
1408;586.97607421875
1409;586.8367309570312
1410;586.6973876953125
1411;586.5581665039062
1412;586.4190063476562
1413;586.2798461914062
1414;586.1406860351562
1415;586.0015258789062
1416;585.8624267578125
1417;585.7233276367188
1418;585.5844116210938
1419;585.4453125
1420;585.3063354492188
1421;585.1674194335938
1422;585.0285034179688
1423;584.8896484375
1424;584.7507934570312
1425;584.6119384765625
1426;584.4732055664062
1427;584.33447265625
1428;584.1957397460938
1429;584.0570068359375
1430;583.9183349609375
1431;583.7797241210938
1432;583.64111328125
1433;583.5025024414062
1434;583.3638916015625
1435;583.2254028320312
1436;583.0869750976562
1437;582.9484252929688
1438;582.81005859375
1439;582.6716918945312
1440;582.5332641601562
1441;582.3948974609375
1442;582.2566528320312
1443;582.1183471679688
1444;581.9801025390625
1445;581.8419189453125
1446;581.7036743164062
1447;581.5655517578125
1448;581.4273681640625
1449;581.2893676757812
1450;581.1513061523438
1451;581.0132446289062
1452;580.8751831054688
1453;580.7371826171875
1454;580.5992431640625
1455;580.4613647460938
1456;580.3234252929688
1457;580.185546875
1458;580.0477294921875
1459;579.9099731445312
1460;579.7720947265625
1461;579.6343383789062
1462;579.4967041015625
1463;579.3590087890625
1464;579.2213745117188
1465;579.0836791992188
1466;578.9461059570312
1467;578.8085327148438
1468;578.6710205078125
1469;578.5335083007812
1470;578.39599609375
1471;578.2586059570312
1472;578.1211547851562
1473;577.9837646484375
1474;577.8463745117188
1475;577.7090454101562
1476;577.5717163085938
1477;577.4345092773438
1478;577.2973022460938
1479;577.1600341796875
1480;577.0227661132812
1481;576.8856811523438
1482;576.7484741210938
1483;576.6113891601562
1484;576.4744262695312
1485;576.3373413085938
1486;576.2003173828125
1487;576.0633544921875
1488;575.9263916015625
1489;575.7894897460938
1490;575.6525268554688
1491;575.5156860351562
1492;575.3787841796875
1493;575.2420654296875
1494;575.105224609375
1495;574.9684448242188
1496;574.8317260742188
1497;574.695068359375
1498;574.5584106445312
1499;574.4217529296875
