;loss
0;878.3270263671875
1;878.2056274414062
2;878.0426635742188
3;877.8799438476562
4;877.7173461914062
5;877.5550537109375
6;877.3929443359375
7;877.2310180664062
8;877.0693359375
9;876.9092407226562
10;876.7479858398438
11;876.5869750976562
12;876.4262084960938
13;876.2655639648438
14;876.1043701171875
15;875.9443359375
16;875.7844848632812
17;875.6234741210938
18;875.4639892578125
19;875.3048095703125
20;875.1443481445312
21;874.9857177734375
22;874.8255004882812
23;874.6653442382812
24;874.5073852539062
25;874.3497314453125
26;874.1904296875
27;874.0313720703125
28;873.8744506835938
29;873.7176513671875
30;873.5611572265625
31;873.4049682617188
32;873.2489624023438
33;873.0932006835938
34;872.9376831054688
35;872.7825317382812
36;872.6275024414062
37;872.4710083007812
38;872.31640625
39;872.162109375
40;872.0081176757812
41;871.8541870117188
42;871.7006225585938
43;871.5472412109375
44;871.3941040039062
45;871.2411499023438
46;871.0869750976562
47;870.9330444335938
48;870.7792358398438
49;870.6271362304688
50;870.4752807617188
51;870.3236694335938
52;870.1723022460938
53;870.02099609375
54;869.8699951171875
55;869.7190551757812
56;869.568359375
57;869.4179077148438
58;869.267578125
59;869.1162719726562
60;868.9663696289062
61;868.8153686523438
62;868.66455078125
63;868.5139770507812
64;868.3648071289062
65;868.2156982421875
66;868.0667114257812
67;867.91796875
68;867.7682495117188
69;867.6187133789062
70;867.4703979492188
71;867.322265625
72;867.1731567382812
73;867.0252075195312
74;866.8764038085938
75;866.7279052734375
76;866.5792846679688
77;866.4309692382812
78;866.2827758789062
79;866.1354370117188
80;865.9874877929688
81;865.8395385742188
82;865.6926879882812
83;865.5457763671875
84;865.3989868164062
85;865.2522583007812
86;865.1055908203125
87;864.958984375
88;864.8125
89;864.666015625
90;864.5187377929688
91;864.37158203125
92;864.2244873046875
93;864.0781860351562
94;863.9317626953125
95;863.7847290039062
96;863.6384887695312
97;863.4921875
98;863.3458251953125
99;863.1995239257812
100;863.0524291992188
101;862.9061279296875
102;862.7596435546875
103;862.6126098632812
104;862.4659423828125
105;862.3194580078125
106;862.1727294921875
107;862.025390625
108;861.8786010742188
109;861.7316284179688
110;861.583984375
111;861.4362182617188
112;861.2889404296875
113;861.1416015625
114;860.9940185546875
115;860.8463745117188
116;860.6978759765625
117;860.5499267578125
118;860.4016723632812
119;860.2526245117188
120;860.103515625
121;859.9540405273438
122;859.8043823242188
123;859.6551513671875
124;859.5055541992188
125;859.3557739257812
126;859.205078125
127;859.0542602539062
128;858.9028930664062
129;858.7514038085938
130;858.60009765625
131;858.4485473632812
132;858.2964477539062
133;858.1441040039062
134;857.9913940429688
135;857.8377685546875
136;857.6842041015625
137;857.52978515625
138;857.3748779296875
139;857.2195434570312
140;857.0637817382812
141;856.9075317382812
142;856.7508544921875
143;856.5934448242188
144;856.4358520507812
145;856.2774658203125
146;856.1187133789062
147;855.9592895507812
148;855.79931640625
149;855.6392211914062
150;855.4785766601562
151;855.3168334960938
152;855.1548461914062
153;854.9917602539062
154;854.8280029296875
155;854.6640625
156;854.4989624023438
157;854.3335571289062
158;854.16748046875
159;854.0006103515625
160;853.8330078125
161;853.6641845703125
162;853.4945678710938
163;853.3240356445312
164;853.1527709960938
165;852.9805908203125
166;852.8080444335938
167;852.6345825195312
168;852.4598388671875
169;852.2840576171875
170;852.1078491210938
171;851.9307861328125
172;851.7522583007812
173;851.5731201171875
174;851.3930053710938
175;851.2114868164062
176;851.0288696289062
177;850.8452758789062
178;850.6605224609375
179;850.4747314453125
180;850.2882690429688
181;850.1007080078125
182;849.9120483398438
183;849.7221069335938
184;849.5307006835938
185;849.3383178710938
186;849.1444702148438
187;848.9496459960938
188;848.7536010742188
189;848.5559692382812
190;848.357421875
191;848.1571044921875
192;847.9554443359375
193;847.7523803710938
194;847.5480346679688
195;847.3422241210938
196;847.1350708007812
197;846.9263916015625
198;846.7163696289062
199;846.5047607421875
200;846.2916870117188
201;846.0771484375
202;845.8616333007812
203;845.6439208984375
204;845.4246826171875
205;845.2042236328125
206;844.9823608398438
207;844.7582397460938
208;844.5330810546875
209;844.3057250976562
210;844.0767211914062
211;843.8458251953125
212;843.6133422851562
213;843.3792114257812
214;843.1435546875
215;842.9063110351562
216;842.6666870117188
217;842.4252319335938
218;842.1825561523438
219;841.9379272460938
220;841.6908569335938
221;841.4419555664062
222;841.1911010742188
223;840.9388427734375
224;840.6841430664062
225;840.4274291992188
226;840.1692504882812
227;839.9090576171875
228;839.6463623046875
229;839.3817138671875
230;839.1153564453125
231;838.8471069335938
232;838.57666015625
233;838.3041381835938
234;838.0289306640625
235;837.7522583007812
236;837.4733276367188
237;837.1923828125
238;836.9088134765625
239;836.623046875
240;836.3350830078125
241;836.0455322265625
242;835.7537231445312
243;835.4591064453125
244;835.1629638671875
245;834.8645629882812
246;834.5639038085938
247;834.2609252929688
248;833.9556274414062
249;833.6482543945312
250;833.3384399414062
251;833.0263671875
252;832.7122192382812
253;832.3961791992188
254;832.0775756835938
255;831.7565307617188
256;831.4340209960938
257;831.1085205078125
258;830.7815551757812
259;830.4521484375
260;830.1206665039062
261;829.7862548828125
262;829.4496459960938
263;829.1107788085938
264;828.7700805664062
265;828.4273071289062
266;828.0818481445312
267;827.7353515625
268;827.3866577148438
269;827.0358276367188
270;826.6823120117188
271;826.3267211914062
272;825.9688720703125
273;825.6094970703125
274;825.2474365234375
275;824.8837890625
276;824.5181274414062
277;824.150390625
278;823.7806396484375
279;823.4087524414062
280;823.0348510742188
281;822.6589965820312
282;822.2805786132812
283;821.9000854492188
284;821.517578125
285;821.1337890625
286;820.7474975585938
287;820.3592529296875
288;819.9697265625
289;819.5782470703125
290;819.1851196289062
291;818.7901000976562
292;818.3932495117188
293;817.994140625
294;817.5933227539062
295;817.1907348632812
296;816.787109375
297;816.3811645507812
298;815.9742431640625
299;815.5657958984375
300;815.1552734375
301;814.7432250976562
302;814.3296508789062
303;813.9152221679688
304;813.4989013671875
305;813.0810546875
306;812.6619262695312
307;812.2415161132812
308;811.8197631835938
309;811.3967895507812
310;810.97314453125
311;810.54833984375
312;810.1224975585938
313;809.6953125
314;809.2666625976562
315;808.8374633789062
316;808.4072265625
317;807.9754028320312
318;807.5426025390625
319;807.1090698242188
320;806.6748657226562
321;806.23974609375
322;805.8038940429688
323;805.3683471679688
324;804.9315795898438
325;804.494140625
326;804.056640625
327;803.6180419921875
328;803.1790161132812
329;802.7392578125
330;802.2990112304688
331;801.8596801757812
332;801.4198608398438
333;800.9801635742188
334;800.5403442382812
335;800.1002807617188
336;799.6602172851562
337;799.220703125
338;798.7804565429688
339;798.3402099609375
340;797.9004516601562
341;797.4605712890625
342;797.0208740234375
343;796.5806274414062
344;796.1415405273438
345;795.703125
346;795.2649536132812
347;794.828125
348;794.39306640625
349;793.95849609375
350;793.5242919921875
351;793.0912475585938
352;792.65869140625
353;792.2265014648438
354;791.7948608398438
355;791.3638305664062
356;790.9336547851562
357;790.5036010742188
358;790.0745239257812
359;789.6453857421875
360;789.2174072265625
361;788.7896118164062
362;788.36279296875
363;787.9361572265625
364;787.5103759765625
365;787.0860595703125
366;786.6630249023438
367;786.2418212890625
368;785.8216552734375
369;785.4021606445312
370;784.9830932617188
371;784.5654296875
372;784.1487426757812
373;783.7322998046875
374;783.3170776367188
375;782.9024047851562
376;782.4889526367188
377;782.0764770507812
378;781.6658325195312
379;781.2557373046875
380;780.8473510742188
381;780.4402465820312
382;780.0341796875
383;779.6292114257812
384;779.2252807617188
385;778.8231201171875
386;778.4223022460938
387;778.0221557617188
388;777.6236572265625
389;777.2265014648438
390;776.8310546875
391;776.4376831054688
392;776.0454711914062
393;775.6555786132812
394;775.267578125
395;774.8819580078125
396;774.4974365234375
397;774.1141357421875
398;773.7322387695312
399;773.3515625
400;772.97216796875
401;772.5946655273438
402;772.2185668945312
403;771.8439331054688
404;771.4708862304688
405;771.0992431640625
406;770.7291259765625
407;770.3607788085938
408;769.9937133789062
409;769.6278076171875
410;769.2630004882812
411;768.8992919921875
412;768.5366821289062
413;768.1756591796875
414;767.8154907226562
415;767.4566040039062
416;767.0989990234375
417;766.7427978515625
418;766.3884887695312
419;766.0355834960938
420;765.68408203125
421;765.3342895507812
422;764.9864501953125
423;764.6400756835938
424;764.2950439453125
425;763.9512939453125
426;763.6085205078125
427;763.2671508789062
428;762.9276123046875
429;762.5888061523438
430;762.2513427734375
431;761.9154663085938
432;761.5810546875
433;761.2474975585938
434;760.9150390625
435;760.58349609375
436;760.2529296875
437;759.9236450195312
438;759.5955200195312
439;759.2683715820312
440;758.9420776367188
441;758.6168212890625
442;758.2921142578125
443;757.9681396484375
444;757.6450805664062
445;757.3231201171875
446;757.0015869140625
447;756.6810302734375
448;756.3614501953125
449;756.04296875
450;755.7252197265625
451;755.4085693359375
452;755.0923461914062
453;754.77685546875
454;754.4622192382812
455;754.1483154296875
456;753.8355712890625
457;753.5239868164062
458;753.2127685546875
459;752.90234375
460;752.5925903320312
461;752.2836303710938
462;751.9752197265625
463;751.6675415039062
464;751.3609008789062
465;751.0548706054688
466;750.7498168945312
467;750.4454345703125
468;750.14208984375
469;749.83935546875
470;749.5379638671875
471;749.2371826171875
472;748.93701171875
473;748.6376342773438
474;748.3388671875
475;748.0411376953125
476;747.7440795898438
477;747.4473876953125
478;747.1514892578125
479;746.8560180664062
480;746.5611572265625
481;746.2670288085938
482;745.9735717773438
483;745.6805419921875
484;745.3880615234375
485;745.09619140625
486;744.8048095703125
487;744.5140991210938
488;744.2238159179688
489;743.9342651367188
490;743.6454467773438
491;743.3569946289062
492;743.0693359375
493;742.7825317382812
494;742.4959106445312
495;742.2099609375
496;741.9246826171875
497;741.6397094726562
498;741.3555297851562
499;741.0716552734375
500;740.7882080078125
501;740.50537109375
502;740.2230224609375
503;739.9411010742188
504;739.6597900390625
505;739.3789672851562
506;739.0987548828125
507;738.8189697265625
508;738.5396118164062
509;738.2610473632812
510;737.9828491210938
511;737.705078125
512;737.4279174804688
513;737.1510009765625
514;736.8745727539062
515;736.5986328125
516;736.3231811523438
517;736.0481567382812
518;735.7736206054688
519;735.4995727539062
520;735.2258911132812
521;734.95263671875
522;734.6800537109375
523;734.4076538085938
524;734.1357421875
525;733.8641967773438
526;733.5931396484375
527;733.32275390625
528;733.0524291992188
529;732.7828979492188
530;732.5134887695312
531;732.2445678710938
532;731.9760131835938
533;731.7078857421875
534;731.4403076171875
535;731.1729736328125
536;730.9061279296875
537;730.6397705078125
538;730.3739013671875
539;730.1083374023438
540;729.8432006835938
541;729.5784301757812
542;729.3140869140625
543;729.0501098632812
544;728.7864379882812
545;728.5230102539062
546;728.2601928710938
547;727.9976196289062
548;727.7354736328125
549;727.4736328125
550;727.2122192382812
551;726.951171875
552;726.6904907226562
553;726.43017578125
554;726.1702880859375
555;725.9107666015625
556;725.6514892578125
557;725.3929443359375
558;725.1346435546875
559;724.8765258789062
560;724.6188354492188
561;724.3616943359375
562;724.1046142578125
563;723.8482055664062
564;723.5921630859375
565;723.3361206054688
566;723.08056640625
567;722.8256225585938
568;722.5708618164062
569;722.3163452148438
570;722.0621948242188
571;721.8085327148438
572;721.5550537109375
573;721.3021240234375
574;721.04931640625
575;720.796875
576;720.5447998046875
577;720.29296875
578;720.0416870117188
579;719.7905883789062
580;719.5399169921875
581;719.2894897460938
582;719.03955078125
583;718.7897338867188
584;718.5404052734375
585;718.2914428710938
586;718.0426635742188
587;717.7943115234375
588;717.5462036132812
589;717.29833984375
590;717.0510864257812
591;716.8038940429688
592;716.5570678710938
593;716.310546875
594;716.0643920898438
595;715.8184814453125
596;715.5728149414062
597;715.32763671875
598;715.0828857421875
599;714.8381958007812
600;714.5940551757812
601;714.3500366210938
602;714.1064453125
603;713.8630981445312
604;713.6199951171875
605;713.37744140625
606;713.1353149414062
607;712.8935546875
608;712.6519775390625
609;712.4107666015625
610;712.1700439453125
611;711.9295654296875
612;711.6893310546875
613;711.44921875
614;711.2095336914062
615;710.9701538085938
616;710.7310180664062
617;710.4921875
618;710.2538452148438
619;710.015625
620;709.7777099609375
621;709.5400390625
622;709.302734375
623;709.0657958984375
624;708.8291015625
625;708.5928344726562
626;708.3568115234375
627;708.1209716796875
628;707.8853149414062
629;707.6500854492188
630;707.4151611328125
631;707.1805419921875
632;706.9461669921875
633;706.7119140625
634;706.4780883789062
635;706.2445678710938
636;706.0112915039062
637;705.7781372070312
638;705.5452270507812
639;705.3125610351562
640;705.0803833007812
641;704.8483276367188
642;704.6165771484375
643;704.3849487304688
644;704.1537475585938
645;703.9227294921875
646;703.69189453125
647;703.46142578125
648;703.2313842773438
649;703.0014038085938
650;702.7716674804688
651;702.5421752929688
652;702.3130493164062
653;702.0841064453125
654;701.85546875
655;701.6271362304688
656;701.3991088867188
657;701.1712646484375
658;700.9435424804688
659;700.7161254882812
660;700.4890747070312
661;700.2621459960938
662;700.0355224609375
663;699.8090209960938
664;699.5828857421875
665;699.3570556640625
666;699.1314086914062
667;698.9059448242188
668;698.6807861328125
669;698.4557495117188
670;698.2310791015625
671;698.0067749023438
672;697.7826538085938
673;697.55859375
674;697.3348999023438
675;697.111328125
676;696.8881225585938
677;696.6651000976562
678;696.4423828125
679;696.2197265625
680;695.9974975585938
681;695.7753295898438
682;695.5535888671875
683;695.3319091796875
684;695.1105346679688
685;694.8895263671875
686;694.6685791015625
687;694.4478149414062
688;694.2273559570312
689;694.0069580078125
690;693.7869262695312
691;693.5670776367188
692;693.3473510742188
693;693.1279296875
694;692.9087524414062
695;692.6895751953125
696;692.470703125
697;692.2520141601562
698;692.0335693359375
699;691.8153076171875
700;691.5973510742188
701;691.3796997070312
702;691.1621704101562
703;690.9448852539062
704;690.7276611328125
705;690.5107421875
706;690.2940673828125
707;690.0775146484375
708;689.8612060546875
709;689.6450805664062
710;689.4291381835938
711;689.2134399414062
712;688.9981079101562
713;688.7828979492188
714;688.568359375
715;688.3539428710938
716;688.1396484375
717;687.9254760742188
718;687.7114868164062
719;687.4976806640625
720;687.2840576171875
721;687.0706787109375
722;686.8574829101562
723;686.64453125
724;686.4317626953125
725;686.2191162109375
726;686.0068359375
727;685.7947998046875
728;685.5830078125
729;685.3713989257812
730;685.1598510742188
731;684.9486083984375
732;684.7374267578125
733;684.5264282226562
734;684.3158569335938
735;684.10546875
736;683.8952026367188
737;683.6853637695312
738;683.4755859375
739;683.2659301757812
740;683.0563354492188
741;682.8471069335938
742;682.6380615234375
743;682.42919921875
744;682.220703125
745;682.0122680664062
746;681.8040771484375
747;681.5960083007812
748;681.3880615234375
749;681.1803588867188
750;680.9730834960938
751;680.7657470703125
752;680.5586547851562
753;680.3519287109375
754;680.1450805664062
755;679.9385986328125
756;679.7322998046875
757;679.5260620117188
758;679.3201904296875
759;679.1143188476562
760;678.9088134765625
761;678.7035522460938
762;678.4983520507812
763;678.2933959960938
764;678.0885009765625
765;677.8838500976562
766;677.6792602539062
767;677.47509765625
768;677.2710571289062
769;677.0670776367188
770;676.8634033203125
771;676.6597900390625
772;676.4564819335938
773;676.2533569335938
774;676.0504150390625
775;675.8475952148438
776;675.6448364257812
777;675.4423828125
778;675.2400512695312
779;675.0379638671875
780;674.8360595703125
781;674.63427734375
782;674.4327392578125
783;674.2313232421875
784;674.0301513671875
785;673.8290405273438
786;673.6280517578125
787;673.4274291992188
788;673.2268676757812
789;673.0264282226562
790;672.8262329101562
791;672.6261596679688
792;672.42626953125
793;672.2266845703125
794;672.0271606445312
795;671.8276977539062
796;671.6284790039062
797;671.4295654296875
798;671.2305908203125
799;671.0319213867188
800;670.8334350585938
801;670.6350708007812
802;670.4369506835938
803;670.2389526367188
804;670.0411376953125
805;669.8434448242188
806;669.6459350585938
807;669.4485473632812
808;669.2514038085938
809;669.0543823242188
810;668.8575439453125
811;668.6608276367188
812;668.4642944335938
813;668.2679443359375
814;668.0717163085938
815;667.8756103515625
816;667.6796875
817;667.4840087890625
818;667.2883911132812
819;667.0929565429688
820;666.8977661132812
821;666.7025756835938
822;666.5076904296875
823;666.3129272460938
824;666.1182861328125
825;665.9237670898438
826;665.7294921875
827;665.5352783203125
828;665.3412475585938
829;665.1473388671875
830;664.9536743164062
831;664.7601318359375
832;664.5667114257812
833;664.3734130859375
834;664.1802368164062
835;663.9873046875
836;663.7946166992188
837;663.6019287109375
838;663.4093627929688
839;663.2169799804688
840;663.0248413085938
841;662.8328857421875
842;662.6409912109375
843;662.44921875
844;662.2576904296875
845;662.0662841796875
846;661.875
847;661.6837158203125
848;661.4927368164062
849;661.3018798828125
850;661.1111450195312
851;660.9205932617188
852;660.7301635742188
853;660.5399169921875
854;660.3499145507812
855;660.1598510742188
856;659.9700317382812
857;659.7803344726562
858;659.5908203125
859;659.4014282226562
860;659.2122802734375
861;659.0231323242188
862;658.8341064453125
863;658.6453247070312
864;658.4567260742188
865;658.2681274414062
866;658.0796508789062
867;657.8914794921875
868;657.7033081054688
869;657.5153198242188
870;657.3275146484375
871;657.1397705078125
872;656.9521484375
873;656.7647705078125
874;656.5775756835938
875;656.3904418945312
876;656.2034301757812
877;656.0164794921875
878;655.8296508789062
879;655.6430053710938
880;655.45654296875
881;655.2702026367188
882;655.083984375
883;654.89794921875
884;654.7120361328125
885;654.5261840820312
886;654.3405151367188
887;654.1549072265625
888;653.9696044921875
889;653.7843017578125
890;653.5992431640625
891;653.4142456054688
892;653.2294311523438
893;653.0446166992188
894;652.8599853515625
895;652.6754760742188
896;652.4911499023438
897;652.3069458007812
898;652.1229248046875
899;651.9389038085938
900;651.7550048828125
901;651.5712890625
902;651.3876953125
903;651.2042236328125
904;651.0208129882812
905;650.8375854492188
906;650.6544799804688
907;650.4716186523438
908;650.2888793945312
909;650.1060791015625
910;649.9235229492188
911;649.7411499023438
912;649.5588989257812
913;649.3765869140625
914;649.1944580078125
915;649.0125732421875
916;648.8306274414062
917;648.6489868164062
918;648.4674682617188
919;648.2860717773438
920;648.1047973632812
921;647.9236450195312
922;647.7426147460938
923;647.5615234375
924;647.3807373046875
925;647.2000122070312
926;647.0194091796875
927;646.8389282226562
928;646.6586303710938
929;646.4784545898438
930;646.2982788085938
931;646.1183471679688
932;645.9384765625
933;645.7586669921875
934;645.5790405273438
935;645.3995361328125
936;645.2201538085938
937;645.0409545898438
938;644.8617553710938
939;644.6827392578125
940;644.5038452148438
941;644.3250122070312
942;644.1463623046875
943;643.9676513671875
944;643.7892456054688
945;643.6109008789062
946;643.4326171875
947;643.2544555664062
948;643.0764770507812
949;642.8985595703125
950;642.720703125
951;642.5430908203125
952;642.3655395507812
953;642.1881103515625
954;642.0108032226562
955;641.8335571289062
956;641.6563720703125
957;641.4794311523438
958;641.3026123046875
959;641.1257934570312
960;640.9490966796875
961;640.7725830078125
962;640.5961303710938
963;640.4198608398438
964;640.2435913085938
965;640.0674438476562
966;639.8914184570312
967;639.7154541015625
968;639.5397338867188
969;639.3641357421875
970;639.1884765625
971;639.0130615234375
972;638.8377685546875
973;638.6625366210938
974;638.4873046875
975;638.3123168945312
976;638.1373901367188
977;637.9625854492188
978;637.7880249023438
979;637.6134033203125
980;637.4389038085938
981;637.2645263671875
982;637.0902709960938
983;636.9160766601562
984;636.7420043945312
985;636.5679931640625
986;636.3941040039062
987;636.2203369140625
988;636.0466918945312
989;635.8731079101562
990;635.6996459960938
991;635.5262451171875
992;635.35302734375
993;635.1799926757812
994;635.0068359375
995;634.8339233398438
996;634.6611328125
997;634.4883422851562
998;634.3157348632812
999;634.1431274414062
1000;633.970703125
1001;633.7984008789062
1002;633.6260986328125
1003;633.4540405273438
1004;633.2821044921875
1005;633.1100463867188
1006;632.9382934570312
1007;632.7665405273438
1008;632.5950317382812
1009;632.42333984375
1010;632.251953125
1011;632.0806274414062
1012;631.9094848632812
1013;631.7383422851562
1014;631.5673217773438
1015;631.3964233398438
1016;631.2255859375
1017;631.0548095703125
1018;630.8841552734375
1019;630.7135620117188
1020;630.5431518554688
1021;630.3729248046875
1022;630.2026977539062
1023;630.0324096679688
1024;629.8624267578125
1025;629.6924438476562
1026;629.5225830078125
1027;629.3528442382812
1028;629.1831665039062
1029;629.0136108398438
1030;628.8441162109375
1031;628.6747436523438
1032;628.5054321289062
1033;628.3362426757812
1034;628.1670532226562
1035;627.998046875
1036;627.8291015625
1037;627.6602783203125
1038;627.4915771484375
1039;627.3228149414062
1040;627.154296875
1041;626.98583984375
1042;626.8174438476562
1043;626.6492309570312
1044;626.48095703125
1045;626.3128662109375
1046;626.1448364257812
1047;625.9769287109375
1048;625.8090209960938
1049;625.6412963867188
1050;625.4736328125
1051;625.3060913085938
1052;625.1386108398438
1053;624.97119140625
1054;624.8038330078125
1055;624.6365966796875
1056;624.4695434570312
1057;624.3025512695312
1058;624.1356201171875
1059;623.96875
1060;623.8020629882812
1061;623.6353149414062
1062;623.46875
1063;623.3021850585938
1064;623.1357421875
1065;622.9694213867188
1066;622.8032836914062
1067;622.6371459960938
1068;622.4710693359375
1069;622.3051147460938
1070;622.1392211914062
1071;621.9734497070312
1072;621.8077392578125
1073;621.64208984375
1074;621.4765625
1075;621.3110961914062
1076;621.1456909179688
1077;620.9804077148438
1078;620.8152465820312
1079;620.6500854492188
1080;620.4850463867188
1081;620.3201293945312
1082;620.1552124023438
1083;619.9904174804688
1084;619.8257446289062
1085;619.6611328125
1086;619.4965209960938
1087;619.3320922851562
1088;619.1677856445312
1089;619.0034790039062
1090;618.83935546875
1091;618.6752319335938
1092;618.51123046875
1093;618.3472290039062
1094;618.1834106445312
1095;618.01953125
1096;617.8558959960938
1097;617.6922607421875
1098;617.5287475585938
1099;617.365234375
1100;617.2019653320312
1101;617.0386352539062
1102;616.8754272460938
1103;616.7122802734375
1104;616.5492553710938
1105;616.38623046875
1106;616.2233276367188
1107;616.060546875
1108;615.8977661132812
1109;615.7351684570312
1110;615.5724487304688
1111;615.4100341796875
1112;615.2476196289062
1113;615.0852661132812
1114;614.9229736328125
1115;614.7608032226562
1116;614.5986938476562
1117;614.4366455078125
1118;614.2747192382812
1119;614.1128540039062
1120;613.9510498046875
1121;613.7893676757812
1122;613.6277465820312
1123;613.4661254882812
1124;613.3046264648438
1125;613.1431884765625
1126;612.9818725585938
1127;612.8206176757812
1128;612.6594848632812
1129;612.4983520507812
1130;612.3373413085938
1131;612.1763305664062
1132;612.0154418945312
1133;611.8546752929688
1134;611.6939086914062
1135;611.5332641601562
1136;611.3726806640625
1137;611.2120971679688
1138;611.0517578125
1139;610.8914184570312
1140;610.7311401367188
1141;610.5708618164062
1142;610.4108276367188
1143;610.2506713867188
1144;610.0906982421875
1145;609.9307861328125
1146;609.77099609375
1147;609.6112060546875
1148;609.4515380859375
1149;609.2918701171875
1150;609.1323852539062
1151;608.9729614257812
1152;608.8135375976562
1153;608.6542358398438
1154;608.4949951171875
1155;608.3358154296875
1156;608.1766357421875
1157;608.0175170898438
1158;607.8585205078125
1159;607.6996459960938
1160;607.5408935546875
1161;607.3821411132812
1162;607.2233276367188
1163;607.0648193359375
1164;606.90625
1165;606.7476806640625
1166;606.5892944335938
1167;606.4309692382812
1168;606.2726440429688
1169;606.1144409179688
1170;605.9563598632812
1171;605.7982788085938
1172;605.6403198242188
1173;605.482421875
1174;605.3245239257812
1175;605.1666870117188
1176;605.0090942382812
1177;604.8514404296875
1178;604.69384765625
1179;604.5364379882812
1180;604.37890625
1181;604.2215576171875
1182;604.0643310546875
1183;603.9071044921875
1184;603.7498779296875
1185;603.5928344726562
1186;603.4358520507812
1187;603.2788696289062
1188;603.1220092773438
1189;602.9651489257812
1190;602.8084716796875
1191;602.6517944335938
1192;602.4951782226562
1193;602.3385620117188
1194;602.18212890625
1195;602.0256958007812
1196;601.8692626953125
1197;601.7130126953125
1198;601.5567626953125
1199;601.4006958007812
1200;601.2445678710938
1201;601.0885009765625
1202;600.9324951171875
1203;600.7766723632812
1204;600.6207885742188
1205;600.4651489257812
1206;600.3094482421875
1207;600.1537475585938
1208;599.9981689453125
1209;599.8426513671875
1210;599.6873168945312
1211;599.5318603515625
1212;599.3765869140625
1213;599.2212524414062
1214;599.0661010742188
1215;598.9110717773438
1216;598.7559814453125
1217;598.6010131835938
1218;598.4459838867188
1219;598.2911376953125
1220;598.1363525390625
1221;597.9815673828125
1222;597.8270263671875
1223;597.6723022460938
1224;597.5178833007812
1225;597.3633422851562
1226;597.208984375
1227;597.0546264648438
1228;596.9002685546875
1229;596.74609375
1230;596.5919189453125
1231;596.4379272460938
1232;596.2838745117188
1233;596.1299438476562
1234;595.9760131835938
1235;595.8222045898438
1236;595.6683959960938
1237;595.5146484375
1238;595.3610229492188
1239;595.2074584960938
1240;595.0538940429688
1241;594.9004516601562
1242;594.7470703125
1243;594.5936279296875
1244;594.4404296875
1245;594.287109375
1246;594.1339721679688
1247;593.9808349609375
1248;593.8278198242188
1249;593.6748046875
1250;593.5219116210938
1251;593.3690185546875
1252;593.2162475585938
1253;593.0634155273438
1254;592.9107666015625
1255;592.7581176757812
1256;592.6055297851562
1257;592.4530029296875
1258;592.3004760742188
1259;592.1481323242188
1260;591.9957885742188
1261;591.8436279296875
1262;591.69140625
1263;591.5391845703125
1264;591.3870849609375
1265;591.2350463867188
1266;591.0830688476562
1267;590.9310913085938
1268;590.779296875
1269;590.6275024414062
1270;590.4757080078125
1271;590.3240966796875
1272;590.1724243164062
1273;590.0209350585938
1274;589.8694458007812
1275;589.7179565429688
1276;589.5665283203125
1277;589.4151611328125
1278;589.2638549804688
1279;589.1127319335938
1280;588.9614868164062
1281;588.8103637695312
1282;588.6593017578125
1283;588.5083618164062
1284;588.357421875
1285;588.20654296875
1286;588.0556640625
1287;587.9049072265625
1288;587.7542724609375
1289;587.6035766601562
1290;587.4530029296875
1291;587.3023071289062
1292;587.1519165039062
1293;587.0014038085938
1294;586.85107421875
1295;586.70068359375
1296;586.5504150390625
1297;586.4002685546875
1298;586.2500610351562
1299;586.1000366210938
1300;585.9500122070312
1301;585.7999877929688
1302;585.6500244140625
1303;585.5001220703125
1304;585.3502807617188
1305;585.2006225585938
1306;585.0509033203125
1307;584.9012451171875
1308;584.7515869140625
1309;584.60205078125
1310;584.4525756835938
1311;584.3031005859375
1312;584.1537475585938
1313;584.0044555664062
1314;583.8551635742188
1315;583.7059326171875
1316;583.5567016601562
1317;583.4076538085938
1318;583.258544921875
1319;583.1095581054688
1320;582.9605712890625
1321;582.8116455078125
1322;582.6629028320312
1323;582.5140991210938
1324;582.3653564453125
1325;582.2166748046875
1326;582.0679931640625
1327;581.9194946289062
1328;581.7709350585938
1329;581.6224365234375
1330;581.4739990234375
1331;581.3256225585938
1332;581.1773071289062
1333;581.0291137695312
1334;580.8809204101562
1335;580.7327270507812
1336;580.5845947265625
1337;580.4365844726562
1338;580.2886352539062
1339;580.1406860351562
1340;579.9927978515625
1341;579.8449096679688
1342;579.6971435546875
1343;579.5494384765625
1344;579.4017333984375
1345;579.2540893554688
1346;579.1065063476562
1347;578.958984375
1348;578.8114624023438
1349;578.6640625
1350;578.5167236328125
1351;578.3693237304688
1352;578.2221069335938
1353;578.0748901367188
1354;577.9276733398438
1355;577.7805786132812
1356;577.6334838867188
1357;577.4865112304688
1358;577.3394775390625
1359;577.1925659179688
1360;577.0457763671875
1361;576.89892578125
1362;576.7521362304688
1363;576.6054077148438
1364;576.4588012695312
1365;576.3121337890625
1366;576.1655883789062
1367;576.0191040039062
1368;575.8726806640625
1369;575.7261962890625
1370;575.5798950195312
1371;575.4334716796875
1372;575.2872314453125
1373;575.1410522460938
1374;574.9949340820312
1375;574.8487548828125
1376;574.7026977539062
1377;574.5567016601562
1378;574.4107055664062
1379;574.2647705078125
1380;574.118896484375
1381;573.9730834960938
1382;573.8273315429688
1383;573.6815795898438
1384;573.5359497070312
1385;573.3902587890625
1386;573.2447509765625
1387;573.0991821289062
1388;572.9536743164062
1389;572.8082885742188
1390;572.6629028320312
1391;572.5175170898438
1392;572.3721923828125
1393;572.2269897460938
1394;572.081787109375
1395;571.9365844726562
1396;571.7915649414062
1397;571.646484375
1398;571.50146484375
1399;571.3565673828125
1400;571.2116088867188
1401;571.0667114257812
1402;570.9219360351562
1403;570.7772216796875
1404;570.6324462890625
1405;570.4877319335938
1406;570.3431396484375
1407;570.1985473632812
1408;570.0540161132812
1409;569.9095458984375
1410;569.7650756835938
1411;569.6207275390625
1412;569.4764404296875
1413;569.3320922851562
1414;569.1878662109375
1415;569.043701171875
1416;568.8995361328125
1417;568.7554321289062
1418;568.611328125
1419;568.4673461914062
1420;568.3233642578125
1421;568.1795043945312
1422;568.0355834960938
1423;567.8916625976562
1424;567.7479858398438
1425;567.6041870117188
1426;567.4605712890625
1427;567.31689453125
1428;567.1732788085938
1429;567.0297241210938
1430;566.88623046875
1431;566.7427978515625
1432;566.5993041992188
1433;566.4559326171875
1434;566.3126220703125
1435;566.1693725585938
1436;566.026123046875
1437;565.8829345703125
1438;565.7398071289062
1439;565.5967407226562
1440;565.4536743164062
1441;565.3106079101562
1442;565.1676635742188
1443;565.0247802734375
1444;564.8818969726562
1445;564.739013671875
1446;564.5962524414062
1447;564.4534912109375
1448;564.3107299804688
1449;564.1681518554688
1450;564.0255126953125
1451;563.8829956054688
1452;563.7404174804688
1453;563.5979614257812
1454;563.45556640625
1455;563.3131713867188
1456;563.1707763671875
1457;563.0285034179688
1458;562.88623046875
1459;562.7440795898438
1460;562.6018676757812
1461;562.4597778320312
1462;562.3176879882812
1463;562.1756591796875
1464;562.0336303710938
1465;561.8916625976562
1466;561.7498168945312
1467;561.60791015625
1468;561.4661865234375
1469;561.3243408203125
1470;561.1825561523438
1471;561.0409545898438
1472;560.8992919921875
1473;560.7576904296875
1474;560.6161499023438
1475;560.474609375
1476;560.3331909179688
1477;560.1917724609375
1478;560.0504150390625
1479;559.9089965820312
1480;559.7677612304688
1481;559.6265258789062
1482;559.4852905273438
1483;559.3441162109375
1484;559.2030029296875
1485;559.0619506835938
1486;558.9208984375
1487;558.7798461914062
1488;558.638916015625
1489;558.4979858398438
1490;558.3571166992188
1491;558.21630859375
1492;558.0755615234375
1493;557.9347534179688
1494;557.7941284179688
1495;557.6534423828125
1496;557.5128173828125
1497;557.3722534179688
1498;557.2317504882812
1499;557.0912475585938
1500;556.9508056640625
1501;556.8103637695312
1502;556.6700439453125
1503;556.5297241210938
1504;556.3894653320312
1505;556.2491455078125
1506;556.1089477539062
1507;555.9688110351562
1508;555.8287353515625
1509;555.6886596679688
1510;555.5486450195312
1511;555.4086303710938
1512;555.2687377929688
1513;555.1287841796875
1514;554.9889526367188
1515;554.8490600585938
1516;554.7093505859375
1517;554.569580078125
1518;554.4298706054688
1519;554.290283203125
1520;554.1506958007812
1521;554.0111083984375
1522;553.8715209960938
1523;553.7320556640625
1524;553.5926513671875
1525;553.4532470703125
1526;553.3138427734375
1527;553.174560546875
1528;553.0352783203125
1529;552.89599609375
1530;552.7568359375
1531;552.6176147460938
1532;552.4784545898438
1533;552.3394165039062
1534;552.2003173828125
1535;552.0613403320312
1536;551.92236328125
1537;551.7833862304688
1538;551.64453125
1539;551.5057373046875
1540;551.3668212890625
1541;551.2281494140625
1542;551.0894165039062
1543;550.95068359375
1544;550.8120727539062
1545;550.6734619140625
1546;550.5349731445312
1547;550.3964233398438
1548;550.2579345703125
1549;550.1195068359375
1550;549.9810791015625
1551;549.8427124023438
1552;549.7044677734375
1553;549.5662231445312
1554;549.4280395507812
1555;549.2897338867188
1556;549.1517333984375
1557;549.0135498046875
1558;548.8755493164062
1559;548.7374267578125
1560;548.5995483398438
1561;548.4616088867188
1562;548.3236694335938
1563;548.185791015625
1564;548.0479736328125
1565;547.9102172851562
1566;547.7724609375
1567;547.6348266601562
1568;547.4971313476562
1569;547.3594970703125
1570;547.221923828125
1571;547.0844116210938
1572;546.9468994140625
1573;546.8094482421875
1574;546.6719970703125
1575;546.5346069335938
1576;546.3972778320312
1577;546.2599487304688
1578;546.1226806640625
1579;545.9854125976562
1580;545.8482055664062
1581;545.7110595703125
1582;545.5739135742188
1583;545.4368896484375
1584;545.2998657226562
1585;545.162841796875
1586;545.0258178710938
1587;544.888916015625
1588;544.7520141601562
1589;544.6151733398438
1590;544.4783935546875
1591;544.341552734375
1592;544.2048950195312
1593;544.0680541992188
1594;543.9314575195312
1595;543.7947998046875
1596;543.6582641601562
1597;543.521728515625
1598;543.3851928710938
1599;543.2487182617188
1600;543.1123046875
1601;542.9758911132812
1602;542.8394775390625
1603;542.703125
1604;542.5668334960938
1605;542.4305419921875
1606;542.2943725585938
1607;542.158203125
1608;542.0220947265625
1609;541.885986328125
1610;541.7498779296875
1611;541.6138305664062
1612;541.4779052734375
1613;541.3419189453125
1614;541.2059326171875
1615;541.0701293945312
1616;540.9342651367188
1617;540.7984619140625
1618;540.6626586914062
1619;540.5269165039062
1620;540.3912353515625
1621;540.2555541992188
1622;540.1199340820312
1623;539.9843139648438
1624;539.8487548828125
1625;539.7133178710938
1626;539.5778198242188
1627;539.4423828125
1628;539.3069458007812
1629;539.1715698242188
1630;539.0362548828125
1631;538.9009399414062
1632;538.7656860351562
1633;538.6304321289062
1634;538.4951782226562
1635;538.3600463867188
1636;538.2249755859375
1637;538.08984375
1638;537.954833984375
1639;537.8197631835938
1640;537.684814453125
1641;537.5499267578125
1642;537.4149780273438
1643;537.2801513671875
1644;537.1453247070312
1645;537.0104370117188
1646;536.8756713867188
1647;536.740966796875
1648;536.6062622070312
1649;536.4716186523438
1650;536.3369750976562
1651;536.2023315429688
1652;536.0678100585938
1653;535.9332885742188
1654;535.798828125
1655;535.6644287109375
1656;535.5299682617188
1657;535.3955688476562
1658;535.2612915039062
1659;535.126953125
1660;534.9927368164062
1661;534.8585205078125
1662;534.7242431640625
1663;534.5901489257812
1664;534.4559936523438
1665;534.3218994140625
1666;534.1878051757812
1667;534.0537719726562
1668;533.9197998046875
1669;533.7858276367188
1670;533.6519165039062
1671;533.51806640625
1672;533.3842163085938
1673;533.2504272460938
1674;533.1165771484375
1675;532.9828491210938
1676;532.84912109375
1677;532.7154541015625
1678;532.5817260742188
1679;532.4481811523438
1680;532.3146362304688
1681;532.1810913085938
1682;532.0475463867188
1683;531.9141845703125
1684;531.7807006835938
1685;531.6472778320312
1686;531.5138549804688
1687;531.380615234375
1688;531.2473754882812
1689;531.114013671875
1690;530.9807739257812
1691;530.8475952148438
1692;530.7144775390625
1693;530.5813598632812
1694;530.4482421875
1695;530.315185546875
1696;530.18212890625
1697;530.0491333007812
1698;529.9161376953125
1699;529.7832641601562
1700;529.6503295898438
1701;529.5175170898438
1702;529.3847045898438
1703;529.2518920898438
1704;529.119140625
1705;528.9864501953125
1706;528.8538208007812
1707;528.7211303710938
1708;528.5885009765625
1709;528.4559326171875
1710;528.3234252929688
1711;528.19091796875
1712;528.0584106445312
1713;527.9259643554688
1714;527.7935791015625
1715;527.6611938476562
1716;527.5288696289062
1717;527.3966064453125
1718;527.2642822265625
1719;527.1320190429688
1720;526.9998168945312
1721;526.8676147460938
1722;526.7354736328125
1723;526.6033935546875
1724;526.4712524414062
1725;526.3392333984375
1726;526.2072143554688
1727;526.0752563476562
1728;525.9432983398438
1729;525.8114013671875
1730;525.6795043945312
1731;525.5476684570312
1732;525.4158325195312
1733;525.2840576171875
1734;525.1522827148438
1735;525.0205688476562
1736;524.8888549804688
1737;524.7572631835938
1738;524.6256713867188
1739;524.4940185546875
1740;524.3624877929688
1741;524.2310180664062
1742;524.0994873046875
1743;523.968017578125
1744;523.8365478515625
1745;523.7052001953125
1746;523.5738525390625
1747;523.4425048828125
1748;523.3112182617188
1749;523.1799926757812
1750;523.0487670898438
1751;522.9175415039062
1752;522.7864379882812
1753;522.6552734375
1754;522.5242309570312
1755;522.3931274414062
1756;522.2620849609375
1757;522.131103515625
1758;522.0000610351562
1759;521.8692016601562
1760;521.73828125
1761;521.6073608398438
1762;521.4765625
1763;521.345703125
1764;521.2149658203125
1765;521.084228515625
1766;520.9534912109375
1767;520.8228149414062
1768;520.6921997070312
1769;520.5615844726562
1770;520.4309692382812
1771;520.3004150390625
1772;520.169921875
1773;520.0394287109375
1774;519.9089965820312
1775;519.7785034179688
1776;519.6481323242188
1777;519.5177001953125
1778;519.387451171875
1779;519.2571411132812
1780;519.1268920898438
1781;518.9966430664062
1782;518.8665161132812
1783;518.7362670898438
1784;518.6061401367188
1785;518.47607421875
1786;518.3460083007812
1787;518.2160034179688
1788;518.0860595703125
1789;517.9561157226562
1790;517.8262329101562
1791;517.6963500976562
1792;517.5665893554688
1793;517.4368286132812
1794;517.3070068359375
1795;517.1773071289062
1796;517.0475463867188
1797;516.9179077148438
1798;516.7882690429688
1799;516.65869140625
1800;516.5291748046875
1801;516.3995361328125
1802;516.2700805664062
1803;516.140625
1804;516.0111694335938
1805;515.8817749023438
1806;515.7523803710938
1807;515.623046875
1808;515.4937133789062
1809;515.3644409179688
1810;515.2351684570312
1811;515.1060180664062
1812;514.9767456054688
1813;514.8475952148438
1814;514.7184448242188
1815;514.5894165039062
1816;514.4603271484375
1817;514.3313598632812
1818;514.2023315429688
1819;514.0733642578125
1820;513.9443969726562
1821;513.8154907226562
1822;513.6866455078125
1823;513.5577392578125
1824;513.4290161132812
1825;513.3002319335938
1826;513.1714477539062
1827;513.0427856445312
1828;512.9140625
1829;512.785400390625
1830;512.6567993164062
1831;512.5282592773438
1832;512.3997192382812
1833;512.2711791992188
1834;512.1427001953125
1835;512.0142822265625
1836;511.88580322265625
1837;511.7574768066406
1838;511.6291198730469
1839;511.50079345703125
1840;511.3724670410156
1841;511.24420166015625
1842;511.115966796875
1843;510.98779296875
1844;510.8596496582031
1845;510.7314453125
1846;510.60333251953125
1847;510.47528076171875
1848;510.34722900390625
1849;510.21923828125
1850;510.09130859375
1851;509.96331787109375
1852;509.83544921875
1853;509.70751953125
1854;509.57965087890625
1855;509.4518127441406
1856;509.3240051269531
1857;509.1962890625
1858;509.0685729980469
1859;508.94085693359375
1860;508.8132019042969
1861;508.685546875
1862;508.5579528808594
1863;508.4303283691406
1864;508.302734375
1865;508.17529296875
1866;508.04779052734375
1867;507.92034912109375
1868;507.79296875
1869;507.66558837890625
1870;507.5382385253906
1871;507.4109191894531
1872;507.28363037109375
1873;507.1564025878906
1874;507.0290832519531
1875;506.90191650390625
1876;506.7747497558594
1877;506.6476135253906
1878;506.5205078125
1879;506.3934631347656
1880;506.2664489746094
1881;506.1394348144531
1882;506.01239013671875
1883;505.8854675292969
1884;505.7585754394531
1885;505.6316833496094
1886;505.5047302246094
1887;505.37799072265625
1888;505.2511291503906
1889;505.12445068359375
1890;504.9977111816406
1891;504.8709411621094
1892;504.7443542480469
1893;504.61767578125
1894;504.4909973144531
1895;504.364501953125
1896;504.2379455566406
1897;504.1114807128906
1898;503.98492431640625
1899;503.85845947265625
1900;503.7320861816406
1901;503.6056213378906
1902;503.4792785644531
1903;503.35296630859375
1904;503.22662353515625
1905;503.1003723144531
1906;502.97412109375
1907;502.8478698730469
1908;502.7216796875
1909;502.59552001953125
1910;502.4693908691406
1911;502.34326171875
1912;502.2171936035156
1913;502.09112548828125
1914;501.9651184082031
1915;501.8391418457031
1916;501.7131042480469
1917;501.5871887207031
1918;501.46136474609375
1919;501.3354187011719
1920;501.2096252441406
1921;501.0837707519531
1922;500.9580078125
1923;500.8322448730469
1924;500.7065124511719
1925;500.5807800292969
1926;500.4551086425781
1927;500.3294372558594
1928;500.2038269042969
1929;500.0782165527344
1930;499.95263671875
1931;499.8271484375
1932;499.7016296386719
1933;499.57611083984375
1934;499.45068359375
1935;499.3252258300781
1936;499.1998596191406
1937;499.074462890625
1938;498.9491271972656
1939;498.8238220214844
1940;498.698486328125
1941;498.5732116699219
1942;498.4480285644531
1943;498.32281494140625
1944;498.1976013183594
1945;498.0724792480469
1946;497.94732666015625
1947;497.8222351074219
1948;497.69720458984375
1949;497.5721130371094
1950;497.4471130371094
1951;497.3221130371094
1952;497.19720458984375
1953;497.072265625
1954;496.9473571777344
1955;496.822509765625
1956;496.6976623535156
1957;496.57281494140625
1958;496.4480285644531
1959;496.32330322265625
1960;496.19854736328125
1961;496.0738220214844
1962;495.9491882324219
1963;495.82452392578125
1964;495.69989013671875
1965;495.5753479003906
1966;495.4508361816406
1967;495.32623291015625
1968;495.20172119140625
1969;495.07720947265625
1970;494.95281982421875
1971;494.8283996582031
1972;494.7039489746094
1973;494.5796203613281
1974;494.4553527832031
1975;494.33099365234375
1976;494.2067565917969
1977;494.0824890136719
1978;493.958251953125
1979;493.83404541015625
1980;493.70989990234375
1981;493.58575439453125
1982;493.4616394042969
1983;493.3376159667969
1984;493.2135314941406
1985;493.0895080566406
1986;492.9655456542969
1987;492.841552734375
1988;492.7176208496094
1989;492.59375
1990;492.4698791503906
1991;492.3460388183594
1992;492.2221984863281
1993;492.0984802246094
1994;491.9746398925781
1995;491.8509216308594
1996;491.7272033691406
1997;491.603515625
1998;491.4798889160156
1999;491.3562316894531
