;loss
0;876.3452758789062
1;876.1985473632812
2;876.0010986328125
3;875.8215942382812
4;875.6362915039062
5;875.4389038085938
6;875.2473754882812
7;875.0498046875
8;874.85498046875
9;874.6591186523438
10;874.46240234375
11;874.2646484375
12;874.0667114257812
13;873.8687744140625
14;873.6708984375
15;873.4729614257812
16;873.2748413085938
17;873.0751342773438
18;872.8770751953125
19;872.6788330078125
20;872.4805297851562
21;872.2801513671875
22;872.0816650390625
23;871.8809814453125
24;871.6802368164062
25;871.4791870117188
26;871.2781982421875
27;871.0795288085938
28;870.8807373046875
29;870.6793823242188
30;870.4780883789062
31;870.2767944335938
32;870.0776977539062
33;869.8762817382812
34;869.6768798828125
35;869.4776611328125
36;869.2781982421875
37;869.07861328125
38;868.8768310546875
39;868.6771850585938
40;868.4752807617188
41;868.2754516601562
42;868.0755004882812
43;867.8734741210938
44;867.6713256835938
45;867.4690551757812
46;867.2667236328125
47;867.064453125
48;866.8639526367188
49;866.6614379882812
50;866.4608154296875
51;866.2581176757812
52;866.0571899414062
53;865.8543701171875
54;865.6515502929688
55;865.4486694335938
56;865.2473754882812
57;865.0442504882812
58;864.8427124023438
59;864.6410522460938
60;864.4393920898438
61;864.2374267578125
62;864.0355224609375
63;863.8334350585938
64;863.6312255859375
65;863.4275512695312
66;863.2236328125
67;863.0196533203125
68;862.8155517578125
69;862.6128540039062
70;862.4086303710938
71;862.2042236328125
72;862.0011596679688
73;861.7965698242188
74;861.5933227539062
75;861.3898315429688
76;861.1863403320312
77;860.9813842773438
78;860.7763671875
79;860.5711669921875
80;860.3659057617188
81;860.1617431640625
82;859.9562377929688
83;859.751953125
84;859.5462036132812
85;859.3403930664062
86;859.1356201171875
87;858.9296264648438
88;858.724609375
89;858.5194091796875
90;858.3130493164062
91;858.1077270507812
92;857.9022216796875
93;857.6954345703125
94;857.4887084960938
95;857.2827758789062
96;857.0768432617188
97;856.8706665039062
98;856.6644287109375
99;856.45703125
100;856.24951171875
101;856.0419311523438
102;855.8350830078125
103;855.6282348632812
104;855.4203491210938
105;855.2130737304688
106;855.0048828125
107;854.7974243164062
108;854.5899658203125
109;854.38232421875
110;854.1737060546875
111;853.9656982421875
112;853.7567138671875
113;853.5477294921875
114;853.3392944335938
115;853.130859375
116;852.9223022460938
117;852.7135009765625
118;852.5045776367188
119;852.2955932617188
120;852.0857543945312
121;851.8764038085938
122;851.6669921875
123;851.45751953125
124;851.2470703125
125;851.0371704101562
126;850.8264770507812
127;850.6156005859375
128;850.4053344726562
129;850.1942749023438
130;849.9837036132812
131;849.7730102539062
132;849.5614624023438
133;849.3505249023438
134;849.138671875
135;848.9267578125
136;848.71533203125
137;848.5030517578125
138;848.2913818359375
139;848.0795288085938
140;847.8668823242188
141;847.6539916992188
142;847.4409790039062
143;847.2286376953125
144;847.0160522460938
145;846.8032836914062
146;846.5903930664062
147;846.3765869140625
148;846.1634521484375
149;845.9493408203125
150;845.7351684570312
151;845.5208740234375
152;845.3070678710938
153;845.0923461914062
154;844.8775024414062
155;844.6625366210938
156;844.447265625
157;844.2319946289062
158;844.0171508789062
159;843.8020629882812
160;843.5863037109375
161;843.3709106445312
162;843.1553344726562
163;842.93896484375
164;842.7230834960938
165;842.5064086914062
166;842.2894897460938
167;842.0723876953125
168;841.8551635742188
169;841.6376953125
170;841.4207153320312
171;841.2029418945312
172;840.9849243164062
173;840.7666625976562
174;840.5488891601562
175;840.3308715820312
176;840.1127319335938
177;839.8936767578125
178;839.6751098632812
179;839.4556274414062
180;839.2360229492188
181;839.0167236328125
182;838.7973022460938
183;838.5775756835938
184;838.3571166992188
185;838.1364135742188
186;837.916015625
187;837.6954345703125
188;837.4740600585938
189;837.2529907226562
190;837.03173828125
191;836.8096313476562
192;836.587890625
193;836.3657836914062
194;836.1435546875
195;835.9204711914062
196;835.6971435546875
197;835.4735107421875
198;835.2496337890625
199;835.0255126953125
200;834.8012084960938
201;834.5770263671875
202;834.3521118164062
203;834.1268920898438
204;833.9014892578125
205;833.6756591796875
206;833.4501953125
207;833.2237548828125
208;832.9976196289062
209;832.7711791992188
210;832.54443359375
211;832.31689453125
212;832.0889892578125
213;831.86083984375
214;831.6327514648438
215;831.4044799804688
216;831.17578125
217;830.9468383789062
218;830.7175903320312
219;830.4878540039062
220;830.2579345703125
221;830.0274658203125
222;829.7968139648438
223;829.5653076171875
224;829.3339233398438
225;829.1021118164062
226;828.8699951171875
227;828.6370239257812
228;828.4039916992188
229;828.1707763671875
230;827.9366455078125
231;827.7025756835938
232;827.4680786132812
233;827.2328491210938
234;826.9970703125
235;826.7610473632812
236;826.52490234375
237;826.2880249023438
238;826.0510864257812
239;825.8137817382812
240;825.5759887695312
241;825.33740234375
242;825.0983276367188
243;824.8588256835938
244;824.6192626953125
245;824.3793334960938
246;824.1388549804688
247;823.89794921875
248;823.6566162109375
249;823.4147338867188
250;823.1724853515625
251;822.9292602539062
252;822.6859741210938
253;822.4417114257812
254;822.1973876953125
255;821.9522705078125
256;821.7069702148438
257;821.4611206054688
258;821.2144165039062
259;820.9672241210938
260;820.7198486328125
261;820.4720458984375
262;820.2232055664062
263;819.9738159179688
264;819.7239990234375
265;819.4736328125
266;819.2230834960938
267;818.9715576171875
268;818.7198486328125
269;818.4672241210938
270;818.2144775390625
271;817.9606323242188
272;817.7063598632812
273;817.4514770507812
274;817.1964111328125
275;816.9403076171875
276;816.6840209960938
277;816.4267578125
278;816.1692504882812
279;815.9107055664062
280;815.6520385742188
281;815.3927001953125
282;815.1323852539062
283;814.8718872070312
284;814.6102294921875
285;814.3480224609375
286;814.0855712890625
287;813.8221435546875
288;813.5579833984375
289;813.2935180664062
290;813.0286254882812
291;812.7623901367188
292;812.4957275390625
293;812.2286376953125
294;811.9605712890625
295;811.6921997070312
296;811.4231567382812
297;811.1533203125
298;810.8825073242188
299;810.6109619140625
300;810.3389892578125
301;810.0665283203125
302;809.7929077148438
303;809.5185546875
304;809.2439575195312
305;808.9685668945312
306;808.6923828125
307;808.4151611328125
308;808.1375732421875
309;807.8592529296875
310;807.5802001953125
311;807.2999267578125
312;807.0189819335938
313;806.7376098632812
314;806.4550170898438
315;806.1719970703125
316;805.8878173828125
317;805.6033935546875
318;805.3175659179688
319;805.0313720703125
320;804.7440185546875
321;804.4558715820312
322;804.1666870117188
323;803.8772583007812
324;803.5868530273438
325;803.2952880859375
326;803.0028076171875
327;802.7095336914062
328;802.4157104492188
329;802.1206665039062
330;801.8250732421875
331;801.5281982421875
332;801.2307739257812
333;800.9324340820312
334;800.6327514648438
335;800.3321533203125
336;800.0310668945312
337;799.7289428710938
338;799.4254760742188
339;799.1215209960938
340;798.8161010742188
341;798.5098266601562
342;798.2024536132812
343;797.89453125
344;797.5851440429688
345;797.2752075195312
346;796.9638061523438
347;796.6517333984375
348;796.3386840820312
349;796.0244140625
350;795.7088623046875
351;795.3922119140625
352;795.0747680664062
353;794.7564086914062
354;794.4368896484375
355;794.1162719726562
356;793.7941284179688
357;793.4712524414062
358;793.1472778320312
359;792.8218383789062
360;792.4956665039062
361;792.1683349609375
362;791.8394165039062
363;791.5093383789062
364;791.1785888671875
365;790.8466186523438
366;790.5130615234375
367;790.1783447265625
368;789.8429565429688
369;789.50634765625
370;789.1681518554688
371;788.8287963867188
372;788.48828125
373;788.146484375
374;787.8038330078125
375;787.4595947265625
376;787.1142578125
377;786.767578125
378;786.4197387695312
379;786.0709838867188
380;785.7206420898438
381;785.3695068359375
382;785.0166015625
383;784.6627807617188
384;784.3078002929688
385;783.9515991210938
386;783.5941772460938
387;783.2349853515625
388;782.875
389;782.5133666992188
390;782.1509399414062
391;781.7866821289062
392;781.4213256835938
393;781.0545654296875
394;780.6867065429688
395;780.3175048828125
396;779.9474487304688
397;779.5757446289062
398;779.2030639648438
399;778.8292236328125
400;778.4540405273438
401;778.07763671875
402;777.6996459960938
403;777.3203125
404;776.9397583007812
405;776.5582885742188
406;776.1756591796875
407;775.7915649414062
408;775.4064331054688
409;775.0194702148438
410;774.6317138671875
411;774.24267578125
412;773.8524169921875
413;773.4605102539062
414;773.0678100585938
415;772.6735229492188
416;772.2778930664062
417;771.8811645507812
418;771.4832153320312
419;771.083984375
420;770.68359375
421;770.2819213867188
422;769.8795776367188
423;769.4756469726562
424;769.0706176757812
425;768.6643676757812
426;768.2568359375
427;767.8486938476562
428;767.439453125
429;767.0286254882812
430;766.61669921875
431;766.2036743164062
432;765.78955078125
433;765.3748168945312
434;764.9585571289062
435;764.5413208007812
436;764.1229248046875
437;763.70361328125
438;763.283203125
439;762.8618774414062
440;762.439453125
441;762.0165405273438
442;761.5926513671875
443;761.1677856445312
444;760.7418823242188
445;760.3150634765625
446;759.8871459960938
447;759.4586791992188
448;759.0291137695312
449;758.5989379882812
450;758.16796875
451;757.7362670898438
452;757.3038330078125
453;756.8701171875
454;756.4356689453125
455;756.0009765625
456;755.5651245117188
457;755.1290283203125
458;754.6923828125
459;754.2550048828125
460;753.8167114257812
461;753.3780517578125
462;752.9390258789062
463;752.4994506835938
464;752.0589599609375
465;751.6180419921875
466;751.1765747070312
467;750.7349853515625
468;750.2930908203125
469;749.8504638671875
470;749.4075317382812
471;748.9641723632812
472;748.5205078125
473;748.0770263671875
474;747.6332397460938
475;747.1893310546875
476;746.7452392578125
477;746.3006591796875
478;745.8558349609375
479;745.4110717773438
480;744.9664916992188
481;744.5215454101562
482;744.0765991210938
483;743.6317138671875
484;743.1873168945312
485;742.7428588867188
486;742.2986450195312
487;741.8544921875
488;741.41064453125
489;740.9668579101562
490;740.5234375
491;740.0799560546875
492;739.6370239257812
493;739.1943969726562
494;738.7520751953125
495;738.3102416992188
496;737.8685913085938
497;737.42724609375
498;736.9867553710938
499;736.5468139648438
500;736.107421875
501;735.6685180664062
502;735.22998046875
503;734.7924194335938
504;734.3555297851562
505;733.9194946289062
506;733.4867553710938
507;733.0548095703125
508;732.6236572265625
509;732.1934204101562
510;731.7640991210938
511;731.3357543945312
512;730.908203125
513;730.4816284179688
514;730.0557250976562
515;729.6311645507812
516;729.2074584960938
517;728.7847290039062
518;728.3630981445312
519;727.9420776367188
520;727.5224609375
521;727.1036376953125
522;726.6859130859375
523;726.2692260742188
524;725.8538208007812
525;725.439453125
526;725.0264892578125
527;724.6148071289062
528;724.2039794921875
529;723.7943725585938
530;723.3860473632812
531;722.9789428710938
532;722.5731201171875
533;722.1686401367188
534;721.765625
535;721.3638305664062
536;720.9629516601562
537;720.5637817382812
538;720.1658325195312
539;719.7691650390625
540;719.3739624023438
541;718.9798583984375
542;718.5873413085938
543;718.1961059570312
544;717.8062744140625
545;717.4178466796875
546;717.0306396484375
547;716.6449584960938
548;716.2603759765625
549;715.8775634765625
550;715.4957885742188
551;715.1159057617188
552;714.7374267578125
553;714.3606567382812
554;713.9849243164062
555;713.6109619140625
556;713.2384033203125
557;712.8673706054688
558;712.4977416992188
559;712.1293334960938
560;711.7625122070312
561;711.3974609375
562;711.0335083007812
563;710.6709594726562
564;710.3101806640625
565;709.9508056640625
566;709.5927734375
567;709.2362060546875
568;708.8809814453125
569;708.5272827148438
570;708.1748657226562
571;707.8236694335938
572;707.4738159179688
573;707.1262817382812
574;706.7802124023438
575;706.4357299804688
576;706.0927734375
577;705.7512817382812
578;705.4108276367188
579;705.0718383789062
580;704.7344970703125
581;704.3984985351562
582;704.0636596679688
583;703.7301025390625
584;703.3980102539062
585;703.0674438476562
586;702.7379760742188
587;702.4100341796875
588;702.0833740234375
589;701.7579345703125
590;701.4336547851562
591;701.1109008789062
592;700.7891845703125
593;700.4686279296875
594;700.1497192382812
595;699.8319091796875
596;699.5152587890625
597;699.1998901367188
598;698.8856201171875
599;698.5724487304688
600;698.2605590820312
601;697.9500732421875
602;697.6404418945312
603;697.3321533203125
604;697.0250854492188
605;696.7191772460938
606;696.4143676757812
607;696.1106567382812
608;695.8080444335938
609;695.5065307617188
610;695.2059326171875
611;694.9065551757812
612;694.6080932617188
613;694.3109741210938
614;694.0146484375
615;693.7192993164062
616;693.4253540039062
617;693.1325073242188
618;692.8407592773438
619;692.5499267578125
620;692.2603759765625
621;691.9718017578125
622;691.68408203125
623;691.3974609375
624;691.1117553710938
625;690.8268432617188
626;690.5430297851562
627;690.26025390625
628;689.9784545898438
629;689.6973876953125
630;689.4172973632812
631;689.1380615234375
632;688.8598022460938
633;688.58251953125
634;688.3060913085938
635;688.0307006835938
636;687.7561645507812
637;687.4825439453125
638;687.2097778320312
639;686.9378051757812
640;686.6673583984375
641;686.3978881835938
642;686.1292114257812
643;685.8614501953125
644;685.5944213867188
645;685.3282470703125
646;685.0630493164062
647;684.7987670898438
648;684.5350341796875
649;684.2720336914062
650;684.0098876953125
651;683.7485961914062
652;683.4881591796875
653;683.2281494140625
654;682.9691772460938
655;682.7109375
656;682.4534301757812
657;682.1966552734375
658;681.9403686523438
659;681.6848754882812
660;681.4299926757812
661;681.17578125
662;680.9224243164062
663;680.6695556640625
664;680.4175415039062
665;680.166015625
666;679.9153442382812
667;679.6651611328125
668;679.41552734375
669;679.1666259765625
670;678.9183959960938
671;678.6708374023438
672;678.4239501953125
673;678.1775512695312
674;677.9319458007812
675;677.6867065429688
676;677.4423828125
677;677.1986694335938
678;676.9555053710938
679;676.7127685546875
680;676.4706420898438
681;676.2294311523438
682;675.98876953125
683;675.7487182617188
684;675.5090942382812
685;675.2704467773438
686;675.0325317382812
687;674.7950439453125
688;674.5582275390625
689;674.3220825195312
690;674.0863037109375
691;673.85107421875
692;673.6165771484375
693;673.3823852539062
694;673.1489868164062
695;672.9161376953125
696;672.6838989257812
697;672.4521484375
698;672.2210693359375
699;671.9906005859375
700;671.7606201171875
701;671.5309448242188
702;671.3020629882812
703;671.0734252929688
704;670.8453369140625
705;670.6177368164062
706;670.3907470703125
707;670.1641235351562
708;669.93798828125
709;669.7122192382812
710;669.4869995117188
711;669.26220703125
712;669.0379638671875
713;668.8142700195312
714;668.5908813476562
715;668.3678588867188
716;668.1453247070312
717;667.9232788085938
718;667.70166015625
719;667.4805908203125
720;667.2598876953125
721;667.0397338867188
722;666.8200073242188
723;666.6008911132812
724;666.3820190429688
725;666.1636352539062
726;665.9456176757812
727;665.7279052734375
728;665.5106201171875
729;665.2938232421875
730;665.0774536132812
731;664.8613891601562
732;664.6458129882812
733;664.4306640625
734;664.2159423828125
735;664.0018920898438
736;663.7882080078125
737;663.5748901367188
738;663.3619384765625
739;663.1492919921875
740;662.9371337890625
741;662.7254028320312
742;662.5137939453125
743;662.302734375
744;662.0919799804688
745;661.8817138671875
746;661.6717529296875
747;661.4622192382812
748;661.2528686523438
749;661.0439453125
750;660.83544921875
751;660.6273193359375
752;660.4194946289062
753;660.2120361328125
754;660.0049438476562
755;659.79833984375
756;659.591796875
757;659.3857421875
758;659.1800537109375
759;658.974609375
760;658.7694702148438
761;658.5647583007812
762;658.3603515625
763;658.1561889648438
764;657.9524536132812
765;657.7489013671875
766;657.5455322265625
767;657.3426513671875
768;657.1399536132812
769;656.9376220703125
770;656.7355346679688
771;656.5338134765625
772;656.3323364257812
773;656.1311645507812
774;655.93017578125
775;655.7295532226562
776;655.5291748046875
777;655.3291015625
778;655.1293334960938
779;654.9296875
780;654.7303466796875
781;654.53125
782;654.33251953125
783;654.1339111328125
784;653.9356689453125
785;653.7377319335938
786;653.5400390625
787;653.3424682617188
788;653.1453857421875
789;652.9486694335938
790;652.7520751953125
791;652.5559692382812
792;652.3599243164062
793;652.1641845703125
794;651.96875
795;651.7735595703125
796;651.5785522460938
797;651.3838500976562
798;651.1893310546875
799;650.9950561523438
800;650.8010864257812
801;650.6072387695312
802;650.4136962890625
803;650.2203369140625
804;650.02734375
805;649.8345947265625
806;649.6420288085938
807;649.4497680664062
808;649.2576293945312
809;649.0657958984375
810;648.8741455078125
811;648.6827392578125
812;648.4915771484375
813;648.3004760742188
814;648.1098022460938
815;647.9192504882812
816;647.7288208007812
817;647.53857421875
818;647.3485717773438
819;647.1588134765625
820;646.9692993164062
821;646.7798461914062
822;646.5906982421875
823;646.4017944335938
824;646.2130126953125
825;646.0244140625
826;645.8359985351562
827;645.6477661132812
828;645.4597778320312
829;645.2719116210938
830;645.0842895507812
831;644.8967895507812
832;644.7095336914062
833;644.5224609375
834;644.3358154296875
835;644.1492309570312
836;643.962890625
837;643.7767944335938
838;643.5906982421875
839;643.4048461914062
840;643.2193603515625
841;643.0338745117188
842;642.8486328125
843;642.6636352539062
844;642.4788208007812
845;642.2940673828125
846;642.1095581054688
847;641.9253540039062
848;641.7413330078125
849;641.5574951171875
850;641.3738403320312
851;641.1903076171875
852;641.0070190429688
853;640.8239135742188
854;640.6409301757812
855;640.4580078125
856;640.2754516601562
857;640.0931396484375
858;639.9109497070312
859;639.7289428710938
860;639.5473022460938
861;639.3656616210938
862;639.1842041015625
863;639.0029907226562
864;638.8218994140625
865;638.6411743164062
866;638.46044921875
867;638.2799682617188
868;638.0996704101562
869;637.9194946289062
870;637.7395629882812
871;637.5596313476562
872;637.3798828125
873;637.2003173828125
874;637.0210571289062
875;636.841796875
876;636.6629028320312
877;636.48388671875
878;636.3052368164062
879;636.1267700195312
880;635.9483032226562
881;635.7700805664062
882;635.5921020507812
883;635.4142456054688
884;635.2366333007812
885;635.0589599609375
886;634.8814086914062
887;634.7041015625
888;634.5269775390625
889;634.3499755859375
890;634.1731567382812
891;633.9964599609375
892;633.8198852539062
893;633.6434936523438
894;633.4672241210938
895;633.2910766601562
896;633.1151123046875
897;632.9393920898438
898;632.763671875
899;632.5880737304688
900;632.4126586914062
901;632.2374267578125
902;632.0621948242188
903;631.8871459960938
904;631.7123413085938
905;631.53759765625
906;631.3629760742188
907;631.1885375976562
908;631.01416015625
909;630.8399658203125
910;630.6658325195312
911;630.4918212890625
912;630.3179931640625
913;630.1442260742188
914;629.9707641601562
915;629.79736328125
916;629.6240234375
917;629.4509887695312
918;629.2778930664062
919;629.1050415039062
920;628.9323120117188
921;628.7597045898438
922;628.5872192382812
923;628.4149169921875
924;628.2427978515625
925;628.07080078125
926;627.8988647460938
927;627.72705078125
928;627.5553588867188
929;627.3839111328125
930;627.2125854492188
931;627.0413208007812
932;626.8702392578125
933;626.6993408203125
934;626.5284423828125
935;626.3577270507812
936;626.1871337890625
937;626.0166625976562
938;625.8463745117188
939;625.6762084960938
940;625.5061645507812
941;625.3361206054688
942;625.1663208007812
943;624.9965209960938
944;624.8268432617188
945;624.6572265625
946;624.4878540039062
947;624.3184814453125
948;624.1492309570312
949;623.9800415039062
950;623.8110961914062
951;623.6422119140625
952;623.4735107421875
953;623.3046875
954;623.1361083984375
955;622.9676513671875
956;622.7992553710938
957;622.6309814453125
958;622.4629516601562
959;622.294921875
960;622.126953125
961;621.9591064453125
962;621.7914428710938
963;621.6237182617188
964;621.4562377929688
965;621.2888793945312
966;621.12158203125
967;620.9545288085938
968;620.7874755859375
969;620.62060546875
970;620.4537963867188
971;620.287109375
972;620.1205444335938
973;619.9540405273438
974;619.78759765625
975;619.6212768554688
976;619.455078125
977;619.2889404296875
978;619.123046875
979;618.9571533203125
980;618.7913818359375
981;618.6256713867188
982;618.4600830078125
983;618.2946166992188
984;618.1293334960938
985;617.9642333984375
986;617.7991943359375
987;617.6341552734375
988;617.4692993164062
989;617.3045654296875
990;617.1398315429688
991;616.9752807617188
992;616.8109741210938
993;616.6467895507812
994;616.4825439453125
995;616.3185424804688
996;616.1546020507812
997;615.99072265625
998;615.8270263671875
999;615.6633911132812
1000;615.4998779296875
1001;615.3363647460938
1002;615.1730346679688
1003;615.009765625
1004;614.8465576171875
1005;614.6834716796875
1006;614.5205078125
1007;614.3575439453125
1008;614.1947631835938
1009;614.0321044921875
1010;613.8694458007812
1011;613.7069091796875
1012;613.5443725585938
1013;613.3818969726562
1014;613.2196044921875
1015;613.0572509765625
1016;612.8951416015625
1017;612.7330932617188
1018;612.5711059570312
1019;612.4091796875
1020;612.2474365234375
1021;612.0856323242188
1022;611.9240112304688
1023;611.7625732421875
1024;611.6010131835938
1025;611.4397583007812
1026;611.2784423828125
1027;611.1171875
1028;610.9560546875
1029;610.794921875
1030;610.6339721679688
1031;610.4730834960938
1032;610.3121948242188
1033;610.1514282226562
1034;609.9907836914062
1035;609.8302001953125
1036;609.6696166992188
1037;609.5091552734375
1038;609.3487548828125
1039;609.1884765625
1040;609.0281982421875
1041;608.8680419921875
1042;608.7080078125
1043;608.5479736328125
1044;608.3881225585938
1045;608.2283325195312
1046;608.0684814453125
1047;607.9087524414062
1048;607.7491455078125
1049;607.5895385742188
1050;607.4301147460938
1051;607.2708129882812
1052;607.111328125
1053;606.9521484375
1054;606.79296875
1055;606.6337890625
1056;606.4747924804688
1057;606.3158569335938
1058;606.1569213867188
1059;605.9981689453125
1060;605.83935546875
1061;605.6806640625
1062;605.5221557617188
1063;605.3636474609375
1064;605.2051391601562
1065;605.0468139648438
1066;604.8885498046875
1067;604.7302856445312
1068;604.5721435546875
1069;604.4140014648438
1070;604.2559814453125
1071;604.0980834960938
1072;603.9400634765625
1073;603.7822265625
1074;603.6244506835938
1075;603.466796875
1076;603.3091430664062
1077;603.1516723632812
1078;602.994140625
1079;602.8367309570312
1080;602.6793823242188
1081;602.5220947265625
1082;602.3649291992188
1083;602.2078247070312
1084;602.0506591796875
1085;601.8936767578125
1086;601.7367553710938
1087;601.5798950195312
1088;601.4229736328125
1089;601.2662353515625
1090;601.1096801757812
1091;600.9530639648438
1092;600.7964477539062
1093;600.6400146484375
1094;600.4835815429688
1095;600.3272705078125
1096;600.1710205078125
1097;600.0148315429688
1098;599.8587646484375
1099;599.70263671875
1100;599.5466918945312
1101;599.3906860351562
1102;599.2348022460938
1103;599.0790405273438
1104;598.9232788085938
1105;598.767578125
1106;598.6119995117188
1107;598.4564819335938
1108;598.3009033203125
1109;598.1454467773438
1110;597.9901123046875
1111;597.8348388671875
1112;597.6795654296875
1113;597.5244140625
1114;597.3692626953125
1115;597.2142333984375
1116;597.0592651367188
1117;596.9043579101562
1118;596.74951171875
1119;596.5947265625
1120;596.4400024414062
1121;596.2853393554688
1122;596.1307983398438
1123;595.9761962890625
1124;595.82177734375
1125;595.6673583984375
1126;595.5130004882812
1127;595.3588256835938
1128;595.2045288085938
1129;595.0503540039062
1130;594.8963012695312
1131;594.7421875
1132;594.5883178710938
1133;594.4343872070312
1134;594.2805786132812
1135;594.1267700195312
1136;593.9730224609375
1137;593.8193359375
1138;593.6657104492188
1139;593.5121459960938
1140;593.3587036132812
1141;593.2052001953125
1142;593.0518798828125
1143;592.8985595703125
1144;592.7453002929688
1145;592.5921630859375
1146;592.4390258789062
1147;592.2860107421875
1148;592.1329345703125
1149;591.97998046875
1150;591.8270874023438
1151;591.6742553710938
1152;591.521484375
1153;591.3687744140625
1154;591.2161865234375
1155;591.0635986328125
1156;590.9110717773438
1157;590.7586059570312
1158;590.6061401367188
1159;590.4537963867188
1160;590.3014526367188
1161;590.1493530273438
1162;589.9970703125
1163;589.8449096679688
1164;589.6929321289062
1165;589.5408935546875
1166;589.3889770507812
1167;589.2371215820312
1168;589.0852661132812
1169;588.9334716796875
1170;588.7816772460938
1171;588.6300048828125
1172;588.4783935546875
1173;588.3269653320312
1174;588.1754150390625
1175;588.0239868164062
1176;587.8726196289062
1177;587.7213134765625
1178;587.5701293945312
1179;587.4188842773438
1180;587.2677001953125
1181;587.1166381835938
1182;586.9656982421875
1183;586.8147583007812
1184;586.6637573242188
1185;586.5128784179688
1186;586.3619995117188
1187;586.2113647460938
1188;586.0606689453125
1189;585.9100341796875
1190;585.7594604492188
1191;585.6089477539062
1192;585.4584350585938
1193;585.3080444335938
1194;585.1576538085938
1195;585.0073852539062
1196;584.8571166992188
1197;584.7069091796875
1198;584.5567626953125
1199;584.4066162109375
1200;584.2566528320312
1201;584.1066284179688
1202;583.9567260742188
1203;583.8068237304688
1204;583.6571044921875
1205;583.5072631835938
1206;583.3576049804688
1207;583.2079467773438
1208;583.0582885742188
1209;582.9087524414062
1210;582.75927734375
1211;582.6098022460938
1212;582.4605102539062
1213;582.3111572265625
1214;582.1618041992188
1215;582.0126342773438
1216;581.8634033203125
1217;581.7142944335938
1218;581.5652465820312
1219;581.4161987304688
1220;581.2672729492188
1221;581.1183471679688
1222;580.9695434570312
1223;580.8206787109375
1224;580.6719360351562
1225;580.5232543945312
1226;580.37451171875
1227;580.2258911132812
1228;580.077392578125
1229;579.9288940429688
1230;579.7804565429688
1231;579.632080078125
1232;579.4837646484375
1233;579.3355102539062
1234;579.1871948242188
1235;579.0390625
1236;578.8909301757812
1237;578.7428588867188
1238;578.5948486328125
1239;578.4468994140625
1240;578.2989501953125
1241;578.1510009765625
1242;578.0032348632812
1243;577.85546875
1244;577.7077026367188
1245;577.56005859375
1246;577.4124755859375
1247;577.2648315429688
1248;577.1173706054688
1249;576.9698486328125
1250;576.8224487304688
1251;576.6751098632812
1252;576.52783203125
1253;576.3805541992188
1254;576.2333984375
1255;576.0862426757812
1256;575.9390869140625
1257;575.7919921875
1258;575.6450805664062
1259;575.498046875
1260;575.3511962890625
1261;575.2042846679688
1262;575.0574951171875
1263;574.9107055664062
1264;574.7639770507812
1265;574.6173095703125
1266;574.4706420898438
1267;574.3241577148438
1268;574.1776733398438
1269;574.0311279296875
1270;573.8847045898438
1271;573.7383422851562
1272;573.592041015625
1273;573.4457397460938
1274;573.2994995117188
1275;573.1533203125
1276;573.0072631835938
1277;572.8612060546875
1278;572.7152709960938
1279;572.5693969726562
1280;572.4234619140625
1281;572.2777099609375
1282;572.1318969726562
1283;571.9862060546875
1284;571.8404541015625
1285;571.69482421875
1286;571.54931640625
1287;571.4037475585938
1288;571.25830078125
1289;571.1129150390625
1290;570.9675903320312
1291;570.822265625
1292;570.6769409179688
1293;570.53173828125
1294;570.3865966796875
1295;570.2415161132812
1296;570.096435546875
1297;569.9514770507812
1298;569.8064575195312
1299;569.6614990234375
1300;569.5166015625
1301;569.3717651367188
1302;569.2269287109375
1303;569.0821533203125
1304;568.9374389648438
1305;568.7928466796875
1306;568.648193359375
1307;568.5036010742188
1308;568.3590698242188
1309;568.2146606445312
1310;568.0702514648438
1311;567.9258422851562
1312;567.781494140625
1313;567.6372680664062
1314;567.4929809570312
1315;567.3488159179688
1316;567.2047119140625
1317;567.060546875
1318;566.9165649414062
1319;566.7725219726562
1320;566.6285400390625
1321;566.4846801757812
1322;566.3407592773438
1323;566.1969604492188
1324;566.0531616210938
1325;565.9094848632812
1326;565.7657470703125
1327;565.6221313476562
1328;565.4784545898438
1329;565.3348999023438
1330;565.19140625
1331;565.0479125976562
1332;564.9044799804688
1333;564.7611083984375
1334;564.6177368164062
1335;564.4744262695312
1336;564.3311767578125
1337;564.1879272460938
1338;564.0447998046875
1339;563.9017333984375
1340;563.7586059570312
1341;563.6156005859375
1342;563.4725952148438
1343;563.32958984375
1344;563.1867065429688
1345;563.0438842773438
1346;562.9010009765625
1347;562.75830078125
1348;562.6155395507812
1349;562.472900390625
1350;562.3302612304688
1351;562.1876831054688
1352;562.0451049804688
1353;561.902587890625
1354;561.7601928710938
1355;561.6177978515625
1356;561.4754028320312
1357;561.3330688476562
1358;561.1907958984375
1359;561.048583984375
1360;560.9063110351562
1361;560.7642211914062
1362;560.6220703125
1363;560.47998046875
1364;560.3379516601562
1365;560.1959838867188
1366;560.0540161132812
1367;559.9121704101562
1368;559.7703247070312
1369;559.6284790039062
1370;559.4866943359375
1371;559.3449096679688
1372;559.2032470703125
1373;559.0615844726562
1374;558.9199829101562
1375;558.7784423828125
1376;558.6368408203125
1377;558.4954223632812
1378;558.35400390625
1379;558.2125854492188
1380;558.0712890625
1381;557.9298706054688
1382;557.7886352539062
1383;557.6473999023438
1384;557.5062866210938
1385;557.3651123046875
1386;557.2240600585938
1387;557.0828857421875
1388;556.9418334960938
1389;556.8009033203125
1390;556.6599731445312
1391;556.51904296875
1392;556.3782348632812
1393;556.2374267578125
1394;556.0966186523438
1395;555.9559326171875
1396;555.8152465820312
1397;555.674560546875
1398;555.533935546875
1399;555.3933715820312
1400;555.2528076171875
1401;555.1123657226562
1402;554.9718627929688
1403;554.8314819335938
1404;554.691162109375
1405;554.5508422851562
1406;554.4105834960938
1407;554.2703247070312
1408;554.1301879882812
1409;553.9900512695312
1410;553.8499755859375
1411;553.7098388671875
1412;553.56982421875
1413;553.4298095703125
1414;553.2898559570312
1415;553.1499633789062
1416;553.0100708007812
1417;552.8702392578125
1418;552.73046875
1419;552.5906982421875
1420;552.4509887695312
1421;552.3113403320312
1422;552.1716918945312
1423;552.0321044921875
1424;551.8925170898438
1425;551.7530517578125
1426;551.6135864257812
1427;551.4741821289062
1428;551.3347778320312
1429;551.1954345703125
1430;551.0560913085938
1431;550.9168090820312
1432;550.7775268554688
1433;550.6383666992188
1434;550.4992065429688
1435;550.3600463867188
1436;550.2210693359375
1437;550.08203125
1438;549.9429931640625
1439;549.8040771484375
1440;549.6651611328125
1441;549.5262451171875
1442;549.387451171875
1443;549.2485961914062
1444;549.10986328125
1445;548.9711303710938
1446;548.8324584960938
1447;548.6937866210938
1448;548.5552978515625
1449;548.4166870117188
1450;548.2781982421875
1451;548.1396484375
1452;548.0012817382812
1453;547.86279296875
1454;547.7244873046875
1455;547.5861206054688
1456;547.4478149414062
1457;547.3095703125
1458;547.17138671875
1459;547.033203125
1460;546.8950805664062
1461;546.7569580078125
1462;546.618896484375
1463;546.4808349609375
1464;546.3428955078125
1465;546.2048950195312
1466;546.0669555664062
1467;545.9291381835938
1468;545.7913208007812
1469;545.6535034179688
1470;545.5158081054688
1471;545.3780517578125
1472;545.2403564453125
1473;545.1027221679688
1474;544.9651489257812
1475;544.8275756835938
1476;544.6900024414062
1477;544.5525512695312
1478;544.4151000976562
1479;544.2777709960938
1480;544.1403198242188
1481;544.0029907226562
1482;543.8656616210938
1483;543.7284545898438
1484;543.5911865234375
1485;543.4539794921875
1486;543.3168334960938
1487;543.1797485351562
1488;543.0426635742188
1489;542.9056396484375
1490;542.7686157226562
1491;542.6316528320312
1492;542.4946899414062
1493;542.3578491210938
1494;542.2210083007812
1495;542.0841674804688
1496;541.9473876953125
1497;541.8106689453125
1498;541.6739501953125
1499;541.5372924804688
