;loss
0;867.2137451171875
1;866.9867553710938
2;866.759765625
3;866.5327758789062
4;866.3196411132812
5;866.1022338867188
6;865.8818969726562
7;865.6594848632812
8;865.4320678710938
9;865.2047729492188
10;864.9772338867188
11;864.7496948242188
12;864.5221557617188
13;864.2944946289062
14;864.06689453125
15;863.8390502929688
16;863.611328125
17;863.3833618164062
18;863.1531982421875
19;862.9251098632812
20;862.6969604492188
21;862.4662475585938
22;862.2378540039062
23;862.0093383789062
24;861.7808227539062
25;861.5494995117188
26;861.32080078125
27;861.0891723632812
28;860.857421875
29;860.6255493164062
30;860.3935546875
31;860.1641845703125
32;859.9318237304688
33;859.6995239257812
34;859.4669189453125
35;859.23681640625
36;859.00390625
37;858.7734985351562
38;858.5427856445312
39;858.3118286132812
40;858.0807495117188
41;857.8493041992188
42;857.6176147460938
43;857.3833618164062
44;857.1512451171875
45;856.9163818359375
46;856.68359375
47;856.4482421875
48;856.21484375
49;855.9811401367188
50;855.7449340820312
51;855.5104370117188
52;855.2735595703125
53;855.0364379882812
54;854.798828125
55;854.5628051757812
56;854.3265380859375
57;854.0897216796875
58;853.8525390625
59;853.6149291992188
60;853.375
61;853.134765625
62;852.89404296875
63;852.6528930664062
64;852.4129638671875
65;852.1725463867188
66;851.93017578125
67;851.6871948242188
68;851.4437866210938
69;851.2014770507812
70;850.9586791992188
71;850.7138671875
72;850.4684448242188
73;850.2225341796875
74;849.9761352539062
75;849.7291870117188
76;849.4818725585938
77;849.2338256835938
78;848.9854125976562
79;848.7364501953125
80;848.4884033203125
81;848.23974609375
82;847.9905395507812
83;847.7393798828125
84;847.4890747070312
85;847.2382202148438
86;846.9852294921875
87;846.7332763671875
88;846.4805297851562
89;846.2259521484375
90;845.970703125
91;845.7162475585938
92;845.4610595703125
93;845.2041015625
94;844.9464721679688
95;844.6883544921875
96;844.4306640625
97;844.17236328125
98;843.9121704101562
99;843.6526489257812
100;843.3924560546875
101;843.1304321289062
102;842.8676147460938
103;842.6041870117188
104;842.3400268554688
105;842.0751953125
106;841.8109741210938
107;841.5458984375
108;841.2789916992188
109;841.0114135742188
110;840.7431640625
111;840.4740600585938
112;840.2054443359375
113;839.9349975585938
114;839.6647338867188
115;839.3927001953125
116;839.12109375
117;838.8475952148438
118;838.5742797851562
119;838.3003540039062
120;838.0244140625
121;837.7487182617188
122;837.4712524414062
123;837.1939697265625
124;836.9158935546875
125;836.6370239257812
126;836.3571166992188
127;836.07666015625
128;835.7941284179688
129;835.5118408203125
130;835.2276611328125
131;834.9436645507812
132;834.6586303710938
133;834.3728637695312
134;834.0861206054688
135;833.7974853515625
136;833.5079345703125
137;833.2184448242188
138;832.9280395507812
139;832.63671875
140;832.3444213867188
141;832.0513305664062
142;831.7571411132812
143;831.4610595703125
144;831.1649780273438
145;830.8670043945312
146;830.5690307617188
147;830.26904296875
148;829.9680786132812
149;829.6671142578125
150;829.3651123046875
151;829.0610961914062
152;828.7571411132812
153;828.4511108398438
154;828.1441040039062
155;827.8360595703125
156;827.5278930664062
157;827.2186889648438
158;826.9075317382812
159;826.5952758789062
160;826.2828369140625
161;825.9685668945312
162;825.6530151367188
163;825.3364868164062
164;825.0187377929688
165;824.7008666992188
166;824.3818359375
167;824.0616455078125
168;823.7403564453125
169;823.41796875
170;823.0935668945312
171;822.7680053710938
172;822.4422607421875
173;822.1143798828125
174;821.7853393554688
175;821.4552001953125
176;821.1246948242188
177;820.79296875
178;820.4592895507812
179;820.1250610351562
180;819.7890014648438
181;819.4515991210938
182;819.1138305664062
183;818.7748413085938
184;818.4345703125
185;818.0922241210938
186;817.7485961914062
187;817.4036254882812
188;817.0582275390625
189;816.7116088867188
190;816.3637084960938
191;816.0145263671875
192;815.6632080078125
193;815.3114013671875
194;814.9581909179688
195;814.6029663085938
196;814.2471923828125
197;813.8892822265625
198;813.5301513671875
199;813.1694946289062
200;812.8076171875
201;812.4443359375
202;812.0797729492188
203;811.7146606445312
204;811.3480834960938
205;810.9801635742188
206;810.6109008789062
207;810.240234375
208;809.8681640625
209;809.4946899414062
210;809.1198120117188
211;808.7427978515625
212;808.3651123046875
213;807.9859619140625
214;807.6046752929688
215;807.2220458984375
216;806.8378295898438
217;806.4522705078125
218;806.0653076171875
219;805.6767578125
220;805.2876586914062
221;804.8961791992188
222;804.5042114257812
223;804.1098022460938
224;803.71484375
225;803.3182983398438
226;802.9194946289062
227;802.5200805664062
228;802.119140625
229;801.7159423828125
230;801.3120727539062
231;800.9058837890625
232;800.4990844726562
233;800.0906372070312
234;799.6807250976562
235;799.2684936523438
236;798.8547973632812
237;798.4395751953125
238;798.0235595703125
239;797.6053466796875
240;797.1854858398438
241;796.7649536132812
242;796.3427124023438
243;795.9182739257812
244;795.4922485351562
245;795.0654907226562
246;794.6371459960938
247;794.2063598632812
248;793.7748413085938
249;793.3416748046875
250;792.9070434570312
251;792.4700317382812
252;792.0313110351562
253;791.5919189453125
254;791.1500854492188
255;790.7066650390625
256;790.2625122070312
257;789.8165893554688
258;789.3682861328125
259;788.9190673828125
260;788.4683227539062
261;788.0159301757812
262;787.5619506835938
263;787.10546875
264;786.6473999023438
265;786.1883544921875
266;785.7276611328125
267;785.2645874023438
268;784.8005981445312
269;784.3340454101562
270;783.8659057617188
271;783.3968505859375
272;782.9260864257812
273;782.4529418945312
274;781.97802734375
275;781.5013427734375
276;781.0238037109375
277;780.5443725585938
278;780.0631713867188
279;779.5796508789062
280;779.0942993164062
281;778.6079711914062
282;778.1198120117188
283;777.6300659179688
284;777.1384887695312
285;776.6442260742188
286;776.1483154296875
287;775.6505126953125
288;775.1517333984375
289;774.6510620117188
290;774.1486206054688
291;773.6444091796875
292;773.1383056640625
293;772.6303100585938
294;772.1205444335938
295;771.6080932617188
296;771.0946044921875
297;770.5783081054688
298;770.0602416992188
299;769.5410766601562
300;769.0192260742188
301;768.4962768554688
302;767.9713745117188
303;767.4445190429688
304;766.9158935546875
305;766.3843383789062
306;765.8510131835938
307;765.3155517578125
308;764.7781982421875
309;764.2396240234375
310;763.6990356445312
311;763.1563720703125
312;762.6109619140625
313;762.0643310546875
314;761.515625
315;760.9649047851562
316;760.412109375
317;759.8564453125
318;759.2993774414062
319;758.740234375
320;758.1790161132812
321;757.6156616210938
322;757.0501098632812
323;756.4816284179688
324;755.9110107421875
325;755.3388671875
326;754.7645874023438
327;754.1880493164062
328;753.6085205078125
329;753.0274658203125
330;752.4441528320312
331;751.8584594726562
332;751.26953125
333;750.6790161132812
334;750.0861206054688
335;749.4907836914062
336;748.8930053710938
337;748.2926635742188
338;747.6900024414062
339;747.0838623046875
340;746.4751586914062
341;745.8638305664062
342;745.2496337890625
343;744.6336059570312
344;744.0139770507812
345;743.3914794921875
346;742.7661743164062
347;742.138671875
348;741.5076293945312
349;740.8743286132812
350;740.2378540039062
351;739.5982055664062
352;738.9553833007812
353;738.3091430664062
354;737.6595458984375
355;737.0062866210938
356;736.3486938476562
357;735.6873779296875
358;735.0234375
359;734.3562622070312
360;733.68505859375
361;733.0098876953125
362;732.3306274414062
363;731.64697265625
364;730.9589233398438
365;730.2666625976562
366;729.5703735351562
367;728.8692626953125
368;728.1633911132812
369;727.4521484375
370;726.7349243164062
371;726.0128173828125
372;725.2840576171875
373;724.55859375
374;723.8314208984375
375;723.0994262695312
376;722.3674926757812
377;721.6383666992188
378;720.9053955078125
379;720.1764526367188
380;719.4552001953125
381;718.7376098632812
382;718.0225219726562
383;717.3182373046875
384;716.6167602539062
385;715.9321899414062
386;715.2633056640625
387;714.6034545898438
388;713.9525146484375
389;713.3138427734375
390;712.6930541992188
391;712.0916748046875
392;711.5008544921875
393;710.91552734375
394;710.3406372070312
395;709.7801513671875
396;709.2313232421875
397;708.6945190429688
398;708.1748046875
399;707.6735229492188
400;707.1849975585938
401;706.7073364257812
402;706.2378540039062
403;705.7780151367188
404;705.3253173828125
405;704.8792114257812
406;704.4375
407;704.0006713867188
408;703.5668334960938
409;703.1360473632812
410;702.70947265625
411;702.2848510742188
412;701.8614501953125
413;701.4388427734375
414;701.0170288085938
415;700.5956420898438
416;700.1758422851562
417;699.7572631835938
418;699.3401489257812
419;698.9240112304688
420;698.5094604492188
421;698.0962524414062
422;697.6843872070312
423;697.2735595703125
424;696.8641357421875
425;696.45703125
426;696.0513916015625
427;695.6472778320312
428;695.2449951171875
429;694.8438110351562
430;694.4441528320312
431;694.0458984375
432;693.6494140625
433;693.25439453125
434;692.8606567382812
435;692.4688720703125
436;692.0787353515625
437;691.68994140625
438;691.3026733398438
439;690.9168090820312
440;690.5318603515625
441;690.1484375
442;689.7666015625
443;689.3858032226562
444;689.00634765625
445;688.6282348632812
446;688.2518310546875
447;687.8765869140625
448;687.5029296875
449;687.1305541992188
450;686.7591552734375
451;686.3892211914062
452;686.0202026367188
453;685.6527099609375
454;685.2863159179688
455;684.9212036132812
456;684.5574951171875
457;684.1950073242188
458;683.8334350585938
459;683.4732055664062
460;683.1140747070312
461;682.7562866210938
462;682.3994140625
463;682.0437622070312
464;681.6892700195312
465;681.3363647460938
466;680.9843139648438
467;680.6334838867188
468;680.2839965820312
469;679.935546875
470;679.5882568359375
471;679.2418823242188
472;678.8971557617188
473;678.5531616210938
474;678.2103271484375
475;677.8687133789062
476;677.5283813476562
477;677.1890258789062
478;676.8504638671875
479;676.5128784179688
480;676.1766967773438
481;675.8414916992188
482;675.5071411132812
483;675.1737060546875
484;674.8419799804688
485;674.5119018554688
486;674.1827392578125
487;673.8547973632812
488;673.5274658203125
489;673.2012939453125
490;672.8764038085938
491;672.55224609375
492;672.2293090820312
493;671.9077758789062
494;671.5872192382812
495;671.2677612304688
496;670.9491577148438
497;670.6320190429688
498;670.3159790039062
499;670.0009765625
500;669.6870727539062
501;669.3743896484375
502;669.0626220703125
503;668.7518920898438
504;668.4420166015625
505;668.1331176757812
506;667.8255615234375
507;667.5191040039062
508;667.2135009765625
509;666.9091796875
510;666.6058349609375
511;666.3031616210938
512;666.0016479492188
513;665.7011108398438
514;665.4014282226562
515;665.1026611328125
516;664.8049926757812
517;664.5082397460938
518;664.2120361328125
519;663.9171142578125
520;663.6229248046875
521;663.32958984375
522;663.0369873046875
523;662.7452392578125
524;662.4544677734375
525;662.1644897460938
526;661.87548828125
527;661.5873413085938
528;661.3001098632812
529;661.0136108398438
530;660.7280883789062
531;660.4434814453125
532;660.1598510742188
533;659.876953125
534;659.59521484375
535;659.3143920898438
536;659.0342407226562
537;658.7551879882812
538;658.4766845703125
539;658.1990356445312
540;657.9222412109375
541;657.6461181640625
542;657.3710327148438
543;657.0965576171875
544;656.8231201171875
545;656.5501708984375
546;656.2782592773438
547;656.0072021484375
548;655.7367553710938
549;655.4673461914062
550;655.1987915039062
551;654.9310913085938
552;654.6640625
553;654.3981323242188
554;654.1331176757812
555;653.8687744140625
556;653.6053466796875
557;653.3428955078125
558;653.0813598632812
559;652.8202514648438
560;652.5599975585938
561;652.3004150390625
562;652.0418701171875
563;651.7840576171875
564;651.5269775390625
565;651.2710571289062
566;651.015625
567;650.7611694335938
568;650.5073852539062
569;650.2540893554688
570;650.0018310546875
571;649.7501220703125
572;649.4990844726562
573;649.24853515625
574;648.9986572265625
575;648.7494506835938
576;648.5008544921875
577;648.2528686523438
578;648.0054931640625
579;647.7587890625
580;647.5126953125
581;647.2672729492188
582;647.0221557617188
583;646.7779541015625
584;646.5343627929688
585;646.2911376953125
586;646.0484008789062
587;645.8063354492188
588;645.56494140625
589;645.3240356445312
590;645.0838623046875
591;644.8441772460938
592;644.6052856445312
593;644.3670043945312
594;644.1290893554688
595;643.8920288085938
596;643.6552734375
597;643.4192504882812
598;643.18359375
599;642.9483032226562
600;642.7137451171875
601;642.4794311523438
602;642.2457885742188
603;642.0130004882812
604;641.7806396484375
605;641.548828125
606;641.3173828125
607;641.08642578125
608;640.8560791015625
609;640.6260986328125
610;640.3966674804688
611;640.1677856445312
612;639.9393310546875
613;639.7112426757812
614;639.4833984375
615;639.2562866210938
616;639.0294799804688
617;638.8031616210938
618;638.5771484375
619;638.3518676757812
620;638.1268920898438
621;637.90234375
622;637.67822265625
623;637.4546508789062
624;637.2315673828125
625;637.0089721679688
626;636.7867431640625
627;636.56494140625
628;636.3435668945312
629;636.1226806640625
630;635.9020385742188
631;635.6818237304688
632;635.4619750976562
633;635.2425537109375
634;635.0234985351562
635;634.8050537109375
636;634.5867919921875
637;634.3689575195312
638;634.1513671875
639;633.9342651367188
640;633.7174682617188
641;633.5011596679688
642;633.2850341796875
643;633.0693969726562
644;632.8541870117188
645;632.6392211914062
646;632.4244995117188
647;632.2103271484375
648;631.9964599609375
649;631.7828369140625
650;631.5694580078125
651;631.3566284179688
652;631.1439819335938
653;630.931640625
654;630.7197875976562
655;630.5082397460938
656;630.2971801757812
657;630.0862426757812
658;629.8757934570312
659;629.6655883789062
660;629.45556640625
661;629.2459716796875
662;629.0365600585938
663;628.82763671875
664;628.6189575195312
665;628.41064453125
666;628.2026977539062
667;627.9949951171875
668;627.7876586914062
669;627.5806884765625
670;627.3739624023438
671;627.1675415039062
672;626.9613037109375
673;626.75537109375
674;626.5498046875
675;626.3445434570312
676;626.1394653320312
677;625.9346923828125
678;625.7301635742188
679;625.5261840820312
680;625.3223876953125
681;625.1187744140625
682;624.9155883789062
683;624.7125854492188
684;624.5100708007812
685;624.3077392578125
686;624.1056518554688
687;623.90380859375
688;623.7023315429688
689;623.5010986328125
690;623.3002319335938
691;623.0994873046875
692;622.8990478515625
693;622.6987915039062
694;622.4989013671875
695;622.29931640625
696;622.0999145507812
697;621.9006958007812
698;621.7017822265625
699;621.5032348632812
700;621.3049926757812
701;621.10693359375
702;620.9089965820312
703;620.71142578125
704;620.5140991210938
705;620.3170166015625
706;620.1201782226562
707;619.9237060546875
708;619.7272338867188
709;619.5311889648438
710;619.3352661132812
711;619.1395263671875
712;618.9440307617188
713;618.7489013671875
714;618.5540161132812
715;618.3593139648438
716;618.1648559570312
717;617.9705810546875
718;617.7764892578125
719;617.5828247070312
720;617.3892211914062
721;617.1959228515625
722;617.0028076171875
723;616.8099365234375
724;616.6171875
725;616.4246826171875
726;616.2323608398438
727;616.0403442382812
728;615.8486328125
729;615.6571044921875
730;615.4656982421875
731;615.2744750976562
732;615.08349609375
733;614.8928833007812
734;614.7022705078125
735;614.5118408203125
736;614.3218383789062
737;614.1318969726562
738;613.9420776367188
739;613.7525634765625
740;613.5632934570312
741;613.3742065429688
742;613.1852416992188
743;612.99658203125
744;612.8081665039062
745;612.6196899414062
746;612.4315795898438
747;612.2435913085938
748;612.0558471679688
749;611.8682861328125
750;611.6810302734375
751;611.4938354492188
752;611.3067626953125
753;611.1199951171875
754;610.9334106445312
755;610.7470703125
756;610.5607299804688
757;610.3748168945312
758;610.18896484375
759;610.0032958984375
760;609.8178100585938
761;609.6326293945312
762;609.4473876953125
763;609.2623901367188
764;609.0777587890625
765;608.8931274414062
766;608.7088012695312
767;608.5245361328125
768;608.3405151367188
769;608.1566772460938
770;607.9729614257812
771;607.7894287109375
772;607.6060180664062
773;607.4229736328125
774;607.2399291992188
775;607.05712890625
776;606.8745727539062
777;606.6920776367188
778;606.509765625
779;606.3277587890625
780;606.1459350585938
781;605.9640502929688
782;605.7825317382812
783;605.6010131835938
784;605.4197998046875
785;605.2387084960938
786;605.0579223632812
787;604.8770751953125
788;604.6964111328125
789;604.5161743164062
790;604.3359375
791;604.1558227539062
792;603.9760131835938
793;603.7962036132812
794;603.6165771484375
795;603.4371337890625
796;603.2578125
797;603.0786743164062
798;602.8997192382812
799;602.7208251953125
800;602.5422973632812
801;602.3637084960938
802;602.1854248046875
803;602.0072631835938
804;601.8292236328125
805;601.6513671875
806;601.4736328125
807;601.2960205078125
808;601.11865234375
809;600.9413452148438
810;600.7642211914062
811;600.5872192382812
812;600.4104614257812
813;600.2337646484375
814;600.0571899414062
815;599.8807983398438
816;599.7045288085938
817;599.5283813476562
818;599.3524169921875
819;599.1765747070312
820;599.0008544921875
821;598.8252563476562
822;598.64990234375
823;598.474609375
824;598.2994995117188
825;598.1245727539062
826;597.9497680664062
827;597.7750854492188
828;597.6005249023438
829;597.4260864257812
830;597.2518310546875
831;597.0776977539062
832;596.9037475585938
833;596.7297973632812
834;596.5560913085938
835;596.3823852539062
836;596.2090454101562
837;596.0357055664062
838;595.8626098632812
839;595.689453125
840;595.5166015625
841;595.34375
842;595.1710205078125
843;594.9984741210938
844;594.8261108398438
845;594.6538696289062
846;594.4818115234375
847;594.3096923828125
848;594.1377563476562
849;593.9660034179688
850;593.79443359375
851;593.6229858398438
852;593.4515991210938
853;593.2802734375
854;593.1091918945312
855;592.9381713867188
856;592.7673950195312
857;592.5966186523438
858;592.4259643554688
859;592.2554931640625
860;592.0850830078125
861;591.9149169921875
862;591.7446899414062
863;591.57470703125
864;591.4048461914062
865;591.2351684570312
866;591.0654296875
867;590.89599609375
868;590.7265625
869;590.5572509765625
870;590.3881225585938
871;590.2191162109375
872;590.0501708984375
873;589.88134765625
874;589.7125854492188
875;589.5440673828125
876;589.3756713867188
877;589.2073974609375
878;589.0390625
879;588.8709716796875
880;588.7030639648438
881;588.53515625
882;588.3673706054688
883;588.19970703125
884;588.0321655273438
885;587.8648071289062
886;587.6974487304688
887;587.5302734375
888;587.3632202148438
889;587.1962890625
890;587.0294189453125
891;586.8626708984375
892;586.6961669921875
893;586.5296020507812
894;586.3632202148438
895;586.1968994140625
896;586.0307006835938
897;585.8645629882812
898;585.6986083984375
899;585.5327758789062
900;585.3671264648438
901;585.2014770507812
902;585.0360107421875
903;584.8705444335938
904;584.7052612304688
905;584.5400390625
906;584.3749389648438
907;584.2099609375
908;584.0450439453125
909;583.8802490234375
910;583.7156982421875
911;583.5511474609375
912;583.3867797851562
913;583.222412109375
914;583.0581665039062
915;582.89404296875
916;582.72998046875
917;582.5660400390625
918;582.4022216796875
919;582.2384033203125
920;582.0748291015625
921;581.9112548828125
922;581.7477416992188
923;581.58447265625
924;581.4212646484375
925;581.2581787109375
926;581.0951538085938
927;580.9322509765625
928;580.7693481445312
929;580.606689453125
930;580.4441528320312
931;580.281494140625
932;580.1190795898438
933;579.9567260742188
934;579.79443359375
935;579.63232421875
936;579.4702758789062
937;579.3082885742188
938;579.1463623046875
939;578.9846801757812
940;578.8230590820312
941;578.6614990234375
942;578.5000610351562
943;578.338623046875
944;578.1773681640625
945;578.0161743164062
946;577.8551025390625
947;577.6939697265625
948;577.5331420898438
949;577.3723754882812
950;577.2116088867188
951;577.0509643554688
952;576.8904418945312
953;576.72998046875
954;576.5696411132812
955;576.4093017578125
956;576.2491455078125
957;576.0890502929688
958;575.9290771484375
959;575.7691650390625
960;575.609375
961;575.4496459960938
962;575.2900390625
963;575.1304931640625
964;574.9710083007812
965;574.8116455078125
966;574.65234375
967;574.4931640625
968;574.3340454101562
969;574.1749877929688
970;574.0160522460938
971;573.8572387695312
972;573.6985473632812
973;573.5399169921875
974;573.3812255859375
975;573.2227172851562
976;573.0643310546875
977;572.9059448242188
978;572.747802734375
979;572.5896606445312
980;572.4315795898438
981;572.2736206054688
982;572.1156616210938
983;571.9578247070312
984;571.8001708984375
985;571.6424560546875
986;571.4849243164062
987;571.3275756835938
988;571.1701049804688
989;571.0128784179688
990;570.8556518554688
991;570.6985473632812
992;570.54150390625
993;570.3844604492188
994;570.2276611328125
995;570.0708618164062
996;569.9141845703125
997;569.7575073242188
998;569.6009521484375
999;569.444580078125
1000;569.2881469726562
1001;569.1318969726562
1002;568.9755859375
1003;568.8195190429688
1004;568.6634521484375
1005;568.5075073242188
1006;568.3515625
1007;568.1957397460938
1008;568.0400390625
1009;567.8844604492188
1010;567.7288818359375
1011;567.5733032226562
1012;567.4179077148438
1013;567.2626342773438
1014;567.107421875
1015;566.9522705078125
1016;566.7971801757812
1017;566.6421508789062
1018;566.4871826171875
1019;566.3323364257812
1020;566.1775512695312
1021;566.0228881835938
1022;565.8682861328125
1023;565.7137451171875
1024;565.5592651367188
1025;565.4049072265625
1026;565.2506103515625
1027;565.096435546875
1028;564.9422607421875
1029;564.7881469726562
1030;564.6341552734375
1031;564.4802856445312
1032;564.3263549804688
1033;564.172607421875
1034;564.0189208984375
1035;563.8652954101562
1036;563.711669921875
1037;563.5582275390625
1038;563.40478515625
1039;563.2514038085938
1040;563.0982055664062
1041;562.9449462890625
1042;562.7918090820312
1043;562.6387939453125
1044;562.48583984375
1045;562.3328247070312
1046;562.1800537109375
1047;562.0272827148438
1048;561.8745727539062
1049;561.7219848632812
1050;561.5694580078125
1051;561.4169921875
1052;561.2645874023438
1053;561.1123046875
1054;560.9601440429688
1055;560.8079223632812
1056;560.6558227539062
1057;560.5038452148438
1058;560.3518676757812
1059;560.1998901367188
1060;560.0481567382812
1061;559.8963623046875
1062;559.7446899414062
1063;559.5931396484375
1064;559.4415893554688
1065;559.2901000976562
1066;559.138671875
1067;558.9873046875
1068;558.8360595703125
1069;558.6848754882812
1070;558.5337524414062
1071;558.3826904296875
1072;558.2316284179688
1073;558.0807495117188
1074;557.9298095703125
1075;557.7791137695312
1076;557.62841796875
1077;557.4777221679688
1078;557.3272094726562
1079;557.1767578125
1080;557.0263061523438
1081;556.8759155273438
1082;556.7256469726562
1083;556.5753784179688
1084;556.4252319335938
1085;556.2750854492188
1086;556.1251220703125
1087;555.9751586914062
1088;555.8252563476562
1089;555.6753540039062
1090;555.5255737304688
1091;555.3759155273438
1092;555.2261962890625
1093;555.0767211914062
1094;554.9271850585938
1095;554.7777099609375
1096;554.6283569335938
1097;554.4790649414062
1098;554.329833984375
1099;554.1806640625
1100;554.0315551757812
1101;553.8825073242188
1102;553.7335815429688
1103;553.5846557617188
1104;553.4358520507812
1105;553.2870483398438
1106;553.1383056640625
1107;552.9896850585938
1108;552.8411254882812
1109;552.6925659179688
1110;552.5441284179688
1111;552.3956909179688
1112;552.2474365234375
1113;552.0991821289062
1114;551.9509887695312
1115;551.8027954101562
1116;551.65478515625
1117;551.5068359375
1118;551.35888671875
1119;551.2110595703125
1120;551.0632934570312
1121;550.91552734375
1122;550.7678833007812
1123;550.6203002929688
1124;550.4727783203125
1125;550.3253173828125
1126;550.177978515625
1127;550.0306396484375
1128;549.8834228515625
1129;549.7361450195312
1130;549.5890502929688
1131;549.4420166015625
1132;549.2949829101562
1133;549.1480102539062
1134;549.0010986328125
1135;548.8543090820312
1136;548.7075805664062
1137;548.5609130859375
1138;548.4141845703125
1139;548.2676391601562
1140;548.1211547851562
1141;547.9746704101562
1142;547.8283081054688
1143;547.6820678710938
1144;547.5357055664062
1145;547.3895263671875
1146;547.243408203125
1147;547.0972900390625
1148;546.9512939453125
1149;546.8052978515625
1150;546.6593627929688
1151;546.5136108398438
1152;546.3677978515625
1153;546.2221069335938
1154;546.076416015625
1155;545.9309692382812
1156;545.7853393554688
1157;545.6399536132812
1158;545.4945068359375
1159;545.3491821289062
1160;545.2039794921875
1161;545.0587158203125
1162;544.9135131835938
1163;544.7684936523438
1164;544.6234130859375
1165;544.4784545898438
1166;544.33349609375
1167;544.1885986328125
1168;544.0438232421875
1169;543.8990478515625
1170;543.7543334960938
1171;543.6096801757812
1172;543.4652099609375
1173;543.3206176757812
1174;543.1762084960938
1175;543.03173828125
1176;542.887451171875
1177;542.7432250976562
1178;542.5989990234375
1179;542.4548950195312
1180;542.3108520507812
1181;542.1668701171875
1182;542.0228881835938
1183;541.8790283203125
1184;541.7352294921875
1185;541.5914916992188
1186;541.4478149414062
1187;541.30419921875
1188;541.16064453125
1189;541.0171508789062
1190;540.8737182617188
1191;540.7303466796875
1192;540.5870361328125
1193;540.4437866210938
1194;540.300537109375
1195;540.1574096679688
1196;540.0142822265625
1197;539.8712768554688
1198;539.7282104492188
1199;539.5853271484375
1200;539.4425048828125
1201;539.2997436523438
1202;539.1571044921875
1203;539.0144653320312
1204;538.8718872070312
1205;538.7293090820312
1206;538.5867919921875
1207;538.4443359375
1208;538.3019409179688
1209;538.15966796875
1210;538.0174560546875
1211;537.875244140625
1212;537.7330932617188
1213;537.5910034179688
1214;537.4490356445312
1215;537.3070678710938
1216;537.1651000976562
1217;537.0233154296875
1218;536.8814697265625
1219;536.73974609375
1220;536.5980834960938
1221;536.4564208984375
1222;536.3148803710938
1223;536.1732788085938
1224;536.0318603515625
1225;535.8904418945312
1226;535.7490234375
1227;535.607666015625
1228;535.4664306640625
1229;535.3251953125
1230;535.1840209960938
1231;535.04296875
1232;534.9019165039062
1233;534.760986328125
1234;534.6199951171875
1235;534.4791259765625
1236;534.3383178710938
1237;534.1974487304688
1238;534.0567626953125
1239;533.9160766601562
1240;533.7754516601562
1241;533.6348266601562
1242;533.4943237304688
1243;533.3538818359375
1244;533.2134399414062
1245;533.0730590820312
1246;532.9327392578125
1247;532.7924194335938
1248;532.6522216796875
1249;532.5120849609375
1250;532.3719482421875
1251;532.2318725585938
1252;532.0918579101562
1253;531.951904296875
1254;531.8119506835938
1255;531.6720581054688
1256;531.5322875976562
1257;531.392578125
1258;531.2528686523438
1259;531.1132202148438
1260;530.9736328125
1261;530.8340454101562
1262;530.6945190429688
1263;530.5551147460938
1264;530.4157104492188
1265;530.2764282226562
1266;530.1371459960938
1267;529.998046875
1268;529.8589477539062
1269;529.7199096679688
1270;529.5809936523438
1271;529.4420776367188
1272;529.3031616210938
1273;529.1643676757812
1274;529.0255737304688
1275;528.8868408203125
1276;528.7481689453125
1277;528.6095581054688
1278;528.4710693359375
1279;528.33251953125
1280;528.1940307617188
1281;528.0556030273438
1282;527.9171752929688
1283;527.7789916992188
1284;527.6406860351562
1285;527.5025024414062
1286;527.3643188476562
1287;527.2261962890625
1288;527.0880737304688
1289;526.9501342773438
1290;526.8121337890625
1291;526.6742553710938
1292;526.5363159179688
1293;526.3985595703125
1294;526.2606811523438
1295;526.1229858398438
1296;525.9852294921875
1297;525.8475952148438
1298;525.7100219726562
1299;525.5724487304688
1300;525.43505859375
1301;525.2976684570312
1302;525.1602783203125
1303;525.0230102539062
1304;524.8858032226562
1305;524.7485961914062
1306;524.6113891601562
1307;524.4742431640625
1308;524.3372192382812
1309;524.2001953125
1310;524.0631713867188
1311;523.92626953125
1312;523.7893676757812
1313;523.6524658203125
1314;523.5156860351562
1315;523.3790283203125
1316;523.2423095703125
1317;523.1055908203125
1318;522.9690551757812
1319;522.8325805664062
1320;522.6959838867188
1321;522.5595703125
1322;522.4232177734375
1323;522.2869262695312
1324;522.1505126953125
1325;522.0142822265625
1326;521.8780517578125
1327;521.7418823242188
1328;521.6057739257812
1329;521.4696655273438
1330;521.3336791992188
1331;521.1976928710938
1332;521.0617065429688
1333;520.9258422851562
1334;520.7899169921875
1335;520.6541137695312
1336;520.5182495117188
1337;520.3826293945312
1338;520.2469482421875
1339;520.1112060546875
1340;519.9756469726562
1341;519.8400268554688
1342;519.7045288085938
1343;519.5691528320312
1344;519.4336547851562
1345;519.2982788085938
1346;519.1629638671875
1347;519.0276489257812
1348;518.8923950195312
1349;518.7572021484375
1350;518.6219482421875
1351;518.4868774414062
1352;518.3516845703125
1353;518.2166748046875
1354;518.0816650390625
1355;517.9467163085938
1356;517.811767578125
1357;517.6768798828125
1358;517.5419921875
1359;517.4072265625
1360;517.2724609375
1361;517.1377563476562
1362;517.0029907226562
1363;516.8683471679688
1364;516.7337036132812
1365;516.5991821289062
1366;516.4647216796875
1367;516.3302001953125
1368;516.19580078125
1369;516.0614013671875
1370;515.9270629882812
1371;515.7927856445312
1372;515.6585083007812
1373;515.5242919921875
1374;515.3900756835938
1375;515.2559814453125
1376;515.1218872070312
1377;514.9877319335938
1378;514.8538208007812
1379;514.7197875976562
1380;514.5858154296875
1381;514.4518432617188
1382;514.3180541992188
1383;514.1842041015625
1384;514.0504150390625
1385;513.9166870117188
1386;513.7828979492188
1387;513.6493530273438
1388;513.5156860351562
1389;513.3821411132812
1390;513.2485961914062
1391;513.1151123046875
1392;512.9815673828125
1393;512.8482055664062
1394;512.7147216796875
1395;512.5813598632812
1396;512.4481201171875
1397;512.3148193359375
1398;512.1815795898438
1399;512.0482788085938
1400;511.9151916503906
1401;511.7820739746094
1402;511.64898681640625
1403;511.51593017578125
1404;511.3829650878906
1405;511.25
1406;511.11712646484375
1407;510.9842224121094
1408;510.8513488769531
1409;510.7185363769531
1410;510.58575439453125
1411;510.45306396484375
1412;510.32037353515625
1413;510.18768310546875
1414;510.0550231933594
1415;509.9224548339844
1416;509.7898254394531
1417;509.65740966796875
1418;509.52490234375
1419;509.3924865722656
1420;509.26007080078125
1421;509.12774658203125
1422;508.9954528808594
1423;508.8631286621094
1424;508.73095703125
1425;508.5987854003906
1426;508.4665832519531
1427;508.33447265625
1428;508.2023620605469
1429;508.0703125
1430;507.9382629394531
1431;507.8063049316406
1432;507.67437744140625
1433;507.54241943359375
1434;507.41058349609375
1435;507.27874755859375
1436;507.14697265625
1437;507.01519775390625
1438;506.8835144042969
1439;506.75177001953125
1440;506.6201171875
1441;506.4885559082031
1442;506.35699462890625
1443;506.2254333496094
1444;506.09393310546875
1445;505.96246337890625
1446;505.8310546875
1447;505.69964599609375
1448;505.5682067871094
1449;505.4369201660156
1450;505.30560302734375
1451;505.1743469238281
1452;505.0431823730469
1453;504.91204833984375
1454;504.7809143066406
1455;504.64984130859375
1456;504.5187683105469
1457;504.3876953125
1458;504.2567443847656
1459;504.1257629394531
1460;503.9948425292969
1461;503.86395263671875
1462;503.7331237792969
1463;503.602294921875
1464;503.47149658203125
1465;503.3407897949219
1466;503.2101135253906
1467;503.07940673828125
1468;502.94873046875
1469;502.8181457519531
1470;502.68768310546875
1471;502.55712890625
1472;502.42657470703125
1473;502.2961730957031
1474;502.1657409667969
1475;502.0353698730469
1476;501.9049987792969
1477;501.77471923828125
1478;501.6443786621094
1479;501.51422119140625
1480;501.38397216796875
1481;501.25384521484375
1482;501.12371826171875
1483;500.9935607910156
1484;500.8634948730469
1485;500.73345947265625
1486;500.60345458984375
1487;500.4734802246094
1488;500.3435363769531
1489;500.2136535644531
1490;500.0837707519531
1491;499.95391845703125
1492;499.82415771484375
1493;499.69439697265625
1494;499.5646667480469
1495;499.4350280761719
1496;499.3053894042969
1497;499.17578125
1498;499.0461730957031
1499;498.9166564941406
1500;498.7871398925781
1501;498.6576843261719
1502;498.52825927734375
1503;498.39886474609375
1504;498.26947021484375
1505;498.1401672363281
1506;498.01080322265625
1507;497.88153076171875
1508;497.7523498535156
1509;497.62310791015625
1510;497.4939880371094
1511;497.36480712890625
1512;497.2356872558594
1513;497.1066589355469
1514;496.9776306152344
1515;496.8486633300781
1516;496.7197265625
1517;496.5907897949219
1518;496.46185302734375
1519;496.3330078125
1520;496.2041931152344
1521;496.075439453125
1522;495.9466247558594
1523;495.81793212890625
1524;495.6892395019531
1525;495.56060791015625
1526;495.43194580078125
1527;495.30340576171875
1528;495.17486572265625
1529;495.04638671875
1530;494.9178771972656
1531;494.7893981933594
1532;494.6609802246094
1533;494.53265380859375
1534;494.404296875
1535;494.2759704589844
1536;494.1477355957031
1537;494.0194396972656
1538;493.8912658691406
1539;493.7630310058594
1540;493.6349182128906
1541;493.5068359375
1542;493.3786926269531
1543;493.2506408691406
1544;493.12261962890625
1545;492.9946594238281
1546;492.86669921875
1547;492.73876953125
1548;492.61090087890625
1549;492.4831237792969
1550;492.35528564453125
1551;492.2275085449219
1552;492.0997619628906
1553;491.9720153808594
1554;491.8443908691406
1555;491.716796875
1556;491.5891418457031
1557;491.4616394042969
1558;491.33404541015625
1559;491.20654296875
1560;491.07904052734375
1561;490.95159912109375
1562;490.82415771484375
1563;490.69677734375
1564;490.5694274902344
1565;490.442138671875
1566;490.31488037109375
1567;490.1876525878906
1568;490.0603942871094
1569;489.9332580566406
1570;489.80609130859375
1571;489.6789245605469
1572;489.5518493652344
1573;489.4248352050781
1574;489.29779052734375
1575;489.17083740234375
1576;489.04388427734375
1577;488.9169616699219
1578;488.7900390625
1579;488.6632385253906
1580;488.536376953125
1581;488.40960693359375
1582;488.2828674316406
1583;488.15606689453125
1584;488.0293884277344
1585;487.9026794433594
1586;487.7760314941406
1587;487.64947509765625
1588;487.5229187011719
1589;487.3963317871094
1590;487.2698669433594
1591;487.1434020996094
1592;487.0169372558594
1593;486.89056396484375
1594;486.76416015625
1595;486.6377868652344
1596;486.5115051269531
1597;486.38525390625
1598;486.2590026855469
1599;486.1327819824219
1600;486.0065612792969
1601;485.88043212890625
1602;485.7543029785156
1603;485.6282043457031
1604;485.5021667480469
1605;485.37615966796875
1606;485.2501525878906
1607;485.1242370605469
1608;484.9982604980469
1609;484.8723449707031
1610;484.74652099609375
1611;484.62066650390625
1612;484.4948425292969
1613;484.3691101074219
1614;484.2433776855469
1615;484.11767578125
1616;483.9919738769531
1617;483.8663635253906
1618;483.74066162109375
1619;483.6151428222656
1620;483.4895324707031
1621;483.3640441894531
1622;483.2385559082031
1623;483.1130676269531
1624;482.9876403808594
1625;482.86224365234375
1626;482.7369079589844
1627;482.6115417480469
1628;482.4862365722656
1629;482.3609924316406
1630;482.2356872558594
1631;482.1105041503906
1632;481.9853515625
1633;481.8601989746094
1634;481.7350769042969
1635;481.6100158691406
1636;481.48492431640625
1637;481.3598937988281
1638;481.23492431640625
1639;481.10992431640625
1640;480.9850158691406
1641;480.860107421875
1642;480.7351989746094
1643;480.6103515625
1644;480.4855651855469
1645;480.36077880859375
1646;480.2360534667969
1647;480.111328125
1648;479.9866027832031
1649;479.8620300292969
1650;479.73736572265625
1651;479.6128234863281
1652;479.48822021484375
1653;479.36370849609375
1654;479.23919677734375
1655;479.11468505859375
1656;478.990234375
1657;478.8658142089844
1658;478.7414855957031
1659;478.6170959472656
1660;478.4927673339844
1661;478.36846923828125
1662;478.24420166015625
1663;478.12005615234375
1664;477.9958190917969
1665;477.8716125488281
1666;477.7475280761719
1667;477.6233825683594
1668;477.4993591308594
1669;477.3752746582031
1670;477.25128173828125
1671;477.12725830078125
1672;477.00335693359375
1673;476.8794250488281
1674;476.75555419921875
1675;476.6316833496094
1676;476.5078125
1677;476.3840637207031
1678;476.26025390625
1679;476.136474609375
1680;476.01275634765625
1681;475.88909912109375
1682;475.76544189453125
1683;475.6418151855469
1684;475.5182189941406
1685;475.3946838378906
1686;475.27117919921875
1687;475.14764404296875
1688;475.0241394042969
1689;474.9006652832031
1690;474.77728271484375
1691;474.65386962890625
1692;474.530517578125
1693;474.40716552734375
1694;474.2839050292969
1695;474.16058349609375
1696;474.0373840332031
1697;473.91412353515625
1698;473.79095458984375
1699;473.66778564453125
1700;473.5447082519531
1701;473.4216003417969
1702;473.2985534667969
1703;473.17547607421875
1704;473.0525207519531
1705;472.9294738769531
1706;472.80657958984375
1707;472.68359375
1708;472.5606994628906
1709;472.4378356933594
1710;472.3150329589844
1711;472.1922302246094
1712;472.0694885253906
1713;471.9467468261719
1714;471.82403564453125
1715;471.7013244628906
1716;471.57867431640625
1717;471.4560546875
1718;471.3334655761719
1719;471.2109375
1720;471.08837890625
1721;470.96588134765625
1722;470.8434143066406
1723;470.7209167480469
1724;470.5984802246094
1725;470.47607421875
1726;470.3537292480469
1727;470.2314147949219
1728;470.109130859375
1729;469.98681640625
1730;469.8645935058594
1731;469.7423400878906
1732;469.6201477050781
1733;469.49798583984375
1734;469.3758239746094
1735;469.25372314453125
1736;469.1316833496094
1737;469.00970458984375
1738;468.88763427734375
1739;468.765625
1740;468.6437072753906
1741;468.5217590332031
1742;468.39984130859375
1743;468.27801513671875
1744;468.1560974121094
1745;468.0343322753906
1746;467.91253662109375
1747;467.7907409667969
1748;467.6690979003906
1749;467.5473327636719
1750;467.4256896972656
1751;467.30401611328125
1752;467.182373046875
1753;467.0608215332031
1754;466.9392395019531
1755;466.8177185058594
1756;466.69622802734375
1757;466.5747375488281
1758;466.4533386230469
1759;466.3318786621094
1760;466.21051025390625
1761;466.089111328125
1762;465.96783447265625
1763;465.84649658203125
1764;465.7252502441406
1765;465.60400390625
1766;465.4827575683594
1767;465.3616027832031
1768;465.2404479980469
1769;465.11932373046875
1770;464.9981994628906
1771;464.87713623046875
1772;464.7560729980469
1773;464.63507080078125
1774;464.5140075683594
1775;464.39306640625
1776;464.2721862792969
1777;464.1512756347656
1778;464.03033447265625
1779;463.9095153808594
1780;463.7887268066406
1781;463.66790771484375
1782;463.5471496582031
1783;463.42645263671875
1784;463.3056945800781
1785;463.18505859375
1786;463.0643615722656
1787;462.9437561035156
1788;462.8231506347656
1789;462.70257568359375
1790;462.58203125
1791;462.46148681640625
1792;462.3410339355469
1793;462.2205505371094
1794;462.10009765625
1795;461.97967529296875
1796;461.85931396484375
1797;461.73895263671875
1798;461.61865234375
1799;461.4983825683594
1800;461.3780822753906
1801;461.25787353515625
1802;461.13763427734375
1803;461.0174255371094
1804;460.89727783203125
1805;460.7771911621094
1806;460.6570739746094
1807;460.5369567871094
1808;460.41693115234375
1809;460.29693603515625
1810;460.1769714355469
1811;460.05694580078125
1812;459.93701171875
1813;459.8171081542969
1814;459.697265625
1815;459.5773620605469
1816;459.4575500488281
1817;459.3377990722656
1818;459.218017578125
1819;459.0982971191406
1820;458.978515625
1821;458.85888671875
1822;458.73919677734375
1823;458.61956787109375
1824;458.49993896484375
1825;458.38037109375
1826;458.26080322265625
1827;458.1413269042969
1828;458.0217590332031
1829;457.9023132324219
1830;457.78289794921875
1831;457.6634216308594
1832;457.5440979003906
1833;457.42474365234375
1834;457.30535888671875
1835;457.18609619140625
1836;457.06683349609375
1837;456.9475402832031
1838;456.8283386230469
1839;456.7091369628906
1840;456.5899963378906
1841;456.4708557128906
1842;456.3517150878906
1843;456.2326354980469
1844;456.1135559082031
1845;455.99444580078125
1846;455.87554931640625
1847;455.75653076171875
1848;455.6375427246094
1849;455.51861572265625
1850;455.3996887207031
1851;455.2808532714844
1852;455.1620178222656
1853;455.0431213378906
1854;454.92437744140625
1855;454.80560302734375
1856;454.6867980957031
1857;454.568115234375
1858;454.44940185546875
1859;454.3307800292969
1860;454.2121276855469
1861;454.0934753417969
1862;453.9748840332031
1863;453.8563537597656
1864;453.7378234863281
1865;453.61932373046875
1866;453.5008239746094
1867;453.38238525390625
1868;453.26397705078125
1869;453.1455383300781
1870;453.0272521972656
1871;452.90887451171875
1872;452.79052734375
1873;452.67230224609375
1874;452.5540466308594
1875;452.435791015625
1876;452.3175964355469
1877;452.1994323730469
1878;452.0812683105469
1879;451.963134765625
1880;451.84503173828125
1881;451.72698974609375
1882;451.6089172363281
1883;451.4908752441406
1884;451.3728942871094
1885;451.25494384765625
1886;451.1369934082031
1887;451.0190734863281
1888;450.9011535644531
1889;450.7833557128906
1890;450.6654968261719
1891;450.5476379394531
1892;450.429931640625
1893;450.3121643066406
1894;450.19439697265625
1895;450.07672119140625
1896;449.958984375
1897;449.84136962890625
1898;449.72369384765625
1899;449.60614013671875
1900;449.4885559082031
1901;449.37103271484375
1902;449.25347900390625
1903;449.1360168457031
1904;449.0185546875
1905;448.9010925292969
1906;448.78369140625
1907;448.6662292480469
1908;448.54888916015625
1909;448.43157958984375
1910;448.314208984375
1911;448.1969299316406
1912;448.07965087890625
1913;447.96240234375
1914;447.84521484375
1915;447.72802734375
1916;447.61083984375
1917;447.49371337890625
1918;447.37664794921875
1919;447.2595520019531
1920;447.14251708984375
1921;447.0254821777344
1922;446.90850830078125
1923;446.79150390625
1924;446.674560546875
1925;446.5576171875
1926;446.44073486328125
1927;446.3238830566406
1928;446.20703125
1929;446.0901794433594
1930;445.973388671875
1931;445.8565979003906
1932;445.7398376464844
1933;445.62310791015625
1934;445.50640869140625
1935;445.3897399902344
1936;445.27313232421875
1937;445.1565246582031
1938;445.0399475097656
1939;444.9233093261719
1940;444.8067932128906
1941;444.6902770996094
1942;444.57379150390625
1943;444.4573669433594
1944;444.3409118652344
1945;444.22454833984375
1946;444.1081237792969
1947;443.99176025390625
1948;443.87542724609375
1949;443.7591247558594
1950;443.6427917480469
1951;443.52655029296875
1952;443.41033935546875
1953;443.2940979003906
1954;443.17791748046875
1955;443.061767578125
1956;442.9456481933594
1957;442.82952880859375
1958;442.7134094238281
1959;442.5973815917969
1960;442.48138427734375
1961;442.3653869628906
1962;442.2493591308594
1963;442.1333923339844
1964;442.0174255371094
1965;441.9015808105469
1966;441.7856750488281
1967;441.6697692871094
1968;441.55401611328125
1969;441.4382019042969
1970;441.3224182128906
1971;441.2066955566406
1972;441.0909729003906
1973;440.9752502441406
1974;440.859619140625
1975;440.7439270019531
1976;440.6283264160156
1977;440.5127258300781
1978;440.3971252441406
1979;440.2815856933594
1980;440.16607666015625
1981;440.0505676269531
1982;439.93511962890625
1983;439.8196716308594
1984;439.7042541503906
1985;439.5888366699219
1986;439.47344970703125
1987;439.3581237792969
1988;439.2428283691406
1989;439.12750244140625
1990;439.01226806640625
1991;438.8970031738281
1992;438.7817687988281
1993;438.6665344238281
1994;438.5514221191406
1995;438.4362487792969
1996;438.3211364746094
1997;438.2060546875
1998;438.0909729003906
1999;437.9759216308594
2000;437.86090087890625
2001;437.7459411621094
2002;437.6309509277344
2003;437.5159606933594
2004;437.4010925292969
2005;437.2861328125
2006;437.17132568359375
2007;437.05645751953125
2008;436.9416198730469
2009;436.82684326171875
2010;436.7120056152344
2011;436.5973205566406
2012;436.48260498046875
2013;436.3678894042969
2014;436.25323486328125
2015;436.13861083984375
2016;436.02392578125
2017;435.9093322753906
2018;435.7947692871094
2019;435.68023681640625
2020;435.5657043457031
2021;435.45123291015625
2022;435.33673095703125
2023;435.2223205566406
2024;435.1078796386719
2025;434.99346923828125
2026;434.8791198730469
2027;434.76470947265625
2028;434.6504211425781
2029;434.5361328125
2030;434.421875
2031;434.3075866699219
2032;434.193359375
2033;434.07916259765625
2034;433.9649963378906
2035;433.8508605957031
2036;433.7367248535156
2037;433.62261962890625
2038;433.508544921875
2039;433.39447021484375
2040;433.2804260253906
2041;433.16644287109375
2042;433.0524597167969
2043;432.9384765625
2044;432.8245544433594
2045;432.7106628417969
2046;432.59674072265625
2047;432.4828796386719
2048;432.36907958984375
2049;432.2552185058594
2050;432.14141845703125
2051;432.02764892578125
2052;431.9139099121094
2053;431.80023193359375
2054;431.6865234375
2055;431.57281494140625
2056;431.4591979980469
2057;431.3455505371094
2058;431.23199462890625
2059;431.118408203125
2060;431.0048522949219
2061;430.8913269042969
2062;430.77783203125
2063;430.6643371582031
2064;430.5508728027344
2065;430.4375
2066;430.3240661621094
2067;430.210693359375
2068;430.0973815917969
2069;429.9840393066406
2070;429.8706970214844
2071;429.7574157714844
2072;429.6441955566406
2073;429.5309753417969
2074;429.4177551269531
2075;429.3045349121094
2076;429.1914367675781
2077;429.0782775878906
2078;428.9651794433594
2079;428.8520812988281
2080;428.7390441894531
2081;428.6259765625
2082;428.5129699707031
2083;428.3999938964844
2084;428.28704833984375
2085;428.174072265625
2086;428.0611877441406
2087;427.9482727050781
2088;427.8354187011719
2089;427.72259521484375
2090;427.6097106933594
2091;427.4969177246094
2092;427.3841857910156
2093;427.27142333984375
2094;427.1586608886719
2095;427.0459289550781
2096;426.93328857421875
2097;426.82061767578125
2098;426.7080078125
2099;426.59539794921875
2100;426.4828186035156
2101;426.3702697753906
2102;426.25775146484375
2103;426.14520263671875
2104;426.03271484375
2105;425.92022705078125
2106;425.8078308105469
2107;425.69537353515625
2108;425.5830078125
2109;425.47064208984375
2110;425.3582458496094
2111;425.2459411621094
2112;425.1336364746094
2113;425.0213317871094
2114;424.90911865234375
2115;424.796875
2116;424.6847229003906
2117;424.5724792480469
2118;424.4602966308594
2119;424.34814453125
2120;424.2360534667969
2121;424.1239929199219
2122;424.0119323730469
2123;423.89990234375
2124;423.78790283203125
2125;423.6758728027344
2126;423.56390380859375
2127;423.45196533203125
2128;423.3400573730469
2129;423.2281188964844
2130;423.11627197265625
2131;423.00439453125
2132;422.8925476074219
2133;422.78076171875
2134;422.6689758300781
2135;422.5572204589844
2136;422.44549560546875
2137;422.3337707519531
2138;422.22210693359375
2139;422.11041259765625
2140;421.9987487792969
2141;421.88714599609375
2142;421.7755432128906
2143;421.66400146484375
2144;421.5524597167969
2145;421.44091796875
2146;421.32940673828125
2147;421.2179870605469
2148;421.10650634765625
2149;420.9951171875
2150;420.8836975097656
2151;420.7723083496094
2152;420.66094970703125
2153;420.54962158203125
2154;420.43829345703125
2155;420.3269958496094
2156;420.21575927734375
2157;420.1044921875
2158;419.9933166503906
2159;419.88214111328125
2160;419.77093505859375
2161;419.6598205566406
2162;419.5486755371094
2163;419.43756103515625
2164;419.3265075683594
2165;419.2154235839844
2166;419.10443115234375
2167;418.993408203125
2168;418.88238525390625
2169;418.77142333984375
2170;418.66046142578125
2171;418.549560546875
2172;418.4386901855469
2173;418.32781982421875
2174;418.21697998046875
2175;418.10614013671875
2176;417.9953308105469
2177;417.8845520019531
2178;417.7738342285156
2179;417.6630859375
2180;417.55230712890625
2181;417.4416809082031
2182;417.3310241699219
2183;417.2203674316406
2184;417.1097717285156
2185;416.9991760253906
2186;416.88861083984375
2187;416.7780456542969
2188;416.6675109863281
2189;416.5570373535156
2190;416.4465637207031
2191;416.3360900878906
2192;416.2256164550781
2193;416.115234375
2194;416.0048828125
2195;415.8945007324219
2196;415.7841491699219
2197;415.673828125
2198;415.56353759765625
2199;415.4532775878906
2200;415.343017578125
2201;415.2327575683594
2202;415.1225891113281
2203;415.01239013671875
2204;414.90228271484375
2205;414.7920837402344
2206;414.6819763183594
2207;414.5719299316406
2208;414.46185302734375
2209;414.351806640625
2210;414.2417297363281
2211;414.1318054199219
2212;414.0218200683594
2213;413.911865234375
2214;413.80194091796875
2215;413.6920471191406
2216;413.5821228027344
2217;413.4723205566406
2218;413.3624572753906
2219;413.25262451171875
2220;413.142822265625
2221;413.0330505371094
2222;412.9233703613281
2223;412.8136291503906
2224;412.7039489746094
2225;412.59423828125
2226;412.4845886230469
2227;412.37493896484375
2228;412.2653503417969
2229;412.15576171875
2230;412.04620361328125
2231;411.9366760253906
2232;411.8271484375
2233;411.7176818847656
2234;411.6081848144531
2235;411.4987487792969
2236;411.3893127441406
2237;411.2798767089844
2238;411.1705017089844
2239;411.0611267089844
2240;410.9518127441406
2241;410.8424987792969
2242;410.7331848144531
2243;410.62396240234375
2244;410.5146789550781
2245;410.40545654296875
2246;410.2962951660156
2247;410.1871032714844
2248;410.0779113769531
2249;409.96881103515625
2250;409.8596496582031
2251;409.7505798339844
2252;409.64154052734375
2253;409.5324401855469
2254;409.4234313964844
2255;409.314453125
2256;409.20550537109375
2257;409.0965270996094
2258;408.98760986328125
2259;408.8786926269531
2260;408.7698059082031
2261;408.66094970703125
2262;408.55206298828125
2263;408.44329833984375
2264;408.33447265625
2265;408.2257385253906
2266;408.116943359375
2267;408.0082092285156
2268;407.89947509765625
2269;407.7908020019531
2270;407.68212890625
2271;407.5735168457031
2272;407.46490478515625
2273;407.3562927246094
2274;407.2477722167969
2275;407.1391906738281
2276;407.0306701660156
2277;406.922119140625
2278;406.8136291503906
2279;406.7051696777344
2280;406.59674072265625
2281;406.4883117675781
2282;406.37994384765625
2283;406.27154541015625
2284;406.1632385253906
2285;406.0549011230469
2286;405.9465637207031
2287;405.83831787109375
2288;405.7300109863281
2289;405.6217956542969
2290;405.5135803222656
2291;405.4053649902344
2292;405.2972106933594
2293;405.1890563964844
2294;405.0809631347656
2295;404.9728698730469
2296;404.86474609375
2297;404.7566833496094
2298;404.6486511230469
2299;404.54058837890625
2300;404.4326171875
2301;404.32464599609375
2302;404.2167053222656
2303;404.1087951660156
2304;404.0008850097656
2305;403.89300537109375
2306;403.7851257324219
2307;403.6772766113281
2308;403.5694885253906
2309;403.461669921875
2310;403.3538513183594
2311;403.2461242675781
2312;403.1383972167969
2313;403.03070068359375
2314;402.92303466796875
2315;402.8153381347656
2316;402.70770263671875
2317;402.60009765625
2318;402.4924621582031
2319;402.3849182128906
2320;402.27734375
2321;402.1698303222656
2322;402.0622863769531
2323;401.9548034667969
2324;401.8473205566406
2325;401.7398986816406
2326;401.6324768066406
2327;401.5250549316406
2328;401.4176940917969
2329;401.3103332519531
2330;401.2029724121094
2331;401.09564208984375
2332;400.98834228515625
2333;400.881103515625
2334;400.77386474609375
2335;400.6666564941406
2336;400.5594177246094
2337;400.45220947265625
2338;400.3450622558594
2339;400.2379455566406
2340;400.13079833984375
2341;400.0237121582031
2342;399.9166564941406
2343;399.8096008300781
2344;399.7026062011719
2345;399.5956115722656
2346;399.48858642578125
2347;399.3816223144531
2348;399.2746887207031
2349;399.1677551269531
2350;399.0608215332031
2351;398.9539489746094
2352;398.84710693359375
2353;398.74029541015625
2354;398.63348388671875
2355;398.52667236328125
2356;398.419921875
2357;398.31317138671875
2358;398.2063903808594
2359;398.0997619628906
2360;397.9930725097656
2361;397.88641357421875
2362;397.77972412109375
2363;397.6731262207031
2364;397.5665588378906
2365;397.4599609375
2366;397.3534240722656
2367;397.2468566894531
2368;397.1403503417969
2369;397.0339050292969
2370;396.9273986816406
2371;396.82098388671875
2372;396.7145690917969
2373;396.608154296875
2374;396.50177001953125
2375;396.39544677734375
2376;396.2890625
2377;396.1827697753906
2378;396.07647705078125
2379;395.97021484375
2380;395.86395263671875
2381;395.75775146484375
2382;395.6515197753906
2383;395.54534912109375
2384;395.4391784667969
2385;395.3330078125
2386;395.2268981933594
2387;395.1208190917969
2388;395.0147399902344
2389;394.90869140625
2390;394.8026428222656
2391;394.69659423828125
2392;394.59063720703125
2393;394.4846496582031
2394;394.37872314453125
2395;394.2727966308594
2396;394.1669006347656
2397;394.0610046386719
2398;393.95513916015625
2399;393.84930419921875
2400;393.74346923828125
2401;393.6376953125
2402;393.5318908691406
2403;393.4261169433594
2404;393.3204040527344
2405;393.2146911621094
2406;393.1090393066406
2407;393.00335693359375
2408;392.8977355957031
2409;392.79205322265625
2410;392.68646240234375
2411;392.5808410644531
2412;392.4753112792969
2413;392.3697204589844
2414;392.2643127441406
2415;392.15875244140625
2416;392.05328369140625
2417;391.9478454589844
2418;391.8424377441406
2419;391.73699951171875
2420;391.631591796875
2421;391.5262145996094
2422;391.4208984375
2423;391.3155822753906
2424;391.21026611328125
2425;391.10498046875
2426;390.9997253417969
2427;390.89447021484375
2428;390.7892150878906
2429;390.68402099609375
2430;390.5788269042969
2431;390.4736633300781
2432;390.3685607910156
2433;390.263427734375
2434;390.1583557128906
2435;390.05328369140625
2436;389.9482116699219
2437;389.84320068359375
2438;389.7381896972656
2439;389.6331481933594
2440;389.5282287597656
2441;389.42327880859375
2442;389.318359375
2443;389.21343994140625
2444;389.1085510253906
2445;389.00372314453125
2446;388.89886474609375
2447;388.79400634765625
2448;388.6892395019531
2449;388.58447265625
2450;388.4797058105469
2451;388.37493896484375
2452;388.2702331542969
2453;388.16552734375
2454;388.06085205078125
2455;387.95623779296875
2456;387.85162353515625
2457;387.74700927734375
2458;387.6424255371094
2459;387.5378723144531
2460;387.43328857421875
2461;387.3287658691406
2462;387.2242736816406
2463;387.1197814941406
2464;387.0153503417969
2465;386.910888671875
2466;386.8064880371094
2467;386.70208740234375
2468;386.5976867675781
2469;386.49334716796875
2470;386.38897705078125
2471;386.28466796875
2472;386.1803894042969
2473;386.07611083984375
2474;385.97186279296875
2475;385.86761474609375
2476;385.763427734375
2477;385.65924072265625
2478;385.5550231933594
2479;385.450927734375
2480;385.3468322753906
2481;385.24267578125
2482;385.13861083984375
2483;385.0345153808594
2484;384.9304504394531
2485;384.8265075683594
2486;384.7225036621094
2487;384.6184997558594
2488;384.5145568847656
2489;384.4106140136719
2490;384.30670166015625
2491;384.2027282714844
2492;384.0989074707031
2493;383.9950866699219
2494;383.89117431640625
2495;383.78741455078125
2496;383.6836242675781
2497;383.5798645019531
2498;383.47607421875
2499;383.3723449707031
2500;383.2687072753906
2501;383.16497802734375
2502;383.0613098144531
2503;382.9576110839844
2504;382.8540344238281
2505;382.7504577636719
2506;382.6468200683594
2507;382.54327392578125
2508;382.4397277832031
2509;382.3362121582031
2510;382.23272705078125
2511;382.1292419433594
2512;382.0257873535156
2513;381.9223327636719
2514;381.81890869140625
2515;381.7155456542969
2516;381.6121520996094
2517;381.5087890625
2518;381.40545654296875
2519;381.3020935058594
2520;381.19879150390625
2521;381.09552001953125
2522;380.9923400878906
2523;380.88909912109375
2524;380.7858581542969
2525;380.68267822265625
2526;380.5794982910156
2527;380.47637939453125
2528;380.37322998046875
2529;380.2701721191406
2530;380.16705322265625
2531;380.06396484375
2532;379.9609375
2533;379.8578796386719
2534;379.7549133300781
2535;379.6518859863281
2536;379.5489807128906
2537;379.44598388671875
2538;379.3431091308594
2539;379.2402038574219
2540;379.1372985839844
2541;379.0344543457031
2542;378.9316101074219
2543;378.8287658691406
2544;378.7259826660156
2545;378.6231994628906
2546;378.52044677734375
2547;378.417724609375
2548;378.31500244140625
2549;378.2123107910156
2550;378.1095886230469
2551;378.0069885253906
2552;377.9043273925781
2553;377.8017578125
2554;377.69915771484375
2555;377.5965270996094
2556;377.4939880371094
2557;377.3915100097656
2558;377.2889709472656
2559;377.1864929199219
2560;377.0840148925781
2561;376.9815368652344
2562;376.8791198730469
2563;376.7767028808594
2564;376.6743469238281
2565;376.5719909667969
2566;376.4696350097656
2567;376.3672790527344
2568;376.2649841308594
2569;376.1627502441406
2570;376.0604553222656
2571;375.95819091796875
2572;375.85595703125
2573;375.75372314453125
2574;375.6515808105469
2575;375.54937744140625
2576;375.447265625
2577;375.34515380859375
2578;375.2430114746094
2579;375.1409606933594
2580;375.03887939453125
2581;374.9368591308594
2582;374.8348083496094
2583;374.73284912109375
2584;374.6308288574219
2585;374.52886962890625
2586;374.42694091796875
2587;374.32501220703125
2588;374.2231140136719
2589;374.1212463378906
2590;374.01934814453125
2591;373.9175109863281
2592;373.8157043457031
2593;373.7138671875
2594;373.61212158203125
2595;373.51031494140625
2596;373.40863037109375
2597;373.3069152832031
2598;373.2052307128906
2599;373.1035461425781
2600;373.0019226074219
2601;372.9002380371094
2602;372.7986145019531
2603;372.6970520019531
2604;372.5954284667969
2605;372.4939270019531
2606;372.3923645019531
2607;372.2908630371094
2608;372.18939208984375
2609;372.087890625
2610;371.9864807128906
2611;371.8850402832031
2612;371.78363037109375
2613;371.68218994140625
2614;371.5808410644531
2615;371.4794921875
2616;371.378173828125
2617;371.27685546875
2618;371.1755676269531
2619;371.0743103027344
2620;370.9730529785156
2621;370.8717956542969
2622;370.77056884765625
2623;370.6694030761719
2624;370.5682067871094
2625;370.4670715332031
2626;370.3659362792969
2627;370.2648620605469
2628;370.16375732421875
2629;370.06268310546875
2630;369.9616394042969
2631;369.860595703125
2632;369.7595520019531
2633;369.6585388183594
2634;369.5576171875
2635;369.4566955566406
2636;369.355712890625
2637;369.25482177734375
2638;369.1539001464844
2639;369.0530700683594
2640;368.95220947265625
2641;368.85137939453125
2642;368.75054931640625
2643;368.6497497558594
2644;368.54901123046875
2645;368.4482421875
2646;368.3475036621094
2647;368.246826171875
2648;368.1461486816406
2649;368.04547119140625
2650;367.94482421875
2651;367.8442077636719
2652;367.74359130859375
2653;367.6429748535156
2654;367.54241943359375
2655;367.4418640136719
2656;367.34136962890625
2657;367.2408142089844
2658;367.1403503417969
2659;367.0398864746094
2660;366.9394226074219
2661;366.8389587402344
2662;366.738525390625
2663;366.63818359375
2664;366.5378112792969
2665;366.4375
2666;366.3371276855469
2667;366.23681640625
2668;366.1365661621094
2669;366.0362854003906
2670;365.9360046386719
2671;365.8357849121094
2672;365.7355651855469
2673;365.63543701171875
2674;365.53521728515625
2675;365.43505859375
2676;365.3349609375
2677;365.2348327636719
2678;365.13470458984375
2679;365.03466796875
2680;364.93463134765625
2681;364.8346252441406
2682;364.7345886230469
2683;364.6346130371094
2684;364.5346374511719
2685;364.4346618652344
2686;364.3347473144531
2687;364.2348327636719
2688;364.1349182128906
2689;364.03509521484375
2690;363.9352111816406
2691;363.8353576660156
2692;363.7355651855469
2693;363.6357421875
2694;363.53594970703125
2695;363.43621826171875
2696;363.3364562988281
2697;363.23675537109375
2698;363.1371154785156
2699;363.0373840332031
2700;362.9377746582031
2701;362.8381042480469
2702;362.7384948730469
2703;362.63885498046875
2704;362.5392761230469
2705;362.43975830078125
2706;362.3402404785156
2707;362.2406921386719
2708;362.14117431640625
2709;362.041748046875
2710;361.9422912597656
2711;361.84283447265625
2712;361.7433776855469
2713;361.6440124511719
2714;361.5446472167969
2715;361.4452819824219
2716;361.3459167480469
2717;361.24664306640625
2718;361.14727783203125
2719;361.0480041503906
2720;360.9487609863281
2721;360.84954833984375
2722;360.7502746582031
2723;360.6510925292969
2724;360.5519104003906
2725;360.4527282714844
2726;360.35357666015625
2727;360.2544860839844
2728;360.15533447265625
2729;360.0563049316406
2730;359.95721435546875
2731;359.858154296875
2732;359.7591247558594
2733;359.66015625
2734;359.5611877441406
2735;359.46221923828125
2736;359.36328125
2737;359.26434326171875
2738;359.1654357910156
2739;359.0665588378906
2740;358.9676208496094
2741;358.8688049316406
2742;358.7699890136719
2743;358.671142578125
2744;358.5723571777344
2745;358.4736022949219
2746;358.37481689453125
2747;358.2760925292969
2748;358.1773986816406
2749;358.07867431640625
2750;357.9800109863281
2751;357.8813781738281
2752;357.7827453613281
2753;357.6841125488281
2754;357.58551025390625
2755;357.48687744140625
2756;357.3883972167969
2757;357.2898254394531
2758;357.19134521484375
2759;357.09283447265625
2760;356.994384765625
2761;356.8959045410156
2762;356.79742431640625
2763;356.69903564453125
2764;356.6006164550781
2765;356.5022277832031
2766;356.40386962890625
2767;356.3055725097656
2768;356.2072448730469
2769;356.10894775390625
2770;356.0106506347656
2771;355.912353515625
2772;355.8141174316406
2773;355.71588134765625
2774;355.61767578125
2775;355.5195007324219
2776;355.4213562011719
2777;355.3232421875
2778;355.22509765625
2779;355.126953125
2780;355.0288391113281
2781;354.9308166503906
2782;354.8327331542969
2783;354.7347106933594
2784;354.6366882324219
2785;354.5387268066406
2786;354.44073486328125
2787;354.3428039550781
2788;354.244873046875
2789;354.1469421386719
2790;354.04901123046875
2791;353.9511413574219
2792;353.8533020019531
2793;353.75543212890625
2794;353.65765380859375
2795;353.5598449707031
2796;353.4620666503906
2797;353.36431884765625
2798;353.26654052734375
2799;353.1688537597656
2800;353.07110595703125
2801;352.97344970703125
2802;352.87579345703125
2803;352.77813720703125
2804;352.6805114746094
2805;352.5828552246094
2806;352.48529052734375
2807;352.3877258300781
2808;352.2901916503906
2809;352.1926574707031
2810;352.09515380859375
2811;351.99761962890625
2812;351.9001770019531
2813;351.802734375
2814;351.7052917480469
2815;351.6078796386719
2816;351.5104675292969
2817;351.4131164550781
2818;351.31573486328125
2819;351.2184143066406
2820;351.1211242675781
2821;351.02386474609375
2822;350.9265441894531
2823;350.82928466796875
2824;350.7320861816406
2825;350.6347961425781
2826;350.53759765625
2827;350.4404296875
2828;350.3432922363281
2829;350.2461242675781
2830;350.1490173339844
2831;350.0519104003906
2832;349.9548034667969
2833;349.8576965332031
2834;349.76068115234375
2835;349.66363525390625
2836;349.5666198730469
2837;349.46966552734375
2838;349.3727111816406
2839;349.2757263183594
2840;349.1788024902344
2841;349.0818786621094
2842;348.9850158691406
2843;348.88812255859375
2844;348.7912292480469
2845;348.69439697265625
2846;348.59759521484375
2847;348.50079345703125
2848;348.4040222167969
2849;348.3072204589844
2850;348.21051025390625
2851;348.11376953125
2852;348.0170593261719
2853;347.9203796386719
2854;347.82373046875
2855;347.7270812988281
2856;347.6304626464844
2857;347.53387451171875
2858;347.4372863769531
2859;347.3407287597656
2860;347.244140625
2861;347.1476135253906
2862;347.05108642578125
2863;346.95458984375
2864;346.85809326171875
2865;346.76165771484375
2866;346.66522216796875
2867;346.5688171386719
2868;346.4723815917969
2869;346.37603759765625
2870;346.2796325683594
2871;346.1833190917969
2872;346.08697509765625
2873;345.9906921386719
2874;345.8943786621094
2875;345.7981262207031
2876;345.701904296875
2877;345.6056823730469
2878;345.5094909667969
2879;345.4132995605469
2880;345.3171081542969
2881;345.2209777832031
2882;345.12481689453125
2883;345.0286560058594
2884;344.9326171875
2885;344.83648681640625
2886;344.740478515625
2887;344.6444396972656
2888;344.54840087890625
2889;344.4524230957031
2890;344.3564147949219
2891;344.2604675292969
2892;344.16455078125
2893;344.0686340332031
2894;343.97271728515625
2895;343.8768615722656
2896;343.78094482421875
2897;343.6850891113281
2898;343.5892639160156
2899;343.4934387207031
2900;343.3976745605469
2901;343.3019104003906
2902;343.2061462402344
2903;343.11041259765625
2904;343.01470947265625
2905;342.91900634765625
2906;342.82330322265625
2907;342.7276306152344
2908;342.6320495605469
2909;342.5363464355469
2910;342.44085693359375
2911;342.34521484375
2912;342.2496643066406
2913;342.1540832519531
2914;342.05859375
2915;341.96307373046875
2916;341.86761474609375
2917;341.7721252441406
2918;341.67669677734375
2919;341.5812072753906
2920;341.48577880859375
2921;341.390380859375
2922;341.2950134277344
2923;341.19964599609375
2924;341.10430908203125
2925;341.0090026855469
2926;340.9137268066406
2927;340.81842041015625
2928;340.72314453125
2929;340.6279296875
2930;340.53271484375
2931;340.4374694824219
2932;340.34228515625
2933;340.24713134765625
2934;340.1519470214844
2935;340.0568542480469
2936;339.9617004394531
2937;339.86663818359375
2938;339.77154541015625
2939;339.676513671875
2940;339.58148193359375
2941;339.4864807128906
2942;339.3914489746094
2943;339.2964172363281
2944;339.20147705078125
2945;339.10650634765625
2946;339.0115661621094
2947;338.91668701171875
2948;338.82177734375
2949;338.72698974609375
2950;338.632080078125
2951;338.5373229980469
2952;338.44244384765625
2953;338.34765625
2954;338.25286865234375
2955;338.1581115722656
2956;338.0633239746094
2957;337.9686584472656
2958;337.87396240234375
2959;337.779296875
2960;337.68463134765625
2961;337.5899963378906
2962;337.4953918457031
2963;337.4007263183594
2964;337.30615234375
2965;337.2115783691406
2966;337.11700439453125
2967;337.0224914550781
2968;336.9279479980469
2969;336.83349609375
2970;336.739013671875
2971;336.6445617675781
2972;336.55010986328125
2973;336.4557189941406
2974;336.36126708984375
2975;336.26690673828125
2976;336.1725158691406
2977;336.07818603515625
2978;335.98388671875
2979;335.88958740234375
2980;335.79522705078125
2981;335.7009582519531
2982;335.60675048828125
2983;335.51251220703125
2984;335.41827392578125
2985;335.3240661621094
2986;335.22991943359375
2987;335.1357727050781
2988;335.0415954589844
2989;334.9474792480469
2990;334.8533630371094
2991;334.7593078613281
2992;334.6652526855469
2993;334.5711364746094
2994;334.4771423339844
2995;334.3831481933594
2996;334.28912353515625
2997;334.1951599121094
2998;334.1012268066406
2999;334.00732421875
