;loss
0;861.8209228515625
1;861.6216430664062
2;861.3538208007812
3;861.0859375
4;860.8346557617188
5;860.5786743164062
6;860.3192749023438
7;860.0574951171875
8;859.7940673828125
9;859.5293579101562
10;859.2623901367188
11;858.9960327148438
12;858.7290649414062
13;858.4625854492188
14;858.1962890625
15;857.9284057617188
16;857.6625366210938
17;857.39453125
18;857.1264038085938
19;856.8583374023438
20;856.5932006835938
21;856.3251953125
22;856.0604248046875
23;855.7926635742188
24;855.5282592773438
25;855.2609252929688
26;854.9937744140625
27;854.7269287109375
28;854.4633178710938
29;854.1998901367188
30;853.9367065429688
31;853.6737060546875
32;853.4110107421875
33;853.1484985351562
34;852.8831176757812
35;852.62109375
36;852.3563232421875
37;852.091796875
38;851.8275756835938
39;851.56640625
40;851.3026733398438
41;851.0419921875
42;850.7815551757812
43;850.5213012695312
44;850.2586669921875
45;849.9962768554688
46;849.734375
47;849.4750366210938
48;849.2159423828125
49;848.9572143554688
50;848.6986694335938
51;848.4404296875
52;848.1801147460938
53;847.9199829101562
54;847.6624145507812
55;847.4051513671875
56;847.1480102539062
57;846.8911743164062
58;846.6325073242188
59;846.3760986328125
60;846.1179809570312
61;845.8621826171875
62;845.6044921875
63;845.3490600585938
64;845.0938720703125
65;844.8389892578125
66;844.5842895507812
67;844.3298950195312
68;844.0737915039062
69;843.8179931640625
70;843.5641479492188
71;843.3106079101562
72;843.0571899414062
73;842.8023681640625
74;842.5493774414062
75;842.2950439453125
76;842.0408935546875
77;841.7869873046875
78;841.533203125
79;841.2797241210938
80;841.0278930664062
81;840.7761840820312
82;840.5247192382812
83;840.2733154296875
84;840.0206909179688
85;839.7683715820312
86;839.5160522460938
87;839.2637939453125
88;839.0118408203125
89;838.7612915039062
90;838.5095825195312
91;838.2579345703125
92;838.0076904296875
93;837.7573852539062
94;837.5061645507812
95;837.2548217773438
96;837.0048828125
97;836.7550048828125
98;836.5050659179688
99;836.2540283203125
100;836.0042114257812
101;835.7533569335938
102;835.5023803710938
103;835.2514038085938
104;835.0016479492188
105;834.7518310546875
106;834.5020141601562
107;834.2510986328125
108;834.0000610351562
109;833.7501220703125
110;833.5000610351562
111;833.25
112;832.9998168945312
113;832.7494506835938
114;832.4990844726562
115;832.2485961914062
116;831.9969482421875
117;831.7451782226562
118;831.4932861328125
119;831.2413330078125
120;830.9901733398438
121;830.7377319335938
122;830.4852905273438
123;830.2324829101562
124;829.9805297851562
125;829.7283935546875
126;829.4758911132812
127;829.2222900390625
128;828.9693603515625
129;828.7153930664062
130;828.4619140625
131;828.2081909179688
132;827.9542236328125
133;827.6998901367188
134;827.4443359375
135;827.1885986328125
136;826.9332885742188
137;826.6776123046875
138;826.4217529296875
139;826.1646118164062
140;825.9070434570312
141;825.6490478515625
142;825.3907470703125
143;825.1329345703125
144;824.8746948242188
145;824.6160888671875
146;824.3569946289062
147;824.0974731445312
148;823.8375244140625
149;823.5764770507812
150;823.3155517578125
151;823.0534057617188
152;822.7916870117188
153;822.5287475585938
154;822.2651977539062
155;822.0022583007812
156;821.7381591796875
157;821.4735717773438
158;821.2092895507812
159;820.9444580078125
160;820.6784057617188
161;820.4119873046875
162;820.1449584960938
163;819.8773193359375
164;819.6099243164062
165;819.3412475585938
166;819.0726928710938
167;818.8027954101562
168;818.5331420898438
169;818.2628173828125
170;817.9912109375
171;817.7196044921875
172;817.4467163085938
173;817.1739501953125
174;816.9006958007812
175;816.6276245117188
176;816.3549194335938
177;816.0816040039062
178;815.8070678710938
179;815.5321044921875
180;815.2572631835938
181;814.9818725585938
182;814.7059326171875
183;814.4285888671875
184;814.1506958007812
185;813.8729248046875
186;813.5944213867188
187;813.3147583007812
188;813.0343627929688
189;812.7544555664062
190;812.4744873046875
191;812.1936645507812
192;811.9117431640625
193;811.6298828125
194;811.3473510742188
195;811.0643310546875
196;810.78271484375
197;810.5006713867188
198;810.2174682617188
199;809.9338989257812
200;809.6502685546875
201;809.3656005859375
202;809.0802612304688
203;808.7950439453125
204;808.5084838867188
205;808.2222900390625
206;807.9354248046875
207;807.6478881835938
208;807.3604736328125
209;807.0718383789062
210;806.78271484375
211;806.4928588867188
212;806.2030029296875
213;805.9125366210938
214;805.6214599609375
215;805.3297119140625
216;805.0366821289062
217;804.7435913085938
218;804.4492797851562
219;804.1548461914062
220;803.8596801757812
221;803.5632934570312
222;803.2666625976562
223;802.9688110351562
224;802.6708984375
225;802.3716430664062
226;802.0717163085938
227;801.7711181640625
228;801.4705200195312
229;801.1690673828125
230;800.8670043945312
231;800.5641479492188
232;800.2606201171875
233;799.9564819335938
234;799.6510009765625
235;799.3448486328125
236;799.0379638671875
237;798.7303466796875
238;798.4219360351562
239;798.11279296875
240;797.8035888671875
241;797.4940185546875
242;797.1834716796875
243;796.8721313476562
244;796.5606689453125
245;796.2481689453125
246;795.935546875
247;795.6221923828125
248;795.3081665039062
249;794.9933471679688
250;794.6780395507812
251;794.3612060546875
252;794.0438232421875
253;793.7261352539062
254;793.4072875976562
255;793.087890625
256;792.7686157226562
257;792.4486694335938
258;792.1275024414062
259;791.8062133789062
260;791.4842529296875
261;791.1614379882812
262;790.8380126953125
263;790.5142211914062
264;790.1900634765625
265;789.8652954101562
266;789.5404052734375
267;789.2147216796875
268;788.8884887695312
269;788.5614013671875
270;788.2337036132812
271;787.90478515625
272;787.5750732421875
273;787.2446899414062
274;786.9136352539062
275;786.5823974609375
276;786.2498779296875
277;785.9171142578125
278;785.5831298828125
279;785.2489624023438
280;784.9141845703125
281;784.57861328125
282;784.2422485351562
283;783.9052124023438
284;783.5673828125
285;783.2288818359375
286;782.8890991210938
287;782.5485229492188
288;782.2223510742188
289;781.8995361328125
290;781.57763671875
291;781.2556762695312
292;780.9344482421875
293;780.6129760742188
294;780.2915649414062
295;779.970703125
296;779.6492919921875
297;779.3277587890625
298;779.0062866210938
299;778.6848754882812
300;778.3631591796875
301;778.0413208007812
302;777.7190551757812
303;777.396484375
304;777.0730590820312
305;776.7498168945312
306;776.4264526367188
307;776.10546875
308;775.7872924804688
309;775.4688720703125
310;775.1508178710938
311;774.8325805664062
312;774.51416015625
313;774.1956176757812
314;773.8763427734375
315;773.5570678710938
316;773.2384033203125
317;772.9190063476562
318;772.5993041992188
319;772.27978515625
320;771.9599609375
321;771.6393432617188
322;771.3189086914062
323;770.998046875
324;770.6763916015625
325;770.3544921875
326;770.0332641601562
327;769.7116088867188
328;769.3895874023438
329;769.0672607421875
330;768.744140625
331;768.4207763671875
332;768.0965576171875
333;767.7723388671875
334;767.4483032226562
335;767.1239013671875
336;766.7985229492188
337;766.4728393554688
338;766.1467895507812
339;765.8203125
340;765.4933471679688
341;765.1661987304688
342;764.8386840820312
343;764.5106201171875
344;764.1826171875
345;763.8538208007812
346;763.5250854492188
347;763.1958618164062
348;762.8663330078125
349;762.5362548828125
350;762.2054443359375
351;761.8746337890625
352;761.5428466796875
353;761.2109375
354;760.8788452148438
355;760.5463256835938
356;760.2138061523438
357;759.880859375
358;759.5475463867188
359;759.21337890625
360;758.8787231445312
361;758.5440673828125
362;758.2088623046875
363;757.8734741210938
364;757.5382080078125
365;757.2022705078125
366;756.86669921875
367;756.5308837890625
368;756.1952514648438
369;755.8594970703125
370;755.5231323242188
371;755.1864013671875
372;754.8500366210938
373;754.5137329101562
374;754.1770629882812
375;753.8399658203125
376;753.5022583007812
377;753.1643676757812
378;752.8257446289062
379;752.4869995117188
380;752.1478881835938
381;751.8080444335938
382;751.4684448242188
383;751.1314086914062
384;750.7950439453125
385;750.4590454101562
386;750.1233520507812
387;749.787109375
388;749.45068359375
389;749.1140747070312
390;748.7772827148438
391;748.4404296875
392;748.1032104492188
393;747.7657470703125
394;747.42822265625
395;747.09033203125
396;746.7516479492188
397;746.4126586914062
398;746.0733032226562
399;745.7333984375
400;745.3934936523438
401;745.0545043945312
402;744.7153930664062
403;744.3762817382812
404;744.0364379882812
405;743.6963500976562
406;743.3572387695312
407;743.0194091796875
408;742.6824951171875
409;742.3467407226562
410;742.0111694335938
411;741.67919921875
412;741.3489990234375
413;741.0196533203125
414;740.6904296875
415;740.36181640625
416;740.0330810546875
417;739.7123413085938
418;739.3934936523438
419;739.0755615234375
420;738.7579345703125
421;738.44140625
422;738.1259765625
423;737.8134765625
424;737.5050048828125
425;737.2063598632812
426;736.9090576171875
427;736.6128540039062
428;736.3186645507812
429;736.0258178710938
430;735.73388671875
431;735.44287109375
432;735.1524658203125
433;734.8637084960938
434;734.5772094726562
435;734.2913818359375
436;734.0057983398438
437;733.7210693359375
438;733.4366455078125
439;733.15283203125
440;732.869140625
441;732.5858154296875
442;732.302734375
443;732.0200805664062
444;731.7376098632812
445;731.4556274414062
446;731.1736450195312
447;730.89208984375
448;730.6106567382812
449;730.3294067382812
450;730.0479736328125
451;729.7667846679688
452;729.4859008789062
453;729.2054443359375
454;728.9249877929688
455;728.6446533203125
456;728.3642578125
457;728.0841064453125
458;727.8041381835938
459;727.5241088867188
460;727.2445068359375
461;726.9652709960938
462;726.6867065429688
463;726.4087524414062
464;726.1307373046875
465;725.8531494140625
466;725.5758666992188
467;725.2987060546875
468;725.0216064453125
469;724.7445678710938
470;724.4678344726562
471;724.1981201171875
472;723.9296264648438
473;723.6627807617188
474;723.3970336914062
475;723.1317749023438
476;722.8672485351562
477;722.6043090820312
478;722.3422241210938
479;722.0807495117188
480;721.8197021484375
481;721.5592041015625
482;721.2988891601562
483;721.0389404296875
484;720.779296875
485;720.5199584960938
486;720.2612915039062
487;720.0029296875
488;719.7449951171875
489;719.4873046875
490;719.2297973632812
491;718.9722900390625
492;718.7149658203125
493;718.4580078125
494;718.201171875
495;717.9444580078125
496;717.6879272460938
497;717.4313354492188
498;717.1748046875
499;716.9185180664062
500;716.6626586914062
501;716.408203125
502;716.1552124023438
503;715.9027099609375
504;715.6506958007812
505;715.3987426757812
506;715.1470336914062
507;714.8955078125
508;714.6442260742188
509;714.3932495117188
510;714.1427001953125
511;713.8922119140625
512;713.6417846679688
513;713.3914794921875
514;713.1412353515625
515;712.8911743164062
516;712.6438598632812
517;712.4003295898438
518;712.1572265625
519;711.9146728515625
520;711.6727294921875
521;711.4310302734375
522;711.1898803710938
523;710.9490966796875
524;710.7088012695312
525;710.4684448242188
526;710.2289428710938
527;709.9912109375
528;709.7539672851562
529;709.5176391601562
530;709.2822265625
531;709.0475463867188
532;708.8131103515625
533;708.5789184570312
534;708.3449096679688
535;708.111328125
536;707.8779296875
537;707.6449584960938
538;707.4120483398438
539;707.1795654296875
540;706.9472045898438
541;706.7149658203125
542;706.4830932617188
543;706.2514038085938
544;706.0205078125
545;705.7899780273438
546;705.5599975585938
547;705.33056640625
548;705.1015014648438
549;704.8726196289062
550;704.6441040039062
551;704.4157104492188
552;704.1878662109375
553;703.9599609375
554;703.7323608398438
555;703.5048217773438
556;703.2783203125
557;703.0521850585938
558;702.8262939453125
559;702.6005859375
560;702.3751220703125
561;702.1497802734375
562;701.9246215820312
563;701.6995849609375
564;701.4752807617188
565;701.2514038085938
566;701.0277709960938
567;700.8045654296875
568;700.5828857421875
569;700.3649291992188
570;700.1476440429688
571;699.9309692382812
572;699.71484375
573;699.4990234375
574;699.2836303710938
575;699.0685424804688
576;698.85400390625
577;698.6397705078125
578;698.4260864257812
579;698.2125854492188
580;697.9996337890625
581;697.7871704101562
582;697.5750732421875
583;697.3631591796875
584;697.1516723632812
585;696.9401245117188
586;696.7290649414062
587;696.5181274414062
588;696.3073120117188
589;696.0968627929688
590;695.8865356445312
591;695.6763916015625
592;695.4664306640625
593;695.2567749023438
594;695.0472412109375
595;694.8380126953125
596;694.62890625
597;694.419921875
598;694.2119140625
599;694.0079345703125
600;693.8045654296875
601;693.6013793945312
602;693.3986206054688
603;693.1962890625
604;692.9942016601562
605;692.7922973632812
606;692.5908203125
607;692.3895263671875
608;692.1884765625
609;691.9879760742188
610;691.7880249023438
611;691.5883178710938
612;691.3887329101562
613;691.1893920898438
614;690.990234375
615;690.7911376953125
616;690.5925903320312
617;690.3939208984375
618;690.1954956054688
619;689.9974365234375
620;689.7994995117188
621;689.6017456054688
622;689.4041748046875
623;689.2067260742188
624;689.0093994140625
625;688.8123779296875
626;688.6153564453125
627;688.4185180664062
628;688.2218017578125
629;688.0252685546875
630;687.8291015625
631;687.6331176757812
632;687.4371337890625
633;687.2415771484375
634;687.0460815429688
635;686.8510131835938
636;686.6558837890625
637;686.4609985351562
638;686.2664184570312
639;686.0718994140625
640;685.8775634765625
641;685.6834716796875
642;685.4895629882812
643;685.2957153320312
644;685.1019897460938
645;684.9083862304688
646;684.7152709960938
647;684.5223999023438
648;684.32958984375
649;684.1370239257812
650;683.9446411132812
651;683.7523193359375
652;683.5601196289062
653;683.3681640625
654;683.1763916015625
655;682.98486328125
656;682.7933349609375
657;682.6019897460938
658;682.4107055664062
659;682.2196655273438
660;682.0287475585938
661;681.837890625
662;681.6471557617188
663;681.4566650390625
664;681.2664184570312
665;681.0762329101562
666;680.8861694335938
667;680.6962280273438
668;680.5064697265625
669;680.3168334960938
670;680.1272583007812
671;679.9379272460938
672;679.7484741210938
673;679.5592651367188
674;679.3703002929688
675;679.1813354492188
676;678.9926147460938
677;678.8040161132812
678;678.6153564453125
679;678.4271850585938
680;678.2388305664062
681;678.0506591796875
682;677.8626708984375
683;677.6748046875
684;677.4871826171875
685;677.2996215820312
686;677.1122436523438
687;676.9249267578125
688;676.7377319335938
689;676.5506591796875
690;676.3637084960938
691;676.1770629882812
692;675.9903564453125
693;675.8037719726562
694;675.6173706054688
695;675.4310913085938
696;675.2449340820312
697;675.0590209960938
698;674.8732299804688
699;674.6874389648438
700;674.5018920898438
701;674.3165283203125
702;674.1310424804688
703;673.9458618164062
704;673.7608642578125
705;673.5760498046875
706;673.3912963867188
707;673.2067260742188
708;673.0223388671875
709;672.8381958007812
710;672.6541137695312
711;672.4700317382812
712;672.2860107421875
713;672.1022338867188
714;671.9185791015625
715;671.7351684570312
716;671.5517578125
717;671.3684692382812
718;671.1852416992188
719;671.0022583007812
720;670.8193359375
721;670.6370239257812
722;670.4546508789062
723;670.2725219726562
724;670.0903930664062
725;669.9086303710938
726;669.7268676757812
727;669.5452270507812
728;669.3637084960938
729;669.1824340820312
730;669.0012817382812
731;668.8203125
732;668.6395263671875
733;668.458984375
734;668.2783813476562
735;668.0980834960938
736;667.9178466796875
737;667.7378540039062
738;667.5580444335938
739;667.3782348632812
740;667.1986694335938
741;667.0191650390625
742;666.83984375
743;666.6605834960938
744;666.4814453125
745;666.3024291992188
746;666.1234741210938
747;665.9447631835938
748;665.7660522460938
749;665.58740234375
750;665.4088745117188
751;665.2305908203125
752;665.0523681640625
753;664.8743286132812
754;664.6962890625
755;664.5183715820312
756;664.3405151367188
757;664.1627807617188
758;663.9851684570312
759;663.8077392578125
760;663.6304931640625
761;663.4535522460938
762;663.2767944335938
763;663.1001586914062
764;662.923828125
765;662.7474975585938
766;662.5712890625
767;662.3952026367188
768;662.2191772460938
769;662.0433959960938
770;661.8677978515625
771;661.6922607421875
772;661.5167236328125
773;661.3414916992188
774;661.1663208007812
775;660.9911499023438
776;660.8161010742188
777;660.6411743164062
778;660.46630859375
779;660.2920532226562
780;660.1180419921875
781;659.9441528320312
782;659.7704467773438
783;659.5967407226562
784;659.42333984375
785;659.2500610351562
786;659.0769653320312
787;658.9039916992188
788;658.7314453125
789;658.5590209960938
790;658.3867797851562
791;658.2146606445312
792;658.0425415039062
793;657.8706665039062
794;657.6987915039062
795;657.5270385742188
796;657.35546875
797;657.1839599609375
798;657.0125122070312
799;656.8412475585938
800;656.6699829101562
801;656.4990234375
802;656.3280029296875
803;656.1571044921875
804;655.986328125
805;655.8157348632812
806;655.6450805664062
807;655.4745483398438
808;655.3041381835938
809;655.1338500976562
810;654.9636840820312
811;654.7935180664062
812;654.6234741210938
813;654.4535522460938
814;654.28369140625
815;654.1138305664062
816;653.9442749023438
817;653.7747802734375
818;653.6052856445312
819;653.4359130859375
820;653.2666015625
821;653.0973510742188
822;652.92822265625
823;652.7592163085938
824;652.59033203125
825;652.4215087890625
826;652.2527465820312
827;652.0840454101562
828;651.9154052734375
829;651.7469482421875
830;651.5785522460938
831;651.4102172851562
832;651.2418823242188
833;651.07373046875
834;650.9055786132812
835;650.7374877929688
836;650.5696411132812
837;650.4017944335938
838;650.2339477539062
839;650.0662841796875
840;649.89892578125
841;649.7315673828125
842;649.5643310546875
843;649.3971557617188
844;649.2302856445312
845;649.0631713867188
846;648.8970336914062
847;648.7310791015625
848;648.5653686523438
849;648.3997192382812
850;648.2340698242188
851;648.0685424804688
852;647.9031982421875
853;647.7378540039062
854;647.5726928710938
855;647.4075927734375
856;647.2426147460938
857;647.0775756835938
858;646.9127807617188
859;646.7479248046875
860;646.5833129882812
861;646.4186401367188
862;646.2542114257812
863;646.08984375
864;645.9253540039062
865;645.7610473632812
866;645.5968627929688
867;645.4327392578125
868;645.2686767578125
869;645.1047973632812
870;644.9408569335938
871;644.7770385742188
872;644.6133422851562
873;644.44970703125
874;644.2861328125
875;644.1226196289062
876;643.9592895507812
877;643.7958374023438
878;643.6325073242188
879;643.4693603515625
880;643.3063354492188
881;643.1434326171875
882;642.9805908203125
883;642.8178100585938
884;642.6551513671875
885;642.4924926757812
886;642.3299560546875
887;642.1674194335938
888;642.0050048828125
889;641.8427124023438
890;641.6804809570312
891;641.5183715820312
892;641.3561401367188
893;641.1941528320312
894;641.0321044921875
895;640.8702392578125
896;640.7086181640625
897;640.5471801757812
898;640.3856201171875
899;640.2242431640625
900;640.0629272460938
901;639.9016723632812
902;639.7405395507812
903;639.5794677734375
904;639.4185180664062
905;639.2575073242188
906;639.0968017578125
907;638.93603515625
908;638.7753295898438
909;638.61474609375
910;638.4541015625
911;638.2936401367188
912;638.1332397460938
913;637.9728393554688
914;637.8125610351562
915;637.6524047851562
916;637.4921875
917;637.3321533203125
918;637.1721801757812
919;637.01220703125
920;636.8522338867188
921;636.6924438476562
922;636.5326538085938
923;636.3729248046875
924;636.2133178710938
925;636.0537109375
926;635.8941650390625
927;635.7348022460938
928;635.5753784179688
929;635.416015625
930;635.2567749023438
931;635.0975341796875
932;634.9383544921875
933;634.7793579101562
934;634.6203002929688
935;634.4614868164062
936;634.3026123046875
937;634.1438598632812
938;633.9851684570312
939;633.8263549804688
940;633.6678466796875
941;633.5093383789062
942;633.3508911132812
943;633.1925048828125
944;633.0341796875
945;632.8759155273438
946;632.7177124023438
947;632.5595703125
948;632.4014892578125
949;632.2434692382812
950;632.0855102539062
951;631.9275512695312
952;631.7696533203125
953;631.6118774414062
954;631.4541015625
955;631.2964477539062
956;631.1388549804688
957;630.9813842773438
958;630.8238525390625
959;630.6664428710938
960;630.5090942382812
961;630.3517456054688
962;630.1945190429688
963;630.0372924804688
964;629.8802490234375
965;629.72314453125
966;629.5661010742188
967;629.4091796875
968;629.2523193359375
969;629.0955200195312
970;628.9386596679688
971;628.7820434570312
972;628.6253662109375
973;628.46875
974;628.3121948242188
975;628.1557006835938
976;627.9992065429688
977;627.8428955078125
978;627.6865844726562
979;627.5303344726562
980;627.3741455078125
981;627.2180786132812
982;627.0619506835938
983;626.9059448242188
984;626.75
985;626.5940551757812
986;626.4381713867188
987;626.2823486328125
988;626.1266479492188
989;625.9710083007812
990;625.8153076171875
991;625.6597290039062
992;625.5043334960938
993;625.3488159179688
994;625.1934814453125
995;625.0381469726562
996;624.8828735351562
997;624.7276611328125
998;624.5724487304688
999;624.4174194335938
1000;624.2622680664062
1001;624.1072998046875
1002;623.9523315429688
1003;623.7974243164062
1004;623.642578125
1005;623.4877319335938
1006;623.3330688476562
1007;623.1782836914062
1008;623.0236206054688
1009;622.8690795898438
1010;622.7145385742188
1011;622.5601196289062
1012;622.4057006835938
1013;622.2512817382812
1014;622.0969848632812
1015;621.9427490234375
1016;621.7885131835938
1017;621.6343383789062
1018;621.4802856445312
1019;621.326171875
1020;621.1721801757812
1021;621.0182495117188
1022;620.8643188476562
1023;620.7105102539062
1024;620.5567016601562
1025;620.4029541015625
1026;620.2492065429688
1027;620.0956420898438
1028;619.9420776367188
1029;619.7885131835938
1030;619.6350708007812
1031;619.4815673828125
1032;619.3282470703125
1033;619.1749267578125
1034;619.0216674804688
1035;618.8684692382812
1036;618.7153930664062
1037;618.5624389648438
1038;618.4094848632812
1039;618.2565307617188
1040;618.1036987304688
1041;617.9508056640625
1042;617.7980346679688
1043;617.6453857421875
1044;617.49267578125
1045;617.3401489257812
1046;617.1875
1047;617.0350952148438
1048;616.8826293945312
1049;616.7302856445312
1050;616.5780029296875
1051;616.4256591796875
1052;616.2733764648438
1053;616.1212158203125
1054;615.9690551757812
1055;615.8170166015625
1056;615.6649780273438
1057;615.5130004882812
1058;615.3610229492188
1059;615.2091064453125
1060;615.0571899414062
1061;614.9053955078125
1062;614.7536010742188
1063;614.6021118164062
1064;614.45068359375
1065;614.29931640625
1066;614.14794921875
1067;613.9966430664062
1068;613.8453979492188
1069;613.6942749023438
1070;613.5431518554688
1071;613.39208984375
1072;613.2410888671875
1073;613.0901489257812
1074;612.9392700195312
1075;612.7884521484375
1076;612.6375732421875
1077;612.4868774414062
1078;612.3360595703125
1079;612.1854858398438
1080;612.0348510742188
1081;611.88427734375
1082;611.7337646484375
1083;611.5833129882812
1084;611.4329223632812
1085;611.2825317382812
1086;611.1322631835938
1087;610.9819946289062
1088;610.8317260742188
1089;610.6815185546875
1090;610.5314331054688
1091;610.3814086914062
1092;610.2313232421875
1093;610.0813598632812
1094;609.9314575195312
1095;609.7815551757812
1096;609.6316528320312
1097;609.48193359375
1098;609.3321533203125
1099;609.1823120117188
1100;609.0326538085938
1101;608.8831787109375
1102;608.7335205078125
1103;608.5840454101562
1104;608.4345703125
1105;608.28515625
1106;608.1357421875
1107;607.986328125
1108;607.8370361328125
1109;607.6878662109375
1110;607.5386352539062
1111;607.3895263671875
1112;607.2403564453125
1113;607.0913696289062
1114;606.9423828125
1115;606.7933959960938
1116;606.6444702148438
1117;606.4955444335938
1118;606.3466796875
1119;606.1979370117188
1120;606.0491943359375
1121;605.900390625
1122;605.7517700195312
1123;605.6030883789062
1124;605.45458984375
1125;605.3060913085938
1126;605.1576538085938
1127;605.0092163085938
1128;604.8607788085938
1129;604.71240234375
1130;604.5640869140625
1131;604.4158935546875
1132;604.2676391601562
1133;604.1194458007812
1134;603.9713745117188
1135;603.8232421875
1136;603.6752319335938
1137;603.5272216796875
1138;603.3793334960938
1139;603.2314453125
1140;603.0835571289062
1141;602.9356689453125
1142;602.7880249023438
1143;602.6402587890625
1144;602.4926147460938
1145;602.3449096679688
1146;602.1973266601562
1147;602.0498046875
1148;601.9022216796875
1149;601.7547607421875
1150;601.6072998046875
1151;601.4598999023438
1152;601.3125610351562
1153;601.1651611328125
1154;601.0180053710938
1155;600.8707275390625
1156;600.7236328125
1157;600.5765380859375
1158;600.4293823242188
1159;600.2823486328125
1160;600.1353759765625
1161;599.9884643554688
1162;599.8416137695312
1163;599.6947631835938
1164;599.5479125976562
1165;599.4011840820312
1166;599.2544555664062
1167;599.1077880859375
1168;598.9611206054688
1169;598.8145751953125
1170;598.6680297851562
1171;598.521484375
1172;598.3750610351562
1173;598.2286376953125
1174;598.0822143554688
1175;597.9359741210938
1176;597.7896728515625
1177;597.6434326171875
1178;597.4971923828125
1179;597.3511352539062
1180;597.2050170898438
1181;597.0588989257812
1182;596.9127807617188
1183;596.7669067382812
1184;596.6209106445312
1185;596.4750366210938
1186;596.3291015625
1187;596.1832885742188
1188;596.0374755859375
1189;595.8917236328125
1190;595.7460327148438
1191;595.6004638671875
1192;595.4547729492188
1193;595.3092041015625
1194;595.1636962890625
1195;595.0181274414062
1196;594.8726806640625
1197;594.7274169921875
1198;594.5819091796875
1199;594.4365844726562
1200;594.2913208007812
1201;594.1460571289062
1202;594.0008544921875
1203;593.8556518554688
1204;593.7105102539062
1205;593.5654296875
1206;593.42041015625
1207;593.275390625
1208;593.13037109375
1209;592.9854736328125
1210;592.8406372070312
1211;592.69580078125
1212;592.5509643554688
1213;592.4061889648438
1214;592.2614135742188
1215;592.1167602539062
1216;591.9721069335938
1217;591.8274536132812
1218;591.6829223632812
1219;591.5383911132812
1220;591.3938598632812
1221;591.2494506835938
1222;591.1050415039062
1223;590.9606323242188
1224;590.8163452148438
1225;590.6719970703125
1226;590.52783203125
1227;590.3836669921875
1228;590.2394409179688
1229;590.0952758789062
1230;589.951171875
1231;589.8071899414062
1232;589.6631469726562
1233;589.5191650390625
1234;589.3753051757812
1235;589.2313842773438
1236;589.0874633789062
1237;588.9437255859375
1238;588.7999267578125
1239;588.6561889648438
1240;588.5125122070312
1241;588.3688354492188
1242;588.2252197265625
1243;588.0816040039062
1244;587.9381103515625
1245;587.7945556640625
1246;587.6511840820312
1247;587.5076904296875
1248;587.3642578125
1249;587.2208862304688
1250;587.07763671875
1251;586.9342651367188
1252;586.7910766601562
1253;586.6478881835938
1254;586.5047607421875
1255;586.3616333007812
1256;586.2184448242188
1257;586.0755004882812
1258;585.9324951171875
1259;585.7894897460938
1260;585.6465454101562
1261;585.5037231445312
1262;585.36083984375
1263;585.2180786132812
1264;585.0753173828125
1265;584.9326171875
1266;584.7899780273438
1267;584.6472778320312
1268;584.5046997070312
1269;584.362060546875
1270;584.2196044921875
1271;584.0770874023438
1272;583.9346313476562
1273;583.7921752929688
1274;583.6497802734375
1275;583.5074462890625
1276;583.3651733398438
1277;583.2229614257812
1278;583.0807495117188
1279;582.9385375976562
1280;582.79638671875
1281;582.6542358398438
1282;582.51220703125
1283;582.3701782226562
1284;582.2281494140625
1285;582.086181640625
1286;581.9442749023438
1287;581.8023681640625
1288;581.6605224609375
1289;581.5186157226562
1290;581.3768920898438
1291;581.2351684570312
1292;581.0934448242188
1293;580.9517211914062
1294;580.8101196289062
1295;580.6685180664062
1296;580.5269775390625
1297;580.3854370117188
1298;580.2440185546875
1299;580.1025390625
1300;579.9610595703125
1301;579.8197631835938
1302;579.6784057617188
1303;579.5371704101562
1304;579.3958740234375
1305;579.2545776367188
1306;579.1134033203125
1307;578.9722290039062
1308;578.8311157226562
1309;578.6900024414062
1310;578.5490112304688
1311;578.4080200195312
1312;578.2670288085938
1313;578.1260375976562
1314;577.9851684570312
1315;577.84423828125
1316;577.7034301757812
1317;577.5625610351562
1318;577.421875
1319;577.2811279296875
1320;577.1404418945312
1321;576.9996948242188
1322;576.8590698242188
1323;576.7185668945312
1324;576.5780029296875
1325;576.4374389648438
1326;576.2969360351562
1327;576.1564331054688
1328;576.0160522460938
1329;575.8756713867188
1330;575.7353515625
1331;575.5950927734375
1332;575.4547729492188
1333;575.3145751953125
1334;575.1743774414062
1335;575.0342407226562
1336;574.8941040039062
1337;574.7540283203125
1338;574.6139526367188
1339;574.4739990234375
1340;574.333984375
1341;574.194091796875
1342;574.0541381835938
1343;573.914306640625
1344;573.7744750976562
1345;573.6347045898438
1346;573.4949340820312
1347;573.3551025390625
1348;573.2155151367188
1349;573.0758056640625
1350;572.9361572265625
1351;572.7966918945312
1352;572.6571044921875
1353;572.517578125
1354;572.3781127929688
1355;572.2387084960938
1356;572.0993041992188
1357;571.9599609375
1358;571.8206787109375
1359;571.6813354492188
1360;571.5420532226562
1361;571.4028930664062
1362;571.263671875
1363;571.12451171875
1364;570.9854125976562
1365;570.8463745117188
1366;570.7073974609375
1367;570.5684204101562
1368;570.4293823242188
1369;570.2904663085938
1370;570.1515502929688
1371;570.0126953125
1372;569.8739013671875
1373;569.735107421875
1374;569.5963134765625
1375;569.4576416015625
1376;569.3189086914062
1377;569.1802978515625
1378;569.0416870117188
1379;568.9031372070312
1380;568.7645874023438
1381;568.6260375976562
1382;568.4876098632812
1383;568.34912109375
1384;568.2106323242188
1385;568.0723876953125
1386;567.9340209960938
1387;567.7957153320312
1388;567.657470703125
1389;567.5192260742188
1390;567.3809814453125
1391;567.2428588867188
1392;567.1047973632812
1393;566.9666137695312
1394;566.8285522460938
1395;566.6904907226562
1396;566.5525512695312
1397;566.41455078125
1398;566.2766723632812
1399;566.1387329101562
1400;566.0008544921875
1401;565.8629760742188
1402;565.7252197265625
1403;565.58740234375
1404;565.44970703125
1405;565.31201171875
1406;565.1743774414062
1407;565.0367431640625
1408;564.8991088867188
1409;564.7615356445312
1410;564.6240234375
1411;564.4865112304688
1412;564.34912109375
1413;564.211669921875
1414;564.0742797851562
1415;563.9369506835938
1416;563.7996215820312
1417;563.6622924804688
1418;563.5250854492188
1419;563.3878784179688
1420;563.2506103515625
1421;563.1135864257812
1422;562.9764404296875
1423;562.83935546875
1424;562.7022705078125
1425;562.5652465820312
1426;562.4282836914062
1427;562.2913208007812
1428;562.1544189453125
1429;562.0175170898438
1430;561.8806762695312
1431;561.7438354492188
1432;561.6070556640625
1433;561.4702758789062
1434;561.3335571289062
1435;561.1968994140625
1436;561.0601806640625
1437;560.9236450195312
1438;560.7870483398438
1439;560.6504516601562
1440;560.5139770507812
1441;560.37744140625
1442;560.2410278320312
1443;560.1046142578125
1444;559.9682006835938
1445;559.831787109375
1446;559.6954956054688
1447;559.5591430664062
1448;559.4228515625
1449;559.28662109375
1450;559.150390625
1451;559.0142211914062
1452;558.8780517578125
1453;558.7420043945312
1454;558.6058959960938
1455;558.4698486328125
1456;558.3338623046875
1457;558.1978149414062
1458;558.0619506835938
1459;557.9259033203125
1460;557.7901000976562
1461;557.6542358398438
1462;557.5184326171875
1463;557.3826293945312
1464;557.2468872070312
1465;557.1111450195312
1466;556.9754638671875
1467;556.83984375
1468;556.7041015625
1469;556.5684814453125
1470;556.4329223632812
1471;556.2974243164062
1472;556.1619262695312
1473;556.0264282226562
1474;555.8909912109375
1475;555.7555541992188
1476;555.6201782226562
1477;555.4848022460938
1478;555.3495483398438
1479;555.2142333984375
1480;555.0789794921875
1481;554.9437866210938
1482;554.80859375
1483;554.6734008789062
1484;554.5382080078125
1485;554.4031982421875
1486;554.2681274414062
1487;554.1331176757812
1488;553.9981079101562
1489;553.8631591796875
1490;553.7281494140625
1491;553.5933227539062
1492;553.4583740234375
1493;553.3236083984375
1494;553.1886596679688
1495;553.0540161132812
1496;552.9192504882812
1497;552.7844848632812
1498;552.6497802734375
1499;552.51513671875
1500;552.3804931640625
1501;552.2459716796875
1502;552.111328125
1503;551.9768676757812
1504;551.84228515625
1505;551.7078857421875
1506;551.5734252929688
1507;551.43896484375
1508;551.3045654296875
1509;551.1702270507812
1510;551.0359497070312
1511;550.9017333984375
1512;550.7675170898438
1513;550.63330078125
1514;550.4990844726562
1515;550.3649291992188
1516;550.2307739257812
1517;550.0966186523438
1518;549.9627075195312
1519;549.8286743164062
1520;549.6947021484375
1521;549.5607299804688
1522;549.4267578125
1523;549.2928466796875
1524;549.1589965820312
1525;549.0250854492188
1526;548.8912353515625
1527;548.7575073242188
1528;548.6238403320312
1529;548.4901733398438
1530;548.3563842773438
1531;548.2227172851562
1532;548.0890502929688
1533;547.9555053710938
1534;547.8219604492188
1535;547.6884155273438
1536;547.5549926757812
1537;547.42138671875
1538;547.2879638671875
1539;547.1546020507812
1540;547.0211181640625
1541;546.8878173828125
1542;546.7544555664062
1543;546.6211547851562
1544;546.4879150390625
1545;546.3546752929688
1546;546.2214965820312
1547;546.0882568359375
1548;545.9551391601562
1549;545.8220825195312
1550;545.6889038085938
1551;545.5558471679688
1552;545.4229125976562
1553;545.2898559570312
1554;545.1568603515625
1555;545.02392578125
1556;544.8910522460938
1557;544.7581787109375
1558;544.6253051757812
1559;544.4924926757812
1560;544.3596801757812
1561;544.2269287109375
1562;544.09423828125
1563;543.9614868164062
1564;543.8287963867188
1565;543.6962280273438
1566;543.5635986328125
1567;543.4310913085938
1568;543.2985229492188
1569;543.1660766601562
1570;543.0335693359375
1571;542.9011840820312
1572;542.7687377929688
1573;542.6363525390625
1574;542.5040283203125
1575;542.3717651367188
1576;542.2394409179688
1577;542.1072387695312
1578;541.9749755859375
1579;541.8427734375
1580;541.7105712890625
1581;541.5784912109375
1582;541.4463500976562
1583;541.3142700195312
1584;541.1822509765625
1585;541.0502319335938
1586;540.9182739257812
1587;540.7862548828125
1588;540.6543579101562
1589;540.5224609375
1590;540.3905639648438
1591;540.2587280273438
1592;540.1268920898438
1593;539.9951171875
1594;539.8633422851562
1595;539.7315673828125
1596;539.5999145507812
1597;539.4682006835938
1598;539.3365478515625
1599;539.2049560546875
1600;539.0734252929688
1601;538.9418334960938
1602;538.8102416992188
1603;538.6787719726562
1604;538.5473022460938
1605;538.4158935546875
1606;538.2844848632812
1607;538.1530151367188
1608;538.021728515625
1609;537.8903198242188
1610;537.7590942382812
1611;537.6278076171875
1612;537.49658203125
1613;537.3653564453125
1614;537.2341918945312
1615;537.1029663085938
1616;536.9718627929688
1617;536.8408203125
1618;536.709716796875
1619;536.5786743164062
1620;536.4476928710938
1621;536.3167724609375
1622;536.1857299804688
1623;536.0548095703125
1624;535.9238891601562
1625;535.7930908203125
1626;535.6622314453125
1627;535.5314331054688
1628;535.400634765625
1629;535.2698974609375
1630;535.13916015625
1631;535.0084228515625
1632;534.8778076171875
1633;534.7471313476562
1634;534.6165161132812
1635;534.4859619140625
1636;534.3554077148438
1637;534.224853515625
1638;534.0943603515625
1639;533.9639282226562
1640;533.8333740234375
1641;533.7030029296875
1642;533.5726318359375
1643;533.4422607421875
1644;533.3119506835938
1645;533.181640625
1646;533.0513305664062
1647;532.9210815429688
1648;532.7908935546875
1649;532.6607055664062
1650;532.530517578125
1651;532.400390625
1652;532.2703247070312
1653;532.1401977539062
1654;532.0101928710938
1655;531.880126953125
1656;531.7501220703125
1657;531.6201782226562
1658;531.490234375
1659;531.3602905273438
1660;531.23046875
1661;531.1006469726562
1662;530.9707641601562
1663;530.8410034179688
1664;530.7112426757812
1665;530.5814819335938
1666;530.4517822265625
1667;530.3221435546875
1668;530.1924438476562
1669;530.0628662109375
1670;529.9332275390625
1671;529.8036499023438
1672;529.6741333007812
1673;529.5446166992188
1674;529.4151611328125
1675;529.2857055664062
1676;529.15625
1677;529.02685546875
1678;528.8975219726562
1679;528.7681884765625
1680;528.6387939453125
1681;528.5095825195312
1682;528.3803100585938
1683;528.2510375976562
1684;528.1217651367188
1685;527.9927368164062
1686;527.863525390625
1687;527.7344360351562
1688;527.6053466796875
1689;527.4761962890625
1690;527.3472290039062
1691;527.2181396484375
1692;527.0891723632812
1693;526.9602661132812
1694;526.8312377929688
1695;526.7023315429688
1696;526.5735473632812
1697;526.4446411132812
1698;526.3157958984375
1699;526.1870727539062
1700;526.0582275390625
1701;525.9295043945312
1702;525.80078125
1703;525.6720581054688
1704;525.5433959960938
1705;525.4148559570312
1706;525.2861938476562
1707;525.1575927734375
1708;525.029052734375
1709;524.9005126953125
1710;524.7720336914062
1711;524.6435546875
1712;524.5150756835938
1713;524.3865966796875
1714;524.2582397460938
1715;524.1298828125
1716;524.0015258789062
1717;523.873291015625
1718;523.7449951171875
1719;523.61669921875
1720;523.4884643554688
1721;523.3602905273438
1722;523.2320556640625
1723;523.1039428710938
1724;522.975830078125
1725;522.8477172851562
1726;522.7196655273438
1727;522.5916137695312
1728;522.463623046875
1729;522.3356323242188
1730;522.2076416015625
1731;522.0797119140625
1732;521.9517822265625
1733;521.8239135742188
1734;521.6961059570312
1735;521.5682373046875
1736;521.4404907226562
1737;521.3126831054688
1738;521.1849365234375
1739;521.0571899414062
1740;520.9295043945312
1741;520.8018188476562
1742;520.6741943359375
1743;520.5465087890625
1744;520.4189453125
1745;520.2914428710938
1746;520.1638793945312
1747;520.0363159179688
1748;519.9088745117188
1749;519.7814331054688
1750;519.6539916992188
1751;519.5265502929688
1752;519.3992309570312
1753;519.2718505859375
1754;519.14453125
1755;519.0172119140625
1756;518.8899536132812
1757;518.7627563476562
1758;518.6354370117188
1759;518.50830078125
1760;518.3811645507812
1761;518.2540283203125
1762;518.1268920898438
1763;517.9998168945312
1764;517.8727416992188
1765;517.7456665039062
1766;517.6187133789062
1767;517.4917602539062
1768;517.36474609375
1769;517.2378540039062
1770;517.1109008789062
1771;516.9840698242188
1772;516.8572387695312
1773;516.7303466796875
1774;516.6035766601562
1775;516.4767456054688
1776;516.3500366210938
1777;516.2233276367188
1778;516.0966796875
1779;515.9700317382812
1780;515.8433837890625
1781;515.7167358398438
1782;515.5902099609375
1783;515.463623046875
1784;515.3370971679688
1785;515.2105712890625
1786;515.0841674804688
1787;514.9577026367188
1788;514.8313598632812
1789;514.7049560546875
1790;514.5785522460938
1791;514.4522094726562
1792;514.3258666992188
1793;514.1995849609375
1794;514.0733642578125
1795;513.9470825195312
1796;513.8209228515625
1797;513.6947631835938
1798;513.568603515625
1799;513.4424438476562
1800;513.3163452148438
1801;513.1902465820312
1802;513.0642700195312
1803;512.9381713867188
1804;512.8121337890625
1805;512.6862182617188
1806;512.5602416992188
1807;512.4343872070312
1808;512.3084716796875
1809;512.1826171875
1810;512.0567626953125
1811;511.9309387207031
1812;511.80517578125
1813;511.6794128417969
1814;511.55364990234375
1815;511.4279479980469
1816;511.30224609375
1817;511.1765441894531
1818;511.0509338378906
1819;510.92529296875
1820;510.79974365234375
1821;510.6741638183594
1822;510.5486145019531
1823;510.423095703125
1824;510.2976379394531
1825;510.1721496582031
1826;510.0467224121094
1827;509.92132568359375
1828;509.7958984375
1829;509.6705627441406
1830;509.5452575683594
1831;509.419921875
1832;509.2946472167969
1833;509.16937255859375
1834;509.0441589355469
1835;508.9189453125
1836;508.79376220703125
1837;508.6686096191406
1838;508.54345703125
1839;508.41839599609375
1840;508.2933044433594
1841;508.1682434082031
1842;508.0432434082031
1843;507.918212890625
1844;507.7932434082031
1845;507.6683044433594
1846;507.54339599609375
1847;507.41851806640625
1848;507.2936096191406
1849;507.1687927246094
1850;507.0439758300781
1851;506.919189453125
1852;506.7944641113281
1853;506.669677734375
1854;506.5449523925781
1855;506.4202575683594
1856;506.2956237792969
1857;506.1709899902344
1858;506.04638671875
1859;505.9217834472656
1860;505.7972106933594
1861;505.6726379394531
1862;505.5481262207031
1863;505.4236755371094
1864;505.2991638183594
1865;505.1748046875
1866;505.05035400390625
1867;504.92596435546875
1868;504.8016052246094
1869;504.6772766113281
1870;504.552978515625
1871;504.4287109375
1872;504.3044738769531
1873;504.18023681640625
1874;504.0559997558594
1875;503.9318542480469
1876;503.80767822265625
1877;503.68353271484375
1878;503.5594787597656
1879;503.4353332519531
1880;503.3113098144531
1881;503.1872863769531
1882;503.0632629394531
1883;502.9393005371094
1884;502.81536865234375
1885;502.69140625
1886;502.5675354003906
1887;502.4436340332031
1888;502.3197937011719
1889;502.1959533691406
1890;502.0721130371094
1891;501.9483947753906
1892;501.8246154785156
1893;501.70086669921875
1894;501.5771484375
1895;501.4534606933594
1896;501.329833984375
1897;501.2061462402344
1898;501.08251953125
1899;500.958984375
1900;500.83538818359375
1901;500.7118835449219
1902;500.58831787109375
1903;500.4648742675781
1904;500.34136962890625
1905;500.2179870605469
1906;500.0945129394531
1907;499.97113037109375
1908;499.8478088378906
1909;499.7243957519531
1910;499.60113525390625
1911;499.4778137207031
1912;499.3545227050781
1913;499.2312927246094
1914;499.1080627441406
1915;498.9848937988281
1916;498.8617248535156
1917;498.7385559082031
1918;498.6154479980469
1919;498.4922790527344
1920;498.36920166015625
1921;498.2461853027344
1922;498.1231994628906
1923;498.0001525878906
1924;497.8771667480469
1925;497.7542419433594
1926;497.63128662109375
1927;497.50836181640625
1928;497.38555908203125
1929;497.2626647949219
1930;497.1398620605469
1931;497.01708984375
1932;496.8942565917969
1933;496.771484375
1934;496.6487731933594
1935;496.5260314941406
1936;496.4033203125
1937;496.28070068359375
1938;496.1581115722656
1939;496.0354309082031
1940;495.9128723144531
1941;495.790283203125
1942;495.667724609375
1943;495.5451965332031
1944;495.4226989746094
1945;495.30029296875
1946;495.1778259277344
1947;495.0554504394531
1948;494.93304443359375
1949;494.81060791015625
1950;494.6882629394531
1951;494.56597900390625
1952;494.44366455078125
1953;494.3214416503906
1954;494.1991882324219
1955;494.0769348144531
1956;493.9546813964844
1957;493.83251953125
1958;493.71038818359375
1959;493.58831787109375
1960;493.4661560058594
1961;493.3440856933594
1962;493.2220153808594
1963;493.0999450683594
1964;492.9779357910156
1965;492.85595703125
1966;492.73394775390625
1967;492.6120300292969
1968;492.49017333984375
1969;492.3681945800781
1970;492.2463684082031
1971;492.1245422363281
1972;492.0027160644531
1973;491.88092041015625
1974;491.75909423828125
1975;491.6373596191406
1976;491.5156555175781
1977;491.39398193359375
1978;491.27227783203125
1979;491.1506652832031
1980;491.0290222167969
1981;490.9074401855469
1982;490.7858581542969
1983;490.6642761230469
1984;490.5427551269531
1985;490.4212951660156
1986;490.2997741699219
1987;490.17828369140625
1988;490.05682373046875
1989;489.9353942871094
1990;489.81402587890625
1991;489.6926574707031
1992;489.57135009765625
1993;489.4500427246094
1994;489.3287658691406
1995;489.2074890136719
1996;489.0862121582031
1997;488.9650573730469
1998;488.84381103515625
1999;488.72265625
