;loss
0;899.4048461914062
1;899.18408203125
2;898.9637451171875
3;898.7636108398438
4;898.5574951171875
5;898.3477172851562
6;898.1290283203125
7;897.9108276367188
8;897.6930541992188
9;897.4758911132812
10;897.2589721679688
11;897.0426635742188
12;896.8268432617188
13;896.6107788085938
14;896.3958740234375
15;896.18017578125
16;895.9662475585938
17;895.7528076171875
18;895.5398559570312
19;895.3251953125
20;895.1110229492188
21;894.8973388671875
22;894.6862182617188
23;894.4733276367188
24;894.2633666992188
25;894.0513305664062
26;893.83984375
27;893.6287841796875
28;893.4183349609375
29;893.2084350585938
30;892.9989624023438
31;892.7899169921875
32;892.5839233398438
33;892.3759765625
34;892.1708984375
35;891.9639892578125
36;891.7576904296875
37;891.5540161132812
38;891.3486938476562
39;891.1460571289062
40;890.94384765625
41;890.7399291992188
42;890.5365600585938
43;890.3358154296875
44;890.1353759765625
45;889.9334716796875
46;889.7319946289062
47;889.5330810546875
48;889.3324584960938
49;889.1342163085938
50;888.9346923828125
51;888.7374267578125
52;888.5386352539062
53;888.3405151367188
54;888.1427001953125
55;887.9453125
56;887.7484130859375
57;887.5518188476562
58;887.3556518554688
59;887.1598510742188
60;886.9644775390625
61;886.76953125
62;886.5762939453125
63;886.3820190429688
64;886.1880493164062
65;885.9957885742188
66;885.8024291992188
67;885.61083984375
68;885.4182739257812
69;885.2258911132812
70;885.0349731445312
71;884.8430786132812
72;884.6527709960938
73;884.4625854492188
74;884.2726440429688
75;884.0829467773438
76;883.8934326171875
77;883.7028198242188
78;883.5125122070312
79;883.3233642578125
80;883.13330078125
81;882.943359375
82;882.7547607421875
83;882.5650024414062
84;882.37646484375
85;882.1879272460938
86;881.9984741210938
87;881.81005859375
88;881.6216430664062
89;881.4322509765625
90;881.2428588867188
91;881.0545043945312
92;880.8649291992188
93;880.6754760742188
94;880.4868774414062
95;880.2971801757812
96;880.1083984375
97;879.9185180664062
98;879.728515625
99;879.5391845703125
100;879.3489379882812
101;879.1592407226562
102;878.9685668945312
103;878.7774658203125
104;878.5872192382812
105;878.3956909179688
106;878.2047729492188
107;878.0126953125
108;877.8211669921875
109;877.6292724609375
110;877.4361572265625
111;877.2435913085938
112;877.0496826171875
113;876.8561401367188
114;876.6622314453125
115;876.4678955078125
116;876.2730102539062
117;876.07763671875
118;875.8809814453125
119;875.6845703125
120;875.4868774414062
121;875.2891845703125
122;875.09033203125
123;874.8907470703125
124;874.6914672851562
125;874.4915161132812
126;874.2906494140625
127;874.0892944335938
128;873.8865356445312
129;873.6836547851562
130;873.4794311523438
131;873.2750854492188
132;873.0700073242188
133;872.8634643554688
134;872.6568603515625
135;872.4494018554688
136;872.2410888671875
137;872.0319213867188
138;871.8219604492188
139;871.6110229492188
140;871.3992919921875
141;871.1866455078125
142;870.9730224609375
143;870.7584838867188
144;870.5430908203125
145;870.3268432617188
146;870.1096801757812
147;869.8914184570312
148;869.6715087890625
149;869.4513549804688
150;869.2295532226562
151;869.00732421875
152;868.7842407226562
153;868.5602416992188
154;868.3372192382812
155;868.1133422851562
156;867.8878784179688
157;867.66162109375
158;867.4349975585938
159;867.2069091796875
160;866.978515625
161;866.7493286132812
162;866.5191040039062
163;866.2879638671875
164;866.0559692382812
165;865.8229370117188
166;865.5890502929688
167;865.3541870117188
168;865.1185913085938
169;864.8811645507812
170;864.6428833007812
171;864.404296875
172;864.1641845703125
173;863.9230346679688
174;863.6810913085938
175;863.4380493164062
176;863.1942138671875
177;862.9493408203125
178;862.7041625976562
179;862.4575805664062
180;862.2099609375
181;861.9613647460938
182;861.7125244140625
183;861.4622192382812
184;861.2115478515625
185;860.9593505859375
186;860.7063598632812
187;860.4522705078125
188;860.1973876953125
189;859.9415893554688
190;859.6849365234375
191;859.4278564453125
192;859.1700439453125
193;858.9111938476562
194;858.6514892578125
195;858.3909912109375
196;858.1294555664062
197;857.8666381835938
198;857.6028442382812
199;857.3388671875
200;857.07421875
201;856.8088989257812
202;856.5425415039062
203;856.275390625
204;856.0075073242188
205;855.73876953125
206;855.46923828125
207;855.1982421875
208;854.9270629882812
209;854.6549682617188
210;854.3822021484375
211;854.1084594726562
212;853.8340454101562
213;853.5587158203125
214;853.2821044921875
215;853.0065307617188
216;852.7313232421875
217;852.4560546875
218;852.1799926757812
219;851.9029541015625
220;851.6258544921875
221;851.3482055664062
222;851.0693359375
223;850.7899169921875
224;850.509765625
225;850.2291870117188
226;849.9479370117188
227;849.6665649414062
228;849.3841552734375
229;849.1010131835938
230;848.8173217773438
231;848.5336303710938
232;848.2487182617188
233;847.9637451171875
234;847.6775512695312
235;847.3909301757812
236;847.1040649414062
237;846.8167114257812
238;846.5280151367188
239;846.2395629882812
240;845.9502563476562
241;845.6598510742188
242;845.3688354492188
243;845.0778198242188
244;844.7861328125
245;844.4937133789062
246;844.2007446289062
247;843.9072265625
248;843.6129760742188
249;843.3177490234375
250;843.0217895507812
251;842.7251586914062
252;842.4279174804688
253;842.1305541992188
254;841.8322143554688
255;841.533203125
256;841.2335205078125
257;840.9332885742188
258;840.6325073242188
259;840.3314819335938
260;840.0299072265625
261;839.7278442382812
262;839.4251098632812
263;839.1211547851562
264;838.8170776367188
265;838.5120239257812
266;838.2063598632812
267;837.9000244140625
268;837.59375
269;837.28759765625
270;836.9818725585938
271;836.6751098632812
272;836.3678588867188
273;836.0603637695312
274;835.7522583007812
275;835.4434814453125
276;835.1348876953125
277;834.8258666992188
278;834.5162963867188
279;834.2063598632812
280;833.8952026367188
281;833.5841064453125
282;833.27197265625
283;832.9593505859375
284;832.6460571289062
285;832.3328857421875
286;832.0189819335938
287;831.7042236328125
288;831.3889770507812
289;831.0731201171875
290;830.7571411132812
291;830.4401245117188
292;830.1231079101562
293;829.8114013671875
294;829.5022583007812
295;829.1932373046875
296;828.8842163085938
297;828.5752563476562
298;828.2662353515625
299;827.9571533203125
300;827.6480102539062
301;827.3381958007812
302;827.0283203125
303;826.7181396484375
304;826.4077758789062
305;826.0972290039062
306;825.7868041992188
307;825.4757080078125
308;825.1641845703125
309;824.8529663085938
310;824.5408935546875
311;824.228515625
312;823.9163208007812
313;823.6036376953125
314;823.2901611328125
315;822.9768676757812
316;822.6632080078125
317;822.3490600585938
318;822.0341796875
319;821.7189331054688
320;821.4037475585938
321;821.0877685546875
322;820.7717895507812
323;820.4553833007812
324;820.1386108398438
325;819.8214111328125
326;819.50341796875
327;819.1854248046875
328;818.8670654296875
329;818.5482788085938
330;818.2290649414062
331;817.9091796875
332;817.5888671875
333;817.2684936523438
334;816.9478149414062
335;816.6266479492188
336;816.3052368164062
337;815.9829711914062
338;815.6602783203125
339;815.3373413085938
340;815.0139770507812
341;814.6901245117188
342;814.3663940429688
343;814.0423583984375
344;813.7174682617188
345;813.3922729492188
346;813.0667114257812
347;812.7407836914062
348;812.4149780273438
349;812.08837890625
350;811.7618408203125
351;811.4345092773438
352;811.1068725585938
353;810.7788696289062
354;810.451171875
355;810.1237182617188
356;809.7959594726562
357;809.4679565429688
358;809.1397705078125
359;808.8112182617188
360;808.4820556640625
361;808.1526489257812
362;807.8229370117188
363;807.4930419921875
364;807.1627807617188
365;806.8323974609375
366;806.5016479492188
367;806.1707763671875
368;805.83984375
369;805.5084838867188
370;805.1771850585938
371;804.8456420898438
372;804.5135498046875
373;804.1812133789062
374;803.8486938476562
375;803.5162963867188
376;803.1834106445312
377;802.8502197265625
378;802.5172729492188
379;802.1837158203125
380;801.8500366210938
381;801.5166015625
382;801.1829223632812
383;800.8487548828125
384;800.5145263671875
385;800.1801147460938
386;799.8455810546875
387;799.5109252929688
388;799.1762084960938
389;798.8416137695312
390;798.5065307617188
391;798.1717529296875
392;797.8367919921875
393;797.50146484375
394;797.1663208007812
395;796.8310546875
396;796.4954223632812
397;796.15966796875
398;795.8237915039062
399;795.4882202148438
400;795.1526489257812
401;794.8165283203125
402;794.4805297851562
403;794.1444091796875
404;793.8081665039062
405;793.4719848632812
406;793.1356811523438
407;792.7996826171875
408;792.4633178710938
409;792.126953125
410;791.79052734375
411;791.4544067382812
412;791.1182250976562
413;790.7817993164062
414;790.4456176757812
415;790.109375
416;789.7728881835938
417;789.4364624023438
418;789.1000366210938
419;788.7636108398438
420;788.42724609375
421;788.0909423828125
422;787.7551879882812
423;787.4192504882812
424;787.0833129882812
425;786.7474365234375
426;786.4176025390625
427;786.0914306640625
428;785.7660522460938
429;785.44091796875
430;785.1163940429688
431;784.7923583984375
432;784.4688110351562
433;784.1456298828125
434;783.8232421875
435;783.5011596679688
436;783.1795043945312
437;782.8580932617188
438;782.5368041992188
439;782.2161254882812
440;781.8953247070312
441;781.5747680664062
442;781.2545776367188
443;780.9346923828125
444;780.6149291992188
445;780.29541015625
446;779.9761352539062
447;779.6571044921875
448;779.3381958007812
449;779.0194702148438
450;778.7012329101562
451;778.3829345703125
452;778.0647583007812
453;777.7467651367188
454;777.4285888671875
455;777.1106567382812
456;776.7928466796875
457;776.4749145507812
458;776.1572265625
459;775.8397216796875
460;775.5223388671875
461;775.2054443359375
462;774.8890380859375
463;774.5725708007812
464;774.2562866210938
465;773.9401245117188
466;773.6241455078125
467;773.3086547851562
468;772.9932861328125
469;772.6783447265625
470;772.3662719726562
471;772.0614013671875
472;771.7576293945312
473;771.4544677734375
474;771.1517333984375
475;770.8494873046875
476;770.5480346679688
477;770.2471313476562
478;769.9463500976562
479;769.6460571289062
480;769.3463745117188
481;769.0468139648438
482;768.7477416992188
483;768.4490356445312
484;768.1505126953125
485;767.8524169921875
486;767.5545043945312
487;767.2567749023438
488;766.9600830078125
489;766.6644897460938
490;766.3690795898438
491;766.0739135742188
492;765.7791137695312
493;765.4843139648438
494;765.1896362304688
495;764.8955688476562
496;764.6013793945312
497;764.3076171875
498;764.0140991210938
499;763.7206420898438
500;763.4273681640625
501;763.1343383789062
502;762.8414306640625
503;762.5487060546875
504;762.2559204101562
505;761.9632568359375
506;761.6705932617188
507;761.3812866210938
508;761.0923461914062
509;760.8035278320312
510;760.5151977539062
511;760.2271728515625
512;759.9392700195312
513;759.6517333984375
514;759.3644409179688
515;759.0774536132812
516;758.79052734375
517;758.5037231445312
518;758.2169189453125
519;757.9303588867188
520;757.6441040039062
521;757.3579711914062
522;757.0719604492188
523;756.7862548828125
524;756.5004272460938
525;756.2147216796875
526;755.9292602539062
527;755.6439819335938
528;755.3588256835938
529;755.07373046875
530;754.7886962890625
531;754.5036010742188
532;754.2188720703125
533;753.93408203125
534;753.6492919921875
535;753.3644409179688
536;753.0797729492188
537;752.7953491210938
538;752.5110473632812
539;752.2266235351562
540;751.9422607421875
541;751.6580810546875
542;751.3735961914062
543;751.0892944335938
544;750.80517578125
545;750.5211791992188
546;750.2369384765625
547;749.9526977539062
548;749.6683959960938
549;749.3840942382812
550;749.0999145507812
551;748.8158569335938
552;748.53173828125
553;748.2477416992188
554;747.9635620117188
555;747.6793212890625
556;747.3953857421875
557;747.1112670898438
558;746.8271484375
559;746.5432739257812
560;746.2593994140625
561;745.9754638671875
562;745.69140625
563;745.4075317382812
564;745.1237182617188
565;744.8401489257812
566;744.556640625
567;744.2730712890625
568;743.9896240234375
569;743.7060546875
570;743.4228515625
571;743.1395874023438
572;742.8563842773438
573;742.5733032226562
574;742.2902221679688
575;742.0072631835938
576;741.72412109375
577;741.4411010742188
578;741.158203125
579;740.8753051757812
580;740.5922241210938
581;740.3092651367188
582;740.0263061523438
583;739.7435913085938
584;739.4609375
585;739.1780395507812
586;738.8952026367188
587;738.6124877929688
588;738.3297729492188
589;738.04736328125
590;737.7648315429688
591;737.4824829101562
592;737.1998901367188
593;736.9175415039062
594;736.6351928710938
595;736.3527221679688
596;736.0703125
597;735.7880859375
598;735.5057983398438
599;735.2235107421875
600;734.9412841796875
601;734.6589965820312
602;734.376953125
603;734.0948486328125
604;733.8128051757812
605;733.5306396484375
606;733.2488403320312
607;732.9669799804688
608;732.68505859375
609;732.4033203125
610;732.1215209960938
611;731.8396606445312
612;731.5596923828125
613;731.2802734375
614;731.0008544921875
615;730.7216796875
616;730.4437866210938
617;730.1700439453125
618;729.8968505859375
619;729.6239624023438
620;729.3512573242188
621;729.0791625976562
622;728.8073120117188
623;728.5358276367188
624;728.2644653320312
625;727.9932861328125
626;727.7225341796875
627;727.45263671875
628;727.1830444335938
629;726.9135131835938
630;726.6439819335938
631;726.3745727539062
632;726.1054077148438
633;725.8362426757812
634;725.5669555664062
635;725.2978515625
636;725.0287475585938
637;724.7596435546875
638;724.4905395507812
639;724.2216796875
640;723.9528198242188
641;723.6840209960938
642;723.4152221679688
643;723.1463623046875
644;722.8775024414062
645;722.6088256835938
646;722.3406982421875
647;722.0725708007812
648;721.8045654296875
649;721.5365600585938
650;721.2685546875
651;721.0004272460938
652;720.732421875
653;720.4644165039062
654;720.1964721679688
655;719.9287109375
656;719.6608276367188
657;719.3930053710938
658;719.1253051757812
659;718.8575439453125
660;718.58984375
661;718.322265625
662;718.0549926757812
663;717.7876586914062
664;717.5205078125
665;717.2534790039062
666;716.9866943359375
667;716.7199096679688
668;716.4531860351562
669;716.1865844726562
670;715.9202270507812
671;715.6539306640625
672;715.3878173828125
673;715.1216430664062
674;714.8557739257812
675;714.5899047851562
676;714.3242797851562
677;714.0587158203125
678;713.7932739257812
679;713.5277709960938
680;713.2625732421875
681;712.9972534179688
682;712.7322387695312
683;712.4673461914062
684;712.2024536132812
685;711.9376831054688
686;711.6729736328125
687;711.4085083007812
688;711.1441040039062
689;710.8799438476562
690;710.6159057617188
691;710.3519897460938
692;710.0883178710938
693;709.8246459960938
694;709.5610961914062
695;709.2975463867188
696;709.0344848632812
697;708.7713623046875
698;708.5083618164062
699;708.2456665039062
700;707.9828491210938
701;707.7202758789062
702;707.4579467773438
703;707.19580078125
704;706.9338989257812
705;706.6719970703125
706;706.4105224609375
707;706.1491088867188
708;705.8878173828125
709;705.6268310546875
710;705.3659057617188
711;705.1051635742188
712;704.8446044921875
713;704.5843505859375
714;704.3240966796875
715;704.0640869140625
716;703.8042602539062
717;703.5446166992188
718;703.2852783203125
719;703.0260620117188
720;702.76708984375
721;702.5083618164062
722;702.2498779296875
723;701.9915771484375
724;701.7335205078125
725;701.4755859375
726;701.2182006835938
727;700.9613037109375
728;700.7047729492188
729;700.4489135742188
730;700.1932983398438
731;699.9378662109375
732;699.6829223632812
733;699.4281005859375
734;699.1735229492188
735;698.9197998046875
736;698.6666259765625
737;698.4137573242188
738;698.1611328125
739;697.9088745117188
740;697.6571655273438
741;697.40625
742;697.15576171875
743;696.9055786132812
744;696.6557006835938
745;696.40625
746;696.1571044921875
747;695.9082641601562
748;695.6604614257812
749;695.4138793945312
750;695.1678466796875
751;694.9221801757812
752;694.6769409179688
753;694.4320068359375
754;694.1874389648438
755;693.943359375
756;693.6998291015625
757;693.4569091796875
758;693.2144165039062
759;692.9722290039062
760;692.7305297851562
761;692.4891967773438
762;692.2483520507812
763;692.0078735351562
764;691.7677001953125
765;691.5280151367188
766;691.2886352539062
767;691.0494995117188
768;690.8108520507812
769;690.5724487304688
770;690.3346557617188
771;690.0972290039062
772;689.8603515625
773;689.6239013671875
774;689.3876953125
775;689.1519165039062
776;688.9164428710938
777;688.6812744140625
778;688.4464721679688
779;688.2120361328125
780;687.97802734375
781;687.7446899414062
782;687.5118408203125
783;687.2794799804688
784;687.0477294921875
785;686.8162231445312
786;686.5853271484375
787;686.35498046875
788;686.125
789;685.8953857421875
790;685.6660766601562
791;685.4371948242188
792;685.2086791992188
793;684.9805297851562
794;684.7527465820312
795;684.5255126953125
796;684.298828125
797;684.0725708007812
798;683.8466796875
799;683.6211547851562
800;683.3959350585938
801;683.1712646484375
802;682.94677734375
803;682.7227172851562
804;682.4990234375
805;682.2756958007812
806;682.052734375
807;681.8300170898438
808;681.6077270507812
809;681.3856201171875
810;681.1638793945312
811;680.9425048828125
812;680.7214965820312
813;680.5007934570312
814;680.2803344726562
815;680.0604248046875
816;679.8406982421875
817;679.6212158203125
818;679.40234375
819;679.1836547851562
820;678.9655151367188
821;678.7479858398438
822;678.5308227539062
823;678.3139038085938
824;678.0975952148438
825;677.8815307617188
826;677.6659545898438
827;677.4506225585938
828;677.2357788085938
829;677.0213623046875
830;676.8071899414062
831;676.5935668945312
832;676.3803100585938
833;676.1672973632812
834;675.9547119140625
835;675.7427368164062
836;675.5313720703125
837;675.3204345703125
838;675.1099243164062
839;674.8997192382812
840;674.6898803710938
841;674.4804077148438
842;674.2710571289062
843;674.0621948242188
844;673.8536376953125
845;673.6455078125
846;673.4376220703125
847;673.2303466796875
848;673.0238647460938
849;672.8176879882812
850;672.6118774414062
851;672.40625
852;672.2012329101562
853;671.9965209960938
854;671.7921752929688
855;671.5881958007812
856;671.3844604492188
857;671.1810913085938
858;670.9780883789062
859;670.775390625
860;670.5729370117188
861;670.3709106445312
862;670.1690063476562
863;669.9673461914062
864;669.76611328125
865;669.5650634765625
866;669.3643798828125
867;669.1640014648438
868;668.9638671875
869;668.7639770507812
870;668.564453125
871;668.3651123046875
872;668.1660766601562
873;667.9673461914062
874;667.7689208984375
875;667.5707397460938
876;667.3729248046875
877;667.1758422851562
878;666.9788818359375
879;666.7822875976562
880;666.5859375
881;666.3897705078125
882;666.1940307617188
883;665.99853515625
884;665.80322265625
885;665.6082763671875
886;665.4135131835938
887;665.2190551757812
888;665.02490234375
889;664.8311767578125
890;664.6375732421875
891;664.4442138671875
892;664.251953125
893;664.0599975585938
894;663.8684692382812
895;663.6768798828125
896;663.4857177734375
897;663.2947998046875
898;663.1039428710938
899;662.9135131835938
900;662.7232055664062
901;662.5331420898438
902;662.3432006835938
903;662.1536254882812
904;661.9640502929688
905;661.77490234375
906;661.5858764648438
907;661.3971557617188
908;661.2088012695312
909;661.0205078125
910;660.8324584960938
911;660.64453125
912;660.4568481445312
913;660.2692260742188
914;660.0819702148438
915;659.8949584960938
916;659.7080688476562
917;659.5213623046875
918;659.3349609375
919;659.1486206054688
920;658.9624633789062
921;658.7764892578125
922;658.5907592773438
923;658.4051513671875
924;658.2198486328125
925;658.0345458984375
926;657.8495483398438
927;657.6646118164062
928;657.47998046875
929;657.29541015625
930;657.1109619140625
931;656.9268798828125
932;656.7427978515625
933;656.5590209960938
934;656.3754272460938
935;656.1919555664062
936;656.0086669921875
937;655.8255004882812
938;655.642578125
939;655.4598388671875
940;655.2772827148438
941;655.0948486328125
942;654.91259765625
943;654.73046875
944;654.5486450195312
945;654.3668212890625
946;654.1851196289062
947;654.0037231445312
948;653.8223876953125
949;653.6411743164062
950;653.4601440429688
951;653.2792358398438
952;653.0986328125
953;652.9180297851562
954;652.7377319335938
955;652.5576171875
956;652.3775634765625
957;652.19775390625
958;652.0181274414062
959;651.8385620117188
960;651.6591796875
961;651.4799194335938
962;651.30078125
963;651.1217651367188
964;650.9429321289062
965;650.7642211914062
966;650.5856323242188
967;650.4072265625
968;650.2289428710938
969;650.0507202148438
970;649.8726806640625
971;649.69482421875
972;649.51708984375
973;649.3394165039062
974;649.1619262695312
975;648.9844970703125
976;648.8072509765625
977;648.6302490234375
978;648.4532470703125
979;648.2765502929688
980;648.0999145507812
981;647.9234008789062
982;647.7470092773438
983;647.5707397460938
984;647.3946533203125
985;647.2186889648438
986;647.0429077148438
987;646.8672485351562
988;646.6917724609375
989;646.5164184570312
990;646.3411254882812
991;646.166015625
992;645.9910888671875
993;645.8162231445312
994;645.6414184570312
995;645.466796875
996;645.2921752929688
997;645.1177978515625
998;644.9434814453125
999;644.7693481445312
1000;644.59521484375
1001;644.4212646484375
1002;644.2474365234375
1003;644.0736694335938
1004;643.9000854492188
1005;643.7266845703125
1006;643.5537109375
1007;643.380859375
1008;643.2081298828125
1009;643.0354614257812
1010;642.8629760742188
1011;642.6906127929688
1012;642.5183715820312
1013;642.3462524414062
1014;642.1741943359375
1015;642.0023803710938
1016;641.8306274414062
1017;641.6589965820312
1018;641.4874267578125
1019;641.3159790039062
1020;641.1446533203125
1021;640.9735107421875
1022;640.8023071289062
1023;640.6314086914062
1024;640.4605102539062
1025;640.2897338867188
1026;640.119140625
1027;639.9486694335938
1028;639.7783203125
1029;639.6080322265625
1030;639.4379272460938
1031;639.2680053710938
1032;639.0980834960938
1033;638.9282836914062
1034;638.7586059570312
1035;638.5889892578125
1036;638.4194946289062
1037;638.2500610351562
1038;638.0806884765625
1039;637.9115600585938
1040;637.7424926757812
1041;637.5734252929688
1042;637.4046020507812
1043;637.2357788085938
1044;637.0670776367188
1045;636.8985595703125
1046;636.7300415039062
1047;636.5618286132812
1048;636.3935546875
1049;636.2254028320312
1050;636.0573120117188
1051;635.8893432617188
1052;635.7215576171875
1053;635.5537719726562
1054;635.3861694335938
1055;635.2186279296875
1056;635.0512084960938
1057;634.8838500976562
1058;634.7166748046875
1059;634.5494384765625
1060;634.3823852539062
1061;634.2153930664062
1062;634.0485229492188
1063;633.8817749023438
1064;633.7150268554688
1065;633.5484008789062
1066;633.3818969726562
1067;633.2153930664062
1068;633.0490112304688
1069;632.8828125
1070;632.7166137695312
1071;632.5504150390625
1072;632.3843994140625
1073;632.2184448242188
1074;632.0526123046875
1075;631.8868408203125
1076;631.7212524414062
1077;631.5556030273438
1078;631.3900756835938
1079;631.2246704101562
1080;631.0592651367188
1081;630.8939819335938
1082;630.7288818359375
1083;630.5638427734375
1084;630.3988037109375
1085;630.2338256835938
1086;630.0690307617188
1087;629.904296875
1088;629.7395629882812
1089;629.5750122070312
1090;629.4105224609375
1091;629.2460327148438
1092;629.0817260742188
1093;628.91748046875
1094;628.7532958984375
1095;628.5892333984375
1096;628.4251708984375
1097;628.2612915039062
1098;628.0973510742188
1099;627.93359375
1100;627.7699584960938
1101;627.6063232421875
1102;627.4428100585938
1103;627.279296875
1104;627.1159057617188
1105;626.95263671875
1106;626.7894287109375
1107;626.6264038085938
1108;626.4632568359375
1109;626.3003540039062
1110;626.1373901367188
1111;625.974609375
1112;625.8119506835938
1113;625.6492919921875
1114;625.4867553710938
1115;625.32421875
1116;625.1618041992188
1117;624.9994506835938
1118;624.8372192382812
1119;624.6749877929688
1120;624.5128173828125
1121;624.3508911132812
1122;624.1889038085938
1123;624.0270385742188
1124;623.8652954101562
1125;623.7035522460938
1126;623.5419311523438
1127;623.3803100585938
1128;623.2188110351562
1129;623.0574340820312
1130;622.89599609375
1131;622.7347412109375
1132;622.5734252929688
1133;622.4122924804688
1134;622.2512817382812
1135;622.09033203125
1136;621.9293823242188
1137;621.7685546875
1138;621.6077880859375
1139;621.4470825195312
1140;621.2864379882812
1141;621.1258544921875
1142;620.9653930664062
1143;620.8050537109375
1144;620.6446533203125
1145;620.4844360351562
1146;620.3243408203125
1147;620.1641845703125
1148;620.0042114257812
1149;619.8441772460938
1150;619.6843872070312
1151;619.5245361328125
1152;619.3648071289062
1153;619.2051391601562
1154;619.0455322265625
1155;618.8861083984375
1156;618.7266235351562
1157;618.5672607421875
1158;618.4080200195312
1159;618.2487182617188
1160;618.0895385742188
1161;617.9304809570312
1162;617.7714233398438
1163;617.6124267578125
1164;617.4535522460938
1165;617.2947998046875
1166;617.1360473632812
1167;616.9773559570312
1168;616.8187255859375
1169;616.66015625
1170;616.5016479492188
1171;616.3433227539062
1172;616.18505859375
1173;616.0267944335938
1174;615.86865234375
1175;615.7105102539062
1176;615.5524291992188
1177;615.39453125
1178;615.2366333007812
1179;615.0787353515625
1180;614.9210205078125
1181;614.7633056640625
1182;614.6056518554688
1183;614.4481201171875
1184;614.29052734375
1185;614.1331176757812
1186;613.9756469726562
1187;613.818359375
1188;613.6610717773438
1189;613.50390625
1190;613.3467407226562
1191;613.1897583007812
1192;613.03271484375
1193;612.8757934570312
1194;612.7188720703125
1195;612.5621337890625
1196;612.4053344726562
1197;612.2486572265625
1198;612.0921020507812
1199;611.9354858398438
1200;611.7789916992188
1201;611.6226196289062
1202;611.4662475585938
1203;611.3099975585938
1204;611.1537475585938
1205;610.99755859375
1206;610.8414306640625
1207;610.6854858398438
1208;610.5294189453125
1209;610.37353515625
1210;610.2176513671875
1211;610.0619506835938
1212;609.9061889648438
1213;609.7505493164062
1214;609.5948486328125
1215;609.4393310546875
1216;609.2838134765625
1217;609.1283569335938
1218;608.9730224609375
1219;608.8177490234375
1220;608.6624145507812
1221;608.5072631835938
1222;608.3521728515625
1223;608.1971435546875
1224;608.0421142578125
1225;607.8871459960938
1226;607.7322998046875
1227;607.5774536132812
1228;607.4226684570312
1229;607.2680053710938
1230;607.11328125
1231;606.9588012695312
1232;606.8042602539062
1233;606.6498413085938
1234;606.4954223632812
1235;606.3410034179688
1236;606.1867065429688
1237;606.0324096679688
1238;605.8782958984375
1239;605.72412109375
1240;605.5700073242188
1241;605.416015625
1242;605.2621459960938
1243;605.1082763671875
1244;604.9544067382812
1245;604.8006591796875
1246;604.6468505859375
1247;604.4931640625
1248;604.3396606445312
1249;604.18603515625
1250;604.0325317382812
1251;603.8792114257812
1252;603.7257690429688
1253;603.5725708007812
1254;603.4192504882812
1255;603.2660522460938
1256;603.1128540039062
1257;602.9598388671875
1258;602.8067626953125
1259;602.65380859375
1260;602.5009155273438
1261;602.3480834960938
1262;602.1952514648438
1263;602.04248046875
1264;601.8898315429688
1265;601.7372436523438
1266;601.5845947265625
1267;601.43212890625
1268;601.2797241210938
1269;601.1273193359375
1270;600.9750366210938
1271;600.8226928710938
1272;600.6704711914062
1273;600.5183715820312
1274;600.3662109375
1275;600.2141723632812
1276;600.0620727539062
1277;599.91015625
1278;599.7582397460938
1279;599.6064453125
1280;599.4546508789062
1281;599.3029174804688
1282;599.1512451171875
1283;598.9995727539062
1284;598.8480834960938
1285;598.6965942382812
1286;598.5450439453125
1287;598.3936767578125
1288;598.2423095703125
1289;598.0909423828125
1290;597.9397583007812
1291;597.7885131835938
1292;597.6373901367188
1293;597.486328125
1294;597.3352661132812
1295;597.1842041015625
1296;597.0333251953125
1297;596.8824462890625
1298;596.7315673828125
1299;596.5809326171875
1300;596.4301147460938
1301;596.2794799804688
1302;596.12890625
1303;595.9783325195312
1304;595.8277587890625
1305;595.6773681640625
1306;595.5269165039062
1307;595.3765869140625
1308;595.2262573242188
1309;595.0760498046875
1310;594.9258422851562
1311;594.7757568359375
1312;594.6256713867188
1313;594.4756469726562
1314;594.32568359375
1315;594.17578125
1316;594.0258178710938
1317;593.8760375976562
1318;593.7262573242188
1319;593.5765991210938
1320;593.4268798828125
1321;593.2772827148438
1322;593.1276245117188
1323;592.9780883789062
1324;592.8286743164062
1325;592.6792602539062
1326;592.5298461914062
1327;592.3805541992188
1328;592.2313232421875
1329;592.08203125
1330;591.9329223632812
1331;591.7837524414062
1332;591.6346435546875
1333;591.4856567382812
1334;591.3366088867188
1335;591.1878051757812
1336;591.0388793945312
1337;590.8900756835938
1338;590.7412719726562
1339;590.5925903320312
1340;590.4439086914062
1341;590.2953491210938
1342;590.1467895507812
1343;589.9982299804688
1344;589.8497924804688
1345;589.7014770507812
1346;589.5531005859375
1347;589.4047241210938
1348;589.2565307617188
1349;589.1083374023438
1350;588.9602661132812
1351;588.8120727539062
1352;588.6640625
1353;588.51611328125
1354;588.3681640625
1355;588.2202758789062
1356;588.0723876953125
1357;587.9246215820312
1358;587.7767944335938
1359;587.6290893554688
1360;587.4814453125
1361;587.3338012695312
1362;587.1862182617188
1363;587.0386962890625
1364;586.8912353515625
1365;586.7437744140625
1366;586.5963745117188
1367;586.4491577148438
1368;586.3018188476562
1369;586.1546630859375
1370;586.0075073242188
1371;585.8603515625
1372;585.7131958007812
1373;585.5662231445312
1374;585.4191284179688
1375;585.2721557617188
1376;585.1253662109375
1377;584.9784545898438
1378;584.8316650390625
1379;584.6849365234375
1380;584.5382080078125
1381;584.3915405273438
1382;584.2449340820312
1383;584.098388671875
1384;583.9518432617188
1385;583.8053588867188
1386;583.658935546875
1387;583.5125122070312
1388;583.3661499023438
1389;583.2198486328125
1390;583.0736083984375
1391;582.9274291992188
1392;582.7813110351562
1393;582.6351928710938
1394;582.4891357421875
1395;582.3431396484375
1396;582.1971435546875
1397;582.0512084960938
1398;581.9053955078125
1399;581.759521484375
1400;581.61376953125
1401;581.4680786132812
1402;581.3223266601562
1403;581.1766967773438
1404;581.0311889648438
1405;580.8855590820312
1406;580.7400512695312
1407;580.5946044921875
1408;580.4491577148438
1409;580.3037719726562
1410;580.1585083007812
1411;580.01318359375
1412;579.8679809570312
1413;579.7227172851562
1414;579.57763671875
1415;579.4325561523438
1416;579.2874755859375
1417;579.1424560546875
1418;578.9974365234375
1419;578.8525390625
1420;578.7076416015625
1421;578.5628051757812
1422;578.41796875
1423;578.2732543945312
1424;578.1286010742188
1425;577.98388671875
1426;577.8392944335938
1427;577.6947021484375
1428;577.5501708984375
1429;577.4057006835938
1430;577.2612915039062
1431;577.1168823242188
1432;576.9725341796875
1433;576.8281860351562
1434;576.6840209960938
1435;576.5397338867188
1436;576.3955688476562
1437;576.25146484375
1438;576.107421875
1439;575.96337890625
1440;575.8193969726562
1441;575.6754150390625
1442;575.531494140625
1443;575.3875732421875
1444;575.2437744140625
1445;575.0999755859375
1446;574.9562377929688
1447;574.8125610351562
1448;574.6689453125
1449;574.5252685546875
1450;574.3817138671875
1451;574.2381591796875
1452;574.0947265625
1453;573.9512329101562
1454;573.8079223632812
1455;573.6644897460938
1456;573.5211791992188
1457;573.3778686523438
1458;573.2346801757812
1459;573.0914916992188
1460;572.9483032226562
1461;572.8052368164062
1462;572.6622314453125
1463;572.5191650390625
1464;572.3762817382812
1465;572.2332763671875
1466;572.0903930664062
1467;571.9475708007812
1468;571.8048095703125
1469;571.6620483398438
1470;571.5193481445312
1471;571.3765869140625
1472;571.2340087890625
1473;571.0914306640625
1474;570.9488525390625
1475;570.8063354492188
1476;570.6638793945312
1477;570.5214233398438
1478;570.3790283203125
1479;570.2366943359375
1480;570.0944213867188
1481;569.9520874023438
1482;569.8098754882812
1483;569.6676635742188
1484;569.5255126953125
1485;569.3834228515625
1486;569.2413940429688
1487;569.0993041992188
1488;568.9573974609375
1489;568.8154296875
1490;568.673583984375
1491;568.53173828125
1492;568.3899536132812
1493;568.2481689453125
1494;568.1064453125
1495;567.9647827148438
1496;567.8231201171875
1497;567.6815185546875
1498;567.5399169921875
1499;567.3984375
1500;567.2568969726562
1501;567.1154174804688
1502;566.9740600585938
1503;566.8327026367188
1504;566.69140625
1505;566.5501098632812
1506;566.4088745117188
1507;566.2677001953125
1508;566.1265869140625
1509;565.9854125976562
1510;565.8442993164062
1511;565.7033081054688
1512;565.5623168945312
1513;565.42138671875
1514;565.2803955078125
1515;565.1395874023438
1516;564.9987182617188
1517;564.8579711914062
1518;564.7172241210938
1519;564.5765380859375
1520;564.4358520507812
1521;564.2952270507812
1522;564.1546020507812
1523;564.0140380859375
1524;563.87353515625
1525;563.7330932617188
1526;563.5925903320312
1527;563.4521484375
1528;563.3118286132812
1529;563.1715087890625
1530;563.0311889648438
1531;562.8909912109375
1532;562.7507934570312
1533;562.610595703125
1534;562.470458984375
1535;562.3303833007812
1536;562.1903076171875
1537;562.05029296875
1538;561.9103393554688
1539;561.7703857421875
1540;561.6304931640625
1541;561.4906616210938
1542;561.350830078125
1543;561.2109985351562
1544;561.0712890625
1545;560.9315795898438
1546;560.7919311523438
1547;560.65234375
1548;560.5127563476562
1549;560.3731689453125
1550;560.233642578125
1551;560.0941772460938
1552;559.9547729492188
1553;559.8153686523438
1554;559.6760864257812
1555;559.5367431640625
1556;559.3973999023438
1557;559.2581787109375
1558;559.1189575195312
1559;558.9797973632812
1560;558.8406982421875
1561;558.7015380859375
1562;558.5625610351562
1563;558.4235229492188
1564;558.2845458984375
1565;558.1456298828125
1566;558.0067749023438
1567;557.867919921875
1568;557.7290649414062
1569;557.5902709960938
1570;557.4515380859375
1571;557.3128662109375
1572;557.1741943359375
1573;557.0355834960938
1574;556.89697265625
1575;556.7584228515625
1576;556.619873046875
1577;556.4814453125
1578;556.3429565429688
1579;556.20458984375
1580;556.0662231445312
1581;555.9278564453125
1582;555.78955078125
1583;555.6513061523438
1584;555.5130615234375
1585;555.3748779296875
1586;555.2367553710938
1587;555.0986328125
1588;554.9605102539062
1589;554.822509765625
1590;554.6845092773438
1591;554.5465087890625
1592;554.4086303710938
1593;554.2706909179688
1594;554.1328735351562
1595;553.9951171875
1596;553.857421875
1597;553.7196655273438
1598;553.58203125
1599;553.4443969726562
1600;553.3068237304688
1601;553.1693115234375
1602;553.0317993164062
1603;552.8943481445312
1604;552.7569580078125
1605;552.6195068359375
1606;552.4822387695312
1607;552.3449096679688
1608;552.2076416015625
1609;552.0704345703125
1610;551.9331665039062
1611;551.7960205078125
1612;551.6588745117188
1613;551.5218505859375
1614;551.3847045898438
1615;551.2477416992188
1616;551.1107788085938
1617;550.9738159179688
1618;550.8369140625
1619;550.7000732421875
1620;550.5631713867188
1621;550.4264526367188
1622;550.2897338867188
1623;550.1529541015625
1624;550.0162353515625
1625;549.8795776367188
1626;549.7429809570312
1627;549.6063842773438
1628;549.4698486328125
1629;549.3333129882812
1630;549.1968383789062
1631;549.0604248046875
1632;548.9240112304688
1633;548.7876586914062
1634;548.6513061523438
1635;548.5149536132812
1636;548.3787231445312
1637;548.2425537109375
1638;548.1063232421875
1639;547.9700927734375
1640;547.8340454101562
1641;547.6979370117188
1642;547.5618286132812
1643;547.4258422851562
1644;547.2899169921875
1645;547.1539306640625
1646;547.0180053710938
1647;546.8821411132812
1648;546.7462768554688
1649;546.6105346679688
1650;546.4747314453125
1651;546.3389892578125
1652;546.2032470703125
1653;546.0676879882812
1654;545.9320068359375
1655;545.7963256835938
1656;545.6608276367188
1657;545.5252685546875
1658;545.3898315429688
1659;545.25439453125
1660;545.1189575195312
1661;544.9835815429688
1662;544.8482666015625
1663;544.7129516601562
1664;544.5775756835938
1665;544.4423217773438
1666;544.3071899414062
1667;544.1719970703125
1668;544.0368041992188
1669;543.9017333984375
1670;543.7666015625
1671;543.6316528320312
1672;543.49658203125
1673;543.3616333007812
1674;543.2266845703125
1675;543.091796875
1676;542.9569091796875
1677;542.8221435546875
1678;542.6871948242188
1679;542.5523681640625
1680;542.4176635742188
1681;542.2830200195312
1682;542.1483764648438
1683;542.0137329101562
1684;541.8790893554688
1685;541.7445068359375
1686;541.6099853515625
1687;541.4754638671875
1688;541.3410034179688
1689;541.2066040039062
1690;541.0721435546875
1691;540.9378051757812
1692;540.8034057617188
1693;540.6691284179688
1694;540.5348510742188
1695;540.400634765625
1696;540.2664794921875
1697;540.1322631835938
1698;539.9981079101562
1699;539.8640747070312
1700;539.72998046875
1701;539.595947265625
1702;539.4619750976562
1703;539.3279418945312
1704;539.1940307617188
1705;539.0601196289062
1706;538.9262084960938
1707;538.7924194335938
1708;538.6585693359375
1709;538.5248413085938
1710;538.39111328125
1711;538.2573852539062
1712;538.1236572265625
1713;537.9901123046875
1714;537.8565063476562
1715;537.7229614257812
1716;537.58935546875
1717;537.4558715820312
1718;537.3223876953125
1719;537.1889038085938
1720;537.0555419921875
1721;536.9221801757812
1722;536.7888793945312
1723;536.6555786132812
1724;536.5222778320312
1725;536.3890380859375
1726;536.2557983398438
1727;536.1226196289062
1728;535.9894409179688
1729;535.8563842773438
1730;535.7232666015625
1731;535.5902709960938
1732;535.4572143554688
1733;535.32421875
1734;535.1913452148438
1735;535.0584106445312
1736;534.9254760742188
1737;534.7926635742188
1738;534.6598510742188
1739;534.527099609375
1740;534.3943481445312
1741;534.2616577148438
1742;534.12890625
1743;533.9962158203125
1744;533.8636474609375
1745;533.7310180664062
1746;533.5985107421875
1747;533.4659423828125
1748;533.3334350585938
1749;533.2010498046875
1750;533.0684814453125
1751;532.9361572265625
1752;532.8037719726562
1753;532.67138671875
1754;532.5391235351562
1755;532.4067993164062
1756;532.2745971679688
1757;532.1423950195312
1758;532.0101928710938
1759;531.8780517578125
1760;531.7459716796875
1761;531.6138916015625
1762;531.4818115234375
1763;531.3497314453125
1764;531.2177734375
1765;531.0858154296875
1766;530.9539184570312
1767;530.8219604492188
1768;530.6901245117188
1769;530.5582885742188
1770;530.4265747070312
1771;530.2947998046875
1772;530.1630249023438
1773;530.0313720703125
1774;529.8997192382812
1775;529.76806640625
1776;529.636474609375
1777;529.5049438476562
1778;529.3733520507812
1779;529.2418823242188
1780;529.1104125976562
1781;528.97900390625
1782;528.8475952148438
1783;528.7162475585938
1784;528.5848999023438
1785;528.45361328125
1786;528.3223266601562
1787;528.1911010742188
1788;528.0598754882812
1789;527.9287109375
1790;527.7975463867188
1791;527.6664428710938
1792;527.5353393554688
1793;527.4042358398438
1794;527.2733154296875
1795;527.1422729492188
1796;527.0112915039062
1797;526.88037109375
1798;526.7494506835938
1799;526.6185302734375
1800;526.4877319335938
1801;526.3568725585938
1802;526.2261352539062
1803;526.0953979492188
1804;525.9646606445312
1805;525.833984375
1806;525.7033081054688
1807;525.5726928710938
1808;525.4420776367188
1809;525.3115234375
1810;525.1810302734375
1811;525.0505981445312
1812;524.9201049804688
1813;524.7896728515625
1814;524.6593017578125
1815;524.5289306640625
1816;524.3985595703125
1817;524.2683715820312
1818;524.1380004882812
1819;524.0078125
1820;523.8775634765625
1821;523.7474365234375
1822;523.6173095703125
1823;523.4872436523438
1824;523.3570556640625
1825;523.2271118164062
1826;523.0970458984375
1827;522.9671020507812
1828;522.8370971679688
1829;522.7071533203125
1830;522.5772705078125
1831;522.4473876953125
1832;522.3175659179688
1833;522.1878051757812
1834;522.0579833984375
1835;521.92822265625
1836;521.7986450195312
1837;521.6688842773438
1838;521.5391845703125
1839;521.4096069335938
1840;521.2799682617188
1841;521.1504516601562
1842;521.0208740234375
1843;520.8912963867188
1844;520.7618408203125
1845;520.6323852539062
1846;520.5029907226562
1847;520.3735961914062
1848;520.2442016601562
1849;520.1148681640625
1850;519.9856567382812
1851;519.8563232421875
1852;519.7271118164062
1853;519.5979614257812
1854;519.46875
1855;519.3396606445312
1856;519.21044921875
1857;519.0813598632812
1858;518.9523315429688
1859;518.8232421875
1860;518.6942749023438
1861;518.5653076171875
1862;518.4363403320312
1863;518.3074340820312
1864;518.1785278320312
1865;518.0497436523438
1866;517.9208984375
1867;517.7921142578125
1868;517.663330078125
1869;517.5345458984375
1870;517.4058837890625
1871;517.2771606445312
1872;517.1484985351562
1873;517.0198974609375
1874;516.8912963867188
1875;516.7627563476562
1876;516.6342163085938
1877;516.5056762695312
1878;516.377197265625
1879;516.2487182617188
1880;516.1203002929688
1881;515.9918823242188
1882;515.8635864257812
1883;515.7352294921875
1884;515.6068725585938
1885;515.4785766601562
1886;515.3504028320312
1887;515.2221069335938
1888;515.0939331054688
1889;514.9657592773438
1890;514.837646484375
1891;514.7095947265625
1892;514.5814208984375
1893;514.4534912109375
1894;514.325439453125
1895;514.1973876953125
1896;514.0693969726562
1897;513.9414672851562
1898;513.8135986328125
1899;513.6856689453125
1900;513.557861328125
1901;513.4300537109375
1902;513.30224609375
1903;513.1744995117188
1904;513.0468139648438
1905;512.9190673828125
1906;512.7914428710938
1907;512.6637573242188
1908;512.5361328125
1909;512.4085693359375
1910;512.2810668945312
1911;512.1534423828125
1912;512.0259399414062
1913;511.8984680175781
1914;511.77105712890625
1915;511.6435852050781
1916;511.5162658691406
1917;511.38885498046875
1918;511.26153564453125
1919;511.1342468261719
1920;511.0069885253906
1921;510.8797302246094
1922;510.75250244140625
1923;510.6253356933594
1924;510.49810791015625
1925;510.37103271484375
1926;510.24395751953125
1927;510.1169128417969
1928;509.98980712890625
1929;509.8628234863281
1930;509.7358093261719
1931;509.60888671875
1932;509.48193359375
1933;509.3550109863281
1934;509.2281188964844
1935;509.1012878417969
1936;508.9745178222656
1937;508.84765625
1938;508.720947265625
1939;508.59417724609375
1940;508.46746826171875
1941;508.34075927734375
1942;508.2140808105469
1943;508.0874938964844
1944;507.96087646484375
1945;507.8343200683594
1946;507.7077941894531
1947;507.58123779296875
1948;507.4547424316406
1949;507.3282775878906
1950;507.20184326171875
1951;507.075439453125
1952;506.9490661621094
1953;506.8227233886719
1954;506.69635009765625
1955;506.5700988769531
1956;506.4438171386719
1957;506.3175964355469
1958;506.19134521484375
1959;506.0651550292969
1960;505.93896484375
1961;505.8128356933594
1962;505.6867980957031
1963;505.5606384277344
1964;505.43463134765625
1965;505.30859375
1966;505.1826171875
1967;505.056640625
1968;504.9306640625
1969;504.80474853515625
1970;504.6789245605469
1971;504.5530090332031
1972;504.4272155761719
1973;504.3014221191406
1974;504.1756286621094
1975;504.0499572753906
1976;503.9242248535156
1977;503.7984924316406
1978;503.67279052734375
1979;503.5472106933594
1980;503.4216003417969
1981;503.2960510253906
1982;503.17047119140625
1983;503.04498291015625
1984;502.9194641113281
1985;502.79400634765625
1986;502.6686096191406
1987;502.5431823730469
1988;502.41778564453125
1989;502.29241943359375
1990;502.16705322265625
1991;502.0418395996094
1992;501.9165344238281
1993;501.7912902832031
1994;501.66607666015625
1995;501.5408630371094
1996;501.4157409667969
1997;501.2906188964844
1998;501.16552734375
1999;501.0404357910156
2000;500.9153747558594
2001;500.7903747558594
2002;500.6653747558594
2003;500.5403747558594
2004;500.4154968261719
2005;500.29058837890625
2006;500.1656799316406
2007;500.0408020019531
2008;499.91595458984375
2009;499.7911682128906
2010;499.66632080078125
2011;499.5415954589844
2012;499.41693115234375
2013;499.2921447753906
2014;499.16748046875
2015;499.0428161621094
2016;498.9181823730469
2017;498.7936096191406
2018;498.66900634765625
2019;498.54449462890625
2020;498.41998291015625
2021;498.29547119140625
2022;498.1710510253906
2023;498.0466003417969
2024;497.9221496582031
2025;497.7978515625
2026;497.6734313964844
2027;497.5491027832031
2028;497.4248046875
2029;497.300537109375
2030;497.1763000488281
2031;497.05206298828125
2032;496.9278869628906
2033;496.8037109375
2034;496.6795349121094
2035;496.5553894042969
2036;496.43133544921875
2037;496.3072814941406
2038;496.18328857421875
2039;496.0592346191406
2040;495.9352111816406
2041;495.8113098144531
2042;495.6873474121094
2043;495.56341552734375
2044;495.4395446777344
2045;495.3157043457031
2046;495.19189453125
2047;495.06805419921875
2048;494.94427490234375
2049;494.8205261230469
2050;494.69683837890625
2051;494.5731506347656
2052;494.4494323730469
2053;494.3257751464844
2054;494.2021484375
2055;494.0785827636719
2056;493.95501708984375
2057;493.8314514160156
2058;493.70794677734375
2059;493.58447265625
2060;493.46099853515625
2061;493.33758544921875
2062;493.2141418457031
2063;493.0907897949219
2064;492.96734619140625
2065;492.8440856933594
2066;492.72076416015625
2067;492.59747314453125
2068;492.4742736816406
2069;492.35101318359375
2070;492.2278137207031
2071;492.1046447753906
2072;491.98150634765625
2073;491.8583984375
2074;491.7353210449219
2075;491.61224365234375
2076;491.48919677734375
2077;491.36614990234375
2078;491.2431640625
2079;491.12017822265625
2080;490.99725341796875
2081;490.87432861328125
2082;490.75140380859375
2083;490.6285705566406
2084;490.5057067871094
2085;490.38287353515625
2086;490.2601013183594
2087;490.1373596191406
2088;490.0146179199219
2089;489.8918762207031
2090;489.7691955566406
2091;489.64654541015625
2092;489.52392578125
2093;489.40130615234375
2094;489.27874755859375
2095;489.1561584472656
2096;489.03363037109375
2097;488.91107177734375
2098;488.78863525390625
2099;488.66619873046875
2100;488.5437316894531
2101;488.42138671875
2102;488.2989807128906
2103;488.1766662597656
2104;488.0543518066406
2105;487.9319763183594
2106;487.8097229003906
2107;487.6875
2108;487.5652160644531
2109;487.4430236816406
2110;487.32086181640625
2111;487.19873046875
2112;487.07659912109375
2113;486.95452880859375
2114;486.83245849609375
2115;486.71038818359375
2116;486.58837890625
2117;486.46636962890625
2118;486.3444519042969
2119;486.22247314453125
2120;486.1005859375
2121;485.9786682128906
2122;485.8568420410156
2123;485.7349548339844
2124;485.6131286621094
2125;485.4913635253906
2126;485.3695983886719
2127;485.2478332519531
2128;485.1261291503906
2129;485.00439453125
2130;484.88275146484375
2131;484.76116943359375
2132;484.6394958496094
2133;484.5179138183594
2134;484.3963317871094
2135;484.2748107910156
2136;484.15325927734375
2137;484.03179931640625
2138;483.91033935546875
2139;483.7889099121094
2140;483.66748046875
2141;483.54608154296875
2142;483.4247131347656
2143;483.30340576171875
2144;483.18212890625
2145;483.060791015625
2146;482.93951416015625
2147;482.81829833984375
2148;482.69708251953125
2149;482.575927734375
2150;482.4547424316406
2151;482.33355712890625
2152;482.21246337890625
2153;482.09136962890625
2154;481.9703063964844
2155;481.84930419921875
2156;481.7283020019531
2157;481.6072692871094
2158;481.486328125
2159;481.3653869628906
2160;481.2444763183594
2161;481.1235656738281
2162;481.002685546875
2163;480.88189697265625
2164;480.7610778808594
2165;480.6402893066406
2166;480.5195007324219
2167;480.39874267578125
2168;480.2780456542969
2169;480.1573181152344
2170;480.03668212890625
2171;479.91607666015625
2172;479.79547119140625
2173;479.67486572265625
2174;479.55426025390625
2175;479.4337463378906
2176;479.3132629394531
2177;479.1927185058594
2178;479.072265625
2179;478.9518127441406
2180;478.8313903808594
2181;478.71099853515625
2182;478.590576171875
2183;478.47027587890625
2184;478.3500061035156
2185;478.2296447753906
2186;478.109375
2187;477.9891052246094
2188;477.8689270019531
2189;477.7487487792969
2190;477.6285705566406
2191;477.5084533691406
2192;477.3883361816406
2193;477.2682800292969
2194;477.1481628417969
2195;477.0281677246094
2196;476.9081115722656
2197;476.78814697265625
2198;476.66815185546875
2199;476.5481872558594
2200;476.4283142089844
2201;476.3083801269531
2202;476.1885070800781
2203;476.0686950683594
2204;475.9488830566406
2205;475.8291015625
2206;475.7092590332031
2207;475.5895690917969
2208;475.46978759765625
2209;475.35015869140625
2210;475.23046875
2211;475.1108093261719
2212;474.9911804199219
2213;474.87158203125
2214;474.75201416015625
2215;474.6324157714844
2216;474.5129089355469
2217;474.3934631347656
2218;474.2739562988281
2219;474.1545104980469
2220;474.0350646972656
2221;473.9156799316406
2222;473.7962951660156
2223;473.67694091796875
2224;473.5575866699219
2225;473.4382629394531
2226;473.3190002441406
2227;473.19976806640625
2228;473.08050537109375
2229;472.9612731933594
2230;472.8420715332031
2231;472.7229309082031
2232;472.6037902832031
2233;472.4846496582031
2234;472.3655700683594
2235;472.24652099609375
2236;472.1274719238281
2237;472.00848388671875
2238;471.88946533203125
2239;471.7705078125
2240;471.65155029296875
2241;471.5325622558594
2242;471.4137268066406
2243;471.29486083984375
2244;471.1759948730469
2245;471.05712890625
2246;470.9383850097656
2247;470.8196105957031
2248;470.7008361816406
2249;470.58209228515625
2250;470.46337890625
2251;470.3446960449219
2252;470.22607421875
2253;470.107421875
2254;469.98883056640625
2255;469.87017822265625
2256;469.75164794921875
2257;469.6330871582031
2258;469.51458740234375
2259;469.39605712890625
2260;469.2776184082031
2261;469.1591796875
2262;469.0407409667969
2263;468.92236328125
2264;468.803955078125
2265;468.68560791015625
2266;468.5672912597656
2267;468.448974609375
2268;468.3307189941406
2269;468.2124328613281
2270;468.0942077636719
2271;467.97601318359375
2272;467.8578186035156
2273;467.7396545410156
2274;467.62152099609375
2275;467.50341796875
2276;467.38531494140625
2277;467.2673034667969
2278;467.1492004394531
2279;467.0312194824219
2280;466.9132385253906
2281;466.7952575683594
2282;466.6772766113281
2283;466.55938720703125
2284;466.44146728515625
2285;466.3235778808594
2286;466.2057800292969
2287;466.0879211425781
2288;465.97015380859375
2289;465.85235595703125
2290;465.7345886230469
2291;465.6168518066406
2292;465.4991760253906
2293;465.38153076171875
2294;465.2638244628906
2295;465.1461486816406
2296;465.0285339355469
2297;464.9109802246094
2298;464.79339599609375
2299;464.67584228515625
2300;464.5583190917969
2301;464.4408264160156
2302;464.3233337402344
2303;464.2059020996094
2304;464.0884704589844
2305;463.9710388183594
2306;463.8536682128906
2307;463.7362976074219
2308;463.6189880371094
2309;463.5016784667969
2310;463.3843688964844
2311;463.2671203613281
2312;463.1498718261719
2313;463.03265380859375
2314;462.9153747558594
2315;462.79827880859375
2316;462.6811218261719
2317;462.5639953613281
2318;462.4469299316406
2319;462.3298034667969
2320;462.2127990722656
2321;462.0957336425781
2322;461.9787902832031
2323;461.86181640625
2324;461.74481201171875
2325;461.62786865234375
2326;461.5109558105469
2327;461.3940734863281
2328;461.2771911621094
2329;461.1603698730469
2330;461.0435485839844
2331;460.92681884765625
2332;460.80999755859375
2333;460.6932678222656
2334;460.5765075683594
2335;460.4598083496094
2336;460.3431701660156
2337;460.22650146484375
2338;460.10986328125
2339;459.99322509765625
2340;459.87664794921875
2341;459.76007080078125
2342;459.6435546875
2343;459.52703857421875
2344;459.4105529785156
2345;459.29400634765625
2346;459.1775817871094
2347;459.0611877441406
2348;458.9447937011719
2349;458.828369140625
2350;458.7120056152344
2351;458.595703125
2352;458.4793395996094
2353;458.3630676269531
2354;458.2468566894531
2355;458.13055419921875
2356;458.0143737792969
2357;457.8981628417969
2358;457.7819519042969
2359;457.6658020019531
2360;457.5496520996094
2361;457.4335632324219
2362;457.3175354003906
2363;457.2014465332031
2364;457.08544921875
2365;456.9693908691406
2366;456.8533630371094
2367;456.7374572753906
2368;456.6214904785156
2369;456.5055847167969
2370;456.3896484375
2371;456.27374267578125
2372;456.1578674316406
2373;456.04205322265625
2374;455.92626953125
2375;455.8104553222656
2376;455.69464111328125
2377;455.5789489746094
2378;455.4632263183594
2379;455.3475036621094
2380;455.23187255859375
2381;455.1162109375
2382;455.00054931640625
2383;454.8849792480469
2384;454.76934814453125
2385;454.6537780761719
2386;454.53826904296875
2387;454.42279052734375
2388;454.3072814941406
2389;454.1917419433594
2390;454.0763244628906
2391;453.9609375
2392;453.8454895019531
2393;453.7301330566406
2394;453.61474609375
2395;453.49945068359375
2396;453.3841247558594
2397;453.2687683105469
2398;453.153564453125
2399;453.038330078125
2400;452.9231262207031
2401;452.8078918457031
2402;452.6927185058594
2403;452.57757568359375
2404;452.4624328613281
2405;452.3473205566406
2406;452.2322082519531
2407;452.1171875
2408;452.00213623046875
2409;451.8870544433594
2410;451.7721252441406
2411;451.6570739746094
2412;451.5422058105469
2413;451.42724609375
2414;451.3122863769531
2415;451.1974182128906
2416;451.08258056640625
2417;450.9677429199219
2418;450.85296630859375
2419;450.7381286621094
2420;450.62335205078125
2421;450.5085754394531
2422;450.39385986328125
2423;450.2792053222656
2424;450.16448974609375
2425;450.0498352050781
2426;449.9352111816406
2427;449.820556640625
2428;449.70599365234375
2429;449.5914611816406
2430;449.47686767578125
2431;449.36236572265625
2432;449.2478332519531
2433;449.13336181640625
2434;449.0188903808594
2435;448.90447998046875
2436;448.7900390625
2437;448.6756286621094
2438;448.561279296875
2439;448.44696044921875
2440;448.3326721191406
2441;448.21832275390625
2442;448.10406494140625
2443;447.9897766113281
2444;447.87554931640625
2445;447.7613220214844
2446;447.6471862792969
2447;447.5329895019531
2448;447.41888427734375
2449;447.30474853515625
2450;447.190673828125
2451;447.07659912109375
2452;446.9625549316406
2453;446.84857177734375
2454;446.73455810546875
2455;446.6205749511719
2456;446.506591796875
2457;446.3926696777344
2458;446.2787780761719
2459;446.16485595703125
2460;446.0509948730469
2461;445.9371643066406
2462;445.82330322265625
2463;445.70953369140625
2464;445.59576416015625
2465;445.48199462890625
2466;445.36822509765625
2467;445.2545471191406
2468;445.1408386230469
2469;445.02716064453125
2470;444.91351318359375
2471;444.79986572265625
2472;444.6862487792969
2473;444.5727233886719
2474;444.4591369628906
2475;444.3456115722656
2476;444.2320861816406
2477;444.11859130859375
2478;444.0050964355469
2479;443.8916015625
2480;443.77825927734375
2481;443.664794921875
2482;443.5514221191406
2483;443.43804931640625
2484;443.32470703125
2485;443.2113952636719
2486;443.0981140136719
2487;442.98486328125
2488;442.87158203125
2489;442.75836181640625
2490;442.6451110839844
2491;442.5319519042969
2492;442.4187927246094
2493;442.3056640625
2494;442.19256591796875
2495;442.0794372558594
2496;441.96636962890625
2497;441.8533020019531
2498;441.7402648925781
2499;441.6272888183594
2500;441.5143127441406
2501;441.40130615234375
2502;441.2883605957031
2503;441.17547607421875
2504;441.06256103515625
2505;440.94970703125
2506;440.83685302734375
2507;440.7239685058594
2508;440.6111755371094
2509;440.4983825683594
2510;440.3856506347656
2511;440.27288818359375
2512;440.16015625
2513;440.04742431640625
2514;439.9347839355469
2515;439.8220520019531
2516;439.70947265625
2517;439.59686279296875
2518;439.4842224121094
2519;439.37164306640625
2520;439.2591247558594
2521;439.1465759277344
2522;439.0340881347656
2523;438.9216003417969
2524;438.80908203125
2525;438.6966857910156
2526;438.5842590332031
2527;438.4718933105469
2528;438.3595275878906
2529;438.24713134765625
2530;438.1347961425781
2531;438.0224609375
2532;437.91015625
2533;437.79791259765625
2534;437.68560791015625
2535;437.5734558105469
2536;437.4612121582031
2537;437.34906005859375
2538;437.23687744140625
2539;437.124755859375
2540;437.01263427734375
2541;436.9004821777344
2542;436.7884216308594
2543;436.6764221191406
2544;436.5643615722656
2545;436.4523620605469
2546;436.3403625488281
2547;436.2284240722656
2548;436.1164245605469
2549;436.0045471191406
2550;435.89263916015625
2551;435.7807312011719
2552;435.66888427734375
2553;435.5569763183594
2554;435.4451599121094
2555;435.3334045410156
2556;435.22161865234375
2557;435.10986328125
2558;434.99810791015625
2559;434.8864440917969
2560;434.7747497558594
2561;434.6630859375
2562;434.5514221191406
2563;434.4397888183594
2564;434.32818603515625
2565;434.2165832519531
2566;434.1050109863281
2567;433.9934387207031
2568;433.8819274902344
2569;433.7704772949219
2570;433.65899658203125
2571;433.54754638671875
2572;433.4360656738281
2573;433.32464599609375
2574;433.2132873535156
2575;433.10186767578125
2576;432.9905090332031
2577;432.8791809082031
2578;432.76788330078125
2579;432.6565856933594
2580;432.54534912109375
2581;432.43414306640625
2582;432.3228454589844
2583;432.211669921875
2584;432.10052490234375
2585;431.98931884765625
2586;431.8782043457031
2587;431.76708984375
2588;431.656005859375
2589;431.544921875
2590;431.4338684082031
2591;431.32281494140625
2592;431.21185302734375
2593;431.100830078125
2594;430.98980712890625
2595;430.87890625
2596;430.7679748535156
2597;430.6570739746094
2598;430.5461730957031
2599;430.4353332519531
2600;430.3244934082031
2601;430.2136535644531
2602;430.1028747558594
2603;429.99212646484375
2604;429.8813171386719
2605;429.7705993652344
2606;429.65985107421875
2607;429.5491638183594
2608;429.4384765625
2609;429.3278503417969
2610;429.21722412109375
2611;429.10662841796875
2612;428.99603271484375
2613;428.8854675292969
2614;428.77496337890625
2615;428.6643981933594
2616;428.5539245605469
2617;428.4434509277344
2618;428.3329772949219
2619;428.2225036621094
2620;428.1120910644531
2621;428.001708984375
2622;427.8913269042969
2623;427.7809753417969
2624;427.670654296875
2625;427.5603332519531
2626;427.4501037597656
2627;427.33978271484375
2628;427.22955322265625
2629;427.11932373046875
2630;427.00909423828125
2631;426.89892578125
2632;426.7887878417969
2633;426.67864990234375
2634;426.56854248046875
2635;426.45843505859375
2636;426.3483581542969
2637;426.23828125
2638;426.1282653808594
2639;426.01824951171875
2640;425.9082336425781
2641;425.79827880859375
2642;425.68829345703125
2643;425.578369140625
2644;425.468505859375
2645;425.35858154296875
2646;425.24871826171875
2647;425.1388854980469
2648;425.0290222167969
2649;424.9192199707031
2650;424.8094177246094
2651;424.6996765136719
2652;424.5899353027344
2653;424.4801940917969
2654;424.3704528808594
2655;424.2607727050781
2656;424.15118408203125
2657;424.0415344238281
2658;423.9319152832031
2659;423.8222961425781
2660;423.7127380371094
2661;423.6031188964844
2662;423.4936218261719
2663;423.38409423828125
2664;423.27459716796875
2665;423.16510009765625
2666;423.0556640625
2667;422.94622802734375
2668;422.8368225097656
2669;422.7274475097656
2670;422.6180114746094
2671;422.50872802734375
2672;422.3993835449219
2673;422.2900695800781
2674;422.1807556152344
2675;422.07147216796875
2676;421.9622497558594
2677;421.85302734375
2678;421.7438659667969
2679;421.63470458984375
2680;421.5254821777344
2681;421.4164123535156
2682;421.30731201171875
2683;421.1982116699219
2684;421.089111328125
2685;420.98004150390625
2686;420.8710021972656
2687;420.7619934082031
2688;420.6530456542969
2689;420.5440979003906
2690;420.43511962890625
2691;420.3262023925781
2692;420.21728515625
2693;420.1084289550781
2694;419.9995422363281
2695;419.8907165527344
2696;419.7818908691406
2697;419.6730651855469
2698;419.5643005371094
2699;419.4555358886719
2700;419.3468322753906
2701;419.2380676269531
2702;419.1294250488281
2703;419.0207214355469
2704;418.9120788574219
2705;418.8034362792969
2706;418.69482421875
2707;418.5862121582031
2708;418.47760009765625
2709;418.36907958984375
2710;418.2605285644531
2711;418.1520690917969
2712;418.04351806640625
2713;417.9350891113281
2714;417.82666015625
2715;417.71820068359375
2716;417.60980224609375
2717;417.50140380859375
2718;417.3930358886719
2719;417.2846374511719
2720;417.17633056640625
2721;417.0680236816406
2722;416.9597473144531
2723;416.8514709472656
2724;416.74322509765625
2725;416.635009765625
2726;416.52679443359375
2727;416.4186096191406
2728;416.3104553222656
2729;416.2023010253906
2730;416.09417724609375
2731;415.9860534667969
2732;415.8779602050781
2733;415.76995849609375
2734;415.661865234375
2735;415.5538635253906
2736;415.4458312988281
2737;415.3378601074219
2738;415.2298889160156
2739;415.1219177246094
2740;415.0140075683594
2741;414.9060974121094
2742;414.79827880859375
2743;414.6904296875
2744;414.5825500488281
2745;414.4747619628906
2746;414.366943359375
2747;414.2591857910156
2748;414.1513977050781
2749;414.043701171875
2750;413.9359436035156
2751;413.8282775878906
2752;413.7206115722656
2753;413.6129455566406
2754;413.50531005859375
2755;413.3976745605469
2756;413.29010009765625
2757;413.1825256347656
2758;413.074951171875
2759;412.9674377441406
2760;412.85986328125
2761;412.7524108886719
2762;412.6449279785156
2763;412.5374450683594
2764;412.4300231933594
2765;412.3226013183594
2766;412.21527099609375
2767;412.10784912109375
2768;412.00048828125
2769;411.8931579589844
2770;411.7858581542969
2771;411.6785583496094
2772;411.5712890625
2773;411.46405029296875
2774;411.3567810058594
2775;411.24957275390625
2776;411.1423645019531
2777;411.0351867675781
2778;410.9280700683594
2779;410.8209533691406
2780;410.71380615234375
2781;410.6067199707031
2782;410.4996643066406
2783;410.3925476074219
2784;410.2855529785156
2785;410.17852783203125
2786;410.0715637207031
2787;409.964599609375
2788;409.8576354980469
2789;409.7507019042969
2790;409.643798828125
2791;409.5368957519531
2792;409.4300231933594
2793;409.32318115234375
2794;409.2163391113281
2795;409.1095275878906
2796;409.0027160644531
2797;408.8959655761719
2798;408.7892150878906
2799;408.6824645996094
2800;408.57574462890625
2801;408.46905517578125
2802;408.3623962402344
2803;408.2557067871094
2804;408.1491394042969
2805;408.04248046875
2806;407.9358825683594
2807;407.8293151855469
2808;407.7228088378906
2809;407.6162109375
2810;407.50970458984375
2811;407.40325927734375
2812;407.2967224121094
2813;407.1903381347656
2814;407.08392333984375
2815;406.97747802734375
2816;406.8710632324219
2817;406.76470947265625
2818;406.6582946777344
2819;406.552001953125
2820;406.4457092285156
2821;406.3393859863281
2822;406.2331237792969
2823;406.12689208984375
2824;406.0206604003906
2825;405.9143981933594
2826;405.8081970214844
2827;405.7020568847656
2828;405.59588623046875
2829;405.48974609375
2830;405.3836364746094
2831;405.2775573730469
2832;405.17144775390625
2833;405.0654296875
2834;404.95941162109375
2835;404.8533630371094
2836;404.7473449707031
2837;404.6413879394531
2838;404.5354309082031
2839;404.4294738769531
2840;404.32354736328125
2841;404.21771240234375
2842;404.11181640625
2843;404.00592041015625
2844;403.9001159667969
2845;403.7942810058594
2846;403.6884765625
2847;403.5827331542969
2848;403.4769592285156
2849;403.3711853027344
2850;403.2654724121094
2851;403.1598205566406
2852;403.0541076660156
2853;402.9484558105469
2854;402.84283447265625
2855;402.7371520996094
2856;402.631591796875
2857;402.5260314941406
2858;402.4204406738281
2859;402.31488037109375
2860;402.20941162109375
2861;402.1038513183594
2862;401.99835205078125
2863;401.89288330078125
2864;401.7875061035156
2865;401.68206787109375
2866;401.57666015625
2867;401.47125244140625
2868;401.3659362792969
2869;401.2605285644531
2870;401.1552734375
2871;401.0498962402344
2872;400.94464111328125
2873;400.83935546875
2874;400.734130859375
2875;400.6288757324219
2876;400.5236511230469
2877;400.4184875488281
2878;400.3133239746094
2879;400.2082214355469
2880;400.10302734375
2881;399.9979553222656
2882;399.8928527832031
2883;399.78778076171875
2884;399.6827087402344
2885;399.57769775390625
2886;399.4726867675781
2887;399.3677062988281
2888;399.2627258300781
2889;399.15771484375
2890;399.05279541015625
2891;398.9479064941406
2892;398.843017578125
2893;398.7381286621094
2894;398.6332702636719
2895;398.5284118652344
2896;398.4236145019531
2897;398.3188171386719
2898;398.21405029296875
2899;398.1092834472656
2900;398.0045471191406
2901;397.89984130859375
2902;397.7951354980469
2903;397.6904296875
2904;397.5857849121094
2905;397.48114013671875
2906;397.3764953613281
2907;397.27191162109375
2908;397.1673278808594
2909;397.0627746582031
2910;396.9582214355469
2911;396.85369873046875
2912;396.7491760253906
2913;396.64471435546875
2914;396.54022216796875
2915;396.435791015625
2916;396.3313293457031
2917;396.2268981933594
2918;396.12255859375
2919;396.0182189941406
2920;395.9138488769531
2921;395.8095397949219
2922;395.70526123046875
2923;395.6009216308594
2924;395.4966125488281
2925;395.39239501953125
2926;395.28814697265625
2927;395.1839294433594
2928;395.0797424316406
2929;394.9755859375
2930;394.8714294433594
2931;394.7673034667969
2932;394.6631774902344
2933;394.55908203125
2934;394.45501708984375
2935;394.3509216308594
2936;394.24688720703125
2937;394.14288330078125
2938;394.0388488769531
2939;393.9349060058594
2940;393.8309020996094
2941;393.72698974609375
2942;393.623046875
2943;393.5191345214844
2944;393.415283203125
2945;393.3114318847656
2946;393.2075500488281
2947;393.1037292480469
2948;392.9999084472656
2949;392.8961486816406
2950;392.7923278808594
2951;392.6885681152344
2952;392.58489990234375
2953;392.4811706542969
2954;392.3774719238281
2955;392.2738342285156
2956;392.1701354980469
2957;392.0665588378906
2958;391.962890625
2959;391.8592834472656
2960;391.7557067871094
2961;391.65216064453125
2962;391.5486145019531
2963;391.4450988769531
2964;391.3415832519531
2965;391.23809814453125
2966;391.13470458984375
2967;391.03125
2968;390.92779541015625
2969;390.82440185546875
2970;390.7209777832031
2971;390.61767578125
2972;390.5143127441406
2973;390.41094970703125
2974;390.3076477050781
2975;390.2043762207031
2976;390.1011047363281
2977;389.99786376953125
2978;389.8946838378906
2979;389.79144287109375
2980;389.6882629394531
2981;389.58502197265625
2982;389.4819030761719
2983;389.3787536621094
2984;389.2756652832031
2985;389.1725769042969
2986;389.06951904296875
2987;388.9664611816406
2988;388.8634338378906
2989;388.7604064941406
2990;388.6574401855469
2991;388.5544128417969
2992;388.4514465332031
2993;388.3484802246094
2994;388.2455749511719
2995;388.14263916015625
2996;388.039794921875
2997;387.93695068359375
2998;387.8340759277344
2999;387.7312316894531
