;loss
0;882.9287109375
1;882.71484375
2;882.4268188476562
3;882.13818359375
4;881.8490600585938
5;881.5592651367188
6;881.2776489257812
7;880.992919921875
8;880.701416015625
9;880.4119262695312
10;880.119140625
11;879.8258666992188
12;879.5319213867188
13;879.2372436523438
14;878.9404907226562
15;878.6426391601562
16;878.3461303710938
17;878.0488891601562
18;877.7481079101562
19;877.4495239257812
20;877.150146484375
21;876.85009765625
22;876.5493774414062
23;876.2444458007812
24;875.9423217773438
25;875.639404296875
26;875.3357543945312
27;875.0277709960938
28;874.718994140625
29;874.4130859375
30;874.1064453125
31;873.79541015625
32;873.4873046875
33;873.1782836914062
34;872.8650512695312
35;872.551025390625
36;872.23974609375
37;871.9276733398438
38;871.6113891601562
39;871.29443359375
40;870.9765625
41;870.6614379882812
42;870.3453979492188
43;870.025390625
44;869.7078247070312
45;869.389404296875
46;869.0701293945312
47;868.7470703125
48;868.42626953125
49;868.105224609375
50;867.780517578125
51;867.4580078125
52;867.1318359375
53;866.8049926757812
54;866.4800415039062
55;866.1544799804688
56;865.8251953125
57;865.4953002929688
58;865.1672973632812
59;864.83837890625
60;864.5087890625
61;864.17578125
62;863.8419799804688
63;863.5075073242188
64;863.1721801757812
65;862.8388671875
66;862.5060424804688
67;862.1725463867188
68;861.8381958007812
69;861.5033569335938
70;861.1676635742188
71;860.8313598632812
72;860.4920043945312
73;860.1543579101562
74;859.813720703125
75;859.4765014648438
76;859.1403198242188
77;858.8042602539062
78;858.4692993164062
79;858.13623046875
80;857.8026733398438
81;857.466796875
82;857.1326293945312
83;856.7980346679688
84;856.4611206054688
85;856.1256713867188
86;855.7879028320312
87;855.44970703125
88;855.111083984375
89;854.77197265625
90;854.4341430664062
91;854.0958862304688
92;853.7570190429688
93;853.4158325195312
94;853.0741577148438
95;852.7337036132812
96;852.3927612304688
97;852.0512084960938
98;851.7091674804688
99;851.3648071289062
100;851.02001953125
101;850.6746215820312
102;850.330322265625
103;849.98388671875
104;849.6384887695312
105;849.2909545898438
106;848.9429321289062
107;848.5958862304688
108;848.2483520507812
109;847.898681640625
110;847.5499877929688
111;847.1994018554688
112;846.84814453125
113;846.4978637695312
114;846.1455688476562
115;845.7942504882812
116;845.4423828125
117;845.0899047851562
118;844.737060546875
119;844.3822631835938
120;844.0270385742188
121;843.672607421875
122;843.3176879882812
123;842.9622192382812
124;842.6050415039062
125;842.2473754882812
126;841.890625
127;841.5321655273438
128;841.1731567382812
129;840.8135375976562
130;840.4548950195312
131;840.0950317382812
132;839.7345581054688
133;839.3737182617188
134;839.0138549804688
135;838.6522827148438
136;838.290283203125
137;837.9279174804688
138;837.5663452148438
139;837.2042846679688
140;836.84228515625
141;836.4791870117188
142;836.1159057617188
143;835.7534790039062
144;835.3895874023438
145;835.0265502929688
146;834.6630859375
147;834.2981567382812
148;833.9330444335938
149;833.5673828125
150;833.2014770507812
151;832.8363647460938
152;832.4708862304688
153;832.10400390625
154;831.73779296875
155;831.3703002929688
156;831.0034790039062
157;830.6354370117188
158;830.26806640625
159;829.900390625
160;829.5322875976562
161;829.1638793945312
162;828.795166015625
163;828.42529296875
164;828.0557250976562
165;827.68701171875
166;827.31689453125
167;826.9475708007812
168;826.5780639648438
169;826.2072143554688
170;825.837158203125
171;825.4657592773438
172;825.0941772460938
173;824.7222290039062
174;824.3502807617188
175;823.9778442382812
176;823.6052856445312
177;823.2324829101562
178;822.8593139648438
179;822.4859008789062
180;822.1132202148438
181;821.7401733398438
182;821.365966796875
183;820.992431640625
184;820.6185913085938
185;820.2435913085938
186;819.869140625
187;819.4945678710938
188;819.1188354492188
189;818.7435913085938
190;818.3672485351562
191;817.99072265625
192;817.6139526367188
193;817.23681640625
194;816.8595581054688
195;816.4827270507812
196;816.1057739257812
197;815.7286987304688
198;815.3502807617188
199;814.9716796875
200;814.5927734375
201;814.2136840820312
202;813.83447265625
203;813.455810546875
204;813.0768432617188
205;812.6975708007812
206;812.318115234375
207;811.9384765625
208;811.5576171875
209;811.1766967773438
210;810.79541015625
211;810.4153442382812
212;810.0385131835938
213;809.6619262695312
214;809.2882690429688
215;808.9150390625
216;808.5422973632812
217;808.1705932617188
218;807.7991333007812
219;807.42724609375
220;807.0554809570312
221;806.6846313476562
222;806.3142700195312
223;805.943359375
224;805.572509765625
225;805.2019653320312
226;804.8327026367188
227;804.4635620117188
228;804.0951538085938
229;803.7263793945312
230;803.3584594726562
231;802.9906616210938
232;802.6228637695312
233;802.255126953125
234;801.8875122070312
235;801.52001953125
236;801.152587890625
237;800.7846069335938
238;800.4166870117188
239;800.0487670898438
240;799.6808471679688
241;799.3130493164062
242;798.9452514648438
243;798.5774536132812
244;798.2096557617188
245;797.8425903320312
246;797.4761352539062
247;797.1098022460938
248;796.7438354492188
249;796.3777465820312
250;796.01171875
251;795.646484375
252;795.2805786132812
253;794.91552734375
254;794.5498046875
255;794.18408203125
256;793.8185424804688
257;793.4528198242188
258;793.0872192382812
259;792.7222290039062
260;792.357421875
261;791.9927368164062
262;791.62744140625
263;791.2627563476562
264;790.8981323242188
265;790.532958984375
266;790.16845703125
267;789.8048706054688
268;789.44287109375
269;789.0820922851562
270;788.7208862304688
271;788.3606567382812
272;788.0060424804688
273;787.65185546875
274;787.2984008789062
275;786.9450073242188
276;786.5918579101562
277;786.23974609375
278;785.887451171875
279;785.5359497070312
280;785.184326171875
281;784.8328247070312
282;784.4816284179688
283;784.1312866210938
284;783.7810668945312
285;783.4310913085938
286;783.0806274414062
287;782.7304077148438
288;782.3815307617188
289;782.0330200195312
290;781.684814453125
291;781.3367309570312
292;780.9884643554688
293;780.6403198242188
294;780.2927856445312
295;779.945556640625
296;779.598388671875
297;779.2507934570312
298;778.9038696289062
299;778.55712890625
300;778.21044921875
301;777.8639526367188
302;777.517578125
303;777.17138671875
304;776.8248901367188
305;776.4784545898438
306;776.1321411132812
307;775.7859497070312
308;775.43994140625
309;775.09423828125
310;774.749267578125
311;774.4043579101562
312;774.05908203125
313;773.7140502929688
314;773.3694458007812
315;773.0245971679688
316;772.6798706054688
317;772.3351440429688
318;771.9912109375
319;771.6466674804688
320;771.3030395507812
321;770.9616088867188
322;770.622314453125
323;770.2868041992188
324;769.951904296875
325;769.6181030273438
326;769.2852172851562
327;768.953125
328;768.6212768554688
329;768.290283203125
330;767.9592895507812
331;767.62890625
332;767.2992553710938
333;766.969970703125
334;766.6406860351562
335;766.3132934570312
336;765.987548828125
337;765.661865234375
338;765.3369750976562
339;765.012451171875
340;764.6878051757812
341;764.3657836914062
342;764.04443359375
343;763.7236328125
344;763.4032592773438
345;763.0833129882812
346;762.76416015625
347;762.4453735351562
348;762.126708984375
349;761.8123168945312
350;761.498779296875
351;761.1854858398438
352;760.8727416992188
353;760.560546875
354;760.2492065429688
355;759.9382934570312
356;759.6279296875
357;759.3173828125
358;759.0076293945312
359;758.6979370117188
360;758.3884887695312
361;758.0797729492188
362;757.77099609375
363;757.4624633789062
364;757.1547241210938
365;756.84716796875
366;756.53955078125
367;756.2324829101562
368;755.92578125
369;755.6189575195312
370;755.3125
371;755.0061645507812
372;754.7005004882812
373;754.3952026367188
374;754.0900268554688
375;753.7849731445312
376;753.4804077148438
377;753.1759643554688
378;752.8715209960938
379;752.567626953125
380;752.2636108398438
381;751.9601440429688
382;751.65673828125
383;751.353759765625
384;751.0512084960938
385;750.7488403320312
386;750.4469604492188
387;750.1452026367188
388;749.8436889648438
389;749.54248046875
390;749.2413940429688
391;748.9404296875
392;748.6396484375
393;748.3391723632812
394;748.0392456054688
395;747.7392578125
396;747.4396362304688
397;747.1404418945312
398;746.8412475585938
399;746.54296875
400;746.2451171875
401;745.9475708007812
402;745.6503295898438
403;745.3541870117188
404;745.0582885742188
405;744.7631225585938
406;744.46826171875
407;744.1734008789062
408;743.8794555664062
409;743.5859375
410;743.2926635742188
411;743.0000610351562
412;742.7074584960938
413;742.4154663085938
414;742.1237182617188
415;741.832275390625
416;741.5411987304688
417;741.250244140625
418;740.9596557617188
419;740.6696166992188
420;740.3794555664062
421;740.090087890625
422;739.8007202148438
423;739.5117797851562
424;739.222900390625
425;738.934326171875
426;738.6461791992188
427;738.3583984375
428;738.07080078125
429;737.78369140625
430;737.4973754882812
431;737.2169799804688
432;736.9375
433;736.6589965820312
434;736.3815307617188
435;736.1047973632812
436;735.83544921875
437;735.5765991210938
438;735.3190307617188
439;735.0626831054688
440;734.8080444335938
441;734.5543823242188
442;734.3018188476562
443;734.0498657226562
444;733.7990112304688
445;733.5490112304688
446;733.2996215820312
447;733.05078125
448;732.802734375
449;732.55517578125
450;732.308349609375
451;732.06201171875
452;731.81640625
453;731.5712890625
454;731.3264770507812
455;731.0823364257812
456;730.8386840820312
457;730.5964965820312
458;730.355712890625
459;730.1159057617188
460;729.8767700195312
461;729.63818359375
462;729.3998413085938
463;729.161865234375
464;728.92431640625
465;728.6874389648438
466;728.4508666992188
467;728.2145385742188
468;727.9786987304688
469;727.7431030273438
470;727.5077514648438
471;727.2726440429688
472;727.0380859375
473;726.8035278320312
474;726.569580078125
475;726.3356323242188
476;726.1021118164062
477;725.869140625
478;725.6361694335938
479;725.4035034179688
480;725.1713256835938
481;724.9393920898438
482;724.70751953125
483;724.47607421875
484;724.2449340820312
485;724.0139770507812
486;723.7831420898438
487;723.5526733398438
488;723.322265625
489;723.092041015625
490;722.8623046875
491;722.6327514648438
492;722.4035034179688
493;722.1741333007812
494;721.9452514648438
495;721.7163696289062
496;721.4879760742188
497;721.259521484375
498;721.03125
499;720.8032836914062
500;720.57568359375
501;720.3483276367188
502;720.12109375
503;719.8941040039062
504;719.6671752929688
505;719.4404296875
506;719.2138061523438
507;718.9877319335938
508;718.7615356445312
509;718.5358276367188
510;718.310302734375
511;718.084716796875
512;717.859619140625
513;717.6344604492188
514;717.4100952148438
515;717.1865234375
516;716.9631958007812
517;716.7401733398438
518;716.5172729492188
519;716.2947387695312
520;716.0734252929688
521;715.8544311523438
522;715.6359252929688
523;715.4179077148438
524;715.2002563476562
525;714.9830932617188
526;714.7662963867188
527;714.5494995117188
528;714.3333129882812
529;714.1173706054688
530;713.9017944335938
531;713.686279296875
532;713.47119140625
533;713.25634765625
534;713.0418090820312
535;712.8274536132812
536;712.6133422851562
537;712.3995971679688
538;712.1859741210938
539;711.9724731445312
540;711.7592163085938
541;711.546142578125
542;711.3334350585938
543;711.120849609375
544;710.90869140625
545;710.6965942382812
546;710.4846801757812
547;710.27294921875
548;710.0617065429688
549;709.8504028320312
550;709.6399536132812
551;709.4303588867188
552;709.2207641601562
553;709.0114135742188
554;708.8023071289062
555;708.593505859375
556;708.3849487304688
557;708.1765747070312
558;707.9685668945312
559;707.7605590820312
560;707.5530395507812
561;707.3458862304688
562;707.13916015625
563;706.9326171875
564;706.7261352539062
565;706.5202026367188
566;706.3141479492188
567;706.1085815429688
568;705.9030151367188
569;705.6978149414062
570;705.4928588867188
571;705.2879028320312
572;705.0833129882812
573;704.87890625
574;704.674560546875
575;704.4705200195312
576;704.2667846679688
577;704.0632934570312
578;703.8599243164062
579;703.6567993164062
580;703.4537963867188
581;703.2509765625
582;703.0482788085938
583;702.845703125
584;702.6433715820312
585;702.4413452148438
586;702.2393188476562
587;702.0374145507812
588;701.8358764648438
589;701.6343383789062
590;701.4329223632812
591;701.231689453125
592;701.0307006835938
593;700.8297729492188
594;700.6290893554688
595;700.4282836914062
596;700.2278442382812
597;700.0274047851562
598;699.8273315429688
599;699.627197265625
600;699.4274291992188
601;699.2277221679688
602;699.0281372070312
603;698.82861328125
604;698.62939453125
605;698.43017578125
606;698.2310180664062
607;698.0322265625
608;697.83349609375
609;697.6348266601562
610;697.4364624023438
611;697.2380981445312
612;697.0402221679688
613;696.8422241210938
614;696.64453125
615;696.4469604492188
616;696.2494506835938
617;696.05224609375
618;695.8551635742188
619;695.6580200195312
620;695.4612426757812
621;695.2644653320312
622;695.06787109375
623;694.8713989257812
624;694.6751098632812
625;694.4789428710938
626;694.2828979492188
627;694.0870971679688
628;693.8917846679688
629;693.6965942382812
630;693.501708984375
631;693.306884765625
632;693.1121215820312
633;692.91748046875
634;692.7230834960938
635;692.5286254882812
636;692.3346557617188
637;692.1405639648438
638;691.9467163085938
639;691.7531127929688
640;691.5595703125
641;691.3660278320312
642;691.1727905273438
643;690.9796752929688
644;690.78662109375
645;690.59375
646;690.40087890625
647;690.208251953125
648;690.015625
649;689.8232421875
650;689.630859375
651;689.4386596679688
652;689.24658203125
653;689.0547485351562
654;688.8630981445312
655;688.6716918945312
656;688.4804077148438
657;688.2891235351562
658;688.09814453125
659;687.9072875976562
660;687.7166137695312
661;687.5260620117188
662;687.3355102539062
663;687.1452026367188
664;686.9550170898438
665;686.764892578125
666;686.5747680664062
667;686.3849487304688
668;686.1952514648438
669;686.0055541992188
670;685.8158569335938
671;685.62646484375
672;685.4371948242188
673;685.2478637695312
674;685.0588989257812
675;684.8700561523438
676;684.6812133789062
677;684.4924926757812
678;684.3041381835938
679;684.11572265625
680;683.9279174804688
681;683.7409057617188
682;683.5540161132812
683;683.3674926757812
684;683.1809692382812
685;682.99462890625
686;682.8084106445312
687;682.6224975585938
688;682.4367065429688
689;682.2509765625
690;682.0653686523438
691;681.8799438476562
692;681.694580078125
693;681.5093383789062
694;681.3242797851562
695;681.139404296875
696;680.95458984375
697;680.7698364257812
698;680.5852661132812
699;680.4008178710938
700;680.2163696289062
701;680.0320434570312
702;679.847900390625
703;679.6638793945312
704;679.4800415039062
705;679.296142578125
706;679.1123657226562
707;678.9287719726562
708;678.7453002929688
709;678.5618286132812
710;678.3786010742188
711;678.1953735351562
712;678.0123291015625
713;677.8292846679688
714;677.6464233398438
715;677.4634399414062
716;677.2808227539062
717;677.0982055664062
718;676.9157104492188
719;676.7333374023438
720;676.5510864257812
721;676.3688354492188
722;676.186767578125
723;676.0046997070312
724;675.8228149414062
725;675.6409301757812
726;675.4591674804688
727;675.2775268554688
728;675.0958862304688
729;674.9144287109375
730;674.7330932617188
731;674.5517578125
732;674.3705444335938
733;674.189453125
734;674.0084838867188
735;673.8275756835938
736;673.6467895507812
737;673.4660034179688
738;673.2853393554688
739;673.1048583984375
740;672.9243774414062
741;672.7439575195312
742;672.563720703125
743;672.383544921875
744;672.2034301757812
745;672.0234375
746;671.8435668945312
747;671.663818359375
748;671.4840698242188
749;671.3043212890625
750;671.124755859375
751;670.9453125
752;670.765869140625
753;670.5865478515625
754;670.4072265625
755;670.2280883789062
756;670.0490112304688
757;669.869873046875
758;669.69091796875
759;669.5121459960938
760;669.333251953125
761;669.154541015625
762;668.9758911132812
763;668.7973022460938
764;668.6188354492188
765;668.4403686523438
766;668.2620239257812
767;668.0838012695312
768;667.9057006835938
769;667.7277221679688
770;667.5497436523438
771;667.3718872070312
772;667.194091796875
773;667.016357421875
774;666.8388061523438
775;666.6611938476562
776;666.4837036132812
777;666.3063354492188
778;666.1289672851562
779;665.9517211914062
780;665.7744750976562
781;665.5973510742188
782;665.4203491210938
783;665.2433471679688
784;665.0665893554688
785;664.8898315429688
786;664.7133178710938
787;664.5367431640625
788;664.3602905273438
789;664.1842041015625
790;664.0089721679688
791;663.833740234375
792;663.6585693359375
793;663.483642578125
794;663.3097534179688
795;663.1365356445312
796;662.9636840820312
797;662.7908325195312
798;662.6182861328125
799;662.4459838867188
800;662.2737426757812
801;662.1015625
802;661.9296264648438
803;661.7578125
804;661.5862426757812
805;661.4149169921875
806;661.2438354492188
807;661.0728149414062
808;660.9019165039062
809;660.7311401367188
810;660.5604248046875
811;660.3898315429688
812;660.2194213867188
813;660.0490112304688
814;659.8787231445312
815;659.7086181640625
816;659.5385131835938
817;659.3685302734375
818;659.1986694335938
819;659.0288696289062
820;658.8591918945312
821;658.6896362304688
822;658.52001953125
823;658.3505249023438
824;658.1810913085938
825;658.0117797851562
826;657.842529296875
827;657.6734008789062
828;657.5042114257812
829;657.335205078125
830;657.1661987304688
831;656.9972534179688
832;656.828369140625
833;656.65966796875
834;656.490966796875
835;656.322265625
836;656.1536254882812
837;655.985107421875
838;655.8167114257812
839;655.6483764648438
840;655.4801025390625
841;655.3118286132812
842;655.1437377929688
843;654.9756469726562
844;654.8076171875
845;654.6397094726562
846;654.471923828125
847;654.3040161132812
848;654.1362915039062
849;653.9686889648438
850;653.8010864257812
851;653.6336059570312
852;653.4661254882812
853;653.2987670898438
854;653.1314086914062
855;652.964111328125
856;652.7969360351562
857;652.6298217773438
858;652.462646484375
859;652.2955322265625
860;652.1286010742188
861;651.9617309570312
862;651.7947387695312
863;651.6279907226562
864;651.4611206054688
865;651.2944946289062
866;651.1277465820312
867;650.9612426757812
868;650.7947387695312
869;650.6283569335938
870;650.4619140625
871;650.2955932617188
872;650.1293334960938
873;649.9630737304688
874;649.7968139648438
875;649.6307983398438
876;649.4646606445312
877;649.298583984375
878;649.1326293945312
879;648.966796875
880;648.8009643554688
881;648.6351928710938
882;648.4696044921875
883;648.3045654296875
884;648.1395874023438
885;647.9746704101562
886;647.8098754882812
887;647.6452026367188
888;647.4806518554688
889;647.316162109375
890;647.1517944335938
891;646.9874877929688
892;646.8231811523438
893;646.6589965820312
894;646.4949340820312
895;646.3309936523438
896;646.1670532226562
897;646.0032348632812
898;645.8395385742188
899;645.6757202148438
900;645.5120239257812
901;645.3484497070312
902;645.1849975585938
903;645.0220336914062
904;644.8606567382812
905;644.6994018554688
906;644.5381469726562
907;644.377197265625
908;644.21630859375
909;644.0554809570312
910;643.8948364257812
911;643.7343139648438
912;643.5739135742188
913;643.41357421875
914;643.2533569335938
915;643.0932006835938
916;642.93310546875
917;642.773193359375
918;642.6133422851562
919;642.4534301757812
920;642.2937622070312
921;642.1340942382812
922;641.9745483398438
923;641.81494140625
924;641.655517578125
925;641.4961547851562
926;641.3368530273438
927;641.1776733398438
928;641.0184936523438
929;640.859375
930;640.7003784179688
931;640.5413208007812
932;640.3823852539062
933;640.2234497070312
934;640.064697265625
935;639.9059448242188
936;639.7471313476562
937;639.5885620117188
938;639.4306030273438
939;639.2728881835938
940;639.1150512695312
941;638.9574584960938
942;638.7998657226562
943;638.6425170898438
944;638.4850463867188
945;638.3277587890625
946;638.1705322265625
947;638.0133056640625
948;637.856201171875
949;637.6991577148438
950;637.542236328125
951;637.3853149414062
952;637.228515625
953;637.0717163085938
954;636.9149780273438
955;636.75830078125
956;636.6017456054688
957;636.4452514648438
958;636.2886352539062
959;636.1322631835938
960;635.9758911132812
961;635.819580078125
962;635.6632690429688
963;635.507080078125
964;635.3508911132812
965;635.19482421875
966;635.0387573242188
967;634.8827514648438
968;634.726806640625
969;634.5708618164062
970;634.4151000976562
971;634.2594604492188
972;634.1036987304688
973;633.9480590820312
974;633.79248046875
975;633.6369018554688
976;633.4813842773438
977;633.3259887695312
978;633.1705932617188
979;633.0153198242188
980;632.8599243164062
981;632.7047729492188
982;632.5494995117188
983;632.3943481445312
984;632.2392578125
985;632.0841674804688
986;631.92919921875
987;631.7742309570312
988;631.619384765625
989;631.4645385742188
990;631.3096923828125
991;631.1549682617188
992;631.000244140625
993;630.845458984375
994;630.69091796875
995;630.536376953125
996;630.3818359375
997;630.2273559570312
998;630.072998046875
999;629.9186401367188
1000;629.7642211914062
1001;629.6100463867188
1002;629.4558715820312
1003;629.3016967773438
1004;629.1476440429688
1005;628.99365234375
1006;628.8395385742188
1007;628.685546875
1008;628.5316162109375
1009;628.3778686523438
1010;628.2239990234375
1011;628.0702514648438
1012;627.9165649414062
1013;627.7627563476562
1014;627.609130859375
1015;627.4555053710938
1016;627.3019409179688
1017;627.1484375
1018;626.9949340820312
1019;626.8414916992188
1020;626.6880493164062
1021;626.5347290039062
1022;626.3814086914062
1023;626.2282104492188
1024;626.0750122070312
1025;625.921875
1026;625.7687377929688
1027;625.6156616210938
1028;625.4625854492188
1029;625.3096313476562
1030;625.15673828125
1031;625.0037841796875
1032;624.8508911132812
1033;624.6980590820312
1034;624.5453491210938
1035;624.3926391601562
1036;624.239990234375
1037;624.0873413085938
1038;623.934814453125
1039;623.7822875976562
1040;623.6298217773438
1041;623.4774169921875
1042;623.3250122070312
1043;623.1726684570312
1044;623.0203247070312
1045;622.8681640625
1046;622.7160034179688
1047;622.5637817382812
1048;622.4118041992188
1049;622.2597045898438
1050;622.1077270507812
1051;621.9557495117188
1052;621.8037719726562
1053;621.6519775390625
1054;621.5000610351562
1055;621.3483276367188
1056;621.196533203125
1057;621.0448608398438
1058;620.8932495117188
1059;620.7415771484375
1060;620.5900268554688
1061;620.4384765625
1062;620.2870483398438
1063;620.1355590820312
1064;619.9841918945312
1065;619.8328857421875
1066;619.6815795898438
1067;619.5303344726562
1068;619.379150390625
1069;619.2279663085938
1070;619.0768432617188
1071;618.9257202148438
1072;618.7748413085938
1073;618.623779296875
1074;618.472900390625
1075;618.3219604492188
1076;618.1710815429688
1077;618.0203247070312
1078;617.8695678710938
1079;617.7188110351562
1080;617.5681762695312
1081;617.4175415039062
1082;617.2669677734375
1083;617.116455078125
1084;616.9660034179688
1085;616.8154907226562
1086;616.6650390625
1087;616.5147094726562
1088;616.3643798828125
1089;616.2141723632812
1090;616.06396484375
1091;615.9137573242188
1092;615.7637329101562
1093;615.6136474609375
1094;615.4636840820312
1095;615.3138427734375
1096;615.1638793945312
1097;615.0139770507812
1098;614.8641967773438
1099;614.7144775390625
1100;614.5647583007812
1101;614.4150390625
1102;614.265380859375
1103;614.1158447265625
1104;613.9662475585938
1105;613.8167114257812
1106;613.6672973632812
1107;613.5178833007812
1108;613.3685913085938
1109;613.2191772460938
1110;613.0699462890625
1111;612.9207153320312
1112;612.7716674804688
1113;612.6224975585938
1114;612.4734497070312
1115;612.3244018554688
1116;612.1754760742188
1117;612.0264892578125
1118;611.8776245117188
1119;611.7288208007812
1120;611.5800170898438
1121;611.4312133789062
1122;611.282470703125
1123;611.1338500976562
1124;610.9851684570312
1125;610.8365478515625
1126;610.6880493164062
1127;610.53955078125
1128;610.39111328125
1129;610.24267578125
1130;610.0942993164062
1131;609.9459838867188
1132;609.7976684570312
1133;609.6494140625
1134;609.5011596679688
1135;609.3529663085938
1136;609.2048950195312
1137;609.0568237304688
1138;608.9088134765625
1139;608.7608032226562
1140;608.6128540039062
1141;608.4649047851562
1142;608.3170776367188
1143;608.1691284179688
1144;608.0214233398438
1145;607.8736572265625
1146;607.7260131835938
1147;607.5783081054688
1148;607.4306640625
1149;607.2830810546875
1150;607.1355590820312
1151;606.9880981445312
1152;606.8406372070312
1153;606.6931762695312
1154;606.5458374023438
1155;606.3984375
1156;606.2511596679688
1157;606.1039428710938
1158;605.9567260742188
1159;605.8095092773438
1160;605.662353515625
1161;605.5153198242188
1162;605.3681640625
1163;605.22119140625
1164;605.07421875
1165;604.9273071289062
1166;604.7803344726562
1167;604.633544921875
1168;604.4866943359375
1169;604.3399047851562
1170;604.1931762695312
1171;604.0465087890625
1172;603.89990234375
1173;603.7532958984375
1174;603.606689453125
1175;603.4601440429688
1176;603.3136596679688
1177;603.167236328125
1178;603.0208740234375
1179;602.87451171875
1180;602.7280883789062
1181;602.5818481445312
1182;602.4356079101562
1183;602.2894897460938
1184;602.1432495117188
1185;601.9971313476562
1186;601.85107421875
1187;601.7050170898438
1188;601.5589599609375
1189;601.4130249023438
1190;601.26708984375
1191;601.1212158203125
1192;600.975341796875
1193;600.8295288085938
1194;600.6837158203125
1195;600.5380249023438
1196;600.392333984375
1197;600.2467041015625
1198;600.1011352539062
1199;599.9555053710938
1200;599.8099975585938
1201;599.6644897460938
1202;599.51904296875
1203;599.3735961914062
1204;599.2282104492188
1205;599.0828247070312
1206;598.9375610351562
1207;598.7922973632812
1208;598.6470336914062
1209;598.5018920898438
1210;598.3567504882812
1211;598.2117309570312
1212;598.066650390625
1213;597.921630859375
1214;597.776611328125
1215;597.6316528320312
1216;597.4867553710938
1217;597.3418579101562
1218;597.1970825195312
1219;597.0523071289062
1220;596.9075317382812
1221;596.7627563476562
1222;596.6181030273438
1223;596.4734497070312
1224;596.3289184570312
1225;596.184326171875
1226;596.039794921875
1227;595.8953857421875
1228;595.7509155273438
1229;595.6065063476562
1230;595.4620971679688
1231;595.3178100585938
1232;595.1734619140625
1233;595.029296875
1234;594.8850708007812
1235;594.7409057617188
1236;594.5967407226562
1237;594.45263671875
1238;594.30859375
1239;594.16455078125
1240;594.0205078125
1241;593.8766479492188
1242;593.7327270507812
1243;593.5888061523438
1244;593.4450073242188
1245;593.3012084960938
1246;593.1574096679688
1247;593.013671875
1248;592.8699340820312
1249;592.726318359375
1250;592.5827026367188
1251;592.4390869140625
1252;592.2954711914062
1253;592.1520385742188
1254;592.0086059570312
1255;591.8651733398438
1256;591.7217407226562
1257;591.5784301757812
1258;591.43505859375
1259;591.2918090820312
1260;591.1484985351562
1261;591.0053100585938
1262;590.8621215820312
1263;590.7190551757812
1264;590.575927734375
1265;590.432861328125
1266;590.289794921875
1267;590.1467895507812
1268;590.00390625
1269;589.8609619140625
1270;589.7180786132812
1271;589.5752563476562
1272;589.4324340820312
1273;589.2896118164062
1274;589.1469116210938
1275;589.0042114257812
1276;588.8616333007812
1277;588.7189331054688
1278;588.5763549804688
1279;588.433837890625
1280;588.2913208007812
1281;588.1488037109375
1282;588.0064086914062
1283;587.8639526367188
1284;587.7216186523438
1285;587.5792846679688
1286;587.43701171875
1287;587.2947387695312
1288;587.1525268554688
1289;587.0103149414062
1290;586.8681030273438
1291;586.7260131835938
1292;586.583984375
1293;586.44189453125
1294;586.2998657226562
1295;586.1578979492188
1296;586.0159301757812
1297;585.8740234375
1298;585.732177734375
1299;585.5903930664062
1300;585.4485473632812
1301;585.3068237304688
1302;585.1651000976562
1303;585.0234375
1304;584.8817749023438
1305;584.7401733398438
1306;584.5985717773438
1307;584.4570922851562
1308;584.3156127929688
1309;584.1741333007812
1310;584.0326538085938
1311;583.8912963867188
1312;583.7499389648438
1313;583.6085815429688
1314;583.4673461914062
1315;583.3261108398438
1316;583.184814453125
1317;583.0436401367188
1318;582.9025268554688
1319;582.7614135742188
1320;582.620361328125
1321;582.4793090820312
1322;582.3383178710938
1323;582.1973266601562
1324;582.0563354492188
1325;581.9154663085938
1326;581.7745971679688
1327;581.6337280273438
1328;581.492919921875
1329;581.3522338867188
1330;581.2114868164062
1331;581.07080078125
1332;580.9301147460938
1333;580.78955078125
1334;580.6489868164062
1335;580.508544921875
1336;580.367919921875
1337;580.2274780273438
1338;580.0869750976562
1339;579.9467163085938
1340;579.806396484375
1341;579.6660766601562
1342;579.5258178710938
1343;579.385498046875
1344;579.245361328125
1345;579.105224609375
1346;578.9650268554688
1347;578.824951171875
1348;578.684814453125
1349;578.5447998046875
1350;578.40478515625
1351;578.2648315429688
1352;578.1248779296875
1353;577.9849853515625
1354;577.8451538085938
1355;577.705322265625
1356;577.5654907226562
1357;577.4257202148438
1358;577.2859497070312
1359;577.1463012695312
1360;577.0066528320312
1361;576.8670654296875
1362;576.7274780273438
1363;576.587890625
1364;576.4484252929688
1365;576.3088989257812
1366;576.1694946289062
1367;576.030029296875
1368;575.8905639648438
1369;575.7512817382812
1370;575.6119995117188
1371;575.4727172851562
1372;575.3334350585938
1373;575.1942138671875
1374;575.0551147460938
1375;574.9158935546875
1376;574.7767333984375
1377;574.6376953125
1378;574.4985961914062
1379;574.3595581054688
1380;574.2206420898438
1381;574.0817260742188
1382;573.9427490234375
1383;573.8038940429688
1384;573.6650390625
1385;573.5263061523438
1386;573.3875122070312
1387;573.2487182617188
1388;573.1100463867188
1389;572.9713745117188
1390;572.8327026367188
1391;572.694091796875
1392;572.5554809570312
1393;572.4169311523438
1394;572.2783813476562
1395;572.1399536132812
1396;572.00146484375
1397;571.863037109375
1398;571.7246704101562
1399;571.5863037109375
1400;571.4480590820312
1401;571.3097534179688
1402;571.1715087890625
1403;571.0332641601562
1404;570.8950805664062
1405;570.7570190429688
1406;570.6188354492188
1407;570.480712890625
1408;570.3426513671875
1409;570.2046508789062
1410;570.0667114257812
1411;569.9287719726562
1412;569.7908325195312
1413;569.6529541015625
1414;569.5150756835938
1415;569.3772583007812
1416;569.2394409179688
1417;569.1017456054688
1418;568.9639282226562
1419;568.8263549804688
1420;568.6886596679688
1421;568.5510864257812
1422;568.4134521484375
1423;568.2758178710938
1424;568.1383666992188
1425;568.0007934570312
1426;567.8633422851562
1427;567.7258911132812
1428;567.5885620117188
1429;567.451171875
1430;567.3139038085938
1431;567.1765747070312
1432;567.0393676757812
1433;566.9020385742188
1434;566.764892578125
1435;566.6277465820312
1436;566.4905395507812
1437;566.3534545898438
1438;566.2163696289062
1439;566.0792846679688
1440;565.9423217773438
1441;565.8052978515625
1442;565.6682739257812
1443;565.5314331054688
1444;565.3945922851562
1445;565.2576904296875
1446;565.120849609375
1447;564.984130859375
1448;564.8473510742188
1449;564.7105102539062
1450;564.5738525390625
1451;564.4371948242188
1452;564.300537109375
1453;564.1639404296875
1454;564.02734375
1455;563.8908081054688
1456;563.7543334960938
1457;563.6178588867188
1458;563.4813842773438
1459;563.344970703125
1460;563.2085571289062
1461;563.0722045898438
1462;562.9359741210938
1463;562.7996215820312
1464;562.6633911132812
1465;562.5271606445312
1466;562.3909301757812
1467;562.2548217773438
1468;562.11865234375
1469;561.9825439453125
1470;561.846435546875
1471;561.71044921875
1472;561.5744018554688
1473;561.4384765625
1474;561.302490234375
1475;561.1665649414062
1476;561.0307006835938
1477;560.894775390625
1478;560.7589721679688
1479;560.6232299804688
1480;560.4874267578125
1481;560.3517456054688
1482;560.216064453125
1483;560.0803833007812
1484;559.9447631835938
1485;559.8091430664062
1486;559.6735229492188
1487;559.5380249023438
1488;559.4025268554688
1489;559.2670288085938
1490;559.1315307617188
1491;558.9960327148438
1492;558.8606567382812
1493;558.725341796875
1494;558.5899658203125
1495;558.4546508789062
1496;558.3193969726562
1497;558.1841430664062
1498;558.0488891601562
1499;557.9137573242188
1500;557.778564453125
1501;557.6433715820312
1502;557.50830078125
1503;557.3732299804688
1504;557.2382202148438
1505;557.1032104492188
1506;556.9682006835938
1507;556.8333129882812
1508;556.6983032226562
1509;556.5634765625
1510;556.4286499023438
1511;556.2937622070312
1512;556.1589965820312
1513;556.0242309570312
1514;555.8894653320312
1515;555.7547607421875
1516;555.6200561523438
1517;555.4853515625
1518;555.3507690429688
1519;555.2162475585938
1520;555.0816040039062
1521;554.9470825195312
1522;554.8125610351562
1523;554.6781616210938
1524;554.543701171875
1525;554.4092407226562
1526;554.27490234375
1527;554.1405639648438
1528;554.0062866210938
1529;553.8719482421875
1530;553.7377319335938
1531;553.6033935546875
1532;553.46923828125
1533;553.3350830078125
1534;553.200927734375
1535;553.0668334960938
1536;552.9326782226562
1537;552.7986450195312
1538;552.6646118164062
1539;552.5307006835938
1540;552.3966674804688
1541;552.2627563476562
1542;552.1288452148438
1543;551.9949340820312
1544;551.861083984375
1545;551.727294921875
1546;551.593505859375
1547;551.4597778320312
1548;551.3259887695312
1549;551.1923217773438
1550;551.05859375
1551;550.9249877929688
1552;550.7913208007812
1553;550.6577758789062
1554;550.524169921875
1555;550.3906860351562
1556;550.2571411132812
1557;550.1236572265625
1558;549.9901733398438
1559;549.8567504882812
1560;549.723388671875
1561;549.5900268554688
1562;549.4567260742188
1563;549.3234252929688
1564;549.1901245117188
1565;549.056884765625
1566;548.9236450195312
1567;548.79052734375
1568;548.6572875976562
1569;548.524169921875
1570;548.3910522460938
1571;548.2579956054688
1572;548.1249389648438
1573;547.991943359375
1574;547.8589477539062
1575;547.7258911132812
1576;547.5929565429688
1577;547.4600219726562
1578;547.3272094726562
1579;547.1943359375
1580;547.0615844726562
1581;546.9287719726562
1582;546.7959594726562
1583;546.6632690429688
1584;546.530517578125
1585;546.3978881835938
1586;546.2651977539062
1587;546.1326293945312
1588;546.0000610351562
1589;545.8676147460938
1590;545.7354125976562
1591;545.6032104492188
1592;545.4710083007812
1593;545.3389892578125
1594;545.2069091796875
1595;545.0748901367188
1596;544.94287109375
1597;544.8109130859375
1598;544.6790771484375
1599;544.5471801757812
1600;544.4153442382812
1601;544.2835083007812
1602;544.1517333984375
1603;544.0200805664062
1604;543.8883666992188
1605;543.7567138671875
1606;543.6250610351562
1607;543.4934692382812
1608;543.3618774414062
1609;543.2303466796875
1610;543.098876953125
1611;542.9673461914062
1612;542.8359985351562
1613;542.7045288085938
1614;542.5731811523438
1615;542.4418334960938
1616;542.310546875
1617;542.1792602539062
1618;542.0479736328125
1619;541.9168090820312
1620;541.7855834960938
1621;541.6543579101562
1622;541.5232543945312
1623;541.3921508789062
1624;541.2610473632812
1625;541.1300048828125
1626;540.9989624023438
1627;540.8679809570312
1628;540.7369995117188
1629;540.6060180664062
1630;540.47509765625
1631;540.34423828125
1632;540.21337890625
1633;540.0825805664062
1634;539.9517211914062
1635;539.8209228515625
1636;539.6902465820312
1637;539.5595092773438
1638;539.4287719726562
1639;539.298095703125
1640;539.16748046875
1641;539.036865234375
1642;538.9063110351562
1643;538.7756958007812
1644;538.6452026367188
1645;538.5146484375
1646;538.3841552734375
1647;538.2537231445312
1648;538.123291015625
1649;537.9928588867188
1650;537.8624267578125
1651;537.7321166992188
1652;537.601806640625
1653;537.4714965820312
1654;537.3412475585938
1655;537.2109985351562
1656;537.0807495117188
1657;536.9506225585938
1658;536.8203735351562
1659;536.6902465820312
1660;536.5601196289062
1661;536.4301147460938
1662;536.300048828125
1663;536.1699829101562
1664;536.0399780273438
1665;535.9099731445312
1666;535.7800903320312
1667;535.6502075195312
1668;535.5203247070312
1669;535.3905029296875
1670;535.2606811523438
1671;535.1309204101562
1672;535.0010375976562
1673;534.8713989257812
1674;534.7416381835938
1675;534.6119995117188
1676;534.4823608398438
1677;534.3527221679688
1678;534.2230834960938
1679;534.0935668945312
1680;533.9639892578125
1681;533.8344116210938
1682;533.7049560546875
1683;533.5755004882812
1684;533.4459838867188
1685;533.3167114257812
1686;533.1875610351562
1687;533.0584106445312
1688;532.929443359375
1689;532.8003540039062
1690;532.6714477539062
1691;532.5425415039062
1692;532.4136352539062
1693;532.2847290039062
1694;532.1558837890625
1695;532.027099609375
1696;531.8982543945312
1697;531.7695922851562
1698;531.640869140625
1699;531.5121459960938
1700;531.3834838867188
1701;531.2548217773438
1702;531.1262817382812
1703;530.9977416992188
1704;530.8692016601562
1705;530.7406616210938
1706;530.6121215820312
1707;530.4837036132812
1708;530.3552856445312
1709;530.2269287109375
1710;530.0985717773438
1711;529.9701538085938
1712;529.8418579101562
1713;529.7135620117188
1714;529.5852661132812
1715;529.45703125
1716;529.328857421875
1717;529.20068359375
1718;529.072509765625
1719;528.9443969726562
1720;528.8163452148438
1721;528.6881713867188
1722;528.5601196289062
1723;528.4320678710938
1724;528.3040771484375
1725;528.1760864257812
1726;528.0481567382812
1727;527.9202270507812
1728;527.7922973632812
1729;527.6644287109375
1730;527.53662109375
1731;527.4087524414062
1732;527.281005859375
1733;527.1532592773438
1734;527.0254516601562
1735;526.8977661132812
1736;526.7701416015625
1737;526.6425170898438
1738;526.5148315429688
1739;526.3872680664062
1740;526.2597045898438
1741;526.1321411132812
1742;526.004638671875
1743;525.8771362304688
1744;525.7496337890625
1745;525.6221923828125
1746;525.4948120117188
1747;525.367431640625
1748;525.2400512695312
1749;525.1127319335938
1750;524.9854125976562
1751;524.858154296875
1752;524.7308959960938
1753;524.6036376953125
1754;524.4764404296875
1755;524.3492431640625
1756;524.2220458984375
1757;524.0949096679688
1758;523.9678344726562
1759;523.8407592773438
1760;523.7136840820312
1761;523.5866088867188
1762;523.4596557617188
1763;523.3325805664062
1764;523.2056274414062
1765;523.0787353515625
1766;522.9518432617188
1767;522.824951171875
1768;522.6980590820312
1769;522.5712890625
1770;522.4444580078125
1771;522.3176879882812
1772;522.19091796875
1773;522.064208984375
1774;521.9375
1775;521.810791015625
1776;521.68408203125
1777;521.5575561523438
1778;521.430908203125
1779;521.3043212890625
1780;521.177734375
1781;521.0512084960938
1782;520.9246826171875
1783;520.7982177734375
1784;520.6717529296875
1785;520.5453491210938
1786;520.4189453125
1787;520.2925415039062
1788;520.1661987304688
1789;520.0398559570312
1790;519.9135131835938
1791;519.7872314453125
1792;519.6609497070312
1793;519.5347290039062
1794;519.4085693359375
1795;519.2822875976562
1796;519.1561889648438
1797;519.030029296875
1798;518.9038696289062
1799;518.7777709960938
1800;518.6517944335938
1801;518.5257568359375
1802;518.3997192382812
1803;518.2737426757812
1804;518.1477661132812
1805;518.0217895507812
1806;517.8959350585938
1807;517.77001953125
1808;517.6441040039062
1809;517.5182495117188
1810;517.3925170898438
1811;517.2667236328125
1812;517.1409301757812
1813;517.0151977539062
1814;516.8894653320312
1815;516.7637939453125
1816;516.6381225585938
1817;516.512451171875
1818;516.3867797851562
1819;516.26123046875
1820;516.1357421875
1821;516.0101318359375
1822;515.8845825195312
1823;515.7590942382812
1824;515.6336059570312
1825;515.5081176757812
1826;515.3827514648438
1827;515.25732421875
1828;515.1320190429688
1829;515.006591796875
1830;514.88134765625
1831;514.7559814453125
1832;514.6306762695312
1833;514.5054321289062
1834;514.3803100585938
1835;514.2550659179688
1836;514.1298828125
1837;514.0046997070312
1838;513.8795776367188
1839;513.7544555664062
1840;513.62939453125
1841;513.5043334960938
1842;513.3793334960938
1843;513.2543334960938
1844;513.1293334960938
1845;513.00439453125
1846;512.8794555664062
1847;512.7544555664062
1848;512.629638671875
1849;512.5047607421875
1850;512.3798828125
1851;512.255126953125
1852;512.1303100585938
1853;512.0055541992188
1854;511.8808288574219
1855;511.756103515625
1856;511.63134765625
1857;511.5066833496094
1858;511.3820495605469
1859;511.2574157714844
1860;511.1328430175781
1861;511.0082702636719
1862;510.8837585449219
1863;510.7591857910156
1864;510.6346740722656
1865;510.51025390625
1866;510.3857421875
1867;510.2613525390625
1868;510.1369323730469
1869;510.0125732421875
1870;509.8882141113281
1871;509.7638244628906
1872;509.6395568847656
1873;509.5152587890625
1874;509.3909912109375
1875;509.2667541503906
1876;509.142578125
1877;509.0184020996094
1878;508.8942565917969
1879;508.7701416015625
1880;508.6459655761719
1881;508.5218505859375
1882;508.3977966308594
1883;508.2737121582031
1884;508.1497802734375
1885;508.0257263183594
1886;507.9017639160156
1887;507.77783203125
1888;507.6539001464844
1889;507.530029296875
1890;507.4061279296875
1891;507.2822570800781
1892;507.158447265625
1893;507.03466796875
1894;506.910888671875
1895;506.787109375
1896;506.6634521484375
1897;506.5397033691406
1898;506.416015625
1899;506.2923583984375
1900;506.1687316894531
1901;506.0450744628906
1902;505.9215393066406
1903;505.7979431152344
1904;505.6744079589844
1905;505.5508728027344
1906;505.4274597167969
1907;505.303955078125
1908;505.1805114746094
1909;505.0570983886719
1910;504.9336853027344
1911;504.810302734375
1912;504.6869812011719
1913;504.5636291503906
1914;504.4403076171875
1915;504.317138671875
1916;504.19384765625
1917;504.0706481933594
1918;503.9474182128906
1919;503.8243103027344
1920;503.7011413574219
1921;503.5780334472656
1922;503.4549255371094
1923;503.3319091796875
1924;503.2088317871094
1925;503.0858459472656
1926;502.9627990722656
1927;502.83984375
1928;502.7168884277344
1929;502.5939636230469
1930;502.4710998535156
1931;502.3481750488281
1932;502.225341796875
1933;502.1024475097656
1934;501.9797058105469
1935;501.85693359375
1936;501.734130859375
1937;501.6114196777344
1938;501.48876953125
1939;501.3660583496094
1940;501.2433776855469
1941;501.1207275390625
1942;500.9981384277344
1943;500.8755187988281
1944;500.7529296875
1945;500.63037109375
1946;500.5079040527344
1947;500.3853454589844
1948;500.2628479003906
1949;500.1404113769531
1950;500.0179748535156
1951;499.8955993652344
1952;499.7731628417969
1953;499.65087890625
1954;499.5285339355469
1955;499.4061584472656
1956;499.2839050292969
1957;499.16162109375
1958;499.0393981933594
1959;498.9171447753906
1960;498.7950134277344
1961;498.6728210449219
1962;498.5506286621094
1963;498.4285583496094
1964;498.306396484375
1965;498.184326171875
1966;498.0622863769531
1967;497.9402770996094
1968;497.8182373046875
1969;497.6961975097656
1970;497.57421875
1971;497.4523010253906
1972;497.3304138183594
1973;497.20849609375
1974;497.086669921875
1975;496.9648132324219
1976;496.8429870605469
1977;496.7211608886719
1978;496.5994567871094
1979;496.4776916503906
1980;496.35595703125
1981;496.2342834472656
1982;496.1126403808594
1983;495.990966796875
1984;495.869384765625
1985;495.747802734375
1986;495.6261901855469
1987;495.5047302246094
1988;495.3831787109375
1989;495.2616882324219
1990;495.1401672363281
1991;495.0187683105469
1992;494.8973388671875
1993;494.7759094238281
1994;494.6545104980469
1995;494.5331115722656
1996;494.4117736816406
1997;494.29052734375
1998;494.1692199707031
1999;494.0479736328125
2000;493.9266662597656
2001;493.8055114746094
2002;493.6842956542969
2003;493.5631103515625
2004;493.4419860839844
2005;493.3208312988281
2006;493.1997375488281
2007;493.0786437988281
2008;492.9576110839844
2009;492.8365478515625
2010;492.7155456542969
2011;492.5946044921875
2012;492.4736328125
2013;492.3526611328125
2014;492.231689453125
2015;492.1108093261719
2016;491.989990234375
2017;491.8691101074219
2018;491.748291015625
2019;491.6274719238281
2020;491.5067138671875
2021;491.3858947753906
2022;491.2652282714844
2023;491.1445007324219
2024;491.0237731933594
2025;490.903076171875
2026;490.7824401855469
2027;490.6617736816406
2028;490.5411682128906
2029;490.4206237792969
2030;490.3000183105469
2031;490.1795349121094
2032;490.0589904785156
2033;489.9384765625
2034;489.8180236816406
2035;489.6975402832031
2036;489.5771484375
2037;489.4566955566406
2038;489.3363952636719
2039;489.2159729003906
2040;489.0956726074219
2041;488.9753723144531
2042;488.8550720214844
2043;488.7347717285156
2044;488.6145935058594
2045;488.4942932128906
2046;488.3741149902344
2047;488.2539367675781
2048;488.1338195800781
2049;488.013671875
2050;487.8935546875
2051;487.7735290527344
2052;487.6534118652344
2053;487.5333557128906
2054;487.4134216308594
2055;487.2933654785156
2056;487.1734313964844
2057;487.053466796875
2058;486.9335632324219
2059;486.8136291503906
2060;486.6937255859375
2061;486.5738830566406
2062;486.4540100097656
2063;486.334228515625
2064;486.2144775390625
2065;486.0946350097656
2066;485.9749450683594
2067;485.8551330566406
2068;485.7354431152344
2069;485.6158142089844
2070;485.4961242675781
2071;485.37646484375
2072;485.2568359375
2073;485.1372985839844
2074;485.0177001953125
2075;484.898193359375
2076;484.7786560058594
2077;484.6591491699219
2078;484.5396423339844
2079;484.420166015625
2080;484.30078125
2081;484.1813049316406
2082;484.0619201660156
2083;483.9425964355469
2084;483.8232421875
2085;483.7038879394531
2086;483.5846252441406
2087;483.4653015136719
2088;483.3460388183594
2089;483.226806640625
2090;483.1076354980469
2091;482.9884033203125
2092;482.8692626953125
2093;482.7501220703125
2094;482.6309509277344
2095;482.5118713378906
2096;482.3927307128906
2097;482.2737121582031
2098;482.1546630859375
2099;482.03564453125
2100;481.9167175292969
2101;481.7976989746094
2102;481.6787414550781
2103;481.559814453125
2104;481.44091796875
2105;481.322021484375
2106;481.2031555175781
2107;481.0843200683594
2108;480.9654846191406
2109;480.8467102050781
2110;480.7279052734375
2111;480.609130859375
2112;480.490478515625
2113;480.3717346191406
2114;480.2530822753906
2115;480.1344299316406
2116;480.0157775878906
2117;479.897216796875
2118;479.778564453125
2119;479.6600036621094
2120;479.5414733886719
2121;479.4229431152344
2122;479.304443359375
2123;479.1860046386719
2124;479.0675048828125
2125;478.9490661621094
2126;478.8307189941406
2127;478.7122802734375
2128;478.5939025878906
2129;478.4755554199219
2130;478.3572082519531
2131;478.2388916015625
2132;478.1206359863281
2133;478.0024108886719
2134;477.8841247558594
2135;477.7659606933594
2136;477.6477355957031
2137;477.5295715332031
2138;477.411376953125
2139;477.293212890625
2140;477.1751403808594
2141;477.0570373535156
2142;476.93896484375
2143;476.8209228515625
2144;476.7029113769531
2145;476.5849609375
2146;476.4669189453125
2147;476.3489685058594
2148;476.2310485839844
2149;476.1131591796875
2150;475.9952697753906
2151;475.87744140625
2152;475.7595520019531
2153;475.6417541503906
2154;475.5239562988281
2155;475.4061279296875
2156;475.288330078125
2157;475.170654296875
2158;475.0528564453125
2159;474.9352111816406
2160;474.8175354003906
2161;474.6999206542969
2162;474.582275390625
2163;474.4646911621094
2164;474.3470764160156
2165;474.2295227050781
2166;474.1119384765625
2167;473.9944152832031
2168;473.8769226074219
2169;473.7594299316406
2170;473.6419982910156
2171;473.5245666503906
2172;473.4071960449219
2173;473.2897644042969
2174;473.1723937988281
2175;473.0550537109375
2176;472.9377136230469
2177;472.8204345703125
2178;472.7031555175781
2179;472.5859069824219
2180;472.4685974121094
2181;472.3514404296875
2182;472.2341613769531
2183;472.1170654296875
2184;471.9998474121094
2185;471.8827209472656
2186;471.765625
2187;471.6485290527344
2188;471.531494140625
2189;471.4144287109375
2190;471.2973937988281
2191;471.1803894042969
2192;471.0633850097656
2193;470.9464416503906
2194;470.8294982910156
2195;470.7125549316406
2196;470.5957336425781
2197;470.4788513183594
2198;470.3619689941406
2199;470.2452087402344
2200;470.1283264160156
2201;470.0115966796875
2202;469.894775390625
2203;469.7779846191406
2204;469.6612854003906
2205;469.5445861816406
2206;469.4278869628906
2207;469.3112487792969
2208;469.194580078125
2209;469.0779724121094
2210;468.9613952636719
2211;468.8448181152344
2212;468.7282409667969
2213;468.6116943359375
2214;468.4952087402344
2215;468.3786926269531
2216;468.2622375488281
2217;468.1458435058594
2218;468.0293884277344
2219;467.9129638671875
2220;467.7965393066406
2221;467.6802062988281
2222;467.5638122558594
2223;467.4475402832031
2224;467.3312072753906
2225;467.2149353027344
2226;467.0986633300781
2227;466.9824523925781
2228;466.8662109375
2229;466.7500305175781
2230;466.6338806152344
2231;466.5177001953125
2232;466.401611328125
2233;466.2854919433594
2234;466.1693420410156
2235;466.0533142089844
2236;465.937255859375
2237;465.8211975097656
2238;465.7052307128906
2239;465.5892333984375
2240;465.4732971191406
2241;465.3573303222656
2242;465.241455078125
2243;465.12548828125
2244;465.0096435546875
2245;464.893798828125
2246;464.7779541015625
2247;464.662109375
2248;464.5462951660156
2249;464.4305114746094
2250;464.3147888183594
2251;464.1990661621094
2252;464.0833740234375
2253;463.9676818847656
2254;463.8520202636719
2255;463.7364196777344
2256;463.6207580566406
2257;463.505126953125
2258;463.3896179199219
2259;463.2740173339844
2260;463.1585388183594
2261;463.04296875
2262;462.9274597167969
2263;462.8119812011719
2264;462.6965026855469
2265;462.5810546875
2266;462.4656677246094
2267;462.3502502441406
2268;462.2349548339844
2269;462.1195373535156
2270;462.0042419433594
2271;461.8890075683594
2272;461.773681640625
2273;461.6584167480469
2274;461.5431823730469
2275;461.427978515625
2276;461.312744140625
2277;461.1976013183594
2278;461.0824279785156
2279;460.9672546386719
2280;460.8521728515625
2281;460.7370300292969
2282;460.6219787597656
2283;460.5069580078125
2284;460.3918762207031
2285;460.2769470214844
2286;460.1618957519531
2287;460.0469055175781
2288;459.9320068359375
2289;459.8170471191406
2290;459.7021484375
2291;459.5872802734375
2292;459.4723815917969
2293;459.3575744628906
2294;459.2427673339844
2295;459.1279296875
2296;459.0131530761719
2297;458.8984375
2298;458.7836608886719
2299;458.6689453125
2300;458.5542297363281
2301;458.4395751953125
2302;458.3249206542969
2303;458.2102966308594
2304;458.0956726074219
2305;457.9810791015625
2306;457.8665466308594
2307;457.751953125
2308;457.637451171875
2309;457.5229187011719
2310;457.408447265625
2311;457.2939453125
2312;457.1795349121094
2313;457.0650939941406
2314;456.95068359375
2315;456.8363037109375
2316;456.721923828125
2317;456.6075744628906
2318;456.4932556152344
2319;456.3789367675781
2320;456.2646789550781
2321;456.1504211425781
2322;456.0361633300781
2323;455.9219665527344
2324;455.8077392578125
2325;455.6935729980469
2326;455.5794372558594
2327;455.4653015136719
2328;455.3511657714844
2329;455.237060546875
2330;455.1230163574219
2331;455.0089416503906
2332;454.8949279785156
2333;454.7809143066406
2334;454.6669006347656
2335;454.5529479980469
2336;454.43896484375
2337;454.3250427246094
2338;454.2110900878906
2339;454.0972595214844
2340;453.9833984375
2341;453.8695373535156
2342;453.7557067871094
2343;453.6418762207031
2344;453.5281066894531
2345;453.4143371582031
2346;453.3006286621094
2347;453.1868591308594
2348;453.0732116699219
2349;452.95947265625
2350;452.8458251953125
2351;452.732177734375
2352;452.6185607910156
2353;452.5049743652344
2354;452.3913879394531
2355;452.2778625488281
2356;452.1642761230469
2357;452.05078125
2358;451.9372863769531
2359;451.8238525390625
2360;451.7103271484375
2361;451.596923828125
2362;451.4834899902344
2363;451.3701171875
2364;451.2567138671875
2365;451.1433410644531
2366;451.030029296875
2367;450.916748046875
2368;450.8034362792969
2369;450.6901550292969
2370;450.576904296875
2371;450.4637145996094
2372;450.3504638671875
2373;450.2372741699219
2374;450.1241149902344
2375;450.0108947753906
2376;449.8978271484375
2377;449.7846984863281
2378;449.671630859375
2379;449.5585632324219
2380;449.4455261230469
2381;449.3324890136719
2382;449.219482421875
2383;449.1064758300781
2384;448.9935607910156
2385;448.8805847167969
2386;448.7676696777344
2387;448.65478515625
2388;448.5418701171875
2389;448.4289855957031
2390;448.316162109375
2391;448.203369140625
2392;448.0905456542969
2393;447.977783203125
2394;447.864990234375
2395;447.7522277832031
2396;447.6395568847656
2397;447.5268249511719
2398;447.4141540527344
2399;447.3014831542969
2400;447.1888732910156
2401;447.0762634277344
2402;446.963623046875
2403;446.8510437011719
2404;446.7384948730469
2405;446.6259765625
2406;446.513427734375
2407;446.4009094238281
2408;446.2884826660156
2409;446.176025390625
2410;446.0635681152344
2411;445.951171875
2412;445.8387451171875
2413;445.7263488769531
2414;445.614013671875
2415;445.5016784667969
2416;445.3893737792969
2417;445.2770690917969
2418;445.1647644042969
2419;445.0525207519531
2420;444.9403076171875
2421;444.8280944824219
2422;444.7159423828125
2423;444.6037902832031
2424;444.4916687011719
2425;444.3795471191406
2426;444.2674255371094
2427;444.1553039550781
2428;444.0433044433594
2429;443.9312438964844
2430;443.8192138671875
2431;443.7071838378906
2432;443.5953063964844
2433;443.4832763671875
2434;443.3713684082031
2435;443.2594299316406
2436;443.1475524902344
2437;443.03564453125
2438;442.923828125
2439;442.8119812011719
2440;442.7001037597656
2441;442.58837890625
2442;442.4765930175781
2443;442.3648681640625
2444;442.2531433105469
2445;442.1413879394531
2446;442.0297546386719
2447;441.9180603027344
2448;441.806396484375
2449;441.6947937011719
2450;441.5831604003906
2451;441.4715881347656
2452;441.3600158691406
2453;441.2484436035156
2454;441.1369323730469
2455;441.0254211425781
2456;440.9139404296875
2457;440.802490234375
2458;440.6910705566406
2459;440.57958984375
2460;440.4681701660156
2461;440.3568115234375
2462;440.2453918457031
2463;440.1340637207031
2464;440.0227966308594
2465;439.9114685058594
2466;439.8002014160156
2467;439.6889343261719
2468;439.5776672363281
2469;439.4664611816406
2470;439.355224609375
2471;439.2440490722656
2472;439.1329345703125
2473;439.0217590332031
2474;438.91064453125
2475;438.799560546875
2476;438.6884765625
2477;438.577392578125
2478;438.46630859375
2479;438.3552551269531
2480;438.2442932128906
2481;438.13330078125
2482;438.0223693847656
2483;437.9114074707031
2484;437.8005065917969
2485;437.6895751953125
2486;437.5787048339844
2487;437.4678039550781
2488;437.3570251464844
2489;437.2461853027344
2490;437.1353454589844
2491;437.0245666503906
2492;436.913818359375
2493;436.8030700683594
2494;436.6922912597656
2495;436.5816345214844
2496;436.4709167480469
2497;436.3602600097656
2498;436.2496032714844
2499;436.1389465332031
2500;436.0283508300781
2501;435.9178161621094
2502;435.8071594238281
2503;435.6966552734375
2504;435.5860900878906
2505;435.4755859375
2506;435.3651123046875
2507;435.2546081542969
2508;435.1441650390625
2509;435.0337219238281
2510;434.92333984375
2511;434.8128967285156
2512;434.7025451660156
2513;434.5921936035156
2514;434.4818420410156
2515;434.3715515136719
2516;434.26123046875
2517;434.1509704589844
2518;434.0407409667969
2519;433.9305114746094
2520;433.8202209472656
2521;433.7100830078125
2522;433.5998840332031
2523;433.48974609375
2524;433.3795471191406
2525;433.2694396972656
2526;433.1593933105469
2527;433.04931640625
2528;432.939208984375
2529;432.8292236328125
2530;432.7192077636719
2531;432.6091613769531
2532;432.4991760253906
2533;432.3892517089844
2534;432.279296875
2535;432.1694030761719
2536;432.0594787597656
2537;431.9495849609375
2538;431.8396911621094
2539;431.7298583984375
2540;431.6200256347656
2541;431.5101623535156
2542;431.4004211425781
2543;431.2906799316406
2544;431.180908203125
2545;431.0711975097656
2546;430.9615173339844
2547;430.851806640625
2548;430.7421569824219
2549;430.6324768066406
2550;430.5228576660156
2551;430.4132385253906
2552;430.3037109375
2553;430.1941223144531
2554;430.0845947265625
2555;429.9750671386719
2556;429.8655700683594
2557;429.7560119628906
2558;429.6465148925781
2559;429.537109375
2560;429.4277038574219
2561;429.318359375
2562;429.2089538574219
2563;429.0995178222656
2564;428.990234375
2565;428.880859375
2566;428.7715148925781
2567;428.6622314453125
2568;428.5529479980469
2569;428.4436950683594
2570;428.33447265625
2571;428.2252502441406
2572;428.1160583496094
2573;428.0068664550781
2574;427.897705078125
2575;427.78857421875
2576;427.679443359375
2577;427.5703125
2578;427.4613037109375
2579;427.3522033691406
2580;427.2431640625
2581;427.1341552734375
2582;427.0251770019531
2583;426.9161682128906
2584;426.8072204589844
2585;426.6982421875
2586;426.5893249511719
2587;426.4803771972656
2588;426.3715515136719
2589;426.2626953125
2590;426.15380859375
2591;426.0450439453125
2592;425.9361877441406
2593;425.8274230957031
2594;425.7186584472656
2595;425.6098937988281
2596;425.5011901855469
2597;425.3924865722656
2598;425.2838134765625
2599;425.1751403808594
2600;425.0665283203125
2601;424.9578552246094
2602;424.8492431640625
2603;424.7406311035156
2604;424.632080078125
2605;424.5235290527344
2606;424.4149475097656
2607;424.3064880371094
2608;424.197998046875
2609;424.0895080566406
2610;423.9810485839844
2611;423.8725891113281
2612;423.7641906738281
2613;423.65576171875
2614;423.54736328125
2615;423.4390563964844
2616;423.3307189941406
2617;423.222412109375
2618;423.1141052246094
2619;423.0058288574219
2620;422.8975524902344
2621;422.789306640625
2622;422.6810607910156
2623;422.5728759765625
2624;422.4646911621094
2625;422.3565368652344
2626;422.2483825683594
2627;422.1402587890625
2628;422.0321350097656
2629;421.924072265625
2630;421.81591796875
2631;421.7079162597656
2632;421.599853515625
2633;421.4918518066406
2634;421.3838806152344
2635;421.2759094238281
2636;421.1679382324219
2637;421.0599670410156
2638;420.9520568847656
2639;420.8441467285156
2640;420.7362976074219
2641;420.62841796875
2642;420.5205993652344
2643;420.4128112792969
2644;420.3049621582031
2645;420.1971740722656
2646;420.0894470214844
2647;419.981689453125
2648;419.8739318847656
2649;419.7662353515625
2650;419.6585388183594
2651;419.5508728027344
2652;419.4432067871094
2653;419.3356018066406
2654;419.2279968261719
2655;419.120361328125
2656;419.0128173828125
2657;418.9052734375
2658;418.7977600097656
2659;418.6902160644531
2660;418.5827331542969
2661;418.4752502441406
2662;418.3678283691406
2663;418.2603454589844
2664;418.1529235839844
2665;418.0455322265625
2666;417.9381103515625
2667;417.8307800292969
2668;417.7234191894531
2669;417.6161193847656
2670;417.5087890625
2671;417.4014892578125
2672;417.2942199707031
2673;417.1869812011719
2674;417.0797424316406
2675;416.9725341796875
2676;416.8653564453125
2677;416.7582092285156
2678;416.6510314941406
2679;416.5438537597656
2680;416.436767578125
2681;416.3296813964844
2682;416.2226257324219
2683;416.1155090332031
2684;416.0084533691406
2685;415.9014587402344
2686;415.7945251464844
2687;415.6875
2688;415.58056640625
2689;415.4736022949219
2690;415.3666687011719
2691;415.259765625
2692;415.1529235839844
2693;415.0460205078125
2694;414.9391784667969
2695;414.8323669433594
2696;414.7254943847656
2697;414.6187438964844
2698;414.511962890625
2699;414.4051818847656
2700;414.2984619140625
2701;414.1917419433594
2702;414.0850524902344
2703;413.9783630371094
2704;413.8717041015625
2705;413.7650451660156
2706;413.658447265625
2707;413.5518493652344
2708;413.4452209472656
2709;413.3387145996094
2710;413.2321472167969
2711;413.1256103515625
2712;413.0190734863281
2713;412.91259765625
2714;412.80615234375
2715;412.69970703125
2716;412.5932312011719
2717;412.48681640625
2718;412.3804016113281
2719;412.2740478515625
2720;412.167724609375
2721;412.0613708496094
2722;411.955078125
2723;411.8487548828125
2724;411.742431640625
2725;411.6361999511719
2726;411.5299377441406
2727;411.4237060546875
2728;411.3175354003906
2729;411.2113342285156
2730;411.1051330566406
2731;410.9990234375
2732;410.8929138183594
2733;410.7867736816406
2734;410.6806640625
2735;410.5746154785156
2736;410.4685363769531
2737;410.3625183105469
2738;410.2565002441406
2739;410.1505126953125
2740;410.0445251464844
2741;409.9385681152344
2742;409.8326416015625
2743;409.7267150878906
2744;409.6208190917969
2745;409.5149230957031
2746;409.4090576171875
2747;409.3031921386719
2748;409.1973876953125
2749;409.0915832519531
2750;408.9857482910156
2751;408.8800354003906
2752;408.7742919921875
2753;408.6685485839844
2754;408.5628356933594
2755;408.4571228027344
2756;408.3514404296875
2757;408.2457580566406
2758;408.14013671875
2759;408.0345153808594
2760;407.9288635253906
2761;407.8232727050781
2762;407.7177429199219
2763;407.6122131347656
2764;407.5066833496094
2765;407.4012145996094
2766;407.2956848144531
2767;407.1902160644531
2768;407.0847473144531
2769;406.9793395996094
2770;406.8738708496094
2771;406.7684631347656
2772;406.6631164550781
2773;406.5577697753906
2774;406.452392578125
2775;406.3470764160156
2776;406.2417907714844
2777;406.1365051269531
2778;406.03125
2779;405.926025390625
2780;405.82080078125
2781;405.715576171875
2782;405.6103820800781
2783;405.5051574707031
2784;405.4000244140625
2785;405.2948913574219
2786;405.1897888183594
2787;405.084716796875
2788;404.9796447753906
2789;404.8746032714844
2790;404.76953125
2791;404.6644592285156
2792;404.5594787597656
2793;404.4544677734375
2794;404.3495178222656
2795;404.24462890625
2796;404.1396484375
2797;404.0347595214844
2798;403.9298400878906
2799;403.824951171875
2800;403.7201232910156
2801;403.6152648925781
2802;403.510498046875
2803;403.4056701660156
2804;403.3009033203125
2805;403.1961364746094
2806;403.0914001464844
2807;402.9866943359375
2808;402.8819580078125
2809;402.7773132324219
2810;402.672607421875
2811;402.5679626464844
2812;402.4632873535156
2813;402.3587341308594
2814;402.2541198730469
2815;402.1495361328125
2816;402.0450134277344
2817;401.9404602050781
2818;401.8359069824219
2819;401.7314453125
2820;401.626953125
2821;401.5224609375
2822;401.4179992675781
2823;401.3135986328125
2824;401.2091369628906
2825;401.1048278808594
2826;401.0004577636719
2827;400.8960876464844
2828;400.7917785644531
2829;400.6874694824219
2830;400.5831604003906
2831;400.4788513183594
2832;400.3746032714844
2833;400.2703552246094
2834;400.1661376953125
2835;400.0619201660156
2836;399.957763671875
2837;399.8536071777344
2838;399.7494201660156
2839;399.6452941894531
2840;399.5411682128906
2841;399.4371032714844
2842;399.3330078125
2843;399.2289733886719
2844;399.1249084472656
2845;399.0209045410156
2846;398.9169006347656
2847;398.8128967285156
2848;398.708984375
2849;398.6050109863281
2850;398.5010986328125
2851;398.3971862792969
2852;398.2933044433594
2853;398.1893615722656
2854;398.0855712890625
2855;397.9817810058594
2856;397.8779296875
2857;397.7740783691406
2858;397.6703796386719
2859;397.5665588378906
2860;397.462890625
2861;397.359130859375
2862;397.2554016113281
2863;397.1517028808594
2864;397.0480041503906
2865;396.9444274902344
2866;396.8407287597656
2867;396.7371520996094
2868;396.633544921875
2869;396.530029296875
2870;396.4264831542969
2871;396.3229064941406
2872;396.2193908691406
2873;396.1158447265625
2874;396.0123596191406
2875;395.9089050292969
2876;395.8054504394531
2877;395.7020568847656
2878;395.5986328125
2879;395.4952697753906
2880;395.3918762207031
2881;395.2884826660156
2882;395.1852111816406
2883;395.0818786621094
2884;394.9785461425781
2885;394.8752746582031
2886;394.7720031738281
2887;394.6687927246094
2888;394.5655822753906
2889;394.46240234375
2890;394.3591613769531
2891;394.2559814453125
2892;394.15283203125
2893;394.0497131347656
2894;393.9466247558594
2895;393.8434753417969
2896;393.7403869628906
2897;393.6373596191406
2898;393.5343017578125
2899;393.4312744140625
2900;393.3282775878906
2901;393.225341796875
2902;393.1223449707031
2903;393.0193786621094
2904;392.9164733886719
2905;392.8135070800781
2906;392.7106018066406
2907;392.6077575683594
2908;392.5048828125
2909;392.4020690917969
2910;392.2992248535156
2911;392.1964111328125
2912;392.0936279296875
2913;391.9908447265625
2914;391.8880920410156
2915;391.785400390625
2916;391.6827087402344
2917;391.5799560546875
2918;391.477294921875
2919;391.3746337890625
2920;391.27197265625
2921;391.1693420410156
2922;391.0667724609375
2923;390.9642028808594
2924;390.8616638183594
2925;390.7590637207031
2926;390.6565246582031
2927;390.5540466308594
2928;390.4515380859375
2929;390.3490295410156
2930;390.24658203125
2931;390.1441345214844
2932;390.041748046875
2933;389.9393615722656
2934;389.8369140625
2935;389.7345886230469
2936;389.6322326660156
2937;389.5299072265625
2938;389.4275817871094
2939;389.3252868652344
2940;389.2230224609375
2941;389.1207580566406
2942;389.0185546875
2943;388.9162902832031
2944;388.8141174316406
2945;388.7119140625
2946;388.6097717285156
2947;388.5075988769531
2948;388.4054870605469
2949;388.3033752441406
2950;388.2012939453125
2951;388.0992126464844
2952;387.9971618652344
2953;387.8951110839844
2954;387.7930908203125
2955;387.6910705566406
2956;387.589111328125
2957;387.4871520996094
2958;387.3851623535156
2959;387.2832946777344
2960;387.1813049316406
2961;387.0794372558594
2962;386.9775390625
2963;386.8756408691406
2964;386.7738342285156
2965;386.6720275878906
2966;386.5702819824219
2967;386.4684753417969
2968;386.36669921875
2969;386.2649841308594
2970;386.1632385253906
2971;386.0615234375
2972;385.9598388671875
2973;385.8581237792969
2974;385.7564392089844
2975;385.6548767089844
2976;385.55322265625
2977;385.4516296386719
2978;385.3500671386719
2979;385.2485046386719
2980;385.14697265625
2981;385.04541015625
2982;384.9439392089844
2983;384.8424072265625
2984;384.7409362792969
2985;384.6394348144531
2986;384.5379943847656
2987;384.4366149902344
2988;384.335205078125
2989;384.2338562011719
2990;384.1324768066406
2991;384.0311279296875
2992;383.9297790527344
2993;383.8284606933594
2994;383.7271728515625
2995;383.6258850097656
2996;383.5246276855469
2997;383.4233703613281
2998;383.3221435546875
2999;383.220947265625
