;loss
0;863.5836791992188
1;863.4151000976562
2;863.2463989257812
3;863.0927734375
4;862.9238891601562
5;862.7548828125
6;862.5908203125
7;862.4251098632812
8;862.2582397460938
9;862.0888671875
10;861.9201049804688
11;861.7506713867188
12;861.5809326171875
13;861.4111328125
14;861.2404174804688
15;861.0703735351562
16;860.8989868164062
17;860.7272338867188
18;860.5553588867188
19;860.3848876953125
20;860.21435546875
21;860.0436401367188
22;859.873046875
23;859.7020874023438
24;859.5291748046875
25;859.3560180664062
26;859.1827392578125
27;859.0115356445312
28;858.8401489257812
29;858.6664428710938
30;858.4948120117188
31;858.3231201171875
32;858.1512451171875
33;857.9791870117188
34;857.80517578125
35;857.6309814453125
36;857.4586791992188
37;857.2862548828125
38;857.11181640625
39;856.9391479492188
40;856.7664184570312
41;856.5934448242188
42;856.42041015625
43;856.2455444335938
44;856.072265625
45;855.8995361328125
46;855.7275390625
47;855.5537109375
48;855.3812866210938
49;855.2086791992188
50;855.0360107421875
51;854.8614501953125
52;854.6884765625
53;854.5137939453125
54;854.3389892578125
55;854.1656494140625
56;853.9921875
57;853.8186645507812
58;853.6434936523438
59;853.46826171875
60;853.2943725585938
61;853.1204223632812
62;852.9462890625
63;852.7706909179688
64;852.59521484375
65;852.4207763671875
66;852.2462768554688
67;852.0704345703125
68;851.8958129882812
69;851.7197265625
70;851.5447998046875
71;851.3685913085938
72;851.1934204101562
73;851.0181884765625
74;850.8428955078125
75;850.6673583984375
76;850.4906616210938
77;850.3139038085938
78;850.1380004882812
79;849.9609375
80;849.7848510742188
81;849.6087036132812
82;849.4323120117188
83;849.2559204101562
84;849.0794067382812
85;848.9016723632812
86;848.7249145507812
87;848.546875
88;848.3688354492188
89;848.1917114257812
90;848.0143432617188
91;847.8359375
92;847.6573486328125
93;847.4796142578125
94;847.3018188476562
95;847.1238403320312
96;846.9447631835938
97;846.7672729492188
98;846.5925903320312
99;846.4169921875
100;846.2423095703125
101;846.0678100585938
102;845.892578125
103;845.7180786132812
104;845.5436401367188
105;845.3692626953125
106;845.1948852539062
107;845.0198364257812
108;844.8455200195312
109;844.6703491210938
110;844.4959716796875
111;844.32080078125
112;844.1458129882812
113;843.970703125
114;843.7962036132812
115;843.6210327148438
116;843.4465942382812
117;843.27197265625
118;843.0973510742188
119;842.9227294921875
120;842.7473754882812
121;842.5719604492188
122;842.3970947265625
123;842.2222900390625
124;842.04736328125
125;841.8724365234375
126;841.6973266601562
127;841.521484375
128;841.3463745117188
129;841.1710815429688
130;840.9956665039062
131;840.8202514648438
132;840.6447143554688
133;840.4684448242188
134;840.2921752929688
135;840.1165161132812
136;839.9405517578125
137;839.7646484375
138;839.5879516601562
139;839.4112548828125
140;839.2344360351562
141;839.0575561523438
142;838.8811645507812
143;838.7045288085938
144;838.52734375
145;838.35009765625
146;838.1726684570312
147;837.9957885742188
148;837.8186645507812
149;837.6415405273438
150;837.4637451171875
151;837.2858276367188
152;837.1083984375
153;836.9307861328125
154;836.7531127929688
155;836.5747680664062
156;836.3969116210938
157;836.2188110351562
158;836.0406494140625
159;835.8618774414062
160;835.6829223632812
161;835.5044555664062
162;835.3253173828125
163;835.146484375
164;834.9676513671875
165;834.7880859375
166;834.6083984375
167;834.4290771484375
168;834.2491455078125
169;834.0696411132812
170;833.8893432617188
171;833.708984375
172;833.5289916992188
173;833.3489379882812
174;833.1685180664062
175;832.9882202148438
176;832.8071899414062
177;832.6259155273438
178;832.4446411132812
179;832.2631225585938
180;832.0814819335938
181;831.9000854492188
182;831.7182006835938
183;831.5360107421875
184;831.3536376953125
185;831.1717529296875
186;830.9894409179688
187;830.8071899414062
188;830.6246337890625
189;830.4415283203125
190;830.2590942382812
191;830.0768432617188
192;829.8941650390625
193;829.7113647460938
194;829.5283813476562
195;829.3458251953125
196;829.1630859375
197;828.9798583984375
198;828.7963256835938
199;828.6127319335938
200;828.4291381835938
201;828.2455444335938
202;828.06201171875
203;827.8786010742188
204;827.6947631835938
205;827.5108642578125
206;827.3271484375
207;827.1432495117188
208;826.9593505859375
209;826.7752685546875
210;826.5906982421875
211;826.4059448242188
212;826.2215576171875
213;826.0365600585938
214;825.8517456054688
215;825.6668701171875
216;825.4814453125
217;825.2962036132812
218;825.1107788085938
219;824.9253540039062
220;824.7392578125
221;824.5535888671875
222;824.3676147460938
223;824.1815185546875
224;823.9948120117188
225;823.8084716796875
226;823.6213989257812
227;823.4343872070312
228;823.2474975585938
229;823.0599975585938
230;822.8723754882812
231;822.6849975585938
232;822.4970703125
233;822.3090209960938
234;822.1206665039062
235;821.9326782226562
236;821.7444458007812
237;821.5563354492188
238;821.3690185546875
239;821.1815185546875
240;820.9935913085938
241;820.8060302734375
242;820.6182861328125
243;820.4308471679688
244;820.2432250976562
245;820.0555419921875
246;819.8677978515625
247;819.6799926757812
248;819.4924926757812
249;819.3049926757812
250;819.1173095703125
251;818.9295654296875
252;818.7413330078125
253;818.5530395507812
254;818.3650512695312
255;818.1765747070312
256;817.9882202148438
257;817.7997436523438
258;817.6107788085938
259;817.4217529296875
260;817.2325439453125
261;817.0433349609375
262;816.8541870117188
263;816.6649780273438
264;816.4755859375
265;816.2857055664062
266;816.095703125
267;815.9055786132812
268;815.7156372070312
269;815.525390625
270;815.3348388671875
271;815.1441650390625
272;814.9535522460938
273;814.7626953125
274;814.5716552734375
275;814.3800048828125
276;814.1885986328125
277;813.9967041015625
278;813.8045654296875
279;813.6122436523438
280;813.4200439453125
281;813.2278442382812
282;813.0360107421875
283;812.8441772460938
284;812.6519775390625
285;812.4598388671875
286;812.2675170898438
287;812.0751342773438
288;811.8828735351562
289;811.6904907226562
290;811.4979858398438
291;811.3050537109375
292;811.1118774414062
293;810.9187622070312
294;810.7252807617188
295;810.5320434570312
296;810.3385620117188
297;810.14501953125
298;809.9508666992188
299;809.7569580078125
300;809.5625
301;809.3681640625
302;809.1734008789062
303;808.9788208007812
304;808.78466796875
305;808.5907592773438
306;808.3968505859375
307;808.2024536132812
308;808.0082397460938
309;807.8139038085938
310;807.6193237304688
311;807.4247436523438
312;807.2296142578125
313;807.03466796875
314;806.8392944335938
315;806.6436767578125
316;806.4480590820312
317;806.2523803710938
318;806.0565185546875
319;805.8604125976562
320;805.6641235351562
321;805.4677124023438
322;805.2708129882812
323;805.0737915039062
324;804.8764038085938
325;804.6787719726562
326;804.4810791015625
327;804.2828979492188
328;804.0848388671875
329;803.8861083984375
330;803.6875610351562
331;803.4891967773438
332;803.2905883789062
333;803.0921630859375
334;802.89306640625
335;802.69384765625
336;802.4942626953125
337;802.2947387695312
338;802.0947265625
339;801.8943481445312
340;801.69580078125
341;801.4991455078125
342;801.302734375
343;801.1061401367188
344;800.9096069335938
345;800.7130126953125
346;800.5162963867188
347;800.3193969726562
348;800.1224365234375
349;799.9248046875
350;799.7274169921875
351;799.5294189453125
352;799.3314819335938
353;799.1329345703125
354;798.93408203125
355;798.7352294921875
356;798.5358276367188
357;798.3359985351562
358;798.1358032226562
359;797.9354248046875
360;797.734375
361;797.5328979492188
362;797.3313598632812
363;797.1293334960938
364;796.9271240234375
365;796.7252807617188
366;796.5274658203125
367;796.3297119140625
368;796.1326293945312
369;795.9368896484375
370;795.7415161132812
371;795.5460815429688
372;795.3505249023438
373;795.1549682617188
374;794.9598388671875
375;794.76416015625
376;794.5682983398438
377;794.3724365234375
378;794.1762084960938
379;793.9794921875
380;793.7825317382812
381;793.5852661132812
382;793.3880004882812
383;793.1917114257812
384;792.9952392578125
385;792.7985229492188
386;792.6014404296875
387;792.40380859375
388;792.20556640625
389;792.0067749023438
390;791.8076782226562
391;791.6080932617188
392;791.4077758789062
393;791.2069702148438
394;791.0054321289062
395;790.8031005859375
396;790.6000366210938
397;790.396484375
398;790.1922607421875
399;789.9874267578125
400;789.78173828125
401;789.5751342773438
402;789.3677368164062
403;789.15966796875
404;788.9530029296875
405;788.7509765625
406;788.5485229492188
407;788.3455810546875
408;788.14208984375
409;787.9379272460938
410;787.7330932617188
411;787.5274047851562
412;787.3208618164062
413;787.1135864257812
414;786.9056396484375
415;786.6965942382812
416;786.4864501953125
417;786.2755737304688
418;786.0638427734375
419;785.8510131835938
420;785.6370849609375
421;785.421875
422;785.2056884765625
423;784.9916381835938
424;784.7769165039062
425;784.5612182617188
426;784.3444213867188
427;784.1268310546875
428;783.9080810546875
429;783.6881103515625
430;783.4669799804688
431;783.2445678710938
432;783.0211791992188
433;782.7965698242188
434;782.5707397460938
435;782.3434448242188
436;782.11474609375
437;781.8849487304688
438;781.6536254882812
439;781.4210205078125
440;781.1868286132812
441;780.9513549804688
442;780.7144775390625
443;780.4788208007812
444;780.2431640625
445;780.0062866210938
446;779.7681274414062
447;779.5289916992188
448;779.2887573242188
449;779.0473022460938
450;778.8045043945312
451;778.5599975585938
452;778.314453125
453;778.0672607421875
454;777.8185424804688
455;777.5687255859375
456;777.3171997070312
457;777.064453125
458;776.81005859375
459;776.5542602539062
460;776.2974243164062
461;776.0397338867188
462;775.7809448242188
463;775.5208129882812
464;775.259765625
465;774.9973754882812
466;774.7332763671875
467;774.4681396484375
468;774.2015380859375
469;773.93359375
470;773.6640014648438
471;773.39306640625
472;773.12109375
473;772.84765625
474;772.5726928710938
475;772.2963256835938
476;772.01904296875
477;771.7402954101562
478;771.4603271484375
479;771.1787719726562
480;770.8959350585938
481;770.6119995117188
482;770.3267211914062
483;770.0401611328125
484;769.7526245117188
485;769.4636840820312
486;769.1737060546875
487;768.8823852539062
488;768.5897827148438
489;768.2960205078125
490;768.0014038085938
491;767.7053833007812
492;767.408203125
493;767.10986328125
494;766.8106689453125
495;766.5103149414062
496;766.2092895507812
497;765.9067993164062
498;765.6033935546875
499;765.2989501953125
500;764.9951782226562
501;764.6910400390625
502;764.3860473632812
503;764.0802612304688
504;763.7739868164062
505;763.4671630859375
506;763.1594848632812
507;762.8511962890625
508;762.5422973632812
509;762.2324829101562
510;761.9223022460938
511;761.6111450195312
512;761.2994995117188
513;760.9874267578125
514;760.6744995117188
515;760.361328125
516;760.04736328125
517;759.7330932617188
518;759.4183959960938
519;759.1033935546875
520;758.7879638671875
521;758.4721069335938
522;758.1566772460938
523;757.8408203125
524;757.5245361328125
525;757.2076416015625
526;756.8921508789062
527;756.5789794921875
528;756.2655639648438
529;755.9520874023438
530;755.6388549804688
531;755.3255615234375
532;755.0121459960938
533;754.6998901367188
534;754.3876953125
535;754.0758666992188
536;753.7650146484375
537;753.455078125
538;753.1454467773438
539;752.8358764648438
540;752.5264282226562
541;752.2171630859375
542;751.9077758789062
543;751.5985717773438
544;751.2894287109375
545;750.9805908203125
546;750.6719360351562
547;750.36328125
548;750.0547485351562
549;749.74658203125
550;749.4401245117188
551;749.1353149414062
552;748.8311157226562
553;748.52734375
554;748.22412109375
555;747.92138671875
556;747.6188354492188
557;747.3165893554688
558;747.0148315429688
559;746.7134399414062
560;746.4120483398438
561;746.1110229492188
562;745.810546875
563;745.51025390625
564;745.2103271484375
565;744.9112548828125
566;744.6127319335938
567;744.3145141601562
568;744.0166015625
569;743.7192993164062
570;743.42236328125
571;743.1257934570312
572;742.8294067382812
573;742.5335083007812
574;742.2379760742188
575;741.9427490234375
576;741.6478881835938
577;741.3533935546875
578;741.0599975585938
579;740.7682495117188
580;740.4771728515625
581;740.1867065429688
582;739.8970336914062
583;739.6079711914062
584;739.3193359375
585;739.03125
586;738.7438354492188
587;738.45703125
588;738.1705932617188
589;737.8848876953125
590;737.5996704101562
591;737.3150024414062
592;737.0308837890625
593;736.7473754882812
594;736.46435546875
595;736.181640625
596;735.8995971679688
597;735.6182250976562
598;735.3374633789062
599;735.05712890625
600;734.7772827148438
601;734.498046875
602;734.2196044921875
603;733.9415283203125
604;733.6641845703125
605;733.3873901367188
606;733.1111450195312
607;732.8358764648438
608;732.5612182617188
609;732.287109375
610;732.0135498046875
611;731.7409057617188
612;731.4695434570312
613;731.1987915039062
614;730.9301147460938
615;730.6619873046875
616;730.3946533203125
617;730.1282348632812
618;729.8624267578125
619;729.5972290039062
620;729.3328247070312
621;729.0692138671875
622;728.8063354492188
623;728.5440673828125
624;728.2826538085938
625;728.0217895507812
626;727.7615966796875
627;727.5020751953125
628;727.2432861328125
629;726.9849853515625
630;726.7271728515625
631;726.4701538085938
632;726.2137451171875
633;725.9577026367188
634;725.7024536132812
635;725.4483032226562
636;725.1947021484375
637;724.9415283203125
638;724.6890258789062
639;724.4371337890625
640;724.1858520507812
641;723.9351196289062
642;723.6851806640625
643;723.4356079101562
644;723.1865234375
645;722.9381103515625
646;722.6904296875
647;722.4443969726562
648;722.19921875
649;721.95458984375
650;721.71044921875
651;721.466796875
652;721.2239990234375
653;720.9817504882812
654;720.7398071289062
655;720.4985961914062
656;720.2579345703125
657;720.0182495117188
658;719.7794799804688
659;719.5413208007812
660;719.3037719726562
661;719.0668334960938
662;718.8302612304688
663;718.5942993164062
664;718.3589477539062
665;718.1242065429688
666;717.8905029296875
667;717.6577758789062
668;717.4256591796875
669;717.1942749023438
670;716.9633178710938
671;716.7328491210938
672;716.5028076171875
673;716.2731323242188
674;716.0442504882812
675;715.8155517578125
676;715.5875244140625
677;715.3598022460938
678;715.1326904296875
679;714.9060668945312
680;714.6798706054688
681;714.4541625976562
682;714.2288208007812
683;714.0039672851562
684;713.7797241210938
685;713.5562744140625
686;713.3333129882812
687;713.11083984375
688;712.8896484375
689;712.6690063476562
690;712.4487915039062
691;712.2291870117188
692;712.0098876953125
693;711.791015625
694;711.5728149414062
695;711.3549194335938
696;711.1373901367188
697;710.9202270507812
698;710.7034301757812
699;710.4869995117188
700;710.2710571289062
701;710.0555419921875
702;709.84033203125
703;709.6253662109375
704;709.4108276367188
705;709.1965942382812
706;708.9826049804688
707;708.76904296875
708;708.5557861328125
709;708.3427734375
710;708.1301879882812
711;707.9176635742188
712;707.7056884765625
713;707.4940185546875
714;707.2826538085938
715;707.0715942382812
716;706.8606567382812
717;706.6502075195312
718;706.4398803710938
719;706.22998046875
720;706.0202026367188
721;705.8108520507812
722;705.6016845703125
723;705.3927612304688
724;705.1842041015625
725;704.9759521484375
726;704.7679443359375
727;704.5601196289062
728;704.3527221679688
729;704.1455078125
730;703.9384765625
731;703.7318115234375
732;703.5253295898438
733;703.3192138671875
734;703.1133422851562
735;702.9077758789062
736;702.7024536132812
737;702.4974365234375
738;702.2925415039062
739;702.0879516601562
740;701.8834838867188
741;701.6798095703125
742;701.4765014648438
743;701.2733154296875
744;701.0704345703125
745;700.8677368164062
746;700.6661376953125
747;700.4647216796875
748;700.263671875
749;700.0628662109375
750;699.8623046875
751;699.662109375
752;699.4620361328125
753;699.2622680664062
754;699.0628662109375
755;698.8637084960938
756;698.6647338867188
757;698.4661865234375
758;698.2678833007812
759;698.0697021484375
760;697.8717651367188
761;697.6741333007812
762;697.4766845703125
763;697.2793579101562
764;697.0824584960938
765;696.8856201171875
766;696.6890258789062
767;696.4927368164062
768;696.2967529296875
769;696.1010131835938
770;695.9053344726562
771;695.7098999023438
772;695.5146484375
773;695.3197631835938
774;695.125
775;694.9303588867188
776;694.7360229492188
777;694.5418701171875
778;694.3477783203125
779;694.1539916992188
780;693.9603271484375
781;693.7669677734375
782;693.5737915039062
783;693.380859375
784;693.1881103515625
785;692.9955444335938
786;692.8031616210938
787;692.6109008789062
788;692.4189453125
789;692.2271118164062
790;692.0354614257812
791;691.8440551757812
792;691.6528930664062
793;691.4618530273438
794;691.2709350585938
795;691.0801391601562
796;690.8896484375
797;690.6992797851562
798;690.5092163085938
799;690.3192138671875
800;690.1293334960938
801;689.9395751953125
802;689.7501220703125
803;689.5608520507812
804;689.3716430664062
805;689.1826171875
806;688.9937133789062
807;688.8051147460938
808;688.6166381835938
809;688.4283447265625
810;688.240234375
811;688.0521850585938
812;687.8643188476562
813;687.6766357421875
814;687.4891357421875
815;687.3017578125
816;687.1145629882812
817;686.9273681640625
818;686.7406005859375
819;686.5538330078125
820;686.3673095703125
821;686.1809692382812
822;685.9946899414062
823;685.80859375
824;685.6226196289062
825;685.4368286132812
826;685.2511596679688
827;685.0658569335938
828;684.8804321289062
829;684.6952514648438
830;684.5101928710938
831;684.3253173828125
832;684.140625
833;683.9560546875
834;683.7716064453125
835;683.5873413085938
836;683.4032592773438
837;683.2193603515625
838;683.0355834960938
839;682.85205078125
840;682.6685180664062
841;682.4852294921875
842;682.3021850585938
843;682.1190795898438
844;681.9362182617188
845;681.7534790039062
846;681.5708618164062
847;681.3883666992188
848;681.2060546875
849;681.02392578125
850;680.8421020507812
851;680.6602172851562
852;680.478515625
853;680.2969360351562
854;680.1155395507812
855;679.9341430664062
856;679.7530517578125
857;679.5719604492188
858;679.3911743164062
859;679.2105102539062
860;679.0298461914062
861;678.8494873046875
862;678.6690673828125
863;678.4888305664062
864;678.3087158203125
865;678.1287231445312
866;677.9489135742188
867;677.7692260742188
868;677.5897827148438
869;677.4103393554688
870;677.2311401367188
871;677.0520629882812
872;676.8732299804688
873;676.6945190429688
874;676.5159301757812
875;676.3374633789062
876;676.1591796875
877;675.9810180664062
878;675.8028564453125
879;675.625
880;675.4472045898438
881;675.26953125
882;675.0921020507812
883;674.9148559570312
884;674.7374877929688
885;674.5604858398438
886;674.3834228515625
887;674.2066040039062
888;674.0298461914062
889;673.8532104492188
890;673.6767578125
891;673.5003051757812
892;673.3240966796875
893;673.14794921875
894;672.9718627929688
895;672.7959594726562
896;672.6201171875
897;672.4444580078125
898;672.2689819335938
899;672.0934448242188
900;671.9180908203125
901;671.7428588867188
902;671.5678100585938
903;671.3927001953125
904;671.2178344726562
905;671.04296875
906;670.8682250976562
907;670.6937255859375
908;670.5191650390625
909;670.3447265625
910;670.1704711914062
911;669.9962768554688
912;669.822265625
913;669.6482543945312
914;669.4743041992188
915;669.3005981445312
916;669.1268920898438
917;668.9533081054688
918;668.7798461914062
919;668.6065063476562
920;668.4332885742188
921;668.2600708007812
922;668.0869750976562
923;667.9139404296875
924;667.7410888671875
925;667.5682373046875
926;667.3955688476562
927;667.2230834960938
928;667.0506591796875
929;666.8782958984375
930;666.7059936523438
931;666.5338134765625
932;666.3617553710938
933;666.1897583007812
934;666.0177612304688
935;665.8461303710938
936;665.6744384765625
937;665.5028076171875
938;665.3313598632812
939;665.1600341796875
940;664.9885864257812
941;664.8173828125
942;664.6463623046875
943;664.4752807617188
944;664.3043823242188
945;664.1334838867188
946;663.9628295898438
947;663.7921142578125
948;663.6216430664062
949;663.451171875
950;663.2808227539062
951;663.1104736328125
952;662.9403076171875
953;662.7701416015625
954;662.60009765625
955;662.43017578125
956;662.2603149414062
957;662.0906372070312
958;661.9208984375
959;661.7514038085938
960;661.5819091796875
961;661.4125366210938
962;661.2432250976562
963;661.0740356445312
964;660.9048461914062
965;660.7359008789062
966;660.56689453125
967;660.3980102539062
968;660.2291870117188
969;660.060546875
970;659.8919067382812
971;659.7234497070312
972;659.5549926757812
973;659.3865966796875
974;659.21826171875
975;659.0501098632812
976;658.8819580078125
977;658.7139892578125
978;658.5460205078125
979;658.3781127929688
980;658.2103271484375
981;658.0426635742188
982;657.8750610351562
983;657.7075805664062
984;657.5401611328125
985;657.3728637695312
986;657.2056274414062
987;657.0383911132812
988;656.8712768554688
989;656.7042236328125
990;656.5372924804688
991;656.3704223632812
992;656.2036743164062
993;656.0370483398438
994;655.8704223632812
995;655.7037963867188
996;655.5374145507812
997;655.3710327148438
998;655.2046508789062
999;655.0385131835938
1000;654.8723754882812
1001;654.7063598632812
1002;654.5403442382812
1003;654.3744506835938
1004;654.2086181640625
1005;654.04296875
1006;653.8772583007812
1007;653.7117309570312
1008;653.5462646484375
1009;653.380859375
1010;653.2153930664062
1011;653.0502319335938
1012;652.8850708007812
1013;652.7198486328125
1014;652.5548706054688
1015;652.3899536132812
1016;652.2250366210938
1017;652.0601806640625
1018;651.8955078125
1019;651.7308959960938
1020;651.5663452148438
1021;651.4017944335938
1022;651.2373657226562
1023;651.0730590820312
1024;650.9087524414062
1025;650.7445678710938
1026;650.5805053710938
1027;650.4164428710938
1028;650.2525024414062
1029;650.0885620117188
1030;649.9248046875
1031;649.7610473632812
1032;649.5973510742188
1033;649.4337768554688
1034;649.2702026367188
1035;649.1068115234375
1036;648.9434204101562
1037;648.7801513671875
1038;648.6168823242188
1039;648.4536743164062
1040;648.2906494140625
1041;648.1276245117188
1042;647.9647216796875
1043;647.8018188476562
1044;647.6390991210938
1045;647.4762573242188
1046;647.3136596679688
1047;647.1511840820312
1048;646.9886474609375
1049;646.826171875
1050;646.6638793945312
1051;646.5015258789062
1052;646.3392944335938
1053;646.1771850585938
1054;646.01513671875
1055;645.8530883789062
1056;645.6911010742188
1057;645.5292358398438
1058;645.3673706054688
1059;645.2056274414062
1060;645.0439453125
1061;644.8823852539062
1062;644.720703125
1063;644.5592651367188
1064;644.3978881835938
1065;644.2364501953125
1066;644.0752563476562
1067;643.9141235351562
1068;643.7529907226562
1069;643.5918579101562
1070;643.4308471679688
1071;643.2699584960938
1072;643.1090698242188
1073;642.9482421875
1074;642.7875366210938
1075;642.6268310546875
1076;642.4662475585938
1077;642.3056640625
1078;642.1451416015625
1079;641.9848022460938
1080;641.8245239257812
1081;641.6642456054688
1082;641.5040893554688
1083;641.3440551757812
1084;641.1839599609375
1085;641.0239868164062
1086;640.8640747070312
1087;640.7041625976562
1088;640.54443359375
1089;640.3846435546875
1090;640.2250366210938
1091;640.0654907226562
1092;639.9059448242188
1093;639.7465209960938
1094;639.5872192382812
1095;639.4278564453125
1096;639.2685546875
1097;639.109375
1098;638.9501953125
1099;638.7911376953125
1100;638.6321411132812
1101;638.4732055664062
1102;638.3143310546875
1103;638.1555786132812
1104;637.9967651367188
1105;637.8380126953125
1106;637.6793823242188
1107;637.5208740234375
1108;637.3624267578125
1109;637.2039794921875
1110;637.0455322265625
1111;636.88720703125
1112;636.7289428710938
1113;636.5707397460938
1114;636.4125366210938
1115;636.2545166015625
1116;636.0964965820312
1117;635.9385375976562
1118;635.7807006835938
1119;635.6228637695312
1120;635.4650268554688
1121;635.3074340820312
1122;635.1497802734375
1123;634.9921875
1124;634.8345947265625
1125;634.6771850585938
1126;634.5196533203125
1127;634.3623046875
1128;634.205078125
1129;634.0478515625
1130;633.890625
1131;633.7334594726562
1132;633.5764770507812
1133;633.41943359375
1134;633.2623901367188
1135;633.1055908203125
1136;632.9487915039062
1137;632.7920532226562
1138;632.6353149414062
1139;632.4786987304688
1140;632.3221435546875
1141;632.1655883789062
1142;632.0090942382812
1143;631.8526611328125
1144;631.6963500976562
1145;631.5400390625
1146;631.3837890625
1147;631.2275390625
1148;631.0714721679688
1149;630.9154663085938
1150;630.7593994140625
1151;630.6033935546875
1152;630.4474487304688
1153;630.2916870117188
1154;630.1358642578125
1155;629.9800415039062
1156;629.8244018554688
1157;629.6688232421875
1158;629.51318359375
1159;629.3577270507812
1160;629.2022705078125
1161;629.0468139648438
1162;628.8914794921875
1163;628.7362060546875
1164;628.5809936523438
1165;628.42578125
1166;628.2706909179688
1167;628.1156616210938
1168;627.9607543945312
1169;627.8058471679688
1170;627.6509399414062
1171;627.49609375
1172;627.3413696289062
1173;627.1866455078125
1174;627.0319213867188
1175;626.87744140625
1176;626.7228393554688
1177;626.5684204101562
1178;626.4140014648438
1179;626.2596435546875
1180;626.1053466796875
1181;625.9510498046875
1182;625.796875
1183;625.6427001953125
1184;625.4885864257812
1185;625.3345336914062
1186;625.1806030273438
1187;625.0266723632812
1188;624.8727416992188
1189;624.7189331054688
1190;624.5651245117188
1191;624.4114379882812
1192;624.2578125
1193;624.1041259765625
1194;623.9505615234375
1195;623.7970581054688
1196;623.6435546875
1197;623.4901733398438
1198;623.3367919921875
1199;623.1834716796875
1200;623.0302124023438
1201;622.8770751953125
1202;622.7239379882812
1203;622.5709228515625
1204;622.41796875
1205;622.2649536132812
1206;622.1121215820312
1207;621.9591674804688
1208;621.8064575195312
1209;621.6536254882812
1210;621.5009765625
1211;621.3482666015625
1212;621.1956787109375
1213;621.0430908203125
1214;620.890625
1215;620.7382202148438
1216;620.5858154296875
1217;620.4334716796875
1218;620.2811279296875
1219;620.12890625
1220;619.9766845703125
1221;619.8245849609375
1222;619.6724853515625
1223;619.5204467773438
1224;619.3684692382812
1225;619.2164916992188
1226;619.0645751953125
1227;618.9127197265625
1228;618.7609252929688
1229;618.6091918945312
1230;618.4574584960938
1231;618.3057861328125
1232;618.1542358398438
1233;618.0026245117188
1234;617.8511352539062
1235;617.69970703125
1236;617.5482788085938
1237;617.39697265625
1238;617.2456665039062
1239;617.0943603515625
1240;616.9432373046875
1241;616.7919921875
1242;616.6409301757812
1243;616.4898071289062
1244;616.3388671875
1245;616.1878662109375
1246;616.0369873046875
1247;615.8860473632812
1248;615.7352294921875
1249;615.58447265625
1250;615.4337158203125
1251;615.2830810546875
1252;615.1324462890625
1253;614.9818725585938
1254;614.8313598632812
1255;614.6807861328125
1256;614.5303955078125
1257;614.3799438476562
1258;614.2296142578125
1259;614.0794067382812
1260;613.9291381835938
1261;613.7788696289062
1262;613.6287231445312
1263;613.4786376953125
1264;613.3285522460938
1265;613.1785888671875
1266;613.0286254882812
1267;612.8786010742188
1268;612.7288208007812
1269;612.5789794921875
1270;612.4292602539062
1271;612.2796020507812
1272;612.1298828125
1273;611.9801635742188
1274;611.8306274414062
1275;611.6810913085938
1276;611.5316162109375
1277;611.3822021484375
1278;611.2327880859375
1279;611.0834350585938
1280;610.9341430664062
1281;610.7848510742188
1282;610.6356811523438
1283;610.4865112304688
1284;610.33740234375
1285;610.1883544921875
1286;610.0392456054688
1287;609.8903198242188
1288;609.7413330078125
1289;609.5924682617188
1290;609.4436645507812
1291;609.2947998046875
1292;609.1460571289062
1293;608.9974365234375
1294;608.8487548828125
1295;608.7001342773438
1296;608.5515747070312
1297;608.4029541015625
1298;608.2545166015625
1299;608.1060180664062
1300;607.9576416015625
1301;607.8092651367188
1302;607.6610107421875
1303;607.5128173828125
1304;607.3645629882812
1305;607.2163696289062
1306;607.0682983398438
1307;606.9202270507812
1308;606.7720947265625
1309;606.6240844726562
1310;606.4761352539062
1311;606.3282470703125
1312;606.1804809570312
1313;606.0326538085938
1314;605.884765625
1315;605.7371215820312
1316;605.5894165039062
1317;605.4418334960938
1318;605.2941284179688
1319;605.1466064453125
1320;604.9991455078125
1321;604.8516845703125
1322;604.7042846679688
1323;604.5569458007812
1324;604.4095458984375
1325;604.2622680664062
1326;604.1151123046875
1327;603.9678344726562
1328;603.8207397460938
1329;603.6735229492188
1330;603.5264892578125
1331;603.3794555664062
1332;603.2324829101562
1333;603.08544921875
1334;602.9385375976562
1335;602.7916870117188
1336;602.6449584960938
1337;602.4981689453125
1338;602.3514404296875
1339;602.2046508789062
1340;602.0580444335938
1341;601.9114379882812
1342;601.7648315429688
1343;601.6183471679688
1344;601.4719848632812
1345;601.3255004882812
1346;601.1791381835938
1347;601.0326538085938
1348;600.8863525390625
1349;600.7401123046875
1350;600.5938110351562
1351;600.4476928710938
1352;600.3014526367188
1353;600.1553344726562
1354;600.0093383789062
1355;599.86328125
1356;599.71728515625
1357;599.5712890625
1358;599.4254150390625
1359;599.2796020507812
1360;599.1337890625
1361;598.9879150390625
1362;598.84228515625
1363;598.6965942382812
1364;598.5508422851562
1365;598.4052734375
1366;598.2597045898438
1367;598.1142578125
1368;597.9686889648438
1369;597.8232421875
1370;597.6777954101562
1371;597.5324096679688
1372;597.3871459960938
1373;597.2418212890625
1374;597.0966186523438
1375;596.9512939453125
1376;596.8062133789062
1377;596.6610717773438
1378;596.5160522460938
1379;596.3710327148438
1380;596.2260131835938
1381;596.0810546875
1382;595.9360961914062
1383;595.7911376953125
1384;595.6463623046875
1385;595.5015258789062
1386;595.3568115234375
1387;595.2120361328125
1388;595.0673828125
1389;594.9227294921875
1390;594.7781982421875
1391;594.6336059570312
1392;594.4891357421875
1393;594.3446044921875
1394;594.2001953125
1395;594.0557861328125
1396;593.9113159179688
1397;593.7670288085938
1398;593.6227416992188
1399;593.478515625
1400;593.3343505859375
1401;593.1901245117188
1402;593.0460815429688
1403;592.9019165039062
1404;592.7578735351562
1405;592.6138916015625
1406;592.4698486328125
1407;592.3259887695312
1408;592.1820678710938
1409;592.0382080078125
1410;591.8944091796875
1411;591.7506103515625
1412;591.6068725585938
1413;591.4632568359375
1414;591.3195190429688
1415;591.1759033203125
1416;591.0323486328125
1417;590.8887939453125
1418;590.7453002929688
1419;590.6018676757812
1420;590.4584350585938
1421;590.3150634765625
1422;590.1717529296875
1423;590.0283813476562
1424;589.8851318359375
1425;589.7418823242188
1426;589.5986938476562
1427;589.4555053710938
1428;589.3123779296875
1429;589.1693725585938
1430;589.0263671875
1431;588.88330078125
1432;588.7402954101562
1433;588.5974731445312
1434;588.4545288085938
1435;588.3116455078125
1436;588.1689453125
1437;588.0260620117188
1438;587.8833618164062
1439;587.74072265625
1440;587.5980224609375
1441;587.4553833007812
1442;587.3128051757812
1443;587.1702880859375
1444;587.0277709960938
1445;586.8853149414062
1446;586.7428588867188
1447;586.6004638671875
1448;586.4581298828125
1449;586.3157958984375
1450;586.1734619140625
1451;586.03125
1452;585.8890991210938
1453;585.7469482421875
1454;585.6047973632812
1455;585.4625854492188
1456;585.3206176757812
1457;585.1785888671875
1458;585.0365600585938
1459;584.8946533203125
1460;584.7527465820312
1461;584.61083984375
1462;584.4690551757812
1463;584.3272094726562
1464;584.1854248046875
1465;584.0437622070312
1466;583.9020385742188
1467;583.7603759765625
1468;583.6187744140625
1469;583.4771728515625
1470;583.3356323242188
1471;583.1941528320312
1472;583.0526733398438
1473;582.9112548828125
1474;582.7698364257812
1475;582.6284790039062
1476;582.4871215820312
1477;582.3458251953125
1478;582.2045288085938
1479;582.0633544921875
1480;581.9221801757812
1481;581.7810668945312
1482;581.6398315429688
1483;581.4988403320312
1484;581.3577880859375
1485;581.216796875
1486;581.0758666992188
1487;580.9349365234375
1488;580.7940673828125
1489;580.6532592773438
1490;580.5123291015625
1491;580.37158203125
1492;580.2308349609375
1493;580.0901489257812
1494;579.9494018554688
1495;579.8087768554688
1496;579.6681518554688
1497;579.5276489257812
1498;579.3870849609375
1499;579.2466430664062
1500;579.1061401367188
1501;578.9656982421875
1502;578.8253784179688
1503;578.6849365234375
1504;578.5446166992188
1505;578.404296875
1506;578.2640380859375
1507;578.1238403320312
1508;577.9837036132812
1509;577.843505859375
1510;577.7034301757812
1511;577.5633544921875
1512;577.4232788085938
1513;577.2832641601562
1514;577.143310546875
1515;577.0033569335938
1516;576.8634643554688
1517;576.7236328125
1518;576.5838012695312
1519;576.4440307617188
1520;576.3043212890625
1521;576.1646118164062
1522;576.02490234375
1523;575.8853149414062
1524;575.7456665039062
1525;575.6060791015625
1526;575.466552734375
1527;575.3270263671875
1528;575.1875610351562
1529;575.0480346679688
1530;574.90869140625
1531;574.7693481445312
1532;574.6300048828125
1533;574.4906616210938
1534;574.3513793945312
1535;574.2122192382812
1536;574.0729370117188
1537;573.9337768554688
1538;573.7946166992188
1539;573.6555786132812
1540;573.5165405273438
1541;573.3775024414062
1542;573.2384643554688
1543;573.0994873046875
1544;572.9605712890625
1545;572.8216552734375
1546;572.6828002929688
1547;572.5440063476562
1548;572.4052124023438
1549;572.2664184570312
1550;572.1277465820312
1551;571.9890747070312
1552;571.8504028320312
1553;571.7117919921875
1554;571.5732421875
1555;571.4346923828125
1556;571.2962036132812
1557;571.1576538085938
1558;571.0192260742188
1559;570.8807983398438
1560;570.742431640625
1561;570.6040649414062
1562;570.4657592773438
1563;570.3275146484375
1564;570.1892700195312
1565;570.0509643554688
1566;569.912841796875
1567;569.774658203125
1568;569.6365966796875
1569;569.4984741210938
1570;569.3604125976562
1571;569.2224731445312
1572;569.0844116210938
1573;568.9464721679688
1574;568.80859375
1575;568.6707153320312
1576;568.5328369140625
1577;568.39501953125
1578;568.2572631835938
1579;568.1195068359375
1580;567.9817504882812
1581;567.8440551757812
1582;567.7064208984375
1583;567.5687255859375
1584;567.43115234375
1585;567.2935791015625
1586;567.1561279296875
1587;567.0186767578125
1588;566.8812255859375
1589;566.7437744140625
1590;566.6063842773438
1591;566.4690551757812
1592;566.3317260742188
1593;566.1943969726562
1594;566.0571899414062
1595;565.919921875
1596;565.78271484375
1597;565.6455688476562
1598;565.5084228515625
1599;565.3713989257812
1600;565.2342529296875
1601;565.0972290039062
1602;564.9602661132812
1603;564.8233032226562
1604;564.6864013671875
1605;564.5494384765625
1606;564.41259765625
1607;564.2757568359375
1608;564.1389770507812
1609;564.0021362304688
1610;563.8654174804688
1611;563.7286987304688
1612;563.5919799804688
1613;563.4553833007812
1614;563.3187866210938
1615;563.1821899414062
1616;563.045654296875
1617;562.9091186523438
1618;562.7726440429688
1619;562.6361694335938
1620;562.4998168945312
1621;562.3634033203125
1622;562.2269897460938
1623;562.0906982421875
1624;561.9544067382812
1625;561.8181762695312
1626;561.6819458007812
1627;561.5457153320312
1628;561.4096069335938
1629;561.2734375
1630;561.1373291015625
1631;561.0012817382812
1632;560.865234375
1633;560.7291870117188
1634;560.5932006835938
1635;560.4573364257812
1636;560.3213500976562
1637;560.1854858398438
1638;560.0496215820312
1639;559.9138793945312
1640;559.7780151367188
1641;559.6422729492188
1642;559.5066528320312
1643;559.370849609375
1644;559.2352905273438
1645;559.0996704101562
1646;558.9640502929688
1647;558.8284912109375
1648;558.6929321289062
1649;558.5574340820312
1650;558.4219360351562
1651;558.2865600585938
1652;558.1511840820312
1653;558.0157470703125
1654;557.88037109375
1655;557.7451171875
1656;557.6098022460938
1657;557.4745483398438
1658;557.3392944335938
1659;557.2041015625
1660;557.0689697265625
1661;556.933837890625
1662;556.7987670898438
1663;556.6636352539062
1664;556.5286254882812
1665;556.3936157226562
1666;556.2586669921875
1667;556.1237182617188
1668;555.9888305664062
1669;555.8539428710938
1670;555.7191162109375
1671;555.5842895507812
1672;555.4495239257812
1673;555.314697265625
1674;555.1800537109375
1675;555.0452880859375
1676;554.9105834960938
1677;554.7760009765625
1678;554.6414184570312
1679;554.5068359375
1680;554.3722534179688
1681;554.23779296875
1682;554.1033325195312
1683;553.9688720703125
1684;553.8344116210938
1685;553.7000122070312
1686;553.5657348632812
1687;553.4313354492188
1688;553.2970581054688
1689;553.1627197265625
1690;553.0285034179688
1691;552.8944091796875
1692;552.7601928710938
1693;552.6260375976562
1694;552.4918212890625
1695;552.3578491210938
1696;552.2237548828125
1697;552.0897827148438
1698;551.9557495117188
1699;551.82177734375
1700;551.6879272460938
1701;551.5540161132812
1702;551.4201049804688
1703;551.2862548828125
1704;551.1524658203125
1705;551.0186767578125
1706;550.8849487304688
1707;550.7512817382812
1708;550.6175537109375
1709;550.4839477539062
1710;550.3502807617188
1711;550.2167358398438
1712;550.0831298828125
1713;549.9496459960938
1714;549.8161010742188
1715;549.6826782226562
1716;549.5492553710938
1717;549.4158325195312
1718;549.2824096679688
1719;549.1490478515625
1720;549.0156860351562
1721;548.8824462890625
1722;548.7491455078125
1723;548.6159057617188
1724;548.4827270507812
1725;548.3495483398438
1726;548.2163696289062
1727;548.0833129882812
1728;547.9501953125
1729;547.8170776367188
1730;547.6841430664062
1731;547.5511474609375
1732;547.4181518554688
1733;547.2852172851562
1734;547.1522827148438
1735;547.0194091796875
1736;546.8865356445312
1737;546.7537231445312
1738;546.6209106445312
1739;546.4881591796875
1740;546.3554077148438
1741;546.22265625
1742;546.0899658203125
1743;545.9573974609375
1744;545.8247680664062
1745;545.6921997070312
1746;545.5596313476562
1747;545.4271240234375
1748;545.2945556640625
1749;545.162109375
1750;545.0297241210938
1751;544.8973388671875
1752;544.7648315429688
1753;544.6325073242188
1754;544.5001831054688
1755;544.367919921875
1756;544.2356567382812
1757;544.1033935546875
1758;543.97119140625
1759;543.8389892578125
1760;543.7068481445312
1761;543.57470703125
1762;543.4426879882812
1763;543.3106079101562
1764;543.1785278320312
1765;543.0465087890625
1766;542.91455078125
1767;542.7826538085938
1768;542.6506958007812
1769;542.5187377929688
1770;542.3869018554688
1771;542.2550659179688
1772;542.123291015625
1773;541.9915161132812
1774;541.8597412109375
1775;541.7280883789062
1776;541.5963745117188
1777;541.4647216796875
1778;541.3330688476562
1779;541.2015380859375
1780;541.0699462890625
1781;540.9384155273438
1782;540.806884765625
1783;540.6754150390625
1784;540.5439453125
1785;540.4125366210938
1786;540.2811279296875
1787;540.1497192382812
1788;540.0184326171875
1789;539.8871459960938
1790;539.7557983398438
1791;539.6245727539062
1792;539.4932861328125
1793;539.3621215820312
1794;539.23095703125
1795;539.0997924804688
1796;538.9686889648438
1797;538.8375854492188
1798;538.70654296875
1799;538.5755004882812
1800;538.4445190429688
1801;538.3135375976562
1802;538.1825561523438
1803;538.0516357421875
1804;537.9207763671875
1805;537.7899169921875
1806;537.6591186523438
1807;537.5282592773438
1808;537.3975219726562
1809;537.2667236328125
1810;537.1360473632812
1811;537.0054321289062
1812;536.8746948242188
1813;536.7440795898438
1814;536.6134643554688
1815;536.48291015625
1816;536.3523559570312
1817;536.2218017578125
1818;536.0913696289062
1819;535.9608764648438
1820;535.8304443359375
1821;535.7000122070312
1822;535.5696411132812
1823;535.4392700195312
1824;535.3089599609375
1825;535.1786499023438
1826;535.0484008789062
1827;534.9180908203125
1828;534.7879028320312
1829;534.65771484375
1830;534.5275268554688
1831;534.3973999023438
1832;534.2672729492188
1833;534.1372680664062
1834;534.0072021484375
1835;533.8771362304688
1836;533.7471923828125
1837;533.6171875
1838;533.4872436523438
1839;533.3572998046875
1840;533.2274780273438
1841;533.0975952148438
1842;532.9677734375
1843;532.8379516601562
1844;532.7081298828125
1845;532.5784301757812
1846;532.4486694335938
1847;532.3189697265625
1848;532.1893310546875
1849;532.0596313476562
1850;531.9300537109375
1851;531.8004760742188
1852;531.6708374023438
1853;531.5413818359375
1854;531.4119262695312
1855;531.2824096679688
1856;531.1529541015625
1857;531.0235595703125
1858;530.8941650390625
1859;530.7647705078125
1860;530.6354370117188
1861;530.5061645507812
1862;530.3768310546875
1863;530.2476196289062
1864;530.1183471679688
1865;529.9891357421875
1866;529.8599853515625
1867;529.7308349609375
1868;529.6016845703125
1869;529.4725952148438
1870;529.3435668945312
1871;529.2144775390625
1872;529.08544921875
1873;528.9564819335938
1874;528.8275146484375
1875;528.6986083984375
1876;528.5697021484375
1877;528.4407958984375
1878;528.3119506835938
1879;528.18310546875
1880;528.0543212890625
1881;527.925537109375
1882;527.7968139648438
1883;527.6680908203125
1884;527.5394287109375
1885;527.4107666015625
1886;527.2821044921875
1887;527.1535034179688
1888;527.02490234375
1889;526.8963623046875
1890;526.7678833007812
1891;526.6392822265625
1892;526.5108642578125
1893;526.3823852539062
1894;526.2540283203125
1895;526.1256103515625
1896;525.9971923828125
1897;525.8688354492188
1898;525.7406005859375
1899;525.6122436523438
1900;525.4840087890625
1901;525.355712890625
1902;525.2276000976562
1903;525.0994262695312
1904;524.9712524414062
1905;524.8431396484375
1906;524.7149658203125
1907;524.5869750976562
1908;524.4589233398438
1909;524.3308715820312
1910;524.202880859375
1911;524.074951171875
1912;523.9469604492188
1913;523.819091796875
1914;523.6912231445312
1915;523.5633544921875
1916;523.4354858398438
1917;523.3076782226562
1918;523.1798706054688
1919;523.0521850585938
1920;522.9243774414062
1921;522.7966918945312
1922;522.6690673828125
1923;522.5413818359375
1924;522.4136962890625
1925;522.2861328125
1926;522.1585693359375
1927;522.0310668945312
1928;521.9035034179688
1929;521.7760620117188
1930;521.6485595703125
1931;521.5211181640625
1932;521.3937377929688
1933;521.2662963867188
1934;521.1389770507812
1935;521.0116577148438
1936;520.8843383789062
1937;520.7570190429688
1938;520.6298217773438
1939;520.5025024414062
1940;520.3753662109375
1941;520.2481079101562
1942;520.1209716796875
1943;519.993896484375
1944;519.8667602539062
1945;519.73974609375
1946;519.6126708984375
1947;519.4856567382812
1948;519.358642578125
1949;519.2316284179688
1950;519.1046752929688
1951;518.9778442382812
1952;518.8509521484375
1953;518.7240600585938
1954;518.5972290039062
1955;518.4703979492188
1956;518.3436279296875
1957;518.2168579101562
1958;518.0901489257812
1959;517.9634399414062
1960;517.8367309570312
1961;517.7100219726562
1962;517.5834350585938
1963;517.4568481445312
1964;517.3302001953125
1965;517.2036743164062
1966;517.0772094726562
1967;516.95068359375
1968;516.8241577148438
1969;516.69775390625
1970;516.5712890625
1971;516.4449462890625
1972;516.318603515625
1973;516.1922607421875
1974;516.06591796875
1975;515.9396362304688
1976;515.8133544921875
1977;515.6871337890625
1978;515.5608520507812
1979;515.4346923828125
1980;515.3085327148438
1981;515.1824340820312
1982;515.0562744140625
1983;514.93017578125
1984;514.8041381835938
1985;514.6781005859375
1986;514.5520629882812
1987;514.4261474609375
1988;514.3001098632812
1989;514.1741943359375
1990;514.0482788085938
1991;513.9224243164062
1992;513.7965087890625
1993;513.6707153320312
1994;513.544921875
1995;513.4191284179688
1996;513.2933959960938
1997;513.1676635742188
1998;513.0419311523438
1999;512.9161987304688
2000;512.7905883789062
2001;512.6649780273438
2002;512.5393676757812
2003;512.4137573242188
2004;512.2882080078125
2005;512.1626586914062
2006;512.0371704101562
2007;511.91168212890625
2008;511.78619384765625
2009;511.6608581542969
2010;511.5354309082031
2011;511.4100036621094
2012;511.28466796875
2013;511.1593933105469
2014;511.0340270996094
2015;510.9087829589844
2016;510.7835388183594
2017;510.6583557128906
2018;510.5330505371094
2019;510.4079284667969
2020;510.28277587890625
2021;510.15765380859375
2022;510.0325622558594
2023;509.9075012207031
2024;509.7824401855469
2025;509.6574401855469
2026;509.5324401855469
2027;509.407470703125
2028;509.2825012207031
2029;509.1575622558594
2030;509.03271484375
2031;508.90777587890625
2032;508.7829895019531
2033;508.65814208984375
2034;508.5333557128906
2035;508.4085388183594
2036;508.2837829589844
2037;508.1590881347656
2038;508.0344543457031
2039;507.90972900390625
2040;507.78509521484375
2041;507.6604309082031
2042;507.53582763671875
2043;507.4112854003906
2044;507.28668212890625
2045;507.162109375
2046;507.03765869140625
2047;506.9132385253906
2048;506.7887268066406
2049;506.6643371582031
2050;506.5398864746094
2051;506.41552734375
2052;506.2911682128906
2053;506.1668395996094
2054;506.04254150390625
2055;505.9182434082031
2056;505.79400634765625
2057;505.6698303222656
2058;505.54559326171875
2059;505.4214172363281
2060;505.2972106933594
2061;505.1731262207031
2062;505.0490417480469
2063;504.9250183105469
2064;504.80096435546875
2065;504.6768493652344
2066;504.5528869628906
2067;504.4289245605469
2068;504.3049011230469
2069;504.1809997558594
2070;504.05712890625
2071;503.9331970214844
2072;503.8092956542969
2073;503.6855163574219
2074;503.5617370605469
2075;503.43792724609375
2076;503.31414794921875
2077;503.1904296875
2078;503.0667419433594
2079;502.94305419921875
2080;502.8193664550781
2081;502.6957702636719
2082;502.57220458984375
2083;502.4485778808594
2084;502.3250427246094
2085;502.2014465332031
2086;502.0779724121094
2087;501.95452880859375
2088;501.83099365234375
2089;501.70751953125
2090;501.5841369628906
2091;501.46075439453125
2092;501.3373718261719
2093;501.21405029296875
2094;501.09075927734375
2095;500.96746826171875
2096;500.8441467285156
2097;500.7209167480469
2098;500.59771728515625
2099;500.4744567871094
2100;500.351318359375
2101;500.2281799316406
2102;500.10504150390625
2103;499.98193359375
2104;499.85888671875
2105;499.73583984375
2106;499.61279296875
2107;499.48980712890625
2108;499.3667907714844
2109;499.243896484375
2110;499.12091064453125
2111;498.9980163574219
2112;498.8751525878906
2113;498.7522277832031
2114;498.62945556640625
2115;498.5066223144531
2116;498.38385009765625
2117;498.2610778808594
2118;498.1383361816406
2119;498.0155944824219
2120;497.8929138183594
2121;497.7702331542969
2122;497.64764404296875
2123;497.5249938964844
2124;497.40234375
2125;497.27984619140625
2126;497.15728759765625
2127;497.0348205566406
2128;496.9123229980469
2129;496.789794921875
2130;496.6673278808594
2131;496.544921875
2132;496.42254638671875
2133;496.3001403808594
2134;496.17779541015625
2135;496.0554504394531
2136;495.93310546875
2137;495.8108825683594
2138;495.6886291503906
2139;495.56640625
2140;495.4441833496094
2141;495.3219909667969
2142;495.1997985839844
2143;495.0776672363281
2144;494.95556640625
2145;494.8334655761719
2146;494.71142578125
2147;494.58935546875
2148;494.46734619140625
2149;494.34539794921875
2150;494.2233581542969
2151;494.1014709472656
2152;493.9795227050781
2153;493.8575744628906
2154;493.7356872558594
2155;493.61383056640625
2156;493.4920349121094
2157;493.37017822265625
2158;493.2483825683594
2159;493.1266784667969
2160;493.00494384765625
2161;492.88323974609375
2162;492.7615051269531
2163;492.6398620605469
2164;492.5182189941406
2165;492.3966369628906
2166;492.2750549316406
2167;492.1534729003906
2168;492.0319519042969
2169;491.910400390625
2170;491.7888488769531
2171;491.6673889160156
2172;491.5459289550781
2173;491.42449951171875
2174;491.3030700683594
2175;491.18170166015625
2176;491.0603332519531
2177;490.93902587890625
2178;490.8177185058594
2179;490.6964416503906
2180;490.5751953125
2181;490.45391845703125
2182;490.33270263671875
2183;490.21148681640625
2184;490.09033203125
2185;489.96917724609375
2186;489.8479919433594
2187;489.7268981933594
2188;489.60589599609375
2189;489.48486328125
2190;489.36376953125
2191;489.2427673339844
2192;489.121826171875
2193;489.0008239746094
2194;488.8798828125
2195;488.7590026855469
2196;488.63812255859375
2197;488.51727294921875
2198;488.3963317871094
2199;488.2755432128906
2200;488.1547546386719
2201;488.0339660644531
2202;487.9132385253906
2203;487.79248046875
2204;487.67181396484375
2205;487.5511169433594
2206;487.43048095703125
2207;487.3097839355469
2208;487.1892395019531
2209;487.068603515625
2210;486.94805908203125
2211;486.8274841308594
2212;486.70697021484375
2213;486.58648681640625
2214;486.46600341796875
2215;486.3455505371094
2216;486.2251281738281
2217;486.1047668457031
2218;485.984375
2219;485.8639831542969
2220;485.74365234375
2221;485.623291015625
2222;485.5030212402344
2223;485.3827819824219
2224;485.2625427246094
2225;485.142333984375
2226;485.02215576171875
2227;484.9020080566406
2228;484.78179931640625
2229;484.66168212890625
2230;484.5415954589844
2231;484.42144775390625
2232;484.30145263671875
2233;484.1814270019531
2234;484.06146240234375
2235;483.94140625
2236;483.8214416503906
2237;483.7015075683594
2238;483.58160400390625
2239;483.4617004394531
2240;483.341796875
2241;483.2220153808594
2242;483.10211181640625
2243;482.98236083984375
2244;482.8625793457031
2245;482.7428283691406
2246;482.6230773925781
2247;482.5033874511719
2248;482.38372802734375
2249;482.2640075683594
2250;482.14434814453125
2251;482.0247497558594
2252;481.9051818847656
2253;481.78558349609375
2254;481.666015625
2255;481.5464782714844
2256;481.4269714355469
2257;481.30755615234375
2258;481.18804931640625
2259;481.0685729980469
2260;480.94915771484375
2261;480.8297424316406
2262;480.71044921875
2263;480.5910949707031
2264;480.47174072265625
2265;480.35247802734375
2266;480.2331848144531
2267;480.1139221191406
2268;479.99468994140625
2269;479.87548828125
2270;479.75628662109375
2271;479.63714599609375
2272;479.5179138183594
2273;479.39886474609375
2274;479.2797546386719
2275;479.16070556640625
2276;479.0416564941406
2277;478.9225769042969
2278;478.8036193847656
2279;478.68463134765625
2280;478.5656433105469
2281;478.4466857910156
2282;478.32769775390625
2283;478.2088317871094
2284;478.0899963378906
2285;477.9711608886719
2286;477.8523254394531
2287;477.7335510253906
2288;477.61474609375
2289;477.4959411621094
2290;477.37725830078125
2291;477.258544921875
2292;477.1398620605469
2293;477.02117919921875
2294;476.9025573730469
2295;476.7839050292969
2296;476.665283203125
2297;476.5467224121094
2298;476.42822265625
2299;476.30963134765625
2300;476.1911315917969
2301;476.0726013183594
2302;475.95416259765625
2303;475.8357238769531
2304;475.71728515625
2305;475.5989074707031
2306;475.4804992675781
2307;475.3622131347656
2308;475.243896484375
2309;475.12554931640625
2310;475.00726318359375
2311;474.8890075683594
2312;474.770751953125
2313;474.652587890625
2314;474.5343933105469
2315;474.41619873046875
2316;474.2980651855469
2317;474.1799011230469
2318;474.0617980957031
2319;473.9436950683594
2320;473.82568359375
2321;473.7076721191406
2322;473.5896301269531
2323;473.4716796875
2324;473.3536682128906
2325;473.2357482910156
2326;473.11773681640625
2327;472.9998474121094
2328;472.8819885253906
2329;472.7641296386719
2330;472.64630126953125
2331;472.5284729003906
2332;472.41070556640625
2333;472.29296875
2334;472.1752014160156
2335;472.0574645996094
2336;471.9397277832031
2337;471.8220520019531
2338;471.7043762207031
2339;471.5867614746094
2340;471.46917724609375
2341;471.3515319824219
2342;471.23394775390625
2343;471.1164245605469
2344;470.9988708496094
2345;470.8813781738281
2346;470.7638854980469
2347;470.6464538574219
2348;470.5290222167969
2349;470.41162109375
2350;470.294189453125
2351;470.17681884765625
2352;470.05950927734375
2353;469.9421691894531
2354;469.8248596191406
2355;469.70751953125
2356;469.59033203125
2357;469.47308349609375
2358;469.3558654785156
2359;469.2386169433594
2360;469.1214294433594
2361;469.00433349609375
2362;468.88714599609375
2363;468.77008056640625
2364;468.6529846191406
2365;468.5359191894531
2366;468.4188537597656
2367;468.30181884765625
2368;468.1848449707031
2369;468.06781005859375
2370;467.9508972167969
2371;467.83392333984375
2372;467.7170104980469
2373;467.60015869140625
2374;467.4833068847656
2375;467.3664245605469
2376;467.2496643066406
2377;467.1327819824219
2378;467.01605224609375
2379;466.8992614746094
2380;466.78253173828125
2381;466.6658020019531
2382;466.5491027832031
2383;466.4324645996094
2384;466.31585693359375
2385;466.1991882324219
2386;466.0826110839844
2387;465.9660339355469
2388;465.8494567871094
2389;465.73291015625
2390;465.6164245605469
2391;465.4998474121094
2392;465.38348388671875
2393;465.2669372558594
2394;465.1505432128906
2395;465.03411865234375
2396;464.9177551269531
2397;464.8014221191406
2398;464.68499755859375
2399;464.5686950683594
2400;464.4524230957031
2401;464.3361511230469
2402;464.2198791503906
2403;464.1036682128906
2404;463.9873962402344
2405;463.87127685546875
2406;463.75506591796875
2407;463.6388854980469
2408;463.5227966308594
2409;463.40667724609375
2410;463.29058837890625
2411;463.1745300292969
2412;463.0584411621094
2413;462.94244384765625
2414;462.8265075683594
2415;462.71051025390625
2416;462.59454345703125
2417;462.4786071777344
2418;462.36273193359375
2419;462.2467956542969
2420;462.1309509277344
2421;462.01513671875
2422;461.8992614746094
2423;461.7834777832031
2424;461.6676940917969
2425;461.55194091796875
2426;461.43621826171875
2427;461.32049560546875
2428;461.2048034667969
2429;461.089111328125
2430;460.9734191894531
2431;460.8578186035156
2432;460.7422180175781
2433;460.6266174316406
2434;460.51104736328125
2435;460.3955078125
2436;460.2799987792969
2437;460.16448974609375
2438;460.0490417480469
2439;459.93353271484375
2440;459.818115234375
2441;459.70269775390625
2442;459.58734130859375
2443;459.471923828125
2444;459.35662841796875
2445;459.2413024902344
2446;459.1259765625
2447;459.01068115234375
2448;458.89544677734375
2449;458.78021240234375
2450;458.66497802734375
2451;458.5497741699219
2452;458.4345703125
2453;458.31939697265625
2454;458.2043151855469
2455;458.0891418457031
2456;457.9740905761719
2457;457.8590393066406
2458;457.74395751953125
2459;457.62890625
2460;457.5138854980469
2461;457.39892578125
2462;457.283935546875
2463;457.16900634765625
2464;457.0541076660156
2465;456.9391784667969
2466;456.82427978515625
2467;456.70947265625
2468;456.5945739746094
2469;456.4797668457031
2470;456.3650207519531
2471;456.250244140625
2472;456.1354675292969
2473;456.0207214355469
2474;455.9060363769531
2475;455.7913513183594
2476;455.67669677734375
2477;455.56201171875
2478;455.4474182128906
2479;455.3327941894531
2480;455.21820068359375
2481;455.1036682128906
2482;454.9891662597656
2483;454.87457275390625
2484;454.7601013183594
2485;454.6456604003906
2486;454.53118896484375
2487;454.4167175292969
2488;454.30230712890625
2489;454.18798828125
2490;454.0735778808594
2491;453.9592590332031
2492;453.8449401855469
2493;453.7306823730469
2494;453.6163635253906
2495;453.5020446777344
2496;453.3877868652344
2497;453.27362060546875
2498;453.1593933105469
2499;453.04522705078125
2500;452.93109130859375
2501;452.81695556640625
2502;452.7028503417969
2503;452.5887145996094
2504;452.4746398925781
2505;452.3605651855469
2506;452.24658203125
2507;452.1325378417969
2508;452.0185852050781
2509;451.9045715332031
2510;451.7906799316406
2511;451.6767578125
2512;451.5628356933594
2513;451.448974609375
2514;451.3350524902344
2515;451.22125244140625
2516;451.107421875
2517;450.9936218261719
2518;450.87982177734375
2519;450.76605224609375
2520;450.65234375
2521;450.5386047363281
2522;450.42486572265625
2523;450.3112487792969
2524;450.19757080078125
2525;450.083984375
2526;449.9703674316406
2527;449.8567199707031
2528;449.7431640625
2529;449.6296081542969
2530;449.5160827636719
2531;449.4025573730469
2532;449.2890625
2533;449.1756286621094
2534;449.06219482421875
2535;448.94873046875
2536;448.83538818359375
2537;448.7219543457031
2538;448.6086120605469
2539;448.4952087402344
2540;448.3819274902344
2541;448.26861572265625
2542;448.15533447265625
2543;448.0421447753906
2544;447.9288635253906
2545;447.815673828125
2546;447.70245361328125
2547;447.5893249511719
2548;447.47613525390625
2549;447.36297607421875
2550;447.2499084472656
2551;447.13677978515625
2552;447.0237121582031
2553;446.91070556640625
2554;446.7976379394531
2555;446.68463134765625
2556;446.57171630859375
2557;446.4587097167969
2558;446.3457336425781
2559;446.23284912109375
2560;446.1199035644531
2561;446.0070495605469
2562;445.8941955566406
2563;445.78131103515625
2564;445.66851806640625
2565;445.55572509765625
2566;445.44293212890625
2567;445.33013916015625
2568;445.2174377441406
2569;445.1047058105469
2570;444.9920349121094
2571;444.8793640136719
2572;444.7667541503906
2573;444.654052734375
2574;444.54144287109375
2575;444.4288635253906
2576;444.3162536621094
2577;444.2037658691406
2578;444.0911560058594
2579;443.97869873046875
2580;443.8662109375
2581;443.7537536621094
2582;443.64129638671875
2583;443.52886962890625
2584;443.41650390625
2585;443.3040466308594
2586;443.1916809082031
2587;443.079345703125
2588;442.967041015625
2589;442.854736328125
2590;442.742431640625
2591;442.6302185058594
2592;442.5179748535156
2593;442.4057312011719
2594;442.29351806640625
2595;442.1813659667969
2596;442.0691833496094
2597;441.95709228515625
2598;441.8449401855469
2599;441.73284912109375
2600;441.6206970214844
2601;441.5086364746094
2602;441.3966979980469
2603;441.2846374511719
2604;441.1726379394531
2605;441.0606384277344
2606;440.94866943359375
2607;440.8367614746094
2608;440.7248840332031
2609;440.6130065917969
2610;440.5011291503906
2611;440.38922119140625
2612;440.27734375
2613;440.16558837890625
2614;440.0538024902344
2615;439.9420471191406
2616;439.83026123046875
2617;439.71856689453125
2618;439.60687255859375
2619;439.49517822265625
2620;439.3835144042969
2621;439.2718200683594
2622;439.16021728515625
2623;439.0486145019531
2624;438.93701171875
2625;438.8254699707031
2626;438.7138977050781
2627;438.6023864746094
2628;438.4908752441406
2629;438.37939453125
2630;438.2679138183594
2631;438.1565246582031
2632;438.0450744628906
2633;437.93365478515625
2634;437.822265625
2635;437.7109375
2636;437.59954833984375
2637;437.48828125
2638;437.376953125
2639;437.26568603515625
2640;437.1543884277344
2641;437.0431823730469
2642;436.9319152832031
2643;436.8207702636719
2644;436.7096252441406
2645;436.5984191894531
2646;436.4872741699219
2647;436.3761901855469
2648;436.26507568359375
2649;436.15399169921875
2650;436.04290771484375
2651;435.931884765625
2652;435.82086181640625
2653;435.70989990234375
2654;435.5989074707031
2655;435.4879455566406
2656;435.37701416015625
2657;435.26611328125
2658;435.15521240234375
2659;435.0442810058594
2660;434.9335021972656
2661;434.8226013183594
2662;434.7118225097656
2663;434.6010437011719
2664;434.49029541015625
2665;434.3795471191406
2666;434.2687683105469
2667;434.1580505371094
2668;434.0473937988281
2669;433.93670654296875
2670;433.8260803222656
2671;433.71539306640625
2672;433.60479736328125
2673;433.49420166015625
2674;433.3836364746094
2675;433.27313232421875
2676;433.1625671386719
2677;433.05206298828125
2678;432.9415588378906
2679;432.8310546875
2680;432.7206115722656
2681;432.6101989746094
2682;432.4997863769531
2683;432.3893737792969
2684;432.2790222167969
2685;432.168701171875
2686;432.058349609375
2687;431.9480285644531
2688;431.83770751953125
2689;431.72747802734375
2690;431.6171875
2691;431.5069885253906
2692;431.39678955078125
2693;431.28662109375
2694;431.17645263671875
2695;431.0662536621094
2696;430.95611572265625
2697;430.8460388183594
2698;430.7359924316406
2699;430.62591552734375
2700;430.5158386230469
2701;430.40582275390625
2702;430.2958068847656
2703;430.185791015625
2704;430.0758972167969
2705;429.96588134765625
2706;429.85595703125
2707;429.7460632324219
2708;429.63616943359375
2709;429.52630615234375
2710;429.41644287109375
2711;429.3066101074219
2712;429.19683837890625
2713;429.0870666503906
2714;428.9772644042969
2715;428.86749267578125
2716;428.7577819824219
2717;428.6481018066406
2718;428.53839111328125
2719;428.4287109375
2720;428.3190612792969
2721;428.20941162109375
2722;428.0998229980469
2723;427.990234375
2724;427.8806457519531
2725;427.7710876464844
2726;427.6615905761719
2727;427.5520935058594
2728;427.4425964355469
2729;427.3331604003906
2730;427.2236633300781
2731;427.1142578125
2732;427.00482177734375
2733;426.89544677734375
2734;426.78607177734375
2735;426.6767272949219
2736;426.5673828125
2737;426.45806884765625
2738;426.3487854003906
2739;426.2395324707031
2740;426.1302795410156
2741;426.02105712890625
2742;425.91180419921875
2743;425.8026428222656
2744;425.6934509277344
2745;425.5843200683594
2746;425.47515869140625
2747;425.3660583496094
2748;425.2569885253906
2749;425.14794921875
2750;425.0388488769531
2751;424.9298400878906
2752;424.82080078125
2753;424.7118225097656
2754;424.6028137207031
2755;424.4938659667969
2756;424.3849182128906
2757;424.27606201171875
2758;424.1671447753906
2759;424.05828857421875
2760;423.9494323730469
2761;423.8406066894531
2762;423.73175048828125
2763;423.62298583984375
2764;423.5141906738281
2765;423.40545654296875
2766;423.2967224121094
2767;423.1880187988281
2768;423.0793151855469
2769;422.97064208984375
2770;422.8619689941406
2771;422.7533264160156
2772;422.6447448730469
2773;422.5361328125
2774;422.42755126953125
2775;422.3190002441406
2776;422.21044921875
2777;422.1018981933594
2778;421.9934387207031
2779;421.8849792480469
2780;421.7765197753906
2781;421.6680603027344
2782;421.55963134765625
2783;421.45123291015625
2784;421.34283447265625
2785;421.2345275878906
2786;421.1261901855469
2787;421.017822265625
2788;420.9095153808594
2789;420.80126953125
2790;420.6930236816406
2791;420.5847473144531
2792;420.47650146484375
2793;420.3683166503906
2794;420.2601013183594
2795;420.1519470214844
2796;420.0437927246094
2797;419.9356994628906
2798;419.82763671875
2799;419.7195129394531
2800;419.6114196777344
2801;419.5033874511719
2802;419.3953552246094
2803;419.287353515625
2804;419.1793518066406
2805;419.07135009765625
2806;418.9634094238281
2807;418.8554992675781
2808;418.74755859375
2809;418.63970947265625
2810;418.53179931640625
2811;418.4239807128906
2812;418.316162109375
2813;418.20831298828125
2814;418.1005554199219
2815;417.99273681640625
2816;417.8849792480469
2817;417.77728271484375
2818;417.6695861816406
2819;417.5618591308594
2820;417.45416259765625
2821;417.3465270996094
2822;417.2388610839844
2823;417.13128662109375
2824;417.0236511230469
2825;416.91607666015625
2826;416.80853271484375
2827;416.70098876953125
2828;416.5934753417969
2829;416.4859924316406
2830;416.37847900390625
2831;416.27105712890625
2832;416.16357421875
2833;416.0561828613281
2834;415.94873046875
2835;415.8413391113281
2836;415.7340393066406
2837;415.6266784667969
2838;415.5193176269531
2839;415.4120178222656
2840;415.30474853515625
2841;415.1974792480469
2842;415.0901794433594
2843;414.98297119140625
2844;414.8757629394531
2845;414.7685546875
2846;414.6614074707031
2847;414.55426025390625
2848;414.4471130371094
2849;414.34002685546875
2850;414.2329406738281
2851;414.1258239746094
2852;414.0187683105469
2853;413.9117736816406
2854;413.8047180175781
2855;413.69775390625
2856;413.59075927734375
2857;413.4837341308594
2858;413.3768005371094
2859;413.2699279785156
2860;413.16302490234375
2861;413.0561218261719
2862;412.9492492675781
2863;412.8424377441406
2864;412.7355651855469
2865;412.6287536621094
2866;412.52197265625
2867;412.4152526855469
2868;412.30853271484375
2869;412.2018127441406
2870;412.0950622558594
2871;411.9883728027344
2872;411.8817443847656
2873;411.7750549316406
2874;411.6684265136719
2875;411.5617980957031
2876;411.4551696777344
2877;411.3486328125
2878;411.24212646484375
2879;411.1355895996094
2880;411.0290222167969
2881;410.92254638671875
2882;410.81610107421875
2883;410.7096252441406
2884;410.60321044921875
2885;410.49676513671875
2886;410.390380859375
2887;410.2839660644531
2888;410.1776428222656
2889;410.0712890625
2890;409.9649963378906
2891;409.8586730957031
2892;409.7524108886719
2893;409.6461486816406
2894;409.5398864746094
2895;409.43365478515625
2896;409.3274230957031
2897;409.22125244140625
2898;409.1150817871094
2899;409.0089416503906
2900;408.90283203125
2901;408.7967224121094
2902;408.6906433105469
2903;408.58453369140625
2904;408.47845458984375
2905;408.3724060058594
2906;408.26641845703125
2907;408.1604309082031
2908;408.0544738769531
2909;407.948486328125
2910;407.8425598144531
2911;407.73663330078125
2912;407.6307067871094
2913;407.5248718261719
2914;407.41900634765625
2915;407.31317138671875
2916;407.20733642578125
2917;407.1015319824219
2918;406.9957580566406
2919;406.8899230957031
2920;406.7842102050781
2921;406.6784973144531
2922;406.5727844238281
2923;406.46710205078125
2924;406.3614807128906
2925;406.25579833984375
2926;406.1501770019531
2927;406.0445251464844
2928;405.93890380859375
2929;405.8333435058594
2930;405.7278137207031
2931;405.6222839355469
2932;405.5167541503906
2933;405.4112854003906
2934;405.3057556152344
2935;405.2003479003906
2936;405.0948791503906
2937;404.9894714355469
2938;404.8840637207031
2939;404.7786560058594
2940;404.6733093261719
2941;404.56793212890625
2942;404.4626159667969
2943;404.3573303222656
2944;404.25201416015625
2945;404.1467590332031
2946;404.04150390625
2947;403.9362487792969
2948;403.8310546875
2949;403.7258605957031
2950;403.62066650390625
2951;403.5155334472656
2952;403.4103698730469
2953;403.3052673339844
2954;403.2001647949219
2955;403.0950622558594
2956;402.9900207519531
2957;402.8849792480469
2958;402.7799377441406
2959;402.6749572753906
2960;402.5699157714844
2961;402.46502685546875
2962;402.36004638671875
2963;402.255126953125
2964;402.1501770019531
2965;402.04534912109375
2966;401.9404296875
2967;401.8356018066406
2968;401.7307434082031
2969;401.6259460449219
2970;401.5211486816406
2971;401.4163513183594
2972;401.31158447265625
2973;401.2068786621094
2974;401.10211181640625
2975;400.9974670410156
2976;400.8927917480469
2977;400.7880859375
2978;400.6834411621094
2979;400.5788269042969
2980;400.4742126464844
2981;400.3695983886719
2982;400.26507568359375
2983;400.1604919433594
2984;400.0559387207031
2985;399.9514465332031
2986;399.8469543457031
2987;399.74249267578125
2988;399.6380310058594
2989;399.5335998535156
2990;399.4291687011719
2991;399.32476806640625
2992;399.2204284667969
2993;399.11602783203125
2994;399.0116882324219
2995;398.9073791503906
2996;398.8030700683594
2997;398.69879150390625
2998;398.5945129394531
2999;398.4902648925781
