;loss
0;875.1588745117188
1;875.0269775390625
2;874.8501586914062
3;874.6741333007812
4;874.5093383789062
5;874.3421020507812
6;874.1730346679688
7;874.0031127929688
8;873.8327026367188
9;873.6620483398438
10;873.4904174804688
11;873.3197631835938
12;873.1494140625
13;872.9796752929688
14;872.8104858398438
15;872.6406860351562
16;872.4725341796875
17;872.3032836914062
18;872.1360473632812
19;871.9672241210938
20;871.7987670898438
21;871.6304321289062
22;871.4640502929688
23;871.2978515625
24;871.1298828125
25;870.9639282226562
26;870.7979736328125
27;870.6300048828125
28;870.4640502929688
29;870.2981567382812
30;870.1300048828125
31;869.9638671875
32;869.7955932617188
33;869.6290283203125
34;869.4605102539062
35;869.2916870117188
36;869.1245727539062
37;868.9571533203125
38;868.7894897460938
39;868.6215209960938
40;868.4512939453125
41;868.28076171875
42;868.1116333007812
43;867.9419555664062
44;867.7720336914062
45;867.5997314453125
46;867.4286499023438
47;867.2554321289062
48;867.0816040039062
49;866.9072265625
50;866.7322387695312
51;866.5581665039062
52;866.3834228515625
53;866.2080078125
54;866.0302734375
55;865.8533935546875
56;865.6741333007812
57;865.494140625
58;865.3131713867188
59;865.1328125
60;864.9515991210938
61;864.7694091796875
62;864.5846557617188
63;864.3990478515625
64;864.2137451171875
65;864.0272216796875
66;863.8395385742188
67;863.6508178710938
68;863.4609375
69;863.26953125
70;863.0770263671875
71;862.8817138671875
72;862.68505859375
73;862.48828125
74;862.2900390625
75;862.0901489257812
76;861.888671875
77;861.6854858398438
78;861.4805908203125
79;861.2739868164062
80;861.0655517578125
81;860.8540649414062
82;860.6405029296875
83;860.4262084960938
84;860.2098388671875
85;859.9900512695312
86;859.7693481445312
87;859.5450439453125
88;859.3197631835938
89;859.0908203125
90;858.8594970703125
91;858.6268310546875
92;858.3903198242188
93;858.1524047851562
94;857.9105834960938
95;857.666015625
96;857.4186401367188
97;857.1682739257812
98;856.9161376953125
99;856.6597290039062
100;856.4015502929688
101;856.1390991210938
102;855.8744506835938
103;855.6067504882812
104;855.3344116210938
105;855.0599975585938
106;854.7821044921875
107;854.4995727539062
108;854.2134399414062
109;853.9251098632812
110;853.6328735351562
111;853.3357543945312
112;853.0360717773438
113;852.7324829101562
114;852.4251098632812
115;852.1126098632812
116;851.7971801757812
117;851.4765014648438
118;851.1528930664062
119;850.8251953125
120;850.4920654296875
121;850.1547241210938
122;849.8130493164062
123;849.4683227539062
124;849.1192626953125
125;848.7657470703125
126;848.4065551757812
127;848.0429077148438
128;847.6762084960938
129;847.3048095703125
130;846.9276123046875
131;846.5458984375
132;846.1594848632812
133;845.7699584960938
134;845.3756713867188
135;844.9755859375
136;844.5709228515625
137;844.1630249023438
138;843.7490234375
139;843.33203125
140;842.9105224609375
141;842.4844970703125
142;842.0541381835938
143;841.6194458007812
144;841.18017578125
145;840.7366333007812
146;840.2874145507812
147;839.8353271484375
148;839.3776245117188
149;838.9161376953125
150;838.4520263671875
151;837.9839477539062
152;837.51220703125
153;837.0368041992188
154;836.5565795898438
155;836.0729370117188
156;835.5874633789062
157;835.0989379882812
158;834.607421875
159;834.1131591796875
160;833.6160888671875
161;833.1165161132812
162;832.6145629882812
163;832.1090087890625
164;831.6029663085938
165;831.0936889648438
166;830.5827026367188
167;830.0718383789062
168;829.5597534179688
169;829.0465698242188
170;828.53125
171;828.01513671875
172;827.4985961914062
173;826.9832763671875
174;826.4664306640625
175;825.951171875
176;825.4349365234375
177;824.9204711914062
178;824.4066772460938
179;823.892578125
180;823.3794555664062
181;822.8676147460938
182;822.3572387695312
183;821.849609375
184;821.3424072265625
185;820.8369140625
186;820.3346557617188
187;819.8343505859375
188;819.3349609375
189;818.8392944335938
190;818.3458862304688
191;817.8550415039062
192;817.3668823242188
193;816.8802490234375
194;816.3963623046875
195;815.91650390625
196;815.439453125
197;814.9642944335938
198;814.4932250976562
199;814.0250854492188
200;813.55908203125
201;813.0971069335938
202;812.6383666992188
203;812.1817626953125
204;811.7291870117188
205;811.2788696289062
206;810.8316650390625
207;810.3876342773438
208;809.94677734375
209;809.5091552734375
210;809.0756225585938
211;808.6442260742188
212;808.2169189453125
213;807.7927856445312
214;807.3715209960938
215;806.9534912109375
216;806.5382690429688
217;806.1253051757812
218;805.7152709960938
219;805.3090209960938
220;804.90576171875
221;804.5053100585938
222;804.1077270507812
223;803.712890625
224;803.3209228515625
225;802.9317016601562
226;802.5443725585938
227;802.1604614257812
228;801.7791748046875
229;801.4003295898438
230;801.0233764648438
231;800.6495971679688
232;800.2777099609375
233;799.9081420898438
234;799.541015625
235;799.17626953125
236;798.8137817382812
237;798.4537353515625
238;798.0965576171875
239;797.7416381835938
240;797.3887939453125
241;797.0381469726562
242;796.6895751953125
243;796.34326171875
244;795.9982299804688
245;795.6558227539062
246;795.3154907226562
247;794.97705078125
248;794.6405029296875
249;794.3052978515625
250;793.9719848632812
251;793.6404418945312
252;793.3112182617188
253;792.9839477539062
254;792.6583251953125
255;792.3344116210938
256;792.0121459960938
257;791.6915893554688
258;791.3721313476562
259;791.0547485351562
260;790.7390747070312
261;790.42431640625
262;790.1112060546875
263;789.7994995117188
264;789.4893188476562
265;789.1810913085938
266;788.8737182617188
267;788.5684204101562
268;788.2645263671875
269;787.9618530273438
270;787.6605224609375
271;787.3604736328125
272;787.0614013671875
273;786.7635498046875
274;786.4669799804688
275;786.1721801757812
276;785.8784790039062
277;785.5856323242188
278;785.2943725585938
279;785.00439453125
280;784.7149658203125
281;784.4273071289062
282;784.140625
283;783.8551025390625
284;783.5707397460938
285;783.2874145507812
286;783.0051879882812
287;782.7239379882812
288;782.4437866210938
289;782.16455078125
290;781.8860473632812
291;781.6083984375
292;781.3318481445312
293;781.056640625
294;780.7822875976562
295;780.5084838867188
296;780.2361450195312
297;779.9645385742188
298;779.6935424804688
299;779.423828125
300;779.1549682617188
301;778.8870239257812
302;778.6194458007812
303;778.3528442382812
304;778.0869750976562
305;777.822265625
306;777.55810546875
307;777.2946166992188
308;777.0321044921875
309;776.7705688476562
310;776.5094604492188
311;776.2495727539062
312;775.9899291992188
313;775.7315063476562
314;775.4737548828125
315;775.216796875
316;774.9603881835938
317;774.7047729492188
318;774.4498901367188
319;774.1957397460938
320;773.9422607421875
321;773.68896484375
322;773.4364624023438
323;773.1845703125
324;772.9334106445312
325;772.68310546875
326;772.4334716796875
327;772.1845092773438
328;771.9357299804688
329;771.6876831054688
330;771.4405517578125
331;771.1939697265625
332;770.94775390625
333;770.7023315429688
334;770.4575805664062
335;770.2130126953125
336;769.9691162109375
337;769.7257080078125
338;769.4832763671875
339;769.2412109375
340;768.99951171875
341;768.7586669921875
342;768.5180053710938
343;768.2778930664062
344;768.03857421875
345;767.7994384765625
346;767.5609741210938
347;767.3228759765625
348;767.0856323242188
349;766.8489379882812
350;766.6123657226562
351;766.3765258789062
352;766.1412353515625
353;765.9063720703125
354;765.6721801757812
355;765.4380493164062
356;765.2042846679688
357;764.9713745117188
358;764.7386474609375
359;764.5065307617188
360;764.2750244140625
361;764.0439453125
362;763.81298828125
363;763.5824584960938
364;763.3526000976562
365;763.1229248046875
366;762.8939819335938
367;762.6651611328125
368;762.4367065429688
369;762.2088012695312
370;761.9813842773438
371;761.7544555664062
372;761.5278930664062
373;761.3017578125
374;761.0757446289062
375;760.8504028320312
376;760.6254272460938
377;760.4008178710938
378;760.1766357421875
379;759.9525146484375
380;759.7290649414062
381;759.5057373046875
382;759.2827758789062
383;759.0603637695312
384;758.83837890625
385;758.6167602539062
386;758.3951416015625
387;758.1742553710938
388;757.9534301757812
389;757.73291015625
390;757.5130004882812
391;757.2933959960938
392;757.0738525390625
393;756.85498046875
394;756.63623046875
395;756.4176635742188
396;756.1997680664062
397;755.9822387695312
398;755.7649536132812
399;755.5479736328125
400;755.3313598632812
401;755.1150512695312
402;754.8990478515625
403;754.6832885742188
404;754.4677124023438
405;754.2526245117188
406;754.0377807617188
407;753.8231201171875
408;753.6089477539062
409;753.3948364257812
410;753.1812133789062
411;752.9678955078125
412;752.7548828125
413;752.5419921875
414;752.3292846679688
415;752.1171875
416;751.9052734375
417;751.6936645507812
418;751.4822998046875
419;751.2713012695312
420;751.0604858398438
421;750.8496704101562
422;750.6392211914062
423;750.4290771484375
424;750.2192993164062
425;750.0098266601562
426;749.8006591796875
427;749.5914306640625
428;749.3825073242188
429;749.1741333007812
430;748.9659423828125
431;748.7577514648438
432;748.5499267578125
433;748.3424072265625
434;748.1350708007812
435;747.9278564453125
436;747.7210083007812
437;747.5145263671875
438;747.3081665039062
439;747.1021728515625
440;746.8963623046875
441;746.6908569335938
442;746.4856567382812
443;746.2803955078125
444;746.0753173828125
445;745.8707885742188
446;745.6664428710938
447;745.4624633789062
448;745.2584838867188
449;745.0548095703125
450;744.8512573242188
451;744.6480102539062
452;744.4450073242188
453;744.2421875
454;744.0398559570312
455;743.8375854492188
456;743.6354370117188
457;743.4335327148438
458;743.2318115234375
459;743.0302734375
460;742.8290405273438
461;742.6279296875
462;742.4271850585938
463;742.2265625
464;742.0263061523438
465;741.8264770507812
466;741.6266479492188
467;741.4271850585938
468;741.2279663085938
469;741.0286865234375
470;740.8297729492188
471;740.6309204101562
472;740.4322509765625
473;740.2338256835938
474;740.0357055664062
475;739.8375854492188
476;739.6397094726562
477;739.4420166015625
478;739.2445068359375
479;739.0473022460938
480;738.8504028320312
481;738.6535034179688
482;738.4567260742188
483;738.2601928710938
484;738.06396484375
485;737.86767578125
486;737.6717529296875
487;737.47607421875
488;737.2802734375
489;737.0846557617188
490;736.8893432617188
491;736.6942138671875
492;736.4991455078125
493;736.3043823242188
494;736.1098022460938
495;735.9154052734375
496;735.7211303710938
497;735.5271606445312
498;735.3333129882812
499;735.1395263671875
500;734.9458618164062
501;734.7525024414062
502;734.5592651367188
503;734.3662109375
504;734.17333984375
505;733.9806518554688
506;733.7879638671875
507;733.5953979492188
508;733.4030151367188
509;733.2109375
510;733.0188598632812
511;732.8268432617188
512;732.6351928710938
513;732.4435424804688
514;732.2520751953125
515;732.0609130859375
516;731.8698120117188
517;731.6788330078125
518;731.4881591796875
519;731.2975463867188
520;731.1068725585938
521;730.9165649414062
522;730.7264404296875
523;730.5364379882812
524;730.3464965820312
525;730.1566162109375
526;729.9669189453125
527;729.7772827148438
528;729.5878295898438
529;729.3984985351562
530;729.2093505859375
531;729.0203247070312
532;728.8316040039062
533;728.6430053710938
534;728.45458984375
535;728.2664184570312
536;728.078125
537;727.8900146484375
538;727.7021484375
539;727.5143432617188
540;727.3267211914062
541;727.1392822265625
542;726.9519653320312
543;726.7647705078125
544;726.5778198242188
545;726.3909301757812
546;726.2041015625
547;726.0176391601562
548;725.8310546875
549;725.6448974609375
550;725.4585571289062
551;725.2725830078125
552;725.0866088867188
553;724.90087890625
554;724.7152709960938
555;724.5297241210938
556;724.3444213867188
557;724.1591186523438
558;723.9737548828125
559;723.7887573242188
560;723.6038818359375
561;723.4189453125
562;723.2342529296875
563;723.0497436523438
564;722.8653564453125
565;722.6810913085938
566;722.4968872070312
567;722.3128051757812
568;722.1287841796875
569;721.9448852539062
570;721.7612915039062
571;721.5775756835938
572;721.3941040039062
573;721.2107543945312
574;721.0274047851562
575;720.84423828125
576;720.6611938476562
577;720.4783325195312
578;720.2955932617188
579;720.1129760742188
580;719.9303588867188
581;719.7479248046875
582;719.5655517578125
583;719.3833618164062
584;719.2012939453125
585;719.0194091796875
586;718.8375854492188
587;718.6559448242188
588;718.4742431640625
589;718.2926635742188
590;718.111328125
591;717.93017578125
592;717.7489013671875
593;717.5679321289062
594;717.3870239257812
595;717.2063598632812
596;717.0255126953125
597;716.8450317382812
598;716.6646118164062
599;716.4842529296875
600;716.3040771484375
601;716.1240234375
602;715.9439086914062
603;715.7639770507812
604;715.5841064453125
605;715.4043579101562
606;715.2246704101562
607;715.0452270507812
608;714.8658447265625
609;714.6865234375
610;714.5073852539062
611;714.3283081054688
612;714.1492919921875
613;713.9703369140625
614;713.79150390625
615;713.6128540039062
616;713.4343872070312
617;713.2559204101562
618;713.0775146484375
619;712.8992919921875
620;712.7210083007812
621;712.5428466796875
622;712.3649291992188
623;712.1871337890625
624;712.0093383789062
625;711.8316040039062
626;711.6539916992188
627;711.4765625
628;711.2990112304688
629;711.1217651367188
630;710.9446411132812
631;710.7674560546875
632;710.5903930664062
633;710.4135131835938
634;710.2367553710938
635;710.0599975585938
636;709.8836059570312
637;709.70703125
638;709.5306396484375
639;709.3541870117188
640;709.1781616210938
641;709.0020141601562
642;708.826171875
643;708.6502685546875
644;708.4743041992188
645;708.298828125
646;708.1232299804688
647;707.9478149414062
648;707.7723999023438
649;707.59716796875
650;707.4219360351562
651;707.2467651367188
652;707.0718383789062
653;706.8969116210938
654;706.7221069335938
655;706.5473022460938
656;706.3728637695312
657;706.1983642578125
658;706.0239868164062
659;705.8496704101562
660;705.6754760742188
661;705.5013427734375
662;705.3274536132812
663;705.1534423828125
664;704.9796142578125
665;704.8059692382812
666;704.63232421875
667;704.4588623046875
668;704.2854614257812
669;704.1121826171875
670;703.9390258789062
671;703.7659301757812
672;703.5929565429688
673;703.4200439453125
674;703.2472534179688
675;703.0745849609375
676;702.9019165039062
677;702.7296142578125
678;702.5572509765625
679;702.3850708007812
680;702.2130126953125
681;702.041015625
682;701.8690185546875
683;701.6972045898438
684;701.525390625
685;701.3536376953125
686;701.1820678710938
687;701.0104370117188
688;700.8391723632812
689;700.6676635742188
690;700.4965209960938
691;700.3253173828125
692;700.154296875
693;699.9833374023438
694;699.8123779296875
695;699.6416015625
696;699.4708251953125
697;699.3001098632812
698;699.1295776367188
699;698.958984375
700;698.78857421875
701;698.6181640625
702;698.4478149414062
703;698.2776489257812
704;698.1074829101562
705;697.9374389648438
706;697.7675170898438
707;697.5975952148438
708;697.427734375
709;697.2579956054688
710;697.0883178710938
711;696.9187622070312
712;696.7491455078125
713;696.5797119140625
714;696.4104614257812
715;696.2411499023438
716;696.0718383789062
717;695.9027099609375
718;695.7337036132812
719;695.5645751953125
720;695.3958129882812
721;695.2269897460938
722;695.0582885742188
723;694.8897705078125
724;694.7212524414062
725;694.5528564453125
726;694.3844604492188
727;694.2161254882812
728;694.0478515625
729;693.8796997070312
730;693.7115478515625
731;693.5435791015625
732;693.3756713867188
733;693.2078247070312
734;693.0399169921875
735;692.8722534179688
736;692.70458984375
737;692.5369873046875
738;692.3694458007812
739;692.2018432617188
740;692.0345458984375
741;691.8671875
742;691.6998901367188
743;691.5327758789062
744;691.3656616210938
745;691.1986083984375
746;691.0315551757812
747;690.8646240234375
748;690.6978759765625
749;690.5311279296875
750;690.3643798828125
751;690.19775390625
752;690.03125
753;689.8648071289062
754;689.6983642578125
755;689.5320434570312
756;689.3657836914062
757;689.1995849609375
758;689.0333862304688
759;688.8673095703125
760;688.7013549804688
761;688.5354614257812
762;688.3695678710938
763;688.2037353515625
764;688.0380249023438
765;687.8722534179688
766;687.7066650390625
767;687.5411376953125
768;687.3756103515625
769;687.2102661132812
770;687.0448608398438
771;686.8795776367188
772;686.7144165039062
773;686.5492553710938
774;686.3842163085938
775;686.2191772460938
776;686.0542602539062
777;685.8894653320312
778;685.7246704101562
779;685.5599365234375
780;685.3952026367188
781;685.2305908203125
782;685.0659790039062
783;684.9014892578125
784;684.7371826171875
785;684.5728149414062
786;684.4085083007812
787;684.2442626953125
788;684.080078125
789;683.9158935546875
790;683.7518920898438
791;683.587890625
792;683.4239501953125
793;683.2601318359375
794;683.0963134765625
795;682.9326171875
796;682.76904296875
797;682.6054077148438
798;682.4418334960938
799;682.2784423828125
800;682.1149291992188
801;681.9515991210938
802;681.7882080078125
803;681.6249389648438
804;681.4616088867188
805;681.2985229492188
806;681.1354370117188
807;680.9724731445312
808;680.8094482421875
809;680.6466064453125
810;680.4838256835938
811;680.3209838867188
812;680.1582641601562
813;679.99560546875
814;679.8330078125
815;679.6703491210938
816;679.5078735351562
817;679.3453979492188
818;679.1830444335938
819;679.0208129882812
820;678.8585205078125
821;678.6963500976562
822;678.5341796875
823;678.3721313476562
824;678.2100830078125
825;678.0481567382812
826;677.88623046875
827;677.7242431640625
828;677.5625610351562
829;677.4007568359375
830;677.2390747070312
831;677.0774536132812
832;676.9158935546875
833;676.75439453125
834;676.5928955078125
835;676.4315185546875
836;676.2701416015625
837;676.1088256835938
838;675.9476318359375
839;675.7864990234375
840;675.6251831054688
841;675.4641723632812
842;675.3031616210938
843;675.1422729492188
844;674.9813232421875
845;674.8204956054688
846;674.6597290039062
847;674.4989624023438
848;674.3383178710938
849;674.1776123046875
850;674.01708984375
851;673.8565673828125
852;673.6961669921875
853;673.5357055664062
854;673.3754272460938
855;673.2151489257812
856;673.0549926757812
857;672.8947143554688
858;672.7345581054688
859;672.5745239257812
860;672.41455078125
861;672.2545166015625
862;672.0947265625
863;671.9348754882812
864;671.7750244140625
865;671.6152954101562
866;671.45556640625
867;671.2959594726562
868;671.1364135742188
869;670.9769287109375
870;670.8174438476562
871;670.6580810546875
872;670.4987182617188
873;670.3394165039062
874;670.18017578125
875;670.0210571289062
876;669.8618774414062
877;669.7027587890625
878;669.5438232421875
879;669.3848876953125
880;669.2259521484375
881;669.0670776367188
882;668.9082641601562
883;668.7495727539062
884;668.5908203125
885;668.4321899414062
886;668.2735595703125
887;668.1150512695312
888;667.95654296875
889;667.7981567382812
890;667.6397705078125
891;667.4815673828125
892;667.3233032226562
893;667.1651611328125
894;667.0069580078125
895;666.8489990234375
896;666.69091796875
897;666.5328979492188
898;666.375
899;666.2171630859375
900;666.0592651367188
901;665.9014892578125
902;665.7437744140625
903;665.5861206054688
904;665.4285888671875
905;665.27099609375
906;665.1134643554688
907;664.9560546875
908;664.7986450195312
909;664.6412353515625
910;664.48388671875
911;664.32666015625
912;664.16943359375
913;664.0122680664062
914;663.8551635742188
915;663.6981201171875
916;663.541015625
917;663.3839721679688
918;663.2272338867188
919;663.0703125
920;662.9135131835938
921;662.7567138671875
922;662.5999755859375
923;662.443359375
924;662.28662109375
925;662.1300659179688
926;661.9735107421875
927;661.8170166015625
928;661.6605834960938
929;661.5042114257812
930;661.3478393554688
931;661.1917114257812
932;661.0353393554688
933;660.8792114257812
934;660.7230224609375
935;660.5669555664062
936;660.4109497070312
937;660.2548828125
938;660.0989379882812
939;659.9429931640625
940;659.7871704101562
941;659.6314086914062
942;659.4756469726562
943;659.3198852539062
944;659.1641845703125
945;659.0086059570312
946;658.8529663085938
947;658.6974487304688
948;658.5419921875
949;658.3865966796875
950;658.2311401367188
951;658.0758666992188
952;657.9205322265625
953;657.7653198242188
954;657.6102294921875
955;657.4550170898438
956;657.2998657226562
957;657.1448364257812
958;656.9898071289062
959;656.8348999023438
960;656.6800537109375
961;656.5252075195312
962;656.3704223632812
963;656.2156982421875
964;656.0609741210938
965;655.90625
966;655.7515869140625
967;655.5971069335938
968;655.4425659179688
969;655.2881469726562
970;655.1337890625
971;654.9794311523438
972;654.8250732421875
973;654.6708374023438
974;654.5166015625
975;654.3624267578125
976;654.2083129882812
977;654.0542602539062
978;653.9002075195312
979;653.7462158203125
980;653.5922241210938
981;653.4384155273438
982;653.2844848632812
983;653.1306762695312
984;652.9768676757812
985;652.8231201171875
986;652.6693725585938
987;652.5157470703125
988;652.3622436523438
989;652.2086791992188
990;652.05517578125
991;651.9017944335938
992;651.7483520507812
993;651.5950317382812
994;651.4417114257812
995;651.2885131835938
996;651.13525390625
997;650.9821166992188
998;650.8290405273438
999;650.6759643554688
