;loss
0;861.2612915039062
1;861.0593872070312
2;860.8571166992188
3;860.6731567382812
4;860.48291015625
5;860.2801513671875
6;860.0771484375
7;859.8783569335938
8;859.6749267578125
9;859.47314453125
10;859.2694091796875
11;859.0654296875
12;858.8609008789062
13;858.6557006835938
14;858.4509887695312
15;858.2445068359375
16;858.0375366210938
17;857.830078125
18;857.6239013671875
19;857.4173583984375
20;857.2081298828125
21;856.9984130859375
22;856.7880249023438
23;856.5769653320312
24;856.3684692382812
25;856.1600952148438
26;855.9487915039062
27;855.7392578125
28;855.5264892578125
29;855.3155517578125
30;855.1038208007812
31;854.8889770507812
32;854.6757202148438
33;854.4591064453125
34;854.2443237304688
35;854.03173828125
36;853.82080078125
37;853.609375
38;853.3973388671875
39;853.1845703125
40;852.96875
41;852.7545166015625
42;852.53955078125
43;852.3215942382812
44;852.1049194335938
45;851.8851928710938
46;851.6668090820312
47;851.4475708007812
48;851.2272338867188
49;851.0059814453125
50;850.7838745117188
51;850.5587158203125
52;850.33251953125
53;850.1054077148438
54;849.8790893554688
55;849.6517944335938
56;849.4215087890625
57;849.1920776367188
58;848.9596557617188
59;848.72802734375
60;848.4952392578125
61;848.2594604492188
62;848.0226440429688
63;847.7846069335938
64;847.54541015625
65;847.30517578125
66;847.0654296875
67;846.8228149414062
68;846.5789794921875
69;846.3339233398438
70;846.0874633789062
71;845.8399658203125
72;845.5927734375
73;845.3425903320312
74;845.0927734375
75;844.8399658203125
76;844.5873413085938
77;844.3334350585938
78;844.07666015625
79;843.8199462890625
80;843.5602416992188
81;843.2992553710938
82;843.0367431640625
83;842.7728271484375
84;842.5087890625
85;842.2417602539062
86;841.9733276367188
87;841.7032470703125
88;841.4317626953125
89;841.1587524414062
90;840.8856811523438
91;840.6107788085938
92;840.3344116210938
93;840.0550537109375
94;839.7753295898438
95;839.4925537109375
96;839.2095336914062
97;838.9234619140625
98;838.6356811523438
99;838.3461303710938
100;838.0548706054688
101;837.7619018554688
102;837.4684448242188
103;837.17333984375
104;836.8763427734375
105;836.5764770507812
106;836.2750854492188
107;835.9732055664062
108;835.6682739257812
109;835.3630981445312
110;835.0574951171875
111;834.7510986328125
112;834.4440307617188
113;834.1369018554688
114;833.8269653320312
115;833.5198364257812
116;833.2156982421875
117;832.91064453125
118;832.6032104492188
119;832.2960205078125
120;831.9876708984375
121;831.6780395507812
122;831.3671875
123;831.0549926757812
124;830.7413940429688
125;830.4264526367188
126;830.1090087890625
127;829.7900390625
128;829.4707641601562
129;829.1488647460938
130;828.8264770507812
131;828.5014038085938
132;828.1759033203125
133;827.8487548828125
134;827.5188598632812
135;827.1883544921875
136;826.8560180664062
137;826.5236206054688
138;826.1884765625
139;825.8519897460938
140;825.5162963867188
141;825.1780395507812
142;824.8381958007812
143;824.4968872070312
144;824.1538696289062
145;823.8093872070312
146;823.4642944335938
147;823.1168823242188
148;822.7735595703125
149;822.4281005859375
150;822.0823364257812
151;821.7340698242188
152;821.3844604492188
153;821.0346069335938
154;820.6822509765625
155;820.3294067382812
156;819.9751586914062
157;819.6182861328125
158;819.2610473632812
159;818.9020385742188
160;818.5414428710938
161;818.1781616210938
162;817.8152465820312
163;817.4588012695312
164;817.1024780273438
165;816.7451782226562
166;816.3868408203125
167;816.0274658203125
168;815.666015625
169;815.3032836914062
170;814.9395141601562
171;814.5743408203125
172;814.2088623046875
173;813.8419799804688
174;813.4727783203125
175;813.1030883789062
176;812.7318725585938
177;812.3592529296875
178;811.9850463867188
179;811.6094360351562
180;811.2313232421875
181;810.8525390625
182;810.4712524414062
183;810.0945434570312
184;809.71875
185;809.3436279296875
186;808.9666137695312
187;808.5897216796875
188;808.2134399414062
189;807.8359985351562
190;807.4575805664062
191;807.0780029296875
192;806.697265625
193;806.3154907226562
194;805.9324951171875
195;805.5481567382812
196;805.1615600585938
197;804.7745971679688
198;804.38623046875
199;803.99560546875
200;803.6043701171875
201;803.2116088867188
202;802.8173828125
203;802.4208374023438
204;802.0225830078125
205;801.6237182617188
206;801.2232055664062
207;800.8201904296875
208;800.4165649414062
209;800.0140991210938
210;799.6102294921875
211;799.2095336914062
212;798.8073120117188
213;798.4049072265625
214;798.0006103515625
215;797.59521484375
216;797.189453125
217;796.7824096679688
218;796.3733520507812
219;795.9637451171875
220;795.5519409179688
221;795.1396484375
222;794.7260131835938
223;794.3121948242188
224;793.8971557617188
225;793.4799194335938
226;793.0621948242188
227;792.6430053710938
228;792.2224731445312
229;791.8003540039062
230;791.3766479492188
231;790.95166015625
232;790.5249633789062
233;790.0958251953125
234;789.6663208007812
235;789.2406616210938
236;788.81640625
237;788.3917846679688
238;787.9663696289062
239;787.5402221679688
240;787.1182861328125
241;786.7014770507812
242;786.2843017578125
243;785.8668823242188
244;785.44921875
245;785.0311279296875
246;784.6123657226562
247;784.1929931640625
248;783.7730712890625
249;783.3524169921875
250;782.9309692382812
251;782.5087280273438
252;782.0856323242188
253;781.6610107421875
254;781.2362060546875
255;780.8104248046875
256;780.3829956054688
257;779.9546508789062
258;779.525390625
259;779.0957641601562
260;778.6651611328125
261;778.2327880859375
262;777.8001098632812
263;777.3659057617188
264;776.9307861328125
265;776.4946899414062
266;776.0576171875
267;775.6201782226562
268;775.1810302734375
269;774.7416381835938
270;774.3004760742188
271;773.8590087890625
272;773.4165649414062
273;772.9725952148438
274;772.52783203125
275;772.0872192382812
276;771.6492309570312
277;771.2109375
278;770.7730712890625
279;770.33447265625
280;769.8961791992188
281;769.4576416015625
282;769.0186767578125
283;768.5794067382812
284;768.1390380859375
285;767.7060546875
286;767.2738647460938
287;766.8441772460938
288;766.4158935546875
289;765.9888305664062
290;765.5619506835938
291;765.1354370117188
292;764.7085571289062
293;764.2817993164062
294;763.8558349609375
295;763.4293212890625
296;763.0028686523438
297;762.5770874023438
298;762.1508178710938
299;761.72509765625
300;761.29931640625
301;760.8735961914062
302;760.447265625
303;760.0217895507812
304;759.5958251953125
305;759.169921875
306;758.7444458007812
307;758.318359375
308;757.8931884765625
309;757.4677734375
310;757.0429077148438
311;756.6179809570312
312;756.1949462890625
313;755.7811279296875
314;755.3681640625
315;754.9558715820312
316;754.54541015625
317;754.1357421875
318;753.7266845703125
319;753.3195190429688
320;752.9130249023438
321;752.5066528320312
322;752.1013793945312
323;751.6967163085938
324;751.2919921875
325;750.8884887695312
326;750.4852905273438
327;750.0826416015625
328;749.6806030273438
329;749.2784423828125
330;748.8773803710938
331;748.4761352539062
332;748.0759887695312
333;747.6760864257812
334;747.2760009765625
335;746.8770751953125
336;746.4779663085938
337;746.0798950195312
338;745.68212890625
339;745.2848510742188
340;744.8880615234375
341;744.4918212890625
342;744.0960083007812
343;743.7006225585938
344;743.30712890625
345;742.9163208007812
346;742.5263061523438
347;742.1365356445312
348;741.7476196289062
349;741.3596801757812
350;740.9730224609375
351;740.5867919921875
352;740.2012939453125
353;739.8169555664062
354;739.4329833984375
355;739.0498046875
356;738.6673583984375
357;738.28564453125
358;737.9053955078125
359;737.5280151367188
360;737.1541748046875
361;736.7825927734375
362;736.4126586914062
363;736.0452270507812
364;735.6806640625
365;735.3179321289062
366;734.9561157226562
367;734.5955810546875
368;734.2364501953125
369;733.8792724609375
370;733.5232543945312
371;733.16845703125
372;732.8146362304688
373;732.4620361328125
374;732.1102294921875
375;731.7592163085938
376;731.4093627929688
377;731.0609130859375
378;730.7149658203125
379;730.3704223632812
380;730.02685546875
381;729.6848754882812
382;729.3436279296875
383;729.0037841796875
384;728.6651611328125
385;728.328125
386;727.9940185546875
387;727.6611328125
388;727.3297729492188
389;726.9996337890625
390;726.6705932617188
391;726.3426513671875
392;726.0159912109375
393;725.6903686523438
394;725.36572265625
395;725.0419311523438
396;724.7191772460938
397;724.3974609375
398;724.0770874023438
399;723.75732421875
400;723.4384765625
401;723.1205444335938
402;722.8037719726562
403;722.4903564453125
404;722.1839599609375
405;721.8815307617188
406;721.5806884765625
407;721.2815551757812
408;720.9849243164062
409;720.69140625
410;720.3989868164062
411;720.1085205078125
412;719.8192138671875
413;719.5313720703125
414;719.2445678710938
415;718.9589233398438
416;718.6742553710938
417;718.390625
418;718.10791015625
419;717.826171875
420;717.54541015625
421;717.2653198242188
422;716.9862670898438
423;716.708984375
424;716.4378051757812
425;716.1674194335938
426;715.8980712890625
427;715.6300048828125
428;715.3636474609375
429;715.0985717773438
430;714.8355102539062
431;714.5734252929688
432;714.3123779296875
433;714.0521240234375
434;713.7932739257812
435;713.5380859375
436;713.2841796875
437;713.0309448242188
438;712.77880859375
439;712.5275268554688
440;712.2769165039062
441;712.02685546875
442;711.7777099609375
443;711.5293579101562
444;711.2815551757812
445;711.0346069335938
446;710.7885131835938
447;710.5430908203125
448;710.2984619140625
449;710.0545654296875
450;709.8108520507812
451;709.5680541992188
452;709.3257446289062
453;709.0838623046875
454;708.8424682617188
455;708.6016845703125
456;708.3612060546875
457;708.1212158203125
458;707.8819580078125
459;707.6428833007812
460;707.4044189453125
461;707.1663208007812
462;706.9285278320312
463;706.69140625
464;706.4546508789062
465;706.2183227539062
466;705.9824829101562
467;705.7469482421875
468;705.5118408203125
469;705.2772216796875
470;705.0429077148438
471;704.80908203125
472;704.57568359375
473;704.3428955078125
474;704.1102905273438
475;703.8782958984375
476;703.6467895507812
477;703.4157104492188
478;703.1852416992188
479;702.9551391601562
480;702.7251586914062
481;702.4957275390625
482;702.267578125
483;702.0404663085938
484;701.8135986328125
485;701.5870971679688
486;701.3612060546875
487;701.1355590820312
488;700.9102172851562
489;700.6853637695312
490;700.4609985351562
491;700.23681640625
492;700.01318359375
493;699.7904052734375
494;699.5685424804688
495;699.3471069335938
496;699.1259155273438
497;698.9052734375
498;698.6849975585938
499;698.4651489257812
