;loss
0;875.2064819335938
1;874.9144897460938
2;874.521728515625
3;874.1285400390625
4;873.7349243164062
5;873.3406372070312
6;872.9458618164062
7;872.5584106445312
8;872.1675415039062
9;871.7705688476562
10;871.375
11;870.9774780273438
12;870.5787353515625
13;870.1795043945312
14;869.7797241210938
15;869.376708984375
16;868.9757690429688
17;868.57421875
18;868.172119140625
19;867.769287109375
20;867.365966796875
21;866.9575805664062
22;866.5482788085938
23;866.138427734375
24;865.7275390625
25;865.3208618164062
26;864.908447265625
27;864.5001831054688
28;864.086181640625
29;863.6713256835938
30;863.260498046875
31;862.843994140625
32;862.4312744140625
33;862.017578125
34;861.5982055664062
35;861.182373046875
36;860.7654418945312
37;860.3472900390625
38;859.9232788085938
39;859.502685546875
40;859.0806274414062
41;858.6572265625
42;858.2323608398438
43;857.8058471679688
44;857.3778686523438
45;856.9439086914062
46;856.5126342773438
47;856.079345703125
48;855.64453125
49;855.2078247070312
50;854.769287109375
51;854.3287353515625
52;853.8862915039062
53;853.4419555664062
54;852.9955444335938
55;852.5470581054688
56;852.0964965820312
57;851.6401977539062
58;851.1817016601562
59;850.7210693359375
60;850.2582397460938
61;849.7969360351562
62;849.3298950195312
63;848.8604125976562
64;848.388916015625
65;847.9150390625
66;847.4390258789062
67;846.960693359375
68;846.4799194335938
69;845.9970092773438
70;845.5121459960938
71;845.0267944335938
72;844.5425415039062
73;844.052734375
74;843.5607299804688
75;843.0664672851562
76;842.5699462890625
77;842.0741577148438
78;841.572998046875
79;841.0693969726562
80;840.5665893554688
81;840.0584106445312
82;839.5478515625
83;839.037841796875
84;838.5223999023438
85;838.0046997070312
86;837.4844360351562
87;836.9618530273438
88;836.4367065429688
89;835.9091796875
90;835.3818969726562
91;834.8523559570312
92;834.3202514648438
93;833.7828369140625
94;833.2456665039062
95;832.7060546875
96;832.1640625
97;831.6168212890625
98;831.0671997070312
99;830.5176391601562
100;829.9629516601562
101;829.4058837890625
102;828.848876953125
103;828.2869262695312
104;827.7224731445312
105;827.158203125
106;826.5890502929688
107;826.0199584960938
108;825.446044921875
109;824.8697509765625
110;824.2935180664062
111;823.7150268554688
112;823.1318359375
113;822.5464477539062
114;821.9586181640625
115;821.3687133789062
116;820.7789306640625
117;820.1870727539062
118;819.590576171875
119;818.9920043945312
120;818.3914184570312
121;817.7911987304688
122;817.1864624023438
123;816.5820922851562
124;815.9735717773438
125;815.365234375
126;814.7552490234375
127;814.1410522460938
128;813.5252075195312
129;812.9097290039062
130;812.2931518554688
131;811.6754150390625
132;811.0560302734375
133;810.4351196289062
134;809.8106079101562
135;809.1868896484375
136;808.5596313476562
137;807.9310302734375
138;807.301025390625
139;806.6698608398438
140;806.0394897460938
141;805.4238891601562
142;804.819580078125
143;804.2183227539062
144;803.617919921875
145;803.0183715820312
146;802.4193725585938
147;801.8212280273438
148;801.2236328125
149;800.624755859375
150;800.0281372070312
151;799.4412231445312
152;798.8601684570312
153;798.2807006835938
154;797.7007446289062
155;797.1239624023438
156;796.5482788085938
157;795.9739990234375
158;795.4009399414062
159;794.827392578125
160;794.2549438476562
161;793.6864624023438
162;793.1206665039062
163;792.5562133789062
164;791.9913940429688
165;791.4293212890625
166;790.868408203125
167;790.30859375
168;789.7498168945312
169;789.1921997070312
170;788.6355590820312
171;788.0785522460938
172;787.5240478515625
173;786.9695434570312
174;786.418212890625
175;785.866943359375
176;785.3187255859375
177;784.77734375
178;784.240234375
179;783.7036743164062
180;783.180908203125
181;782.6665649414062
182;782.1553344726562
183;781.653076171875
184;781.1560668945312
185;780.6666259765625
186;780.1791381835938
187;779.6943969726562
188;779.212646484375
189;778.7359008789062
190;778.2619018554688
191;777.7915649414062
192;777.322509765625
193;776.8569946289062
194;776.3937377929688
195;775.931640625
196;775.4716186523438
197;775.0146484375
198;774.559814453125
199;774.1058349609375
200;773.6537475585938
201;773.2046508789062
202;772.7572021484375
203;772.3115844726562
204;771.8677368164062
205;771.425537109375
206;770.985107421875
207;770.5462646484375
208;770.1079711914062
209;769.6723022460938
210;769.2383422851562
211;768.804931640625
212;768.3740234375
213;767.9437255859375
214;767.5150756835938
215;767.0888671875
216;766.6671752929688
217;766.246826171875
218;765.8280639648438
219;765.4110717773438
220;764.9970703125
221;764.5869750976562
222;764.1798706054688
223;763.7744750976562
224;763.3709106445312
225;762.969970703125
226;762.5706787109375
227;762.1722412109375
228;761.7761840820312
229;761.384765625
230;760.9951782226562
231;760.607421875
232;760.2220458984375
233;759.8382568359375
234;759.4562377929688
235;759.0758056640625
236;758.6962280273438
237;758.3189086914062
238;757.9423828125
239;757.5679321289062
240;757.1943359375
241;756.8222045898438
242;756.4513549804688
243;756.0820922851562
244;755.7152709960938
245;755.3521118164062
246;754.9898071289062
247;754.629638671875
248;754.2701416015625
249;753.9126586914062
250;753.5580444335938
251;753.2056274414062
252;752.8544921875
253;752.5043334960938
254;752.1561889648438
255;751.8095092773438
256;751.4634399414062
257;751.1187744140625
258;750.776123046875
259;750.4341430664062
260;750.093505859375
261;749.7540893554688
262;749.4165649414062
263;749.0802612304688
264;748.7445068359375
265;748.41015625
266;748.076904296875
267;747.7449340820312
268;747.4151000976562
269;747.0859375
270;746.7578735351562
271;746.4310302734375
272;746.1052856445312
273;745.7813110351562
274;745.4583740234375
275;745.1366577148438
276;744.8158569335938
277;744.4963989257812
278;744.1773681640625
279;743.8595581054688
280;743.5433349609375
281;743.22802734375
282;742.9133911132812
283;742.5997924804688
284;742.2871704101562
285;741.975830078125
286;741.665283203125
287;741.3558349609375
288;741.0474243164062
289;740.740478515625
290;740.4364624023438
291;740.1340942382812
292;739.8323974609375
293;739.5317993164062
294;739.2322387695312
295;738.933837890625
296;738.636474609375
297;738.3403930664062
298;738.0454711914062
299;737.7510375976562
300;737.4579467773438
301;737.1654663085938
302;736.8743286132812
303;736.584228515625
304;736.2949829101562
305;736.006591796875
306;735.7191772460938
307;735.4326171875
308;735.146484375
309;734.861328125
310;734.5770263671875
311;734.2936401367188
312;734.011962890625
313;733.7318115234375
314;733.4519653320312
315;733.1732788085938
316;732.8956298828125
317;732.6189575195312
318;732.3427124023438
319;732.0676879882812
320;731.7930908203125
321;731.519775390625
322;731.2468872070312
323;730.9747924804688
324;730.7034301757812
325;730.4329223632812
326;730.1631469726562
327;729.8941650390625
328;729.6260375976562
329;729.3587646484375
330;729.0921630859375
331;728.8264770507812
332;728.5614624023438
333;728.2970581054688
334;728.033447265625
335;727.7705688476562
336;727.5088500976562
337;727.2473754882812
338;726.9868774414062
339;726.7272338867188
340;726.4682006835938
341;726.2094116210938
342;725.951416015625
343;725.694091796875
344;725.4373168945312
345;725.181640625
346;724.9263305664062
347;724.6715698242188
348;724.4175415039062
349;724.164794921875
350;723.914794921875
351;723.6656494140625
352;723.4171142578125
353;723.16943359375
354;722.9227905273438
355;722.6768188476562
356;722.4315795898438
357;722.1869506835938
358;721.9429321289062
359;721.69970703125
360;721.4572143554688
361;721.2152709960938
362;720.9740600585938
363;720.7330322265625
364;720.4926147460938
365;720.2529907226562
366;720.0138549804688
367;719.775146484375
368;719.5369262695312
369;719.299560546875
370;719.062744140625
371;718.8265380859375
372;718.5907592773438
373;718.3553466796875
374;718.1204833984375
375;717.8861694335938
376;717.6522827148438
377;717.4192504882812
378;717.1864624023438
379;716.9541015625
380;716.7225341796875
381;716.4912719726562
382;716.2604370117188
383;716.030029296875
384;715.800048828125
385;715.5707397460938
386;715.3418579101562
387;715.1134643554688
388;714.8855590820312
389;714.6582641601562
390;714.4314575195312
391;714.204833984375
392;713.9785766601562
393;713.7531127929688
394;713.5277099609375
395;713.3030395507812
396;713.0787353515625
397;712.854736328125
398;712.6312866210938
399;712.407958984375
400;712.18505859375
401;711.962890625
402;711.7410278320312
403;711.5194702148438
404;711.2981567382812
405;711.0772094726562
406;710.8569946289062
407;710.6368408203125
408;710.4174194335938
409;710.1982421875
410;709.979248046875
411;709.7607421875
412;709.542724609375
413;709.3251953125
414;709.1079711914062
415;708.89111328125
416;708.6748046875
417;708.458740234375
418;708.2432861328125
419;708.0278930664062
420;707.8130493164062
421;707.598388671875
422;707.3841552734375
423;707.1701049804688
424;706.95654296875
425;706.7435302734375
426;706.5307006835938
427;706.318115234375
428;706.10595703125
429;705.8941040039062
430;705.6826782226562
431;705.471435546875
432;705.2606201171875
433;705.050048828125
434;704.83984375
435;704.6299438476562
436;704.4203491210938
437;704.2113037109375
438;704.0023803710938
439;703.7939453125
440;703.5857543945312
441;703.3777465820312
442;703.1699829101562
443;702.9625854492188
444;702.7554931640625
445;702.548828125
446;702.3424072265625
447;702.1364135742188
448;701.9306030273438
449;701.7249755859375
450;701.519775390625
451;701.3150634765625
452;701.11083984375
453;700.90673828125
454;700.7031860351562
455;700.4998168945312
456;700.2973022460938
457;700.0955810546875
458;699.8941040039062
459;699.6929931640625
460;699.4921875
461;699.2915649414062
462;699.0913696289062
463;698.8916625976562
464;698.69189453125
465;698.4926147460938
466;698.293701171875
467;698.094970703125
468;697.8964233398438
469;697.697998046875
470;697.4999389648438
471;697.302001953125
472;697.1044311523438
473;696.906982421875
474;696.7098388671875
475;696.5131225585938
476;696.3165893554688
477;696.1202392578125
478;695.9240112304688
479;695.7281494140625
480;695.5324096679688
481;695.3369750976562
482;695.1416625976562
483;694.9465942382812
484;694.751708984375
485;694.55712890625
486;694.3629150390625
487;694.1688842773438
488;693.9749145507812
489;693.7811889648438
490;693.5877685546875
491;693.3944091796875
492;693.201416015625
493;693.0084228515625
494;692.8158569335938
495;692.6234741210938
496;692.4310913085938
497;692.2391357421875
498;692.04736328125
499;691.855712890625
500;691.6643676757812
501;691.4730224609375
502;691.2819213867188
503;691.091064453125
504;690.900390625
505;690.709716796875
506;690.5194702148438
507;690.329345703125
508;690.1394653320312
509;689.9497680664062
510;689.7601928710938
511;689.5707397460938
512;689.3814697265625
513;689.1924438476562
514;689.0042724609375
515;688.8162231445312
516;688.6283569335938
517;688.4407958984375
518;688.2532958984375
519;688.0660400390625
520;687.879150390625
521;687.6925659179688
522;687.5064086914062
523;687.3204956054688
524;687.134765625
525;686.9491577148438
526;686.7637939453125
527;686.5787353515625
528;686.393798828125
529;686.208984375
530;686.0244750976562
531;685.8400268554688
532;685.6558227539062
533;685.4716796875
534;685.2879028320312
535;685.1043090820312
536;684.9208374023438
537;684.7373657226562
538;684.5543212890625
539;684.3712768554688
540;684.1884155273438
541;684.005615234375
542;683.8230590820312
543;683.640625
544;683.45849609375
545;683.276611328125
546;683.0946655273438
547;682.9130249023438
548;682.7313842773438
549;682.5499267578125
550;682.36865234375
551;682.1875610351562
552;682.006591796875
553;681.8256225585938
554;681.64501953125
555;681.4644165039062
556;681.283935546875
557;681.1036987304688
558;680.923583984375
559;680.7435302734375
560;680.5635986328125
561;680.384033203125
562;680.2045288085938
563;680.0252685546875
564;679.84619140625
565;679.6673583984375
566;679.488525390625
567;679.309814453125
568;679.1314086914062
569;678.952880859375
570;678.774658203125
571;678.5966186523438
572;678.4185180664062
573;678.240478515625
574;678.0626831054688
575;677.885009765625
576;677.70751953125
577;677.530029296875
578;677.3526000976562
579;677.1753540039062
580;676.9982299804688
581;676.8211059570312
582;676.6443481445312
583;676.467529296875
584;676.2908935546875
585;676.1143188476562
586;675.9378662109375
587;675.761474609375
588;675.5853271484375
589;675.4091796875
590;675.233154296875
591;675.057373046875
592;674.881591796875
593;674.7058715820312
594;674.5302124023438
595;674.354736328125
596;674.179443359375
597;674.0043334960938
598;673.8291625976562
599;673.6542358398438
600;673.479248046875
601;673.304443359375
602;673.1296997070312
603;672.955078125
604;672.7806396484375
605;672.606201171875
606;672.4319458007812
607;672.258056640625
608;672.0841064453125
609;671.9102172851562
610;671.736572265625
611;671.5629272460938
612;671.3894653320312
613;671.2161254882812
614;671.0430297851562
615;670.869873046875
616;670.6969604492188
617;670.5242309570312
618;670.3513793945312
619;670.1786499023438
620;670.0062866210938
621;669.833740234375
622;669.661376953125
623;669.4891967773438
624;669.317138671875
625;669.145263671875
626;668.973388671875
627;668.8016357421875
628;668.6298828125
629;668.4584350585938
630;668.286865234375
631;668.1154174804688
632;667.944091796875
633;667.77294921875
634;667.6019287109375
635;667.430908203125
636;667.2600708007812
637;667.0894165039062
638;666.9188842773438
639;666.7484130859375
640;666.5780639648438
641;666.4077758789062
642;666.2377319335938
643;666.0675659179688
644;665.8975830078125
645;665.7277221679688
646;665.557861328125
647;665.3882446289062
648;665.2186279296875
649;665.049072265625
650;664.8795776367188
651;664.710205078125
652;664.541015625
653;664.371826171875
654;664.2025756835938
655;664.0336303710938
656;663.8646850585938
657;663.69580078125
658;663.5270385742188
659;663.3583374023438
660;663.189697265625
661;663.021240234375
662;662.8527221679688
663;662.684326171875
664;662.5159912109375
665;662.3477783203125
666;662.1797485351562
667;662.0117797851562
668;661.8438110351562
669;661.676025390625
670;661.5082397460938
671;661.3406372070312
672;661.1730346679688
673;661.0054321289062
674;660.8380126953125
675;660.670654296875
676;660.5033569335938
677;660.336181640625
678;660.1690063476562
679;660.0020141601562
680;659.8350219726562
681;659.6681518554688
682;659.5013427734375
683;659.3345336914062
684;659.1679077148438
685;659.0013427734375
686;658.8348999023438
687;658.6685180664062
688;658.5020751953125
689;658.3358764648438
690;658.169677734375
691;658.0035400390625
692;657.837646484375
693;657.6718139648438
694;657.5060424804688
695;657.3403930664062
696;657.1748657226562
697;657.0092163085938
698;656.8436889648438
699;656.6782836914062
700;656.512939453125
701;656.3477783203125
702;656.1825561523438
703;656.0173950195312
704;655.8523559570312
705;655.6874389648438
706;655.5226440429688
707;655.35791015625
708;655.193115234375
709;655.0285034179688
710;654.864013671875
711;654.6994018554688
712;654.534912109375
713;654.3705444335938
714;654.2062377929688
715;654.0420532226562
716;653.8779296875
717;653.7139282226562
718;653.5499877929688
719;653.3860473632812
720;653.2223510742188
721;653.0585327148438
722;652.8948364257812
723;652.7313842773438
724;652.5678100585938
725;652.4043579101562
726;652.240966796875
727;652.0776977539062
728;651.9144287109375
729;651.751220703125
730;651.588134765625
731;651.4251708984375
732;651.2622680664062
733;651.099365234375
734;650.9365234375
735;650.77392578125
736;650.6112060546875
737;650.4485473632812
738;650.2859497070312
739;650.1235961914062
740;649.961181640625
741;649.7988891601562
742;649.6365966796875
743;649.474365234375
744;649.312255859375
745;649.1500854492188
746;648.988037109375
747;648.8262329101562
748;648.664306640625
749;648.5025024414062
750;648.3408203125
751;648.1791381835938
752;648.017578125
753;647.8560180664062
754;647.6947021484375
755;647.5332641601562
756;647.3719482421875
757;647.210693359375
758;647.0494384765625
759;646.8883056640625
760;646.7273559570312
761;646.5663452148438
762;646.4053344726562
763;646.2445678710938
764;646.0838012695312
765;645.923095703125
766;645.7623901367188
767;645.601806640625
768;645.4412231445312
769;645.2807006835938
770;645.120361328125
771;644.9600219726562
772;644.7998046875
773;644.6395874023438
774;644.4794921875
775;644.3194580078125
776;644.159423828125
777;643.9995727539062
778;643.8396606445312
779;643.6797485351562
780;643.5200805664062
781;643.3603515625
782;643.2007446289062
783;643.041259765625
784;642.8817749023438
785;642.722412109375
786;642.5630493164062
787;642.4037475585938
788;642.2445068359375
789;642.0853881835938
790;641.92626953125
791;641.767333984375
792;641.6083984375
793;641.4495849609375
794;641.2906494140625
795;641.1318969726562
796;640.9732666015625
797;640.8145141601562
798;640.656005859375
799;640.4974365234375
800;640.3389282226562
801;640.1804809570312
802;640.0221557617188
803;639.8638916015625
804;639.7056274414062
805;639.5474243164062
806;639.389404296875
807;639.2313842773438
808;639.0734252929688
809;638.9154663085938
810;638.7576293945312
811;638.599853515625
812;638.4420166015625
813;638.2842407226562
814;638.1265258789062
815;637.9689331054688
816;637.8113403320312
817;637.6539306640625
818;637.4965209960938
819;637.3391723632812
820;637.1818237304688
821;637.0245971679688
822;636.867431640625
823;636.7102661132812
824;636.5531616210938
825;636.3961791992188
826;636.2391967773438
827;636.082275390625
828;635.9254150390625
829;635.7686157226562
830;635.6119384765625
831;635.455322265625
832;635.298583984375
833;635.1420288085938
834;634.9854736328125
835;634.8291625976562
836;634.6727905273438
837;634.5165405273438
838;634.3602905273438
839;634.2041625976562
840;634.0480346679688
841;633.8919677734375
842;633.7359619140625
843;633.580078125
844;633.4242553710938
845;633.268310546875
846;633.112548828125
847;632.956787109375
848;632.8011474609375
849;632.6455688476562
850;632.489990234375
851;632.3345336914062
852;632.1791381835938
853;632.0237426757812
854;631.868408203125
855;631.7130737304688
856;631.5578002929688
857;631.4026489257812
858;631.24755859375
859;631.0924072265625
860;630.9373168945312
861;630.7824096679688
862;630.62744140625
863;630.4725952148438
864;630.3177490234375
865;630.1630249023438
866;630.0082397460938
867;629.853515625
868;629.6988525390625
869;629.5443725585938
870;629.3897705078125
871;629.2352905273438
872;629.0808715820312
873;628.926513671875
874;628.7720947265625
875;628.617919921875
876;628.463623046875
877;628.3093872070312
878;628.1552124023438
879;628.0011596679688
880;627.8471069335938
881;627.693115234375
882;627.5391235351562
883;627.3851928710938
884;627.2313842773438
885;627.0775756835938
886;626.9237670898438
887;626.7700805664062
888;626.616455078125
889;626.4628295898438
890;626.3092041015625
891;626.15576171875
892;626.0023193359375
893;625.848876953125
894;625.6954956054688
895;625.542236328125
896;625.3889770507812
897;625.2357788085938
898;625.0826416015625
899;624.9295043945312
900;624.7764282226562
901;624.6234130859375
902;624.4703979492188
903;624.3174438476562
904;624.1646118164062
905;624.01171875
906;623.8589477539062
907;623.706298828125
908;623.5536499023438
909;623.4008178710938
910;623.2484130859375
911;623.0957641601562
912;622.9432983398438
913;622.790771484375
914;622.638427734375
915;622.486083984375
916;622.3338012695312
917;622.1815795898438
918;622.029296875
919;621.8771362304688
920;621.7250366210938
921;621.5730590820312
922;621.4210815429688
923;621.2691040039062
924;621.1172485351562
925;620.9653930664062
926;620.8135375976562
927;620.661865234375
928;620.5101318359375
929;620.3584594726562
930;620.2068481445312
931;620.0552368164062
932;619.9037475585938
933;619.752197265625
934;619.600830078125
935;619.4494018554688
936;619.298095703125
937;619.1468505859375
938;618.99560546875
939;618.844482421875
940;618.6932983398438
941;618.542236328125
942;618.3911743164062
943;618.2401733398438
944;618.0892333984375
945;617.9382934570312
946;617.7874145507812
947;617.636474609375
948;617.4857788085938
949;617.3348999023438
950;617.1842651367188
951;617.0336303710938
952;616.8829956054688
953;616.732421875
954;616.5818481445312
955;616.4313354492188
956;616.2808837890625
957;616.1304931640625
958;615.9801025390625
959;615.8297729492188
960;615.679443359375
961;615.5292358398438
962;615.3790893554688
963;615.2289428710938
964;615.078857421875
965;614.9288940429688
966;614.7788696289062
967;614.6288452148438
968;614.4788818359375
969;614.3289794921875
970;614.1791381835938
971;614.0293579101562
972;613.8795776367188
973;613.7299194335938
974;613.580322265625
975;613.4306030273438
976;613.2810668945312
977;613.131591796875
978;612.9819946289062
979;612.8325805664062
980;612.6831665039062
981;612.5338745117188
982;612.384521484375
983;612.2352294921875
984;612.0859375
985;611.936767578125
986;611.7875366210938
987;611.638427734375
988;611.4894409179688
989;611.3403930664062
990;611.19140625
991;611.0424194335938
992;610.8935546875
993;610.7446899414062
994;610.595947265625
995;610.4471435546875
996;610.2984008789062
997;610.149658203125
998;610.0009765625
999;609.8523559570312
1000;609.7037353515625
1001;609.5552368164062
1002;609.4067993164062
1003;609.2584228515625
1004;609.1100463867188
1005;608.961669921875
1006;608.8134155273438
1007;608.6651000976562
1008;608.5169677734375
1009;608.3687744140625
1010;608.2206420898438
1011;608.072509765625
1012;607.9244995117188
1013;607.7764282226562
1014;607.6285400390625
1015;607.4806518554688
1016;607.332763671875
1017;607.1849365234375
1018;607.0371704101562
1019;606.889404296875
1020;606.7417602539062
1021;606.5940551757812
1022;606.4464721679688
1023;606.2988891601562
1024;606.1513671875
1025;606.0039672851562
1026;605.8565063476562
1027;605.7091674804688
1028;605.5618896484375
1029;605.41455078125
1030;605.2672729492188
1031;605.1200561523438
1032;604.972900390625
1033;604.8257446289062
1034;604.6787109375
1035;604.5316772460938
1036;604.3846435546875
1037;604.2376708984375
1038;604.0907592773438
1039;603.9439086914062
1040;603.7969970703125
1041;603.650146484375
1042;603.5033569335938
1043;603.3565673828125
1044;603.2098999023438
1045;603.063232421875
1046;602.91650390625
1047;602.7699584960938
1048;602.6234741210938
1049;602.4769287109375
1050;602.3304443359375
1051;602.1840209960938
1052;602.0376586914062
1053;601.8914184570312
1054;601.7451171875
1055;601.598876953125
1056;601.4527587890625
1057;601.306640625
1058;601.1605224609375
1059;601.0144653320312
1060;600.868408203125
1061;600.722412109375
1062;600.5764770507812
1063;600.4306640625
1064;600.2847290039062
1065;600.138916015625
1066;599.9931640625
1067;599.8473510742188
1068;599.70166015625
1069;599.5560302734375
1070;599.410400390625
1071;599.2647094726562
1072;599.1192016601562
1073;598.9736938476562
1074;598.8281860351562
1075;598.6826782226562
1076;598.537353515625
1077;598.3919677734375
1078;598.2466430664062
1079;598.1013793945312
1080;597.9562377929688
1081;597.8109741210938
1082;597.6658325195312
1083;597.5206909179688
1084;597.3756103515625
1085;597.2305297851562
1086;597.0855712890625
1087;596.940673828125
1088;596.7958374023438
1089;596.651123046875
1090;596.50634765625
1091;596.3616943359375
1092;596.2169799804688
1093;596.0724487304688
1094;595.9277954101562
1095;595.7832641601562
1096;595.6387939453125
1097;595.4943237304688
1098;595.349853515625
1099;595.2055053710938
1100;595.0611572265625
1101;594.9168701171875
1102;594.7725830078125
1103;594.6283569335938
1104;594.484130859375
1105;594.3399047851562
1106;594.1957397460938
1107;594.0516967773438
1108;593.9075927734375
1109;593.7636108398438
1110;593.6195678710938
1111;593.4756469726562
1112;593.3317260742188
1113;593.1878051757812
1114;593.0438842773438
1115;592.900146484375
1116;592.7562866210938
1117;592.6126098632812
1118;592.4689331054688
1119;592.3252563476562
1120;592.1815795898438
1121;592.0380249023438
1122;591.8943481445312
1123;591.7509155273438
1124;591.6073608398438
1125;591.4638671875
1126;591.3204956054688
1127;591.1771850585938
1128;591.0338134765625
1129;590.8904418945312
1130;590.7471923828125
1131;590.6039428710938
1132;590.4607543945312
1133;590.3175659179688
1134;590.1743774414062
1135;590.0313110351562
1136;589.8882446289062
1137;589.7453002929688
1138;589.6021728515625
1139;589.459228515625
1140;589.3163452148438
1141;589.1734008789062
1142;589.030517578125
1143;588.8876953125
1144;588.7449340820312
1145;588.6021118164062
1146;588.4594116210938
1147;588.3167724609375
1148;588.174072265625
1149;588.031494140625
1150;587.888916015625
1151;587.7464599609375
1152;587.6038818359375
1153;587.46142578125
1154;587.3189697265625
1155;587.176513671875
1156;587.0341186523438
1157;586.8917846679688
1158;586.7494506835938
1159;586.607177734375
1160;586.4649047851562
1161;586.3226928710938
1162;586.1805419921875
1163;586.0383911132812
1164;585.8964233398438
1165;585.7543334960938
1166;585.6123046875
1167;585.4703369140625
1168;585.3284301757812
1169;585.1864624023438
1170;585.0446166992188
1171;584.9027709960938
1172;584.760986328125
1173;584.6192626953125
1174;584.4775390625
1175;584.3357543945312
1176;584.194091796875
1177;584.052490234375
1178;583.910888671875
1179;583.7693481445312
1180;583.6278686523438
1181;583.4863891601562
1182;583.344970703125
1183;583.2035522460938
1184;583.0621337890625
1185;582.9208374023438
1186;582.779541015625
1187;582.6382446289062
1188;582.4968872070312
1189;582.355712890625
1190;582.2145385742188
1191;582.0733032226562
1192;581.9322509765625
1193;581.7910766601562
1194;581.650146484375
1195;581.509033203125
1196;581.3681030273438
1197;581.2271118164062
1198;581.0863037109375
1199;580.9453735351562
1200;580.8045043945312
1201;580.6637573242188
1202;580.5228881835938
1203;580.3822631835938
1204;580.241455078125
1205;580.100830078125
1206;579.960205078125
1207;579.8197021484375
1208;579.6791381835938
1209;579.5385131835938
1210;579.3980712890625
1211;579.257568359375
1212;579.1171875
1213;578.976806640625
1214;578.83642578125
1215;578.696044921875
1216;578.5557250976562
1217;578.4154663085938
1218;578.2752685546875
1219;578.135009765625
1220;577.994873046875
1221;577.854736328125
1222;577.7146606445312
1223;577.5745239257812
1224;577.4345703125
1225;577.2945556640625
1226;577.1547241210938
1227;577.0147705078125
1228;576.8749389648438
1229;576.735107421875
1230;576.5953369140625
1231;576.4556274414062
1232;576.3158569335938
1233;576.1762084960938
1234;576.0365600585938
1235;575.8970336914062
1236;575.757568359375
1237;575.6180419921875
1238;575.4785766601562
1239;575.3392333984375
1240;575.1998291015625
1241;575.060546875
1242;574.9212646484375
1243;574.7820434570312
1244;574.6428833007812
1245;574.503662109375
1246;574.364501953125
1247;574.2254028320312
1248;574.0863037109375
1249;573.947265625
1250;573.8082275390625
1251;573.6693115234375
1252;573.5303344726562
1253;573.391357421875
1254;573.2525024414062
1255;573.1136474609375
1256;572.974853515625
1257;572.8359985351562
1258;572.697265625
1259;572.5585327148438
1260;572.4198608398438
1261;572.2811889648438
1262;572.1425170898438
1263;572.0039672851562
1264;571.8652954101562
1265;571.726806640625
1266;571.5882568359375
1267;571.4497680664062
1268;571.3114013671875
1269;571.1729125976562
1270;571.0345458984375
1271;570.896240234375
1272;570.7578735351562
1273;570.6195678710938
1274;570.4813842773438
1275;570.343017578125
1276;570.2048950195312
1277;570.0667724609375
1278;569.9285888671875
1279;569.7904663085938
1280;569.6524047851562
1281;569.5143432617188
1282;569.3763427734375
1283;569.2383422851562
1284;569.1004028320312
1285;568.9625244140625
1286;568.8246459960938
1287;568.686767578125
1288;568.5490112304688
1289;568.4111938476562
1290;568.2734375
1291;568.1356811523438
1292;567.9979858398438
1293;567.8603515625
1294;567.7227172851562
1295;567.5851440429688
1296;567.4475708007812
1297;567.3101196289062
1298;567.172607421875
1299;567.0350952148438
1300;566.897705078125
1301;566.7603149414062
1302;566.6229858398438
1303;566.4855346679688
1304;566.3482666015625
1305;566.2109985351562
1306;566.0737915039062
1307;565.9365844726562
1308;565.7994384765625
1309;565.662353515625
1310;565.525146484375
1311;565.3881225585938
1312;565.2510375976562
1313;565.114013671875
1314;564.97705078125
1315;564.840087890625
1316;564.703125
1317;564.5662841796875
1318;564.429443359375
1319;564.2926025390625
1320;564.1558227539062
1321;564.0191040039062
1322;563.8823852539062
1323;563.7456665039062
1324;563.6090087890625
1325;563.4723510742188
1326;563.3357543945312
1327;563.1992797851562
1328;563.0626831054688
1329;562.9261474609375
1330;562.7896118164062
1331;562.6531982421875
1332;562.516845703125
1333;562.3804321289062
1334;562.2440795898438
1335;562.107666015625
1336;561.971435546875
1337;561.8351440429688
1338;561.6989135742188
1339;561.562744140625
1340;561.4265747070312
1341;561.2904052734375
1342;561.1542358398438
1343;561.0181274414062
1344;560.882080078125
1345;560.7460327148438
1346;560.610107421875
1347;560.4740600585938
1348;560.338134765625
1349;560.2022094726562
1350;560.0663452148438
1351;559.9304809570312
1352;559.7946166992188
1353;559.6588745117188
1354;559.5230102539062
1355;559.3872680664062
1356;559.2515258789062
1357;559.1159057617188
1358;558.980224609375
1359;558.8446044921875
1360;558.7089233398438
1361;558.5734252929688
1362;558.4379272460938
1363;558.3023681640625
1364;558.1669311523438
1365;558.0313110351562
1366;557.8959350585938
1367;557.7605590820312
1368;557.6251831054688
1369;557.48974609375
1370;557.3544921875
1371;557.2191772460938
1372;557.0839233398438
1373;556.9486694335938
1374;556.8134765625
1375;556.6782836914062
1376;556.543212890625
1377;556.4080810546875
1378;556.27294921875
1379;556.1378784179688
1380;556.0028686523438
1381;555.8678588867188
1382;555.7328491210938
1383;555.597900390625
1384;555.4629516601562
1385;555.3280639648438
1386;555.1931762695312
1387;555.058349609375
1388;554.9235229492188
1389;554.7886962890625
1390;554.6539916992188
1391;554.519287109375
1392;554.384521484375
1393;554.2499389648438
1394;554.115234375
1395;553.9805297851562
1396;553.845947265625
1397;553.7114868164062
1398;553.5769653320312
1399;553.4424438476562
1400;553.3080444335938
1401;553.173583984375
1402;553.0391235351562
1403;552.90478515625
1404;552.7704467773438
1405;552.6361083984375
1406;552.5018920898438
1407;552.3676147460938
1408;552.2333374023438
1409;552.09912109375
1410;551.9649658203125
1411;551.830810546875
1412;551.6967163085938
1413;551.5625610351562
1414;551.4285278320312
1415;551.29443359375
1416;551.160400390625
1417;551.0264282226562
1418;550.8925170898438
1419;550.7586059570312
1420;550.6246337890625
1421;550.4907836914062
1422;550.3568725585938
1423;550.2230834960938
1424;550.08935546875
1425;549.95556640625
1426;549.8218383789062
1427;549.6880493164062
1428;549.554443359375
1429;549.4207763671875
1430;549.2871704101562
1431;549.153564453125
1432;549.02001953125
1433;548.886474609375
1434;548.7529907226562
1435;548.6195068359375
1436;548.4860229492188
1437;548.3526000976562
1438;548.2191772460938
1439;548.0858764648438
1440;547.9525146484375
1441;547.8192749023438
1442;547.6859130859375
1443;547.5526733398438
1444;547.4194946289062
1445;547.2861938476562
1446;547.153076171875
1447;547.0198974609375
1448;546.8867797851562
1449;546.753662109375
1450;546.6205444335938
1451;546.4874877929688
1452;546.3544921875
1453;546.2214965820312
1454;546.088623046875
1455;545.9556274414062
1456;545.82275390625
1457;545.6898193359375
1458;545.5570068359375
1459;545.4241943359375
1460;545.2913818359375
1461;545.1585693359375
1462;545.02587890625
1463;544.8931884765625
1464;544.760498046875
1465;544.6278076171875
1466;544.4951782226562
1467;544.362548828125
1468;544.2300415039062
1469;544.0974731445312
1470;543.9649047851562
1471;543.8324584960938
1472;543.7000122070312
1473;543.5675659179688
1474;543.4351196289062
1475;543.3027954101562
1476;543.17041015625
1477;543.0380859375
1478;542.9058227539062
1479;542.7734985351562
1480;542.6412353515625
1481;542.5089721679688
1482;542.3768920898438
1483;542.24462890625
1484;542.112548828125
1485;541.9804077148438
1486;541.8483276367188
1487;541.7162475585938
1488;541.5842895507812
1489;541.4522094726562
1490;541.3203125
1491;541.1883544921875
1492;541.0564575195312
1493;540.9244995117188
1494;540.7926635742188
1495;540.6608276367188
1496;540.529052734375
1497;540.397216796875
1498;540.2654418945312
1499;540.1337890625
1500;540.0020141601562
1501;539.870361328125
1502;539.7387084960938
1503;539.607177734375
1504;539.4755249023438
1505;539.3439331054688
1506;539.2124633789062
1507;539.0809326171875
1508;538.949462890625
1509;538.8179321289062
1510;538.6865234375
1511;538.5551147460938
1512;538.4237670898438
1513;538.2924194335938
1514;538.1610717773438
1515;538.02978515625
1516;537.8984985351562
1517;537.767333984375
1518;537.6360473632812
1519;537.5048828125
1520;537.373779296875
1521;537.2426147460938
1522;537.1115112304688
1523;536.98046875
1524;536.8494262695312
1525;536.7183837890625
1526;536.5873413085938
1527;536.4563598632812
1528;536.325439453125
1529;536.1945190429688
1530;536.0636596679688
1531;535.9328002929688
1532;535.8019409179688
1533;535.671142578125
1534;535.5404052734375
1535;535.40966796875
1536;535.2789306640625
1537;535.1482543945312
1538;535.0175170898438
1539;534.8869018554688
1540;534.7562866210938
1541;534.6256713867188
1542;534.4951171875
1543;534.364501953125
1544;534.2340698242188
1545;534.1035766601562
1546;533.9730834960938
1547;533.8427124023438
1548;533.7122802734375
1549;533.5819091796875
1550;533.4515991210938
1551;533.3212280273438
1552;533.1909790039062
1553;533.0606689453125
1554;532.930419921875
1555;532.8001708984375
1556;532.6700439453125
1557;532.5398559570312
1558;532.4097290039062
1559;532.2796630859375
1560;532.1495361328125
1561;532.0194702148438
1562;531.8894653320312
1563;531.7594604492188
1564;531.6295166015625
1565;531.4995727539062
1566;531.3696899414062
1567;531.2398071289062
1568;531.1099243164062
1569;530.9800415039062
1570;530.850341796875
1571;530.7205200195312
1572;530.5907592773438
1573;530.4609985351562
1574;530.3314208984375
1575;530.2017211914062
1576;530.072021484375
1577;529.9423828125
1578;529.8128051757812
1579;529.6832885742188
1580;529.5536499023438
1581;529.4241943359375
1582;529.294677734375
1583;529.1652221679688
1584;529.0357666015625
1585;528.9063720703125
1586;528.7769775390625
1587;528.6476440429688
1588;528.518310546875
1589;528.3889770507812
1590;528.2597045898438
1591;528.1304931640625
1592;528.001220703125
1593;527.8720092773438
1594;527.742919921875
1595;527.6137084960938
1596;527.484619140625
1597;527.3554077148438
1598;527.2263793945312
1599;527.097412109375
1600;526.9683227539062
1601;526.8394165039062
1602;526.7103881835938
1603;526.5814208984375
1604;526.4525756835938
1605;526.3236694335938
1606;526.1947631835938
1607;526.06591796875
1608;525.9370727539062
1609;525.8082885742188
1610;525.6795654296875
1611;525.5507202148438
1612;525.4220581054688
1613;525.2933959960938
1614;525.164794921875
1615;525.0361328125
1616;524.907470703125
1617;524.7788696289062
1618;524.6503295898438
1619;524.5217895507812
1620;524.393310546875
1621;524.2648315429688
1622;524.1364135742188
1623;524.0079956054688
1624;523.8795166015625
1625;523.751220703125
1626;523.6228637695312
1627;523.4945068359375
1628;523.3662109375
1629;523.2379150390625
1630;523.1096801757812
1631;522.9815063476562
1632;522.853271484375
1633;522.7251586914062
1634;522.596923828125
1635;522.4689331054688
1636;522.3408203125
1637;522.2127075195312
1638;522.0846557617188
1639;521.9566650390625
1640;521.8286743164062
1641;521.70068359375
1642;521.57275390625
1643;521.44482421875
1644;521.3169555664062
1645;521.1890869140625
1646;521.061279296875
1647;520.9335327148438
1648;520.8057250976562
1649;520.677978515625
1650;520.5502319335938
1651;520.422607421875
1652;520.2948608398438
1653;520.167236328125
1654;520.0396118164062
1655;519.9120483398438
1656;519.784423828125
1657;519.6568603515625
1658;519.5293579101562
1659;519.40185546875
1660;519.2743530273438
1661;519.1469116210938
1662;519.0194702148438
1663;518.89208984375
1664;518.7647094726562
1665;518.6372680664062
1666;518.510009765625
1667;518.3827514648438
1668;518.2554321289062
1669;518.128173828125
1670;518.0009765625
1671;517.873779296875
1672;517.7466430664062
1673;517.6194458007812
1674;517.4923095703125
1675;517.365234375
1676;517.2382202148438
1677;517.1111450195312
1678;516.984130859375
1679;516.8571166992188
1680;516.7301635742188
1681;516.6031494140625
1682;516.476318359375
1683;516.349365234375
1684;516.2224731445312
1685;516.0956420898438
1686;515.9688110351562
1687;515.8419799804688
1688;515.7152099609375
1689;515.5885009765625
1690;515.4617309570312
1691;515.3350219726562
1692;515.2083129882812
1693;515.0817260742188
1694;514.9550170898438
1695;514.8285522460938
1696;514.701904296875
1697;514.5753173828125
1698;514.4487915039062
1699;514.322265625
1700;514.19580078125
1701;514.0693969726562
1702;513.9429321289062
1703;513.8165893554688
1704;513.6901245117188
1705;513.5637817382812
1706;513.4374389648438
1707;513.3111572265625
1708;513.1849365234375
1709;513.0586547851562
1710;512.9324340820312
1711;512.8062133789062
1712;512.6801147460938
1713;512.553955078125
1714;512.4277954101562
1715;512.3017578125
1716;512.1756591796875
1717;512.049560546875
1718;511.9235534667969
1719;511.79754638671875
1720;511.6716003417969
1721;511.5456848144531
1722;511.4197082519531
1723;511.2938232421875
1724;511.16796875
1725;511.0420837402344
1726;510.9162292480469
1727;510.7904968261719
1728;510.6646423339844
1729;510.53887939453125
1730;510.4131774902344
1731;510.2875061035156
1732;510.16180419921875
1733;510.0361633300781
1734;509.9105224609375
1735;509.7849426269531
1736;509.6593017578125
1737;509.5338134765625
1738;509.4082336425781
1739;509.28271484375
1740;509.1572265625
1741;509.0318298339844
1742;508.9063415527344
1743;508.78094482421875
1744;508.6556396484375
1745;508.5302734375
1746;508.4049072265625
1747;508.27960205078125
1748;508.154296875
1749;508.0290222167969
1750;507.9039001464844
1751;507.7786865234375
1752;507.6534423828125
1753;507.5283203125
1754;507.4032287597656
1755;507.2781066894531
1756;507.15301513671875
1757;507.0279541015625
1758;506.9029541015625
1759;506.77801513671875
1760;506.6530456542969
1761;506.52813720703125
1762;506.4032287597656
1763;506.2784118652344
1764;506.1535339355469
1765;506.0287170410156
1766;505.9039306640625
1767;505.7791748046875
1768;505.6543884277344
1769;505.5296630859375
1770;505.4049072265625
1771;505.2803039550781
1772;505.1556396484375
1773;505.0309753417969
1774;504.9063720703125
1775;504.7818298339844
1776;504.6572570800781
1777;504.53271484375
1778;504.408203125
1779;504.2837219238281
1780;504.1592712402344
1781;504.03485107421875
1782;503.91046142578125
1783;503.7860412597656
1784;503.6616516113281
1785;503.5373840332031
1786;503.4130554199219
1787;503.28875732421875
1788;503.1645202636719
1789;503.04022216796875
1790;502.9160461425781
1791;502.79180908203125
1792;502.6676940917969
1793;502.5435485839844
1794;502.41943359375
1795;502.2952880859375
1796;502.1712646484375
1797;502.0471496582031
1798;501.92315673828125
1799;501.79913330078125
1800;501.6751708984375
1801;501.5512390136719
1802;501.4273376464844
1803;501.30340576171875
1804;501.17950439453125
1805;501.0555725097656
1806;500.9317321777344
1807;500.80792236328125
1808;500.6841735839844
1809;500.56036376953125
1810;500.4367370605469
1811;500.3130187988281
1812;500.18927001953125
1813;500.0656433105469
1814;499.9420166015625
1815;499.8183898925781
1816;499.6947937011719
1817;499.5711975097656
1818;499.4476623535156
1819;499.3241882324219
1820;499.2006530761719
1821;499.0771484375
1822;498.9537048339844
1823;498.83026123046875
1824;498.7069091796875
1825;498.5834655761719
1826;498.4600830078125
1827;498.33673095703125
1828;498.2134704589844
1829;498.09014892578125
1830;497.9669189453125
1831;497.8436584472656
1832;497.7204284667969
1833;497.5971984863281
1834;497.4740295410156
1835;497.3509521484375
1836;497.2278137207031
1837;497.10467529296875
1838;496.98162841796875
1839;496.8585205078125
1840;496.7354736328125
1841;496.61248779296875
1842;496.48956298828125
1843;496.3665771484375
1844;496.2436218261719
1845;496.1207275390625
1846;495.9978332519531
1847;495.8749694824219
1848;495.75213623046875
1849;495.6293029785156
1850;495.50653076171875
1851;495.3837585449219
1852;495.2610168457031
1853;495.1383056640625
1854;495.015625
1855;494.8929443359375
1856;494.7702941894531
1857;494.64764404296875
1858;494.5250244140625
1859;494.40252685546875
1860;494.2799072265625
1861;494.15740966796875
1862;494.0348815917969
1863;493.91241455078125
1864;493.7899475097656
1865;493.6675109863281
1866;493.54510498046875
1867;493.4227294921875
1868;493.3003234863281
1869;493.1779479980469
1870;493.0556640625
1871;492.93341064453125
1872;492.8111267089844
1873;492.6889343261719
1874;492.5666809082031
1875;492.44451904296875
1876;492.3222961425781
1877;492.2001953125
1878;492.0780334472656
1879;491.9559631347656
1880;491.8338928222656
1881;491.7118225097656
1882;491.5897521972656
1883;491.4677734375
1884;491.3457946777344
1885;491.2238464355469
1886;491.1019287109375
1887;490.97998046875
1888;490.85809326171875
1889;490.7362365722656
1890;490.61444091796875
1891;490.4925842285156
1892;490.3707275390625
1893;490.2489318847656
1894;490.1271667480469
1895;490.0054626464844
1896;489.8837890625
1897;489.7620849609375
1898;489.64044189453125
1899;489.5188293457031
1900;489.3971862792969
1901;489.2756042480469
1902;489.1540832519531
1903;489.0325012207031
1904;488.91094970703125
1905;488.7894592285156
1906;488.66796875
1907;488.5465087890625
1908;488.42510986328125
1909;488.3037109375
1910;488.18231201171875
1911;488.0609130859375
1912;487.9395751953125
1913;487.8182678222656
1914;487.69696044921875
1915;487.57568359375
1916;487.4544677734375
1917;487.33319091796875
1918;487.2120056152344
1919;487.0908508300781
1920;486.9696960449219
1921;486.8485412597656
1922;486.7274475097656
1923;486.6064147949219
1924;486.4853515625
1925;486.3642883300781
1926;486.2432861328125
1927;486.12225341796875
1928;486.00128173828125
1929;485.88037109375
1930;485.7593994140625
1931;485.6385498046875
1932;485.5176696777344
1933;485.39678955078125
1934;485.2759094238281
1935;485.1551513671875
1936;485.03436279296875
1937;484.9136047363281
1938;484.7928771972656
1939;484.67218017578125
1940;484.5514831542969
1941;484.4307861328125
1942;484.3100891113281
1943;484.1894836425781
1944;484.06884765625
1945;483.9482727050781
1946;483.8277282714844
1947;483.70721435546875
1948;483.5866394042969
1949;483.46612548828125
1950;483.3456115722656
1951;483.2252197265625
1952;483.10479736328125
1953;482.9844665527344
1954;482.8640441894531
1955;482.74365234375
1956;482.6233215332031
1957;482.5030212402344
1958;482.3827209472656
1959;482.2624206542969
1960;482.14227294921875
1961;482.0220031738281
1962;481.9018249511719
1963;481.7816162109375
1964;481.6615295410156
1965;481.5413818359375
1966;481.4212646484375
1967;481.3011779785156
1968;481.1810607910156
1969;481.0610656738281
1970;480.9410400390625
1971;480.8210754394531
1972;480.7010803222656
1973;480.5811462402344
1974;480.4612121582031
1975;480.34130859375
1976;480.2214050292969
1977;480.1015930175781
1978;479.9817199707031
1979;479.8619079589844
1980;479.7421569824219
1981;479.6222839355469
1982;479.5025634765625
1983;479.3828430175781
1984;479.26318359375
1985;479.1434631347656
1986;479.0238037109375
1987;478.90411376953125
1988;478.7845458984375
1989;478.6649475097656
1990;478.5454406738281
1991;478.4258728027344
1992;478.30633544921875
1993;478.1867980957031
1994;478.0673828125
1995;477.9478759765625
1996;477.82843017578125
1997;477.7090148925781
1998;477.58966064453125
1999;477.4703063964844
