;loss
0;863.4061889648438
1;863.2837524414062
2;863.1192626953125
3;862.9547729492188
4;862.7904663085938
5;862.6331176757812
6;862.4685668945312
7;862.3072509765625
8;862.14453125
9;861.9807739257812
10;861.8157348632812
11;861.6495361328125
12;861.4829711914062
13;861.3153686523438
14;861.1478271484375
15;860.9796142578125
16;860.8109741210938
17;860.6417236328125
18;860.4703979492188
19;860.2982788085938
20;860.1255493164062
21;859.9539794921875
22;859.78173828125
23;859.6089477539062
24;859.4354248046875
25;859.2592163085938
26;859.0823974609375
27;858.9047241210938
28;858.7285766601562
29;858.5496826171875
30;858.3699340820312
31;858.189453125
32;858.0082397460938
33;857.8284301757812
34;857.6478881835938
35;857.4664916992188
36;857.2823486328125
37;857.0994873046875
38;856.9158935546875
39;856.7294921875
40;856.5422973632812
41;856.3562622070312
42;856.16943359375
43;855.9817504882812
44;855.7913818359375
45;855.6001586914062
46;855.4100952148438
47;855.2190551757812
48;855.0271606445312
49;854.8344116210938
50;854.6407470703125
51;854.4444580078125
52;854.2473754882812
53;854.04931640625
54;853.8504028320312
55;853.6522216796875
56;853.453125
57;853.2515258789062
58;853.0488891601562
59;852.8453979492188
60;852.6424560546875
61;852.4386596679688
62;852.2322998046875
63;852.0249633789062
64;851.8165283203125
65;851.6087646484375
66;851.39990234375
67;851.1885375976562
68;850.9761962890625
69;850.7628173828125
70;850.5484008789062
71;850.3330078125
72;850.1163940429688
73;849.9002685546875
74;849.681640625
75;849.4617919921875
76;849.2410278320312
77;849.01904296875
78;848.7973022460938
79;848.5744018554688
80;848.3490600585938
81;848.1239013671875
82;847.8974609375
83;847.6685791015625
84;847.4398803710938
85;847.2085571289062
86;846.9774169921875
87;846.7451171875
88;846.5101928710938
89;846.2741088867188
90;846.0380859375
91;845.80078125
92;845.5620727539062
93;845.3209838867188
94;845.0786743164062
95;844.8349609375
96;844.5912475585938
97;844.3461303710938
98;844.0997924804688
99;843.8521118164062
100;843.6031494140625
101;843.3528442382812
102;843.0999755859375
103;842.8469848632812
104;842.5925903320312
105;842.3367919921875
106;842.0785522460938
107;841.8189086914062
108;841.5591430664062
109;841.2978515625
110;841.0341186523438
111;840.7700805664062
112;840.5047607421875
113;840.2378540039062
114;839.9685668945312
115;839.6978149414062
116;839.4256591796875
117;839.1521606445312
118;838.8772583007812
119;838.6007690429688
120;838.3241577148438
121;838.0460205078125
122;837.7664794921875
123;837.4854736328125
124;837.2030029296875
125;836.9190673828125
126;836.6337890625
127;836.3469848632812
128;836.0587158203125
129;835.76904296875
130;835.4779663085938
131;835.1843872070312
132;834.8903198242188
133;834.5938110351562
134;834.2958984375
135;833.9965209960938
136;833.6967163085938
137;833.3955688476562
138;833.091796875
139;832.7877807617188
140;832.4822998046875
141;832.1752319335938
142;831.8659057617188
143;831.5560302734375
144;831.2447509765625
145;830.9321899414062
146;830.6170654296875
147;830.3016357421875
148;829.9848022460938
149;829.6655883789062
150;829.3450317382812
151;829.0230102539062
152;828.7008056640625
153;828.3771362304688
154;828.0521850585938
155;827.7258911132812
156;827.3971557617188
157;827.0673828125
158;826.7361450195312
159;826.4046020507812
160;826.07080078125
161;825.7367553710938
162;825.4005126953125
163;825.0640869140625
164;824.7255249023438
165;824.38671875
166;824.0466918945312
167;823.7054443359375
168;823.3630981445312
169;823.0195922851562
170;822.6741333007812
171;822.3274536132812
172;821.9805908203125
173;821.6318359375
174;821.2828979492188
175;820.9329833984375
176;820.58203125
177;820.2291259765625
178;819.8754272460938
179;819.5206298828125
180;819.1658935546875
181;818.8092651367188
182;818.4527587890625
183;818.0944213867188
184;817.7353515625
185;817.3760986328125
186;817.0161743164062
187;816.6546630859375
188;816.2921142578125
189;815.9299926757812
190;815.5669555664062
191;815.2032470703125
192;814.8380126953125
193;814.4721069335938
194;814.1063232421875
195;813.7391357421875
196;813.3713989257812
197;813.0028076171875
198;812.6338500976562
199;812.2642822265625
200;811.8941040039062
201;811.5244140625
202;811.1531982421875
203;810.7816772460938
204;810.4096069335938
205;810.0379028320312
206;809.6650390625
207;809.2916259765625
208;808.9188232421875
209;808.5447387695312
210;808.1702880859375
211;807.7963256835938
212;807.4213256835938
213;807.0466918945312
214;806.6717529296875
215;806.2957763671875
216;805.9202270507812
217;805.5444946289062
218;805.16845703125
219;804.7922973632812
220;804.4150390625
221;804.0376586914062
222;803.6608276367188
223;803.2838134765625
224;802.9058837890625
225;802.5286254882812
226;802.150390625
227;801.7728271484375
228;801.3952026367188
229;801.0166625976562
230;800.6381225585938
231;800.2594604492188
232;799.8815307617188
233;799.5034790039062
234;799.1246337890625
235;798.7459716796875
236;798.3670654296875
237;797.98828125
238;797.609375
239;797.2313232421875
240;796.8532104492188
241;796.4750366210938
242;796.0963134765625
243;795.71826171875
244;795.34033203125
245;794.96240234375
246;794.5845336914062
247;794.2060546875
248;793.8275756835938
249;793.4500122070312
250;793.0723266601562
251;792.6942138671875
252;792.3168334960938
253;791.93896484375
254;791.5618286132812
255;791.1847534179688
256;790.8079223632812
257;790.4310913085938
258;790.0538330078125
259;789.6768188476562
260;789.2999267578125
261;788.9232788085938
262;788.54736328125
263;788.1716918945312
264;787.7962036132812
265;787.4202270507812
266;787.0450439453125
267;786.6694946289062
268;786.2942504882812
269;785.9192504882812
270;785.54443359375
271;785.1698608398438
272;784.7962036132812
273;784.4221801757812
274;784.0484008789062
275;783.6754760742188
276;783.30224609375
277;782.9292602539062
278;782.556640625
279;782.1848754882812
280;781.8128051757812
281;781.4409790039062
282;781.0701904296875
283;780.6996459960938
284;780.3294677734375
285;779.9595947265625
286;779.5900268554688
287;779.2203369140625
288;778.8515625
289;778.4832153320312
290;778.1150512695312
291;777.7469482421875
292;777.3796997070312
293;777.0128173828125
294;776.6458129882812
295;776.2798461914062
296;775.9142456054688
297;775.5491333007812
298;775.1838989257812
299;774.8196411132812
300;774.4558715820312
301;774.0919189453125
302;773.7285766601562
303;773.3656616210938
304;773.0037231445312
305;772.6422119140625
306;772.2813110351562
307;771.9203491210938
308;771.5599975585938
309;771.2005615234375
310;770.8411865234375
311;770.4828491210938
312;770.125
313;769.7672729492188
314;769.4105834960938
315;769.0540161132812
316;768.6978149414062
317;768.3427734375
318;767.9883422851562
319;767.6343994140625
320;767.2811279296875
321;766.9278564453125
322;766.5752563476562
323;766.2237548828125
324;765.8723754882812
325;765.5216064453125
326;765.1719360351562
327;764.8223876953125
328;764.4740600585938
329;764.1264038085938
330;763.779296875
331;763.4329223632812
332;763.0870971679688
333;762.7420654296875
334;762.3976440429688
335;762.0538940429688
336;761.7105102539062
337;761.3681640625
338;761.0260620117188
339;760.6846923828125
340;760.3441162109375
341;760.0042724609375
342;759.6651000976562
343;759.3270263671875
344;758.9892578125
345;758.6527099609375
346;758.31689453125
347;757.9818115234375
348;757.6475219726562
349;757.3135375976562
350;756.9804077148438
351;756.6478881835938
352;756.3162841796875
353;755.9857788085938
354;755.6559448242188
355;755.3265991210938
356;754.9984130859375
357;754.6708984375
358;754.3438720703125
359;754.017578125
360;753.6925048828125
361;753.3681640625
362;753.0442504882812
363;752.7215576171875
364;752.3992309570312
365;752.0780639648438
366;751.7577514648438
367;751.4378662109375
368;751.1187744140625
369;750.8008422851562
370;750.4833984375
371;750.1666870117188
372;749.8511962890625
373;749.5365600585938
374;749.22265625
375;748.9091796875
376;748.5969848632812
377;748.2854614257812
378;747.9747924804688
379;747.6650390625
380;747.3555908203125
381;747.0474243164062
382;746.7399291992188
383;746.4334106445312
384;746.1276245117188
385;745.8223266601562
386;745.5178833007812
387;745.2142333984375
388;744.9114990234375
389;744.609375
390;744.3081665039062
391;744.0078125
392;743.7083129882812
393;743.4093627929688
394;743.1113891601562
395;742.8145751953125
396;742.5181274414062
397;742.2227783203125
398;741.9283447265625
399;741.6343383789062
400;741.3411254882812
401;741.0487060546875
402;740.75732421875
403;740.4664916992188
404;740.1766967773438
405;739.8877563476562
406;739.5994873046875
407;739.3117065429688
408;739.0248413085938
409;738.7389526367188
410;738.4537963867188
411;738.16943359375
412;737.8855590820312
413;737.6024169921875
414;737.3201293945312
415;737.0385131835938
416;736.7578735351562
417;736.4778442382812
418;736.1983642578125
419;735.9197998046875
420;735.6422729492188
421;735.3651123046875
422;735.0890502929688
423;734.8135986328125
424;734.5389404296875
425;734.2650146484375
426;733.9915161132812
427;733.7190551757812
428;733.4469604492188
429;733.1755981445312
430;732.9049072265625
431;732.6348876953125
432;732.3656616210938
433;732.0973510742188
434;731.8295288085938
435;731.5625610351562
436;731.2960205078125
437;731.0302734375
438;730.7653198242188
439;730.5010986328125
440;730.2373046875
441;729.9741821289062
442;729.7119140625
443;729.4501953125
444;729.1890869140625
445;728.9285888671875
446;728.6689453125
447;728.4099731445312
448;728.1513061523438
449;727.8934326171875
450;727.6361694335938
451;727.3799438476562
452;727.1241455078125
453;726.8690185546875
454;726.6144409179688
455;726.3607788085938
456;726.107421875
457;725.8548583984375
458;725.6029663085938
459;725.3515014648438
460;725.1009521484375
461;724.8506469726562
462;724.6009521484375
463;724.3519287109375
464;724.103515625
465;723.8555908203125
466;723.6084594726562
467;723.3616333007812
468;723.1155395507812
469;722.8697509765625
470;722.6248779296875
471;722.3801879882812
472;722.1365356445312
473;721.8932495117188
474;721.6505737304688
475;721.4083862304688
476;721.1668701171875
477;720.92578125
478;720.6851196289062
479;720.4450073242188
480;720.20556640625
481;719.9664916992188
482;719.7279663085938
483;719.4899291992188
484;719.2523803710938
485;719.01513671875
486;718.7783813476562
487;718.5420532226562
488;718.3065185546875
489;718.0713500976562
490;717.8364868164062
491;717.6021118164062
492;717.3684692382812
493;717.1351318359375
494;716.9022216796875
495;716.6697998046875
496;716.4378051757812
497;716.2063598632812
498;715.9751586914062
499;715.7444458007812
500;715.5143432617188
501;715.2845458984375
502;715.05517578125
503;714.8262329101562
504;714.5980224609375
505;714.3702392578125
506;714.1426391601562
507;713.9157104492188
508;713.68896484375
509;713.462890625
510;713.2373046875
511;713.0120239257812
512;712.7869873046875
513;712.5623779296875
514;712.3383178710938
515;712.1146850585938
516;711.8914184570312
517;711.6686401367188
518;711.4462890625
519;711.2243041992188
520;711.0026245117188
521;710.7814331054688
522;710.5604858398438
523;710.33984375
524;710.1198120117188
525;709.9000244140625
526;709.6807861328125
527;709.4616088867188
528;709.2430419921875
529;709.0248413085938
530;708.8069458007812
531;708.5894165039062
532;708.3724365234375
533;708.1557006835938
534;707.9393920898438
535;707.7234497070312
536;707.5078125
537;707.2925415039062
538;707.0775756835938
539;706.8627319335938
540;706.6483154296875
541;706.4341430664062
542;706.2206420898438
543;706.0073852539062
544;705.7946166992188
545;705.5821533203125
546;705.3699340820312
547;705.158203125
548;704.9466552734375
549;704.7354736328125
550;704.5247192382812
551;704.3140869140625
552;704.1038818359375
553;703.89404296875
554;703.6842041015625
555;703.4747924804688
556;703.2656860351562
557;703.0568237304688
558;702.8482055664062
559;702.64013671875
560;702.4322509765625
561;702.2247314453125
562;702.0174560546875
563;701.8103637695312
564;701.6035766601562
565;701.3970947265625
566;701.19091796875
567;700.98486328125
568;700.7792358398438
569;700.5736694335938
570;700.3684692382812
571;700.16357421875
572;699.958984375
573;699.7545776367188
574;699.5505981445312
575;699.3466796875
576;699.1429443359375
577;698.9395141601562
578;698.7364501953125
579;698.5335083007812
580;698.3309326171875
581;698.1286010742188
582;697.9265747070312
583;697.724609375
584;697.5230712890625
585;697.32177734375
586;697.1205444335938
587;696.9196166992188
588;696.7188720703125
589;696.5184326171875
590;696.3182373046875
591;696.1181640625
592;695.9183959960938
593;695.7188720703125
594;695.51953125
595;695.3204345703125
596;695.12158203125
597;694.9230346679688
598;694.7247314453125
599;694.5266723632812
600;694.3287353515625
601;694.1311645507812
602;693.93359375
603;693.736328125
604;693.5391845703125
605;693.3425903320312
606;693.14599609375
607;692.9497680664062
608;692.7537841796875
609;692.5579833984375
610;692.3624267578125
611;692.1669311523438
612;691.9716186523438
613;691.7767944335938
614;691.58203125
615;691.3875732421875
616;691.1931762695312
617;690.9990234375
618;690.80517578125
619;690.6114501953125
620;690.41796875
621;690.2244873046875
622;690.0313720703125
623;689.8383178710938
624;689.6456298828125
625;689.4531860351562
626;689.2608642578125
627;689.0687866210938
628;688.8768310546875
629;688.68505859375
630;688.4935302734375
631;688.3021850585938
632;688.1109008789062
633;687.9197998046875
634;687.72900390625
635;687.5382080078125
636;687.34765625
637;687.1574096679688
638;686.9673461914062
639;686.7774047851562
640;686.5877075195312
641;686.39794921875
642;686.20849609375
643;686.0192260742188
644;685.8302001953125
645;685.6412353515625
646;685.4525756835938
647;685.2639770507812
648;685.0756225585938
649;684.8873901367188
650;684.6993408203125
651;684.5114135742188
652;684.32373046875
653;684.1361083984375
654;683.9487915039062
655;683.7614135742188
656;683.5742797851562
657;683.3875122070312
658;683.2007446289062
659;683.0142211914062
660;682.8277587890625
661;682.6416015625
662;682.4556274414062
663;682.2698974609375
664;682.0842895507812
665;681.8988647460938
666;681.7135009765625
667;681.5281982421875
668;681.34326171875
669;681.1583251953125
670;680.9737548828125
671;680.7893676757812
672;680.60498046875
673;680.4208984375
674;680.23681640625
675;680.0528564453125
676;679.8692016601562
677;679.6856689453125
678;679.5023193359375
679;679.3189697265625
680;679.1358642578125
681;678.9528198242188
682;678.7699584960938
683;678.5873413085938
684;678.40478515625
685;678.2225341796875
686;678.0401611328125
687;677.8582763671875
688;677.6762084960938
689;677.4945678710938
690;677.3128051757812
691;677.1314086914062
692;676.9501342773438
693;676.7689819335938
694;676.5879516601562
695;676.4070434570312
696;676.2262573242188
697;676.0457153320312
698;675.865234375
699;675.6849975585938
700;675.5047607421875
701;675.32470703125
702;675.1447143554688
703;674.9649047851562
704;674.7854614257812
705;674.6058959960938
706;674.4265747070312
707;674.2472534179688
708;674.0682373046875
709;673.8893432617188
710;673.7105102539062
711;673.5318603515625
712;673.3532104492188
713;673.1748657226562
714;672.99658203125
715;672.818359375
716;672.6403198242188
717;672.4624633789062
718;672.28466796875
719;672.1068725585938
720;671.9293212890625
721;671.7518920898438
722;671.5745849609375
723;671.3974609375
724;671.2203369140625
725;671.04345703125
726;670.8666381835938
727;670.6900024414062
728;670.5133666992188
729;670.3370361328125
730;670.1605834960938
731;669.9844970703125
732;669.8084716796875
733;669.6323852539062
734;669.45654296875
735;669.2808227539062
736;669.1052856445312
737;668.9296875
738;668.7542724609375
739;668.5789794921875
740;668.4038696289062
741;668.2288208007812
742;668.0538940429688
743;667.8790283203125
744;667.7042846679688
745;667.52978515625
746;667.3551635742188
747;667.1807250976562
748;667.0064086914062
749;666.8323364257812
750;666.6583251953125
751;666.484375
752;666.310546875
753;666.1367797851562
754;665.9633178710938
755;665.7897338867188
756;665.6163330078125
757;665.4430541992188
758;665.2698974609375
759;665.0968017578125
760;664.9238891601562
761;664.7510375976562
762;664.5784301757812
763;664.4057006835938
764;664.2332153320312
765;664.0606689453125
766;663.8883666992188
767;663.7161865234375
768;663.5440673828125
769;663.3720092773438
770;663.2000732421875
771;663.0281982421875
772;662.8565063476562
773;662.6848754882812
774;662.5133666992188
775;662.3419799804688
776;662.1705932617188
777;661.9994506835938
778;661.8282470703125
779;661.6572265625
780;661.486328125
781;661.3154907226562
782;661.1448364257812
783;660.97412109375
784;660.8035888671875
785;660.6329956054688
786;660.4627685546875
787;660.2925415039062
788;660.1224365234375
789;659.9522705078125
790;659.7823486328125
791;659.6126098632812
792;659.44287109375
793;659.2733154296875
794;659.1036987304688
795;658.9344482421875
796;658.76513671875
797;658.5958251953125
798;658.4268798828125
799;658.2578735351562
800;658.0889892578125
801;657.9202270507812
802;657.7515258789062
803;657.5828857421875
804;657.4143676757812
805;657.2461547851562
806;657.0780639648438
807;656.9100952148438
808;656.7421264648438
809;656.5742797851562
810;656.4065551757812
811;656.2388916015625
812;656.0712890625
813;655.9037475585938
814;655.736328125
815;655.5692138671875
816;655.40185546875
817;655.2348022460938
818;655.0678100585938
819;654.9007568359375
820;654.73388671875
821;654.5670776367188
822;654.400390625
823;654.2338256835938
824;654.0672607421875
825;653.9008178710938
826;653.7344970703125
827;653.5681762695312
828;653.4019775390625
829;653.23583984375
830;653.0697631835938
831;652.9038696289062
832;652.7380981445312
833;652.5723266601562
834;652.4066772460938
835;652.2410888671875
836;652.0753784179688
837;651.9099731445312
838;651.74462890625
839;651.5794067382812
840;651.4141845703125
841;651.2490234375
842;651.083984375
843;650.9190673828125
844;650.7542724609375
845;650.5894165039062
846;650.4246826171875
847;650.2600708007812
848;650.0953979492188
849;649.9308471679688
850;649.7664794921875
851;649.6021118164062
852;649.4378051757812
853;649.2736206054688
854;649.1095581054688
855;648.9454345703125
856;648.7813720703125
857;648.6176147460938
858;648.4537353515625
859;648.2899169921875
860;648.1262817382812
861;647.9627075195312
862;647.7991333007812
863;647.6357421875
864;647.4724731445312
865;647.3091430664062
866;647.1460571289062
867;646.9830322265625
868;646.8201293945312
869;646.6572265625
870;646.4944458007812
871;646.3316650390625
872;646.1690673828125
873;646.0064697265625
874;645.8439331054688
875;645.6815185546875
876;645.5191040039062
877;645.3568725585938
878;645.1946411132812
879;645.0324096679688
880;644.8703002929688
881;644.7083129882812
882;644.5463256835938
883;644.3845825195312
884;644.2227783203125
885;644.0610961914062
886;643.8994750976562
887;643.7379760742188
888;643.5764770507812
889;643.4150390625
890;643.2537841796875
891;643.0924682617188
892;642.9312133789062
893;642.7701416015625
894;642.6090698242188
895;642.4481201171875
896;642.2872314453125
897;642.1264038085938
898;641.9656982421875
899;641.8050537109375
900;641.64453125
901;641.4839477539062
902;641.3234252929688
903;641.1631469726562
904;641.0028076171875
905;640.8426513671875
906;640.6824951171875
907;640.5223388671875
908;640.3624267578125
909;640.2024536132812
910;640.0426635742188
911;639.8828125
912;639.7230834960938
913;639.5634155273438
914;639.4037475585938
915;639.2442016601562
916;639.0847778320312
917;638.9253540039062
918;638.7660522460938
919;638.6068725585938
920;638.4476928710938
921;638.2885131835938
922;638.1294555664062
923;637.9703979492188
924;637.8114624023438
925;637.6526489257812
926;637.4937744140625
927;637.3350219726562
928;637.1763916015625
929;637.0178833007812
930;636.8593139648438
931;636.7008666992188
932;636.54248046875
933;636.3841552734375
934;636.2257690429688
935;636.0676879882812
936;635.9094848632812
937;635.7514038085938
938;635.5933227539062
939;635.4354248046875
940;635.2774658203125
941;635.11962890625
942;634.9618530273438
943;634.8041381835938
944;634.646484375
945;634.4889526367188
946;634.3314819335938
947;634.1741333007812
948;634.0167236328125
949;633.8594360351562
950;633.7021484375
951;633.544921875
952;633.3878173828125
953;633.2308349609375
954;633.07373046875
955;632.9168701171875
956;632.7598876953125
957;632.60302734375
958;632.4462890625
959;632.28955078125
960;632.1328735351562
961;631.9763793945312
962;631.8197631835938
963;631.6632080078125
964;631.5067749023438
965;631.3504638671875
966;631.1940307617188
967;631.0377807617188
968;630.8815307617188
969;630.7254638671875
970;630.5693969726562
971;630.4133911132812
972;630.2573852539062
973;630.1015014648438
974;629.9456176757812
975;629.7897338867188
976;629.6339111328125
977;629.4783325195312
978;629.3226318359375
979;629.1669921875
980;629.0114135742188
981;628.85595703125
982;628.7005004882812
983;628.5451049804688
984;628.3897094726562
985;628.2345581054688
986;628.0792846679688
987;627.9241943359375
988;627.76904296875
989;627.6139526367188
990;627.458984375
991;627.3040161132812
992;627.1491088867188
993;626.9942626953125
994;626.8394165039062
995;626.6846923828125
996;626.5300903320312
997;626.3754272460938
998;626.2208862304688
999;626.06640625
1000;625.9119873046875
1001;625.7576293945312
1002;625.6033325195312
1003;625.4490356445312
1004;625.2947998046875
1005;625.1405639648438
1006;624.9864501953125
1007;624.8323364257812
1008;624.6783447265625
1009;624.5243530273438
1010;624.3704223632812
1011;624.2164916992188
1012;624.0628051757812
1013;623.9090576171875
1014;623.7553100585938
1015;623.6016235351562
1016;623.4481811523438
1017;623.2945556640625
1018;623.14111328125
1019;622.9877319335938
1020;622.8344116210938
1021;622.6810913085938
1022;622.5278930664062
1023;622.3746337890625
1024;622.2214965820312
1025;622.068359375
1026;621.9154052734375
1027;621.7623901367188
1028;621.6094970703125
1029;621.4566650390625
1030;621.3037719726562
1031;621.1510009765625
1032;620.9983520507812
1033;620.8456420898438
1034;620.6929931640625
1035;620.5404663085938
1036;620.3880004882812
1037;620.2354736328125
1038;620.0830688476562
1039;619.9306640625
1040;619.7783203125
1041;619.6261596679688
1042;619.4739379882812
1043;619.3217163085938
1044;619.1696166992188
1045;619.017578125
1046;618.8656005859375
1047;618.7137451171875
1048;618.5618286132812
1049;618.4099731445312
1050;618.2581787109375
1051;618.1064453125
1052;617.9547119140625
1053;617.8031005859375
1054;617.6514892578125
1055;617.5
1056;617.3485107421875
1057;617.1970825195312
1058;617.0457153320312
1059;616.8942260742188
1060;616.7430419921875
1061;616.5917358398438
1062;616.4404907226562
1063;616.2894287109375
1064;616.1382446289062
1065;615.9871826171875
1066;615.8361206054688
1067;615.6851806640625
1068;615.5343017578125
1069;615.3834228515625
1070;615.2327270507812
1071;615.0819091796875
1072;614.93115234375
1073;614.7803955078125
1074;614.6298217773438
1075;614.4791870117188
1076;614.3286743164062
1077;614.1782836914062
1078;614.0277709960938
1079;613.8773193359375
1080;613.72705078125
1081;613.5767211914062
1082;613.4263916015625
1083;613.2762451171875
1084;613.1260375976562
1085;612.9758911132812
1086;612.8258056640625
1087;612.67578125
1088;612.5258178710938
1089;612.3758544921875
1090;612.2260131835938
1091;612.0761108398438
1092;611.9263305664062
1093;611.7765502929688
1094;611.6268310546875
1095;611.4771728515625
1096;611.3275756835938
1097;611.1779174804688
1098;611.0284423828125
1099;610.8790283203125
1100;610.7295532226562
1101;610.5802001953125
1102;610.4307861328125
1103;610.2815551757812
1104;610.13232421875
1105;609.9830322265625
1106;609.8339233398438
1107;609.6848754882812
1108;609.5357666015625
1109;609.38671875
1110;609.2377319335938
1111;609.0888061523438
1112;608.93994140625
1113;608.7911376953125
1114;608.6423950195312
1115;608.4935913085938
1116;608.3448486328125
1117;608.1962890625
1118;608.0476684570312
1119;607.8990478515625
1120;607.7505493164062
1121;607.60205078125
1122;607.4536743164062
1123;607.3052368164062
1124;607.1568603515625
1125;607.0086059570312
1126;606.8602905273438
1127;606.7120971679688
1128;606.56396484375
1129;606.4158935546875
1130;606.2677612304688
1131;606.1197509765625
1132;605.9717407226562
1133;605.8237915039062
1134;605.6759033203125
1135;605.5280151367188
1136;605.3802490234375
1137;605.232421875
1138;605.0848388671875
1139;604.9370727539062
1140;604.7893676757812
1141;604.6417846679688
1142;604.4942626953125
1143;604.3468017578125
1144;604.1993408203125
1145;604.0518798828125
1146;603.9044799804688
1147;603.7572021484375
1148;603.6099243164062
1149;603.4625854492188
1150;603.3154296875
1151;603.1682739257812
1152;603.0211791992188
1153;602.8740844726562
1154;602.7271118164062
1155;602.5802001953125
1156;602.4332275390625
1157;602.2864379882812
1158;602.1395263671875
1159;601.9927368164062
1160;601.8460083007812
1161;601.6993408203125
1162;601.552734375
1163;601.4061279296875
1164;601.2596435546875
1165;601.1130981445312
1166;600.9666748046875
1167;600.8202514648438
1168;600.6738891601562
1169;600.5274658203125
1170;600.3812255859375
1171;600.23486328125
1172;600.0887451171875
1173;599.9425048828125
1174;599.7963256835938
1175;599.6502685546875
1176;599.5042114257812
1177;599.3582763671875
1178;599.2123413085938
1179;599.06640625
1180;598.9204711914062
1181;598.7745971679688
1182;598.6288452148438
1183;598.4830322265625
1184;598.3373413085938
1185;598.1915893554688
1186;598.0459594726562
1187;597.900390625
1188;597.7547607421875
1189;597.6092529296875
1190;597.4638671875
1191;597.3184204101562
1192;597.1730346679688
1193;597.0277709960938
1194;596.8824462890625
1195;596.7371826171875
1196;596.5921020507812
1197;596.4468994140625
1198;596.3017578125
1199;596.1566772460938
1200;596.0116577148438
1201;595.8666381835938
1202;595.7216796875
1203;595.5768432617188
1204;595.4319458007812
1205;595.287109375
1206;595.1422729492188
1207;594.99755859375
1208;594.8529052734375
1209;594.7081909179688
1210;594.5635375976562
1211;594.4189453125
1212;594.2744140625
1213;594.1298828125
1214;593.9853515625
1215;593.8410034179688
1216;593.6965942382812
1217;593.55224609375
1218;593.4078979492188
1219;593.263671875
1220;593.1194458007812
1221;592.9752807617188
1222;592.8311157226562
1223;592.68701171875
1224;592.5429077148438
1225;592.39892578125
1226;592.2548828125
1227;592.1109008789062
1228;591.9671020507812
1229;591.8231201171875
1230;591.6793212890625
1231;591.5355224609375
1232;591.3916625976562
1233;591.248046875
1234;591.1043090820312
1235;590.9606323242188
1236;590.8170166015625
1237;590.6734619140625
1238;590.5299682617188
1239;590.3864135742188
1240;590.2430419921875
1241;590.099609375
1242;589.9561767578125
1243;589.8128051757812
1244;589.6694946289062
1245;589.5262451171875
1246;589.3829956054688
1247;589.2398071289062
1248;589.0966796875
1249;588.9535522460938
1250;588.810546875
1251;588.6674194335938
1252;588.5244140625
1253;588.3814086914062
1254;588.2385864257812
1255;588.0956420898438
1256;587.9528198242188
1257;587.8099975585938
1258;587.6672973632812
1259;587.5244750976562
1260;587.3817138671875
1261;587.2391357421875
1262;587.0964965820312
1263;586.9537963867188
1264;586.8112182617188
1265;586.6687622070312
1266;586.5262451171875
1267;586.3837890625
1268;586.2413940429688
1269;586.0990600585938
1270;585.9567260742188
1271;585.814453125
1272;585.6721801757812
1273;585.5299682617188
1274;585.3876953125
1275;585.2455444335938
1276;585.1034545898438
1277;584.96142578125
1278;584.8193969726562
1279;584.6773681640625
1280;584.5354614257812
1281;584.3935546875
1282;584.2515869140625
1283;584.1098022460938
1284;583.9679565429688
1285;583.8262329101562
1286;583.6845092773438
1287;583.5427856445312
1288;583.4011840820312
1289;583.2595825195312
1290;583.117919921875
1291;582.9763793945312
1292;582.8348388671875
1293;582.6934204101562
1294;582.5519409179688
1295;582.4105224609375
1296;582.2691650390625
1297;582.1278076171875
1298;581.9864501953125
1299;581.8452758789062
1300;581.7040405273438
1301;581.5628051757812
1302;581.4215698242188
1303;581.2804565429688
1304;581.139404296875
1305;580.9983520507812
1306;580.8572998046875
1307;580.7163696289062
1308;580.575439453125
1309;580.4345703125
1310;580.2936401367188
1311;580.1528930664062
1312;580.0121459960938
1313;579.8713989257812
1314;579.7307739257812
1315;579.5900268554688
1316;579.4494018554688
1317;579.3087768554688
1318;579.1682739257812
1319;579.0277709960938
1320;578.8872680664062
1321;578.7467651367188
1322;578.6064453125
1323;578.4660034179688
1324;578.3257446289062
1325;578.1854248046875
1326;578.0451049804688
1327;577.9049072265625
1328;577.7647094726562
1329;577.62451171875
1330;577.484375
1331;577.3442993164062
1332;577.2042236328125
1333;577.0641479492188
1334;576.9241943359375
1335;576.7842407226562
1336;576.644287109375
1337;576.50439453125
1338;576.3645629882812
1339;576.2246704101562
1340;576.0848999023438
1341;575.9451904296875
1342;575.8054809570312
1343;575.6658325195312
1344;575.5262451171875
1345;575.3865966796875
1346;575.2470092773438
1347;575.1074829101562
1348;574.9679565429688
1349;574.8284912109375
1350;574.6890869140625
1351;574.5496826171875
1352;574.4103393554688
1353;574.27099609375
1354;574.1317138671875
1355;573.9924926757812
1356;573.8532104492188
1357;573.7139892578125
1358;573.5748291015625
1359;573.4357299804688
1360;573.296630859375
1361;573.1575927734375
1362;573.0186157226562
1363;572.8795776367188
1364;572.7406005859375
1365;572.6016235351562
1366;572.4627685546875
1367;572.3239135742188
1368;572.18505859375
1369;572.0462646484375
1370;571.907470703125
1371;571.7687377929688
1372;571.6300048828125
1373;571.4913330078125
1374;571.3527221679688
1375;571.2141723632812
1376;571.0756225585938
1377;570.9370727539062
1378;570.7986450195312
1379;570.6602172851562
1380;570.521728515625
1381;570.3833618164062
1382;570.2449951171875
1383;570.1066284179688
1384;569.9683837890625
1385;569.8301391601562
1386;569.69189453125
1387;569.5537719726562
1388;569.41552734375
1389;569.2774047851562
1390;569.1392822265625
1391;569.0013427734375
1392;568.8632202148438
1393;568.7252807617188
1394;568.5872802734375
1395;568.4493408203125
1396;568.3114624023438
1397;568.1736450195312
1398;568.0357666015625
1399;567.89794921875
1400;567.7601318359375
1401;567.6224365234375
1402;567.4847412109375
1403;567.3470458984375
1404;567.2094116210938
1405;567.0718383789062
1406;566.9342041015625
1407;566.7966918945312
1408;566.6591796875
1409;566.521728515625
1410;566.3842163085938
1411;566.2468872070312
1412;566.1094360351562
1413;565.97216796875
1414;565.8348388671875
1415;565.6975708007812
1416;565.560302734375
1417;565.423095703125
1418;565.2858276367188
1419;565.1487426757812
1420;565.0116577148438
1421;564.8745727539062
1422;564.7374267578125
1423;564.6004028320312
1424;564.4634399414062
1425;564.3264770507812
1426;564.1895751953125
1427;564.0526733398438
1428;563.9158325195312
1429;563.7789916992188
1430;563.6422119140625
1431;563.5054321289062
1432;563.3687133789062
1433;563.2319946289062
1434;563.0953369140625
1435;562.958740234375
1436;562.8220825195312
1437;562.6854858398438
1438;562.5489501953125
1439;562.4124755859375
1440;562.2759399414062
1441;562.1395263671875
1442;562.0031127929688
1443;561.86669921875
1444;561.7303466796875
1445;561.593994140625
1446;561.4577026367188
1447;561.3214721679688
1448;561.1851806640625
1449;561.0489501953125
1450;560.9127807617188
1451;560.7766723632812
1452;560.6405639648438
1453;560.5045166015625
1454;560.3684692382812
1455;560.232421875
1456;560.0963745117188
1457;559.96044921875
1458;559.8245239257812
1459;559.6885986328125
1460;559.552734375
1461;559.4169921875
1462;559.2811279296875
1463;559.1453857421875
1464;559.0096435546875
1465;558.8739013671875
1466;558.7382202148438
1467;558.6026000976562
1468;558.4669189453125
1469;558.3314208984375
1470;558.1958618164062
1471;558.0602416992188
1472;557.9248046875
1473;557.7893676757812
1474;557.6539306640625
1475;557.5184936523438
1476;557.3831787109375
1477;557.2477416992188
1478;557.1124877929688
1479;556.9771118164062
1480;556.8419189453125
1481;556.7066650390625
1482;556.5714721679688
1483;556.4363403320312
1484;556.3012084960938
1485;556.1661376953125
1486;556.0310668945312
1487;555.8960571289062
1488;555.7610473632812
1489;555.6260375976562
1490;555.4910888671875
1491;555.3561401367188
1492;555.2212524414062
1493;555.08642578125
1494;554.9515991210938
1495;554.8168334960938
1496;554.6820678710938
1497;554.5473022460938
1498;554.4126586914062
1499;554.2778930664062
1500;554.1433715820312
1501;554.0086669921875
1502;553.8740844726562
1503;553.7395629882812
1504;553.6050415039062
1505;553.470458984375
1506;553.3359985351562
1507;553.2015991210938
1508;553.0671997070312
1509;552.9328002929688
1510;552.7984619140625
1511;552.6641235351562
1512;552.5298461914062
1513;552.3955688476562
1514;552.2613525390625
1515;552.1272583007812
1516;551.9930419921875
1517;551.85888671875
1518;551.7247924804688
1519;551.5906982421875
1520;551.4566650390625
1521;551.3226318359375
1522;551.1886596679688
1523;551.0547485351562
1524;550.9207763671875
1525;550.786865234375
1526;550.6530151367188
1527;550.5191650390625
1528;550.3853759765625
1529;550.2516479492188
1530;550.1178588867188
1531;549.9841918945312
1532;549.8505249023438
1533;549.7168579101562
1534;549.5831909179688
1535;549.4496459960938
1536;549.3160400390625
1537;549.1825561523438
1538;549.0490112304688
1539;548.91552734375
1540;548.7821044921875
1541;548.648681640625
1542;548.5153198242188
1543;548.3819580078125
1544;548.2485961914062
1545;548.1152954101562
1546;547.9820556640625
1547;547.8488159179688
1548;547.7156372070312
1549;547.5824584960938
1550;547.4492797851562
1551;547.3161010742188
1552;547.18310546875
1553;547.0499877929688
1554;546.9169311523438
1555;546.783935546875
1556;546.6509399414062
1557;546.5180053710938
1558;546.3850708007812
1559;546.2522583007812
1560;546.1193237304688
1561;545.9865112304688
1562;545.8536987304688
1563;545.7210083007812
1564;545.5881958007812
1565;545.4554443359375
1566;545.32275390625
1567;545.1900634765625
1568;545.0574951171875
1569;544.9248657226562
1570;544.792236328125
1571;544.6597290039062
1572;544.5272827148438
1573;544.394775390625
1574;544.2622680664062
1575;544.1298828125
1576;543.9974975585938
1577;543.8650512695312
1578;543.7327270507812
1579;543.6004028320312
1580;543.4681396484375
1581;543.3358764648438
1582;543.2036743164062
1583;543.0714111328125
1584;542.9392700195312
1585;542.80712890625
1586;542.675048828125
1587;542.54296875
1588;542.4108276367188
1589;542.27880859375
1590;542.1468505859375
1591;542.0148315429688
1592;541.8828735351562
1593;541.7509765625
1594;541.619140625
1595;541.4871826171875
1596;541.3554077148438
1597;541.2236328125
1598;541.091796875
1599;540.9600219726562
1600;540.8282470703125
1601;540.6966552734375
1602;540.56494140625
1603;540.4332885742188
1604;540.3016967773438
1605;540.1700439453125
1606;540.0385131835938
1607;539.9070434570312
1608;539.7755126953125
1609;539.6441040039062
1610;539.5126342773438
1611;539.3812255859375
1612;539.2498779296875
1613;539.1184692382812
1614;538.9871215820312
1615;538.8558349609375
1616;538.7245483398438
1617;538.5933227539062
1618;538.4620971679688
1619;538.3309326171875
1620;538.1997680664062
1621;538.0685424804688
1622;537.9374389648438
1623;537.8064575195312
1624;537.6753540039062
1625;537.5443115234375
1626;537.413330078125
1627;537.2823486328125
1628;537.1513671875
1629;537.0205078125
1630;536.8895874023438
1631;536.7587890625
1632;536.6279296875
1633;536.4971313476562
1634;536.3663330078125
1635;536.2356567382812
1636;536.1048583984375
1637;535.9741821289062
1638;535.8435668945312
1639;535.7129516601562
1640;535.5823364257812
1641;535.4517211914062
1642;535.3212280273438
1643;535.1906127929688
1644;535.0601806640625
1645;534.9296875
1646;534.7992553710938
1647;534.6688232421875
1648;534.5384521484375
1649;534.4080810546875
1650;534.2777709960938
1651;534.1473999023438
1652;534.0171508789062
1653;533.8869018554688
1654;533.7567138671875
1655;533.6265258789062
1656;533.4963989257812
1657;533.3662109375
1658;533.236083984375
1659;533.1060180664062
1660;532.9759521484375
1661;532.8458862304688
1662;532.7158813476562
1663;532.5859985351562
1664;532.4559936523438
1665;532.3260498046875
1666;532.1961669921875
1667;532.0663452148438
1668;531.9364624023438
1669;531.806640625
1670;531.6768188476562
1671;531.5470581054688
1672;531.4173583984375
1673;531.28759765625
1674;531.157958984375
1675;531.0282592773438
1676;530.8986206054688
1677;530.76904296875
1678;530.6394653320312
1679;530.5099487304688
1680;530.38037109375
1681;530.2509155273438
1682;530.1214599609375
1683;529.9920043945312
1684;529.8626098632812
1685;529.7332153320312
1686;529.6038208007812
1687;529.4744873046875
1688;529.34521484375
1689;529.2159423828125
1690;529.0867309570312
1691;528.9574584960938
1692;528.8282470703125
1693;528.6990356445312
1694;528.5699462890625
1695;528.4407958984375
1696;528.3117065429688
1697;528.1827392578125
1698;528.0536499023438
1699;527.9246826171875
1700;527.7957153320312
1701;527.6666870117188
1702;527.5377807617188
1703;527.4088745117188
1704;527.2800903320312
1705;527.1511840820312
1706;527.0223388671875
1707;526.8936157226562
1708;526.7647705078125
1709;526.6360473632812
1710;526.50732421875
1711;526.3786010742188
1712;526.2499389648438
1713;526.1213989257812
1714;525.9927368164062
1715;525.8641967773438
1716;525.7356567382812
1717;525.6070556640625
1718;525.4785766601562
1719;525.35009765625
1720;525.2216796875
1721;525.09326171875
1722;524.96484375
1723;524.8364868164062
1724;524.7080688476562
1725;524.5797729492188
1726;524.4515380859375
1727;524.3233032226562
1728;524.1950073242188
1729;524.0667724609375
1730;523.9385986328125
1731;523.8104248046875
1732;523.6823120117188
1733;523.55419921875
1734;523.4261474609375
1735;523.2980346679688
1736;523.1700439453125
1737;523.0420532226562
1738;522.9140625
1739;522.7860717773438
1740;522.6581420898438
1741;522.5303344726562
1742;522.4024047851562
1743;522.2745971679688
1744;522.1467895507812
1745;522.0189819335938
1746;521.8911743164062
1747;521.7634887695312
1748;521.6358032226562
1749;521.5081176757812
1750;521.3804321289062
1751;521.2527465820312
1752;521.1251831054688
1753;520.9976196289062
1754;520.8699951171875
1755;520.7425537109375
1756;520.6150512695312
1757;520.4874877929688
1758;520.3600463867188
1759;520.2326049804688
1760;520.1052856445312
1761;519.9779052734375
1762;519.8505249023438
1763;519.72314453125
1764;519.5958862304688
1765;519.4686279296875
1766;519.3414306640625
1767;519.2142333984375
1768;519.0869750976562
1769;518.9597778320312
1770;518.8326416015625
1771;518.7055053710938
1772;518.5784301757812
1773;518.4513549804688
1774;518.3243408203125
1775;518.1973266601562
1776;518.0702514648438
1777;517.9434204101562
1778;517.81640625
1779;517.6895141601562
1780;517.5626220703125
1781;517.4357299804688
1782;517.3089599609375
1783;517.18212890625
1784;517.0553588867188
1785;516.9285888671875
1786;516.8018188476562
1787;516.6751098632812
1788;516.5484008789062
1789;516.4218139648438
1790;516.2951049804688
1791;516.1685791015625
1792;516.0419921875
1793;515.9154663085938
1794;515.7889404296875
1795;515.6624145507812
1796;515.535888671875
1797;515.4093627929688
1798;515.2830200195312
1799;515.1566162109375
1800;515.0302734375
1801;514.9039306640625
1802;514.7775268554688
1803;514.6513061523438
1804;514.5250244140625
1805;514.3988037109375
1806;514.2725830078125
1807;514.1463623046875
1808;514.0202026367188
1809;513.8941040039062
1810;513.7679443359375
1811;513.6417846679688
1812;513.5157470703125
1813;513.3897094726562
1814;513.2637329101562
1815;513.1376342773438
1816;513.01171875
1817;512.8857421875
1818;512.7598266601562
1819;512.6339111328125
1820;512.5081176757812
1821;512.3822021484375
1822;512.2564086914062
1823;512.1306762695312
1824;512.0048217773438
1825;511.8790588378906
1826;511.75341796875
1827;511.627685546875
1828;511.50201416015625
1829;511.37640380859375
1830;511.2507019042969
1831;511.1251525878906
1832;510.9995422363281
1833;510.8740234375
1834;510.74853515625
1835;510.6230163574219
1836;510.4975280761719
1837;510.3720703125
1838;510.2466735839844
1839;510.12127685546875
1840;509.9958801269531
1841;509.8705749511719
1842;509.74530029296875
1843;509.6199645996094
1844;509.49468994140625
1845;509.3694152832031
1846;509.24420166015625
1847;509.11907958984375
1848;508.9939270019531
1849;508.8688049316406
1850;508.74365234375
1851;508.61859130859375
1852;508.4934997558594
1853;508.3684387207031
1854;508.2434387207031
1855;508.1184387207031
1856;507.9934997558594
1857;507.8685607910156
1858;507.74365234375
1859;507.61871337890625
1860;507.493896484375
1861;507.36907958984375
1862;507.24420166015625
1863;507.11944580078125
1864;506.9946594238281
1865;506.86993408203125
1866;506.74517822265625
1867;506.62054443359375
1868;506.4958190917969
1869;506.37115478515625
1870;506.24658203125
1871;506.1219177246094
1872;505.9973449707031
1873;505.8728332519531
1874;505.7482604980469
1875;505.6238098144531
1876;505.49932861328125
1877;505.3748474121094
1878;505.25048828125
1879;505.12603759765625
1880;505.0016784667969
1881;504.87738037109375
1882;504.75299072265625
1883;504.6286926269531
1884;504.5044250488281
1885;504.3801574707031
1886;504.25592041015625
1887;504.1317443847656
1888;504.0075988769531
1889;503.8833923339844
1890;503.75927734375
1891;503.63519287109375
1892;503.5110778808594
1893;503.3870544433594
1894;503.26300048828125
1895;503.1390075683594
1896;503.0150451660156
1897;502.89105224609375
1898;502.76715087890625
1899;502.6432189941406
1900;502.5193176269531
1901;502.3955078125
1902;502.2716979980469
1903;502.1478576660156
1904;502.0240783691406
1905;501.90032958984375
1906;501.7765808105469
1907;501.6528625488281
1908;501.5291442871094
1909;501.405517578125
1910;501.2818908691406
1911;501.15826416015625
1912;501.03466796875
1913;500.9111022949219
1914;500.7875671386719
1915;500.6640625
1916;500.5405578613281
1917;500.4170837402344
1918;500.29364013671875
1919;500.1701965332031
1920;500.04681396484375
1921;499.9234313964844
1922;499.8000793457031
1923;499.6767578125
1924;499.5534362792969
1925;499.43017578125
1926;499.30694580078125
1927;499.1837463378906
1928;499.0605163574219
1929;498.9372863769531
1930;498.8141784667969
1931;498.6910095214844
1932;498.56793212890625
1933;498.44482421875
1934;498.32177734375
1935;498.1987609863281
1936;498.07574462890625
1937;497.95269775390625
1938;497.8298034667969
1939;497.70684814453125
1940;497.58392333984375
1941;497.46099853515625
1942;497.3381652832031
1943;497.21533203125
1944;497.0924987792969
1945;496.9696960449219
1946;496.8469543457031
1947;496.7241516113281
1948;496.6014099121094
1949;496.4787292480469
1950;496.3560485839844
1951;496.2333984375
1952;496.11077880859375
1953;495.9881896972656
1954;495.8655090332031
1955;495.7429504394531
1956;495.6204528808594
1957;495.49798583984375
1958;495.37548828125
1959;495.2530212402344
1960;495.1305847167969
1961;495.0081481933594
1962;494.8857421875
1963;494.7633972167969
1964;494.64105224609375
1965;494.51873779296875
1966;494.39642333984375
1967;494.2741394042969
1968;494.15191650390625
1969;494.02972412109375
1970;493.907470703125
1971;493.7853088378906
1972;493.66314697265625
1973;493.541015625
1974;493.4189453125
1975;493.29681396484375
1976;493.1748046875
1977;493.052734375
1978;492.9306640625
1979;492.8088073730469
1980;492.686767578125
1981;492.5647888183594
1982;492.4429016113281
1983;492.3210144042969
1984;492.19915771484375
1985;492.0773010253906
1986;491.95550537109375
1987;491.8336486816406
1988;491.7119140625
1989;491.59014892578125
1990;491.4684143066406
1991;491.3466796875
1992;491.22503662109375
1993;491.1033630371094
1994;490.9817199707031
1995;490.860107421875
1996;490.7385559082031
1997;490.6169738769531
1998;490.4954528808594
1999;490.3738708496094
2000;490.25238037109375
2001;490.13092041015625
2002;490.0094909667969
2003;489.8880920410156
2004;489.76666259765625
2005;489.6452941894531
2006;489.52392578125
2007;489.4025573730469
2008;489.2812805175781
2009;489.15997314453125
2010;489.0387268066406
2011;488.91748046875
2012;488.79632568359375
2013;488.6750793457031
2014;488.5539245605469
2015;488.43280029296875
2016;488.31170654296875
2017;488.1905822753906
2018;488.0694885253906
2019;487.9484558105469
2020;487.8274230957031
2021;487.7063903808594
2022;487.5854187011719
2023;487.46441650390625
2024;487.3435363769531
2025;487.22259521484375
2026;487.1017761230469
2027;486.9808044433594
2028;486.86004638671875
2029;486.73919677734375
2030;486.6183776855469
2031;486.49761962890625
2032;486.37689208984375
2033;486.2561340332031
2034;486.1354675292969
2035;486.0148010253906
2036;485.89410400390625
2037;485.7734680175781
2038;485.6528625488281
2039;485.5322570800781
2040;485.41168212890625
2041;485.2911682128906
2042;485.1706237792969
2043;485.05010986328125
2044;484.9296875
2045;484.8092346191406
2046;484.6888122558594
2047;484.5683898925781
2048;484.4480895996094
2049;484.3276672363281
2050;484.2073669433594
2051;484.0870666503906
2052;483.96673583984375
2053;483.8464660644531
2054;483.72625732421875
2055;483.6059875488281
2056;483.4858093261719
2057;483.36566162109375
2058;483.2454528808594
2059;483.12542724609375
2060;483.00531005859375
2061;482.88519287109375
2062;482.76513671875
2063;482.64508056640625
2064;482.5250549316406
2065;482.4051208496094
2066;482.28515625
2067;482.1651916503906
2068;482.04522705078125
2069;481.9253845214844
2070;481.80548095703125
2071;481.68560791015625
2072;481.5658264160156
2073;481.4460144042969
2074;481.32623291015625
2075;481.20648193359375
2076;481.08673095703125
2077;480.9670104980469
2078;480.8473205566406
2079;480.7276916503906
2080;480.60797119140625
2081;480.4883728027344
2082;480.3688049316406
2083;480.2491760253906
2084;480.1296691894531
2085;480.0101013183594
2086;479.89056396484375
2087;479.7710876464844
2088;479.6516418457031
2089;479.5322265625
2090;479.41278076171875
2091;479.29339599609375
2092;479.1740417480469
2093;479.0546875
2094;478.9353332519531
2095;478.8160095214844
2096;478.69677734375
2097;478.5774841308594
2098;478.4582824707031
2099;478.3390808105469
2100;478.2198791503906
2101;478.1007385253906
2102;477.98150634765625
2103;477.8623962402344
2104;477.7433166503906
2105;477.6242370605469
2106;477.5052185058594
2107;477.38616943359375
2108;477.26715087890625
2109;477.1481628417969
2110;477.0292053222656
2111;476.91021728515625
2112;476.7913513183594
2113;476.6724548339844
2114;476.5535583496094
2115;476.4347229003906
2116;476.31585693359375
2117;476.1970520019531
2118;476.0782775878906
2119;475.95953369140625
2120;475.8407897949219
2121;475.7220764160156
2122;475.6034240722656
2123;475.48468017578125
2124;475.3660583496094
2125;475.2474060058594
2126;475.1288146972656
2127;475.01025390625
2128;474.89166259765625
2129;474.7731018066406
2130;474.6545715332031
2131;474.53607177734375
2132;474.4176330566406
2133;474.2991638183594
2134;474.18072509765625
2135;474.0623474121094
2136;473.9440002441406
2137;473.82562255859375
2138;473.7072448730469
2139;473.5889587402344
2140;473.4706726074219
2141;473.35247802734375
2142;473.2341613769531
2143;473.1159362792969
2144;472.9977111816406
2145;472.8795471191406
2146;472.7613830566406
2147;472.6432800292969
2148;472.5251159667969
2149;472.4070129394531
2150;472.2889709472656
2151;472.1708679199219
2152;472.0528869628906
2153;471.9349060058594
2154;471.81689453125
2155;471.6989440917969
2156;471.58099365234375
2157;471.4631042480469
2158;471.3451843261719
2159;471.227294921875
2160;471.10943603515625
2161;470.99163818359375
2162;470.8738098144531
2163;470.7560729980469
2164;470.63824462890625
2165;470.5205078125
2166;470.40283203125
2167;470.28515625
2168;470.16748046875
2169;470.0498352050781
2170;469.93218994140625
2171;469.8146057128906
2172;469.6969909667969
2173;469.5794372558594
2174;469.4619140625
2175;469.34442138671875
2176;469.2268981933594
2177;469.1094055175781
2178;468.99200439453125
2179;468.87457275390625
2180;468.7571716308594
2181;468.6398010253906
2182;468.52239990234375
2183;468.4050598144531
2184;468.2877502441406
2185;468.17047119140625
2186;468.05322265625
2187;467.9358825683594
2188;467.8187561035156
2189;467.7015075683594
2190;467.5843200683594
2191;467.4671325683594
2192;467.35003662109375
2193;467.23291015625
2194;467.11578369140625
2195;466.99871826171875
2196;466.8816223144531
2197;466.7646484375
2198;466.64764404296875
2199;466.5306091308594
2200;466.41363525390625
2201;466.2967224121094
2202;466.1797790527344
2203;466.06292724609375
2204;465.9460754394531
2205;465.8291931152344
2206;465.71240234375
2207;465.5955505371094
2208;465.4787902832031
2209;465.3620300292969
2210;465.2452697753906
2211;465.1285705566406
2212;465.0118103027344
2213;464.89520263671875
2214;464.77850341796875
2215;464.6618347167969
2216;464.54522705078125
2217;464.4286804199219
2218;464.31207275390625
2219;464.1955261230469
2220;464.0789489746094
2221;463.96246337890625
2222;463.8459777832031
2223;463.72955322265625
2224;463.61309814453125
2225;463.49664306640625
2226;463.38031005859375
2227;463.2638854980469
2228;463.14752197265625
2229;463.03125
2230;462.9148864746094
2231;462.798583984375
2232;462.6823425292969
2233;462.5661315917969
2234;462.4498596191406
2235;462.3336486816406
2236;462.2174987792969
2237;462.1013488769531
2238;461.9852600097656
2239;461.8691101074219
2240;461.7530212402344
2241;461.6369323730469
2242;461.52093505859375
2243;461.4049377441406
2244;461.2889099121094
2245;461.17291259765625
2246;461.0569152832031
2247;460.94097900390625
2248;460.8250427246094
2249;460.7091979980469
2250;460.59332275390625
2251;460.47747802734375
2252;460.36163330078125
2253;460.245849609375
2254;460.1300354003906
2255;460.0143127441406
2256;459.8985900878906
2257;459.7828063964844
2258;459.6670837402344
2259;459.5514221191406
2260;459.4357604980469
2261;459.3200988769531
2262;459.20452880859375
2263;459.0888977050781
2264;458.9733581542969
2265;458.8578186035156
2266;458.74224853515625
2267;458.6267395019531
2268;458.5112609863281
2269;458.3957824707031
2270;458.28033447265625
2271;458.1648864746094
2272;458.0495300292969
2273;457.93414306640625
2274;457.8187561035156
2275;457.7033996582031
2276;457.5881042480469
2277;457.4728088378906
2278;457.3575744628906
2279;457.24224853515625
2280;457.1270446777344
2281;457.0118713378906
2282;456.8966369628906
2283;456.781494140625
2284;456.66632080078125
2285;456.55120849609375
2286;456.4361877441406
2287;456.3210754394531
2288;456.2060241699219
2289;456.0909729003906
2290;455.9759216308594
2291;455.8609924316406
2292;455.7460021972656
2293;455.63104248046875
2294;455.51611328125
2295;455.4012145996094
2296;455.28631591796875
2297;455.17144775390625
2298;455.05657958984375
2299;454.9418029785156
2300;454.8269958496094
2301;454.7121887207031
2302;454.59747314453125
2303;454.4826965332031
2304;454.3680114746094
2305;454.2532653808594
2306;454.13861083984375
2307;454.02392578125
2308;453.90936279296875
2309;453.7947082519531
2310;453.68011474609375
2311;453.5655822753906
2312;453.4510192871094
2313;453.33648681640625
2314;453.2219543457031
2315;453.10748291015625
2316;452.9930114746094
2317;452.87860107421875
2318;452.76416015625
2319;452.6497497558594
2320;452.535400390625
2321;452.4211120605469
2322;452.30670166015625
2323;452.1923828125
2324;452.0781555175781
2325;451.96380615234375
2326;451.849609375
2327;451.7353515625
2328;451.6211242675781
2329;451.5069274902344
2330;451.3927917480469
2331;451.2785949707031
2332;451.16448974609375
2333;451.05035400390625
2334;450.9363098144531
2335;450.822265625
2336;450.708251953125
2337;450.59423828125
2338;450.480224609375
2339;450.3662109375
2340;450.25225830078125
2341;450.13836669921875
2342;450.0244140625
2343;449.91058349609375
2344;449.79669189453125
2345;449.68280029296875
2346;449.5690002441406
2347;449.4552307128906
2348;449.34136962890625
2349;449.22760009765625
2350;449.1138610839844
2351;449.00018310546875
2352;448.886474609375
2353;448.7727966308594
2354;448.65911865234375
2355;448.54547119140625
2356;448.4318542480469
2357;448.3182678222656
2358;448.20465087890625
2359;448.0910949707031
2360;447.97760009765625
2361;447.86407470703125
2362;447.75054931640625
2363;447.6371154785156
2364;447.5236511230469
2365;447.41021728515625
2366;447.2968444824219
2367;447.1833801269531
2368;447.0700378417969
2369;446.95672607421875
2370;446.8434143066406
2371;446.7300720214844
2372;446.6167907714844
2373;446.5035705566406
2374;446.39031982421875
2375;446.2770690917969
2376;446.16387939453125
2377;446.05072021484375
2378;445.9375305175781
2379;445.8243713378906
2380;445.7112731933594
2381;445.59820556640625
2382;445.485107421875
2383;445.3720397949219
2384;445.2590026855469
2385;445.14599609375
2386;445.03302001953125
2387;444.9200744628906
2388;444.80712890625
2389;444.6941833496094
2390;444.581298828125
2391;444.4684143066406
2392;444.35552978515625
2393;444.24267578125
2394;444.1298828125
2395;444.0170593261719
2396;443.904296875
2397;443.79150390625
2398;443.67877197265625
2399;443.56597900390625
2400;443.4533386230469
2401;443.3406677246094
2402;443.2279968261719
2403;443.1153869628906
2404;443.0027770996094
2405;442.89013671875
2406;442.7776184082031
2407;442.6650085449219
2408;442.5524597167969
2409;442.43994140625
2410;442.3274230957031
2411;442.2149963378906
2412;442.1025390625
2413;441.9900817871094
2414;441.877685546875
2415;441.7652893066406
2416;441.6529235839844
2417;441.5406188964844
2418;441.42828369140625
2419;441.3159484863281
2420;441.20367431640625
2421;441.0914611816406
2422;440.9792175292969
2423;440.8669128417969
2424;440.7547302246094
2425;440.642578125
2426;440.5303649902344
2427;440.4182434082031
2428;440.30615234375
2429;440.1940612792969
2430;440.08197021484375
2431;439.9699401855469
2432;439.85791015625
2433;439.7458801269531
2434;439.63385009765625
2435;439.52191162109375
2436;439.40997314453125
2437;439.2980041503906
2438;439.18609619140625
2439;439.07421875
2440;438.96234130859375
2441;438.85052490234375
2442;438.7386779785156
2443;438.6268005371094
2444;438.5150451660156
2445;438.40325927734375
2446;438.29150390625
2447;438.17974853515625
2448;438.0680847167969
2449;437.9563903808594
2450;437.8447265625
2451;437.7330627441406
2452;437.6214294433594
2453;437.509765625
2454;437.39825439453125
2455;437.28668212890625
2456;437.17510986328125
2457;437.0636291503906
2458;436.95208740234375
2459;436.8406066894531
2460;436.7291564941406
2461;436.6177062988281
2462;436.50628662109375
2463;436.3948669433594
2464;436.2834777832031
2465;436.1721496582031
2466;436.060791015625
2467;435.9494934082031
2468;435.8381652832031
2469;435.7268981933594
2470;435.61566162109375
2471;435.5044250488281
2472;435.3931579589844
2473;435.281982421875
2474;435.17083740234375
2475;435.0596618652344
2476;434.9485168457031
2477;434.83740234375
2478;434.726318359375
2479;434.6152648925781
2480;434.5041809082031
2481;434.39312744140625
2482;434.2821350097656
2483;434.1711120605469
2484;434.0602111816406
2485;433.94921875
2486;433.8382873535156
2487;433.7273254394531
2488;433.616455078125
2489;433.5055847167969
2490;433.3947448730469
2491;433.283935546875
2492;433.173095703125
2493;433.0622863769531
2494;432.9515075683594
2495;432.84075927734375
2496;432.7300109863281
2497;432.61932373046875
2498;432.50860595703125
2499;432.39794921875
2500;432.2873229980469
2501;432.17669677734375
2502;432.0660705566406
2503;431.9554138183594
2504;431.8449401855469
2505;431.734375
2506;431.6238098144531
2507;431.5132751464844
2508;431.40283203125
2509;431.2923278808594
2510;431.181884765625
2511;431.0714416503906
2512;430.9610900878906
2513;430.85064697265625
2514;430.74029541015625
2515;430.62994384765625
2516;430.5196228027344
2517;430.4093322753906
2518;430.2990417480469
2519;430.1887512207031
2520;430.07855224609375
2521;429.9682922363281
2522;429.85809326171875
2523;429.7478942871094
2524;429.63775634765625
2525;429.527587890625
2526;429.41748046875
2527;429.307373046875
2528;429.1972961425781
2529;429.0871887207031
2530;428.9772033691406
2531;428.86712646484375
2532;428.7571105957031
2533;428.64715576171875
2534;428.53717041015625
2535;428.42724609375
2536;428.31732177734375
2537;428.2073669433594
2538;428.0975036621094
2539;427.9876403808594
2540;427.8777770996094
2541;427.76800537109375
2542;427.6581726074219
2543;427.54840087890625
2544;427.4386291503906
2545;427.3288879394531
2546;427.21917724609375
2547;427.10943603515625
2548;426.9997253417969
2549;426.89013671875
2550;426.78045654296875
2551;426.67083740234375
2552;426.5612487792969
2553;426.45166015625
2554;426.34210205078125
2555;426.2325134277344
2556;426.123046875
2557;426.0135192871094
2558;425.9040222167969
2559;425.7945861816406
2560;425.68511962890625
2561;425.5757141113281
2562;425.46630859375
2563;425.3569030761719
2564;425.2475280761719
2565;425.13818359375
2566;425.02886962890625
2567;424.9195251464844
2568;424.8102722167969
2569;424.7010192871094
2570;424.5917663574219
2571;424.4825134277344
2572;424.3733215332031
2573;424.26416015625
2574;424.1549987792969
2575;424.0458679199219
2576;423.93670654296875
2577;423.8276062011719
2578;423.7184753417969
2579;423.60943603515625
2580;423.5003356933594
2581;423.3913879394531
2582;423.2823791503906
2583;423.1733703613281
2584;423.0644226074219
2585;422.9554748535156
2586;422.8465270996094
2587;422.73760986328125
2588;422.6287536621094
2589;422.5198669433594
2590;422.4110412597656
2591;422.3022155761719
2592;422.19342041015625
2593;422.0846252441406
2594;421.9758605957031
2595;421.8670959472656
2596;421.7583312988281
2597;421.649658203125
2598;421.54095458984375
2599;421.4322814941406
2600;421.32366943359375
2601;421.21502685546875
2602;421.10638427734375
2603;420.9978332519531
2604;420.8891906738281
2605;420.78070068359375
2606;420.6721496582031
2607;420.5636291503906
2608;420.45513916015625
2609;420.3466796875
2610;420.23822021484375
2611;420.1297912597656
2612;420.0213928222656
2613;419.9129943847656
2614;419.80462646484375
2615;419.6962890625
2616;419.58795166015625
2617;419.4796447753906
2618;419.3713073730469
2619;419.2630310058594
2620;419.15478515625
2621;419.04656982421875
2622;418.9383239746094
2623;418.83013916015625
2624;418.7219543457031
2625;418.6138000488281
2626;418.5056457519531
2627;418.3975524902344
2628;418.28948974609375
2629;418.1813659667969
2630;418.07330322265625
2631;417.96533203125
2632;417.8572692871094
2633;417.749267578125
2634;417.64129638671875
2635;417.53338623046875
2636;417.4253845214844
2637;417.3175354003906
2638;417.2096252441406
2639;417.1017150878906
2640;416.993896484375
2641;416.8860168457031
2642;416.7782287597656
2643;416.67041015625
2644;416.5626525878906
2645;416.454833984375
2646;416.34710693359375
2647;416.2393493652344
2648;416.1316833496094
2649;416.02398681640625
2650;415.91632080078125
2651;415.8086853027344
2652;415.70111083984375
2653;415.5934753417969
2654;415.4858703613281
2655;415.37835693359375
2656;415.2707824707031
2657;415.1632385253906
2658;415.05572509765625
2659;414.9482421875
2660;414.84075927734375
2661;414.73333740234375
2662;414.62591552734375
2663;414.51849365234375
2664;414.4111022949219
2665;414.3037109375
2666;414.19635009765625
2667;414.08905029296875
2668;413.9817199707031
2669;413.87445068359375
2670;413.76715087890625
2671;413.659912109375
2672;413.55267333984375
2673;413.4454650878906
2674;413.3382873535156
2675;413.2311096191406
2676;413.1238708496094
2677;413.0168151855469
2678;412.90966796875
2679;412.80255126953125
2680;412.6954650878906
2681;412.58843994140625
2682;412.48138427734375
2683;412.3743591308594
2684;412.2673645019531
2685;412.1603698730469
2686;412.0534362792969
2687;411.9465026855469
2688;411.839599609375
2689;411.732666015625
2690;411.6257629394531
2691;411.5189514160156
2692;411.4120788574219
2693;411.30523681640625
2694;411.19842529296875
2695;411.0916442871094
2696;410.9848937988281
2697;410.8781433105469
2698;410.7713928222656
2699;410.6647033691406
2700;410.55804443359375
2701;410.4513244628906
2702;410.3447265625
2703;410.2380676269531
2704;410.13140869140625
2705;410.02484130859375
2706;409.91827392578125
2707;409.8117370605469
2708;409.7051696777344
2709;409.59869384765625
2710;409.4921875
2711;409.3857116699219
2712;409.27923583984375
2713;409.17279052734375
2714;409.0663757324219
2715;408.9599609375
2716;408.85357666015625
2717;408.7472839355469
2718;408.6408996582031
2719;408.53460693359375
2720;408.42828369140625
2721;408.3219909667969
2722;408.2156677246094
2723;408.1094665527344
2724;408.0032043457031
2725;407.89703369140625
2726;407.7908020019531
2727;407.6846618652344
2728;407.57855224609375
2729;407.472412109375
2730;407.36627197265625
2731;407.26019287109375
2732;407.15411376953125
2733;407.0480651855469
2734;406.9420471191406
2735;406.83599853515625
2736;406.73004150390625
2737;406.6240539550781
2738;406.51806640625
2739;406.4121398925781
2740;406.30621337890625
2741;406.2003479003906
2742;406.0944519042969
2743;405.98858642578125
2744;405.88275146484375
2745;405.77691650390625
2746;405.671142578125
2747;405.56536865234375
2748;405.45953369140625
2749;405.3538513183594
2750;405.2481384277344
2751;405.14239501953125
2752;405.0367126464844
2753;404.9310607910156
2754;404.8254089355469
2755;404.7197570800781
2756;404.61419677734375
2757;404.5085754394531
2758;404.40301513671875
2759;404.29742431640625
2760;404.1919250488281
2761;404.08642578125
2762;403.9809265136719
2763;403.87542724609375
2764;403.76995849609375
2765;403.6645202636719
2766;403.5591125488281
2767;403.4537048339844
2768;403.34832763671875
2769;403.242919921875
2770;403.13763427734375
2771;403.03228759765625
2772;402.9269714355469
2773;402.82171630859375
2774;402.7164001464844
2775;402.6111755371094
2776;402.50592041015625
2777;402.4007873535156
2778;402.2955627441406
2779;402.1903991699219
2780;402.0852355957031
2781;401.9801330566406
2782;401.8749694824219
2783;401.7698669433594
2784;401.6648254394531
2785;401.55975341796875
2786;401.4547424316406
2787;401.3497009277344
2788;401.24468994140625
2789;401.13970947265625
2790;401.0347595214844
2791;400.9298400878906
2792;400.8249206542969
2793;400.7200012207031
2794;400.6150817871094
2795;400.51025390625
2796;400.4054260253906
2797;400.3005676269531
2798;400.1957702636719
2799;400.0909729003906
2800;399.9861755371094
2801;399.8814392089844
2802;399.7767028808594
2803;399.6720275878906
2804;399.56732177734375
2805;399.462646484375
2806;399.35797119140625
2807;399.25335693359375
2808;399.1487121582031
2809;399.0441589355469
2810;398.93951416015625
2811;398.83502197265625
2812;398.7304382324219
2813;398.62591552734375
2814;398.52142333984375
2815;398.41693115234375
2816;398.3124694824219
2817;398.2080078125
2818;398.10357666015625
2819;397.99920654296875
2820;397.8948059082031
2821;397.7903747558594
2822;397.68603515625
2823;397.5817565917969
2824;397.47747802734375
2825;397.3731384277344
2826;397.2688903808594
2827;397.1645812988281
2828;397.06036376953125
2829;396.95611572265625
2830;396.8518981933594
2831;396.7477111816406
2832;396.6435546875
2833;396.5393981933594
2834;396.4353332519531
2835;396.3312072753906
2836;396.22711181640625
2837;396.123046875
2838;396.01904296875
2839;395.91497802734375
2840;395.81097412109375
2841;395.7070007324219
2842;395.6029968261719
2843;395.49908447265625
2844;395.3951110839844
2845;395.2912292480469
2846;395.18731689453125
2847;395.08343505859375
2848;394.97955322265625
2849;394.875732421875
2850;394.77191162109375
2851;394.6681213378906
2852;394.5643005371094
2853;394.46051025390625
2854;394.3567810058594
2855;394.2530822753906
2856;394.14935302734375
2857;394.045654296875
2858;393.9419860839844
2859;393.8383483886719
2860;393.73468017578125
2861;393.6310729980469
2862;393.52752685546875
2863;393.42388916015625
2864;393.3203430175781
2865;393.216796875
2866;393.1133117675781
2867;393.0097961425781
2868;392.90631103515625
2869;392.80279541015625
2870;392.69940185546875
2871;392.595947265625
2872;392.4925842285156
2873;392.38916015625
2874;392.28582763671875
2875;392.18243408203125
2876;392.0791015625
2877;391.9757995605469
2878;391.87249755859375
2879;391.76922607421875
2880;391.66595458984375
2881;391.562744140625
2882;391.4595031738281
2883;391.3562927246094
2884;391.2531433105469
2885;391.14996337890625
2886;391.04681396484375
2887;390.9436950683594
2888;390.840576171875
2889;390.7375183105469
2890;390.6344299316406
2891;390.5314025878906
2892;390.4283752441406
2893;390.3253479003906
2894;390.22235107421875
2895;390.1193542480469
2896;390.016357421875
2897;389.9134216308594
2898;389.8105163574219
2899;389.70758056640625
2900;389.6047058105469
2901;389.5018615722656
2902;389.39898681640625
2903;389.2961730957031
2904;389.193359375
2905;389.0906066894531
2906;388.98779296875
2907;388.88507080078125
2908;388.78228759765625
2909;388.67962646484375
2910;388.576904296875
2911;388.4742126464844
2912;388.3715515136719
2913;388.2688903808594
2914;388.1662902832031
2915;388.0636901855469
2916;387.9610900878906
2917;387.8585510253906
2918;387.7559509277344
2919;387.6534118652344
2920;387.5509338378906
2921;387.44842529296875
2922;387.3459777832031
2923;387.2434997558594
2924;387.1410827636719
2925;387.03863525390625
2926;386.9362487792969
2927;386.8338928222656
2928;386.73150634765625
2929;386.629150390625
2930;386.5268249511719
2931;386.42449951171875
2932;386.32220458984375
2933;386.219970703125
2934;386.1177062988281
2935;386.0154724121094
2936;385.91326904296875
2937;385.8110656738281
2938;385.7088928222656
2939;385.6067199707031
2940;385.50457763671875
2941;385.4024963378906
2942;385.30035400390625
2943;385.1982421875
2944;385.09619140625
2945;384.9941711425781
2946;384.8921203613281
2947;384.79010009765625
2948;384.6880798339844
2949;384.5861511230469
2950;384.48419189453125
2951;384.3822326660156
2952;384.2803039550781
2953;384.1784362792969
2954;384.0765075683594
2955;383.97467041015625
2956;383.8728332519531
2957;383.77099609375
2958;383.669189453125
2959;383.5673828125
2960;383.4656066894531
2961;383.3638610839844
2962;383.26214599609375
2963;383.1604309082031
2964;383.0587463378906
2965;382.95703125
2966;382.85540771484375
2967;382.7537536621094
2968;382.652099609375
2969;382.5505065917969
2970;382.4489440917969
2971;382.34735107421875
2972;382.2458190917969
2973;382.1443176269531
2974;382.0427551269531
2975;381.9413146972656
2976;381.83984375
2977;381.73834228515625
2978;381.6369323730469
2979;381.5354919433594
2980;381.43408203125
2981;381.33270263671875
2982;381.2313537597656
2983;381.1299743652344
2984;381.0286560058594
2985;380.9273986816406
2986;380.8260803222656
2987;380.7247619628906
2988;380.6235046386719
2989;380.5222473144531
2990;380.4210510253906
2991;380.3198547363281
2992;380.21868896484375
2993;380.11749267578125
2994;380.0163879394531
2995;379.9152526855469
2996;379.81414794921875
2997;379.71307373046875
2998;379.6119689941406
2999;379.5109558105469
