;loss
0;882.6481323242188
1;882.3541870117188
2;882.0148315429688
3;881.61962890625
4;881.2243041992188
5;880.8290405273438
6;880.4336547851562
7;880.0382690429688
8;879.6427612304688
9;879.2470703125
10;878.8512573242188
11;878.455078125
12;878.05810546875
13;877.6599731445312
14;877.2625122070312
15;876.8621215820312
16;876.4636840820312
17;876.0614624023438
18;875.6619262695312
19;875.2619018554688
20;874.861328125
21;874.4601440429688
22;874.0537719726562
23;873.6469116210938
24;873.2392578125
25;872.830810546875
26;872.421875
27;872.01708984375
28;871.6067504882812
29;871.20068359375
30;870.7892456054688
31;870.3771362304688
32;869.96923828125
33;869.5607299804688
34;869.1515502929688
35;868.7371215820312
36;868.3268432617188
37;867.9113159179688
38;867.4953002929688
39;867.0830688476562
40;866.666015625
41;866.248291015625
42;865.8300170898438
43;865.4154663085938
44;864.9961547851562
45;864.5762329101562
46;864.1559448242188
47;863.739013671875
48;863.3175659179688
49;862.8955688476562
50;862.47314453125
51;862.0501098632812
52;861.6266479492188
53;861.2063598632812
54;860.78564453125
55;860.3606567382812
56;859.9352416992188
57;859.5094604492188
58;859.0830078125
59;858.65625
60;858.232177734375
61;857.8043823242188
62;857.37939453125
63;856.95068359375
64;856.5247192382812
65;856.0950317382812
66;855.6680297851562
67;855.2406616210938
68;854.8096313476562
69;854.3783569335938
70;853.9495239257812
71;853.5202026367188
72;853.0877075195312
73;852.6546020507812
74;852.22412109375
75;851.7931518554688
76;851.35888671875
77;850.9270629882812
78;850.4921875
79;850.0568237304688
80;849.623779296875
81;849.1904296875
82;848.7540893554688
83;848.3173828125
84;847.88037109375
85;847.443115234375
86;847.00537109375
87;846.56982421875
88;846.1315307617188
89;845.6952514648438
90;845.2586059570312
91;844.8215942382812
92;844.382080078125
93;843.9445190429688
94;843.50439453125
95;843.0662231445312
96;842.6277465820312
97;842.1868286132812
98;841.74560546875
99;841.3063354492188
100;840.8668823242188
101;840.4274291992188
102;839.98779296875
103;839.5477905273438
104;839.1076049804688
105;838.6652221679688
106;838.22265625
107;837.7817993164062
108;837.3388061523438
109;836.8956909179688
110;836.4541625976562
111;836.0125122070312
112;835.5707397460938
113;835.1267700195312
114;834.6828002929688
115;834.2384643554688
116;833.7958374023438
117;833.3512573242188
118;832.9064331054688
119;832.4631958007812
120;832.01806640625
121;831.5728149414062
122;831.1292114257812
123;830.6836547851562
124;830.2379760742188
125;829.7920532226562
126;829.3460083007812
127;828.9015502929688
128;828.4552612304688
129;828.0088500976562
130;827.5623168945312
131;827.1172485351562
132;826.6720581054688
133;826.2252807617188
134;825.7782592773438
135;825.3327026367188
136;824.8855590820312
137;824.4382934570312
138;823.992431640625
139;823.54638671875
140;823.100341796875
141;822.6526489257812
142;822.2048950195312
143;821.757080078125
144;821.3241577148438
145;820.8997192382812
146;820.4765014648438
147;820.05419921875
148;819.6327514648438
149;819.2107543945312
150;818.7894897460938
151;818.3701171875
152;817.949951171875
153;817.5304565429688
154;817.1121215820312
155;816.6995239257812
156;816.2879028320312
157;815.8781127929688
158;815.4690551757812
159;815.0593872070312
160;814.6503295898438
161;814.2428588867188
162;813.8345336914062
163;813.4267578125
164;813.0193481445312
165;812.6122436523438
166;812.2053833007812
167;811.7987670898438
168;811.3923950195312
169;810.9873657226562
170;810.58251953125
171;810.1768188476562
172;809.7711791992188
173;809.3657836914062
174;808.9616088867188
175;808.556396484375
176;808.1525268554688
177;807.7485961914062
178;807.3438110351562
179;806.9391479492188
180;806.5346069335938
181;806.1310424804688
182;805.7277221679688
183;805.3234252929688
184;804.9191284179688
185;804.514892578125
186;804.1107788085938
187;803.7067260742188
188;803.3036499023438
189;802.8997192382812
190;802.495849609375
191;802.092041015625
192;801.6882934570312
193;801.2854614257812
194;800.8828125
195;800.4801635742188
196;800.0764770507812
197;799.6730346679688
198;799.2695922851562
199;798.8671264648438
200;798.4646606445312
201;798.0613403320312
202;797.6581420898438
203;797.255859375
204;796.8536987304688
205;796.4505004882812
206;796.0475463867188
207;795.6447143554688
208;795.24267578125
209;794.8407592773438
210;794.4387817382812
211;794.0361328125
212;793.6334838867188
213;793.2308959960938
214;792.8291625976562
215;792.4275512695312
216;792.025146484375
217;791.622802734375
218;791.221435546875
219;790.8200073242188
220;790.4179077148438
221;790.0158081054688
222;789.6138305664062
223;789.2128295898438
224;788.81103515625
225;788.4099731445312
226;788.0092163085938
227;787.6074829101562
228;787.2068481445312
229;786.805419921875
230;786.4048461914062
231;786.0036010742188
232;785.6023559570312
233;785.2013549804688
234;784.80029296875
235;784.3994140625
236;783.99853515625
237;783.5985717773438
238;783.19873046875
239;782.798095703125
240;782.3983764648438
241;781.9979858398438
242;781.5978393554688
243;781.1983032226562
244;780.7990112304688
245;780.3989868164062
246;779.9992065429688
247;779.5994262695312
248;779.1997680664062
249;778.80029296875
250;778.4008178710938
251;778.00146484375
252;777.602294921875
253;777.203125
254;776.8041381835938
255;776.4052734375
256;776.0071411132812
257;775.6090698242188
258;775.2106323242188
259;774.8124389648438
260;774.41455078125
261;774.0170288085938
262;773.6194458007812
263;773.2221069335938
264;772.8248901367188
265;772.427734375
266;772.0314331054688
267;771.634521484375
268;771.2378540039062
269;770.841796875
270;770.44580078125
271;770.0499877929688
272;769.6549682617188
273;769.260009765625
274;768.8646850585938
275;768.4694213867188
276;768.07421875
277;767.6798706054688
278;767.2854614257812
279;766.890625
280;766.49658203125
281;766.1019897460938
282;765.7080688476562
283;765.3137817382812
284;764.9270629882812
285;764.5508422851562
286;764.1755981445312
287;763.8049926757812
288;763.4381713867188
289;763.0724487304688
290;762.7077026367188
291;762.3442993164062
292;761.9812622070312
293;761.6189575195312
294;761.263671875
295;760.9119262695312
296;760.5612182617188
297;760.21142578125
298;759.8619995117188
299;759.5133666992188
300;759.1653442382812
301;758.8179321289062
302;758.4713745117188
303;758.1253051757812
304;757.7802734375
305;757.4352416992188
306;757.0906372070312
307;756.7463989257812
308;756.402587890625
309;756.0591430664062
310;755.7164916992188
311;755.3735961914062
312;755.031005859375
313;754.6886596679688
314;754.3464965820312
315;754.0046997070312
316;753.6630249023438
317;753.3219604492188
318;752.9811401367188
319;752.640380859375
320;752.2998046875
321;751.9595336914062
322;751.6188354492188
323;751.2787475585938
324;750.9382934570312
325;750.5980834960938
326;750.2579956054688
327;749.9182739257812
328;749.5787963867188
329;749.239013671875
330;748.8992309570312
331;748.56005859375
332;748.2210083007812
333;747.8820190429688
334;747.54296875
335;747.2037963867188
336;746.864501953125
337;746.5254516601562
338;746.1863403320312
339;745.847412109375
340;745.508544921875
341;745.169677734375
342;744.8313598632812
343;744.4929809570312
344;744.1548461914062
345;743.8163452148438
346;743.4782104492188
347;743.1397094726562
348;742.8013305664062
349;742.4630737304688
350;742.1251831054688
351;741.787353515625
352;741.4491577148438
353;741.111083984375
354;740.7734375
355;740.435546875
356;740.0997924804688
357;739.7637329101562
358;739.427978515625
359;739.092529296875
360;738.7571411132812
361;738.4220581054688
362;738.0873413085938
363;737.7523803710938
364;737.4176635742188
365;737.0829467773438
366;736.748291015625
367;736.413818359375
368;736.0794067382812
369;735.7451171875
370;735.410888671875
371;735.0771484375
372;734.7429809570312
373;734.4093627929688
374;734.07568359375
375;733.7418823242188
376;733.407958984375
377;733.0740356445312
378;732.74072265625
379;732.406982421875
380;732.07373046875
381;731.7404174804688
382;731.4067993164062
383;731.0733032226562
384;730.73974609375
385;730.4063110351562
386;730.0729370117188
387;729.7395629882812
388;729.40625
389;729.0733032226562
390;728.7400512695312
391;728.4069213867188
392;728.07373046875
393;727.7406616210938
394;727.4075317382812
395;727.0748901367188
396;726.7417602539062
397;726.4091796875
398;726.0762329101562
399;725.7433471679688
400;725.4108276367188
401;725.0783081054688
402;724.7455444335938
403;724.4127807617188
404;724.0803833007812
405;723.748046875
406;723.4153442382812
407;723.0827026367188
408;722.7501831054688
409;722.41748046875
410;722.0850219726562
411;721.7525024414062
412;721.4201049804688
413;721.087890625
414;720.755859375
415;720.4235229492188
416;720.0911254882812
417;719.7588500976562
418;719.426513671875
419;719.0942993164062
420;718.7620239257812
421;718.4298706054688
422;718.0977172851562
423;717.765869140625
424;717.4336547851562
425;717.1015625
426;716.7693481445312
427;716.4373168945312
428;716.1052856445312
429;715.7732543945312
430;715.4412231445312
431;715.1095581054688
432;714.7775268554688
433;714.4459838867188
434;714.1142578125
435;713.7824096679688
436;713.4503784179688
437;713.118408203125
438;712.7868041992188
439;712.4550170898438
440;712.123046875
441;711.7914428710938
442;711.4598999023438
443;711.1279907226562
444;710.79638671875
445;710.4645385742188
446;710.1326293945312
447;709.80078125
448;709.46923828125
449;709.1373901367188
450;708.8056640625
451;708.4743041992188
452;708.1425170898438
453;707.8107299804688
454;707.4794311523438
455;707.14794921875
456;706.8162231445312
457;706.484619140625
458;706.1530151367188
459;705.8213500976562
460;705.48974609375
461;705.1581420898438
462;704.8267211914062
463;704.4951171875
464;704.16357421875
465;703.8319702148438
466;703.5001831054688
467;703.168701171875
468;702.8369750976562
469;702.505126953125
470;702.17333984375
471;701.8416137695312
472;701.509765625
473;701.1780395507812
474;700.8461303710938
475;700.5143432617188
476;700.1825561523438
477;699.8504028320312
478;699.5182495117188
479;699.18603515625
480;698.85400390625
481;698.5219116210938
482;698.189697265625
483;697.8580932617188
484;697.529296875
485;697.20068359375
486;696.8721313476562
487;696.5437622070312
488;696.2156372070312
489;695.8876953125
490;695.5602416992188
491;695.2324829101562
492;694.9049682617188
493;694.5774536132812
494;694.2500610351562
495;693.9227905273438
496;693.5958862304688
497;693.2688598632812
498;692.9419555664062
499;692.6149291992188
500;692.287841796875
501;691.9609375
502;691.6342163085938
503;691.315185546875
504;691.0012817382812
505;690.688232421875
506;690.375732421875
507;690.063720703125
508;689.75244140625
509;689.4415893554688
510;689.1315307617188
511;688.8219604492188
512;688.5131225585938
513;688.204345703125
514;687.89599609375
515;687.5880737304688
516;687.2805786132812
517;686.9734497070312
518;686.6665649414062
519;686.3598022460938
520;686.0534057617188
521;685.7472534179688
522;685.4413452148438
523;685.13525390625
524;684.82958984375
525;684.5244140625
526;684.2192993164062
527;683.9144897460938
528;683.6098022460938
529;683.3052368164062
530;683.0034790039062
531;682.7039184570312
532;682.4046020507812
533;682.1056518554688
534;681.8070068359375
535;681.5087280273438
536;681.2108764648438
537;680.9132690429688
538;680.6162109375
539;680.3193359375
540;680.0225219726562
541;679.7258911132812
542;679.4296264648438
543;679.1339721679688
544;678.83837890625
545;678.54296875
546;678.2476806640625
547;677.9528198242188
548;677.6581420898438
549;677.3635864257812
550;677.069091796875
551;676.7747192382812
552;676.4802856445312
553;676.1859741210938
554;675.8919067382812
555;675.5977172851562
556;675.3035888671875
557;675.0097045898438
558;674.7160034179688
559;674.4222412109375
560;674.1283569335938
561;673.8348388671875
562;673.5411987304688
563;673.24755859375
564;672.9548950195312
565;672.6634521484375
566;672.3722534179688
567;672.0811157226562
568;671.7902221679688
569;671.4993896484375
570;671.2086791992188
571;670.9180297851562
572;670.6277465820312
573;670.3373413085938
574;670.0469360351562
575;669.7569580078125
576;669.4674682617188
577;669.1780395507812
578;668.8889770507812
579;668.5997924804688
580;668.3108520507812
581;668.0217895507812
582;667.7328491210938
583;667.4439086914062
584;667.155029296875
585;666.8663940429688
586;666.5775756835938
587;666.288818359375
588;665.9996948242188
589;665.710693359375
590;665.421630859375
591;665.132568359375
592;664.8435668945312
593;664.554443359375
594;664.2652587890625
595;663.97607421875
596;663.6868286132812
597;663.3976440429688
598;663.1084594726562
599;662.819091796875
600;662.5297241210938
601;662.2401733398438
602;661.951904296875
603;661.6648559570312
604;661.3779296875
605;661.0911254882812
606;660.8041381835938
607;660.5178833007812
608;660.2321166992188
609;659.9462890625
610;659.6613159179688
611;659.3828125
612;659.10498046875
613;658.827880859375
614;658.5512084960938
615;658.2749633789062
616;657.9991455078125
617;657.7236938476562
618;657.4487915039062
619;657.1741333007812
620;656.8998413085938
621;656.6260375976562
622;656.3525390625
623;656.0792846679688
624;655.8062133789062
625;655.5332641601562
626;655.2607421875
627;654.9885864257812
628;654.7163696289062
629;654.4442749023438
630;654.1725463867188
631;653.9008178710938
632;653.6295776367188
633;653.3583374023438
634;653.08740234375
635;652.81640625
636;652.5457153320312
637;652.2750244140625
638;652.0045776367188
639;651.7341918945312
640;651.4639892578125
641;651.1940307617188
642;650.924072265625
643;650.654296875
644;650.3845825195312
645;650.1150512695312
646;649.8456420898438
647;649.5762329101562
648;649.30712890625
649;649.0380859375
650;648.7691040039062
651;648.5003662109375
652;648.2317504882812
653;647.9631958007812
654;647.6948852539062
655;647.4266967773438
656;647.1586303710938
657;646.890625
658;646.62255859375
659;646.3546752929688
660;646.0868530273438
661;645.819091796875
662;645.551513671875
663;645.283935546875
664;645.0165405273438
665;644.7492065429688
666;644.48193359375
667;644.2149658203125
668;643.9478759765625
669;643.6879272460938
670;643.432861328125
671;643.1787109375
672;642.92529296875
673;642.672607421875
674;642.4205932617188
675;642.169189453125
676;641.9183959960938
677;641.668212890625
678;641.41845703125
679;641.169189453125
680;640.92041015625
681;640.6719360351562
682;640.423828125
683;640.1760864257812
684;639.9287719726562
685;639.6817016601562
686;639.43505859375
687;639.1886596679688
688;638.942626953125
689;638.6967163085938
690;638.4513549804688
691;638.2066040039062
692;637.9622192382812
693;637.7186889648438
694;637.4752807617188
695;637.2321166992188
696;636.9894409179688
697;636.7468872070312
698;636.5046997070312
699;636.2627563476562
700;636.0211181640625
701;635.7796020507812
702;635.538330078125
703;635.2973022460938
704;635.0567016601562
705;634.8162231445312
706;634.5760498046875
707;634.3359375
708;634.0960083007812
709;633.8563232421875
710;633.616943359375
711;633.3777465820312
712;633.138916015625
713;632.9002075195312
714;632.6618041992188
715;632.4235229492188
716;632.185546875
717;631.9478149414062
718;631.7106323242188
719;631.4747924804688
720;631.2389526367188
721;631.0034790039062
722;630.7683715820312
723;630.5338134765625
724;630.2996215820312
725;630.065673828125
726;629.83203125
727;629.5985107421875
728;629.3652954101562
729;629.1323852539062
730;628.899658203125
731;628.6671752929688
732;628.4349975585938
733;628.2031860351562
734;627.9716186523438
735;627.740234375
736;627.5090942382812
737;627.278076171875
738;627.0474243164062
739;626.8169555664062
740;626.5868530273438
741;626.3568725585938
742;626.1271362304688
743;625.8975219726562
744;625.668212890625
745;625.439208984375
746;625.21044921875
747;624.9817504882812
748;624.7532348632812
749;624.5250854492188
750;624.2971801757812
751;624.0695190429688
752;623.8421020507812
753;623.6148071289062
754;623.3878784179688
755;623.1637573242188
756;622.9448852539062
757;622.7266235351562
758;622.5088500976562
759;622.2916870117188
760;622.0748901367188
761;621.8587036132812
762;621.642822265625
763;621.42724609375
764;621.2120971679688
765;620.997314453125
766;620.782958984375
767;620.5687866210938
768;620.3550415039062
769;620.1415405273438
770;619.9282836914062
771;619.71533203125
772;619.5026245117188
773;619.2902221679688
774;619.078125
775;618.8662719726562
776;618.6546630859375
777;618.4431762695312
778;618.2320556640625
779;618.0210571289062
780;617.8103637695312
781;617.5997924804688
782;617.3895263671875
783;617.179443359375
784;616.9695434570312
785;616.760009765625
786;616.5506591796875
787;616.3414306640625
788;616.1324462890625
789;615.9237060546875
790;615.7151489257812
791;615.5067138671875
792;615.2985229492188
793;615.090576171875
794;614.8828125
795;614.67529296875
796;614.4679565429688
797;614.2608032226562
798;614.0538940429688
799;613.8472290039062
800;613.6406860351562
801;613.434326171875
802;613.2280883789062
803;613.0220947265625
804;612.8162841796875
805;612.6106567382812
806;612.4052734375
807;612.2001342773438
808;611.9951171875
809;611.7902221679688
810;611.5855102539062
811;611.3811645507812
812;611.177001953125
813;610.9730834960938
814;610.7692260742188
815;610.5656127929688
816;610.3621215820312
817;610.1589965820312
818;609.9559326171875
819;609.7530517578125
820;609.5504760742188
821;609.3479614257812
822;609.1458129882812
823;608.9442138671875
824;608.742919921875
825;608.541748046875
826;608.3408813476562
827;608.1401977539062
828;607.9396362304688
829;607.7394409179688
830;607.5393676757812
831;607.3397827148438
832;607.1405639648438
833;606.9415893554688
834;606.7428588867188
835;606.5443115234375
836;606.3458862304688
837;606.1477661132812
838;605.949951171875
839;605.7521362304688
840;605.5546875
841;605.3573608398438
842;605.1602172851562
843;604.96337890625
844;604.7665405273438
845;604.5700073242188
846;604.3737182617188
847;604.1774291992188
848;603.9814453125
849;603.7857055664062
850;603.5900268554688
851;603.3945922851562
852;603.1994018554688
853;603.0043334960938
854;602.8093872070312
855;602.61474609375
856;602.420166015625
857;602.2257690429688
858;602.0315551757812
859;601.8374633789062
860;601.6436157226562
861;601.4500122070312
862;601.2565307617188
863;601.063232421875
864;600.8701171875
865;600.67724609375
866;600.484375
867;600.291748046875
868;600.099365234375
869;599.9070434570312
870;599.7149658203125
871;599.5230102539062
872;599.3312377929688
873;599.1395874023438
874;598.9481811523438
875;598.7569580078125
876;598.56591796875
877;598.375
878;598.1842651367188
879;597.9937133789062
880;597.8034057617188
881;597.6132202148438
882;597.42333984375
883;597.2335815429688
884;597.0440063476562
885;596.8545532226562
886;596.6653442382812
887;596.476318359375
888;596.2874755859375
889;596.0986938476562
890;595.9102172851562
891;595.7218017578125
892;595.5335083007812
893;595.3453979492188
894;595.1575317382812
895;594.9697875976562
896;594.7821655273438
897;594.5948486328125
898;594.4076538085938
899;594.2205200195312
900;594.03369140625
901;593.8468627929688
902;593.6602783203125
903;593.473876953125
904;593.2876586914062
905;593.1016235351562
906;592.915771484375
907;592.7299194335938
908;592.5444946289062
909;592.3590698242188
910;592.173828125
911;591.9887084960938
912;591.8037719726562
913;591.6190185546875
914;591.4343872070312
915;591.25
916;591.0657348632812
917;590.8815307617188
918;590.6975708007812
919;590.5137329101562
920;590.330078125
921;590.146484375
922;589.9633178710938
923;589.7804565429688
924;589.5977783203125
925;589.415283203125
926;589.2329711914062
927;589.05078125
928;588.8687133789062
929;588.6871337890625
930;588.5057373046875
931;588.3245239257812
932;588.1441040039062
933;587.9638671875
934;587.7837524414062
935;587.6038818359375
936;587.4242553710938
937;587.2447509765625
938;587.0654296875
939;586.88623046875
940;586.707275390625
941;586.5285034179688
942;586.3497924804688
943;586.1712646484375
944;585.992919921875
945;585.814697265625
946;585.6366577148438
947;585.4588012695312
948;585.2810668945312
949;585.1033935546875
950;584.9259643554688
951;584.7486572265625
952;584.5715942382812
953;584.3945922851562
954;584.2177124023438
955;584.041015625
956;583.8644409179688
957;583.6880493164062
958;583.5116577148438
959;583.3355102539062
960;583.1594848632812
961;582.9837036132812
962;582.8079223632812
963;582.63232421875
964;582.4569091796875
965;582.2816162109375
966;582.1065063476562
967;581.931396484375
968;581.7564697265625
969;581.5817260742188
970;581.4070434570312
971;581.2326049804688
972;581.0582885742188
973;580.884033203125
974;580.7098999023438
975;580.535888671875
976;580.3619995117188
977;580.1882934570312
978;580.0146484375
979;579.8411865234375
980;579.6679077148438
981;579.4946899414062
982;579.321533203125
983;579.1486206054688
984;578.9757690429688
985;578.8031005859375
986;578.6305541992188
987;578.4581909179688
988;578.2858276367188
989;578.113525390625
990;577.9414672851562
991;577.76953125
992;577.59765625
993;577.4259033203125
994;577.2542724609375
995;577.0828247070312
996;576.9114379882812
997;576.740478515625
998;576.5715942382812
999;576.4028930664062
