;loss
0;887.1187744140625
1;886.193603515625
2;884.955078125
3;883.7217407226562
4;882.4929809570312
5;881.3209228515625
6;880.1361694335938
7;878.9424438476562
8;877.7245483398438
9;876.5173950195312
10;875.3041381835938
11;874.0822143554688
12;872.8544311523438
13;871.6176147460938
14;870.3765869140625
15;869.1172485351562
16;867.8436889648438
17;866.564697265625
18;865.2559204101562
19;863.9254150390625
20;862.570556640625
21;861.2027587890625
22;859.8050537109375
23;858.3732299804688
24;856.9035034179688
25;855.3735961914062
26;853.7958984375
27;852.1652221679688
28;850.4961547851562
29;848.7642211914062
30;846.9629516601562
31;845.063232421875
32;843.1011962890625
33;841.0220947265625
34;838.8640747070312
35;836.5932006835938
36;834.1697387695312
37;831.6329956054688
38;828.940673828125
39;826.0435791015625
40;822.9487915039062
41;819.6664428710938
42;816.1358032226562
43;812.3228149414062
44;808.142578125
45;803.629638671875
46;798.6839599609375
47;793.230712890625
48;787.178955078125
49;780.3449096679688
50;772.7045288085938
51;764.001220703125
52;753.973876953125
53;742.1649780273438
54;728.3278198242188
55;711.8672485351562
56;692.2681274414062
57;670.221923828125
58;647.0010986328125
59;625.3416137695312
60;606.6228637695312
61;591.0357055664062
62;578.0623168945312
63;567.1072998046875
64;557.6513671875
65;549.4432373046875
66;542.2590942382812
67;535.8086547851562
68;529.9974975585938
69;524.7127685546875
70;519.86572265625
71;515.386962890625
72;511.23828125
73;507.3133544921875
74;503.6037292480469
75;500.09979248046875
76;496.7572937011719
77;493.55078125
78;490.44451904296875
79;487.46307373046875
80;484.57470703125
81;481.7522277832031
82;479.0063171386719
83;476.3296813964844
84;473.7313537597656
85;471.17645263671875
86;468.67529296875
87;466.22412109375
88;463.81982421875
89;461.4709167480469
90;459.1495056152344
91;456.8666687011719
92;454.6192321777344
93;452.40545654296875
94;450.2239074707031
95;448.0831298828125
96;445.97052001953125
97;443.8848876953125
98;441.8147277832031
99;439.7690124511719
100;437.7466125488281
101;435.7561340332031
102;433.7869873046875
103;431.82958984375
104;429.9014587402344
105;427.98419189453125
106;426.0863037109375
107;424.2152099609375
108;422.3620910644531
109;420.51837158203125
110;418.6916809082031
111;416.88165283203125
112;415.0877990722656
113;413.3098449707031
114;411.5541687011719
115;409.8133850097656
116;408.07989501953125
117;406.3604736328125
118;404.6615295410156
119;402.9759826660156
120;401.296875
121;399.6369323730469
122;397.9831848144531
123;396.3417053222656
124;394.7121887207031
125;393.10040283203125
126;391.4999084472656
127;389.9104309082031
128;388.3320007324219
129;386.7583923339844
130;385.2008972167969
131;383.6537780761719
132;382.11114501953125
133;380.5836181640625
134;379.06573486328125
135;377.5518798828125
136;376.0472717285156
137;374.5516357421875
138;373.0647277832031
139;371.5913391113281
140;370.1213684082031
141;368.6596984863281
142;367.2108459472656
143;365.7651672363281
144;364.3273010253906
145;362.9016418457031
146;361.4789733886719
147;360.0635681152344
148;358.6553955078125
149;357.25433349609375
150;355.8602294921875
151;354.4730224609375
152;353.0966491699219
153;351.7268371582031
154;350.3635559082031
155;349.0024719238281
156;347.6517028808594
157;346.3031005859375
158;344.96063232421875
159;343.6241455078125
160;342.29742431640625
161;340.97271728515625
162;339.6538391113281
163;338.3407897949219
164;337.03350830078125
165;335.73553466796875
166;334.44305419921875
167;333.1525573730469
168;331.8710632324219
169;330.59490966796875
170;329.3241882324219
171;328.05889892578125
172;326.79888916015625
173;325.54083251953125
174;324.2913818359375
175;323.04705810546875
176;321.8079833984375
177;320.5741882324219
178;319.3455810546875
179;318.119140625
180;316.9009704589844
181;315.68487548828125
182;314.47705078125
183;313.2743835449219
184;312.0738525390625
185;310.87860107421875
186;309.6884460449219
187;308.5062561035156
188;307.3290710449219
189;306.1542053222656
190;304.9871826171875
191;303.8250732421875
192;302.6650695800781
193;301.5098876953125
194;300.3623352050781
195;299.21685791015625
196;298.0762634277344
197;296.9430847167969
198;295.81475830078125
199;294.6910400390625
200;293.57196044921875
201;292.4549865722656
202;291.3451232910156
203;290.2373962402344
204;289.1365966796875
205;288.037841796875
206;286.943603515625
207;285.8537292480469
208;284.7706298828125
209;283.6895751953125
210;282.61517333984375
211;281.54510498046875
212;280.47930908203125
213;279.41778564453125
214;278.3583068847656
215;277.3052673339844
216;276.2564392089844
217;275.2095642089844
218;274.1690673828125
219;273.1305847167969
220;272.09619140625
221;271.06805419921875
222;270.0439453125
223;269.0218200683594
224;268.0057373046875
225;266.9936828613281
226;265.9836120605469
227;264.9775085449219
228;263.9773254394531
229;262.9791564941406
230;261.9867858886719
231;260.9982604980469
232;260.01361083984375
233;259.03094482421875
234;258.0521240234375
235;257.0788879394531
236;256.10943603515625
237;255.14198303222656
238;254.1782684326172
239;253.21824645996094
240;252.261962890625
241;251.31117248535156
242;250.36399841308594
243;249.42047119140625
244;248.48060607910156
245;247.54429626464844
246;246.6116180419922
247;245.68243408203125
248;244.7568817138672
249;243.8332061767578
250;242.91470336914062
251;241.99964904785156
252;241.08653259277344
253;240.17691040039062
254;239.27227783203125
255;238.3711395263672
256;237.47183227539062
257;236.57749938964844
258;235.68504333496094
259;234.79745483398438
260;233.9132843017578
261;233.03240966796875
262;232.15345764160156
263;231.27784729003906
264;230.406982421875
265;229.53936767578125
266;228.67364501953125
267;227.81260681152344
268;226.95481872558594
269;226.1002960205078
270;225.24896240234375
271;224.39947509765625
272;223.55459594726562
273;222.71290588378906
274;221.87440490722656
275;221.03904724121094
276;220.20550537109375
277;219.37509155273438
278;218.54913330078125
279;217.72622680664062
280;216.90518188476562
281;216.08717346191406
282;215.2722625732422
283;214.46038818359375
284;213.65277099609375
285;212.84698486328125
286;212.04539489746094
287;211.2467803955078
288;210.45115661621094
289;209.65733337402344
290;208.86647033691406
291;208.07972717285156
292;207.29588317871094
293;206.51495361328125
294;205.73583984375
295;204.9607391357422
296;204.1884765625
297;203.4191436767578
298;202.65155029296875
299;201.88677978515625
300;201.12489318847656
301;200.3668975830078
302;199.61172485351562
303;198.85939025878906
304;198.10874938964844
305;197.3620147705078
306;196.616943359375
307;195.875732421875
308;195.13720703125
309;194.40150451660156
310;193.66845703125
311;192.93719482421875
312;192.20957946777344
313;191.48472595214844
314;190.76251220703125
315;190.04298400878906
316;189.32618713378906
317;188.611083984375
318;187.89862060546875
319;187.1897430419922
320;186.4826202392578
321;185.77806091308594
322;185.07704162597656
323;184.37867736816406
324;183.68287658691406
325;182.98968505859375
326;182.2990264892578
327;181.61007690429688
328;180.9236602783203
329;180.24075317382812
330;179.5603485107422
331;178.881591796875
332;178.20538330078125
333;177.5325469970703
334;176.86219787597656
335;176.1943359375
336;175.52899169921875
337;174.8660888671875
338;174.2056884765625
339;173.5477294921875
340;172.89141845703125
341;172.2383575439453
342;171.5869598388672
343;170.93797302246094
344;170.29217529296875
345;169.64804077148438
346;169.00709533691406
347;168.36773681640625
348;167.73080444335938
349;167.09622192382812
350;166.46405029296875
351;165.83421325683594
352;165.20677185058594
353;164.58169555664062
354;163.95965576171875
355;163.3399200439453
356;162.72186279296875
357;162.1060791015625
358;161.49330139160156
359;160.8828582763672
360;160.2747039794922
361;159.6680908203125
362;159.06451416015625
363;158.46315002441406
364;157.86334228515625
365;157.26583862304688
366;156.67124938964844
367;156.07894897460938
368;155.48814392089844
369;154.89959716796875
370;154.31324768066406
371;153.72975158691406
372;153.1485137939453
373;152.5694122314453
374;151.9925537109375
375;151.4171905517578
376;150.8440399169922
377;150.2736358642578
378;149.70541381835938
379;149.1387481689453
380;148.57420349121094
381;148.01239013671875
382;147.45213317871094
383;146.89401245117188
384;146.3380126953125
385;145.78468322753906
386;145.23348999023438
387;144.68377685546875
388;144.1361846923828
389;143.5906524658203
390;143.04782104492188
391;142.50701904296875
392;141.96771240234375
393;141.43101501464844
394;140.89581298828125
395;140.36270141601562
396;139.8315887451172
397;139.3030242919922
398;138.77598571777344
399;138.2515106201172
400;137.72901916503906
401;137.20849609375
402;136.68946838378906
403;136.17298889160156
404;135.65846252441406
405;135.1459197998047
406;134.63482666015625
407;134.12620544433594
408;133.6195526123047
409;133.11485290527344
410;132.61207580566406
411;132.11126708984375
412;131.6123809814453
413;131.11538696289062
414;130.61984252929688
415;130.126708984375
416;129.6354522705078
417;129.14613342285156
418;128.65869140625
419;128.1726531982422
420;127.68896484375
421;127.2071762084961
422;126.72724914550781
423;126.24919128417969
424;125.77250671386719
425;125.29816436767578
426;124.82561492919922
427;124.35492706298828
428;123.8861083984375
429;123.41867065429688
430;122.95303344726562
431;122.48921203613281
432;122.02767944335938
433;121.5674819946289
434;121.10950469970703
435;120.65336608886719
436;120.19855499267578
437;119.74596405029297
438;119.29470825195312
439;118.84564971923828
440;118.39838409423828
441;117.95285034179688
442;117.50910186767578
443;117.06664276123047
444;116.6259765625
445;116.18744659423828
446;115.75023651123047
447;115.31475067138672
448;114.88139343261719
449;114.4493637084961
450;114.01940155029297
451;113.59078979492188
452;113.16427612304688
453;112.739013671875
454;112.31586456298828
455;111.89403533935547
456;111.47421264648438
457;111.05607604980469
458;110.63960266113281
459;110.22477722167969
460;109.811279296875
461;109.3994140625
462;108.98922729492188
463;108.58097839355469
464;108.174072265625
465;107.76909637451172
466;107.36542510986328
467;106.96369934082031
468;106.56326293945312
469;106.1647720336914
470;105.76754760742188
471;105.37226104736328
472;104.97854614257812
473;104.5864028930664
474;104.19589233398438
475;103.80695343017578
476;103.4192123413086
477;103.03339385986328
478;102.64884948730469
479;102.2661361694336
480;101.88496398925781
481;101.50536346435547
482;101.12731170654297
483;100.75080108642578
484;100.37548828125
485;100.00202941894531
486;99.62976837158203
487;99.25934600830078
488;98.89044952392578
489;98.52273559570312
490;98.15653991699219
491;97.79182434082031
492;97.4286117553711
493;97.06716918945312
494;96.7072525024414
495;96.3487548828125
496;95.9914779663086
497;95.63595581054688
498;95.2816390991211
499;94.92875671386719
