;loss
0;867.0594482421875
1;865.5842895507812
2;863.8867797851562
3;861.9143676757812
4;860.0660400390625
5;858.0989379882812
6;856.1319580078125
7;854.1635131835938
8;852.1911010742188
9;850.2130126953125
10;848.2267456054688
11;846.2300415039062
12;844.22021484375
13;842.1948852539062
14;840.1519165039062
15;838.0885620117188
16;835.9864501953125
17;833.875
18;831.7356567382812
19;829.5439453125
20;827.3406372070312
21;825.1010131835938
22;822.8220825195312
23;820.5
24;818.1319580078125
25;815.7137451171875
26;813.2119140625
27;810.6813354492188
28;808.0885620117188
29;805.42919921875
30;802.6982421875
31;799.8905029296875
32;797.0001220703125
33;794.0214233398438
34;790.91259765625
35;787.7020263671875
36;784.4196166992188
37;781.0228881835938
38;777.4644775390625
39;773.8141479492188
40;769.9844970703125
41;766.0474853515625
42;761.91015625
43;757.6044311523438
44;753.1198120117188
45;748.4922485351562
46;743.6666870117188
47;738.630859375
48;733.373046875
49;727.8826904296875
50;722.1475830078125
51;716.1541748046875
52;709.8919677734375
53;703.3489990234375
54;696.4539794921875
55;689.3140869140625
56;681.8618774414062
57;674.0892944335938
58;665.98828125
59;657.55517578125
60;648.7216186523438
61;639.5547485351562
62;630.0645751953125
63;620.2659301757812
64;610.2490234375
65;599.9678955078125
66;589.455078125
67;578.7552490234375
68;567.8352661132812
69;556.8989868164062
70;545.9336547851562
71;534.9257202148438
72;524.0291748046875
73;513.3273315429688
74;502.8605651855469
75;492.68804931640625
76;482.8638610839844
77;473.43804931640625
78;464.4947814941406
79;456.01654052734375
80;447.99072265625
81;440.4299011230469
82;433.32672119140625
83;426.725341796875
84;420.5631408691406
85;414.7591247558594
86;409.3233947753906
87;404.1579895019531
88;399.3017272949219
89;394.68109130859375
90;390.340576171875
91;386.2038879394531
92;382.2638244628906
93;378.51513671875
94;374.92730712890625
95;371.4889221191406
96;368.17681884765625
97;364.9808654785156
98;361.8844299316406
99;358.86822509765625
100;355.9576110839844
101;353.1155090332031
102;350.3521423339844
103;347.67425537109375
104;345.06170654296875
105;342.51092529296875
106;340.0074768066406
107;337.5746154785156
108;335.1836242675781
109;332.85125732421875
110;330.56787109375
111;328.32855224609375
112;326.1310119628906
113;323.970703125
114;321.846435546875
115;319.7563171386719
116;317.7004699707031
117;315.6756896972656
118;313.67230224609375
119;311.6975402832031
120;309.75909423828125
121;307.84832763671875
122;305.9559020996094
123;304.0888671875
124;302.2459411621094
125;300.433349609375
126;298.63714599609375
127;296.8699645996094
128;295.1178283691406
129;293.394287109375
130;291.6855773925781
131;290.0035095214844
132;288.3410949707031
133;286.69757080078125
134;285.066650390625
135;283.45416259765625
136;281.8592834472656
137;280.28662109375
138;278.7307434082031
139;277.1858825683594
140;275.6583557128906
141;274.1477966308594
142;272.6573791503906
143;271.1820983886719
144;269.722412109375
145;268.27276611328125
146;266.84283447265625
147;265.4267272949219
148;264.02618408203125
149;262.64031982421875
150;261.2676696777344
151;259.9076843261719
152;258.5599060058594
153;257.2203674316406
154;255.89683532714844
155;254.58497619628906
156;253.28079223632812
157;251.9876708984375
158;250.70553588867188
159;249.43411254882812
160;248.17813110351562
161;246.93258666992188
162;245.69729614257812
163;244.4720001220703
164;243.2530059814453
165;242.0470428466797
166;240.85031127929688
167;239.65963745117188
168;238.48129272460938
169;237.3117218017578
170;236.1511993408203
171;234.99951171875
172;233.856689453125
173;232.72238159179688
174;231.59654235839844
175;230.47903442382812
176;229.3667755126953
177;228.2652587890625
178;227.16867065429688
179;226.0827178955078
180;225.0014190673828
181;223.9302978515625
182;222.86398315429688
183;221.8074493408203
184;220.75794982910156
185;219.71275329589844
186;218.677001953125
187;217.6454620361328
188;216.62303161621094
189;215.60472106933594
190;214.59524536132812
191;213.59217834472656
192;212.5930938720703
193;211.60256958007812
194;210.61593627929688
195;209.63766479492188
196;208.66319274902344
197;207.69468688964844
198;206.73208618164062
199;205.77749633789062
200;204.82870483398438
201;203.88343811035156
202;202.94383239746094
203;202.01185607910156
204;201.08338928222656
205;200.16238403320312
206;199.2467803955078
207;198.3345489501953
208;197.42958068847656
209;196.5298614501953
210;195.63339233398438
211;194.7421112060547
212;193.85780334472656
213;192.9766387939453
214;192.10231018066406
215;191.23291015625
216;190.3683624267578
217;189.50865173339844
218;188.65196228027344
219;187.7999725341797
220;186.95449829101562
221;186.11192321777344
222;185.2740020751953
223;184.4423065185547
224;183.6151123046875
225;182.79244995117188
226;181.9725799560547
227;181.1587677001953
228;180.3477020263672
229;179.5425567626953
230;178.74169921875
231;177.94503784179688
232;177.1526641845703
233;176.3644561767578
234;175.58035278320312
235;174.8003387451172
236;174.02444458007812
237;173.25257873535156
238;172.48477172851562
239;171.719482421875
240;170.95960998535156
241;170.2036590576172
242;169.4515380859375
243;168.703369140625
244;167.9575653076172
245;167.2156524658203
246;166.47752380371094
247;165.7431640625
248;165.01254272460938
249;164.28564453125
250;163.56236267089844
251;162.8440399169922
252;162.1293182373047
253;161.41822814941406
254;160.71066284179688
255;160.0054168701172
256;159.304931640625
257;158.60791015625
258;157.91317749023438
259;157.22193908691406
260;156.5341033935547
261;155.85084533691406
262;155.16978454589844
263;154.49327087402344
264;153.820068359375
265;153.1501922607422
266;152.4824981689453
267;151.81912231445312
268;151.15907287597656
269;150.50222778320312
270;149.8486328125
271;149.19821166992188
272;148.55091857910156
273;147.90682983398438
274;147.26583862304688
275;146.626953125
276;145.9921875
277;145.3605194091797
278;144.7309112548828
279;144.1053009033203
280;143.48182678222656
281;142.86129760742188
282;142.24383544921875
283;141.62936401367188
284;141.01876831054688
285;140.41015625
286;139.80455017089844
287;139.20274353027344
288;138.6038055419922
289;138.0068817138672
290;137.4127960205078
291;136.82247924804688
292;136.23497009277344
293;135.65029907226562
294;135.06761169433594
295;134.48770141601562
296;133.9105987548828
297;133.33706665039062
298;132.76626586914062
299;132.19822692871094
300;131.6328887939453
301;131.0702362060547
302;130.5102996826172
303;129.9530487060547
304;129.39845275878906
305;128.8464813232422
306;128.29713439941406
307;127.75047302246094
308;127.20561981201172
309;126.66412353515625
310;126.12522888183594
311;125.5881576538086
312;125.0544662475586
313;124.52254486083984
314;123.9931869506836
315;123.46636199951172
316;122.94202423095703
317;122.42021942138672
318;121.90159606933594
319;121.38542175292969
320;120.87109375
321;120.35918426513672
322;119.84971618652344
323;119.34265899658203
324;118.83802795410156
325;118.33648681640625
326;117.83734893798828
327;117.34053039550781
328;116.8461685180664
329;116.35345458984375
330;115.86375427246094
331;115.3757553100586
332;114.89073944091797
333;114.40740203857422
334;113.92701721191406
335;113.44831085205078
336;112.97187042236328
337;112.49830627441406
338;112.02641296386719
339;111.55738067626953
340;111.09059143066406
341;110.62545013427734
342;110.16313934326172
343;109.7030029296875
344;109.24510192871094
345;108.78880310058594
346;108.33525848388672
347;107.88331604003906
348;107.43358612060547
349;106.98597717285156
350;106.54057312011719
351;106.09724426269531
352;105.65657806396484
353;105.21753692626953
354;104.78062438964844
355;104.3462905883789
356;103.91352844238281
357;103.4833755493164
358;103.05479431152344
359;102.62874603271484
360;102.20478057861328
361;101.78238677978516
362;101.36200714111328
363;100.94415283203125
364;100.52779388427734
365;100.11354064941406
366;99.70121002197266
367;99.2908935546875
368;98.8825912475586
369;98.47669219970703
370;98.0727767944336
371;97.67083740234375
372;97.27079010009766
373;96.87274932861328
374;96.4765853881836
375;96.08238220214844
376;95.68963623046875
377;95.298828125
378;94.909912109375
379;94.5233154296875
380;94.13859558105469
381;93.75575256347656
382;93.37480926513672
383;92.99567413330078
384;92.618408203125
385;92.24259948730469
386;91.86859893798828
387;91.49684143066406
388;91.12690734863281
389;90.75838470458984
390;90.39170837402344
391;90.02680206298828
392;89.66365814208984
393;89.30271911621094
394;88.94355010986328
395;88.58613586425781
396;88.23011016845703
397;87.87620544433594
398;87.52406311035156
399;87.17330169677734
400;86.82460021972656
401;86.47764587402344
402;86.13239288330078
403;85.78886413574219
404;85.44701385498047
405;85.10688018798828
406;84.7684097290039
407;84.43163299560547
408;84.09651947021484
409;83.7630615234375
410;83.43128967285156
411;83.1011734008789
412;82.77235412597656
413;82.44518280029297
414;82.11994934082031
415;81.79634857177734
416;81.47440338134766
417;81.1540298461914
418;80.83526611328125
419;80.51776885986328
420;80.20221710205078
421;79.88822174072266
422;79.57579803466797
423;79.26466369628906
424;78.95538330078125
425;78.64766693115234
426;78.34151458740234
427;78.03687286376953
428;77.73350524902344
429;77.43195343017578
430;77.13191986083984
431;76.83313751220703
432;76.5361328125
433;76.24065399169922
434;75.94637298583984
435;75.65363311767578
436;75.36260223388672
437;75.07279968261719
438;74.78449249267578
439;74.49764251708984
440;74.21226501464844
441;73.92860412597656
442;73.64613342285156
443;73.36510467529297
444;73.08575439453125
445;72.80784606933594
446;72.53112030029297
447;72.25605773925781
448;71.98218536376953
449;71.7099380493164
450;71.4388656616211
451;71.16919708251953
452;70.90091705322266
453;70.6340103149414
454;70.36848449707031
455;70.10433197021484
456;69.84178924560547
457;69.58038330078125
458;69.3203125
459;69.06184387207031
460;68.80447387695312
461;68.54844665527344
462;68.29377746582031
463;68.0404281616211
464;67.78836822509766
465;67.53765106201172
466;67.28826904296875
467;67.04014587402344
468;66.79335021972656
469;66.54785919189453
470;66.30382537841797
471;66.06110382080078
472;65.81944274902344
473;65.5790786743164
474;65.33995056152344
475;65.10208129882812
476;64.86548614501953
477;64.63033294677734
478;64.39642333984375
479;64.1635513305664
480;63.931922912597656
481;63.70170211791992
482;63.472530364990234
483;63.244747161865234
484;63.018192291259766
485;62.79282760620117
486;62.56850051879883
487;62.34535598754883
488;62.12359619140625
489;61.90301513671875
490;61.68343734741211
491;61.465030670166016
492;61.24796676635742
493;61.03206253051758
494;60.81733322143555
495;60.60359573364258
496;60.39115524291992
497;60.17987823486328
498;59.969573974609375
499;59.760562896728516
