;loss
0;868.3919067382812
1;866.7891235351562
2;865.4137573242188
3;863.8114624023438
4;862.30615234375
5;860.7684326171875
6;859.1576538085938
7;857.5406494140625
8;855.9384765625
9;854.3037109375
10;852.65673828125
11;850.9960327148438
12;849.3175048828125
13;847.623046875
14;845.900390625
15;844.1644897460938
16;842.3912963867188
17;840.5899658203125
18;838.7586059570312
19;836.8948364257812
20;834.9962158203125
21;833.0809326171875
22;831.1047973632812
23;829.1082153320312
24;827.0427856445312
25;824.927734375
26;822.7592163085938
27;820.5330810546875
28;818.2727661132812
29;815.9202270507812
30;813.4970092773438
31;810.9981079101562
32;808.4476928710938
33;805.8120727539062
34;803.0852661132812
35;800.228515625
36;797.265625
37;794.2236328125
38;791.0276489257812
39;787.7025756835938
40;784.23974609375
41;780.6299438476562
42;776.9020385742188
43;773.0087890625
44;768.9406127929688
45;764.6860961914062
46;760.1889038085938
47;755.4777221679688
48;750.5390625
49;745.4065551757812
50;739.9715576171875
51;734.2662963867188
52;728.2762451171875
53;721.9865112304688
54;715.3833618164062
55;708.45361328125
56;701.2454223632812
57;693.6940307617188
58;685.7280883789062
59;677.4723510742188
60;668.8635864257812
61;659.9092407226562
62;650.5540161132812
63;640.8880004882812
64;630.94189453125
65;620.8322143554688
66;610.4602661132812
67;599.9608154296875
68;589.3964233398438
69;578.9110107421875
70;568.4451904296875
71;558.2149658203125
72;548.1530151367188
73;538.4591674804688
74;529.0770874023438
75;520.1102294921875
76;511.5855407714844
77;503.5601501464844
78;495.9664611816406
79;488.8412780761719
80;482.14202880859375
81;475.8634338378906
82;469.9660339355469
83;464.4022521972656
84;459.1437072753906
85;454.1578674316406
86;449.4401550292969
87;444.900390625
88;440.55010986328125
89;436.38238525390625
90;432.3779602050781
91;428.5513000488281
92;424.84967041015625
93;421.28948974609375
94;417.87249755859375
95;414.5555114746094
96;411.3489685058594
97;408.24462890625
98;405.2375183105469
99;402.3277282714844
100;399.4964294433594
101;396.738037109375
102;394.04913330078125
103;391.423583984375
104;388.8571472167969
105;386.34429931640625
106;383.8840026855469
107;381.47418212890625
108;379.1113586425781
109;376.79498291015625
110;374.5325622558594
111;372.3019714355469
112;370.1212463378906
113;367.96954345703125
114;365.86322021484375
115;363.78399658203125
116;361.74530029296875
117;359.7287902832031
118;357.741943359375
119;355.7906799316406
120;353.8590393066406
121;351.9536437988281
122;350.07391357421875
123;348.2184143066406
124;346.38616943359375
125;344.5826721191406
126;342.8006896972656
127;341.0329895019531
128;339.2856750488281
129;337.5582580566406
130;335.85003662109375
131;334.16644287109375
132;332.50091552734375
133;330.8528747558594
134;329.2217712402344
135;327.6015625
136;325.9975280761719
137;324.4092712402344
138;322.8416442871094
139;321.2887878417969
140;319.74517822265625
141;318.220703125
142;316.7048645019531
143;315.2073059082031
144;313.72271728515625
145;312.25091552734375
146;310.7868347167969
147;309.3394470214844
148;307.8995666503906
149;306.4712829589844
150;305.05877685546875
151;303.6529235839844
152;302.26214599609375
153;300.8820495605469
154;299.5122375488281
155;298.1525573730469
156;296.7987976074219
157;295.4548645019531
158;294.1205749511719
159;292.7957458496094
160;291.4801940917969
161;290.1736755371094
162;288.87615966796875
163;287.5909729003906
164;286.3146057128906
165;285.0431823730469
166;283.78033447265625
167;282.52911376953125
168;281.2859191894531
169;280.0506286621094
170;278.8230895996094
171;277.5999450683594
172;276.3844299316406
173;275.1763610839844
174;273.97564697265625
175;272.7821960449219
176;271.59893798828125
177;270.4197082519531
178;269.2503662109375
179;268.0850524902344
180;266.9295349121094
181;265.7777099609375
182;264.6353759765625
183;263.4967956542969
184;262.3645935058594
185;261.2415466308594
186;260.1247253417969
187;259.0113220214844
188;257.9040832519531
189;256.8028259277344
190;255.7102813720703
191;254.62351989746094
192;253.54258728027344
193;252.4648895263672
194;251.39292907714844
195;250.32666015625
196;249.26597595214844
197;248.21080017089844
198;247.16111755371094
199;246.1192169189453
200;245.0803680419922
201;244.04920959472656
202;243.02088928222656
203;242.0001220703125
204;240.98451232910156
205;239.97409057617188
206;238.96652221679688
207;237.96400451660156
208;236.9664764404297
209;235.97605895996094
210;234.990478515625
211;234.00765991210938
212;233.02964782714844
213;232.05642700195312
214;231.08995056152344
215;230.12620544433594
216;229.1671142578125
217;228.21461486816406
218;227.26670837402344
219;226.3232879638672
220;225.3825225830078
221;224.44618225097656
222;223.5143280029297
223;222.5886688232422
224;221.66744995117188
225;220.7487030029297
226;219.8360595703125
227;218.92591857910156
228;218.01998901367188
229;217.11830139160156
230;216.22251892089844
231;215.3308563232422
232;214.44332885742188
233;213.55984497070312
234;212.67874145507812
235;211.80335998535156
236;210.93197631835938
237;210.0629119873047
238;209.19786071777344
239;208.33828735351562
240;207.48263549804688
241;206.6308135986328
242;205.78285217285156
243;204.9386749267578
244;204.0982666015625
245;203.26168823242188
246;202.4287872314453
247;201.59962463378906
248;200.774169921875
249;199.95236206054688
250;199.13424682617188
251;198.31973266601562
252;197.5088348388672
253;196.70152282714844
254;195.8977813720703
255;195.09620666503906
256;194.29954528808594
257;193.50634765625
258;192.71669006347656
259;191.9291229248047
260;191.14634704589844
261;190.36703491210938
262;189.59107971191406
263;188.8185272216797
264;188.04806518554688
265;187.2823028564453
266;186.5198211669922
267;185.75941467285156
268;185.00230407714844
269;184.24974060058594
270;183.49923706054688
271;182.7519989013672
272;182.0079803466797
273;181.2683868408203
274;180.53086853027344
275;179.79649353027344
276;179.0664520263672
277;178.33837890625
278;177.61355590820312
279;176.89292907714844
280;176.17431640625
281;175.4598846435547
282;174.74740600585938
283;174.0391387939453
284;173.3328399658203
285;172.63059997558594
286;171.93038940429688
287;171.2331085205078
288;170.53990173339844
289;169.8496551513672
290;169.16244506835938
291;168.47708129882812
292;167.794677734375
293;167.11520385742188
294;166.43960571289062
295;165.76596069335938
296;165.09521484375
297;164.42733764648438
298;163.7622833251953
299;163.10104370117188
300;162.442626953125
301;161.7870330810547
302;161.1342010498047
303;160.4842071533203
304;159.83694458007812
305;159.19248962402344
306;158.55075073242188
307;157.9117431640625
308;157.27462768554688
309;156.6410369873047
310;156.01016235351562
311;155.3820343017578
312;154.7556915283203
313;154.13282775878906
314;153.5126953125
315;152.89431762695312
316;152.27943420410156
317;151.66720581054688
318;151.0567169189453
319;150.44967651367188
320;149.84439086914062
321;149.24171447753906
322;148.64234924316406
323;148.0456085205078
324;147.45140075683594
325;146.8596954345703
326;146.26979064941406
327;145.68310546875
328;145.0989532470703
329;144.51731872558594
330;143.93814086914062
331;143.36141967773438
332;142.7871856689453
333;142.21539306640625
334;141.6460418701172
335;141.07911682128906
336;140.5146026611328
337;139.95254516601562
338;139.39285278320312
339;138.8348846435547
340;138.2799530029297
341;137.72743225097656
342;137.1765594482422
343;136.6287841796875
344;136.0833282470703
345;135.53952026367188
346;134.99806213378906
347;134.4595489501953
348;133.9233856201172
349;133.38882446289062
350;132.8572540283203
351;132.32791137695312
352;131.8002471923828
353;131.27487182617188
354;130.75169372558594
355;130.23085021972656
356;129.71279907226562
357;129.19699096679688
358;128.6833953857422
359;128.17141723632812
360;127.6616439819336
361;127.15409088134766
362;126.64869689941406
363;126.14546966552734
364;125.64505767822266
365;125.14617156982422
366;124.64945983886719
367;124.15546417236328
368;123.66307067871094
369;123.17276763916016
370;122.68460845947266
371;122.19857025146484
372;121.71460723876953
373;121.23274993896484
374;120.75355529785156
375;120.27642059326172
376;119.80079650878906
377;119.32730865478516
378;118.85581970214844
379;118.38691711425781
380;117.91954040527344
381;117.45417022705078
382;116.99088287353516
383;116.5300521850586
384;116.07127380371094
385;115.61449432373047
386;115.15923309326172
387;114.7059326171875
388;114.25507354736328
389;113.80622100830078
390;113.35931396484375
391;112.91436004638672
392;112.47137451171875
393;112.03034210205078
394;111.59117889404297
395;111.15396881103516
396;110.71825408935547
397;110.284423828125
398;109.85252380371094
399;109.42250061035156
400;108.99481964111328
401;108.56904602050781
402;108.14512634277344
403;107.72306060791016
404;107.30289459228516
405;106.88453674316406
406;106.468017578125
407;106.052978515625
408;105.64017486572266
409;105.22916412353516
410;104.82001495361328
411;104.4122314453125
412;104.00629425048828
413;103.6021728515625
414;103.1998291015625
415;102.79962921142578
416;102.40087890625
417;102.0038833618164
418;101.60868072509766
419;101.21556091308594
420;100.8242416381836
421;100.43464660644531
422;100.04682922363281
423;99.66032409667969
424;99.27559661865234
425;98.8929443359375
426;98.51200103759766
427;98.13275909423828
428;97.75519561767578
429;97.37904357910156
430;97.00453186035156
431;96.63204193115234
432;96.26092529296875
433;95.89146423339844
434;95.52400207519531
435;95.15787506103516
436;94.79371643066406
437;94.43089294433594
438;94.0697021484375
439;93.71049499511719
440;93.35289001464844
441;92.99689483642578
442;92.6425552368164
443;92.28981018066406
444;91.93864440917969
445;91.58875274658203
446;91.24048614501953
447;90.89383697509766
448;90.54901885986328
449;90.20577239990234
450;89.86412048339844
451;89.52404022216797
452;89.18550872802734
453;88.8485107421875
454;88.51306915283203
455;88.17915344238281
456;87.84679412841797
457;87.51566314697266
458;87.18633270263672
459;86.85823822021484
460;86.53193664550781
461;86.2071533203125
462;85.88358306884766
463;85.56180572509766
464;85.24121856689453
465;84.92213439941406
466;84.60453796386719
467;84.28838348388672
468;83.97399139404297
469;83.66106414794922
470;83.3495864868164
471;83.03955078125
472;82.73094940185547
473;82.42378997802734
474;82.11805725097656
475;81.81378936767578
476;81.51066589355469
477;81.20922088623047
478;80.90892791748047
479;80.61028289794922
480;80.31305694580078
481;80.01721954345703
482;79.72277069091797
483;79.42969512939453
484;79.13800811767578
485;78.84745025634766
486;78.55828857421875
487;78.27068328857422
488;77.9844741821289
489;77.69935607910156
490;77.41580963134766
491;77.13340759277344
492;76.85255432128906
493;76.57304382324219
494;76.2948226928711
495;76.01795959472656
496;75.742431640625
497;75.46819305419922
498;75.19523620605469
499;74.92357635498047
