;loss
0;865.5513305664062
1;864.6607055664062
2;863.7657470703125
3;862.8652954101562
4;862.0139770507812
5;861.0997314453125
6;860.2050170898438
7;859.2731323242188
8;858.3307495117188
9;857.3765258789062
10;856.41357421875
11;855.4310913085938
12;854.4318237304688
13;853.4139404296875
14;852.3698120117188
15;851.3012084960938
16;850.2056274414062
17;849.0809326171875
18;847.9241333007812
19;846.7442626953125
20;845.52734375
21;844.2696533203125
22;842.9521484375
23;841.5838012695312
24;840.15869140625
25;838.6704711914062
26;837.1123046875
27;835.4754638671875
28;833.7713012695312
29;831.9485473632812
30;830.0368041992188
31;827.9766235351562
32;825.7987670898438
33;823.4599609375
34;820.9071044921875
35;818.169921875
36;815.1866455078125
37;811.8802490234375
38;808.232421875
39;804.1799926757812
40;799.6951904296875
41;794.5853881835938
42;788.7699584960938
43;782.1591796875
44;774.4093627929688
45;765.3114013671875
46;754.5166625976562
47;741.6036376953125
48;726.2890625
49;707.9688110351562
50;687.0864868164062
51;664.1435546875
52;641.1588745117188
53;619.6122436523438
54;600.4885864257812
55;583.7916870117188
56;569.3800659179688
57;556.9503173828125
58;545.9492797851562
59;536.2919311523438
60;527.6744384765625
61;519.8695678710938
62;512.8060302734375
63;506.3854064941406
64;500.4710388183594
65;495.0032653808594
66;489.84368896484375
67;484.9831237792969
68;480.38214111328125
69;476.03265380859375
70;471.8465270996094
71;467.8367004394531
72;464.014892578125
73;460.34136962890625
74;456.8064270019531
75;453.3955383300781
76;450.0856018066406
77;446.9075012207031
78;443.8169860839844
79;440.8240051269531
80;437.9192810058594
81;435.1131286621094
82;432.36932373046875
83;429.6990661621094
84;427.11334228515625
85;424.5792541503906
86;422.1220703125
87;419.70989990234375
88;417.3645324707031
89;415.0711364746094
90;412.826171875
91;410.61468505859375
92;408.44525146484375
93;406.3155212402344
94;404.2229919433594
95;402.1749572753906
96;400.15924072265625
97;398.16424560546875
98;396.207275390625
99;394.2774963378906
100;392.37371826171875
101;390.48529052734375
102;388.62908935546875
103;386.78704833984375
104;384.966796875
105;383.1751403808594
106;381.40313720703125
107;379.65045166015625
108;377.90863037109375
109;376.19189453125
110;374.49212646484375
111;372.8020324707031
112;371.1280212402344
113;369.4765319824219
114;367.8334655761719
115;366.2118835449219
116;364.6047058105469
117;363.0113830566406
118;361.43170166015625
119;359.85888671875
120;358.3051452636719
121;356.763671875
122;355.2283630371094
123;353.70489501953125
124;352.1986389160156
125;350.70343017578125
126;349.2192077636719
127;347.740234375
128;346.27178955078125
129;344.81884765625
130;343.37591552734375
131;341.9427795410156
132;340.51416015625
133;339.0999450683594
134;337.6950988769531
135;336.2993469238281
136;334.9123840332031
137;333.5294494628906
138;332.15966796875
139;330.7983093261719
140;329.44073486328125
141;328.09576416015625
142;326.75421142578125
143;325.42474365234375
144;324.102783203125
145;322.7882995605469
146;321.4810485839844
147;320.1769104003906
148;318.8796691894531
149;317.5895080566406
150;316.31024169921875
151;315.03350830078125
152;313.76312255859375
153;312.5027160644531
154;311.2483825683594
155;310.00006103515625
156;308.75762939453125
157;307.5173034667969
158;306.2862854003906
159;305.0572814941406
160;303.8371887207031
161;302.62249755859375
162;301.40960693359375
163;300.2019348144531
164;299.0027770996094
165;297.8053894042969
166;296.6130065917969
167;295.4288024902344
168;294.24957275390625
169;293.0752868652344
170;291.9057922363281
171;290.7381286621094
172;289.5785217285156
173;288.4203796386719
174;287.26708984375
175;286.118896484375
176;284.97528076171875
177;283.839111328125
178;282.7074279785156
179;281.577392578125
180;280.4515686035156
181;279.3327331542969
182;278.21807861328125
183;277.1050109863281
184;275.9961242675781
185;274.8913269042969
186;273.7933044433594
187;272.6993408203125
188;271.6067199707031
189;270.5206604003906
190;269.4360656738281
191;268.3553771972656
192;267.27874755859375
193;266.20867919921875
194;265.1407775878906
195;264.07781982421875
196;263.0210876464844
197;261.9692077636719
198;260.9215393066406
199;259.88031005859375
200;258.8407897949219
201;257.8053283691406
202;256.77618408203125
203;255.7488250732422
204;254.7255096435547
205;253.70626831054688
206;252.6932830810547
207;251.68434143066406
208;250.679443359375
209;249.67860412597656
210;248.6797637939453
211;247.6870574951172
212;246.69630432128906
213;245.70960998535156
214;244.72703552246094
215;243.75051879882812
216;242.778076171875
217;241.80960083007812
218;240.84521484375
219;239.88479614257812
220;238.92648315429688
221;237.97218322753906
222;237.02378845214844
223;236.07748413085938
224;235.1351776123047
225;234.1968536376953
226;233.26431274414062
227;232.33572387695312
228;231.4093017578125
229;230.48681640625
230;229.56832885742188
231;228.65562438964844
232;227.74522399902344
233;226.83883666992188
234;225.9381561279297
235;225.0397491455078
236;224.14540100097656
237;223.25489807128906
238;222.3699188232422
239;221.48876953125
240;220.6098175048828
241;219.734619140625
242;218.86476135253906
243;217.9969940185547
244;217.1329345703125
245;216.2740478515625
246;215.4173126220703
247;214.5641326904297
248;213.71461486816406
249;212.86866760253906
250;212.0277557373047
251;211.18893432617188
252;210.3536376953125
253;209.5218505859375
254;208.69357299804688
255;207.8687744140625
256;207.0474090576172
257;206.22952270507812
258;205.41502380371094
259;204.6039581298828
260;203.79629516601562
261;202.99197387695312
262;202.1910400390625
263;201.39341735839844
264;200.59913635253906
265;199.80946350097656
266;199.0230712890625
267;198.2399444580078
268;197.4587860107422
269;196.6808624267578
270;195.9073944091797
271;195.1359100341797
272;194.3676300048828
273;193.6024627685547
274;192.84054565429688
275;192.08291625976562
276;191.32725524902344
277;190.57469177246094
278;189.82640075683594
279;189.08004760742188
280;188.3367462158203
281;187.59764099121094
282;186.8604736328125
283;186.12744140625
284;185.3973846435547
285;184.66928100585938
286;183.9452362060547
287;183.22410583496094
288;182.5049591064453
289;181.7886962890625
290;181.07640075683594
291;180.36708068847656
292;179.6605987548828
293;178.95602416992188
294;178.25527954101562
295;177.55642700195312
296;176.86148071289062
297;176.16929626464844
298;175.47996520996094
299;174.79244995117188
300;174.10780334472656
301;173.42588806152344
302;172.74771118164062
303;172.0713653564453
304;171.3977813720703
305;170.72689819335938
306;170.0597381591797
307;169.3943328857422
308;168.73170471191406
309;168.0717010498047
310;167.41531372070312
311;166.76158142089844
312;166.1105194091797
313;165.46212768554688
314;164.81546020507812
315;164.1723175048828
316;163.53089904785156
317;162.89297485351562
318;162.2576141357422
319;161.62403869628906
320;160.99386596679688
321;160.36538696289062
322;159.73953247070312
323;159.11619567871094
324;158.4961700439453
325;157.8787384033203
326;157.2637176513672
327;156.6512908935547
328;156.04054260253906
329;155.4322509765625
330;154.82725524902344
331;154.22390747070312
332;153.623046875
333;153.02462768554688
334;152.42941284179688
335;151.83583068847656
336;151.24473571777344
337;150.65602111816406
338;150.07044982910156
339;149.48648071289062
340;148.90567016601562
341;148.32652282714844
342;147.74972534179688
343;147.17526245117188
344;146.6038818359375
345;146.03407287597656
346;145.46665954589844
347;144.9015350341797
348;144.3387451171875
349;143.7788848876953
350;143.22132873535156
351;142.66610717773438
352;142.11244201660156
353;141.56106567382812
354;141.01254272460938
355;140.46630859375
356;139.92166137695312
357;139.37989807128906
358;138.8397216796875
359;138.30238342285156
360;137.76663208007812
361;137.2337188720703
362;136.7023468017578
363;136.1731719970703
364;135.64620971679688
365;135.1220245361328
366;134.6000213623047
367;134.07958984375
368;133.56129455566406
369;133.04574584960938
370;132.53175354003906
371;132.01991271972656
372;131.5102081298828
373;131.00257873535156
374;130.49766540527344
375;129.99427795410156
376;129.49301147460938
377;128.9938507080078
378;128.49679565429688
379;128.00233459472656
380;127.50941467285156
381;127.01908111572266
382;126.53076171875
383;126.04395294189453
384;125.5592041015625
385;125.076416015625
386;124.59565734863281
387;124.11741638183594
388;123.64118957519531
389;123.16688537597656
390;122.6941146850586
391;122.22379302978516
392;121.75541687011719
393;121.28900146484375
394;120.82405090332031
395;120.36150360107422
396;119.90091705322266
397;119.4422378540039
398;118.98502349853516
399;118.52970123291016
400;118.07630920410156
401;117.6252670288086
402;117.17609405517578
403;116.7283706665039
404;116.28252410888672
405;115.83851623535156
406;115.39642333984375
407;114.95616149902344
408;114.51776885986328
409;114.08121490478516
410;113.64691925048828
411;113.21403503417969
412;112.78340148925781
413;112.35456848144531
414;111.92716217041016
415;111.50150299072266
416;111.07770538330078
417;110.65608215332031
418;110.23583984375
419;109.81778717041016
420;109.40110778808594
421;108.98616027832031
422;108.57300567626953
423;108.1620101928711
424;107.7523422241211
425;107.34481048583984
426;106.93865203857422
427;106.53458404541016
428;106.13188171386719
429;105.73088073730469
430;105.3315658569336
431;104.93399810791016
432;104.53812408447266
433;104.14393615722656
434;103.75177764892578
435;103.36132049560547
436;102.97257232666016
437;102.58544921875
438;102.19962310791016
439;101.81584167480469
440;101.43334197998047
441;101.0528564453125
442;100.67399597167969
443;100.29640197753906
444;99.92045593261719
445;99.54650115966797
446;99.17411041259766
447;98.80301666259766
448;98.43387603759766
449;98.06632232666016
450;97.70037078857422
451;97.33598327636719
452;96.97286224365234
453;96.61131286621094
454;96.25167083740234
455;95.89326477050781
456;95.53673553466797
457;95.18177795410156
458;94.82805633544922
459;94.47586822509766
460;94.12523651123047
461;93.77640533447266
462;93.4288330078125
463;93.08307647705078
464;92.73882293701172
465;92.39579772949219
466;92.05426788330078
467;91.71427154541016
468;91.375732421875
469;91.03870391845703
470;90.70343780517578
471;90.369384765625
472;90.03680419921875
473;89.7056655883789
474;89.37602996826172
475;89.04811096191406
476;88.72164154052734
477;88.3963394165039
478;88.07250213623047
479;87.75008392333984
480;87.42938232421875
481;87.1100845336914
482;86.79218292236328
483;86.47577667236328
484;86.16046905517578
485;85.84659576416016
486;85.53434753417969
487;85.22328186035156
488;84.913818359375
489;84.60552978515625
490;84.29883575439453
491;83.99354553222656
492;83.68962860107422
493;83.38680267333984
494;83.08560943603516
495;82.7855224609375
496;82.48702239990234
497;82.18986511230469
498;81.89384460449219
499;81.59915924072266
500;81.30577087402344
501;81.01396179199219
502;80.7232666015625
503;80.43408966064453
504;80.14601135253906
505;79.8592300415039
506;79.57378387451172
507;79.28983306884766
508;79.00716400146484
509;78.72582244873047
510;78.44554138183594
511;78.1667251586914
512;77.88898468017578
513;77.61275482177734
514;77.33753967285156
515;77.0638198852539
516;76.79115295410156
517;76.51972198486328
518;76.24974822998047
519;75.98081970214844
520;75.71334075927734
521;75.44688415527344
522;75.18168640136719
523;74.91767120361328
524;74.65489959716797
525;74.39353942871094
526;74.1332015991211
527;73.8742446899414
528;73.61650848388672
529;73.35997772216797
530;73.10442352294922
531;72.85009765625
532;72.59693145751953
533;72.34494018554688
534;72.0943374633789
535;71.8448715209961
536;71.5965805053711
537;71.3494644165039
538;71.10350799560547
539;70.85867309570312
540;70.6148681640625
541;70.37217712402344
542;70.13079833984375
543;69.8904037475586
544;69.65111541748047
545;69.41300201416016
546;69.17613983154297
547;68.94041442871094
548;68.7057876586914
549;68.47212982177734
550;68.23971557617188
551;68.00825500488281
552;67.77808380126953
553;67.54883575439453
554;67.32066345214844
555;67.09358978271484
556;66.86772918701172
557;66.64297485351562
558;66.41913604736328
559;66.19635772705078
560;65.97465515136719
561;65.75402069091797
562;65.53458404541016
563;65.31620025634766
564;65.09888458251953
565;64.8825912475586
566;64.6672134399414
567;64.452880859375
568;64.23969268798828
569;64.02754974365234
570;63.81642532348633
571;63.60634231567383
572;63.39725875854492
573;63.18920135498047
574;62.98201370239258
575;62.77581787109375
576;62.57078170776367
577;62.36674880981445
578;62.16371536254883
579;61.96163558959961
580;61.76057052612305
581;61.560462951660156
582;61.3613395690918
583;61.163204193115234
584;60.966041564941406
585;60.76971435546875
586;60.574485778808594
587;60.38019561767578
588;60.186767578125
589;59.9943962097168
590;59.8028564453125
591;59.612266540527344
592;59.42261505126953
593;59.23401641845703
594;59.046356201171875
595;58.85951614379883
596;58.67372512817383
597;58.48883819580078
598;58.30475616455078
599;58.12160873413086
600;57.939353942871094
601;57.758026123046875
602;57.57760238647461
603;57.3980712890625
604;57.21952438354492
605;57.04181671142578
606;56.864959716796875
607;56.689125061035156
608;56.51404571533203
609;56.33983612060547
610;56.166648864746094
611;55.99431228637695
612;55.82282257080078
613;55.65222930908203
614;55.482391357421875
615;55.313499450683594
616;55.145362854003906
617;54.97820281982422
618;54.811866760253906
619;54.64627456665039
620;54.48154830932617
621;54.31764602661133
622;54.15468215942383
623;53.99253463745117
624;53.831233978271484
625;53.670738220214844
626;53.510986328125
627;53.35204315185547
628;53.19400405883789
629;53.036773681640625
630;52.88025665283203
631;52.72466278076172
632;52.56975555419922
633;52.415733337402344
634;52.26251220703125
635;52.110076904296875
636;51.95844268798828
637;51.80757522583008
638;51.657413482666016
639;51.50809860229492
640;51.35948944091797
641;51.21166229248047
642;51.06460189819336
643;50.91828536987305
644;50.77273941040039
645;50.6280517578125
646;50.48409652709961
647;50.34091567993164
648;50.19838333129883
649;50.056602478027344
650;49.9156608581543
651;49.775352478027344
652;49.6358757019043
653;49.497047424316406
654;49.35902786254883
655;49.221744537353516
656;49.08517837524414
657;48.94932174682617
658;48.814117431640625
659;48.679710388183594
660;48.54594039916992
661;48.412879943847656
662;48.28050994873047
663;48.14893341064453
664;48.018043518066406
665;47.88779067993164
666;47.7582893371582
667;47.6294059753418
668;47.50128936767578
669;47.373870849609375
670;47.24703598022461
671;47.120906829833984
672;46.99551010131836
673;46.87078857421875
674;46.74672317504883
675;46.623268127441406
676;46.50054931640625
677;46.37842559814453
678;46.25696563720703
679;46.136207580566406
680;46.01611328125
681;45.896602630615234
682;45.77775192260742
683;45.65953826904297
684;45.54195785522461
685;45.425079345703125
686;45.30876922607422
687;45.19310760498047
688;45.07807540893555
689;44.96371078491211
690;44.84999465942383
691;44.736820220947266
692;44.62434005737305
693;44.512474060058594
694;44.401153564453125
695;44.290504455566406
696;44.180423736572266
697;44.0709228515625
698;43.96204376220703
699;43.853759765625
700;43.746124267578125
701;43.63907241821289
702;43.53262710571289
703;43.4267692565918
704;43.32143783569336
705;43.21674728393555
706;43.11263656616211
707;43.00910186767578
708;42.906150817871094
709;42.8037223815918
710;42.70185089111328
711;42.60061264038086
712;42.49993133544922
713;42.39981460571289
714;42.30022048950195
715;42.201171875
716;42.102725982666016
717;42.004791259765625
718;41.907447814941406
719;41.810646057128906
720;41.71435546875
721;41.618648529052734
722;41.52347946166992
723;41.428855895996094
724;41.33470916748047
725;41.2411003112793
726;41.14802932739258
727;41.05546188354492
728;40.96344757080078
729;40.87195587158203
730;40.78097152709961
731;40.6905517578125
732;40.60065460205078
733;40.51122283935547
734;40.42230224609375
735;40.33393096923828
736;40.24605941772461
737;40.15869140625
738;40.0717887878418
739;39.98542022705078
740;39.899559020996094
741;39.81418228149414
742;39.72929763793945
743;39.64486312866211
744;39.5609130859375
745;39.477447509765625
746;39.39447021484375
747;39.31203079223633
748;39.23003387451172
749;39.14849090576172
750;39.06742477416992
751;38.98685073852539
752;38.90676498413086
753;38.82712173461914
754;38.747928619384766
755;38.669189453125
756;38.59091567993164
757;38.51309585571289
758;38.43577194213867
759;38.35885238647461
760;38.282432556152344
761;38.20644760131836
762;38.130882263183594
763;38.05575180053711
764;37.9810791015625
765;37.90684127807617
766;37.83303451538086
767;37.75967788696289
768;37.68674850463867
769;37.61428451538086
770;37.54224395751953
771;37.47063064575195
772;37.399417877197266
773;37.32863235473633
774;37.25824737548828
775;37.18829345703125
776;37.11876678466797
777;37.0496711730957
778;36.98097610473633
779;36.91269302368164
780;36.84481430053711
781;36.77732467651367
782;36.71027374267578
783;36.64362716674805
784;36.57738494873047
785;36.51152801513672
786;36.446048736572266
787;36.380985260009766
788;36.31630325317383
789;36.252017974853516
790;36.188106536865234
791;36.12458038330078
792;36.06144332885742
793;35.99870681762695
794;35.936336517333984
795;35.874332427978516
796;35.81272506713867
797;35.75151443481445
798;35.69066619873047
799;35.63016128540039
800;35.57003402709961
801;35.51028823852539
802;35.45091247558594
803;35.39190673828125
804;35.33322525024414
805;35.274925231933594
806;35.21697998046875
807;35.15939712524414
808;35.10218048095703
809;35.045291900634766
810;34.988739013671875
811;34.932552337646484
812;34.87672424316406
813;34.821258544921875
814;34.76609802246094
815;34.711307525634766
816;34.65684127807617
817;34.60272979736328
818;34.54894256591797
819;34.49549102783203
820;34.44237518310547
821;34.38956832885742
822;34.33710861206055
823;34.28496551513672
824;34.2331657409668
825;34.18169403076172
826;34.13052749633789
827;34.079681396484375
828;34.02914047241211
829;33.97893142700195
830;33.929046630859375
831;33.879451751708984
832;33.83020782470703
833;33.78125
834;33.732601165771484
835;33.68427276611328
836;33.636234283447266
837;33.588523864746094
838;33.54108810424805
839;33.49399185180664
840;33.447181701660156
841;33.40066909790039
842;33.35444641113281
843;33.308502197265625
844;33.262855529785156
845;33.21750259399414
846;33.172462463378906
847;33.127681732177734
848;33.083187103271484
849;33.03900146484375
850;32.995086669921875
851;32.95144271850586
852;32.908103942871094
853;32.865028381347656
854;32.82221221923828
855;32.77970504760742
856;32.737457275390625
857;32.695491790771484
858;32.65380859375
859;32.612388610839844
860;32.571224212646484
861;32.53032684326172
862;32.489707946777344
863;32.44934844970703
864;32.40925979614258
865;32.36941146850586
866;32.329837799072266
867;32.29051971435547
868;32.251441955566406
869;32.212623596191406
870;32.174076080322266
871;32.13576889038086
872;32.09772872924805
873;32.059913635253906
874;32.0223503112793
875;31.98504638671875
876;31.947969436645508
877;31.91115379333496
878;31.87459373474121
879;31.838253021240234
880;31.80217170715332
881;31.76631736755371
882;31.73069190979004
883;31.6953067779541
884;31.660158157348633
885;31.625242233276367
886;31.59054946899414
887;31.556108474731445
888;31.521879196166992
889;31.487890243530273
890;31.45413589477539
891;31.420589447021484
892;31.38726806640625
893;31.354177474975586
894;31.321308135986328
895;31.28866195678711
896;31.256221771240234
897;31.2239990234375
898;31.191999435424805
899;31.160226821899414
900;31.128652572631836
901;31.097286224365234
902;31.066137313842773
903;31.035202026367188
904;31.00447654724121
905;30.973955154418945
906;30.94363784790039
907;30.913545608520508
908;30.883651733398438
909;30.853958129882812
910;30.824480056762695
911;30.795175552368164
912;30.766088485717773
913;30.737199783325195
914;30.708505630493164
915;30.679996490478516
916;30.65169334411621
917;30.62357521057129
918;30.595659255981445
919;30.567930221557617
920;30.540393829345703
921;30.513051986694336
922;30.485891342163086
923;30.458932876586914
924;30.43214988708496
925;30.40554428100586
926;30.37912368774414
927;30.35289192199707
928;30.32682991027832
929;30.300949096679688
930;30.2752628326416
931;30.249755859375
932;30.22442626953125
933;30.199264526367188
934;30.174283981323242
935;30.149465560913086
936;30.124834060668945
937;30.100378036499023
938;30.076080322265625
939;30.05195426940918
940;30.02800178527832
941;30.004207611083984
942;29.980587005615234
943;29.95711898803711
944;29.933835983276367
945;29.91069984436035
946;29.887731552124023
947;29.86492919921875
948;29.84228515625
949;29.819799423217773
950;29.797473907470703
951;29.775312423706055
952;29.753307342529297
953;29.731462478637695
954;29.70975685119629
955;29.688213348388672
956;29.66682243347168
957;29.645586013793945
958;29.62449836730957
959;29.60354995727539
960;29.58277702331543
961;29.5621337890625
962;29.54163932800293
963;29.52129554748535
964;29.5010986328125
965;29.48103904724121
966;29.46112632751465
967;29.441356658935547
968;29.42173957824707
969;29.402254104614258
970;29.382904052734375
971;29.36369514465332
972;29.344635009765625
973;29.325708389282227
974;29.306926727294922
975;29.28826332092285
976;29.269739151000977
977;29.25135612487793
978;29.23311424255371
979;29.21500015258789
980;29.197011947631836
981;29.179157257080078
982;29.161434173583984
983;29.143829345703125
984;29.126359939575195
985;29.109025955200195
986;29.091814041137695
987;29.074724197387695
988;29.05776023864746
989;29.040924072265625
990;29.024206161499023
991;29.007610321044922
992;28.991132736206055
993;28.97478675842285
994;28.95855712890625
995;28.942445755004883
996;28.926456451416016
997;28.910587310791016
998;28.894826889038086
999;28.87919044494629
