;loss
0;896.3394775390625
1;895.0303344726562
2;893.735107421875
3;892.568115234375
4;891.2965087890625
5;890.0894775390625
6;888.8753662109375
7;887.6575927734375
8;886.4376831054688
9;885.2158813476562
10;883.986083984375
11;882.7586059570312
12;881.5261840820312
13;880.2867431640625
14;879.0443115234375
15;877.7919921875
16;876.5269165039062
17;875.2459106445312
18;873.945556640625
19;872.6226806640625
20;871.2736206054688
21;869.8794555664062
22;868.466064453125
23;867.0144653320312
24;865.5201416015625
25;863.9780883789062
26;862.3828735351562
27;860.7090454101562
28;858.968505859375
29;857.1752319335938
30;855.3017578125
31;853.3154907226562
32;851.252685546875
33;849.0791015625
34;846.7556762695312
35;844.3201293945312
36;841.7002563476562
37;838.9044799804688
38;835.9097900390625
39;832.689453125
40;829.213134765625
41;825.4844360351562
42;821.3816528320312
43;816.9364624023438
44;812.0443115234375
45;806.6285400390625
46;800.591796875
47;793.814697265625
48;786.1470336914062
49;777.400146484375
50;767.338623046875
51;755.5584106445312
52;741.9234619140625
53;725.8123779296875
54;707.0130004882812
55;685.6547241210938
56;661.8656616210938
57;637.339599609375
58;613.5394287109375
59;592.3869018554688
60;574.284912109375
61;559.0504760742188
62;546.1144409179688
63;535.106201171875
64;525.6254272460938
65;517.368408203125
66;510.1099548339844
67;503.6753845214844
68;497.8900451660156
69;492.6325378417969
70;487.81512451171875
71;483.3843078613281
72;479.2242431640625
73;475.33984375
74;471.66424560546875
75;468.142578125
76;464.79217529296875
77;461.5694580078125
78;458.4370422363281
79;455.4027099609375
80;452.4599304199219
81;449.5995788574219
82;446.8168640136719
83;444.1215515136719
84;441.4919738769531
85;438.9104309082031
86;436.4023132324219
87;433.9491271972656
88;431.5334777832031
89;429.1796875
90;426.8584899902344
91;424.5803527832031
92;422.35333251953125
93;420.1522216796875
94;417.98602294921875
95;415.8637390136719
96;413.7737121582031
97;411.7037353515625
98;409.6724548339844
99;407.6588134765625
100;405.6712951660156
101;403.7178039550781
102;401.7879943847656
103;399.88067626953125
104;397.9864196777344
105;396.1133728027344
106;394.2612609863281
107;392.42889404296875
108;390.6232604980469
109;388.8356628417969
110;387.0657043457031
111;385.3126220703125
112;383.5688171386719
113;381.8483581542969
114;380.1366271972656
115;378.44708251953125
116;376.7723693847656
117;375.10528564453125
118;373.45880126953125
119;371.8194274902344
120;370.1934814453125
121;368.5866394042969
122;366.9920959472656
123;365.40325927734375
124;363.8319091796875
125;362.2657775878906
126;360.7164306640625
127;359.17193603515625
128;357.63812255859375
129;356.1202087402344
130;354.61236572265625
131;353.1091003417969
132;351.6155090332031
133;350.13153076171875
134;348.6567687988281
135;347.1962585449219
136;345.7395324707031
137;344.2916564941406
138;342.8523254394531
139;341.4261779785156
140;340.0034484863281
141;338.59344482421875
142;337.1867980957031
143;335.7879943847656
144;334.3969421386719
145;333.0177917480469
146;331.6460266113281
147;330.2815246582031
148;328.92425537109375
149;327.5698547363281
150;326.2225036621094
151;324.882080078125
152;323.55255126953125
153;322.2257080078125
154;320.9056396484375
155;319.5921630859375
156;318.2890930175781
157;316.9886474609375
158;315.69842529296875
159;314.4144287109375
160;313.1329345703125
161;311.8576965332031
162;310.5921936035156
163;309.3327331542969
164;308.0793151855469
165;306.8283996582031
166;305.5868835449219
167;304.3511962890625
168;303.1213073730469
169;301.8939208984375
170;300.6723327636719
171;299.4596252441406
172;298.2493896484375
173;297.04791259765625
174;295.8489074707031
175;294.6585693359375
176;293.4737243652344
177;292.2912292480469
178;291.1172180175781
179;289.94561767578125
180;288.7823181152344
181;287.624267578125
182;286.4715576171875
183;285.3240966796875
184;284.1817626953125
185;283.04461669921875
186;281.9097900390625
187;280.7829284667969
188;279.65838623046875
189;278.54156494140625
190;277.4271240234375
191;276.3202819824219
192;275.2157897949219
193;274.1187744140625
194;273.02667236328125
195;271.9394226074219
196;270.8545227050781
197;269.7744445800781
198;268.7015686035156
199;267.6309814453125
200;266.5650329589844
201;265.50616455078125
202;264.4495544433594
203;263.39752197265625
204;262.35009765625
205;261.3072509765625
206;260.2689208984375
207;259.2350769042969
208;258.20574951171875
209;257.1807861328125
210;256.1624755859375
211;255.14630126953125
212;254.1366729736328
213;253.13128662109375
214;252.13023376464844
215;251.13136291503906
216;250.13677978515625
217;249.1464385986328
218;248.16224670410156
219;247.18223571777344
220;246.20631408691406
221;245.23255920410156
222;244.2628936767578
223;243.29730224609375
224;242.33766174316406
225;241.3820343017578
226;240.42857360839844
227;239.48086547851562
228;238.53533935546875
229;237.59368896484375
230;236.65780639648438
231;235.72401428222656
232;234.79405212402344
233;233.86972045898438
234;232.9491729736328
235;232.03240966796875
236;231.11769104003906
237;230.206787109375
238;229.30126953125
239;228.39781188964844
240;227.498046875
241;226.60362243652344
242;225.71282958984375
243;224.82408142089844
244;223.94053649902344
245;223.06060791015625
246;222.18423461914062
247;221.31141662597656
248;220.44212341308594
249;219.57484436035156
250;218.71104431152344
251;217.8522491455078
252;216.99688720703125
253;216.14501953125
254;215.29656982421875
255;214.45156860351562
256;213.60997009277344
257;212.77174377441406
258;211.93545532226562
259;211.10398864746094
260;210.27577209472656
261;209.4508819580078
262;208.62933349609375
263;207.81103515625
264;206.99603271484375
265;206.1829071044922
266;205.373046875
267;204.56771850585938
268;203.76426696777344
269;202.96533203125
270;202.16952514648438
271;201.3769073486328
272;200.5874481201172
273;199.80104064941406
274;199.01658630371094
275;198.23641967773438
276;197.45819091796875
277;196.68418884277344
278;195.912109375
279;195.14305114746094
280;194.37701416015625
281;193.6140594482422
282;192.85528564453125
283;192.09954833984375
284;191.34559631347656
285;190.59461975097656
286;189.84774780273438
287;189.10272216796875
288;188.36170959472656
289;187.62367248535156
290;186.88739013671875
291;186.15509033203125
292;185.4257354736328
293;184.69810485839844
294;183.97337341308594
295;183.25253295898438
296;182.53346252441406
297;181.8183135986328
298;181.1049041748047
299;180.39431762695312
300;179.68653869628906
301;178.98252868652344
302;178.2813262939453
303;177.5818328857422
304;176.88514709472656
305;176.19114685058594
306;175.49993896484375
307;174.81141662597656
308;174.1255645751953
309;173.44334411621094
310;172.76296997070312
311;172.08518981933594
312;171.4100799560547
313;170.73858642578125
314;170.0696563720703
315;169.40252685546875
316;168.73797607421875
317;168.07696533203125
318;167.41854858398438
319;166.76268005371094
320;166.10943603515625
321;165.45785522460938
322;164.80886840820312
323;164.1624755859375
324;163.51861572265625
325;162.87725830078125
326;162.23928833007812
327;161.60301208496094
328;160.97007751464844
329;160.3387908935547
330;159.7108154296875
331;159.08531188964844
332;158.46145629882812
333;157.840087890625
334;157.22117614746094
335;156.60545349121094
336;155.99139404296875
337;155.3797607421875
338;154.77130126953125
339;154.165283203125
340;153.56085205078125
341;152.95887756347656
342;152.35923767089844
343;151.76278686523438
344;151.1678924560547
345;150.57537841796875
346;149.98587036132812
347;149.3987579345703
348;148.8132781982422
349;148.23007202148438
350;147.6492156982422
351;147.07131958007812
352;146.49574279785156
353;145.9217529296875
354;145.35069274902344
355;144.78128051757812
356;144.21475219726562
357;143.64988708496094
358;143.08718872070312
359;142.5273895263672
360;141.96922302246094
361;141.4138946533203
362;140.86077880859375
363;140.3098602294922
364;139.760498046875
365;139.21400451660156
366;138.6690216064453
367;138.12620544433594
368;137.5856170654297
369;137.0471649169922
370;136.51141357421875
371;135.97727966308594
372;135.44586181640625
373;134.91651916503906
374;134.38877868652344
375;133.86314392089844
376;133.33956909179688
377;132.81813049316406
378;132.2993621826172
379;131.78211975097656
380;131.2674560546875
381;130.75437927246094
382;130.24334716796875
383;129.73434448242188
384;129.22796630859375
385;128.72311401367188
386;128.22023010253906
387;127.71942901611328
388;127.22116088867188
389;126.72492980957031
390;126.23064422607422
391;125.73839569091797
392;125.2476577758789
393;124.75939178466797
394;124.2730712890625
395;123.78827667236328
396;123.305419921875
397;122.82500457763672
398;122.3465347290039
399;121.87004852294922
400;121.39498901367188
401;120.92190551757812
402;120.4507064819336
403;119.9814453125
404;119.51408386230469
405;119.04911804199219
406;118.5860595703125
407;118.12443542480469
408;117.66466522216797
409;117.20677947998047
410;116.7512435913086
411;116.297119140625
412;115.84530639648438
413;115.39486694335938
414;114.9467544555664
415;114.50004577636719
416;114.05516815185547
417;113.61213684082031
418;113.17134094238281
419;112.73236846923828
420;112.2947769165039
421;111.85942840576172
422;111.42583465576172
423;110.9936752319336
424;110.56367492675781
425;110.13507843017578
426;109.70864868164062
427;109.28359985351562
428;108.8606948852539
429;108.43952941894531
430;108.02014923095703
431;107.60248565673828
432;107.1861572265625
433;106.77198028564453
434;106.35913848876953
435;105.94802856445312
436;105.53861999511719
437;105.13131713867188
438;104.72567749023438
439;104.3217544555664
440;103.91918182373047
441;103.51825714111328
442;103.119384765625
443;102.72216796875
444;102.32666015625
445;101.93242645263672
446;101.54022979736328
447;101.14932250976562
448;100.76005554199219
449;100.37244415283203
450;99.98680877685547
451;99.60246276855469
452;99.22006225585938
453;98.83893585205078
454;98.4594497680664
455;98.08158874511719
456;97.70527648925781
457;97.33061981201172
458;96.95783233642578
459;96.58631134033203
460;96.21670532226562
461;95.8483657836914
462;95.4815673828125
463;95.11636352539062
464;94.75304412841797
465;94.39091491699219
466;94.03036499023438
467;93.67137908935547
468;93.314208984375
469;92.95825958251953
470;92.6038589477539
471;92.25096893310547
472;91.89961242675781
473;91.55004119873047
474;91.20198822021484
475;90.85513305664062
476;90.50977325439453
477;90.16592407226562
478;89.82357788085938
479;89.48265838623047
480;89.1435317993164
481;88.80581665039062
482;88.4693374633789
483;88.13459014892578
484;87.80130004882812
485;87.46946716308594
486;87.13875579833984
487;86.80953979492188
488;86.48197174072266
489;86.1558837890625
490;85.8311767578125
491;85.50792694091797
492;85.1858139038086
493;84.8653564453125
494;84.54605865478516
495;84.2284164428711
496;83.91191101074219
497;83.59705352783203
498;83.28356170654297
499;82.97148132324219
500;82.66047668457031
501;82.35114288330078
502;82.04290008544922
503;81.73627471923828
504;81.43074798583984
505;81.1265869140625
506;80.82378387451172
507;80.52233123779297
508;80.2221908569336
509;79.9236068725586
510;79.62635040283203
511;79.33043670654297
512;79.03559875488281
513;78.74207305908203
514;78.45011901855469
515;78.15921020507812
516;77.86962127685547
517;77.58151245117188
518;77.29450225830078
519;77.00877380371094
520;76.72451782226562
521;76.44135284423828
522;76.15947723388672
523;75.87882995605469
524;75.59968566894531
525;75.32158660888672
526;75.04473114013672
527;74.76931762695312
528;74.49496459960938
529;74.22205352783203
530;73.95018768310547
531;73.6795425415039
532;73.41012573242188
533;73.14212036132812
534;72.87535858154297
535;72.60960388183594
536;72.34503936767578
537;72.08170318603516
538;71.81973266601562
539;71.5589828491211
540;71.29922485351562
541;71.04067993164062
542;70.7833023071289
543;70.52708435058594
544;70.2720718383789
545;70.01822662353516
546;69.76570892333984
547;69.51419830322266
548;69.26399993896484
549;69.01497650146484
550;68.76707458496094
551;68.52015686035156
552;68.27437591552734
553;68.02974700927734
554;67.7862319946289
555;67.5440444946289
556;67.3029556274414
557;67.06300354003906
558;66.82400512695312
559;66.58624267578125
560;66.34947204589844
561;66.11392211914062
562;65.87950897216797
563;65.64617919921875
564;65.41394805908203
565;65.18279266357422
566;64.95269012451172
567;64.72370910644531
568;64.49581909179688
569;64.2689437866211
570;64.04318237304688
571;63.818443298339844
572;63.59478759765625
573;63.3721809387207
574;63.15048599243164
575;62.92996597290039
576;62.71037292480469
577;62.491939544677734
578;62.274391174316406
579;62.05803298950195
580;61.84270095825195
581;61.628238677978516
582;61.41484451293945
583;61.202415466308594
584;60.99101638793945
585;60.7807731628418
586;60.571388244628906
587;60.362998962402344
588;60.155616760253906
589;59.94921875
590;59.74380111694336
591;59.53953552246094
592;59.336219787597656
593;59.13377380371094
594;58.93240737915039
595;58.73200988769531
596;58.53261947631836
597;58.33415222167969
598;58.13652420043945
599;57.93998718261719
600;57.744285583496094
601;57.549522399902344
602;57.355838775634766
603;57.163063049316406
604;56.97126388549805
605;56.780372619628906
606;56.59029769897461
607;56.40116882324219
608;56.212947845458984
609;56.02565002441406
610;55.8393669128418
611;55.65400695800781
612;55.46944808959961
613;55.285804748535156
614;55.10304260253906
615;54.921199798583984
616;54.7403450012207
617;54.560279846191406
618;54.381221771240234
619;54.202919006347656
620;54.02560043334961
621;53.849178314208984
622;53.67351150512695
623;53.49870300292969
624;53.32487869262695
625;53.15193176269531
626;52.97984313964844
627;52.8085823059082
628;52.63808822631836
629;52.468448638916016
630;52.299644470214844
631;52.13169860839844
632;51.964576721191406
633;51.798404693603516
634;51.633056640625
635;51.46853256225586
636;51.304752349853516
637;51.14187240600586
638;50.979732513427734
639;50.8184928894043
640;50.65799331665039
641;50.498374938964844
642;50.339561462402344
643;50.18156433105469
644;50.02426528930664
645;49.867855072021484
646;49.71223068237305
647;49.557315826416016
648;49.4031867980957
649;49.24993896484375
650;49.097354888916016
651;48.9456901550293
652;48.794734954833984
653;48.64449691772461
654;48.495121002197266
655;48.346492767333984
656;48.19862365722656
657;48.051513671875
658;47.9051628112793
659;47.75947570800781
660;47.614627838134766
661;47.470542907714844
662;47.327083587646484
663;47.184383392333984
664;47.042503356933594
665;46.901344299316406
666;46.760921478271484
667;46.621150970458984
668;46.482173919677734
669;46.34392547607422
670;46.20631408691406
671;46.06942367553711
672;45.93331527709961
673;45.79790115356445
674;45.66322326660156
675;45.529170989990234
676;45.39580154418945
677;45.26321792602539
678;45.131248474121094
679;45.00004577636719
680;44.86946487426758
681;44.73954772949219
682;44.6103401184082
683;44.48185729980469
684;44.35408020019531
685;44.22695541381836
686;44.10051727294922
687;43.9747200012207
688;43.84955978393555
689;43.72509765625
690;43.60129928588867
691;43.47811508178711
692;43.355567932128906
693;43.23367691040039
694;43.11241912841797
695;42.99188232421875
696;42.87199401855469
697;42.75273895263672
698;42.634124755859375
699;42.51614761352539
700;42.39873123168945
701;42.282005310058594
702;42.16585922241211
703;42.05037307739258
704;41.93553161621094
705;41.8212890625
706;41.70760726928711
707;41.594608306884766
708;41.48222351074219
709;41.3703727722168
710;41.25913619995117
711;41.14854049682617
712;41.03855895996094
713;40.92917251586914
714;40.82038497924805
715;40.712127685546875
716;40.604454040527344
717;40.497440338134766
718;40.39094543457031
719;40.285091400146484
720;40.179805755615234
721;40.075042724609375
722;39.970909118652344
723;39.86735534667969
724;39.76428985595703
725;39.66181945800781
726;39.559940338134766
727;39.4586296081543
728;39.35783767700195
729;39.25764083862305
730;39.157955169677734
731;39.05886459350586
732;38.96028137207031
733;38.86227798461914
734;38.764827728271484
735;38.667911529541016
736;38.57148742675781
737;38.47561264038086
738;38.38030242919922
739;38.28547286987305
740;38.19123458862305
741;38.09751892089844
742;38.00430679321289
743;37.91158676147461
744;37.81943130493164
745;37.7277946472168
746;37.63666915893555
747;37.54600143432617
748;37.45584487915039
749;37.36625671386719
750;37.277156829833984
751;37.18857192993164
752;37.100467681884766
753;37.01283264160156
754;36.925697326660156
755;36.83907699584961
756;36.75296401977539
757;36.667335510253906
758;36.582191467285156
759;36.497520446777344
760;36.41331100463867
761;36.32956314086914
762;36.24631118774414
763;36.163578033447266
764;36.081295013427734
765;35.99949264526367
766;35.918148040771484
767;35.837284088134766
768;35.756874084472656
769;35.67693328857422
770;35.597450256347656
771;35.51841354370117
772;35.43984603881836
773;35.36172103881836
774;35.28404235839844
775;35.20681381225586
776;35.130008697509766
777;35.05364990234375
778;34.97775650024414
779;34.90230941772461
780;34.82730484008789
781;34.7526969909668
782;34.67850875854492
783;34.60477066040039
784;34.53145980834961
785;34.45859146118164
786;34.386138916015625
787;34.31410217285156
788;34.242523193359375
789;34.171356201171875
790;34.10060501098633
791;34.030269622802734
792;33.960330963134766
793;33.89079284667969
794;33.82168197631836
795;33.752994537353516
796;33.68468475341797
797;33.61677551269531
798;33.54928970336914
799;33.4821662902832
800;33.41548538208008
801;33.34919738769531
802;33.28329086303711
803;33.2177848815918
804;33.15263366699219
805;33.08790588378906
806;33.0235595703125
807;32.95960998535156
808;32.89599609375
809;32.832767486572266
810;32.76992416381836
811;32.70745849609375
812;32.645381927490234
813;32.58365249633789
814;32.52233123779297
815;32.461368560791016
816;32.4007682800293
817;32.340518951416016
818;32.2806510925293
819;32.22114944458008
820;32.16197967529297
821;32.1031608581543
822;32.04471206665039
823;31.986610412597656
824;31.928874969482422
825;31.871484756469727
826;31.814453125
827;31.757780075073242
828;31.701438903808594
829;31.645444869995117
830;31.589771270751953
831;31.534446716308594
832;31.479469299316406
833;31.424829483032227
834;31.370512008666992
835;31.31651496887207
836;31.262880325317383
837;31.209552764892578
838;31.15654754638672
839;31.10387420654297
840;31.051525115966797
841;30.9995059967041
842;30.94782257080078
843;30.896455764770508
844;30.845386505126953
845;30.794639587402344
846;30.744184494018555
847;30.694091796875
848;30.644269943237305
849;30.594764709472656
850;30.545570373535156
851;30.496681213378906
852;30.448101043701172
853;30.399812698364258
854;30.351829528808594
855;30.304161071777344
856;30.256807327270508
857;30.20973014831543
858;30.162940979003906
859;30.1164493560791
860;30.07024574279785
861;30.024351119995117
862;29.978727340698242
863;29.933382034301758
864;29.88835334777832
865;29.843605041503906
866;29.79912757873535
867;29.754924774169922
868;29.711017608642578
869;29.667381286621094
870;29.624011993408203
871;29.58092498779297
872;29.538114547729492
873;29.495580673217773
874;29.45330810546875
875;29.41132164001465
876;29.369590759277344
877;29.328125
878;29.28692626953125
879;29.245996475219727
880;29.205333709716797
881;29.1649112701416
882;29.124774932861328
883;29.08488655090332
884;29.045249938964844
885;29.005884170532227
886;28.966758728027344
887;28.927875518798828
888;28.889253616333008
889;28.85088539123535
890;28.812761306762695
891;28.774877548217773
892;28.73723030090332
893;28.699846267700195
894;28.662702560424805
895;28.62580108642578
896;28.589143753051758
897;28.55272674560547
898;28.516523361206055
899;28.480554580688477
900;28.444841384887695
901;28.409339904785156
902;28.374086380004883
903;28.339078903198242
904;28.30426597595215
905;28.26970863342285
906;28.235376358032227
907;28.201263427734375
908;28.16736602783203
909;28.133708953857422
910;28.10027503967285
911;28.067052841186523
912;28.034046173095703
913;28.001270294189453
914;27.968700408935547
915;27.93634605407715
916;27.904199600219727
917;27.872270584106445
918;27.840553283691406
919;27.809049606323242
920;27.77775764465332
921;27.746667861938477
922;27.715803146362305
923;27.685131072998047
924;27.65467643737793
925;27.624412536621094
926;27.594343185424805
927;27.564495086669922
928;27.53485107421875
929;27.505390167236328
930;27.47612190246582
931;27.447052001953125
932;27.418190002441406
933;27.38951301574707
934;27.361040115356445
935;27.3327579498291
936;27.304670333862305
937;27.276758193969727
938;27.249052047729492
939;27.221513748168945
940;27.194171905517578
941;27.167020797729492
942;27.140043258666992
943;27.113258361816406
944;27.086650848388672
945;27.060224533081055
946;27.033977508544922
947;27.00792121887207
948;26.982032775878906
949;26.956321716308594
950;26.9307918548584
951;26.905433654785156
952;26.8802490234375
953;26.855247497558594
954;26.830411911010742
955;26.805744171142578
956;26.78125
957;26.756916046142578
958;26.732759475708008
959;26.708757400512695
960;26.6849308013916
961;26.661277770996094
962;26.637767791748047
963;26.61443328857422
964;26.59125328063965
965;26.568235397338867
966;26.545377731323242
967;26.522680282592773
968;26.500150680541992
969;26.477766036987305
970;26.455541610717773
971;26.433469772338867
972;26.41156578063965
973;26.389799118041992
974;26.368181228637695
975;26.34672737121582
976;26.325414657592773
977;26.304248809814453
978;26.283241271972656
979;26.26238441467285
980;26.241670608520508
981;26.221107482910156
982;26.20067596435547
983;26.180387496948242
984;26.160253524780273
985;26.1402530670166
986;26.120399475097656
987;26.100696563720703
988;26.08112144470215
989;26.06169319152832
990;26.042396545410156
991;26.023225784301758
992;26.004213333129883
993;25.985328674316406
994;25.966588973999023
995;25.947965621948242
996;25.929481506347656
997;25.9111328125
998;25.892911911010742
999;25.874828338623047
1000;25.85687255859375
1001;25.83904266357422
1002;25.82133674621582
1003;25.80376434326172
1004;25.78631591796875
1005;25.768999099731445
1006;25.751802444458008
1007;25.734729766845703
1008;25.7177734375
1009;25.700946807861328
1010;25.684247970581055
1011;25.66765785217285
1012;25.651203155517578
1013;25.634862899780273
1014;25.618629455566406
1015;25.602527618408203
1016;25.586530685424805
1017;25.57066535949707
1018;25.554903030395508
1019;25.53925323486328
1020;25.523725509643555
1021;25.508317947387695
1022;25.493013381958008
1023;25.477815628051758
1024;25.462732315063477
1025;25.447765350341797
1026;25.43290901184082
1027;25.41815757751465
1028;25.403514862060547
1029;25.38897705078125
1030;25.374553680419922
1031;25.3602352142334
1032;25.34602165222168
1033;25.3319091796875
1034;25.317909240722656
1035;25.30401039123535
1036;25.290205001831055
1037;25.276508331298828
1038;25.262916564941406
1039;25.249427795410156
1040;25.23603057861328
1041;25.222740173339844
1042;25.209550857543945
1043;25.196453094482422
1044;25.1834659576416
1045;25.170555114746094
1046;25.157751083374023
1047;25.145048141479492
1048;25.13243865966797
1049;25.119916915893555
1050;25.10748863220215
1051;25.09515953063965
1052;25.082918167114258
1053;25.070777893066406
1054;25.058727264404297
1055;25.0467586517334
1056;25.034887313842773
1057;25.023103713989258
1058;25.01141357421875
1059;24.999794006347656
1060;24.9882869720459
1061;24.976856231689453
1062;24.96551513671875
1063;24.954256057739258
1064;24.943082809448242
1065;24.93199920654297
1066;24.920989990234375
1067;24.910066604614258
1068;24.89923667907715
1069;24.88848304748535
1070;24.8778076171875
1071;24.867219924926758
1072;24.856714248657227
1073;24.846290588378906
1074;24.8359432220459
1075;24.82567024230957
1076;24.81547737121582
1077;24.805370330810547
1078;24.795337677001953
1079;24.785377502441406
1080;24.775501251220703
1081;24.765697479248047
1082;24.755970001220703
1083;24.746318817138672
1084;24.73674201965332
1085;24.72724151611328
1086;24.717805862426758
1087;24.708457946777344
1088;24.699169158935547
1089;24.689958572387695
1090;24.680818557739258
1091;24.6717529296875
1092;24.662752151489258
1093;24.653820037841797
1094;24.644956588745117
1095;24.636171340942383
1096;24.627452850341797
1097;24.618791580200195
1098;24.610212326049805
1099;24.601701736450195
1100;24.593242645263672
1101;24.584856033325195
1102;24.5765380859375
1103;24.568286895751953
1104;24.560091018676758
1105;24.551977157592773
1106;24.543912887573242
1107;24.535921096801758
1108;24.527984619140625
1109;24.520118713378906
1110;24.512310028076172
1111;24.504560470581055
1112;24.496875762939453
1113;24.4892578125
1114;24.481687545776367
1115;24.47418785095215
1116;24.46674156188965
1117;24.45935821533203
1118;24.4520320892334
1119;24.44476890563965
1120;24.43755531311035
1121;24.430402755737305
1122;24.423316955566406
1123;24.416276931762695
1124;24.4093017578125
1125;24.402376174926758
1126;24.395505905151367
1127;24.388689041137695
1128;24.381929397583008
1129;24.375221252441406
1130;24.368568420410156
1131;24.361970901489258
1132;24.355430603027344
1133;24.34893035888672
1134;24.342500686645508
1135;24.336109161376953
1136;24.32976722717285
1137;24.323484420776367
1138;24.317258834838867
1139;24.311071395874023
1140;24.304931640625
1141;24.298852920532227
1142;24.292818069458008
1143;24.286842346191406
1144;24.280900955200195
1145;24.275007247924805
1146;24.269176483154297
1147;24.263385772705078
1148;24.257631301879883
1149;24.251941680908203
1150;24.246294021606445
1151;24.240684509277344
1152;24.235130310058594
1153;24.2296142578125
1154;24.224153518676758
1155;24.218732833862305
1156;24.213346481323242
1157;24.2080135345459
1158;24.202722549438477
1159;24.197481155395508
1160;24.192277908325195
1161;24.18712043762207
1162;24.181995391845703
1163;24.17692756652832
1164;24.171892166137695
1165;24.166902542114258
1166;24.161954879760742
1167;24.157041549682617
1168;24.152172088623047
1169;24.1473445892334
1170;24.142555236816406
1171;24.1378116607666
1172;24.133106231689453
1173;24.128440856933594
1174;24.123807907104492
1175;24.119213104248047
1176;24.114667892456055
1177;24.110151290893555
1178;24.105674743652344
1179;24.101234436035156
1180;24.096830368041992
1181;24.09246826171875
1182;24.0881404876709
1183;24.083845138549805
1184;24.07958984375
1185;24.07537269592285
1186;24.071189880371094
1187;24.067033767700195
1188;24.062925338745117
1189;24.0588436126709
1190;24.05479621887207
1191;24.0507869720459
1192;24.04681396484375
1193;24.042869567871094
1194;24.038963317871094
1195;24.03508758544922
1196;24.03124237060547
1197;24.027435302734375
1198;24.023658752441406
1199;24.019908905029297
1200;24.016197204589844
1201;24.012523651123047
1202;24.008867263793945
1203;24.005247116088867
1204;24.001665115356445
1205;23.99810218811035
1206;23.99457359313965
1207;23.991077423095703
1208;23.98760986328125
1209;23.98417854309082
1210;23.98076820373535
1211;23.977388381958008
1212;23.974040985107422
1213;23.970722198486328
1214;23.967435836791992
1215;23.96417808532715
1216;23.9609317779541
1217;23.957725524902344
1218;23.954547882080078
1219;23.951398849487305
1220;23.948274612426758
1221;23.945173263549805
1222;23.942108154296875
1223;23.939058303833008
1224;23.936046600341797
1225;23.933061599731445
1226;23.930091857910156
1227;23.927148818969727
1228;23.92424201965332
1229;23.921354293823242
1230;23.918485641479492
1231;23.9156494140625
1232;23.9128360748291
1233;23.910051345825195
1234;23.90728759765625
1235;23.90454864501953
1236;23.901830673217773
1237;23.899147033691406
1238;23.896467208862305
1239;23.893831253051758
1240;23.891210556030273
1241;23.888612747192383
1242;23.88604164123535
1243;23.883485794067383
1244;23.880952835083008
1245;23.878440856933594
1246;23.875959396362305
1247;23.873506546020508
1248;23.871061325073242
1249;23.868635177612305
1250;23.866239547729492
1251;23.863862991333008
1252;23.86150550842285
1253;23.859174728393555
1254;23.856855392456055
1255;23.85455894470215
1256;23.852294921875
1257;23.85003662109375
1258;23.847806930541992
1259;23.845592498779297
1260;23.843400955200195
1261;23.841224670410156
1262;23.839073181152344
1263;23.836942672729492
1264;23.834821701049805
1265;23.832725524902344
1266;23.830644607543945
1267;23.828594207763672
1268;23.82655143737793
1269;23.824535369873047
1270;23.822521209716797
1271;23.820533752441406
1272;23.818567276000977
1273;23.816621780395508
1274;23.8146915435791
1275;23.812776565551758
1276;23.810876846313477
1277;23.808998107910156
1278;23.80712890625
1279;23.805286407470703
1280;23.80345916748047
1281;23.8016414642334
1282;23.799848556518555
1283;23.798065185546875
1284;23.796297073364258
1285;23.7945499420166
1286;23.792823791503906
1287;23.791109085083008
1288;23.789403915405273
1289;23.7877140045166
1290;23.786054611206055
1291;23.784400939941406
1292;23.782752990722656
1293;23.781129837036133
1294;23.779516220092773
1295;23.777925491333008
1296;23.776350021362305
1297;23.7747802734375
1298;23.773231506347656
1299;23.771696090698242
1300;23.770174026489258
1301;23.768665313720703
1302;23.767169952392578
1303;23.76568603515625
1304;23.764223098754883
1305;23.76276397705078
1306;23.761322021484375
1307;23.7598934173584
1308;23.75848960876465
1309;23.757080078125
1310;23.755699157714844
1311;23.75432014465332
1312;23.752954483032227
1313;23.751605987548828
1314;23.750274658203125
1315;23.74894905090332
1316;23.74763298034668
1317;23.746335983276367
1318;23.745044708251953
1319;23.7437744140625
1320;23.74250602722168
1321;23.741249084472656
1322;23.740013122558594
1323;23.738786697387695
1324;23.737565994262695
1325;23.736360549926758
1326;23.73516273498535
1327;23.733980178833008
1328;23.732810974121094
1329;23.731651306152344
1330;23.730497360229492
1331;23.729358673095703
1332;23.728227615356445
1333;23.72710609436035
1334;23.725996017456055
1335;23.72490119934082
1336;23.72381591796875
1337;23.722740173339844
1338;23.7216739654541
1339;23.720619201660156
1340;23.719573974609375
1341;23.718528747558594
1342;23.717500686645508
1343;23.71649169921875
1344;23.715484619140625
1345;23.7144832611084
1346;23.7134952545166
1347;23.71251678466797
1348;23.7115421295166
1349;23.710588455200195
1350;23.709632873535156
1351;23.708690643310547
1352;23.707761764526367
1353;23.706830978393555
1354;23.705915451049805
1355;23.705005645751953
1356;23.70411491394043
1357;23.703224182128906
1358;23.70233917236328
1359;23.70146942138672
1360;23.700605392456055
1361;23.699745178222656
1362;23.69890022277832
1363;23.698060989379883
1364;23.697229385375977
1365;23.6964054107666
1366;23.695585250854492
1367;23.694786071777344
1368;23.693981170654297
1369;23.693187713623047
1370;23.692405700683594
1371;23.691625595092773
1372;23.69085121154785
1373;23.690092086791992
1374;23.6893310546875
1375;23.688587188720703
1376;23.687849044799805
1377;23.687110900878906
1378;23.686389923095703
1379;23.6856689453125
1380;23.684965133666992
1381;23.684253692626953
1382;23.683551788330078
1383;23.682861328125
1384;23.682178497314453
1385;23.681499481201172
1386;23.680824279785156
1387;23.680158615112305
1388;23.679502487182617
1389;23.678844451904297
1390;23.678211212158203
1391;23.67756462097168
1392;23.676929473876953
1393;23.676305770874023
1394;23.675682067871094
1395;23.675067901611328
1396;23.674457550048828
1397;23.673852920532227
1398;23.673255920410156
1399;23.67266845703125
1400;23.672080993652344
1401;23.671497344970703
1402;23.670927047729492
1403;23.670360565185547
1404;23.6697998046875
1405;23.669239044189453
1406;23.668689727783203
1407;23.668140411376953
1408;23.6676082611084
1409;23.66706085205078
1410;23.666536331176758
1411;23.666013717651367
1412;23.665491104125977
1413;23.66497230529785
1414;23.664466857910156
1415;23.663959503173828
1416;23.6634578704834
1417;23.6629695892334
1418;23.662473678588867
1419;23.6619930267334
1420;23.66151237487793
1421;23.661039352416992
1422;23.660566329956055
1423;23.66010284423828
1424;23.659637451171875
1425;23.6591739654541
1426;23.658723831176758
1427;23.65826988220215
1428;23.6578311920166
1429;23.657392501831055
1430;23.656951904296875
1431;23.656524658203125
1432;23.656097412109375
1433;23.655672073364258
1434;23.655254364013672
1435;23.654834747314453
1436;23.654430389404297
1437;23.654029846191406
1438;23.65362548828125
1439;23.653221130371094
1440;23.652830123901367
1441;23.652441024780273
1442;23.652050018310547
1443;23.65167808532715
1444;23.651294708251953
1445;23.650917053222656
1446;23.650543212890625
1447;23.650178909301758
1448;23.649812698364258
1449;23.649452209472656
1450;23.64909553527832
1451;23.64874267578125
1452;23.648393630981445
1453;23.648042678833008
1454;23.6476993560791
1455;23.647363662719727
1456;23.64702796936035
1457;23.646696090698242
1458;23.6463680267334
1459;23.646039962768555
1460;23.645719528198242
1461;23.645397186279297
1462;23.64508056640625
1463;23.64476776123047
1464;23.644458770751953
1465;23.644147872924805
1466;23.643848419189453
1467;23.6435489654541
1468;23.64324378967285
1469;23.6429500579834
1470;23.642662048339844
1471;23.642372131347656
1472;23.64208984375
1473;23.641803741455078
1474;23.641517639160156
1475;23.641246795654297
1476;23.640968322753906
1477;23.640703201293945
1478;23.640430450439453
1479;23.640159606933594
1480;23.6398983001709
1481;23.63964080810547
1482;23.639373779296875
1483;23.639122009277344
1484;23.638872146606445
1485;23.63861846923828
1486;23.638368606567383
1487;23.63812255859375
1488;23.637876510620117
1489;23.63763999938965
1490;23.637401580810547
1491;23.637157440185547
1492;23.636932373046875
1493;23.636699676513672
1494;23.63646697998047
1495;23.6362361907959
1496;23.636016845703125
1497;23.635791778564453
1498;23.635570526123047
1499;23.635356903076172
1500;23.635143280029297
1501;23.634925842285156
1502;23.634716033935547
1503;23.634504318237305
1504;23.634300231933594
1505;23.634092330932617
1506;23.633886337280273
1507;23.633684158325195
1508;23.633485794067383
1509;23.63329315185547
1510;23.633094787597656
1511;23.632905960083008
1512;23.632715225219727
1513;23.632524490356445
1514;23.6323299407959
1515;23.63214683532715
1516;23.63196563720703
1517;23.631786346435547
1518;23.631603240966797
1519;23.631425857543945
1520;23.631248474121094
1521;23.631067276000977
1522;23.630903244018555
1523;23.6307315826416
1524;23.63055992126465
1525;23.630395889282227
1526;23.630224227905273
1527;23.630064010620117
1528;23.629899978637695
1529;23.629735946655273
1530;23.62957763671875
1531;23.629419326782227
1532;23.629255294799805
1533;23.629106521606445
1534;23.628950119018555
1535;23.628795623779297
1536;23.628650665283203
1537;23.628498077392578
1538;23.62834930419922
1539;23.628202438354492
1540;23.6280574798584
1541;23.62791633605957
1542;23.627771377563477
1543;23.62763214111328
1544;23.627490997314453
1545;23.627349853515625
1546;23.627216339111328
1547;23.627086639404297
1548;23.6269474029541
1549;23.626813888549805
1550;23.626680374145508
1551;23.626550674438477
1552;23.626420974731445
1553;23.62628746032715
1554;23.62616539001465
1555;23.62603759765625
1556;23.62591552734375
1557;23.62578773498535
1558;23.625669479370117
1559;23.62554359436035
1560;23.62543296813965
1561;23.62530517578125
1562;23.62518882751465
1563;23.625072479248047
1564;23.624967575073242
1565;23.624841690063477
1566;23.624731063842773
1567;23.624616622924805
1568;23.62451171875
1569;23.6243953704834
1570;23.624284744262695
1571;23.624177932739258
1572;23.624073028564453
1573;23.62396240234375
1574;23.623859405517578
1575;23.623750686645508
1576;23.623655319213867
1577;23.62354850769043
1578;23.623443603515625
1579;23.623350143432617
1580;23.623247146606445
1581;23.623157501220703
1582;23.6230525970459
1583;23.622955322265625
1584;23.622861862182617
1585;23.622760772705078
1586;23.62266731262207
1587;23.622575759887695
1588;23.62248420715332
1589;23.62238883972168
1590;23.62230110168457
1591;23.622209548950195
1592;23.62212371826172
1593;23.622032165527344
1594;23.621950149536133
1595;23.621854782104492
1596;23.62177085876465
1597;23.621686935424805
1598;23.621599197387695
1599;23.62151527404785
1600;23.621431350708008
1601;23.62135124206543
1602;23.621265411376953
1603;23.621185302734375
1604;23.621105194091797
1605;23.621021270751953
1606;23.620948791503906
1607;23.620866775512695
1608;23.62078857421875
1609;23.620710372924805
1610;23.620634078979492
1611;23.62055206298828
1612;23.62047576904297
1613;23.62040901184082
1614;23.620332717895508
1615;23.62025260925293
1616;23.62018394470215
1617;23.6201114654541
1618;23.620033264160156
1619;23.619962692260742
1620;23.619895935058594
1621;23.61982536315918
1622;23.619749069213867
1623;23.61968421936035
1624;23.619611740112305
1625;23.619544982910156
1626;23.619474411010742
1627;23.619413375854492
1628;23.619340896606445
1629;23.619274139404297
1630;23.61920928955078
1631;23.619140625
1632;23.619077682495117
1633;23.619007110595703
1634;23.618946075439453
1635;23.618885040283203
1636;23.618824005126953
1637;23.61876106262207
1638;23.618696212768555
1639;23.61863899230957
1640;23.618574142456055
1641;23.618511199951172
1642;23.618450164794922
1643;23.618391036987305
1644;23.61833381652832
1645;23.618268966674805
1646;23.618207931518555
1647;23.618152618408203
1648;23.61809539794922
1649;23.618040084838867
1650;23.61798667907715
1651;23.6179256439209
1652;23.617870330810547
1653;23.617820739746094
1654;23.617765426635742
1655;23.617706298828125
1656;23.617656707763672
1657;23.617597579956055
1658;23.617542266845703
1659;23.617490768432617
1660;23.6174373626709
1661;23.617387771606445
1662;23.617332458496094
1663;23.617280960083008
1664;23.617231369018555
1665;23.6171817779541
1666;23.61712646484375
1667;23.61707878112793
1668;23.617027282714844
1669;23.616975784301758
1670;23.616926193237305
1671;23.61688232421875
1672;23.616832733154297
1673;23.616788864135742
1674;23.616737365722656
1675;23.61669158935547
1676;23.61664390563965
1677;23.616596221923828
1678;23.616548538208008
1679;23.616498947143555
1680;23.616455078125
1681;23.616411209106445
1682;23.616363525390625
1683;23.616321563720703
1684;23.616273880004883
1685;23.616233825683594
1686;23.616188049316406
1687;23.61614227294922
1688;23.616100311279297
1689;23.616052627563477
1690;23.616016387939453
1691;23.615966796875
1692;23.615930557250977
1693;23.615886688232422
1694;23.6158390045166
1695;23.615800857543945
1696;23.615760803222656
1697;23.615711212158203
1698;23.61566734313965
1699;23.615625381469727
1700;23.615583419799805
1701;23.61554718017578
1702;23.615509033203125
1703;23.615467071533203
1704;23.61542320251465
1705;23.615385055541992
1706;23.615345001220703
1707;23.61530876159668
1708;23.615266799926758
1709;23.615222930908203
1710;23.615175247192383
1711;23.615144729614258
1712;23.6151065826416
1713;23.615062713623047
1714;23.615028381347656
1715;23.61498260498047
1716;23.614946365356445
1717;23.614912033081055
1718;23.6148681640625
1719;23.614830017089844
1720;23.614784240722656
1721;23.6147518157959
1722;23.614713668823242
1723;23.61467742919922
1724;23.6146297454834
1725;23.614601135253906
1726;23.614561080932617
1727;23.614521026611328
1728;23.614482879638672
1729;23.61444854736328
1730;23.614412307739258
1731;23.6143741607666
1732;23.614336013793945
1733;23.614295959472656
1734;23.6142578125
1735;23.614219665527344
1736;23.61419105529785
1737;23.614147186279297
1738;23.614112854003906
1739;23.614076614379883
1740;23.614042282104492
1741;23.614002227783203
1742;23.613969802856445
1743;23.613924026489258
1744;23.613889694213867
1745;23.613853454589844
1746;23.613819122314453
1747;23.613780975341797
1748;23.613739013671875
1749;23.61370849609375
1750;23.613672256469727
1751;23.613636016845703
1752;23.613597869873047
1753;23.613561630249023
1754;23.613527297973633
1755;23.613494873046875
1756;23.613452911376953
1757;23.613422393798828
1758;23.613378524780273
1759;23.61334800720215
1760;23.613304138183594
1761;23.613269805908203
1762;23.61323356628418
1763;23.613203048706055
1764;23.613161087036133
1765;23.613130569458008
1766;23.613096237182617
1767;23.613056182861328
1768;23.613025665283203
1769;23.61298179626465
1770;23.612953186035156
1771;23.6129150390625
1772;23.612886428833008
1773;23.61284828186035
1774;23.612810134887695
1775;23.61277961730957
1776;23.612743377685547
1777;23.612707138061523
1778;23.6126708984375
1779;23.612642288208008
1780;23.61260223388672
1781;23.612571716308594
1782;23.612537384033203
1783;23.612506866455078
1784;23.612464904785156
1785;23.612438201904297
1786;23.612398147583008
1787;23.61236572265625
1788;23.612337112426758
1789;23.612306594848633
1790;23.612268447875977
1791;23.612226486206055
1792;23.612199783325195
1793;23.612163543701172
1794;23.612133026123047
1795;23.612092971801758
1796;23.6120662689209
1797;23.612031936645508
1798;23.61199378967285
1799;23.611961364746094
1800;23.61193084716797
1801;23.611896514892578
1802;23.611865997314453
1803;23.611833572387695
1804;23.611793518066406
1805;23.611766815185547
1806;23.611724853515625
1807;23.611692428588867
1808;23.611656188964844
1809;23.61162567138672
1810;23.611589431762695
1811;23.6115665435791
1812;23.611528396606445
1813;23.611494064331055
1814;23.611461639404297
1815;23.611419677734375
1816;23.611391067504883
1817;23.611356735229492
1818;23.6113224029541
1819;23.611286163330078
1820;23.611255645751953
1821;23.61121940612793
1822;23.611186981201172
1823;23.61115074157715
1824;23.611112594604492
1825;23.6110897064209
1826;23.611051559448242
1827;23.61102294921875
1828;23.610984802246094
1829;23.610944747924805
1830;23.61091423034668
1831;23.610877990722656
1832;23.610851287841797
1833;23.610811233520508
1834;23.61077117919922
1835;23.610742568969727
1836;23.61071014404297
1837;23.610679626464844
1838;23.610639572143555
1839;23.6106014251709
1840;23.610567092895508
1841;23.61053466796875
1842;23.610498428344727
1843;23.6104679107666
1844;23.610429763793945
1845;23.610395431518555
1846;23.61035919189453
1847;23.610319137573242
1848;23.61029052734375
1849;23.610254287719727
1850;23.610212326049805
1851;23.61018180847168
1852;23.610145568847656
1853;23.61011505126953
1854;23.610078811645508
1855;23.61003303527832
1856;23.610002517700195
1857;23.60997200012207
1858;23.60993003845215
1859;23.609891891479492
1860;23.60986328125
1861;23.609819412231445
1862;23.609785079956055
1863;23.6097469329834
1864;23.609718322753906
1865;23.609682083129883
1866;23.609643936157227
1867;23.609601974487305
1868;23.60956573486328
1869;23.609529495239258
1870;23.609498977661133
1871;23.609458923339844
1872;23.609413146972656
1873;23.6093807220459
1874;23.609344482421875
1875;23.609302520751953
1876;23.609270095825195
1877;23.609230041503906
1878;23.609193801879883
1879;23.609159469604492
1880;23.609119415283203
1881;23.60907745361328
1882;23.609041213989258
1883;23.6090030670166
1884;23.608970642089844
1885;23.608930587768555
1886;23.608898162841797
1887;23.608848571777344
1888;23.608814239501953
1889;23.6087703704834
1890;23.608734130859375
1891;23.60869789123535
1892;23.60865592956543
1893;23.608617782592773
1894;23.60857582092285
1895;23.608531951904297
1896;23.608491897583008
1897;23.60845375061035
1898;23.608421325683594
1899;23.608369827270508
1900;23.608335494995117
1901;23.608287811279297
1902;23.608247756958008
1903;23.60820198059082
1904;23.608165740966797
1905;23.608116149902344
1906;23.608068466186523
1907;23.608030319213867
1908;23.60798454284668
1909;23.607942581176758
1910;23.607891082763672
1911;23.60784912109375
1912;23.607805252075195
1913;23.607755661010742
1914;23.607715606689453
1915;23.607664108276367
1916;23.607616424560547
1917;23.607572555541992
1918;23.607526779174805
1919;23.607471466064453
1920;23.607423782348633
1921;23.607383728027344
1922;23.607337951660156
1923;23.607288360595703
1924;23.60723876953125
1925;23.607196807861328
1926;23.607145309448242
1927;23.607097625732422
1928;23.607044219970703
1929;23.60700035095215
1930;23.606950759887695
1931;23.606897354125977
1932;23.606849670410156
1933;23.60680389404297
1934;23.60675048828125
1935;23.606700897216797
1936;23.606651306152344
1937;23.606605529785156
1938;23.606548309326172
1939;23.60650062561035
1940;23.6064453125
1941;23.606395721435547
1942;23.606351852416992
1943;23.606294631958008
1944;23.606245040893555
1945;23.606189727783203
1946;23.60614013671875
1947;23.606096267700195
1948;23.606037139892578
1949;23.605985641479492
1950;23.605932235717773
1951;23.605873107910156
1952;23.605817794799805
1953;23.60577392578125
1954;23.605712890625
1955;23.60565757751465
1956;23.605613708496094
1957;23.605552673339844
1958;23.605499267578125
1959;23.605443954467773
1960;23.605384826660156
1961;23.60533332824707
1962;23.605274200439453
1963;23.605222702026367
1964;23.60516357421875
1965;23.60511016845703
1966;23.60504913330078
1967;23.60499382019043
1968;23.604936599731445
1969;23.604875564575195
1970;23.604822158813477
1971;23.604764938354492
1972;23.604707717895508
1973;23.604644775390625
1974;23.604589462280273
1975;23.604530334472656
1976;23.604469299316406
1977;23.604402542114258
1978;23.604347229003906
1979;23.604280471801758
1980;23.604225158691406
1981;23.604158401489258
1982;23.604103088378906
1983;23.604042053222656
1984;23.603981018066406
1985;23.603914260864258
1986;23.603858947753906
1987;23.603790283203125
1988;23.603731155395508
1989;23.603666305541992
1990;23.603605270385742
1991;23.603544235229492
1992;23.603473663330078
1993;23.603412628173828
1994;23.60334587097168
1995;23.6032772064209
1996;23.60321617126465
1997;23.603147506713867
1998;23.60308837890625
1999;23.603015899658203
2000;23.60295295715332
2001;23.602882385253906
2002;23.602819442749023
2003;23.602750778198242
2004;23.602680206298828
2005;23.602619171142578
2006;23.6025447845459
2007;23.60248374938965
2008;23.60240936279297
2009;23.602338790893555
2010;23.602266311645508
2011;23.602195739746094
2012;23.602123260498047
2013;23.60205078125
2014;23.60198211669922
2015;23.601900100708008
2016;23.601831436157227
2017;23.601757049560547
2018;23.6016845703125
2019;23.601600646972656
2020;23.601530075073242
2021;23.601457595825195
2022;23.601381301879883
2023;23.601306915283203
2024;23.601221084594727
2025;23.601137161254883
2026;23.60106086730957
2027;23.600980758666992
2028;23.60089874267578
2029;23.600818634033203
2030;23.600738525390625
2031;23.600658416748047
2032;23.60057258605957
2033;23.600486755371094
2034;23.60040855407715
2035;23.600318908691406
2036;23.60023307800293
2037;23.60014533996582
2038;23.600053787231445
2039;23.5999698638916
2040;23.599885940551758
2041;23.59979820251465
2042;23.599702835083008
2043;23.5996150970459
2044;23.599523544311523
2045;23.59943199157715
2046;23.599336624145508
2047;23.5992488861084
2048;23.599153518676758
2049;23.59905433654785
2050;23.598966598510742
2051;23.59886932373047
2052;23.59876823425293
2053;23.598670959472656
2054;23.59857940673828
2055;23.598472595214844
2056;23.598377227783203
2057;23.5982723236084
2058;23.598173141479492
2059;23.598066329956055
2060;23.59796714782715
2061;23.597856521606445
2062;23.597747802734375
2063;23.597644805908203
2064;23.597536087036133
2065;23.597429275512695
2066;23.597314834594727
2067;23.597200393676758
2068;23.597095489501953
2069;23.59697723388672
2070;23.59686851501465
2071;23.59674644470215
2072;23.59662437438965
2073;23.59650993347168
2074;23.596391677856445
2075;23.596269607543945
2076;23.59614372253418
2077;23.59601593017578
2078;23.595897674560547
2079;23.59576416015625
2080;23.595643997192383
2081;23.595508575439453
2082;23.595375061035156
2083;23.595247268676758
2084;23.595111846923828
2085;23.594972610473633
2086;23.59484100341797
2087;23.594694137573242
2088;23.59455680847168
2089;23.59441566467285
2090;23.594263076782227
2091;23.5941219329834
2092;23.593976974487305
2093;23.593822479248047
2094;23.593666076660156
2095;23.593523025512695
2096;23.593355178833008
2097;23.59320640563965
2098;23.593046188354492
2099;23.592884063720703
2100;23.592729568481445
2101;23.592567443847656
2102;23.592409133911133
2103;23.592243194580078
2104;23.592073440551758
2105;23.59192657470703
2106;23.591773986816406
2107;23.591615676879883
2108;23.591461181640625
2109;23.59130096435547
2110;23.591136932373047
2111;23.590974807739258
2112;23.590808868408203
2113;23.59064483642578
2114;23.590476989746094
2115;23.590307235717773
2116;23.590131759643555
2117;23.5899658203125
2118;23.589780807495117
2119;23.58960723876953
2120;23.589427947998047
2121;23.58924102783203
2122;23.58905601501465
2123;23.5888671875
2124;23.58867835998535
2125;23.588489532470703
2126;23.588294982910156
2127;23.588098526000977
2128;23.5878963470459
2129;23.587696075439453
2130;23.587486267089844
2131;23.5872745513916
2132;23.587066650390625
2133;23.586851119995117
2134;23.586637496948242
2135;23.586414337158203
2136;23.586198806762695
2137;23.585973739624023
2138;23.585742950439453
2139;23.585508346557617
2140;23.585268020629883
2141;23.58502197265625
2142;23.58478355407715
2143;23.58452033996582
2144;23.584278106689453
2145;23.584022521972656
2146;23.58375358581543
2147;23.5834903717041
2148;23.583219528198242
2149;23.58294105529785
2150;23.582658767700195
2151;23.582372665405273
2152;23.582080841064453
2153;23.581787109375
2154;23.581483840942383
2155;23.5811824798584
2156;23.58087158203125
2157;23.58055877685547
2158;23.580230712890625
2159;23.579893112182617
2160;23.579557418823242
2161;23.579212188720703
2162;23.5788631439209
2163;23.578502655029297
2164;23.578136444091797
2165;23.577760696411133
2166;23.577381134033203
2167;23.576997756958008
2168;23.57659339904785
2169;23.576183319091797
2170;23.575773239135742
2171;23.575345993041992
2172;23.574909210205078
2173;23.574460983276367
2174;23.574003219604492
2175;23.573530197143555
2176;23.57304573059082
2177;23.572547912597656
2178;23.572032928466797
2179;23.571510314941406
2180;23.57097053527832
2181;23.570423126220703
2182;23.569852828979492
2183;23.56926918029785
2184;23.568666458129883
2185;23.56804847717285
2186;23.567411422729492
2187;23.566747665405273
2188;23.566068649291992
2189;23.565370559692383
2190;23.564647674560547
2191;23.56389808654785
2192;23.563127517700195
2193;23.562328338623047
2194;23.561504364013672
2195;23.560644149780273
2196;23.55975914001465
2197;23.5588321685791
2198;23.55786895751953
2199;23.5568790435791
2200;23.55583953857422
2201;23.55475425720215
2202;23.553630828857422
2203;23.552448272705078
2204;23.55122184753418
2205;23.54993438720703
2206;23.548583984375
2207;23.54717445373535
2208;23.545692443847656
2209;23.54412841796875
2210;23.542478561401367
2211;23.540754318237305
2212;23.5389461517334
2213;23.537012100219727
2214;23.534984588623047
2215;23.532835006713867
2216;23.530550003051758
2217;23.528120040893555
2218;23.52552604675293
2219;23.52275848388672
2220;23.519800186157227
2221;23.516624450683594
2222;23.513212203979492
2223;23.509538650512695
2224;23.505573272705078
2225;23.50127601623535
2226;23.496625900268555
2227;23.491559982299805
2228;23.48603057861328
2229;23.47998046875
2230;23.47334098815918
2231;23.466033935546875
2232;23.45795249938965
2233;23.449003219604492
2234;23.439050674438477
2235;23.427949905395508
2236;23.41552734375
2237;23.401582717895508
2238;23.385887145996094
2239;23.368181228637695
2240;23.348155975341797
2241;23.325498580932617
2242;23.299842834472656
2243;23.27086067199707
2244;23.238203048706055
2245;23.20165252685547
2246;23.161054611206055
2247;23.116540908813477
2248;23.068614959716797
2249;23.018169403076172
2250;22.96686363220215
2251;22.91718292236328
2252;22.870647430419922
2253;22.82929801940918
2254;22.79487419128418
2255;22.768280029296875
2256;22.749345779418945
2257;22.736955642700195
2258;22.729280471801758
2259;22.72411346435547
2260;22.720304489135742
2261;22.71514892578125
2262;22.706825256347656
2263;22.69465446472168
2264;22.678495407104492
2265;22.659456253051758
2266;22.637983322143555
2267;22.614421844482422
2268;22.589740753173828
2269;22.56487274169922
2270;22.540590286254883
2271;22.51800537109375
2272;22.49687957763672
2273;22.47665786743164
2274;22.457752227783203
2275;22.44025993347168
2276;22.423316955566406
2277;22.406532287597656
2278;22.389589309692383
2279;22.37223243713379
2280;22.354616165161133
2281;22.336185455322266
2282;22.31722640991211
2283;22.297985076904297
2284;22.278318405151367
2285;22.258380889892578
2286;22.23834800720215
2287;22.21837615966797
2288;22.198698043823242
2289;22.179250717163086
2290;22.16026496887207
2291;22.14171028137207
2292;22.123430252075195
2293;22.105236053466797
2294;22.08709716796875
2295;22.06889533996582
2296;22.050567626953125
2297;22.03264617919922
2298;22.013835906982422
2299;21.99481964111328
2300;21.975297927856445
2301;21.955554962158203
2302;21.93568992614746
2303;21.915800094604492
2304;21.895893096923828
2305;21.876001358032227
2306;21.856122970581055
2307;21.836280822753906
2308;21.816516876220703
2309;21.796772003173828
2310;21.777015686035156
2311;21.75722312927246
2312;21.737424850463867
2313;21.717573165893555
2314;21.697673797607422
2315;21.677833557128906
2316;21.657997131347656
2317;21.63811683654785
2318;21.618642807006836
2319;21.59950065612793
2320;21.58030891418457
2321;21.56108283996582
2322;21.541837692260742
2323;21.522565841674805
2324;21.503265380859375
2325;21.483924865722656
2326;21.464529037475586
2327;21.44506072998047
2328;21.425504684448242
2329;21.405858993530273
2330;21.38612937927246
2331;21.366260528564453
2332;21.346275329589844
2333;21.32617950439453
2334;21.30592155456543
2335;21.285480499267578
2336;21.264890670776367
2337;21.244173049926758
2338;21.223255157470703
2339;21.20211410522461
2340;21.18073081970215
2341;21.159101486206055
2342;21.137222290039062
2343;21.115028381347656
2344;21.092519760131836
2345;21.069690704345703
2346;21.046518325805664
2347;21.0229434967041
2348;20.99901580810547
2349;20.97466468811035
2350;20.949865341186523
2351;20.924577713012695
2352;20.898847579956055
2353;20.87262725830078
2354;20.84589385986328
2355;20.81867790222168
2356;20.790966033935547
2357;20.7627010345459
2358;20.733909606933594
2359;20.704622268676758
2360;20.674781799316406
2361;20.64435577392578
2362;20.6133975982666
2363;20.581953048706055
2364;20.549989700317383
2365;20.51746368408203
2366;20.484413146972656
2367;20.450830459594727
2368;20.416732788085938
2369;20.382091522216797
2370;20.346782684326172
2371;20.31083869934082
2372;20.274263381958008
2373;20.23700714111328
2374;20.199054718017578
2375;20.160381317138672
2376;20.120988845825195
2377;20.08081817626953
2378;20.039884567260742
2379;19.998477935791016
2380;19.955663681030273
2381;19.912397384643555
2382;19.868345260620117
2383;19.82349967956543
2384;19.777894973754883
2385;19.731639862060547
2386;19.6848201751709
2387;19.637598037719727
2388;19.59014129638672
2389;19.542619705200195
2390;19.495210647583008
2391;19.448135375976562
2392;19.401540756225586
2393;19.355573654174805
2394;19.310346603393555
2395;19.266008377075195
2396;19.222593307495117
2397;19.180152893066406
2398;19.138648986816406
2399;19.098234176635742
2400;19.058624267578125
2401;19.01963996887207
2402;18.98109245300293
2403;18.942594528198242
2404;18.904199600219727
2405;18.86579132080078
2406;18.8275089263916
2407;18.789247512817383
2408;18.75067138671875
2409;18.711891174316406
2410;18.672880172729492
2411;18.633583068847656
2412;18.59400177001953
2413;18.554237365722656
2414;18.514373779296875
2415;18.474411010742188
2416;18.43437957763672
2417;18.39434051513672
2418;18.35441780090332
2419;18.3145751953125
2420;18.27484130859375
2421;18.235218048095703
2422;18.195720672607422
2423;18.156280517578125
2424;18.11710548400879
2425;18.078075408935547
2426;18.03926658630371
2427;18.000507354736328
2428;17.96178436279297
2429;17.923173904418945
2430;17.88458251953125
2431;17.845985412597656
2432;17.807401657104492
2433;17.768835067749023
2434;17.730260848999023
2435;17.69165802001953
2436;17.653064727783203
2437;17.614452362060547
2438;17.575834274291992
2439;17.537281036376953
2440;17.498790740966797
2441;17.460182189941406
2442;17.42323875427246
2443;17.392860412597656
2444;17.361186981201172
2445;17.32715606689453
2446;17.291038513183594
2447;17.260892868041992
2448;17.23015594482422
2449;17.197734832763672
2450;17.16390609741211
2451;17.128934860229492
2452;17.097461700439453
2453;17.066993713378906
2454;17.033510208129883
2455;16.997350692749023
2456;16.9703426361084
2457;16.942899703979492
2458;16.90690803527832
2459;16.88226318359375
2460;16.856718063354492
2461;16.82794952392578
2462;16.80394172668457
2463;16.77991485595703
2464;16.755643844604492
2465;16.731184005737305
2466;16.706584930419922
2467;16.681943893432617
2468;16.657329559326172
2469;16.632780075073242
2470;16.608442306518555
2471;16.584203720092773
2472;16.560503005981445
2473;16.53664207458496
2474;16.513105392456055
2475;16.489408493041992
2476;16.46595573425293
2477;16.442338943481445
2478;16.4188175201416
2479;16.395118713378906
2480;16.371143341064453
2481;16.346900939941406
2482;16.322301864624023
2483;16.297334671020508
2484;16.271970748901367
2485;16.24610710144043
2486;16.22100257873535
2487;16.193830490112305
2488;16.167339324951172
2489;16.140108108520508
2490;16.11284065246582
2491;16.084001541137695
2492;16.054744720458984
2493;16.024024963378906
2494;15.991629600524902
2495;15.957342147827148
2496;15.920859336853027
2497;15.884360313415527
2498;15.841586112976074
2499;15.797607421875
2500;15.749866485595703
2501;15.696887969970703
2502;15.637825965881348
2503;15.571752548217773
2504;15.497872352600098
2505;15.415610313415527
2506;15.324970245361328
2507;15.226859092712402
2508;15.123543739318848
2509;15.018845558166504
2510;14.917893409729004
2511;14.826119422912598
2512;14.747797012329102
2513;14.68463134765625
2514;14.63388442993164
2515;14.590826988220215
2516;14.549973487854004
2517;14.506661415100098
2518;14.458456039428711
2519;14.40549087524414
2520;14.348299980163574
2521;14.289386749267578
2522;14.231531143188477
2523;14.1754789352417
2524;14.121532440185547
2525;14.069546699523926
2526;14.018837928771973
2527;13.968558311462402
2528;13.918140411376953
2529;13.86706829071045
2530;13.814983367919922
2531;13.762176513671875
2532;13.709616661071777
2533;13.65728759765625
2534;13.6052827835083
2535;13.551995277404785
2536;13.504961967468262
2537;13.46502685546875
2538;13.424155235290527
2539;13.38291072845459
2540;13.3406400680542
2541;13.296478271484375
2542;13.251043319702148
2543;13.205158233642578
2544;13.159601211547852
2545;13.114925384521484
2546;13.071440696716309
2547;13.02982234954834
2548;12.990365028381348
2549;12.951557159423828
2550;12.910503387451172
2551;12.869019508361816
2552;12.829492568969727
2553;12.79050350189209
2554;12.751900672912598
2555;12.7136869430542
2556;12.675864219665527
2557;12.63845157623291
2558;12.601784706115723
2559;12.565346717834473
2560;12.52907657623291
2561;12.492959022521973
2562;12.457022666931152
2563;12.421253204345703
2564;12.385672569274902
2565;12.35058879852295
2566;12.315715789794922
2567;12.281017303466797
2568;12.246487617492676
2569;12.212108612060547
2570;12.177875518798828
2571;12.144495010375977
2572;12.111883163452148
2573;12.0768461227417
2574;12.043996810913086
2575;12.011096954345703
2576;11.978102684020996
2577;11.945196151733398
2578;11.9120512008667
2579;11.880051612854004
2580;11.857364654541016
2581;11.830326080322266
2582;11.799907684326172
2583;11.76727294921875
2584;11.743741035461426
2585;11.718489646911621
2586;11.688634872436523
2587;11.654699325561523
2588;11.629444122314453
2589;11.60444164276123
2590;11.576788902282715
2591;11.546792984008789
2592;11.514960289001465
2593;11.481982231140137
2594;11.453868865966797
2595;11.42651653289795
2596;11.393362998962402
2597;11.360605239868164
2598;11.331119537353516
2599;11.29971694946289
2600;11.266379356384277
2601;11.231444358825684
2602;11.1954927444458
2603;11.164427757263184
2604;11.127991676330566
2605;11.086360931396484
2606;11.04869270324707
2607;11.009105682373047
2608;10.967394828796387
2609;10.923644065856934
2610;10.877646446228027
2611;10.829446792602539
2612;10.784637451171875
2613;10.730988502502441
2614;10.674518585205078
2615;10.618706703186035
2616;10.559571266174316
2617;10.497081756591797
2618;10.431133270263672
2619;10.361865997314453
2620;10.290044784545898
2621;10.215899467468262
2622;10.13871955871582
2623;10.058045387268066
2624;9.978655815124512
2625;9.891992568969727
2626;9.80196762084961
2627;9.711954116821289
2628;9.619390487670898
2629;9.52444839477539
2630;9.427419662475586
2631;9.3285551071167
2632;9.228365898132324
2633;9.127019882202148
2634;9.02518367767334
2635;8.921758651733398
2636;8.818346977233887
2637;8.713478088378906
2638;8.612021446228027
2639;8.508650779724121
2640;8.404694557189941
2641;8.300830841064453
2642;8.19955062866211
2643;8.097151756286621
2644;7.992915630340576
2645;7.88713264465332
2646;7.780176162719727
2647;7.675678730010986
2648;7.571231365203857
2649;7.4640583992004395
2650;7.356216907501221
2651;7.2489848136901855
2652;7.143665790557861
2653;7.040189743041992
2654;6.948577880859375
2655;6.856359958648682
2656;6.763183116912842
2657;6.671264171600342
2658;6.585447788238525
2659;6.504045009613037
2660;6.428606033325195
2661;6.357654094696045
2662;6.290765285491943
2663;6.22610330581665
2664;6.168733596801758
2665;6.113080978393555
2666;6.0619730949401855
2667;6.013782978057861
2668;5.966526508331299
2669;5.921088695526123
2670;5.878532409667969
2671;5.840626239776611
2672;5.805932521820068
2673;5.773775100708008
2674;5.744976043701172
2675;5.718386173248291
2676;5.693624496459961
2677;5.669765949249268
2678;5.64768648147583
2679;5.627137184143066
2680;5.607661724090576
2681;5.589181423187256
2682;5.57118034362793
2683;5.553565502166748
2684;5.536182403564453
2685;5.519433975219727
2686;5.503660202026367
2687;5.488554000854492
2688;5.4737229347229
2689;5.458916187286377
2690;5.444165229797363
2691;5.429549694061279
2692;5.41521692276001
2693;5.401153564453125
2694;5.387187957763672
2695;5.373154163360596
2696;5.359016418457031
2697;5.3448357582092285
2698;5.330697059631348
2699;5.316625595092773
2700;5.30256462097168
2701;5.288509845733643
2702;5.274430751800537
2703;5.2602314949035645
2704;5.245900630950928
2705;5.23151969909668
2706;5.217320442199707
2707;5.203031063079834
2708;5.188562870025635
2709;5.173901081085205
2710;5.15904426574707
2711;5.144011974334717
2712;5.12885856628418
2713;5.113509178161621
2714;5.097934722900391
2715;5.082185745239258
2716;5.066384792327881
2717;5.050390720367432
2718;5.034286022186279
2719;5.018092632293701
2720;5.001983165740967
2721;4.986108779907227
2722;4.970153331756592
2723;4.954173564910889
2724;4.938257217407227
2725;4.922735691070557
2726;4.9076008796691895
2727;4.89268684387207
2728;4.878077983856201
2729;4.863607406616211
2730;4.849432945251465
2731;4.8356099128723145
2732;4.822007656097412
2733;4.808552265167236
2734;4.795239448547363
2735;4.782279014587402
2736;4.769529819488525
2737;4.756907939910889
2738;4.744394302368164
2739;4.731930255889893
2740;4.719569206237793
2741;4.707385540008545
2742;4.695463180541992
2743;4.68369722366333
2744;4.672043323516846
2745;4.660571575164795
2746;4.649275302886963
2747;4.638171195983887
2748;4.62722110748291
2749;4.616551399230957
2750;4.60605525970459
2751;4.595682144165039
2752;4.585432052612305
2753;4.575338363647461
2754;4.565488338470459
2755;4.555830478668213
2756;4.546326160430908
2757;4.536952495574951
2758;4.527705669403076
2759;4.518592834472656
2760;4.509715557098389
2761;4.500925540924072
2762;4.492210865020752
2763;4.483634948730469
2764;4.475168704986572
2765;4.466813564300537
2766;4.458563327789307
2767;4.450432777404785
2768;4.4424519538879395
2769;4.434567928314209
2770;4.426777362823486
2771;4.419070720672607
2772;4.411459922790527
2773;4.404035568237305
2774;4.396737098693848
2775;4.389517307281494
2776;4.382387161254883
2777;4.375342845916748
2778;4.368381023406982
2779;4.361522197723389
2780;4.354752063751221
2781;4.3480706214904785
2782;4.341471195220947
2783;4.334949493408203
2784;4.3284993171691895
2785;4.322137832641602
2786;4.315868854522705
2787;4.309666633605957
2788;4.303543567657471
2789;4.297494888305664
2790;4.291517734527588
2791;4.285597324371338
2792;4.279741287231445
2793;4.273945331573486
2794;4.268203258514404
2795;4.262514114379883
2796;4.25686502456665
2797;4.251271724700928
2798;4.245727062225342
2799;4.240231990814209
2800;4.234786510467529
2801;4.22938346862793
2802;4.2240214347839355
2803;4.218698978424072
2804;4.213420867919922
2805;4.208186149597168
2806;4.203014373779297
2807;4.197871685028076
2808;4.192764759063721
2809;4.187696933746338
2810;4.182657718658447
2811;4.177655220031738
2812;4.17270040512085
2813;4.167784690856934
2814;4.162900447845459
2815;4.15805721282959
2816;4.1532392501831055
2817;4.148447036743164
2818;4.1436896324157715
2819;4.138957500457764
2820;4.134247303009033
2821;4.129554748535156
2822;4.1249003410339355
2823;4.1202592849731445
2824;4.115633010864258
2825;4.11102819442749
2826;4.106438636779785
2827;4.101880073547363
2828;4.097344875335693
2829;4.092819690704346
2830;4.088316440582275
2831;4.083793640136719
2832;4.079270839691162
2833;4.074740886688232
2834;4.070211410522461
2835;4.06569242477417
2836;4.0611724853515625
2837;4.056648254394531
2838;4.052125930786133
2839;4.047591686248779
2840;4.043057918548584
2841;4.038517475128174
2842;4.033977508544922
2843;4.02943229675293
2844;4.025014877319336
2845;4.020596504211426
2846;4.016172409057617
2847;4.0117387771606445
2848;4.007293224334717
2849;4.002836227416992
2850;3.9983651638031006
2851;3.993877410888672
2852;3.9894180297851562
2853;3.98496150970459
2854;3.9805212020874023
2855;3.976055860519409
2856;3.971569061279297
2857;3.967055320739746
2858;3.9625203609466553
2859;3.9579522609710693
2860;3.9533402919769287
2861;3.94870662689209
2862;3.944032907485962
2863;3.9393205642700195
2864;3.934556007385254
2865;3.9297449588775635
2866;3.924884080886841
2867;3.9199655055999756
2868;3.9149835109710693
2869;3.909932851791382
2870;3.904792070388794
2871;3.8995630741119385
2872;3.89426326751709
2873;3.8888628482818604
2874;3.8833489418029785
2875;3.877716302871704
2876;3.8719489574432373
2877;3.8660459518432617
2878;3.859975576400757
2879;3.8536875247955322
2880;3.8471016883850098
2881;3.8402657508850098
2882;3.833129644393921
2883;3.8256590366363525
2884;3.8178365230560303
2885;3.809645891189575
2886;3.801022529602051
2887;3.7919182777404785
2888;3.7822892665863037
2889;3.7720398902893066
2890;3.7611277103424072
2891;3.749429941177368
2892;3.736806631088257
2893;3.723200798034668
2894;3.7086122035980225
2895;3.6927366256713867
2896;3.675309181213379
2897;3.656174421310425
2898;3.636389970779419
2899;3.614940643310547
2900;3.5908896923065186
2901;3.5634851455688477
2902;3.5344178676605225
2903;3.5062241554260254
2904;3.476433515548706
2905;3.4462969303131104
2906;3.4156501293182373
2907;3.3851523399353027
2908;3.356417179107666
2909;3.3299741744995117
2910;3.306056261062622
2911;3.2843635082244873
2912;3.264328718185425
2913;3.2454185485839844
2914;3.226661443710327
2915;3.207434892654419
2916;3.1874940395355225
2917;3.1667897701263428
2918;3.145500898361206
2919;3.123584032058716
2920;3.1014444828033447
2921;3.079005479812622
2922;3.0564675331115723
2923;3.035559892654419
2924;3.015308141708374
2925;2.9951629638671875
2926;2.97418212890625
2927;2.953861951828003
2928;2.9345591068267822
2929;2.9160773754119873
2930;2.898160696029663
2931;2.880539655685425
2932;2.864077568054199
2933;2.849249839782715
2934;2.833827257156372
2935;2.8180243968963623
2936;2.8020925521850586
2937;2.7860054969787598
2938;2.769775629043579
2939;2.7536590099334717
2940;2.7375876903533936
2941;2.7211287021636963
2942;2.7043981552124023
2943;2.687483549118042
2944;2.67207932472229
2945;2.6563913822174072
2946;2.6405510902404785
2947;2.625746011734009
2948;2.6112420558929443
2949;2.5958521366119385
2950;2.5798141956329346
2951;2.563103437423706
2952;2.5457658767700195
2953;2.5307576656341553
2954;2.5166609287261963
2955;2.501657485961914
2956;2.485832691192627
2957;2.469534158706665
2958;2.453162670135498
2959;2.437556743621826
2960;2.4218039512634277
2961;2.4058492183685303
2962;2.389711856842041
2963;2.3732779026031494
2964;2.3565926551818848
2965;2.33961820602417
2966;2.322389841079712
2967;2.305112600326538
2968;2.2878339290618896
2969;2.270592212677002
2970;2.2531118392944336
2971;2.235348701477051
2972;2.2177505493164062
2973;2.2004053592681885
2974;2.182938814163208
2975;2.1652889251708984
2976;2.1474127769470215
2977;2.1295382976531982
2978;2.111506462097168
2979;2.0936059951782227
2980;2.0758986473083496
2981;2.058133840560913
2982;2.040444850921631
2983;2.0227062702178955
2984;2.004814624786377
2985;1.9869308471679688
2986;1.9692665338516235
2987;1.95185124874115
2988;1.9344788789749146
2989;1.9172282218933105
2990;1.9001551866531372
2991;1.8834547996520996
2992;1.8670073747634888
2993;1.8507593870162964
2994;1.834771752357483
2995;1.8190346956253052
2996;1.8036906719207764
2997;1.7885740995407104
2998;1.7737343311309814
2999;1.759200930595398
