;loss
0;879.5253295898438
1;878.6522216796875
2;877.4871215820312
3;876.3307495117188
4;875.2532958984375
5;874.1614379882812
6;873.0275268554688
7;871.8997192382812
8;870.7926635742188
9;869.6736450195312
10;868.5623779296875
11;867.4485473632812
12;866.3312377929688
13;865.2133178710938
14;864.0859375
15;862.9513549804688
16;861.8080444335938
17;860.6640625
18;859.5086059570312
19;858.3396606445312
20;857.1421508789062
21;855.9386596679688
22;854.7001953125
23;853.4368896484375
24;852.1456298828125
25;850.8381958007812
26;849.4962158203125
27;848.1159057617188
28;846.6930541992188
29;845.22265625
30;843.6995239257812
31;842.1178588867188
32;840.4716796875
33;838.7540283203125
34;836.9577026367188
35;835.07421875
36;833.0940551757812
37;831.0065307617188
38;828.7750854492188
39;826.408203125
40;823.9164428710938
41;821.2576293945312
42;818.4110717773438
43;815.3203735351562
44;811.9852294921875
45;808.4074096679688
46;804.47705078125
47;800.2227783203125
48;795.5507202148438
49;790.3430786132812
50;784.6110229492188
51;778.2041015625
52;770.9251708984375
53;762.7381591796875
54;753.2890625
55;742.3794555664062
56;729.7957153320312
57;715.0967407226562
58;697.9857177734375
59;678.4669189453125
60;657.1847534179688
61;635.3963012695312
62;614.8809204101562
63;596.6866455078125
64;580.6449584960938
65;566.6249389648438
66;554.3715209960938
67;543.4356079101562
68;533.68310546875
69;524.9371948242188
70;517.10546875
71;509.9646911621094
72;503.46246337890625
73;497.5591125488281
74;492.1007995605469
75;487.09912109375
76;482.4259338378906
77;478.0894470214844
78;473.9993591308594
79;470.15277099609375
80;466.5188293457031
81;463.0669860839844
82;459.7776184082031
83;456.6278991699219
84;453.6017761230469
85;450.68719482421875
86;447.8869323730469
87;445.17462158203125
88;442.525634765625
89;439.94818115234375
90;437.44842529296875
91;434.9947814941406
92;432.59576416015625
93;430.2592468261719
94;427.9579162597656
95;425.7103576660156
96;423.5025939941406
97;421.33148193359375
98;419.19500732421875
99;417.0915222167969
100;415.00921630859375
101;412.95611572265625
102;410.93109130859375
103;408.93267822265625
104;406.9597473144531
105;405.0196838378906
106;403.1025085449219
107;401.1992492675781
108;399.3254089355469
109;397.4636535644531
110;395.6292419433594
111;393.80584716796875
112;392.00054931640625
113;390.2201843261719
114;388.4493713378906
115;386.7023010253906
116;384.9638671875
117;383.2408752441406
118;381.5397033691406
119;379.8528747558594
120;378.1736755371094
121;376.50836181640625
122;374.8565979003906
123;373.2242126464844
124;371.5983581542969
125;369.9909973144531
126;368.389892578125
127;366.8006286621094
128;365.228759765625
129;363.6626281738281
130;362.1076354980469
131;360.5690612792969
132;359.0357971191406
133;357.51837158203125
134;356.00592041015625
135;354.5086364746094
136;353.02117919921875
137;351.5433654785156
138;350.07000732421875
139;348.61090087890625
140;347.1609191894531
141;345.7199401855469
142;344.28314208984375
143;342.85968017578125
144;341.44476318359375
145;340.0382385253906
146;338.6355285644531
147;337.24542236328125
148;335.8590393066406
149;334.48492431640625
150;333.1186218261719
151;331.7599792480469
152;330.40478515625
153;329.0572204589844
154;327.7170715332031
155;326.38433837890625
156;325.0627136230469
157;323.7481994628906
158;322.4407043457031
159;321.1363830566406
160;319.8389587402344
161;318.55206298828125
162;317.2718200683594
163;315.9981994628906
164;314.7311096191406
165;313.4704895019531
166;312.2162780761719
167;310.96832275390625
168;309.72332763671875
169;308.4845275878906
170;307.2518615722656
171;306.02532958984375
172;304.8048400878906
173;303.5935363769531
174;302.38818359375
175;301.1855163574219
176;299.9886169433594
177;298.79754638671875
178;297.61517333984375
179;296.4384460449219
180;295.2643737792969
181;294.09869384765625
182;292.9356384277344
183;291.7780456542969
184;290.628662109375
185;289.4818115234375
186;288.3402404785156
187;287.2066955566406
188;286.07568359375
189;284.9498596191406
190;283.83184814453125
191;282.7162780761719
192;281.60577392578125
193;280.50030517578125
194;279.40240478515625
195;278.3094787597656
196;277.22137451171875
197;276.13812255859375
198;275.0596618652344
199;273.9836120605469
200;272.91229248046875
201;271.8481140136719
202;270.78631591796875
203;269.73150634765625
204;268.678955078125
205;267.6333312988281
206;266.5921936035156
207;265.5556335449219
208;264.5213317871094
209;263.4914855957031
210;262.46612548828125
211;261.4472961425781
212;260.4328308105469
213;259.42059326171875
214;258.41473388671875
215;257.41314697265625
216;256.4137268066406
217;255.41859436035156
218;254.4276580810547
219;253.44288635253906
220;252.46023559570312
221;251.4836883544922
222;250.50924682617188
223;249.54080200195312
224;248.574462890625
225;247.61215209960938
226;246.65380859375
227;245.699462890625
228;244.74905395507812
229;243.804443359375
230;242.8618927001953
231;241.92501831054688
232;240.991943359375
233;240.062744140625
234;239.1372833251953
235;238.215576171875
236;237.2959442138672
237;236.38172912597656
238;235.4712677001953
239;234.56443786621094
240;233.66127014160156
241;232.76016235351562
242;231.8643035888672
243;230.9720458984375
244;230.08177185058594
245;229.195068359375
246;228.3119354248047
247;227.4339599609375
248;226.55946350097656
249;225.6884765625
250;224.81942749023438
251;223.95541381835938
252;223.09327697753906
253;222.23611450195312
254;221.380859375
255;220.529052734375
256;219.68203735351562
257;218.83840942382812
258;217.9981231689453
259;217.16114807128906
260;216.32614135742188
261;215.4957733154297
262;214.6687469482422
263;213.8435821533203
264;213.0230712890625
265;212.20571899414062
266;211.3916778564453
267;210.580810546875
268;209.7718048095703
269;208.96726989746094
270;208.1659393310547
271;207.36647033691406
272;206.57017517089844
273;205.77700805664062
274;204.98817443847656
275;204.2012481689453
276;203.41860961914062
277;202.63783264160156
278;201.861328125
279;201.08786010742188
280;200.3174285888672
281;199.55001831054688
282;198.784423828125
283;198.02296447753906
284;197.2645263671875
285;196.50900268554688
286;195.7564697265625
287;195.0057373046875
288;194.25906372070312
289;193.51419067382812
290;192.77223205566406
291;192.03317260742188
292;191.29702758789062
293;190.56480407714844
294;189.83436584472656
295;189.10791015625
296;188.3842315673828
297;187.6633758544922
298;186.94432067871094
299;186.22911071777344
300;185.5155792236328
301;184.80490112304688
302;184.09799194335938
303;183.39285278320312
304;182.6904296875
305;181.99081420898438
306;181.29483032226562
307;180.6016387939453
308;179.91110229492188
309;179.22230529785156
310;178.53713989257812
311;177.8546905517578
312;177.17393493652344
313;176.49673461914062
314;175.82131958007812
315;175.14944458007812
316;174.47926330566406
317;173.81260681152344
318;173.14768981933594
319;172.48532104492188
320;171.8256072998047
321;171.16929626464844
322;170.5146942138672
323;169.86351013183594
324;169.21482849121094
325;168.56871032714844
326;167.92428588867188
327;167.2824249267578
328;166.64381408691406
329;166.0077362060547
330;165.37332153320312
331;164.7414093017578
332;164.11196899414062
333;163.48497009277344
334;162.86122131347656
335;162.23995971679688
336;161.6202850341797
337;161.00389099121094
338;160.3890838623047
339;159.77748107910156
340;159.1682891845703
341;158.5614776611328
342;157.95703125
343;157.354248046875
344;156.75376892089844
345;156.1564178466797
346;155.5614471435547
347;154.96876525878906
348;154.37841796875
349;153.79039001464844
350;153.20468139648438
351;152.62123107910156
352;152.03944396972656
353;151.45993041992188
354;150.8826904296875
355;150.3077392578125
356;149.7350311279297
357;149.165283203125
358;148.59779357910156
359;148.03250122070312
360;147.46945190429688
361;146.907958984375
362;146.34934997558594
363;145.7923126220703
364;145.2374725341797
365;144.6848602294922
366;144.13438415527344
367;143.5867156982422
368;143.041259765625
369;142.49794006347656
370;141.95675659179688
371;141.41775512695312
372;140.880859375
373;140.34556579589844
374;139.8129425048828
375;139.2824249267578
376;138.75401306152344
377;138.2271270751953
378;137.7029266357422
379;137.18081665039062
380;136.66075134277344
381;136.14279174804688
382;135.62632751464844
383;135.11248779296875
384;134.60012817382812
385;134.08982849121094
386;133.5821533203125
387;133.07644653320312
388;132.57278442382812
389;132.07113647460938
390;131.57150268554688
391;131.07333374023438
392;130.57716369628906
393;130.08351135253906
394;129.59132385253906
395;129.10113525390625
396;128.6134033203125
397;128.12765502929688
398;127.6438217163086
399;127.16194152832031
400;126.68155670166016
401;126.20306396484375
402;125.72651672363281
403;125.25189208984375
404;124.77922058105469
405;124.30841827392578
406;123.83951568603516
407;123.37300872802734
408;122.90840911865234
409;122.44564056396484
410;121.98432159423828
411;121.52489471435547
412;121.06729888916016
413;120.61204528808594
414;120.15816497802734
415;119.70661163330078
416;119.2568588256836
417;118.80895233154297
418;118.3624496459961
419;117.91819763183594
420;117.47575378417969
421;117.03471374511719
422;116.595458984375
423;116.15838623046875
424;115.72274017333984
425;115.28929138183594
426;114.85761260986328
427;114.42728424072266
428;113.99913787841797
429;113.57231903076172
430;113.14769744873047
431;112.72481536865234
432;112.30327606201172
433;111.88386535644531
434;111.46583557128906
435;111.04949188232422
436;110.63488006591797
437;110.2223892211914
438;109.81117248535156
439;109.40172576904297
440;108.99393463134766
441;108.58785247802734
442;108.1838150024414
443;107.78147888183594
444;107.38079833984375
445;106.98177337646484
446;106.58446502685547
447;106.18875885009766
448;105.79471588134766
449;105.40230560302734
450;105.01155853271484
451;104.62245178222656
452;104.2345962524414
453;103.84871673583984
454;103.4644775390625
455;103.08183288574219
456;102.7008056640625
457;102.321044921875
458;101.94287109375
459;101.56629943847656
460;101.19166564941406
461;100.8182373046875
462;100.4467544555664
463;100.07647705078125
464;99.7081069946289
465;99.34100341796875
466;98.9757308959961
467;98.61199188232422
468;98.24951171875
469;97.88887023925781
470;97.52947998046875
471;97.171630859375
472;96.81558990478516
473;96.46104431152344
474;96.10798645019531
475;95.7564697265625
476;95.40642547607422
477;95.05763244628906
478;94.71058654785156
479;94.36478424072266
480;94.0207290649414
481;93.6781005859375
482;93.33698272705078
483;92.9973373413086
484;92.65911102294922
485;92.32209014892578
486;91.98680877685547
487;91.65270233154297
488;91.32000732421875
489;90.98905181884766
490;90.65923309326172
491;90.33086395263672
492;90.004150390625
493;89.67864990234375
494;89.35477447509766
495;89.03229522705078
496;88.71121978759766
497;88.39130401611328
498;88.0727767944336
499;87.75565338134766
500;87.43990325927734
501;87.12577056884766
502;86.81299591064453
503;86.50135803222656
504;86.19132232666016
505;85.88243865966797
506;85.57511138916016
507;85.2689208984375
508;84.96406555175781
509;84.6607666015625
510;84.35881042480469
511;84.0582046508789
512;83.7589111328125
513;83.46070861816406
514;83.16402435302734
515;82.86869049072266
516;82.57442474365234
517;82.28168487548828
518;81.99021911621094
519;81.69986724853516
520;81.41099548339844
521;81.12342071533203
522;80.8369140625
523;80.55167388916016
524;80.26792907714844
525;79.98543548583984
526;79.70421600341797
527;79.42424011230469
528;79.14554595947266
529;78.86804962158203
530;78.59180450439453
531;78.31681823730469
532;78.04308319091797
533;77.77056121826172
534;77.4992446899414
535;77.22899627685547
536;76.95994567871094
537;76.69227600097656
538;76.4256591796875
539;76.16041564941406
540;75.89620208740234
541;75.63335418701172
542;75.37171173095703
543;75.11106872558594
544;74.85160827636719
545;74.59349822998047
546;74.33658599853516
547;74.08084869384766
548;73.82606506347656
549;73.5726547241211
550;73.32037353515625
551;73.06907653808594
552;72.8191146850586
553;72.57029724121094
554;72.32243347167969
555;72.0757064819336
556;71.83031463623047
557;71.5860366821289
558;71.3428726196289
559;71.1006851196289
560;70.85958099365234
561;70.61962890625
562;70.38092041015625
563;70.1433334350586
564;69.90667724609375
565;69.67124938964844
566;69.43694305419922
567;69.20374298095703
568;68.97157287597656
569;68.74052429199219
570;68.5103759765625
571;68.2814712524414
572;68.05364227294922
573;67.82671356201172
574;67.6009750366211
575;67.3763198852539
576;67.15270233154297
577;66.93013763427734
578;66.70863342285156
579;66.4881362915039
580;66.26856231689453
581;66.04999542236328
582;65.83262634277344
583;65.61613464355469
584;65.40081024169922
585;65.18647766113281
586;64.97306060791016
587;64.76075744628906
588;64.54933166503906
589;64.33905029296875
590;64.12976837158203
591;63.921356201171875
592;63.71405029296875
593;63.50774002075195
594;63.30241012573242
595;63.09804153442383
596;62.89455032348633
597;62.6920280456543
598;62.49058151245117
599;62.290122985839844
600;62.090476989746094
601;61.89182662963867
602;61.694217681884766
603;61.49757766723633
604;61.301761627197266
605;61.10688400268555
606;60.91295623779297
607;60.71994400024414
608;60.52801513671875
609;60.33699417114258
610;60.14691162109375
611;59.95763397216797
612;59.769256591796875
613;59.58181381225586
614;59.39537811279297
615;59.20973587036133
616;59.02501678466797
617;58.84119415283203
618;58.65837860107422
619;58.47633743286133
620;58.29520797729492
621;58.11505126953125
622;57.935768127441406
623;57.75738525390625
624;57.57988739013672
625;57.40314865112305
626;57.22737503051758
627;57.052364349365234
628;56.87833786010742
629;56.705055236816406
630;56.532630920410156
631;56.36115264892578
632;56.19043731689453
633;56.020565032958984
634;55.85152053833008
635;55.68333053588867
636;55.51597213745117
637;55.34945297241211
638;55.18384552001953
639;55.018985748291016
640;54.85494613647461
641;54.69171142578125
642;54.52931594848633
643;54.367713928222656
644;54.2070198059082
645;54.04713821411133
646;53.887969970703125
647;53.72968292236328
648;53.57210159301758
649;53.4154052734375
650;53.25941848754883
651;53.10428237915039
652;52.94986343383789
653;52.796321868896484
654;52.64345169067383
655;52.491455078125
656;52.340213775634766
657;52.18973922729492
658;52.0400505065918
659;51.891029357910156
660;51.74276351928711
661;51.59524917602539
662;51.448577880859375
663;51.30257797241211
664;51.15739822387695
665;51.01295852661133
666;50.869258880615234
667;50.726295471191406
668;50.583984375
669;50.44241714477539
670;50.301666259765625
671;50.16160202026367
672;50.022281646728516
673;49.88362503051758
674;49.7457275390625
675;49.60854721069336
676;49.47208023071289
677;49.33625411987305
678;49.20120620727539
679;49.0667839050293
680;48.93313217163086
681;48.800167083740234
682;48.66782760620117
683;48.53617477416992
684;48.40522003173828
685;48.2750244140625
686;48.145477294921875
687;48.016639709472656
688;47.88845443725586
689;47.760887145996094
690;47.63397979736328
691;47.507755279541016
692;47.382259368896484
693;47.25741958618164
694;47.13322830200195
695;47.00968551635742
696;46.886749267578125
697;46.7645149230957
698;46.642948150634766
699;46.52194595336914
700;46.40164566040039
701;46.28192901611328
702;46.162906646728516
703;46.04452133178711
704;45.926692962646484
705;45.80956268310547
706;45.6929931640625
707;45.57703399658203
708;45.46178436279297
709;45.347129821777344
710;45.233089447021484
711;45.11966323852539
712;45.006839752197266
713;44.89457321166992
714;44.782958984375
715;44.67196273803711
716;44.56149673461914
717;44.451683044433594
718;44.34246826171875
719;44.23379135131836
720;44.12569046020508
721;44.018218994140625
722;43.91134262084961
723;43.8050651550293
724;43.69934844970703
725;43.594200134277344
726;43.48957061767578
727;43.38556671142578
728;43.28207778930664
729;43.179161071777344
730;43.07685089111328
731;42.97507095336914
732;42.87382888793945
733;42.77315139770508
734;42.673011779785156
735;42.5734748840332
736;42.474491119384766
737;42.376033782958984
738;42.278106689453125
739;42.18074417114258
740;42.0838737487793
741;41.98757553100586
742;41.891788482666016
743;41.79655075073242
744;41.701866149902344
745;41.6076774597168
746;41.5140380859375
747;41.420860290527344
748;41.3282470703125
749;41.23616409301758
750;41.14453125
751;41.05341339111328
752;40.96285629272461
753;40.87281036376953
754;40.783206939697266
755;40.69417190551758
756;40.60557174682617
757;40.517478942871094
758;40.42992401123047
759;40.34281539916992
760;40.25619888305664
761;40.170074462890625
762;40.084468841552734
763;39.99932861328125
764;39.91469192504883
765;39.83052444458008
766;39.746849060058594
767;39.66360855102539
768;39.580848693847656
769;39.49854278564453
770;39.41670608520508
771;39.335365295410156
772;39.2545051574707
773;39.174072265625
774;39.09408950805664
775;39.01457595825195
776;38.935508728027344
777;38.856895446777344
778;38.77872848510742
779;38.70104217529297
780;38.62380599975586
781;38.5469856262207
782;38.47063446044922
783;38.394691467285156
784;38.319190979003906
785;38.24415969848633
786;38.169551849365234
787;38.095394134521484
788;38.02162551879883
789;37.948299407958984
790;37.87542724609375
791;37.80295944213867
792;37.73088836669922
793;37.659263610839844
794;37.5880126953125
795;37.5172233581543
796;37.44682693481445
797;37.37686538696289
798;37.30729293823242
799;37.23812484741211
800;37.169376373291016
801;37.10103988647461
802;37.033077239990234
803;36.96553421020508
804;36.89835739135742
805;36.83158493041992
806;36.765235900878906
807;36.699241638183594
808;36.6336669921875
809;36.56848907470703
810;36.503665924072266
811;36.439231872558594
812;36.375186920166016
813;36.31151580810547
814;36.24823760986328
815;36.185306549072266
816;36.12278366088867
817;36.060646057128906
818;35.99883270263672
819;35.937400817871094
820;35.87635040283203
821;35.8156623840332
822;35.75532150268555
823;35.695350646972656
824;35.63574981689453
825;35.57651138305664
826;35.51761245727539
827;35.45906448364258
828;35.40089797973633
829;35.34307098388672
830;35.285579681396484
831;35.22842788696289
832;35.17164611816406
833;35.115211486816406
834;35.05910110473633
835;35.00333023071289
836;34.94791030883789
837;34.89284133911133
838;34.83809280395508
839;34.783687591552734
840;34.72960662841797
841;34.675846099853516
842;34.62240219116211
843;34.56930160522461
844;34.51652908325195
845;34.46406936645508
846;34.411922454833984
847;34.360111236572266
848;34.308616638183594
849;34.25743865966797
850;34.206581115722656
851;34.1560173034668
852;34.10580062866211
853;34.05588912963867
854;34.00627899169922
855;33.95695877075195
856;33.907962799072266
857;33.85927200317383
858;33.810882568359375
859;33.762794494628906
860;33.714988708496094
861;33.667476654052734
862;33.62027359008789
863;33.57334518432617
864;33.52674102783203
865;33.48041915893555
866;33.43438720703125
867;33.388648986816406
868;33.343204498291016
869;33.298038482666016
870;33.253143310546875
871;33.20853042602539
872;33.164188385009766
873;33.1201286315918
874;33.076358795166016
875;33.032859802246094
876;32.98964309692383
877;32.94670867919922
878;32.90404510498047
879;32.86162567138672
880;32.81949234008789
881;32.77761459350586
882;32.736019134521484
883;32.69466781616211
884;32.65359878540039
885;32.61277770996094
886;32.57221221923828
887;32.53193283081055
888;32.49190139770508
889;32.452110290527344
890;32.41258239746094
891;32.3733024597168
892;32.33427047729492
893;32.295501708984375
894;32.2569694519043
895;32.218692779541016
896;32.18065643310547
897;32.14287567138672
898;32.10532760620117
899;32.068031311035156
900;32.030975341796875
901;31.994150161743164
902;31.95755958557129
903;31.92122459411621
904;31.88511848449707
905;31.8492488861084
906;31.81361198425293
907;31.778207778930664
908;31.743022918701172
909;31.70807456970215
910;31.673358917236328
911;31.63885498046875
912;31.60459327697754
913;31.5705509185791
914;31.5367374420166
915;31.503143310546875
916;31.469770431518555
917;31.436616897583008
918;31.403676986694336
919;31.370954513549805
920;31.338438034057617
921;31.306163787841797
922;31.27407455444336
923;31.242206573486328
924;31.21055793762207
925;31.17911720275879
926;31.147872924804688
927;31.116846084594727
928;31.086015701293945
929;31.05538558959961
930;31.02497673034668
931;30.9947566986084
932;30.96474838256836
933;30.934940338134766
934;30.905323028564453
935;30.87590980529785
936;30.846683502197266
937;30.817663192749023
938;30.788827896118164
939;30.76019287109375
940;30.731754302978516
941;30.70350456237793
942;30.675432205200195
943;30.64756202697754
944;30.619874954223633
945;30.592382431030273
946;30.565073013305664
947;30.53795051574707
948;30.51101303100586
949;30.484264373779297
950;30.45768165588379
951;30.43128776550293
952;30.405073165893555
953;30.379032135009766
954;30.353166580200195
955;30.327478408813477
956;30.301977157592773
957;30.276636123657227
958;30.251468658447266
959;30.22646713256836
960;30.201662063598633
961;30.1769962310791
962;30.15251350402832
963;30.12820053100586
964;30.104036331176758
965;30.08005142211914
966;30.056232452392578
967;30.032588958740234
968;30.009090423583984
969;29.985763549804688
970;29.962594985961914
971;29.939579010009766
972;29.916732788085938
973;29.894046783447266
974;29.87152099609375
975;29.849138259887695
976;29.82691764831543
977;29.80485725402832
978;29.782949447631836
979;29.761184692382812
980;29.73957633972168
981;29.718114852905273
982;29.69681167602539
983;29.67564582824707
984;29.65464210510254
985;29.633777618408203
986;29.61306381225586
987;29.592493057250977
988;29.572052001953125
989;29.55177879333496
990;29.53163719177246
991;29.51165199279785
992;29.491790771484375
993;29.472074508666992
994;29.45249366760254
995;29.43305015563965
996;29.413753509521484
997;29.394596099853516
998;29.37556266784668
999;29.35666847229004
1000;29.337907791137695
1001;29.31928062438965
1002;29.300790786743164
1003;29.28241539001465
1004;29.264179229736328
1005;29.246078491210938
1006;29.228107452392578
1007;29.210256576538086
1008;29.192533493041992
1009;29.174943923950195
1010;29.157480239868164
1011;29.14013671875
1012;29.1229248046875
1013;29.1058349609375
1014;29.088871002197266
1015;29.072025299072266
1016;29.0552978515625
1017;29.03870964050293
1018;29.022216796875
1019;29.005855560302734
1020;28.989614486694336
1021;28.97348403930664
1022;28.957475662231445
1023;28.94156837463379
1024;28.92579460144043
1025;28.910123825073242
1026;28.894563674926758
1027;28.87911605834961
1028;28.863801956176758
1029;28.848587036132812
1030;28.83348274230957
1031;28.818498611450195
1032;28.803613662719727
1033;28.788835525512695
1034;28.774179458618164
1035;28.759618759155273
1036;28.745161056518555
1037;28.730817794799805
1038;28.71657371520996
1039;28.70244026184082
1040;28.68840980529785
1041;28.674484252929688
1042;28.66065788269043
1043;28.64693260192871
1044;28.6333065032959
1045;28.61978530883789
1046;28.606367111206055
1047;28.593042373657227
1048;28.579824447631836
1049;28.566696166992188
1050;28.553659439086914
1051;28.54073715209961
1052;28.527896881103516
1053;28.515155792236328
1054;28.502513885498047
1055;28.489959716796875
1056;28.477506637573242
1057;28.465139389038086
1058;28.452871322631836
1059;28.440690994262695
1060;28.42860221862793
1061;28.41661262512207
1062;28.40469741821289
1063;28.39288330078125
1064;28.381160736083984
1065;28.369516372680664
1066;28.35796546936035
1067;28.346511840820312
1068;28.335126876831055
1069;28.323827743530273
1070;28.312625885009766
1071;28.301498413085938
1072;28.290462493896484
1073;28.27950096130371
1074;28.268634796142578
1075;28.257841110229492
1076;28.247135162353516
1077;28.23651123046875
1078;28.225969314575195
1079;28.215505599975586
1080;28.20511817932129
1081;28.19481086730957
1082;28.18458366394043
1083;28.174442291259766
1084;28.16436767578125
1085;28.154373168945312
1086;28.14445686340332
1087;28.13461685180664
1088;28.12485122680664
1089;28.11516761779785
1090;28.10555076599121
1091;28.096006393432617
1092;28.086544036865234
1093;28.077152252197266
1094;28.067827224731445
1095;28.058576583862305
1096;28.049394607543945
1097;28.040292739868164
1098;28.031248092651367
1099;28.022281646728516
1100;28.01338768005371
1101;28.00456428527832
1102;27.995805740356445
1103;27.98711585998535
1104;27.97848892211914
1105;27.96993064880371
1106;27.961442947387695
1107;27.95301628112793
1108;27.944660186767578
1109;27.936372756958008
1110;27.92814064025879
1111;27.919979095458984
1112;27.911874771118164
1113;27.90384292602539
1114;27.895877838134766
1115;27.88796043395996
1116;27.88011360168457
1117;27.872331619262695
1118;27.86460304260254
1119;27.856937408447266
1120;27.84933853149414
1121;27.841796875
1122;27.83431053161621
1123;27.82689094543457
1124;27.819522857666016
1125;27.812213897705078
1126;27.80496597290039
1127;27.797775268554688
1128;27.790639877319336
1129;27.7835636138916
1130;27.776546478271484
1131;27.769582748413086
1132;27.76267433166504
1133;27.755813598632812
1134;27.749013900756836
1135;27.742273330688477
1136;27.73557472229004
1137;27.72894287109375
1138;27.72235679626465
1139;27.7158260345459
1140;27.7093505859375
1141;27.70292091369629
1142;27.696544647216797
1143;27.69021987915039
1144;27.683950424194336
1145;27.677724838256836
1146;27.67155647277832
1147;27.665435791015625
1148;27.65936279296875
1149;27.65333366394043
1150;27.64736557006836
1151;27.64143943786621
1152;27.63555908203125
1153;27.629730224609375
1154;27.62394142150879
1155;27.618207931518555
1156;27.612524032592773
1157;27.606884002685547
1158;27.60127830505371
1159;27.59572982788086
1160;27.590227127075195
1161;27.58476448059082
1162;27.579347610473633
1163;27.573972702026367
1164;27.56865119934082
1165;27.563364028930664
1166;27.558122634887695
1167;27.552928924560547
1168;27.547771453857422
1169;27.542659759521484
1170;27.53758430480957
1171;27.532562255859375
1172;27.527570724487305
1173;27.522626876831055
1174;27.51772117614746
1175;27.512853622436523
1176;27.50802993774414
1177;27.503238677978516
1178;27.49849510192871
1179;27.49379539489746
1180;27.48912239074707
1181;27.4844970703125
1182;27.47990608215332
1183;27.47535514831543
1184;27.470840454101562
1185;27.466365814208984
1186;27.461923599243164
1187;27.457523345947266
1188;27.453155517578125
1189;27.448835372924805
1190;27.444538116455078
1191;27.440279006958008
1192;27.43606185913086
1193;27.431875228881836
1194;27.427722930908203
1195;27.423612594604492
1196;27.419525146484375
1197;27.415483474731445
1198;27.41147804260254
1199;27.40749740600586
1200;27.403549194335938
1201;27.39963722229004
1202;27.395761489868164
1203;27.391918182373047
1204;27.388103485107422
1205;27.384321212768555
1206;27.38058090209961
1207;27.37685775756836
1208;27.373172760009766
1209;27.369516372680664
1210;27.365896224975586
1211;27.362300872802734
1212;27.35874366760254
1213;27.355209350585938
1214;27.351709365844727
1215;27.34823989868164
1216;27.344797134399414
1217;27.341386795043945
1218;27.338003158569336
1219;27.33465576171875
1220;27.33132553100586
1221;27.328027725219727
1222;27.324764251708984
1223;27.321523666381836
1224;27.31831169128418
1225;27.31512451171875
1226;27.31197166442871
1227;27.3088436126709
1228;27.305742263793945
1229;27.302663803100586
1230;27.29961585998535
1231;27.29659652709961
1232;27.293594360351562
1233;27.290632247924805
1234;27.287689208984375
1235;27.28476333618164
1236;27.281869888305664
1237;27.279003143310547
1238;27.276159286499023
1239;27.273332595825195
1240;27.270549774169922
1241;27.267778396606445
1242;27.26502799987793
1243;27.26230812072754
1244;27.25960922241211
1245;27.256938934326172
1246;27.254287719726562
1247;27.25166130065918
1248;27.249053955078125
1249;27.24647331237793
1250;27.243915557861328
1251;27.241376876831055
1252;27.23886489868164
1253;27.236379623413086
1254;27.233903884887695
1255;27.231462478637695
1256;27.229032516479492
1257;27.226627349853516
1258;27.224239349365234
1259;27.221879959106445
1260;27.219533920288086
1261;27.217208862304688
1262;27.214914321899414
1263;27.212635040283203
1264;27.21038246154785
1265;27.208133697509766
1266;27.205913543701172
1267;27.203718185424805
1268;27.2015323638916
1269;27.199371337890625
1270;27.19723892211914
1271;27.19510841369629
1272;27.19300651550293
1273;27.190921783447266
1274;27.188854217529297
1275;27.18680763244629
1276;27.18477439880371
1277;27.182764053344727
1278;27.180768966674805
1279;27.17879295349121
1280;27.176843643188477
1281;27.17490577697754
1282;27.1729793548584
1283;27.171072006225586
1284;27.169179916381836
1285;27.167314529418945
1286;27.165456771850586
1287;27.163623809814453
1288;27.161800384521484
1289;27.15999984741211
1290;27.158206939697266
1291;27.156436920166016
1292;27.154680252075195
1293;27.152944564819336
1294;27.15122413635254
1295;27.14951515197754
1296;27.147823333740234
1297;27.14614486694336
1298;27.144479751586914
1299;27.1428279876709
1300;27.14119529724121
1301;27.139577865600586
1302;27.137971878051758
1303;27.136388778686523
1304;27.134817123413086
1305;27.13325309753418
1306;27.1317138671875
1307;27.13018226623535
1308;27.128664016723633
1309;27.12715721130371
1310;27.125673294067383
1311;27.124195098876953
1312;27.122737884521484
1313;27.121286392211914
1314;27.11984634399414
1315;27.11842918395996
1316;27.117015838623047
1317;27.115625381469727
1318;27.114240646362305
1319;27.11287498474121
1320;27.111515045166016
1321;27.11016845703125
1322;27.108837127685547
1323;27.107513427734375
1324;27.106204986572266
1325;27.104907989501953
1326;27.103628158569336
1327;27.10235595703125
1328;27.101091384887695
1329;27.0998477935791
1330;27.09861183166504
1331;27.09738540649414
1332;27.096172332763672
1333;27.094970703125
1334;27.093774795532227
1335;27.092601776123047
1336;27.0914306640625
1337;27.090269088745117
1338;27.089122772216797
1339;27.087987899780273
1340;27.086862564086914
1341;27.08574104309082
1342;27.084638595581055
1343;27.083541870117188
1344;27.082460403442383
1345;27.08138084411621
1346;27.080320358276367
1347;27.07927131652832
1348;27.07822608947754
1349;27.077192306518555
1350;27.076168060302734
1351;27.07514762878418
1352;27.07415199279785
1353;27.073148727416992
1354;27.072160720825195
1355;27.071184158325195
1356;27.070220947265625
1357;27.06926155090332
1358;27.06831169128418
1359;27.067373275756836
1360;27.066434860229492
1361;27.06551742553711
1362;27.06459617614746
1363;27.063692092895508
1364;27.062795639038086
1365;27.061908721923828
1366;27.0610294342041
1367;27.060150146484375
1368;27.05929183959961
1369;27.058441162109375
1370;27.05759048461914
1371;27.056753158569336
1372;27.055917739868164
1373;27.055105209350586
1374;27.054279327392578
1375;27.0534725189209
1376;27.052671432495117
1377;27.051881790161133
1378;27.051095962524414
1379;27.05031394958496
1380;27.049549102783203
1381;27.048784255981445
1382;27.048025131225586
1383;27.047283172607422
1384;27.046541213989258
1385;27.045801162719727
1386;27.045080184936523
1387;27.044355392456055
1388;27.04364013671875
1389;27.04293441772461
1390;27.042236328125
1391;27.04155158996582
1392;27.04085350036621
1393;27.040178298950195
1394;27.03950309753418
1395;27.038843154907227
1396;27.038177490234375
1397;27.03752326965332
1398;27.036880493164062
1399;27.036237716674805
1400;27.03559684753418
1401;27.034975051879883
1402;27.034351348876953
1403;27.033727645874023
1404;27.033126831054688
1405;27.032514572143555
1406;27.031911849975586
1407;27.031320571899414
1408;27.030729293823242
1409;27.030149459838867
1410;27.02956771850586
1411;27.029003143310547
1412;27.0284366607666
1413;27.027877807617188
1414;27.02732276916504
1415;27.02677345275879
1416;27.02623176574707
1417;27.02569007873535
1418;27.025156021118164
1419;27.02463150024414
1420;27.024106979370117
1421;27.023590087890625
1422;27.023075103759766
1423;27.022563934326172
1424;27.022064208984375
1425;27.02156639099121
1426;27.021074295043945
1427;27.02058219909668
1428;27.02010154724121
1429;27.01961898803711
1430;27.019145965576172
1431;27.0186767578125
1432;27.01820945739746
1433;27.017751693725586
1434;27.017290115356445
1435;27.016841888427734
1436;27.016389846801758
1437;27.015947341918945
1438;27.015514373779297
1439;27.01508140563965
1440;27.014644622802734
1441;27.014225006103516
1442;27.0137996673584
1443;27.013381958007812
1444;27.012969970703125
1445;27.01255989074707
1446;27.01215934753418
1447;27.01175308227539
1448;27.011354446411133
1449;27.01096534729004
1450;27.01057243347168
1451;27.01018714904785
1452;27.00980567932129
1453;27.00942611694336
1454;27.009048461914062
1455;27.00868034362793
1456;27.008304595947266
1457;27.007944107055664
1458;27.00758171081543
1459;27.00722312927246
1460;27.00687599182129
1461;27.00652503967285
1462;27.00617790222168
1463;27.00583267211914
1464;27.005489349365234
1465;27.00515365600586
1466;27.004817962646484
1467;27.00448989868164
1468;27.004165649414062
1469;27.003835678100586
1470;27.003522872924805
1471;27.003198623657227
1472;27.002885818481445
1473;27.002573013305664
1474;27.002262115478516
1475;27.001953125
1476;27.001657485961914
1477;27.001358032226562
1478;27.001062393188477
1479;27.00076675415039
1480;27.000473022460938
1481;27.000186920166016
1482;26.99990463256836
1483;26.999622344970703
1484;26.999345779418945
1485;26.999065399169922
1486;26.998794555664062
1487;26.998523712158203
1488;26.998260498046875
1489;26.997987747192383
1490;26.997730255126953
1491;26.997467041015625
1492;26.997207641601562
1493;26.996957778930664
1494;26.996700286865234
1495;26.996450424194336
1496;26.996200561523438
1497;26.99595832824707
1498;26.995718002319336
1499;26.995479583740234
1500;26.995235443115234
1501;26.994998931884766
1502;26.99476432800293
1503;26.994537353515625
1504;26.994304656982422
1505;26.994077682495117
1506;26.99385643005371
1507;26.993633270263672
1508;26.993408203125
1509;26.993192672729492
1510;26.99298095703125
1511;26.99275779724121
1512;26.992557525634766
1513;26.99234390258789
1514;26.99213981628418
1515;26.9919376373291
1516;26.991727828979492
1517;26.99152946472168
1518;26.991329193115234
1519;26.991130828857422
1520;26.990936279296875
1521;26.990741729736328
1522;26.99055290222168
1523;26.9903621673584
1524;26.99017333984375
1525;26.989986419677734
1526;26.989809036254883
1527;26.9896240234375
1528;26.98944091796875
1529;26.989259719848633
1530;26.989091873168945
1531;26.988910675048828
1532;26.988737106323242
1533;26.988567352294922
1534;26.988393783569336
1535;26.988229751586914
1536;26.988061904907227
1537;26.987903594970703
1538;26.987735748291016
1539;26.987577438354492
1540;26.98741340637207
1541;26.987260818481445
1542;26.987104415893555
1543;26.986948013305664
1544;26.986797332763672
1545;26.986637115478516
1546;26.98649024963379
1547;26.98634147644043
1548;26.986196517944336
1549;26.986053466796875
1550;26.985904693603516
1551;26.985763549804688
1552;26.985624313354492
1553;26.985477447509766
1554;26.985342025756836
1555;26.985200881958008
1556;26.985063552856445
1557;26.98493003845215
1558;26.984798431396484
1559;26.984668731689453
1560;26.98453712463379
1561;26.98440933227539
1562;26.98427963256836
1563;26.984148025512695
1564;26.984025955200195
1565;26.983901977539062
1566;26.98377799987793
1567;26.983654022216797
1568;26.983531951904297
1569;26.983409881591797
1570;26.98329734802246
1571;26.98317527770996
1572;26.98305320739746
1573;26.982938766479492
1574;26.98282241821289
1575;26.982711791992188
1576;26.982601165771484
1577;26.982479095458984
1578;26.98237419128418
1579;26.98227310180664
1580;26.982160568237305
1581;26.98204231262207
1582;26.981945037841797
1583;26.98183822631836
1584;26.98172950744629
1585;26.981624603271484
1586;26.981525421142578
1587;26.98141860961914
1588;26.9813175201416
1589;26.981218338012695
1590;26.98111915588379
1591;26.98101806640625
1592;26.980920791625977
1593;26.980825424194336
1594;26.980728149414062
1595;26.98063087463379
1596;26.98054313659668
1597;26.98044204711914
1598;26.9803524017334
1599;26.980255126953125
1600;26.980173110961914
1601;26.980085372924805
1602;26.979995727539062
1603;26.979900360107422
1604;26.979814529418945
1605;26.979719161987305
1606;26.979639053344727
1607;26.979549407958984
1608;26.97947120666504
1609;26.979387283325195
1610;26.97929573059082
1611;26.97922134399414
1612;26.979135513305664
1613;26.97905158996582
1614;26.97896957397461
1615;26.97889518737793
1616;26.978809356689453
1617;26.978729248046875
1618;26.978654861450195
1619;26.978567123413086
1620;26.978500366210938
1621;26.978424072265625
1622;26.97834587097168
1623;26.978269577026367
1624;26.978193283081055
1625;26.978118896484375
1626;26.978052139282227
1627;26.977970123291016
1628;26.9779052734375
1629;26.97783088684082
1630;26.97776222229004
1631;26.977693557739258
1632;26.97761344909668
1633;26.977542877197266
1634;26.977479934692383
1635;26.977415084838867
1636;26.977346420288086
1637;26.97727394104004
1638;26.97720718383789
1639;26.977142333984375
1640;26.977081298828125
1641;26.977008819580078
1642;26.976943969726562
1643;26.976882934570312
1644;26.97681999206543
1645;26.976755142211914
1646;26.9766902923584
1647;26.976627349853516
1648;26.976564407348633
1649;26.976505279541016
1650;26.9764404296875
1651;26.976377487182617
1652;26.976318359375
1653;26.976259231567383
1654;26.9761962890625
1655;26.976139068603516
1656;26.976076126098633
1657;26.976022720336914
1658;26.97596549987793
1659;26.975908279418945
1660;26.975849151611328
1661;26.97579574584961
1662;26.97573471069336
1663;26.975675582885742
1664;26.97562599182129
1665;26.975568771362305
1666;26.97551155090332
1667;26.975452423095703
1668;26.97540283203125
1669;26.9753475189209
1670;26.975296020507812
1671;26.97524070739746
1672;26.975187301635742
1673;26.97513771057129
1674;26.97507667541504
1675;26.975034713745117
1676;26.9749755859375
1677;26.974924087524414
1678;26.974870681762695
1679;26.974824905395508
1680;26.974773406982422
1681;26.974727630615234
1682;26.974674224853516
1683;26.97463035583496
1684;26.97456932067871
1685;26.97452163696289
1686;26.974475860595703
1687;26.974424362182617
1688;26.97438621520996
1689;26.974334716796875
1690;26.97427749633789
1691;26.97422981262207
1692;26.974185943603516
1693;26.97414207458496
1694;26.974090576171875
1695;26.97404670715332
1696;26.9739990234375
1697;26.973953247070312
1698;26.97390365600586
1699;26.973857879638672
1700;26.973817825317383
1701;26.973772048950195
1702;26.973722457885742
1703;26.973684310913086
1704;26.973634719848633
1705;26.97359848022461
1706;26.973546981811523
1707;26.9735050201416
1708;26.973459243774414
1709;26.973417282104492
1710;26.97337532043457
1711;26.97333335876465
1712;26.973291397094727
1713;26.973249435424805
1714;26.97320556640625
1715;26.97316551208496
1716;26.973119735717773
1717;26.973073959350586
1718;26.97303581237793
1719;26.972997665405273
1720;26.97295570373535
1721;26.972917556762695
1722;26.97287368774414
1723;26.972835540771484
1724;26.972787857055664
1725;26.972753524780273
1726;26.97271728515625
1727;26.97266960144043
1728;26.972627639770508
1729;26.97258949279785
1730;26.97255516052246
1731;26.972515106201172
1732;26.972469329833984
1733;26.97243309020996
1734;26.972393035888672
1735;26.97235679626465
1736;26.972320556640625
1737;26.97227668762207
1738;26.972238540649414
1739;26.97220230102539
1740;26.972158432006836
1741;26.972124099731445
1742;26.972089767456055
1743;26.9720458984375
1744;26.972013473510742
1745;26.97197151184082
1746;26.971933364868164
1747;26.97189712524414
1748;26.971860885620117
1749;26.97182273864746
1750;26.97178840637207
1751;26.971752166748047
1752;26.971710205078125
1753;26.971670150756836
1754;26.97163963317871
1755;26.971599578857422
1756;26.971567153930664
1757;26.97152328491211
1758;26.971487045288086
1759;26.97144889831543
1760;26.97140884399414
1761;26.971378326416016
1762;26.971342086791992
1763;26.97130012512207
1764;26.971261978149414
1765;26.97122573852539
1766;26.97119140625
1767;26.971160888671875
1768;26.971115112304688
1769;26.97108268737793
1770;26.97104835510254
1771;26.971012115478516
1772;26.970977783203125
1773;26.970937728881836
1774;26.97089958190918
1775;26.97086524963379
1776;26.970829010009766
1777;26.97079086303711
1778;26.970760345458984
1779;26.970718383789062
1780;26.970685958862305
1781;26.970638275146484
1782;26.970611572265625
1783;26.9705810546875
1784;26.97054100036621
1785;26.970502853393555
1786;26.970462799072266
1787;26.97043228149414
1788;26.970396041870117
1789;26.97036361694336
1790;26.97032356262207
1791;26.970285415649414
1792;26.97024917602539
1793;26.97021484375
1794;26.97017478942871
1795;26.970138549804688
1796;26.97010612487793
1797;26.97006607055664
1798;26.97003173828125
1799;26.969995498657227
1800;26.96995735168457
1801;26.969924926757812
1802;26.969890594482422
1803;26.969858169555664
1804;26.969818115234375
1805;26.969785690307617
1806;26.969741821289062
1807;26.969709396362305
1808;26.96967124938965
1809;26.96963882446289
1810;26.969594955444336
1811;26.969560623168945
1812;26.969526290893555
1813;26.969486236572266
1814;26.969451904296875
1815;26.96940803527832
1816;26.969377517700195
1817;26.969343185424805
1818;26.969301223754883
1819;26.969266891479492
1820;26.969234466552734
1821;26.96919059753418
1822;26.969160079956055
1823;26.969120025634766
1824;26.969085693359375
1825;26.96904945373535
1826;26.969011306762695
1827;26.968976974487305
1828;26.968936920166016
1829;26.968902587890625
1830;26.968862533569336
1831;26.968826293945312
1832;26.968795776367188
1833;26.968746185302734
1834;26.968713760375977
1835;26.96867561340332
1836;26.968643188476562
1837;26.968610763549805
1838;26.968570709228516
1839;26.968536376953125
1840;26.968496322631836
1841;26.968460083007812
1842;26.968425750732422
1843;26.968387603759766
1844;26.96834373474121
1845;26.968313217163086
1846;26.968278884887695
1847;26.96824073791504
1848;26.968202590942383
1849;26.968168258666992
1850;26.968130111694336
1851;26.968088150024414
1852;26.968050003051758
1853;26.968015670776367
1854;26.96797752380371
1855;26.967947006225586
1856;26.967905044555664
1857;26.967864990234375
1858;26.967830657958984
1859;26.96779441833496
1860;26.967748641967773
1861;26.96771240234375
1862;26.967676162719727
1863;26.9676456451416
1864;26.967601776123047
1865;26.967561721801758
1866;26.967525482177734
1867;26.96748924255371
1868;26.967451095581055
1869;26.96742057800293
1870;26.967378616333008
1871;26.967336654663086
1872;26.967302322387695
1873;26.96726417541504
1874;26.967227935791016
1875;26.96719741821289
1876;26.967153549194336
1877;26.967111587524414
1878;26.96708106994629
1879;26.967041015625
1880;26.96700668334961
1881;26.96696662902832
1882;26.966928482055664
1883;26.966888427734375
1884;26.966854095458984
1885;26.96681022644043
1886;26.96677589416504
1887;26.966737747192383
1888;26.966699600219727
1889;26.966657638549805
1890;26.966623306274414
1891;26.966583251953125
1892;26.966548919677734
1893;26.966508865356445
1894;26.96647071838379
1895;26.9664306640625
1896;26.966386795043945
1897;26.966352462768555
1898;26.96630859375
1899;26.96627426147461
1900;26.966230392456055
1901;26.966196060180664
1902;26.966156005859375
1903;26.96611213684082
1904;26.966073989868164
1905;26.966032028198242
1906;26.965999603271484
1907;26.965953826904297
1908;26.96591567993164
1909;26.965871810913086
1910;26.96583366394043
1911;26.965795516967773
1912;26.965755462646484
1913;26.965715408325195
1914;26.96567153930664
1915;26.965633392333984
1916;26.965593338012695
1917;26.965551376342773
1918;26.965513229370117
1919;26.965471267700195
1920;26.965423583984375
1921;26.96538734436035
1922;26.965349197387695
1923;26.965303421020508
1924;26.965267181396484
1925;26.96522331237793
1926;26.965177536010742
1927;26.965139389038086
1928;26.965097427368164
1929;26.965055465698242
1930;26.965009689331055
1931;26.964969635009766
1932;26.96492576599121
1933;26.96488380432129
1934;26.964841842651367
1935;26.964801788330078
1936;26.964757919311523
1937;26.964717864990234
1938;26.96467399597168
1939;26.964630126953125
1940;26.96458625793457
1941;26.964542388916016
1942;26.96449851989746
1943;26.96445655822754
1944;26.96441650390625
1945;26.964372634887695
1946;26.964324951171875
1947;26.964284896850586
1948;26.964248657226562
1949;26.96419906616211
1950;26.96415901184082
1951;26.964111328125
1952;26.96407127380371
1953;26.96402931213379
1954;26.963985443115234
1955;26.963932037353516
1956;26.963897705078125
1957;26.96385383605957
1958;26.963804244995117
1959;26.963764190673828
1960;26.96371841430664
1961;26.96367835998535
1962;26.963632583618164
1963;26.96358299255371
1964;26.963544845581055
1965;26.9635009765625
1966;26.963449478149414
1967;26.96340560913086
1968;26.96336555480957
1969;26.963315963745117
1970;26.96327018737793
1971;26.96322250366211
1972;26.963178634643555
1973;26.963138580322266
1974;26.963088989257812
1975;26.96303939819336
1976;26.96299171447754
1977;26.962947845458984
1978;26.962900161743164
1979;26.96285629272461
1980;26.962804794311523
1981;26.962766647338867
1982;26.96270751953125
1983;26.962663650512695
1984;26.96261978149414
1985;26.962568283081055
1986;26.9625244140625
1987;26.962472915649414
1988;26.96242332458496
1989;26.96238136291504
1990;26.962326049804688
1991;26.9622802734375
1992;26.96223258972168
1993;26.96217918395996
1994;26.962141036987305
1995;26.96208381652832
1996;26.962039947509766
1997;26.96198844909668
1998;26.961933135986328
1999;26.961889266967773
