;loss
0;889.8439331054688
1;889.550048828125
2;889.2108764648438
3;888.85107421875
4;888.4552612304688
5;888.0590209960938
6;887.662353515625
7;887.265380859375
8;886.8679809570312
9;886.4701538085938
10;886.0718383789062
11;885.6736450195312
12;885.274169921875
13;884.8743286132812
14;884.47216796875
15;884.06884765625
16;883.66455078125
17;883.2592163085938
18;882.8566284179688
19;882.449462890625
20;882.0457153320312
21;881.6367797851562
22;881.2269897460938
23;880.8209838867188
24;880.4093627929688
25;879.996826171875
26;879.588134765625
27;879.1736450195312
28;878.7582397460938
29;878.3416137695312
30;877.9240112304688
31;877.5099487304688
32;877.0947265625
33;876.6732788085938
34;876.25537109375
35;875.8361206054688
36;875.4152221679688
37;874.9880981445312
38;874.564208984375
39;874.1386108398438
40;873.7066040039062
41;873.27734375
42;872.8417358398438
43;872.40869140625
44;871.9734497070312
45;871.531982421875
46;871.0881958007812
47;870.6423950195312
48;870.1943359375
49;869.748046875
50;869.29931640625
51;868.8483276367188
52;868.3947143554688
53;867.9384765625
54;867.4796752929688
55;867.0182495117188
56;866.553955078125
57;866.0831909179688
58;865.6095581054688
59;865.1331176757812
60;864.65380859375
61;864.1716918945312
62;863.6902465820312
63;863.2020874023438
64;862.7145385742188
65;862.22021484375
66;861.726318359375
67;861.2256469726562
68;860.725341796875
69;860.2217407226562
70;859.7112426757812
71;859.197509765625
72;858.6802368164062
73;858.15966796875
74;857.638916015625
75;857.1112670898438
76;856.5800170898438
77;856.045166015625
78;855.5066528320312
79;854.9677124023438
80;854.4216918945312
81;853.8720092773438
82;853.318359375
83;852.7609252929688
84;852.199462890625
85;851.6340942382812
86;851.06494140625
87;850.4916381835938
88;849.9142456054688
89;849.3359375
90;848.75341796875
91;848.1637573242188
92;847.56982421875
93;846.974609375
94;846.3750610351562
95;845.7682495117188
96;845.1599731445312
97;844.5442504882812
98;843.9240112304688
99;843.29931640625
100;842.669921875
101;842.0391235351562
102;841.400634765625
103;840.7575073242188
104;840.1098022460938
105;839.4573364257812
106;838.80029296875
107;838.1382446289062
108;837.4714965820312
109;836.8029174804688
110;836.1292114257812
111;835.4479370117188
112;834.7644653320312
113;834.0759887695312
114;833.3798217773438
115;832.678466796875
116;831.9721069335938
117;831.2636108398438
118;830.5470581054688
119;829.8280639648438
120;829.10400390625
121;828.3746948242188
122;827.64013671875
123;826.900390625
124;826.1553344726562
125;825.4049682617188
126;824.6492309570312
127;823.8880004882812
128;823.1185913085938
129;822.3435668945312
130;821.5631713867188
131;820.7799682617188
132;819.9912109375
133;819.1969604492188
134;818.397216796875
135;817.591796875
136;816.78076171875
137;815.9639282226562
138;815.1415405273438
139;814.3132934570312
140;813.4767456054688
141;812.63427734375
142;811.788818359375
143;810.9375
144;810.0803833007812
145;809.21728515625
146;808.348388671875
147;807.4707641601562
148;806.5900268554688
149;805.700439453125
150;804.8047485351562
151;803.9059448242188
152;802.9981079101562
153;802.0841674804688
154;801.1668090820312
155;800.24072265625
156;799.31103515625
157;798.3750610351562
158;797.43017578125
159;796.4788208007812
160;795.5239868164062
161;794.56298828125
162;793.5955200195312
163;792.618896484375
164;791.6358032226562
165;790.6463012695312
166;789.6503295898438
167;788.6506958007812
168;787.6447143554688
169;786.6294555664062
170;785.6105346679688
171;784.5823364257812
172;783.5503540039062
173;782.511962890625
174;781.4668579101562
175;780.4125366210938
176;779.3543090820312
177;778.2870483398438
178;777.2158813476562
179;776.1382446289062
180;775.05419921875
181;773.963623046875
182;772.8667602539062
183;771.760986328125
184;770.6515502929688
185;769.5359497070312
186;768.414306640625
187;767.28662109375
188;766.150390625
189;765.010986328125
190;763.8659057617188
191;762.7152709960938
192;761.5588989257812
193;760.3943481445312
194;759.224609375
195;758.0524291992188
196;756.8751831054688
197;755.6930541992188
198;754.5061645507812
199;753.3147583007812
200;752.1189575195312
201;750.9189453125
202;749.71484375
203;748.5042114257812
204;747.29248046875
205;746.0746459960938
206;744.8558959960938
207;743.634033203125
208;742.4091796875
209;741.1788940429688
210;739.9485473632812
211;738.71337890625
212;737.4758911132812
213;736.2365112304688
214;734.9979858398438
215;733.7578125
216;732.5137329101562
217;731.2685546875
218;730.0249633789062
219;728.780517578125
220;727.53564453125
221;726.29052734375
222;725.045166015625
223;723.797607421875
224;722.5504760742188
225;721.3037719726562
226;720.057861328125
227;718.8128051757812
228;717.571533203125
229;716.3292846679688
230;715.0884399414062
231;713.849609375
232;712.6150512695312
233;711.3804321289062
234;710.1505737304688
235;708.9230346679688
236;707.6982421875
237;706.476318359375
238;705.2575073242188
239;704.041748046875
240;702.8270874023438
241;701.6161499023438
242;700.4087524414062
243;699.20751953125
244;698.0082397460938
245;696.81298828125
246;695.6242065429688
247;694.4376831054688
248;693.2578125
249;692.0805053710938
250;690.907958984375
251;689.7404174804688
252;688.5798950195312
253;687.4244995117188
254;686.2743530273438
255;685.1275024414062
256;683.9880981445312
257;682.8543090820312
258;681.7241821289062
259;680.6016235351562
260;679.4830932617188
261;678.372314453125
262;677.2658081054688
263;676.1653442382812
264;675.0728149414062
265;673.98486328125
266;672.903076171875
267;671.8295288085938
268;670.762451171875
269;669.7017211914062
270;668.6476440429688
271;667.6002807617188
272;666.5593872070312
273;665.523681640625
274;664.4963989257812
275;663.4760131835938
276;662.4608764648438
277;661.4527587890625
278;660.45166015625
279;659.4575805664062
280;658.4722290039062
281;657.4939575195312
282;656.521240234375
283;655.5558471679688
284;654.59912109375
285;653.6487426757812
286;652.7058715820312
287;651.7717895507812
288;650.84375
289;649.9244384765625
290;649.010986328125
291;648.1063842773438
292;647.2078247070312
293;646.3165893554688
294;645.4328002929688
295;644.5565795898438
296;643.689453125
297;642.8297729492188
298;641.9774780273438
299;641.13134765625
300;640.2943725585938
301;639.4647827148438
302;638.6428833007812
303;637.8289184570312
304;637.0211791992188
305;636.221923828125
306;635.430419921875
307;634.6463012695312
308;633.8681030273438
309;633.0971069335938
310;632.3345336914062
311;631.580322265625
312;630.833251953125
313;630.0930786132812
314;629.360107421875
315;628.6357421875
316;627.9192504882812
317;627.2117309570312
318;626.5109252929688
319;625.8173828125
320;625.1318969726562
321;624.4526977539062
322;623.7800903320312
323;623.1148071289062
324;622.454833984375
325;621.8009033203125
326;621.153076171875
327;620.5126342773438
328;619.8787231445312
329;619.2506103515625
330;618.628173828125
331;618.0103759765625
332;617.3980102539062
333;616.792724609375
334;616.19189453125
335;615.5969848632812
336;615.0065307617188
337;614.4212646484375
338;613.8417358398438
339;613.2667846679688
340;612.6980590820312
341;612.133544921875
342;611.5745849609375
343;611.0195922851562
344;610.4699096679688
345;609.9248657226562
346;609.384521484375
347;608.8483276367188
348;608.3163452148438
349;607.7877807617188
350;607.2636108398438
351;606.7433471679688
352;606.2272338867188
353;605.7141723632812
354;605.2047729492188
355;604.698974609375
356;604.197265625
357;603.6985473632812
358;603.2040405273438
359;602.7128295898438
360;602.2252807617188
361;601.740966796875
362;601.2599487304688
363;600.781982421875
364;600.30712890625
365;599.8353881835938
366;599.3666381835938
367;598.900146484375
368;598.4370727539062
369;597.9768676757812
370;597.5195922851562
371;597.0651245117188
372;596.6130981445312
373;596.1641235351562
374;595.7177124023438
375;595.2732543945312
376;594.8317260742188
377;594.39208984375
378;593.9557495117188
379;593.521728515625
380;593.0900268554688
381;592.6604614257812
382;592.2330932617188
383;591.8085327148438
384;591.38623046875
385;590.966064453125
386;590.5479125976562
387;590.1318969726562
388;589.717529296875
389;589.3051147460938
390;588.8950805664062
391;588.4867553710938
392;588.0800170898438
393;587.6753540039062
394;587.2721557617188
395;586.8710327148438
396;586.4712524414062
397;586.0736694335938
398;585.6773071289062
399;585.2826538085938
400;584.8896484375
401;584.4985961914062
402;584.1093139648438
403;583.7214965820312
404;583.3351440429688
405;582.9503784179688
406;582.5670776367188
407;582.1852416992188
408;581.8048095703125
409;581.42578125
410;581.0481567382812
411;580.6719360351562
412;580.2970581054688
413;579.9234619140625
414;579.5512084960938
415;579.180419921875
416;578.810791015625
417;578.4424438476562
418;578.0753784179688
419;577.7095336914062
420;577.3447875976562
421;576.9813842773438
422;576.6187133789062
423;576.2576293945312
424;575.8972778320312
425;575.5386352539062
426;575.18115234375
427;574.8248291015625
428;574.469482421875
429;574.1153564453125
430;573.7623291015625
431;573.4103393554688
432;573.059326171875
433;572.709228515625
434;572.3603515625
435;572.0125122070312
436;571.6653442382812
437;571.319580078125
438;570.9745483398438
439;570.6304321289062
440;570.2875366210938
441;569.9453125
442;569.6043701171875
443;569.2648315429688
444;568.9265747070312
445;568.590087890625
446;568.2548828125
447;567.9213256835938
448;567.5886840820312
449;567.2570190429688
450;566.9264526367188
451;566.5971069335938
452;566.2687377929688
453;565.9412841796875
454;565.61474609375
455;565.288818359375
456;564.9638061523438
457;564.6402587890625
458;564.3175659179688
459;563.9960327148438
460;563.6755981445312
461;563.3557739257812
462;563.036865234375
463;562.71875
464;562.4015502929688
465;562.0848999023438
466;561.769287109375
467;561.454345703125
468;561.1400146484375
469;560.8263549804688
470;560.5134887695312
471;560.2014770507812
472;559.8903198242188
473;559.580078125
474;559.2704467773438
475;558.961181640625
476;558.6527709960938
477;558.344970703125
478;558.0375366210938
479;557.7307739257812
480;557.4248046875
481;557.1192626953125
482;556.8143920898438
483;556.51025390625
484;556.2066040039062
485;555.9031982421875
486;555.6005859375
487;555.2985229492188
488;554.9966430664062
489;554.695556640625
490;554.3949584960938
491;554.0946655273438
492;553.795166015625
493;553.4962158203125
494;553.1978759765625
495;552.89990234375
496;552.6023559570312
497;552.3056030273438
498;552.00927734375
499;551.7134399414062
