;loss
0;879.77294921875
1;879.4166870117188
2;879.0616455078125
3;878.7077026367188
4;878.3765869140625
5;878.0400390625
6;877.7001342773438
7;877.3508911132812
8;877.0029296875
9;876.6592407226562
10;876.3155517578125
11;875.9714965820312
12;875.6287841796875
13;875.2874145507812
14;874.947265625
15;874.6085205078125
16;874.2686157226562
17;873.9297485351562
18;873.5950927734375
19;873.2584228515625
20;872.9265747070312
21;872.5960083007812
22;872.2630004882812
23;871.9312133789062
24;871.6008911132812
25;871.2717895507812
26;870.9439086914062
27;870.62109375
28;870.2955932617188
29;869.9751586914062
30;869.6520385742188
31;869.3302001953125
32;869.0093383789062
33;868.6895751953125
34;868.3709106445312
35;868.056640625
36;867.7398071289062
37;867.4273071289062
38;867.1156616210938
39;866.80126953125
40;866.4876708984375
41;866.1746826171875
42;865.8623046875
43;865.5503540039062
44;865.2421875
45;864.9342041015625
46;864.6236572265625
47;864.3134155273438
48;864.0062866210938
49;863.6993408203125
50;863.392578125
51;863.0830688476562
52;862.7763671875
53;862.4696655273438
54;862.1629638671875
55;861.8560180664062
56;861.5491943359375
57;861.2396240234375
58;860.9323120117188
59;860.6224975585938
60;860.3147583007812
61;860.0068359375
62;859.6986083984375
63;859.3900756835938
64;859.0812377929688
65;858.7697143554688
66;858.4580078125
67;858.1458129882812
68;857.8333129882812
69;857.5203247070312
70;857.2069702148438
71;856.8931274414062
72;856.5787963867188
73;856.2640991210938
74;855.9487915039062
75;855.6351318359375
76;855.3187866210938
77;855.00390625
78;854.6884155273438
79;854.3723754882812
80;854.0559692382812
81;853.7369995117188
82;853.4175415039062
83;853.0974731445312
84;852.7767944335938
85;852.4557495117188
86;852.1343383789062
87;851.8123168945312
88;851.4895629882812
89;851.1676025390625
90;850.8433227539062
91;850.5198974609375
92;850.1939697265625
93;849.8671875
94;849.5396118164062
95;849.2111206054688
96;848.8833618164062
97;848.5547485351562
98;848.2251586914062
99;847.89453125
100;847.5630493164062
101;847.2304077148438
102;846.8952026367188
103;846.5604858398438
104;846.2232055664062
105;845.8862915039062
106;845.5467529296875
107;845.2060546875
108;844.8656616210938
109;844.5225830078125
110;844.1783447265625
111;843.8328247070312
112;843.4859008789062
113;843.1378173828125
114;842.7899169921875
115;842.4405517578125
116;842.08837890625
117;841.7362670898438
118;841.38134765625
119;841.0249633789062
120;840.6683959960938
121;840.3103637695312
122;839.9494018554688
123;839.5869140625
124;839.2227172851562
125;838.8582763671875
126;838.4921875
127;838.1251220703125
128;837.7565307617188
129;837.3861694335938
130;837.0127563476562
131;836.6390380859375
132;836.2633666992188
133;835.884765625
134;835.5042724609375
135;835.1231689453125
136;834.7391357421875
137;834.3529663085938
138;833.9650268554688
139;833.5763549804688
140;833.1845092773438
141;832.7906494140625
142;832.3947143554688
143;831.998046875
144;831.5979614257812
145;831.1957397460938
146;830.7915649414062
147;830.3851318359375
148;829.9765625
149;829.5670166015625
150;829.1539306640625
151;828.7399291992188
152;828.3223876953125
153;827.9026489257812
154;827.4817504882812
155;827.05859375
156;826.6331176757812
157;826.2052001953125
158;825.7735595703125
159;825.3395385742188
160;824.904296875
161;824.4667358398438
162;824.0266723632812
163;823.5828247070312
164;823.1364135742188
165;822.6875610351562
166;822.2362060546875
167;821.7833251953125
168;821.3267822265625
169;820.8687133789062
170;820.4078979492188
171;819.9432983398438
172;819.4760131835938
173;819.0072021484375
174;818.5344848632812
175;818.05908203125
176;817.5821533203125
177;817.1011962890625
178;816.6187744140625
179;816.1322631835938
180;815.6441040039062
181;815.1521606445312
182;814.6588745117188
183;814.1618041992188
184;813.6627807617188
185;813.1624145507812
186;812.6593627929688
187;812.1536254882812
188;811.6439819335938
189;811.1317138671875
190;810.6179809570312
191;810.1016845703125
192;809.5828247070312
193;809.06005859375
194;808.5347290039062
195;808.0079345703125
196;807.4786376953125
197;806.9468383789062
198;806.4113159179688
199;805.8734741210938
200;805.3331909179688
201;804.7906494140625
202;804.2459106445312
203;803.6987915039062
204;803.1494750976562
205;802.5980224609375
206;802.04443359375
207;801.4888305664062
208;800.9313354492188
209;800.3718872070312
210;799.810546875
211;799.2474975585938
212;798.6838989257812
213;798.1173706054688
214;797.54931640625
215;796.9810180664062
216;796.4100341796875
217;795.8389892578125
218;795.2655029296875
219;794.6910400390625
220;794.1157836914062
221;793.5405883789062
222;792.9647216796875
223;792.3869018554688
224;791.8092041015625
225;791.2346801757812
226;790.6590576171875
227;790.0831298828125
228;789.5082397460938
229;788.9321899414062
230;788.3563232421875
231;787.7809448242188
232;787.2077026367188
233;786.6351318359375
234;786.0628051757812
235;785.4911499023438
236;784.9202270507812
237;784.3489379882812
238;783.7813720703125
239;783.2160034179688
240;782.6522827148438
241;782.0897827148438
242;781.5274658203125
243;780.9662475585938
244;780.4061889648438
245;779.8478393554688
246;779.29248046875
247;778.7373657226562
248;778.1837158203125
249;777.6315307617188
250;777.0819702148438
251;776.5341796875
252;775.9887084960938
253;775.4436645507812
254;774.9000854492188
255;774.3590087890625
256;773.8192138671875
257;773.2800903320312
258;772.7432861328125
259;772.2070922851562
260;771.6724243164062
261;771.14013671875
262;770.6083984375
263;770.0783081054688
264;769.5509033203125
265;769.0244140625
266;768.5001220703125
267;767.9765625
268;767.4551391601562
269;766.9342651367188
270;766.4149169921875
271;765.89697265625
272;765.3812255859375
273;764.8660888671875
274;764.3526000976562
275;763.8405151367188
276;763.3300170898438
277;762.8211669921875
278;762.3135986328125
279;761.8076782226562
280;761.3031616210938
281;760.8008422851562
282;760.2993774414062
283;759.7992553710938
284;759.3003540039062
285;758.802734375
286;758.30712890625
287;757.8130493164062
288;757.3203735351562
289;756.8291015625
290;756.3389282226562
291;755.8499145507812
292;755.3619384765625
293;754.8755493164062
294;754.3904418945312
295;753.9064331054688
296;753.4235229492188
297;752.9418334960938
298;752.4610595703125
299;751.9812622070312
300;751.5030517578125
301;751.0257568359375
302;750.5498046875
303;750.0750122070312
304;749.6002807617188
305;749.1266479492188
306;748.65380859375
307;748.1824951171875
308;747.7114868164062
309;747.2427978515625
310;746.7742919921875
311;746.3074951171875
312;745.8408203125
313;745.375
314;744.9105224609375
315;744.4469604492188
316;743.984375
317;743.52197265625
318;743.060546875
319;742.5997924804688
320;742.1401977539062
321;741.6812744140625
322;741.2225341796875
323;740.7643432617188
324;740.3067626953125
325;739.8497924804688
326;739.3934326171875
327;738.9378662109375
328;738.48291015625
329;738.0285034179688
330;737.5747680664062
331;737.1220092773438
332;736.669921875
333;736.2183227539062
334;735.7675170898438
335;735.3173217773438
336;734.8677978515625
337;734.4196166992188
338;733.9718627929688
339;733.5242309570312
340;733.07763671875
341;732.63134765625
342;732.18603515625
343;731.74072265625
344;731.2964477539062
345;730.8526611328125
346;730.4088745117188
347;729.9656982421875
348;729.5228271484375
349;729.0809326171875
350;728.6390380859375
351;728.1976318359375
352;727.75732421875
353;727.3170776367188
354;726.8778686523438
355;726.4385986328125
356;726.0005493164062
357;725.5625
358;725.1249389648438
359;724.6878662109375
360;724.2511596679688
361;723.8151245117188
362;723.3794555664062
363;722.9443969726562
364;722.5098266601562
365;722.0764770507812
366;721.6430053710938
367;721.2100219726562
368;720.7776489257812
369;720.3457641601562
370;719.9144897460938
371;719.4835815429688
372;719.0534057617188
373;718.6243286132812
374;718.1956787109375
375;717.767578125
376;717.3400268554688
377;716.9130859375
378;716.4862060546875
379;716.0604248046875
380;715.6346435546875
381;715.2098999023438
382;714.7857055664062
383;714.3616333007812
384;713.9381713867188
385;713.515625
386;713.0940551757812
387;712.6731567382812
388;712.2528076171875
389;711.8330688476562
390;711.4139404296875
391;710.9949951171875
392;710.57666015625
393;710.1589965820312
394;709.7417602539062
395;709.3259887695312
396;708.91015625
397;708.4951171875
398;708.0806274414062
399;707.6668701171875
400;707.2540283203125
401;706.8419189453125
402;706.4300537109375
403;706.0188598632812
404;705.6082763671875
405;705.1983032226562
406;704.7894897460938
407;704.3812866210938
408;703.9736938476562
409;703.5668334960938
410;703.1607055664062
411;702.7549438476562
412;702.3499145507812
413;701.9456176757812
414;701.5419921875
415;701.1395263671875
416;700.7377319335938
417;700.3363647460938
418;699.9360961914062
419;699.5362548828125
420;699.1375732421875
421;698.7392578125
422;698.3417358398438
423;697.94482421875
424;697.5487670898438
425;697.1536254882812
426;696.7591552734375
427;696.3659057617188
428;695.9733276367188
429;695.5816040039062
430;695.1903076171875
431;694.7997436523438
432;694.4099731445312
433;694.0213623046875
434;693.6334228515625
435;693.2463989257812
436;692.8597412109375
437;692.47412109375
438;692.0892944335938
439;691.7049560546875
440;691.3213500976562
441;690.9385986328125
442;690.5565795898438
443;690.1754150390625
444;689.7953491210938
445;689.4160766601562
446;689.0375366210938
447;688.6597900390625
448;688.2828979492188
449;687.9069213867188
450;687.5317993164062
451;687.1573486328125
452;686.78369140625
453;686.4108276367188
454;686.0383911132812
455;685.6669921875
456;685.2962036132812
457;684.9262084960938
458;684.5570068359375
459;684.1884765625
460;683.8209838867188
461;683.4544067382812
462;683.0881958007812
463;682.72265625
464;682.3579711914062
465;681.9942626953125
466;681.6312866210938
467;681.2691040039062
468;680.9073486328125
469;680.5466918945312
470;680.1867065429688
471;679.8275756835938
472;679.4691772460938
473;679.1114501953125
474;678.7542114257812
475;678.3975830078125
476;678.0416870117188
477;677.6865234375
478;677.3323364257812
479;676.978515625
480;676.6254272460938
481;676.2730102539062
482;675.9213256835938
483;675.5702514648438
484;675.2197875976562
485;674.8699951171875
486;674.5211791992188
487;674.1727294921875
488;673.8250122070312
489;673.4778442382812
490;673.1315307617188
491;672.7860107421875
492;672.4409790039062
493;672.0966796875
494;671.7527465820312
495;671.4093627929688
496;671.06689453125
497;670.7250366210938
498;670.3834838867188
499;670.0428466796875
500;669.7025756835938
501;669.36279296875
502;669.0236206054688
503;668.6853637695312
504;668.34765625
505;668.0105590820312
506;667.6737060546875
507;667.3374633789062
508;667.0020751953125
509;666.6669311523438
510;666.3324584960938
511;665.9993286132812
512;665.6666870117188
513;665.3349609375
514;665.0037841796875
515;664.6731567382812
516;664.3427124023438
517;664.0131225585938
518;663.6837158203125
519;663.3549194335938
520;663.0264892578125
521;662.6986694335938
522;662.3715209960938
523;662.0448608398438
524;661.71875
525;661.39306640625
526;661.06787109375
527;660.7428588867188
528;660.4186401367188
529;660.0948486328125
530;659.7715454101562
531;659.4485473632812
532;659.1260986328125
533;658.8040771484375
534;658.4823608398438
535;658.1610107421875
536;657.8402709960938
537;657.5198364257812
538;657.1997680664062
539;656.8804931640625
540;656.5615844726562
541;656.2431640625
542;655.9248657226562
543;655.6072998046875
544;655.2899780273438
545;654.9732055664062
546;654.6568603515625
547;654.3408203125
548;654.0250854492188
549;653.7099609375
550;653.3949584960938
551;653.08056640625
552;652.7666015625
553;652.4527587890625
554;652.1393432617188
555;651.8262939453125
556;651.5139770507812
557;651.20166015625
558;650.8900756835938
559;650.5789184570312
560;650.2680053710938
561;649.9573974609375
562;649.6470336914062
563;649.3373413085938
564;649.02783203125
565;648.71875
566;648.4102172851562
567;648.1019897460938
568;647.7940673828125
569;647.4866333007812
570;647.17919921875
571;646.8721923828125
572;646.5655517578125
573;646.2593994140625
574;645.9534301757812
575;645.6480712890625
576;645.3428344726562
577;645.0379638671875
578;644.7333984375
579;644.4293212890625
580;644.12548828125
581;643.8220825195312
582;643.5188598632812
583;643.2161865234375
584;642.9137573242188
585;642.6115112304688
586;642.3096313476562
587;642.0082397460938
588;641.7069702148438
589;641.4060668945312
590;641.10546875
591;640.80517578125
592;640.50537109375
593;640.2059326171875
594;639.90673828125
595;639.60791015625
596;639.3093872070312
597;639.0111694335938
598;638.7133178710938
599;638.4156494140625
600;638.1183471679688
601;637.8213500976562
602;637.5247192382812
603;637.2282104492188
604;636.9321899414062
605;636.63623046875
606;636.3406982421875
607;636.0454711914062
608;635.7505493164062
609;635.4557495117188
610;635.1613159179688
611;634.8673095703125
612;634.5736083984375
613;634.2801513671875
614;633.9869995117188
615;633.6941528320312
616;633.4014892578125
617;633.1090698242188
618;632.8170166015625
619;632.5253295898438
620;632.23388671875
621;631.9428100585938
622;631.65185546875
623;631.3612670898438
624;631.07080078125
625;630.78076171875
626;630.4909057617188
627;630.2012939453125
628;629.9118041992188
629;629.6229248046875
630;629.3341674804688
631;629.0455932617188
632;628.75732421875
633;628.4693603515625
634;628.1817626953125
635;627.8942260742188
636;627.6071166992188
637;627.3202514648438
638;627.0336303710938
639;626.7473754882812
640;626.4613037109375
641;626.17529296875
642;625.8897094726562
643;625.6044311523438
644;625.3193359375
645;625.0345458984375
646;624.75
647;624.4655151367188
648;624.1815185546875
649;623.8977661132812
650;623.6141967773438
651;623.3307495117188
652;623.0477294921875
653;622.7647705078125
654;622.4819946289062
655;622.19970703125
656;621.9176635742188
657;621.6356811523438
658;621.3538818359375
659;621.0725708007812
660;620.7914428710938
661;620.5104370117188
662;620.2298583984375
663;619.9492797851562
664;619.6691284179688
665;619.38916015625
666;619.1093139648438
667;618.8296508789062
668;618.55029296875
669;618.2713012695312
670;617.9924926757812
671;617.7139282226562
672;617.4356079101562
673;617.1575317382812
674;616.8796997070312
675;616.6018676757812
676;616.3242797851562
677;616.0470581054688
678;615.7701416015625
679;615.4934692382812
680;615.2168579101562
681;614.9404296875
682;614.6643676757812
683;614.3885498046875
684;614.1127319335938
685;613.8373413085938
686;613.5620727539062
687;613.287109375
688;613.0122680664062
689;612.7376098632812
690;612.4632568359375
691;612.18896484375
692;611.9149169921875
693;611.64111328125
694;611.3674926757812
695;611.09423828125
696;610.8211669921875
697;610.5481567382812
698;610.2755126953125
699;610.0029296875
700;609.7305908203125
701;609.4584350585938
702;609.1865234375
703;608.9147338867188
704;608.6433715820312
705;608.3720092773438
706;608.1008911132812
707;607.8299560546875
708;607.5592041015625
709;607.2886352539062
710;607.0184936523438
711;606.7483520507812
712;606.4785766601562
713;606.2088623046875
714;605.9393310546875
715;605.6700439453125
716;605.4010620117188
717;605.1322631835938
718;604.8635864257812
719;604.5950317382812
720;604.3267822265625
721;604.0587158203125
722;603.791015625
723;603.5233764648438
724;603.2559204101562
725;602.9887084960938
726;602.7216796875
727;602.4547729492188
728;602.1881713867188
729;601.9216918945312
730;601.6553955078125
731;601.38916015625
732;601.1233520507812
733;600.8575439453125
734;600.5921020507812
735;600.3267211914062
736;600.0614013671875
737;599.7964477539062
738;599.5315551757812
739;599.2667846679688
740;599.0023193359375
741;598.7380981445312
742;598.4739379882812
743;598.2099609375
744;597.9461669921875
745;597.6824951171875
746;597.4192504882812
747;597.1559448242188
748;596.8930053710938
749;596.6301879882812
750;596.3674926757812
751;596.1049194335938
752;595.8424682617188
753;595.5804443359375
754;595.3185424804688
755;595.0567626953125
756;594.7952270507812
757;594.5338134765625
758;594.2724609375
759;594.0113525390625
760;593.75048828125
761;593.4898071289062
762;593.2293701171875
763;592.9689331054688
764;592.7088623046875
765;592.4488525390625
766;592.1889038085938
767;591.9291381835938
768;591.6695556640625
769;591.41015625
770;591.1510009765625
771;590.8919677734375
772;590.6329956054688
773;590.3743896484375
774;590.1159057617188
775;589.8574829101562
776;589.5992431640625
777;589.3411865234375
778;589.0833129882812
779;588.8255615234375
780;588.5679321289062
781;588.310546875
782;588.0532836914062
783;587.7963256835938
784;587.5394287109375
785;587.2826538085938
786;587.0260620117188
787;586.7695922851562
788;586.5133666992188
789;586.2572631835938
790;586.0014038085938
791;585.7456665039062
792;585.4901123046875
793;585.2346801757812
794;584.9794311523438
795;584.7244873046875
796;584.4694213867188
797;584.2146606445312
798;583.9600830078125
799;583.70556640625
800;583.4512939453125
801;583.1972045898438
802;582.9431762695312
803;582.6893920898438
804;582.4356689453125
805;582.1820678710938
806;581.9287719726562
807;581.6755981445312
808;581.4224243164062
809;581.1695556640625
810;580.916748046875
811;580.6641235351562
812;580.41162109375
813;580.1593627929688
814;579.9072265625
815;579.6552734375
816;579.4034423828125
817;579.1517944335938
818;578.9003295898438
819;578.64892578125
820;578.3977661132812
821;578.1466064453125
822;577.895751953125
823;577.6449584960938
824;577.394287109375
825;577.1438598632812
826;576.8934326171875
827;576.6431884765625
828;576.3931274414062
829;576.1433715820312
830;575.8935546875
831;575.64404296875
832;575.3946533203125
833;575.1453857421875
834;574.8963623046875
835;574.6472778320312
836;574.3983764648438
837;574.1497802734375
838;573.9011840820312
839;573.6527099609375
840;573.4044799804688
841;573.1563720703125
842;572.9083862304688
843;572.6605224609375
844;572.4127807617188
845;572.1652221679688
846;571.9177856445312
847;571.67041015625
848;571.4232177734375
849;571.17626953125
850;570.9293212890625
851;570.6826171875
852;570.4361572265625
853;570.1895751953125
854;569.943359375
855;569.6971435546875
856;569.4510498046875
857;569.205078125
858;568.9592895507812
859;568.7136840820312
860;568.4681396484375
861;568.2228393554688
862;567.9776611328125
863;567.732666015625
864;567.4877319335938
865;567.2430419921875
866;566.9984130859375
867;566.7539672851562
868;566.5094604492188
869;566.2652587890625
870;566.0210571289062
871;565.7770385742188
872;565.5333251953125
873;565.28955078125
874;565.0459594726562
875;564.8024291992188
876;564.5592041015625
877;564.3159790039062
878;564.0729370117188
879;563.8301391601562
880;563.5872802734375
881;563.3446044921875
882;563.1019897460938
883;562.8596801757812
884;562.6173706054688
885;562.3751831054688
886;562.1331787109375
887;561.8912353515625
888;561.6495971679688
889;561.4078979492188
890;561.16650390625
891;560.9251098632812
892;560.6838989257812
893;560.4428100585938
894;560.2019653320312
895;559.9610595703125
896;559.7203979492188
897;559.4798583984375
898;559.2393798828125
899;558.9990844726562
900;558.7588500976562
901;558.5188598632812
902;558.2789916992188
903;558.0391845703125
904;557.7994995117188
905;557.5599365234375
906;557.3204345703125
907;557.0811157226562
908;556.8419189453125
909;556.6028442382812
910;556.3638305664062
911;556.1251220703125
912;555.8863525390625
913;555.6478271484375
914;555.4093627929688
915;555.1710815429688
916;554.9329833984375
917;554.6949462890625
918;554.45703125
919;554.21923828125
920;553.9815673828125
921;553.7440185546875
922;553.5064697265625
923;553.2691040039062
924;553.0318603515625
925;552.7947998046875
926;552.5577392578125
927;552.3209228515625
928;552.0841674804688
929;551.8475952148438
930;551.6111450195312
931;551.3748168945312
932;551.1386108398438
933;550.9025268554688
934;550.6664428710938
935;550.4306030273438
936;550.19482421875
937;549.9592895507812
938;549.7236938476562
939;549.4883422851562
940;549.2531127929688
941;549.0179443359375
942;548.7828979492188
943;548.5480346679688
944;548.3132934570312
945;548.0785522460938
946;547.8438720703125
947;547.6094360351562
948;547.3751831054688
949;547.1409912109375
950;546.9068603515625
951;546.6728515625
952;546.4390258789062
953;546.2052612304688
954;545.9715576171875
955;545.738037109375
956;545.5047607421875
957;545.271484375
958;545.0382690429688
959;544.8052368164062
960;544.5723266601562
961;544.3394775390625
962;544.1067504882812
963;543.8741455078125
964;543.6416625976562
965;543.4092407226562
966;543.1771240234375
967;542.9448852539062
968;542.712890625
969;542.48095703125
970;542.2491455078125
971;542.0174560546875
972;541.7858276367188
973;541.554443359375
974;541.3230590820312
975;541.0918579101562
976;540.8607788085938
977;540.6298217773438
978;540.3989868164062
979;540.1682739257812
980;539.9376220703125
981;539.7070922851562
982;539.4766235351562
983;539.246337890625
984;539.0161743164062
985;538.7860107421875
986;538.5560302734375
987;538.3261108398438
988;538.0963134765625
989;537.8666381835938
990;537.6371459960938
991;537.4077758789062
992;537.1784057617188
993;536.9491577148438
994;536.7200927734375
995;536.490966796875
996;536.2621459960938
997;536.0333251953125
998;535.8046875
999;535.5761108398438
1000;535.34765625
1001;535.1192626953125
1002;534.8910522460938
1003;534.6627807617188
1004;534.4347534179688
1005;534.2068481445312
1006;533.97900390625
1007;533.7513427734375
1008;533.523681640625
1009;533.2962036132812
1010;533.0687255859375
1011;532.8414916992188
1012;532.6142578125
1013;532.38720703125
1014;532.1602172851562
1015;531.9334106445312
1016;531.7066040039062
1017;531.4799194335938
1018;531.25341796875
1019;531.0269165039062
1020;530.8005981445312
1021;530.5743408203125
1022;530.34814453125
1023;530.1221313476562
1024;529.8963012695312
1025;529.67041015625
1026;529.4447021484375
1027;529.2191162109375
1028;528.99365234375
1029;528.7682495117188
1030;528.5429077148438
1031;528.3177490234375
1032;528.0926513671875
1033;527.8677368164062
1034;527.642822265625
1035;527.4180908203125
1036;527.1934814453125
1037;526.9690551757812
1038;526.74462890625
1039;526.5203247070312
1040;526.2960815429688
1041;526.0718994140625
1042;525.8479614257812
1043;525.6239624023438
1044;525.4000854492188
1045;525.1763916015625
1046;524.9527587890625
1047;524.7293090820312
1048;524.5057983398438
1049;524.2825317382812
1050;524.0592651367188
1051;523.836181640625
1052;523.6131591796875
1053;523.3902587890625
1054;523.1675415039062
1055;522.94482421875
1056;522.7222290039062
1057;522.4996337890625
1058;522.2772827148438
1059;522.054931640625
1060;521.8327026367188
1061;521.6106567382812
1062;521.388671875
1063;521.1668090820312
1064;520.9448852539062
1065;520.7232055664062
1066;520.5015869140625
1067;520.2799682617188
1068;520.05859375
1069;519.8373413085938
1070;519.6160888671875
1071;519.39501953125
1072;519.1740112304688
1073;518.953125
1074;518.7323608398438
1075;518.5116577148438
1076;518.2911376953125
1077;518.0706176757812
1078;517.8502197265625
1079;517.6299438476562
1080;517.40966796875
1081;517.1895751953125
1082;516.969482421875
1083;516.7496337890625
1084;516.52978515625
1085;516.3099975585938
1086;516.09033203125
1087;515.8707885742188
1088;515.6513671875
1089;515.4319458007812
1090;515.2127685546875
1091;514.9935913085938
1092;514.7744750976562
1093;514.5555419921875
1094;514.3365478515625
1095;514.1177978515625
1096;513.8991088867188
1097;513.6805419921875
1098;513.4620361328125
1099;513.2437133789062
1100;513.025390625
1101;512.8071899414062
1102;512.5889892578125
1103;512.3710327148438
1104;512.1531372070312
1105;511.9353332519531
1106;511.7176208496094
1107;511.5
1108;511.2824401855469
1109;511.06494140625
1110;510.8476257324219
1111;510.63037109375
1112;510.4132385253906
1113;510.1960754394531
1114;509.97918701171875
1115;509.7623596191406
1116;509.5455627441406
1117;509.3288879394531
1118;509.1123046875
1119;508.8959045410156
1120;508.67950439453125
1121;508.4631652832031
1122;508.2469177246094
1123;508.03082275390625
1124;507.814697265625
1125;507.5987854003906
1126;507.38287353515625
1127;507.1671447753906
1128;506.9515075683594
1129;506.7359924316406
1130;506.52044677734375
1131;506.30511474609375
1132;506.08984375
1133;505.8747253417969
1134;505.65960693359375
1135;505.4445495605469
1136;505.2296447753906
1137;505.0148620605469
1138;504.8001403808594
1139;504.58544921875
1140;504.3709411621094
1141;504.1564636230469
1142;503.9421081542969
1143;503.7278137207031
1144;503.513671875
1145;503.2995910644531
1146;503.0856018066406
1147;502.8716125488281
1148;502.65777587890625
1149;502.4440002441406
1150;502.2303161621094
1151;502.0168151855469
1152;501.8033752441406
1153;501.5899353027344
1154;501.3766174316406
1155;501.1634216308594
1156;500.95037841796875
1157;500.7373046875
1158;500.52435302734375
1159;500.3114929199219
1160;500.0987854003906
1161;499.8860778808594
1162;499.6734924316406
1163;499.46099853515625
1164;499.24853515625
1165;499.0362243652344
1166;498.8240051269531
1167;498.61181640625
1168;498.3997497558594
1169;498.187744140625
1170;497.97589111328125
1171;497.7641296386719
1172;497.55242919921875
1173;497.3408203125
1174;497.12933349609375
1175;496.9178161621094
1176;496.70654296875
1177;496.4953308105469
1178;496.28411865234375
1179;496.072998046875
1180;495.8619689941406
1181;495.65106201171875
1182;495.4402160644531
1183;495.2294921875
1184;495.0188293457031
1185;494.8082580566406
1186;494.5978088378906
1187;494.3873596191406
1188;494.1770935058594
1189;493.9669494628906
1190;493.7568359375
1191;493.54681396484375
1192;493.3368225097656
1193;493.1269836425781
1194;492.917236328125
1195;492.70751953125
1196;492.49798583984375
1197;492.28851318359375
1198;492.0791015625
1199;491.8697814941406
1200;491.66058349609375
1201;491.4513854980469
1202;491.2422790527344
1203;491.0333557128906
1204;490.8244323730469
1205;490.6155700683594
1206;490.40679931640625
1207;490.1981506347656
1208;489.9895324707031
1209;489.78106689453125
1210;489.57269287109375
1211;489.36431884765625
1212;489.1560974121094
1213;488.94793701171875
1214;488.73980712890625
1215;488.53192138671875
1216;488.3240051269531
1217;488.1162414550781
1218;487.9085388183594
1219;487.700927734375
1220;487.49334716796875
1221;487.2859191894531
1222;487.0785217285156
1223;486.8712463378906
1224;486.66400146484375
1225;486.4568786621094
1226;486.2497863769531
1227;486.0428161621094
1228;485.8359069824219
1229;485.6291809082031
1230;485.42242431640625
1231;485.2158203125
1232;485.00921630859375
1233;484.8027038574219
1234;484.5963439941406
1235;484.3899841308594
1236;484.1838073730469
1237;483.9776916503906
1238;483.77154541015625
1239;483.5655822753906
1240;483.3596496582031
1241;483.15380859375
1242;482.94805908203125
1243;482.7424011230469
1244;482.5368347167969
1245;482.3313293457031
1246;482.1259765625
1247;481.9206237792969
1248;481.71539306640625
1249;481.5102233886719
1250;481.3051452636719
1251;481.1001892089844
1252;480.8952941894531
1253;480.6904296875
1254;480.4856872558594
1255;480.2810974121094
1256;480.07647705078125
1257;479.8720397949219
1258;479.6675720214844
1259;479.4632263183594
1260;479.259033203125
1261;479.0548400878906
1262;478.8507385253906
1263;478.646728515625
1264;478.4427185058594
1265;478.2389221191406
1266;478.0351257324219
1267;477.8313903808594
1268;477.6277770996094
1269;477.42431640625
1270;477.2208557128906
1271;477.01751708984375
1272;476.8142395019531
1273;476.6109924316406
1274;476.4078674316406
1275;476.2048034667969
1276;476.0017395019531
1277;475.79888916015625
1278;475.5960998535156
1279;475.3932800292969
1280;475.190673828125
1281;474.9880676269531
1282;474.78558349609375
1283;474.5831604003906
1284;474.38079833984375
1285;474.1785583496094
1286;473.9764099121094
1287;473.7744140625
1288;473.57232666015625
1289;473.37042236328125
1290;473.1686096191406
1291;472.966796875
1292;472.76513671875
1293;472.5634765625
1294;472.36187744140625
1295;472.1604309082031
1296;471.95904541015625
1297;471.75775146484375
1298;471.5564880371094
1299;471.3553771972656
1300;471.154296875
1301;470.9532775878906
1302;470.7523498535156
1303;470.5515441894531
1304;470.3507385253906
1305;470.15008544921875
1306;469.9494323730469
1307;469.7488708496094
1308;469.5484313964844
1309;469.3480529785156
1310;469.14776611328125
1311;468.9475402832031
1312;468.7474060058594
1313;468.54736328125
1314;468.3473205566406
1315;468.1474304199219
1316;467.9476013183594
1317;467.7478332519531
1318;467.5481872558594
1319;467.34857177734375
1320;467.1490783691406
1321;466.94964599609375
1322;466.750244140625
1323;466.55096435546875
1324;466.3517761230469
1325;466.1526184082031
1326;465.9535827636719
1327;465.7546081542969
1328;465.55572509765625
1329;465.35693359375
1330;465.158203125
1331;464.9596252441406
1332;464.760986328125
1333;464.56243896484375
1334;464.3639831542969
1335;464.1656188964844
1336;463.9673156738281
1337;463.76910400390625
1338;463.57098388671875
1339;463.3729553222656
1340;463.1750183105469
1341;462.9770812988281
1342;462.77923583984375
1343;462.58154296875
1344;462.38385009765625
1345;462.186279296875
1346;461.9887390136719
1347;461.79132080078125
1348;461.5939636230469
1349;461.3966369628906
1350;461.199462890625
1351;461.0022888183594
1352;460.8052673339844
1353;460.6082458496094
1354;460.4114074707031
1355;460.214599609375
1356;460.0178527832031
1357;459.8211364746094
1358;459.62451171875
1359;459.427978515625
1360;459.2315979003906
1361;459.0351867675781
1362;458.8388671875
1363;458.64263916015625
1364;458.44647216796875
1365;458.2503356933594
1366;458.0543518066406
1367;457.8583984375
1368;457.6624450683594
1369;457.46673583984375
1370;457.27099609375
1371;457.0753479003906
1372;456.8797302246094
1373;456.6842346191406
1374;456.48883056640625
1375;456.29345703125
1376;456.09814453125
1377;455.9029846191406
1378;455.70782470703125
1379;455.5126953125
1380;455.3177795410156
1381;455.1228332519531
1382;454.927978515625
1383;454.73321533203125
1384;454.53851318359375
1385;454.3439025878906
1386;454.1493225097656
1387;453.9548645019531
1388;453.7605285644531
1389;453.5661926269531
1390;453.37200927734375
1391;453.17779541015625
1392;452.9836730957031
1393;452.7897033691406
1394;452.5957336425781
1395;452.40185546875
1396;452.2080383300781
1397;452.0143127441406
1398;451.8206481933594
1399;451.6271057128906
1400;451.4335632324219
1401;451.24017333984375
1402;451.046875
1403;450.853515625
1404;450.6603698730469
1405;450.4671325683594
1406;450.27410888671875
1407;450.0810852050781
1408;449.88812255859375
1409;449.69525146484375
1410;449.50250244140625
1411;449.3097839355469
1412;449.11712646484375
1413;448.9245910644531
1414;448.7320861816406
1415;448.5397033691406
1416;448.3473815917969
1417;448.1550598144531
1418;447.96282958984375
1419;447.7707214355469
1420;447.5786437988281
1421;447.38665771484375
1422;447.1947326660156
1423;447.0029296875
1424;446.8111877441406
1425;446.6194763183594
1426;446.4278869628906
1427;446.2362976074219
1428;446.0447692871094
1429;445.8533630371094
1430;445.66204833984375
1431;445.47076416015625
1432;445.2795715332031
1433;445.08837890625
1434;444.8973083496094
1435;444.7063293457031
1436;444.5154113769531
1437;444.32452392578125
1438;444.1337890625
1439;443.9430847167969
1440;443.75244140625
1441;443.5618591308594
1442;443.37139892578125
1443;443.18096923828125
1444;442.9905700683594
1445;442.80029296875
1446;442.6100769042969
1447;442.419921875
1448;442.2298278808594
1449;442.0398254394531
1450;441.8498840332031
1451;441.6600646972656
1452;441.4702453613281
1453;441.2804870605469
1454;441.0908203125
1455;440.9013366699219
1456;440.71173095703125
1457;440.52239990234375
1458;440.3330078125
1459;440.1437072753906
1460;439.9544982910156
1461;439.7653503417969
1462;439.5762634277344
1463;439.3872375488281
1464;439.1983337402344
1465;439.0094299316406
1466;438.82061767578125
1467;438.6319274902344
1468;438.44329833984375
1469;438.2546691894531
1470;438.066162109375
1471;437.8777160644531
1472;437.6893005371094
1473;437.5009765625
1474;437.3127746582031
1475;437.12457275390625
1476;436.93646240234375
1477;436.7484436035156
1478;436.5604553222656
1479;436.37255859375
1480;436.1847229003906
1481;435.99700927734375
1482;435.8092956542969
1483;435.6217346191406
1484;435.43414306640625
1485;435.24664306640625
1486;435.0592346191406
1487;434.8718566894531
1488;434.68463134765625
1489;434.4974060058594
1490;434.31024169921875
1491;434.1231994628906
1492;433.93621826171875
1493;433.7492370605469
1494;433.5623474121094
1495;433.3755798339844
1496;433.18890380859375
1497;433.002197265625
1498;432.815673828125
1499;432.629150390625
