;loss
0;836.0735473632812
1;835.6891479492188
2;835.3582763671875
3;834.9712524414062
4;834.6066284179688
5;834.216796875
6;833.8255004882812
7;833.4408569335938
8;833.0463256835938
9;832.65380859375
10;832.2562255859375
11;831.857421875
12;831.4560546875
13;831.0520629882812
14;830.6456298828125
15;830.2395629882812
16;829.8316650390625
17;829.4219970703125
18;829.0104370117188
19;828.5936889648438
20;828.17529296875
21;827.7594604492188
22;827.3369140625
23;826.9173583984375
24;826.4909057617188
25;826.0675048828125
26;825.64208984375
27;825.2147216796875
28;824.7802734375
29;824.3438720703125
30;823.9105224609375
31;823.4750366210938
32;823.0324096679688
33;822.587890625
34;822.1412963867188
35;821.6927490234375
36;821.2469482421875
37;820.7991333007812
38;820.3490600585938
39;819.8967895507812
40;819.4374389648438
41;818.9807739257812
42;818.5218505859375
43;818.0557861328125
44;817.5875854492188
45;817.1171875
46;816.6444091796875
47;816.1739501953125
48;815.6967163085938
49;815.2215576171875
50;814.7395629882812
51;814.2594604492188
52;813.7772216796875
53;813.28857421875
54;812.8017578125
55;812.3082885742188
56;811.8125
57;811.318359375
58;810.8176879882812
59;810.314453125
60;809.8086547851562
61;809.3042602539062
62;808.7939453125
63;808.2865600585938
64;807.7767944335938
65;807.2645263671875
66;806.7461547851562
67;806.2289428710938
68;805.7054443359375
69;805.1830444335938
70;804.6580810546875
71;804.1304931640625
72;803.6004028320312
73;803.0675659179688
74;802.5286254882812
75;801.9902954101562
76;801.4494018554688
77;800.9066162109375
78;800.3577270507812
79;799.8094482421875
80;799.2583618164062
81;798.7046508789062
82;798.14794921875
83;797.5885620117188
84;797.0230712890625
85;796.4579467773438
86;795.8899536132812
87;795.3189086914062
88;794.7418823242188
89;794.1649780273438
90;793.5850830078125
91;793.0023193359375
92;792.4164428710938
93;791.8245239257812
94;791.2295532226562
95;790.6322021484375
96;790.03466796875
97;789.4312133789062
98;788.8247680664062
99;788.2149658203125
100;787.6058349609375
101;786.9937133789062
102;786.3758544921875
103;785.7578735351562
104;785.1341552734375
105;784.5101928710938
106;783.8831176757812
107;783.2529296875
108;782.6195678710938
109;781.9804077148438
110;781.3381958007812
111;780.69580078125
112;780.0502319335938
113;779.4014282226562
114;778.7468872070312
115;778.0890502929688
116;777.4281005859375
117;776.7637329101562
118;776.0979614257812
119;775.4293823242188
120;774.7612915039062
121;774.0883178710938
122;773.4122314453125
123;772.7357788085938
124;772.0562133789062
125;771.3712158203125
126;770.6830444335938
127;769.9944458007812
128;769.3003540039062
129;768.6058959960938
130;767.9090576171875
131;767.2092895507812
132;766.50390625
133;765.7979125976562
134;765.0888671875
135;764.3768310546875
136;763.6614379882812
137;762.943359375
138;762.2198486328125
139;761.4935302734375
140;760.7669067382812
141;760.0350341796875
142;759.3035278320312
143;758.5667724609375
144;757.8295288085938
145;757.0894165039062
146;756.3463745117188
147;755.6005859375
148;754.8518676757812
149;754.0980834960938
150;753.3414916992188
151;752.5844116210938
152;751.8245239257812
153;751.0599975585938
154;750.2930908203125
155;749.5261840820312
156;748.7601928710938
157;747.9962158203125
158;747.2318115234375
159;746.4679565429688
160;745.7028198242188
161;744.9380493164062
162;744.1730346679688
163;743.4061279296875
164;742.6403198242188
165;741.8736572265625
166;741.1137084960938
167;740.3558959960938
168;739.5977783203125
169;738.8374633789062
170;738.0794067382812
171;737.3192138671875
172;736.5610961914062
173;735.80078125
174;735.0422973632812
175;734.2815551757812
176;733.5225830078125
177;732.7615966796875
178;732.0006713867188
179;731.2401733398438
180;730.4796752929688
181;729.72119140625
182;728.962890625
183;728.2055053710938
184;727.4483642578125
185;726.6915283203125
186;725.9352416992188
187;725.1787109375
188;724.42822265625
189;723.6796875
190;722.9317626953125
191;722.1860961914062
192;721.4439086914062
193;720.7037963867188
194;719.9659423828125
195;719.23046875
196;718.4972534179688
197;717.7645874023438
198;717.0364990234375
199;716.3108520507812
200;715.5884399414062
201;714.8685913085938
202;714.1526489257812
203;713.4385986328125
204;712.7289428710938
205;712.0216064453125
206;711.3154907226562
207;710.61328125
208;709.9161376953125
209;709.2215576171875
210;708.5311279296875
211;707.8436889648438
212;707.1588745117188
213;706.4796752929688
214;705.8028564453125
215;705.14111328125
216;704.4857177734375
217;703.8330078125
218;703.1842651367188
219;702.5411987304688
220;701.9010009765625
221;701.2656860351562
222;700.6326904296875
223;700.0028686523438
224;699.3797607421875
225;698.7610473632812
226;698.1484985351562
227;697.5389404296875
228;696.9346313476562
229;696.3341064453125
230;695.7378540039062
231;695.1448364257812
232;694.5580444335938
233;693.97607421875
234;693.3987426757812
235;692.8305053710938
236;692.2664794921875
237;691.7080688476562
238;691.1546020507812
239;690.6038208007812
240;690.0562133789062
241;689.5125732421875
242;688.9737548828125
243;688.4379272460938
244;687.9039916992188
245;687.3753662109375
246;686.8505249023438
247;686.3296508789062
248;685.8115844726562
249;685.2970581054688
250;684.7844848632812
251;684.27587890625
252;683.7726440429688
253;683.2725219726562
254;682.7755126953125
255;682.2811279296875
256;681.7897338867188
257;681.3009033203125
258;680.8150024414062
259;680.3333129882812
260;679.8549194335938
261;679.3787231445312
262;678.9041748046875
263;678.4342041015625
264;677.9674682617188
265;677.5038452148438
266;677.0467529296875
267;676.5926513671875
268;676.1414794921875
269;675.6943969726562
270;675.2503662109375
271;674.8087158203125
272;674.3697509765625
273;673.9330444335938
274;673.5023193359375
275;673.07421875
276;672.6524658203125
277;672.2344360351562
278;671.8206176757812
279;671.4089965820312
280;671.0001220703125
281;670.5927734375
282;670.1891479492188
283;669.7883911132812
284;669.3890991210938
285;668.9928588867188
286;668.5986938476562
287;668.2061767578125
288;667.8157348632812
289;667.4275512695312
290;667.0404663085938
291;666.6576538085938
292;666.2781372070312
293;665.9002685546875
294;665.52587890625
295;665.1537475585938
296;664.7825317382812
297;664.4130859375
298;664.0450439453125
299;663.6788330078125
300;663.31396484375
301;662.9498291015625
302;662.5874633789062
303;662.2262573242188
304;661.8657836914062
305;661.5068969726562
306;661.1487426757812
307;660.7916870117188
308;660.4366455078125
309;660.08251953125
310;659.72998046875
311;659.3782348632812
312;659.0279541015625
313;658.67822265625
314;658.3298950195312
315;657.9830932617188
316;657.6383666992188
317;657.2954711914062
318;656.9535522460938
319;656.6122436523438
320;656.2721557617188
321;655.9334716796875
322;655.5955810546875
323;655.2589721679688
324;654.92333984375
325;654.5884399414062
326;654.2549438476562
327;653.9222412109375
328;653.5902709960938
329;653.2589721679688
330;652.9286499023438
331;652.5989990234375
332;652.27001953125
333;651.94189453125
334;651.6145629882812
335;651.2877807617188
336;650.9618530273438
337;650.6361694335938
338;650.3114624023438
339;649.9874267578125
340;649.6636962890625
341;649.3406372070312
342;649.0181274414062
343;648.6965942382812
344;648.3753051757812
345;648.0549926757812
346;647.7352294921875
347;647.4159545898438
348;647.0979614257812
349;646.78076171875
350;646.4642944335938
351;646.1485595703125
352;645.8335571289062
353;645.5191040039062
354;645.2053833007812
355;644.8924560546875
356;644.5802001953125
357;644.2684326171875
358;643.95703125
359;643.6461791992188
360;643.3358154296875
361;643.0260620117188
362;642.7169189453125
363;642.4085693359375
364;642.1004028320312
365;641.7932739257812
366;641.4865112304688
367;641.1803588867188
368;640.8748779296875
369;640.5697631835938
370;640.2648315429688
371;639.9608154296875
372;639.6571655273438
373;639.3540649414062
374;639.0513305664062
375;638.7492065429688
376;638.4475708007812
377;638.1469116210938
378;637.8466796875
379;637.5466918945312
380;637.2474365234375
381;636.9483642578125
382;636.6497802734375
383;636.3516845703125
384;636.05419921875
385;635.7570190429688
386;635.4606323242188
387;635.1646728515625
388;634.869140625
389;634.5739135742188
390;634.2788696289062
391;633.9842529296875
392;633.68994140625
393;633.3960571289062
394;633.1025390625
395;632.8094482421875
396;632.5166625976562
397;632.2244873046875
398;631.9329223632812
399;631.6417236328125
400;631.3505859375
401;631.0601806640625
402;630.7700805664062
403;630.4800415039062
404;630.1907348632812
405;629.9015502929688
406;629.6136474609375
407;629.3257446289062
408;629.0381469726562
409;628.7513427734375
410;628.4644165039062
411;628.1780395507812
412;627.8917236328125
413;627.6061401367188
414;627.3209228515625
415;627.0360717773438
416;626.7512817382812
417;626.4669189453125
418;626.1826171875
419;625.8987426757812
420;625.6151123046875
421;625.3317260742188
422;625.0487060546875
423;624.7661743164062
424;624.4837646484375
425;624.2018432617188
426;623.919921875
427;623.6386108398438
428;623.3575439453125
429;623.0767211914062
430;622.7963256835938
431;622.5160522460938
432;622.2360229492188
433;621.9561157226562
434;621.6763916015625
435;621.3970336914062
436;621.1178588867188
437;620.8390502929688
438;620.5608520507812
439;620.2827758789062
440;620.0050659179688
441;619.7273559570312
442;619.4501342773438
443;619.1731567382812
444;618.8961791992188
445;618.6196899414062
446;618.3434448242188
447;618.0675048828125
448;617.7915649414062
449;617.5160522460938
450;617.2406005859375
451;616.9656372070312
452;616.6908569335938
453;616.4161376953125
454;616.1416625976562
455;615.8674926757812
456;615.59375
457;615.3200073242188
458;615.0465698242188
459;614.7733154296875
460;614.5005493164062
461;614.2278442382812
462;613.9553833007812
463;613.6832885742188
464;613.4115600585938
465;613.1400146484375
466;612.8685913085938
467;612.5973510742188
468;612.3265991210938
469;612.0557861328125
470;611.78515625
471;611.5147705078125
472;611.2448120117188
473;610.9749145507812
474;610.7052001953125
475;610.4357299804688
476;610.1666870117188
477;609.8977661132812
478;609.6292114257812
479;609.3605346679688
480;609.0922241210938
481;608.8240356445312
482;608.5562744140625
483;608.2885131835938
484;608.0211791992188
485;607.75390625
486;607.48681640625
487;607.2198486328125
488;606.9534301757812
489;606.6871948242188
490;606.4208984375
491;606.1551513671875
492;605.8893432617188
493;605.6238403320312
494;605.3583374023438
495;605.09326171875
496;604.8282470703125
497;604.5635986328125
498;604.2991943359375
499;604.0347290039062
