;loss
0;870.5238647460938
1;870.30712890625
2;870.0162963867188
3;869.7526245117188
4;869.4811401367188
5;869.205078125
6;868.9260864257812
7;868.6392211914062
8;868.35302734375
9;868.0677490234375
10;867.7833251953125
11;867.5000610351562
12;867.216796875
13;866.9346923828125
14;866.6534423828125
15;866.3729248046875
16;866.09326171875
17;865.81201171875
18;865.5338745117188
19;865.25390625
20;864.9744873046875
21;864.6957397460938
22;864.4208374023438
23;864.1435546875
24;863.8670654296875
25;863.5912475585938
26;863.3161010742188
27;863.0450439453125
28;862.771484375
29;862.4985961914062
30;862.2265625
31;861.9583740234375
32;861.6907958984375
33;861.4208374023438
34;861.1514892578125
35;860.8829345703125
36;860.6180419921875
37;860.3507690429688
38;860.0870361328125
39;859.8209838867188
40;859.5556640625
41;859.2908935546875
42;859.029296875
43;858.7681884765625
44;858.5075073242188
45;858.2448120117188
46;857.9825439453125
47;857.7232055664062
48;857.4642333984375
49;857.2031860351562
50;856.9425048828125
51;856.6821899414062
52;856.4243774414062
53;856.1669921875
54;855.9097290039062
55;855.6526489257812
56;855.3958129882812
57;855.1369018554688
58;854.8782348632812
59;854.6217651367188
60;854.3652954101562
61;854.1089477539062
62;853.8506469726562
63;853.5923461914062
64;853.3359375
65;853.07763671875
66;852.8211669921875
67;852.5626220703125
68;852.3041381835938
69;852.0473022460938
70;851.7901000976562
71;851.5311279296875
72;851.2735595703125
73;851.0156860351562
74;850.7576293945312
75;850.4974975585938
76;850.2386474609375
77;849.9778442382812
78;849.71826171875
79;849.4581909179688
80;849.1976928710938
81;848.9366455078125
82;848.6751708984375
83;848.4130249023438
84;848.1488647460938
85;847.8840942382812
86;847.6187133789062
87;847.3541259765625
88;847.0888671875
89;846.8228149414062
90;846.5560913085938
91;846.2871704101562
92;846.0187377929688
93;845.7483520507812
94;845.4768676757812
95;845.2045288085938
96;844.9314575195312
97;844.6572875976562
98;844.3822631835938
99;844.107421875
100;843.8316650390625
101;843.5535888671875
102;843.2744140625
103;842.994140625
104;842.7141723632812
105;842.4329223632812
106;842.1505126953125
107;841.8656616210938
108;841.5807495117188
109;841.2935180664062
110;841.0062255859375
111;840.7163696289062
112;840.4253540039062
113;840.1340942382812
114;839.84033203125
115;839.5452270507812
116;839.2498168945312
117;838.9529418945312
118;838.6534423828125
119;838.3525390625
120;838.0501098632812
121;837.7473754882812
122;837.4429931640625
123;837.1371459960938
124;836.8285522460938
125;836.5181884765625
126;836.2063598632812
127;835.8928833007812
128;835.5786743164062
129;835.26171875
130;834.9429931640625
131;834.6224975585938
132;834.3001708984375
133;833.9760131835938
134;833.6510620117188
135;833.3243408203125
136;832.9945068359375
137;832.6637573242188
138;832.3310546875
139;831.9952392578125
140;831.6585083007812
141;831.3197021484375
142;830.9788208007812
143;830.6356201171875
144;830.2902221679688
145;829.9414672851562
146;829.5904541015625
147;829.23828125
148;828.8836669921875
149;828.5266723632812
150;828.1671142578125
151;827.8051147460938
152;827.439453125
153;827.072265625
154;826.7012939453125
155;826.3287963867188
156;825.9524536132812
157;825.5732421875
158;825.1911010742188
159;824.8071899414062
160;824.4203491210938
161;824.0293579101562
162;823.6351928710938
163;823.2378540039062
164;822.8383178710938
165;822.4356079101562
166;822.0283203125
167;821.6187133789062
168;821.2044067382812
169;820.7877197265625
170;820.3673095703125
171;819.9430541992188
172;819.5138549804688
173;819.0818481445312
174;818.6458129882812
175;818.2045288085938
176;817.7601928710938
177;817.3114013671875
178;816.8571166992188
179;816.3983154296875
180;815.9360961914062
181;815.4691772460938
182;814.9974365234375
183;814.5195922851562
184;814.0367431640625
185;813.5499267578125
186;813.0579223632812
187;812.5604248046875
188;812.0574340820312
189;811.548828125
190;811.0346069335938
191;810.5132446289062
192;809.9859619140625
193;809.4525146484375
194;808.9141845703125
195;808.3682250976562
196;807.8157348632812
197;807.2565307617188
198;806.6920776367188
199;806.1194458007812
200;805.5396728515625
201;804.9542236328125
202;804.3602294921875
203;803.7600708007812
204;803.1510620117188
205;802.5343627929688
206;801.9113159179688
207;801.2788696289062
208;800.6386108398438
209;799.9913330078125
210;799.3359375
211;798.6704711914062
212;797.9978637695312
213;797.3165283203125
214;796.6264038085938
215;795.9271850585938
216;795.21875
217;794.4995727539062
218;793.7722778320312
219;793.0338745117188
220;792.2871704101562
221;791.5291137695312
222;790.7626953125
223;789.9862670898438
224;789.1981201171875
225;788.4010009765625
226;787.59375
227;786.7741088867188
228;785.9440307617188
229;785.1049194335938
230;784.2550048828125
231;783.39453125
232;782.5233154296875
233;781.6411743164062
234;780.748046875
235;779.8442993164062
236;778.9297485351562
237;778.00439453125
238;777.0682373046875
239;776.1212158203125
240;775.1618041992188
241;774.1918334960938
242;773.2131958007812
243;772.2223510742188
244;771.2213134765625
245;770.2120361328125
246;769.1926879882812
247;768.1637573242188
248;767.1254272460938
249;766.0775756835938
250;765.0208740234375
251;763.9553833007812
252;762.8812866210938
253;761.7990112304688
254;760.7088012695312
255;759.6090698242188
256;758.5039672851562
257;757.3920288085938
258;756.2714233398438
259;755.1449584960938
260;754.0128173828125
261;752.8775024414062
262;751.7374267578125
263;750.5909423828125
264;749.4406127929688
265;748.2886352539062
266;747.1318359375
267;745.9744873046875
268;744.8150024414062
269;743.6539306640625
270;742.48974609375
271;741.3269653320312
272;740.1638793945312
273;738.9992065429688
274;737.8355102539062
275;736.6731567382812
276;735.5143432617188
277;734.35595703125
278;733.2017211914062
279;732.0505981445312
280;730.9028930664062
281;729.7590942382812
282;728.6192626953125
283;727.4822387695312
284;726.3502197265625
285;725.2252807617188
286;724.1057739257812
287;722.9905395507812
288;721.8832397460938
289;720.7824096679688
290;719.6884765625
291;718.6015625
292;717.5220336914062
293;716.4485473632812
294;715.3843383789062
295;714.3265991210938
296;713.2770385742188
297;712.2359008789062
298;711.20458984375
299;710.1819458007812
300;709.1663208007812
301;708.1594848632812
302;707.16162109375
303;706.1729736328125
304;705.1932983398438
305;704.2227783203125
306;703.2626953125
307;702.3118286132812
308;701.3701171875
309;700.4363403320312
310;699.5130615234375
311;698.5990600585938
312;697.6930541992188
313;696.7974243164062
314;695.9108276367188
315;695.0335693359375
316;694.1640014648438
317;693.3046264648438
318;692.4530029296875
319;691.611328125
320;690.7774047851562
321;689.9532470703125
322;689.13671875
323;688.3297119140625
324;687.5311889648438
325;686.7409057617188
326;685.9588623046875
327;685.1849365234375
328;684.4189453125
329;683.6609497070312
330;682.9105834960938
331;682.1669921875
332;681.43115234375
333;680.7036743164062
334;679.9835205078125
335;679.2706298828125
336;678.5647583007812
337;677.8659057617188
338;677.1744995117188
339;676.4890747070312
340;675.8103637695312
341;675.1381225585938
342;674.4723510742188
343;673.8126220703125
344;673.1598510742188
345;672.5122680664062
346;671.8705444335938
347;671.2354125976562
348;670.6060180664062
349;669.9822998046875
350;669.36376953125
351;668.7499389648438
352;668.1420288085938
353;667.5391235351562
354;666.9412841796875
355;666.3483276367188
356;665.7601928710938
357;665.1763305664062
358;664.5975952148438
359;664.0241088867188
360;663.4549560546875
361;662.8905639648438
362;662.3303833007812
363;661.7744140625
364;661.2225952148438
365;660.6753540039062
366;660.1319580078125
367;659.5918579101562
368;659.0555419921875
369;658.5234375
370;657.9942626953125
371;657.4688110351562
372;656.9473266601562
373;656.4291381835938
374;655.9137573242188
375;655.4017333984375
376;654.8936157226562
377;654.3885498046875
378;653.8861694335938
379;653.38818359375
380;652.8929443359375
381;652.4009399414062
382;651.9122314453125
383;651.4269409179688
384;650.9444580078125
385;650.4647216796875
386;649.9873046875
387;649.5125732421875
388;649.0404663085938
389;648.5715942382812
390;648.1047973632812
391;647.6403198242188
392;647.1787719726562
393;646.7201538085938
394;646.2642211914062
395;645.810546875
396;645.3591918945312
397;644.9100341796875
398;644.4624633789062
399;644.0177001953125
400;643.5751953125
401;643.13427734375
402;642.6958618164062
403;642.2598876953125
404;641.8257446289062
405;641.3934936523438
406;640.9631958007812
407;640.5347900390625
408;640.1091918945312
409;639.6851806640625
410;639.2635498046875
411;638.8440551757812
412;638.4264526367188
413;638.0107421875
414;637.5970458984375
415;637.1851196289062
416;636.7750244140625
417;636.3662109375
418;635.9594116210938
419;635.5542602539062
420;635.1506958007812
421;634.7482299804688
422;634.3477783203125
423;633.94921875
424;633.5524291992188
425;633.1574096679688
426;632.7639770507812
427;632.3721923828125
428;631.9822998046875
429;631.5938110351562
430;631.2064208984375
431;630.8207397460938
432;630.4365234375
433;630.0534057617188
434;629.6723022460938
435;629.2924194335938
436;628.9143676757812
437;628.5376586914062
438;628.1619873046875
439;627.7880859375
440;627.4155883789062
441;627.0444946289062
442;626.6743774414062
443;626.3060302734375
444;625.9391479492188
445;625.5736694335938
446;625.2096557617188
447;624.8467407226562
448;624.4854736328125
449;624.1255493164062
450;623.7667236328125
451;623.4094848632812
452;623.0531005859375
453;622.6976928710938
454;622.3433837890625
455;621.9905395507812
456;621.6384887695312
457;621.2872924804688
458;620.9374389648438
459;620.5885620117188
460;620.2403564453125
461;619.8934936523438
462;619.5474243164062
463;619.2020263671875
464;618.8577270507812
465;618.5139770507812
466;618.1714477539062
467;617.8294677734375
468;617.4882202148438
469;617.1476440429688
470;616.8081665039062
471;616.4694213867188
472;616.1314086914062
473;615.7940673828125
474;615.4575805664062
475;615.1217041015625
476;614.7865600585938
477;614.4518432617188
478;614.1177368164062
479;613.7846069335938
480;613.4521484375
481;613.1202392578125
482;612.7888793945312
483;612.4583129882812
484;612.1280517578125
485;611.7987060546875
486;611.4701538085938
487;611.14208984375
488;610.8145751953125
489;610.4880981445312
490;610.162109375
491;609.8364868164062
492;609.51171875
493;609.1873168945312
494;608.8635864257812
495;608.5402221679688
496;608.2178955078125
497;607.8963012695312
498;607.5748291015625
499;607.2542114257812
500;606.9341430664062
501;606.6149291992188
502;606.2962646484375
503;605.9781494140625
504;605.6602783203125
505;605.3433227539062
506;605.0265502929688
507;604.71044921875
508;604.3950805664062
509;604.0798950195312
510;603.7655029296875
511;603.4512939453125
512;603.1376953125
513;602.82470703125
514;602.5122680664062
515;602.2003173828125
516;601.8889770507812
517;601.5780029296875
518;601.2675170898438
519;600.9575805664062
520;600.6480712890625
521;600.3391723632812
522;600.0305786132812
523;599.7224731445312
524;599.4146118164062
525;599.107421875
526;598.8004150390625
527;598.4938354492188
528;598.1879272460938
529;597.8825073242188
530;597.5773315429688
531;597.2728271484375
532;596.96875
533;596.6652221679688
534;596.3621215820312
535;596.0594482421875
536;595.7572021484375
537;595.4552612304688
538;595.1538696289062
539;594.8528442382812
540;594.5521850585938
541;594.251953125
542;593.9521484375
543;593.6527709960938
544;593.353515625
545;593.0548095703125
546;592.7565307617188
547;592.4585571289062
548;592.1610107421875
549;591.8637084960938
550;591.5667724609375
551;591.2703857421875
552;590.9741821289062
553;590.6783447265625
554;590.3831787109375
555;590.0881958007812
556;589.7935180664062
557;589.4993896484375
558;589.2053833007812
559;588.9119262695312
560;588.6188354492188
561;588.3258666992188
562;588.0333251953125
563;587.7411499023438
564;587.4492797851562
565;587.1577758789062
566;586.8668212890625
567;586.576171875
568;586.2857055664062
569;585.9956665039062
570;585.7059326171875
571;585.4164428710938
572;585.1275024414062
573;584.8388671875
574;584.5505981445312
575;584.2623901367188
576;583.9745483398438
577;583.6870727539062
578;583.4000854492188
579;583.1133422851562
580;582.8267822265625
581;582.5405883789062
582;582.2546997070312
583;581.9692993164062
584;581.68408203125
585;581.3993530273438
586;581.1148071289062
587;580.8306884765625
588;580.5469360351562
589;580.2632446289062
590;579.9798583984375
591;579.6968994140625
592;579.4143676757812
593;579.1320190429688
594;578.8499755859375
595;578.568359375
596;578.2869262695312
597;578.0059204101562
598;577.7250366210938
599;577.4446411132812
600;577.16455078125
601;576.8847045898438
602;576.6051635742188
603;576.3259887695312
604;576.0469970703125
605;575.7683715820312
606;575.4898071289062
607;575.2117309570312
608;574.9337158203125
609;574.6560668945312
610;574.3786010742188
611;574.1016235351562
612;573.8248291015625
613;573.5484008789062
614;573.2720336914062
615;572.9959716796875
616;572.7203369140625
617;572.4449462890625
618;572.1696166992188
619;571.8947143554688
620;571.6201782226562
621;571.3458251953125
622;571.071533203125
623;570.7977294921875
624;570.524169921875
625;570.2507934570312
626;569.9776611328125
627;569.7048950195312
628;569.4321899414062
629;569.1597900390625
630;568.8875732421875
631;568.6156616210938
632;568.3440551757812
633;568.0726318359375
634;567.8015747070312
635;567.5305786132812
636;567.2600708007812
637;566.98974609375
638;566.7195434570312
639;566.4495849609375
640;566.1798095703125
641;565.9102783203125
642;565.6410522460938
643;565.3721923828125
644;565.1035766601562
645;564.8349609375
646;564.5667114257812
647;564.298828125
648;564.0310668945312
649;563.7635498046875
650;563.4961547851562
651;563.2291870117188
652;562.9625244140625
653;562.6959838867188
654;562.4297485351562
655;562.1636962890625
656;561.89794921875
657;561.63232421875
658;561.3670043945312
659;561.1018676757812
660;560.8367919921875
661;560.5719604492188
662;560.3075561523438
663;560.0432739257812
664;559.7791137695312
665;559.5151977539062
666;559.25146484375
667;558.9879760742188
668;558.7246704101562
669;558.4617919921875
670;558.1988525390625
671;557.9363403320312
672;557.6739501953125
673;557.4119262695312
674;557.1500244140625
675;556.8883666992188
676;556.626953125
677;556.36572265625
678;556.1046752929688
679;555.84375
680;555.5830078125
681;555.3225708007812
682;555.0623168945312
683;554.8021240234375
684;554.542236328125
685;554.282470703125
686;554.02294921875
687;553.7637939453125
688;553.5047607421875
689;553.2457885742188
690;552.987060546875
691;552.7286987304688
692;552.4705200195312
693;552.21240234375
694;551.95458984375
695;551.697021484375
696;551.4395141601562
697;551.1823120117188
698;550.9253540039062
699;550.6685180664062
700;550.4118041992188
701;550.1553344726562
702;549.8991088867188
703;549.6431274414062
704;549.3872680664062
705;549.1316528320312
706;548.8761596679688
707;548.6209716796875
708;548.36572265625
709;548.1107177734375
710;547.8560180664062
711;547.6015014648438
712;547.3470458984375
713;547.0927734375
714;546.8386840820312
715;546.5848999023438
716;546.3311767578125
717;546.0777587890625
718;545.8244018554688
719;545.5713500976562
720;545.3184204101562
721;545.0656127929688
722;544.8131103515625
723;544.5608520507812
724;544.3087158203125
725;544.0568237304688
726;543.8050537109375
727;543.5534057617188
728;543.3021240234375
729;543.0508422851562
730;542.7998046875
731;542.5488891601562
732;542.2980346679688
733;542.0475463867188
734;541.7970581054688
735;541.5469360351562
736;541.2968139648438
737;541.0470581054688
738;540.7972412109375
739;540.5477905273438
740;540.2985229492188
741;540.0493774414062
742;539.8004150390625
743;539.551513671875
744;539.3029174804688
745;539.0543823242188
746;538.8060913085938
747;538.5579833984375
748;538.3099365234375
749;538.0621337890625
750;537.8145751953125
751;537.5671997070312
752;537.3198852539062
753;537.0728149414062
754;536.8258666992188
755;536.5790405273438
756;536.33251953125
757;536.0861206054688
758;535.83984375
759;535.5938110351562
760;535.3478393554688
761;535.1021118164062
762;534.8565673828125
763;534.6110229492188
764;534.36572265625
765;534.1206665039062
766;533.8756713867188
767;533.6307373046875
768;533.3861694335938
769;533.1416625976562
770;532.8973388671875
771;532.6531372070312
772;532.4091796875
773;532.1654052734375
774;531.9216918945312
775;531.67822265625
776;531.4349365234375
777;531.1917724609375
778;530.9486694335938
779;530.7056884765625
780;530.462890625
781;530.22021484375
782;529.9778442382812
783;529.7356567382812
784;529.4935913085938
785;529.2516479492188
786;529.0098876953125
787;528.7682495117188
788;528.5267944335938
789;528.2855224609375
790;528.0443725585938
791;527.8034057617188
792;527.5625610351562
793;527.3218994140625
794;527.0812377929688
795;526.8407592773438
796;526.6005249023438
797;526.3604125976562
798;526.1205444335938
799;525.880615234375
800;525.6409301757812
801;525.4013061523438
802;525.1619262695312
803;524.9227294921875
804;524.6837158203125
805;524.44482421875
806;524.2059326171875
807;523.96728515625
808;523.7288208007812
809;523.4905395507812
810;523.2523193359375
811;523.0142822265625
812;522.7763061523438
813;522.53857421875
814;522.3010864257812
815;522.0635375976562
816;521.8262939453125
817;521.5890502929688
818;521.3519897460938
819;521.1151733398438
820;520.8783569335938
821;520.6416625976562
822;520.4052734375
823;520.1689453125
824;519.9328002929688
825;519.6968383789062
826;519.4608764648438
827;519.22509765625
828;518.9894409179688
829;518.75390625
830;518.5186157226562
831;518.2833862304688
832;518.0482788085938
833;517.8132934570312
834;517.5784912109375
835;517.3438720703125
836;517.1094360351562
837;516.8750610351562
838;516.6407470703125
839;516.40673828125
840;516.1728515625
841;515.9390258789062
842;515.7054443359375
843;515.4718627929688
844;515.2384643554688
845;515.0053100585938
846;514.7720947265625
847;514.5390014648438
848;514.30615234375
849;514.0734252929688
850;513.8407592773438
851;513.6082763671875
852;513.3758544921875
853;513.1436767578125
854;512.9116821289062
855;512.6798095703125
856;512.4479370117188
857;512.2163696289062
858;511.9848327636719
859;511.75341796875
860;511.5221252441406
861;511.2908630371094
862;511.0598449707031
863;510.8291015625
864;510.5983581542969
865;510.36773681640625
866;510.1373596191406
867;509.90704345703125
868;509.6767883300781
869;509.44677734375
870;509.2167663574219
871;508.9870300292969
872;508.75732421875
873;508.52777099609375
874;508.2983093261719
875;508.0689392089844
876;507.8396911621094
877;507.6106872558594
878;507.3817443847656
879;507.15289306640625
880;506.92425537109375
881;506.69573974609375
882;506.46728515625
883;506.2389831542969
884;506.0108337402344
885;505.7828674316406
886;505.55487060546875
887;505.32708740234375
888;505.099365234375
889;504.8718566894531
890;504.64447021484375
891;504.4172058105469
892;504.19000244140625
893;503.96295166015625
894;503.7360534667969
895;503.50927734375
896;503.28265380859375
897;503.0561828613281
898;502.8298034667969
899;502.6034851074219
900;502.3772888183594
901;502.15118408203125
902;501.92529296875
903;501.699462890625
904;501.4737243652344
905;501.2482604980469
906;501.0227966308594
907;500.7975158691406
908;500.572265625
909;500.34716796875
910;500.1222229003906
911;499.89739990234375
912;499.672607421875
913;499.4480895996094
914;499.22357177734375
915;498.9992980957031
916;498.775146484375
917;498.5509948730469
918;498.3269958496094
919;498.1031188964844
920;497.87933349609375
921;497.65576171875
922;497.4323425292969
923;497.208984375
924;496.9856872558594
925;496.7625427246094
926;496.53948974609375
927;496.316650390625
928;496.09381103515625
929;495.8711853027344
930;495.6486511230469
931;495.42620849609375
932;495.2038269042969
933;494.9816589355469
934;494.7595520019531
935;494.5375671386719
936;494.3157653808594
937;494.0939636230469
938;493.8723449707031
939;493.6508483886719
940;493.4294738769531
941;493.20819091796875
942;492.9870300292969
943;492.7660217285156
944;492.5451354980469
945;492.32421875
946;492.103515625
947;491.8829650878906
948;491.6623840332031
949;491.4421081542969
950;491.2218322753906
951;491.0016784667969
952;490.78167724609375
953;490.56170654296875
954;490.34185791015625
955;490.1221618652344
956;489.9024963378906
957;489.68304443359375
958;489.4636535644531
959;489.2444152832031
960;489.0252990722656
961;488.80633544921875
962;488.58734130859375
963;488.3686218261719
964;488.1498718261719
965;487.9313049316406
966;487.7128601074219
967;487.4945373535156
968;487.2762145996094
969;487.0580749511719
970;486.8400573730469
971;486.6220703125
972;486.40423583984375
973;486.1864929199219
974;485.9689025878906
975;485.7513122558594
976;485.5339050292969
977;485.3166198730469
978;485.0994567871094
979;484.88238525390625
980;484.6653747558594
981;484.4485778808594
982;484.2317810058594
983;484.01513671875
984;483.79864501953125
985;483.5822448730469
986;483.3659973144531
987;483.1497497558594
988;482.93365478515625
989;482.7177429199219
990;482.50189208984375
991;482.28607177734375
992;482.0703430175781
993;481.8548278808594
994;481.6393737792969
995;481.4239807128906
996;481.2087097167969
997;480.99346923828125
998;480.7785339355469
999;480.56353759765625
1000;480.3487854003906
1001;480.134033203125
1002;479.9193420410156
1003;479.7048645019531
1004;479.4904479980469
1005;479.2760925292969
1006;479.0617980957031
1007;478.8478088378906
1008;478.6337890625
1009;478.4197692871094
1010;478.2060546875
1011;477.9923400878906
1012;477.77880859375
1013;477.56536865234375
1014;477.35198974609375
1015;477.138671875
1016;476.9254455566406
1017;476.71234130859375
1018;476.49951171875
1019;476.28656005859375
1020;476.07379150390625
1021;475.8612365722656
1022;475.6485900878906
1023;475.43609619140625
1024;475.22381591796875
1025;475.0115661621094
1026;474.79937744140625
1027;474.58740234375
1028;474.3755187988281
1029;474.1636657714844
1030;473.951904296875
1031;473.7402648925781
1032;473.5287780761719
1033;473.31732177734375
1034;473.1060485839844
1035;472.8948059082031
1036;472.6837463378906
1037;472.47265625
1038;472.26171875
1039;472.05084228515625
1040;471.840087890625
1041;471.6295471191406
1042;471.4189758300781
1043;471.2086486816406
1044;470.998291015625
1045;470.78802490234375
1046;470.5778503417969
1047;470.36785888671875
1048;470.15789794921875
1049;469.9480895996094
1050;469.7383117675781
1051;469.5286560058594
1052;469.3190612792969
1053;469.1096496582031
1054;468.90032958984375
1055;468.6910095214844
1056;468.4817810058594
1057;468.2727355957031
1058;468.06378173828125
1059;467.8548889160156
1060;467.6461486816406
1061;467.4373474121094
1062;467.2287902832031
1063;467.0202331542969
1064;466.81195068359375
1065;466.6036682128906
1066;466.3955078125
1067;466.18743896484375
1068;465.9794616699219
1069;465.771484375
1070;465.563720703125
1071;465.35601806640625
1072;465.1484069824219
1073;464.9408264160156
1074;464.7334289550781
1075;464.526123046875
1076;464.31890869140625
1077;464.1117248535156
1078;463.9046325683594
1079;463.6976013183594
1080;463.4908752441406
1081;463.28411865234375
1082;463.0774230957031
1083;462.870849609375
1084;462.6643981933594
1085;462.4580383300781
1086;462.2518005371094
1087;462.0455627441406
1088;461.83953857421875
1089;461.6335754394531
1090;461.42767333984375
1091;461.2218933105469
1092;461.01617431640625
1093;460.810546875
1094;460.60504150390625
1095;460.3996276855469
1096;460.1943359375
1097;459.9890441894531
1098;459.7838439941406
1099;459.57879638671875
1100;459.3738098144531
1101;459.1689453125
1102;458.9641418457031
1103;458.7594299316406
1104;458.5547790527344
1105;458.3503112792969
1106;458.14593505859375
1107;457.9416809082031
1108;457.7374572753906
1109;457.53326416015625
1110;457.3291931152344
1111;457.125244140625
1112;456.92138671875
1113;456.7176208496094
1114;456.51397705078125
1115;456.3103942871094
1116;456.10693359375
1117;455.90350341796875
1118;455.7001953125
1119;455.4969177246094
1120;455.29376220703125
1121;455.09075927734375
1122;454.8878479003906
1123;454.68499755859375
1124;454.4822692871094
1125;454.27960205078125
1126;454.0769958496094
1127;453.87451171875
1128;453.6720275878906
1129;453.4697570800781
1130;453.2675476074219
1131;453.06536865234375
1132;452.86334228515625
1133;452.6613464355469
1134;452.45947265625
1135;452.25775146484375
1136;452.0559997558594
1137;451.8544616699219
1138;451.65289306640625
1139;451.4515075683594
1140;451.2501525878906
1141;451.0488586425781
1142;450.8477478027344
1143;450.646728515625
1144;450.44573974609375
1145;450.2448425292969
1146;450.0440368652344
1147;449.8433532714844
1148;449.6427307128906
1149;449.4421691894531
1150;449.2417297363281
1151;449.0413513183594
1152;448.841064453125
1153;448.6408386230469
1154;448.4407653808594
1155;448.2407531738281
1156;448.0408020019531
1157;447.8409729003906
1158;447.6412048339844
1159;447.44158935546875
1160;447.2419738769531
1161;447.04248046875
1162;446.8430480957031
1163;446.6437683105469
1164;446.4445495605469
1165;446.2454528808594
1166;446.04638671875
1167;445.847412109375
1168;445.6484680175781
1169;445.44976806640625
1170;445.25103759765625
1171;445.0523986816406
1172;444.85394287109375
1173;444.6554260253906
1174;444.4570617675781
1175;444.2587890625
1176;444.0605773925781
1177;443.86248779296875
1178;443.6643981933594
1179;443.46649169921875
1180;443.2687072753906
1181;443.0708923339844
1182;442.8732604980469
1183;442.6756286621094
1184;442.47808837890625
1185;442.28070068359375
1186;442.0833435058594
1187;441.8860778808594
1188;441.68890380859375
1189;441.4918518066406
1190;441.29486083984375
1191;441.0979309082031
1192;440.901123046875
1193;440.7043762207031
1194;440.50775146484375
1195;440.3111877441406
1196;440.11468505859375
1197;439.9182434082031
1198;439.7219543457031
1199;439.5256652832031
1200;439.32952880859375
1201;439.13348388671875
1202;438.9375
1203;438.7416076660156
1204;438.54583740234375
1205;438.3500671386719
1206;438.15447998046875
1207;437.9588317871094
1208;437.7633972167969
1209;437.56793212890625
1210;437.37261962890625
1211;437.1773986816406
1212;436.9821472167969
1213;436.7870788574219
1214;436.5920715332031
1215;436.3971862792969
1216;436.2023620605469
1217;436.0075988769531
1218;435.81292724609375
1219;435.6183166503906
1220;435.423828125
1221;435.22943115234375
1222;435.03509521484375
1223;434.8408508300781
1224;434.64666748046875
1225;434.45257568359375
1226;434.258544921875
1227;434.0646057128906
1228;433.8708190917969
1229;433.6770324707031
1230;433.4833679199219
1231;433.2897644042969
1232;433.09625244140625
1233;432.9028625488281
1234;432.70953369140625
1235;432.516357421875
1236;432.32318115234375
1237;432.1300964355469
1238;431.93707275390625
1239;431.74407958984375
1240;431.55126953125
1241;431.3584899902344
1242;431.1658020019531
1243;430.97320556640625
1244;430.78070068359375
1245;430.5882263183594
1246;430.3958435058594
1247;430.20361328125
1248;430.0114440917969
1249;429.8193359375
1250;429.6272888183594
1251;429.435302734375
1252;429.2434387207031
1253;429.0516662597656
1254;428.85992431640625
1255;428.66827392578125
1256;428.4766540527344
1257;428.28521728515625
1258;428.09381103515625
1259;427.9024963378906
1260;427.71124267578125
1261;427.52008056640625
1262;427.3290100097656
1263;427.1380310058594
1264;426.94708251953125
1265;426.75628662109375
1266;426.5655822753906
1267;426.37481689453125
1268;426.1842346191406
1269;425.99371337890625
1270;425.80328369140625
1271;425.6129455566406
1272;425.4226379394531
1273;425.2324523925781
1274;425.0423278808594
1275;424.852294921875
1276;424.6622619628906
1277;424.4723815917969
1278;424.28253173828125
1279;424.0928039550781
1280;423.9031677246094
1281;423.713623046875
1282;423.52410888671875
1283;423.334716796875
1284;423.1454162597656
1285;422.95611572265625
1286;422.76690673828125
1287;422.5777893066406
1288;422.3888244628906
1289;422.1998596191406
1290;422.010986328125
1291;421.8222351074219
1292;421.63348388671875
1293;421.44488525390625
1294;421.25634765625
1295;421.06787109375
1296;420.8795471191406
1297;420.6911926269531
1298;420.5029296875
1299;420.3147888183594
1300;420.1267395019531
1301;419.9387512207031
1302;419.7508239746094
1303;419.56298828125
1304;419.375244140625
1305;419.18756103515625
1306;419.0
1307;418.8124694824219
1308;418.625
1309;418.4375915527344
1310;418.2503356933594
1311;418.0630798339844
1312;417.87591552734375
1313;417.6888122558594
1314;417.50177001953125
1315;417.31494140625
1316;417.12811279296875
1317;416.9413146972656
1318;416.7546081542969
1319;416.56793212890625
1320;416.3815002441406
1321;416.19500732421875
1322;416.0085754394531
1323;415.822265625
1324;415.6360168457031
1325;415.44989013671875
1326;415.2638244628906
1327;415.0777893066406
1328;414.8918762207031
1329;414.70599365234375
1330;414.5202331542969
1331;414.33447265625
1332;414.1488952636719
1333;413.96331787109375
1334;413.7778625488281
1335;413.5924377441406
1336;413.4071350097656
1337;413.2218933105469
1338;413.0367126464844
1339;412.85162353515625
1340;412.66656494140625
1341;412.4816589355469
1342;412.2967224121094
1343;412.1119689941406
1344;411.92718505859375
1345;411.7425842285156
1346;411.5579528808594
1347;411.3735046386719
1348;411.1891174316406
1349;411.0047302246094
1350;410.82049560546875
1351;410.63629150390625
1352;410.4521789550781
1353;410.2680969238281
1354;410.0841369628906
1355;409.9002380371094
1356;409.71636962890625
1357;409.5325622558594
1358;409.3489074707031
1359;409.1653137207031
1360;408.98175048828125
1361;408.79833984375
1362;408.6149597167969
1363;408.4316101074219
1364;408.2483215332031
1365;408.0651550292969
1366;407.882080078125
1367;407.6990661621094
1368;407.5161437988281
1369;407.3332824707031
1370;407.1504821777344
1371;406.9677734375
1372;406.7851257324219
1373;406.6025695800781
1374;406.4200744628906
1375;406.2376403808594
1376;406.0553283691406
1377;405.873046875
1378;405.69085693359375
1379;405.5087585449219
1380;405.32666015625
1381;405.1446838378906
1382;404.9627380371094
1383;404.7809753417969
1384;404.59918212890625
1385;404.41754150390625
1386;404.2359313964844
1387;404.0544128417969
1388;403.8729553222656
1389;403.6915588378906
1390;403.5102233886719
1391;403.32904052734375
1392;403.1477966308594
1393;402.9666442871094
1394;402.78564453125
1395;402.6047058105469
1396;402.42376708984375
1397;402.242919921875
1398;402.0621643066406
1399;401.8814392089844
1400;401.70086669921875
1401;401.5202941894531
1402;401.3398132324219
1403;401.159423828125
1404;400.97906494140625
1405;400.798828125
1406;400.61865234375
1407;400.4385070800781
1408;400.2585144042969
1409;400.0785217285156
1410;399.89862060546875
1411;399.71881103515625
1412;399.5390625
1413;399.3593444824219
1414;399.1797180175781
1415;399.00018310546875
1416;398.8207702636719
1417;398.6413269042969
1418;398.4620056152344
1419;398.2828063964844
1420;398.1036071777344
1421;397.92449951171875
1422;397.7453918457031
1423;397.5664367675781
1424;397.3874816894531
1425;397.20867919921875
1426;397.0299377441406
1427;396.8512268066406
1428;396.6726379394531
1429;396.49407958984375
1430;396.31549072265625
1431;396.13714599609375
1432;395.9587707519531
1433;395.7804870605469
1434;395.6022644042969
1435;395.4241027832031
1436;395.2459411621094
1437;395.0680236816406
1438;394.89007568359375
1439;394.7121887207031
1440;394.5343933105469
1441;394.3566589355469
1442;394.17901611328125
1443;394.0014343261719
1444;393.8239440917969
1445;393.6465148925781
1446;393.4690856933594
1447;393.2917785644531
1448;393.1145324707031
1449;392.9374084472656
1450;392.76025390625
1451;392.583251953125
1452;392.4062805175781
1453;392.2294006347656
1454;392.05255126953125
1455;391.8757629394531
1456;391.6990661621094
1457;391.5224914550781
1458;391.3459167480469
1459;391.16943359375
1460;390.9930725097656
1461;390.8166809082031
1462;390.6404113769531
1463;390.4642028808594
1464;390.2880859375
1465;390.1120300292969
1466;389.93603515625
1467;389.7601013183594
1468;389.5842590332031
1469;389.4084777832031
1470;389.2327575683594
1471;389.05712890625
1472;388.8815612792969
1473;388.7060241699219
1474;388.5306091308594
1475;388.355224609375
1476;388.179931640625
1477;388.0046691894531
1478;387.8294982910156
1479;387.65447998046875
1480;387.47943115234375
1481;387.3044128417969
1482;387.1294860839844
1483;386.95465087890625
1484;386.7799377441406
1485;386.6052551269531
1486;386.4306335449219
1487;386.2560729980469
1488;386.08154296875
1489;385.90716552734375
1490;385.73272705078125
1491;385.55853271484375
1492;385.38427734375
1493;385.21014404296875
1494;385.03607177734375
1495;384.862060546875
1496;384.6880798339844
1497;384.51422119140625
1498;384.34039306640625
1499;384.16668701171875
1500;383.99298095703125
1501;383.8193359375
1502;383.6459045410156
1503;383.4723815917969
1504;383.2989807128906
1505;383.12567138671875
1506;382.952392578125
1507;382.77923583984375
1508;382.60601806640625
1509;382.4329528808594
1510;382.260009765625
1511;382.0870666503906
1512;381.9142150878906
1513;381.7414245605469
1514;381.5686340332031
1515;381.39599609375
1516;381.2234191894531
1517;381.0509338378906
1518;380.87841796875
1519;380.7060241699219
1520;380.5337219238281
1521;380.3614196777344
1522;380.1892395019531
1523;380.0171203613281
1524;379.8450012207031
1525;379.6730651855469
1526;379.5011291503906
1527;379.3292541503906
1528;379.1574401855469
1529;378.98565673828125
1530;378.81402587890625
1531;378.64239501953125
1532;378.4708557128906
1533;378.2993469238281
1534;378.1279296875
1535;377.95660400390625
1536;377.7853088378906
1537;377.61407470703125
1538;377.4429626464844
1539;377.2718200683594
1540;377.100830078125
1541;376.9299011230469
1542;376.7590026855469
1543;376.5881652832031
1544;376.41741943359375
1545;376.2467346191406
1546;376.07611083984375
1547;375.9054870605469
1548;375.7350158691406
1549;375.56451416015625
1550;375.39422607421875
1551;375.223876953125
1552;375.05364990234375
1553;374.88348388671875
1554;374.7133483886719
1555;374.54327392578125
1556;374.373291015625
1557;374.203369140625
1558;374.03350830078125
1559;373.8637390136719
1560;373.6940002441406
1561;373.52435302734375
1562;373.3547668457031
1563;373.18524169921875
1564;373.0157775878906
1565;372.8463439941406
1566;372.677001953125
1567;372.5077209472656
1568;372.3384704589844
1569;372.1694030761719
1570;372.00030517578125
1571;371.8312683105469
1572;371.662353515625
1573;371.4934387207031
1574;371.3246154785156
1575;371.1559143066406
1576;370.9871520996094
1577;370.8185119628906
1578;370.6499328613281
1579;370.4814453125
1580;370.3130187988281
1581;370.1446228027344
1582;369.976318359375
1583;369.8080749511719
1584;369.639892578125
1585;369.4718322753906
1586;369.3037414550781
1587;369.1357421875
1588;368.96783447265625
1589;368.8000183105469
1590;368.6321716308594
1591;368.4645080566406
1592;368.2967834472656
1593;368.129150390625
1594;367.9616394042969
1595;367.7941589355469
1596;367.6267395019531
1597;367.4594421386719
1598;367.2921447753906
1599;367.1248474121094
1600;366.9577331542969
1601;366.7906799316406
1602;366.62359619140625
1603;366.4566955566406
1604;366.2897644042969
1605;366.1228942871094
1606;365.95611572265625
1607;365.7893981933594
1608;365.62274169921875
1609;365.45611572265625
1610;365.28961181640625
1611;365.1231384277344
1612;364.9567565917969
1613;364.7904357910156
1614;364.6241760253906
1615;364.4579162597656
1616;364.2917785644531
1617;364.1257019042969
1618;363.9596862792969
1619;363.793701171875
1620;363.6277770996094
1621;363.4619140625
1622;363.296142578125
1623;363.13043212890625
1624;362.9648132324219
1625;362.7991638183594
1626;362.6336364746094
1627;362.46820068359375
1628;362.30279541015625
1629;362.1374816894531
1630;361.97216796875
1631;361.80694580078125
1632;361.6418151855469
1633;361.476806640625
1634;361.3117370605469
1635;361.1467590332031
1636;360.9818420410156
1637;360.81695556640625
1638;360.6522521972656
1639;360.48748779296875
1640;360.3228454589844
1641;360.1582336425781
1642;359.99371337890625
1643;359.8292541503906
1644;359.6648254394531
1645;359.50048828125
1646;359.336181640625
1647;359.1720275878906
1648;359.0078125
1649;358.84375
1650;358.6797180175781
1651;358.5157165527344
1652;358.3517761230469
1653;358.18798828125
1654;358.024169921875
1655;357.8604431152344
1656;357.69677734375
1657;357.5331726074219
1658;357.36962890625
1659;357.20611572265625
1660;357.042724609375
1661;356.87933349609375
1662;356.7160339355469
1663;356.5527648925781
1664;356.38958740234375
1665;356.22650146484375
1666;356.0634460449219
1667;355.90045166015625
1668;355.7375183105469
1669;355.5746765136719
1670;355.4118347167969
1671;355.24908447265625
1672;355.08642578125
1673;354.9237976074219
1674;354.76123046875
1675;354.5987243652344
1676;354.436279296875
1677;354.2738952636719
1678;354.1115417480469
1679;353.94927978515625
1680;353.78704833984375
1681;353.62493896484375
1682;353.4628601074219
1683;353.30084228515625
1684;353.13885498046875
1685;352.9769592285156
1686;352.8150939941406
1687;352.6533508300781
1688;352.4916076660156
1689;352.3299255371094
1690;352.16839599609375
1691;352.0068359375
1692;351.8453674316406
1693;351.68389892578125
1694;351.5225524902344
1695;351.36126708984375
1696;351.20001220703125
1697;351.0388488769531
1698;350.87774658203125
1699;350.7167053222656
1700;350.5556945800781
1701;350.3947448730469
1702;350.2338562011719
1703;350.0730285644531
1704;349.9123229980469
1705;349.7516174316406
1706;349.59100341796875
1707;349.430419921875
1708;349.2699279785156
1709;349.1094665527344
1710;348.9490661621094
1711;348.7887268066406
1712;348.6284484863281
1713;348.46826171875
1714;348.30810546875
1715;348.1479797363281
1716;347.98797607421875
1717;347.8279724121094
1718;347.66802978515625
1719;347.5081481933594
1720;347.348388671875
1721;347.1886291503906
1722;347.0289611816406
1723;346.86932373046875
1724;346.7097473144531
1725;346.55029296875
1726;346.3908386230469
1727;346.2314453125
1728;346.07208251953125
1729;345.912841796875
1730;345.7536315917969
1731;345.594482421875
1732;345.4353942871094
1733;345.2763671875
1734;345.117431640625
1735;344.95849609375
1736;344.7997131347656
1737;344.6408996582031
1738;344.4821472167969
1739;344.3234558105469
1740;344.16485595703125
1741;344.0063171386719
1742;343.8478088378906
1743;343.68939208984375
1744;343.5309753417969
1745;343.37261962890625
1746;343.2143859863281
1747;343.05621337890625
1748;342.8981018066406
1749;342.73992919921875
1750;342.58197021484375
1751;342.4239807128906
1752;342.2660827636719
1753;342.1082458496094
1754;341.950439453125
1755;341.792724609375
1756;341.6350402832031
1757;341.47747802734375
1758;341.3198547363281
1759;341.1623840332031
1760;341.00494384765625
1761;340.84759521484375
1762;340.6902160644531
1763;340.5329895019531
1764;340.3757629394531
1765;340.2186584472656
1766;340.0615234375
1767;339.90447998046875
1768;339.7475280761719
1769;339.5906066894531
1770;339.4337463378906
1771;339.2769470214844
1772;339.1202087402344
1773;338.96356201171875
1774;338.80694580078125
1775;338.650390625
1776;338.4938659667969
1777;338.33740234375
1778;338.1809997558594
1779;338.024658203125
1780;337.8684387207031
1781;337.7121887207031
1782;337.55609130859375
1783;337.39996337890625
1784;337.243896484375
1785;337.0879211425781
1786;336.9319763183594
1787;336.776123046875
1788;336.620361328125
1789;336.464599609375
1790;336.30889892578125
1791;336.15325927734375
1792;335.9977111816406
1793;335.8421936035156
1794;335.6867370605469
1795;335.53131103515625
1796;335.3760070800781
1797;335.2207336425781
1798;335.0654602050781
1799;334.9103088378906
1800;334.7551574707031
1801;334.60009765625
1802;334.4450988769531
1803;334.2901916503906
1804;334.1352844238281
1805;333.9804382324219
1806;333.8256530761719
1807;333.6709289550781
1808;333.5162658691406
1809;333.3616638183594
1810;333.2071228027344
1811;333.0525817871094
1812;332.898193359375
1813;332.74383544921875
1814;332.5895080566406
1815;332.43524169921875
1816;332.281005859375
1817;332.12689208984375
1818;331.97283935546875
1819;331.8187561035156
1820;331.664794921875
1821;331.5108337402344
1822;331.35699462890625
1823;331.20318603515625
1824;331.0494689941406
1825;330.895751953125
1826;330.7421569824219
1827;330.5885925292969
1828;330.43505859375
1829;330.2815856933594
1830;330.1282043457031
1831;329.9748840332031
1832;329.8215637207031
1833;329.6683654785156
1834;329.5151672363281
1835;329.3620300292969
1836;329.208984375
1837;329.05596923828125
1838;328.90301513671875
1839;328.7501525878906
1840;328.5973205566406
1841;328.4445495605469
1842;328.29180908203125
1843;328.13916015625
1844;327.9865417480469
1845;327.8340148925781
1846;327.6814880371094
1847;327.5290832519531
1848;327.3766784667969
1849;327.2243347167969
1850;327.07208251953125
1851;326.91986083984375
1852;326.7677307128906
1853;326.6156311035156
1854;326.4635925292969
1855;326.3115539550781
1856;326.15960693359375
1857;326.00775146484375
1858;325.8559265136719
1859;325.7041931152344
1860;325.552490234375
1861;325.40081787109375
1862;325.2492370605469
1863;325.0976867675781
1864;324.94622802734375
1865;324.7948303222656
1866;324.6434631347656
1867;324.49212646484375
1868;324.34088134765625
1869;324.1896667480469
1870;324.0385437011719
1871;323.8874816894531
1872;323.7364196777344
1873;323.58544921875
1874;323.43450927734375
1875;323.28363037109375
1876;323.1328125
1877;322.9820251464844
1878;322.83135986328125
1879;322.6806945800781
1880;322.5301208496094
1881;322.37957763671875
1882;322.2290954589844
1883;322.07867431640625
1884;321.9283142089844
1885;321.77801513671875
1886;321.62774658203125
1887;321.4775390625
1888;321.3274230957031
1889;321.17730712890625
1890;321.02728271484375
1891;320.8773498535156
1892;320.7273864746094
1893;320.5775451660156
1894;320.4277038574219
1895;320.2779846191406
1896;320.12823486328125
1897;319.97857666015625
1898;319.82904052734375
1899;319.67950439453125
1900;319.5299987792969
1901;319.3805847167969
1902;319.231201171875
1903;319.0818786621094
1904;318.9326477050781
1905;318.783447265625
1906;318.63427734375
1907;318.4851379394531
1908;318.33612060546875
1909;318.1871032714844
1910;318.03814697265625
1911;317.8893127441406
1912;317.740478515625
1913;317.59173583984375
1914;317.4430236816406
1915;317.29437255859375
1916;317.1457214355469
1917;316.9972229003906
1918;316.84869384765625
1919;316.70025634765625
1920;316.5518493652344
1921;316.4035339355469
1922;316.25531005859375
1923;316.1070861816406
1924;315.9588928222656
1925;315.810791015625
1926;315.6627502441406
1927;315.5148010253906
1928;315.36676025390625
1929;315.2189025878906
1930;315.0710754394531
1931;314.92327880859375
1932;314.7755432128906
1933;314.62786865234375
1934;314.4802551269531
1935;314.3327331542969
1936;314.18524169921875
1937;314.03778076171875
1938;313.890380859375
1939;313.7430725097656
1940;313.59576416015625
1941;313.4485168457031
1942;313.30133056640625
1943;313.1542053222656
1944;313.00714111328125
1945;312.8601379394531
1946;312.713134765625
1947;312.56622314453125
1948;312.4194030761719
1949;312.2726135253906
1950;312.1258239746094
1951;311.9791564941406
1952;311.8325500488281
1953;311.68597412109375
1954;311.5394592285156
1955;311.3929748535156
1956;311.24652099609375
1957;311.1001892089844
1958;310.953857421875
1959;310.8076171875
1960;310.6614074707031
1961;310.5152282714844
1962;310.369140625
1963;310.22314453125
1964;310.0771179199219
1965;309.93115234375
1966;309.7852478027344
1967;309.6394348144531
1968;309.49365234375
1969;309.34796142578125
1970;309.2023010253906
1971;309.05670166015625
1972;308.9111328125
1973;308.765625
1974;308.62017822265625
1975;308.4747619628906
1976;308.32940673828125
1977;308.18414306640625
1978;308.03887939453125
1979;307.8937072753906
1980;307.74859619140625
1981;307.603515625
1982;307.4585266113281
1983;307.31353759765625
1984;307.16864013671875
1985;307.0237121582031
1986;306.87896728515625
1987;306.7341613769531
1988;306.5895080566406
1989;306.4448547363281
1990;306.30023193359375
1991;306.15570068359375
1992;306.01123046875
1993;305.8667907714844
1994;305.7224426269531
1995;305.5780944824219
1996;305.4338073730469
1997;305.28961181640625
1998;305.14544677734375
1999;305.0013122558594
2000;304.8572692871094
2001;304.7132873535156
2002;304.5693359375
2003;304.4254455566406
2004;304.2815856933594
2005;304.13775634765625
2006;303.9939880371094
2007;303.8503112792969
2008;303.7066955566406
2009;303.5630798339844
2010;303.4195861816406
2011;303.2760925292969
2012;303.1327209472656
2013;302.98931884765625
2014;302.8459777832031
2015;302.7027282714844
2016;302.55950927734375
2017;302.4163513183594
2018;302.2732238769531
2019;302.1302185058594
2020;301.9872131347656
2021;301.8442077636719
2022;301.7013244628906
2023;301.55853271484375
2024;301.4157409667969
2025;301.2729797363281
2026;301.1303405761719
2027;300.9876403808594
2028;300.8450622558594
2029;300.70257568359375
2030;300.56005859375
2031;300.4176330566406
2032;300.2752990722656
2033;300.1329650878906
2034;299.99072265625
2035;299.8484802246094
2036;299.70635986328125
2037;299.5642395019531
2038;299.42218017578125
2039;299.28021240234375
2040;299.13824462890625
2041;298.9963684082031
2042;298.8545227050781
2043;298.7127380371094
2044;298.5710144042969
2045;298.4293518066406
2046;298.2876892089844
2047;298.1461486816406
2048;298.0046081542969
2049;297.8631286621094
2050;297.7217102050781
2051;297.5803527832031
2052;297.4389953613281
2053;297.2977600097656
2054;297.15655517578125
2055;297.0153503417969
2056;296.874267578125
2057;296.7331848144531
2058;296.59222412109375
2059;296.45123291015625
2060;296.31036376953125
2061;296.16949462890625
2062;296.0287170410156
2063;295.8879699707031
2064;295.7472839355469
2065;295.60662841796875
2066;295.4660339355469
2067;295.32550048828125
2068;295.1850280761719
2069;295.0445861816406
2070;294.90423583984375
2071;294.763916015625
2072;294.62359619140625
2073;294.4833679199219
2074;294.3432312011719
2075;294.2030944824219
2076;294.06304931640625
2077;293.9230041503906
2078;293.7830505371094
2079;293.64312744140625
2080;293.5032653808594
2081;293.3634948730469
2082;293.22369384765625
2083;293.0840148925781
2084;292.9443359375
2085;292.80474853515625
2086;292.6651916503906
2087;292.5257263183594
2088;292.3862609863281
2089;292.24688720703125
2090;292.1075439453125
2091;291.96826171875
2092;291.82904052734375
2093;291.6897888183594
2094;291.5506896972656
2095;291.4115905761719
2096;291.27252197265625
2097;291.1335754394531
2098;290.99462890625
2099;290.8557434082031
2100;290.7169494628906
2101;290.578125
2102;290.43939208984375
2103;290.30072021484375
2104;290.162109375
2105;290.0235290527344
2106;289.8850402832031
2107;289.7465515136719
2108;289.6081237792969
2109;289.4697570800781
2110;289.3314514160156
2111;289.1932067871094
2112;289.05499267578125
2113;288.9167785644531
2114;288.7786865234375
2115;288.640625
2116;288.5025939941406
2117;288.3646545410156
2118;288.2267150878906
2119;288.0888671875
2120;287.9510803222656
2121;287.81329345703125
2122;287.67559814453125
2123;287.5379333496094
2124;287.40032958984375
2125;287.2627868652344
2126;287.1252746582031
2127;286.9878234863281
2128;286.85040283203125
2129;286.71307373046875
2130;286.5757751464844
2131;286.4385070800781
2132;286.30133056640625
2133;286.1641540527344
2134;286.0270690917969
2135;285.8899841308594
2136;285.7530517578125
2137;285.6161193847656
2138;285.47918701171875
2139;285.3423767089844
2140;285.20556640625
2141;285.06884765625
2142;284.9321594238281
2143;284.7955017089844
2144;284.6589050292969
2145;284.5224304199219
2146;284.38592529296875
2147;284.2494812011719
2148;284.1131286621094
2149;283.976806640625
2150;283.8404846191406
2151;283.70428466796875
2152;283.5680847167969
2153;283.43194580078125
2154;283.2958679199219
2155;283.15985107421875
2156;283.02386474609375
2157;282.887939453125
2158;282.7520751953125
2159;282.6162414550781
2160;282.48046875
2161;282.3447570800781
2162;282.2090759277344
2163;282.0734558105469
2164;281.9378967285156
2165;281.80230712890625
2166;281.6669006347656
2167;281.5314636230469
2168;281.3960876464844
2169;281.2607727050781
2170;281.1254577636719
2171;280.9902648925781
2172;280.8550720214844
2173;280.7199401855469
2174;280.58489990234375
2175;280.4498596191406
2176;280.31488037109375
2177;280.17999267578125
2178;280.04510498046875
2179;279.9103088378906
2180;279.7754821777344
2181;279.64080810546875
2182;279.5061340332031
2183;279.3714904785156
2184;279.2369079589844
2185;279.1023864746094
2186;278.9679260253906
2187;278.8335266113281
2188;278.6991271972656
2189;278.56475830078125
2190;278.4305114746094
2191;278.29632568359375
2192;278.1621398925781
2193;278.0279846191406
2194;277.8939514160156
2195;277.7599182128906
2196;277.6259460449219
2197;277.49200439453125
2198;277.358154296875
2199;277.2243347167969
2200;277.090576171875
2201;276.95684814453125
2202;276.82318115234375
2203;276.6895446777344
2204;276.55596923828125
2205;276.42242431640625
2206;276.2889404296875
2207;276.155517578125
2208;276.0221252441406
2209;275.8888244628906
2210;275.75555419921875
2211;275.622314453125
2212;275.4891052246094
2213;275.35601806640625
2214;275.2229309082031
2215;275.0898742675781
2216;274.9568786621094
2217;274.8239440917969
2218;274.6910705566406
2219;274.5582580566406
2220;274.4255065917969
2221;274.2927551269531
2222;274.1600646972656
2223;274.0274353027344
2224;273.8948669433594
2225;273.7622985839844
2226;273.6298522949219
2227;273.4974060058594
2228;273.36505126953125
2229;273.232666015625
2230;273.1003723144531
2231;272.9681701660156
2232;272.8359680175781
2233;272.7038269042969
2234;272.5717468261719
2235;272.439697265625
2236;272.30767822265625
2237;272.17572021484375
2238;272.0438537597656
2239;271.91204833984375
2240;271.78021240234375
2241;271.6484680175781
2242;271.5167541503906
2243;271.3851623535156
2244;271.2535095214844
2245;271.1219787597656
2246;270.9904479980469
2247;270.8590087890625
2248;270.72760009765625
2249;270.59625244140625
2250;270.4649353027344
2251;270.3337097167969
2252;270.2024841308594
2253;270.0713195800781
2254;269.940185546875
2255;269.80914306640625
2256;269.6781311035156
2257;269.54718017578125
2258;269.4162292480469
2259;269.285400390625
2260;269.1545715332031
2261;269.0237731933594
2262;268.8930969238281
2263;268.7624206542969
2264;268.6318054199219
2265;268.5011901855469
2266;268.3706970214844
2267;268.240234375
2268;268.1097717285156
2269;267.97943115234375
2270;267.8490905761719
2271;267.71881103515625
2272;267.5885925292969
2273;267.45843505859375
2274;267.32830810546875
2275;267.19818115234375
2276;267.06817626953125
2277;266.93817138671875
2278;266.8081970214844
2279;266.6783142089844
2280;266.5484924316406
2281;266.418701171875
2282;266.2889709472656
2283;266.15924072265625
2284;266.0296325683594
2285;265.9000549316406
2286;265.7704772949219
2287;265.6410217285156
2288;265.51153564453125
2289;265.3821105957031
2290;265.2527770996094
2291;265.12347412109375
2292;264.99420166015625
2293;264.864990234375
2294;264.7358093261719
2295;264.606689453125
2296;264.4776306152344
2297;264.3486328125
2298;264.2196350097656
2299;264.0907897949219
2300;263.9618835449219
2301;263.8330383300781
2302;263.70428466796875
2303;263.5755615234375
2304;263.4468688964844
2305;263.3182678222656
2306;263.1896667480469
2307;263.06109619140625
2308;262.9326477050781
2309;262.80419921875
2310;262.67578125
2311;262.5474548339844
2312;262.4191589355469
2313;262.2908935546875
2314;262.1626892089844
2315;262.0345764160156
2316;261.90643310546875
2317;261.77838134765625
2318;261.650390625
2319;261.5224304199219
2320;261.39453125
2321;261.26666259765625
2322;261.13885498046875
2323;261.0110778808594
2324;260.88336181640625
2325;260.7557067871094
2326;260.6280822753906
2327;260.5005187988281
2328;260.37298583984375
2329;260.2455139160156
2330;260.1180419921875
2331;259.9906921386719
2332;259.8633728027344
2333;259.736083984375
2334;259.60882568359375
2335;259.48162841796875
2336;259.3544616699219
2337;259.2273864746094
2338;259.100341796875
2339;258.9733581542969
2340;258.84637451171875
2341;258.719482421875
2342;258.5926208496094
2343;258.4658203125
2344;258.33905029296875
2345;258.21234130859375
2346;258.0856628417969
2347;257.95904541015625
2348;257.8324890136719
2349;257.7059631347656
2350;257.5794982910156
2351;257.4530334472656
2352;257.32666015625
2353;257.2003173828125
2354;257.0740661621094
2355;256.94781494140625
2356;256.8216247558594
2357;256.69549560546875
2358;256.56939697265625
2359;256.4433898925781
2360;256.3173828125
2361;256.19140625
2362;256.06549072265625
2363;255.93966674804688
2364;255.81382751464844
2365;255.68809509277344
2366;255.5623779296875
2367;255.4366912841797
2368;255.31106567382812
2369;255.18551635742188
2370;255.0599822998047
2371;254.9344940185547
2372;254.80908203125
2373;254.68370056152344
2374;254.558349609375
2375;254.4330291748047
2376;254.3077850341797
2377;254.1826171875
2378;254.05746459960938
2379;253.93234252929688
2380;253.8073272705078
2381;253.6822967529297
2382;253.55734252929688
2383;253.43240356445312
2384;253.30752563476562
2385;253.18272399902344
2386;253.0579376220703
2387;252.93321228027344
2388;252.80856323242188
2389;252.6839141845703
2390;252.55931091308594
2391;252.43478393554688
2392;252.310302734375
2393;252.1858673095703
2394;252.0614471435547
2395;251.93711853027344
2396;251.81285095214844
2397;251.6885528564453
2398;251.56436157226562
2399;251.44021606445312
2400;251.3161163330078
2401;251.19203186035156
2402;251.06800842285156
2403;250.9440460205078
2404;250.82009887695312
2405;250.69625854492188
2406;250.57241821289062
2407;250.44862365722656
2408;250.3248748779297
2409;250.20120239257812
2410;250.0775604248047
2411;249.95396423339844
2412;249.83042907714844
2413;249.70689392089844
2414;249.5834197998047
2415;249.46005249023438
2416;249.336669921875
2417;249.21336364746094
2418;249.09010314941406
2419;248.9668731689453
2420;248.8437042236328
2421;248.72056579589844
2422;248.5974884033203
2423;248.4744415283203
2424;248.35145568847656
2425;248.228515625
2426;248.10560607910156
2427;247.98280334472656
2428;247.85997009277344
2429;247.73721313476562
2430;247.61453247070312
2431;247.49185180664062
2432;247.3692169189453
2433;247.2466583251953
2434;247.12413024902344
2435;247.0016632080078
2436;246.8792266845703
2437;246.75685119628906
2438;246.63455200195312
2439;246.51220703125
2440;246.3899688720703
2441;246.26779174804688
2442;246.14564514160156
2443;246.0235137939453
2444;245.90147399902344
2445;245.7794647216797
2446;245.65750122070312
2447;245.5355682373047
2448;245.41368103027344
2449;245.29185485839844
2450;245.17005920410156
2451;245.04832458496094
2452;244.92665100097656
2453;244.80503845214844
2454;244.6833953857422
2455;244.56187438964844
2456;244.4403533935547
2457;244.31887817382812
2458;244.19747924804688
2459;244.0761260986328
2460;243.95480346679688
2461;243.83352661132812
2462;243.71229553222656
2463;243.59109497070312
2464;243.46998596191406
2465;243.34890747070312
2466;243.2278289794922
2467;243.10684204101562
2468;242.9858856201172
2469;242.864990234375
2470;242.744140625
2471;242.62332153320312
2472;242.50259399414062
2473;242.38186645507812
2474;242.2611541748047
2475;242.14059448242188
2476;242.01998901367188
2477;241.89944458007812
2478;241.77894592285156
2479;241.6585235595703
2480;241.53811645507812
2481;241.41775512695312
2482;241.29747009277344
2483;241.17721557617188
2484;241.0569610595703
2485;240.93679809570312
2486;240.81668090820312
2487;240.6966094970703
2488;240.57656860351562
2489;240.45654296875
2490;240.33663940429688
2491;240.2167205810547
2492;240.09689331054688
2493;239.97708129882812
2494;239.85733032226562
2495;239.7375946044922
2496;239.6179656982422
2497;239.498291015625
2498;239.3787384033203
2499;239.2592010498047
2500;239.13975524902344
2501;239.02029418945312
2502;238.90089416503906
2503;238.7815399169922
2504;238.66224670410156
2505;238.54299926757812
2506;238.42379760742188
2507;238.3046112060547
2508;238.18551635742188
2509;238.06643676757812
2510;237.94740295410156
2511;237.82839965820312
2512;237.70947265625
2513;237.590576171875
2514;237.47171020507812
2515;237.35292053222656
2516;237.23416137695312
2517;237.11546325683594
2518;236.99681091308594
2519;236.878173828125
2520;236.75961303710938
2521;236.6410369873047
2522;236.52259826660156
2523;236.40415954589844
2524;236.28575134277344
2525;236.16738891601562
2526;236.04910278320312
2527;235.9308624267578
2528;235.8126220703125
2529;235.6944580078125
2530;235.5763702392578
2531;235.45826721191406
2532;235.34024047851562
2533;235.22227478027344
2534;235.1043243408203
2535;234.98643493652344
2536;234.8685760498047
2537;234.75076293945312
2538;234.63302612304688
2539;234.51528930664062
2540;234.3976287841797
2541;234.280029296875
2542;234.16246032714844
2543;234.04490661621094
2544;233.92739868164062
2545;233.80995178222656
2546;233.6925506591797
2547;233.57522583007812
2548;233.45790100097656
2549;233.34066772460938
2550;233.22341918945312
2551;233.1062774658203
2552;232.98915100097656
2553;232.87205505371094
2554;232.7550048828125
2555;232.63804626464844
2556;232.52108764648438
2557;232.40419006347656
2558;232.28733825683594
2559;232.17051696777344
2560;232.05374145507812
2561;231.93702697753906
2562;231.8203582763672
2563;231.70370483398438
2564;231.58714294433594
2565;231.47059631347656
2566;231.35409545898438
2567;231.2376708984375
2568;231.12124633789062
2569;231.0048828125
2570;230.88856506347656
2571;230.77232360839844
2572;230.6560821533203
2573;230.53988647460938
2574;230.42372131347656
2575;230.3076171875
2576;230.1915740966797
2577;230.0755615234375
2578;229.95960998535156
2579;229.84373474121094
2580;229.7278289794922
2581;229.61203002929688
2582;229.49623107910156
2583;229.3804931640625
2584;229.26478576660156
2585;229.149169921875
2586;229.0335693359375
2587;228.91799926757812
2588;228.802490234375
2589;228.68702697753906
2590;228.57162475585938
2591;228.4562225341797
2592;228.34091186523438
2593;228.22561645507812
2594;228.11038208007812
2595;227.9951934814453
2596;227.88002014160156
2597;227.764892578125
2598;227.6498260498047
2599;227.53480529785156
2600;227.4198455810547
2601;227.30490112304688
2602;227.1900177001953
2603;227.07518005371094
2604;226.9603729248047
2605;226.8456573486328
2606;226.73092651367188
2607;226.6162567138672
2608;226.50161743164062
2609;226.38706970214844
2610;226.2725372314453
2611;226.1580047607422
2612;226.04359436035156
2613;225.92919921875
2614;225.81483459472656
2615;225.7005157470703
2616;225.5862579345703
2617;225.47203063964844
2618;225.3578643798828
2619;225.2437286376953
2620;225.12962341308594
2621;225.01559448242188
2622;224.90158081054688
2623;224.78762817382812
2624;224.67372131347656
2625;224.55982971191406
2626;224.446044921875
2627;224.33226013183594
2628;224.218505859375
2629;224.10484313964844
2630;223.99118041992188
2631;223.8775634765625
2632;223.76400756835938
2633;223.65052795410156
2634;223.53700256347656
2635;223.42361450195312
2636;223.31021118164062
2637;223.19688415527344
2638;223.08358764648438
2639;222.97032165527344
2640;222.85714721679688
2641;222.7439727783203
2642;222.630859375
2643;222.51779174804688
2644;222.4047088623047
2645;222.29173278808594
2646;222.1787872314453
2647;222.06590270996094
2648;221.9530487060547
2649;221.84024047851562
2650;221.7274627685547
2651;221.61476135253906
2652;221.50205993652344
2653;221.38943481445312
2654;221.27684020996094
2655;221.16429138183594
2656;221.05178833007812
2657;220.9393310546875
2658;220.82688903808594
2659;220.7145233154297
2660;220.60218811035156
2661;220.4899139404297
2662;220.37767028808594
2663;220.26548767089844
2664;220.1533203125
2665;220.0412139892578
2666;219.9291229248047
2667;219.817138671875
2668;219.7051544189453
2669;219.59323120117188
2670;219.4813232421875
2671;219.36947631835938
2672;219.25767517089844
2673;219.1459197998047
2674;219.03421020507812
2675;218.9225311279297
2676;218.8109130859375
2677;218.69932556152344
2678;218.5877685546875
2679;218.4762725830078
2680;218.3648223876953
2681;218.25341796875
2682;218.1420440673828
2683;218.03073120117188
2684;217.91943359375
2685;217.8081817626953
2686;217.6969757080078
2687;217.5858612060547
2688;217.47474670410156
2689;217.36366271972656
2690;217.25265502929688
2691;217.1416778564453
2692;217.03074645996094
2693;216.9198760986328
2694;216.8090057373047
2695;216.69821166992188
2696;216.5874481201172
2697;216.47669982910156
2698;216.36607360839844
2699;216.25546264648438
2700;216.1448516845703
2701;216.03431701660156
2702;215.92379760742188
2703;215.8133544921875
2704;215.70291137695312
2705;215.59254455566406
2706;215.4822235107422
2707;215.37193298339844
2708;215.26168823242188
2709;215.15150451660156
2710;215.0413360595703
2711;214.9312744140625
2712;214.82118225097656
2713;214.71115112304688
2714;214.60116577148438
2715;214.49124145507812
2716;214.38134765625
2717;214.27151489257812
2718;214.16172790527344
2719;214.0519256591797
2720;213.94224548339844
2721;213.83255004882812
2722;213.722900390625
2723;213.61329650878906
2724;213.5037841796875
2725;213.39425659179688
2726;213.2847900390625
2727;213.1753692626953
2728;213.06600952148438
2729;212.95664978027344
2730;212.84738159179688
2731;212.73812866210938
2732;212.62890625
2733;212.51974487304688
2734;212.41064453125
2735;212.3015594482422
2736;212.19253540039062
2737;212.0835418701172
2738;211.974609375
2739;211.86569213867188
2740;211.75682067871094
2741;211.6480255126953
2742;211.5392303466797
2743;211.4304962158203
2744;211.32180786132812
2745;211.2131805419922
2746;211.10458374023438
2747;210.9960174560547
2748;210.88748168945312
2749;210.77902221679688
2750;210.6705780029297
2751;210.5621795654297
2752;210.45384216308594
2753;210.34555053710938
2754;210.23731994628906
2755;210.1290740966797
2756;210.02090454101562
2757;209.9127655029297
2758;209.8046875
2759;209.69662475585938
2760;209.588623046875
2761;209.48068237304688
2762;209.37277221679688
2763;209.26487731933594
2764;209.1570587158203
2765;209.04928588867188
2766;208.94151306152344
2767;208.8338165283203
2768;208.72616577148438
2769;208.61854553222656
2770;208.51097106933594
2771;208.40342712402344
2772;208.2959442138672
2773;208.18849182128906
2774;208.08108520507812
2775;207.97372436523438
2776;207.8663787841797
2777;207.75912475585938
2778;207.65188598632812
2779;207.54470825195312
2780;207.43753051757812
2781;207.33042907714844
2782;207.22335815429688
2783;207.11631774902344
2784;207.0093536376953
2785;206.9023895263672
2786;206.79554748535156
2787;206.6886749267578
2788;206.5818634033203
2789;206.47509765625
2790;206.3683624267578
2791;206.26168823242188
2792;206.15504455566406
2793;206.04844665527344
2794;205.94187927246094
2795;205.83535766601562
2796;205.7288818359375
2797;205.6224365234375
2798;205.51608276367188
2799;205.4097137451172
2800;205.3034210205078
2801;205.19715881347656
2802;205.0909423828125
2803;204.98475646972656
2804;204.87863159179688
2805;204.77255249023438
2806;204.66650390625
2807;204.5605010986328
2808;204.4545440673828
2809;204.3486328125
2810;204.2427520751953
2811;204.1368865966797
2812;204.03111267089844
2813;203.9253387451172
2814;203.8196563720703
2815;203.71397399902344
2816;203.6083221435547
2817;203.5027618408203
2818;203.397216796875
2819;203.2917022705078
2820;203.18624877929688
2821;203.08084106445312
2822;202.9754638671875
2823;202.87013244628906
2824;202.7648468017578
2825;202.6595916748047
2826;202.5543975830078
2827;202.44924926757812
2828;202.3441162109375
2829;202.23904418945312
2830;202.13400268554688
2831;202.02902221679688
2832;201.92405700683594
2833;201.8191680908203
2834;201.7142333984375
2835;201.6094512939453
2836;201.50466918945312
2837;201.39990234375
2838;201.2952117919922
2839;201.19056701660156
2840;201.0859375
2841;200.9813690185547
2842;200.87684631347656
2843;200.77235412597656
2844;200.6679229736328
2845;200.56349182128906
2846;200.45913696289062
2847;200.3548126220703
2848;200.25051879882812
2849;200.14627075195312
2850;200.04209899902344
2851;199.9379119873047
2852;199.8338165283203
2853;199.72975158691406
2854;199.62571716308594
2855;199.521728515625
2856;199.4177703857422
2857;199.31387329101562
2858;199.20999145507812
2859;199.106201171875
2860;199.00241088867188
2861;198.89866638183594
2862;198.79495239257812
2863;198.69131469726562
2864;198.5876922607422
2865;198.48411560058594
2866;198.380615234375
2867;198.27711486816406
2868;198.17369079589844
2869;198.07028198242188
2870;197.96690368652344
2871;197.8636016845703
2872;197.76028442382812
2873;197.6570587158203
2874;197.55384826660156
2875;197.45068359375
2876;197.3475799560547
2877;197.24449157714844
2878;197.14146423339844
2879;197.03846740722656
2880;196.93553161621094
2881;196.83261108398438
2882;196.72975158691406
2883;196.62693786621094
2884;196.52415466308594
2885;196.42141723632812
2886;196.3187255859375
2887;196.21607971191406
2888;196.11343383789062
2889;196.01087951660156
2890;195.90834045410156
2891;195.8058319091797
2892;195.70339965820312
2893;195.6009979248047
2894;195.49862670898438
2895;195.3963165283203
2896;195.29403686523438
2897;195.19178771972656
2898;195.08958435058594
2899;194.9874267578125
2900;194.88528442382812
2901;194.78323364257812
2902;194.68118286132812
2903;194.5791778564453
2904;194.4772186279297
2905;194.3753204345703
2906;194.2734375
2907;194.17161560058594
2908;194.06982421875
2909;193.9680938720703
2910;193.8664093017578
2911;193.76473999023438
2912;193.66311645507812
2913;193.56153869628906
2914;193.45997619628906
2915;193.35848999023438
2916;193.2570343017578
2917;193.15562438964844
2918;193.05422973632812
2919;192.95291137695312
2920;192.85159301757812
2921;192.75035095214844
2922;192.64913940429688
2923;192.54795837402344
2924;192.4468536376953
2925;192.34573364257812
2926;192.2447052001953
2927;192.14369201660156
2928;192.04273986816406
2929;191.94180297851562
2930;191.8409423828125
2931;191.74008178710938
2932;191.63929748535156
2933;191.5385284423828
2934;191.4377899169922
2935;191.33712768554688
2936;191.2364959716797
2937;191.13587951660156
2938;191.03529357910156
2939;190.934814453125
2940;190.83432006835938
2941;190.73388671875
2942;190.6334991455078
2943;190.5331268310547
2944;190.43283081054688
2945;190.3325653076172
2946;190.23233032226562
2947;190.13217163085938
2948;190.03201293945312
2949;189.93191528320312
2950;189.8318328857422
2951;189.7318115234375
2952;189.6318359375
2953;189.53189086914062
2954;189.4320068359375
2955;189.33212280273438
2956;189.23231506347656
2957;189.13253784179688
2958;189.0327911376953
2959;188.93310546875
2960;188.8334197998047
2961;188.7338104248047
2962;188.63426208496094
2963;188.53469848632812
2964;188.43521118164062
2965;188.3357696533203
2966;188.23634338378906
2967;188.13699340820312
2968;188.0376434326172
2969;187.93836975097656
2970;187.83912658691406
2971;187.73989868164062
2972;187.64073181152344
2973;187.5416259765625
2974;187.44252014160156
2975;187.34349060058594
2976;187.24447631835938
2977;187.1455078125
2978;187.04660034179688
2979;186.9477081298828
2980;186.84884643554688
2981;186.7500457763672
2982;186.65127563476562
2983;186.5525665283203
2984;186.4539031982422
2985;186.35523986816406
2986;186.2566375732422
2987;186.15811157226562
2988;186.0595703125
2989;185.9611053466797
2990;185.86268615722656
2991;185.76425170898438
2992;185.66590881347656
2993;185.56759643554688
2994;185.46932983398438
2995;185.37107849121094
2996;185.2729034423828
2997;185.1747283935547
2998;185.0766143798828
2999;184.97854614257812
