;loss
0;844.2637329101562
1;843.9549560546875
2;843.59814453125
3;843.18212890625
4;842.7655639648438
5;842.3483276367188
6;841.9306640625
7;841.5122680664062
8;841.0993041992188
9;840.6834716796875
10;840.2633056640625
11;839.8424682617188
12;839.4204711914062
13;838.9967651367188
14;838.5737915039062
15;838.1499633789062
16;837.7222290039062
17;837.2930908203125
18;836.8628540039062
19;836.4356689453125
20;836.0029907226562
21;835.5692749023438
22;835.1343994140625
23;834.6983032226562
24;834.2662353515625
25;833.8331298828125
26;833.3938598632812
27;832.9534301757812
28;832.51171875
29;832.0740966796875
30;831.6301879882812
31;831.1902465820312
32;830.7438354492188
33;830.3013916015625
34;829.8525390625
35;829.4024658203125
36;828.951171875
37;828.4985961914062
38;828.0446166992188
39;827.5894165039062
40;827.1328125
41;826.6749267578125
42;826.2202758789062
43;825.7596435546875
44;825.2975463867188
45;824.8385620117188
46;824.3735961914062
47;823.9072265625
48;823.439453125
49;822.974609375
50;822.5038452148438
51;822.0360107421875
52;821.5625
53;821.08740234375
54;820.6110229492188
55;820.1331176757812
56;819.6575927734375
57;819.1806030273438
58;818.7021484375
59;818.2183227539062
60;817.7367553710938
61;817.2537841796875
62;816.7692260742188
63;816.2830810546875
64;815.7954711914062
65;815.3028564453125
66;814.8121948242188
67;814.3200073242188
68;813.8264770507812
69;813.3313598632812
70;812.8346557617188
71;812.3331298828125
72;811.8334350585938
73;811.3321533203125
74;810.8294677734375
75;810.3251953125
76;809.8162841796875
77;809.3058471679688
78;808.7971801757812
79;808.2838745117188
80;807.7692260742188
81;807.2532348632812
82;806.7357177734375
83;806.2166748046875
84;805.6962890625
85;805.1744384765625
86;804.6541137695312
87;804.1322021484375
88;803.6060180664062
89;803.0811157226562
90;802.5547485351562
91;802.0241088867188
92;801.4920043945312
93;800.9611206054688
94;800.4262084960938
95;799.8924560546875
96;799.3546142578125
97;798.8179931640625
98;798.2772827148438
99;797.7350463867188
100;797.19140625
101;796.6463623046875
102;796.0997314453125
103;795.5541381835938
104;795.0070190429688
105;794.4583740234375
106;793.9082641601562
107;793.3541259765625
108;792.7984619140625
109;792.2413330078125
110;791.6826782226562
111;791.1224975585938
112;790.5656127929688
113;790.0076904296875
114;789.4483032226562
115;788.8876953125
116;788.3257446289062
117;787.7646484375
118;787.1997680664062
119;786.6357421875
120;786.0679931640625
121;785.5010375976562
122;784.9303588867188
123;784.3585205078125
124;783.7861938476562
125;783.2141723632812
126;782.6427001953125
127;782.0697631835938
128;781.4932861328125
129;780.9173583984375
130;780.3377075195312
131;779.7564086914062
132;779.1737060546875
133;778.5891723632812
134;778.0050659179688
135;777.4173583984375
136;776.8278198242188
137;776.2386474609375
138;775.6455688476562
139;775.0507202148438
140;774.4546508789062
141;773.8590698242188
142;773.2597045898438
143;772.6586303710938
144;772.0555419921875
145;771.4505615234375
146;770.8436279296875
147;770.2367553710938
148;769.6259765625
149;769.0151977539062
150;768.4053955078125
151;767.7969970703125
152;767.1870727539062
153;766.5775756835938
154;765.9646606445312
155;765.3502197265625
156;764.7340698242188
157;764.1163330078125
158;763.4967651367188
159;762.87744140625
160;762.2544555664062
161;761.6296997070312
162;761.0047607421875
163;760.3780517578125
164;759.7493896484375
165;759.1171264648438
166;758.4848022460938
167;757.8518676757812
168;757.2188720703125
169;756.5842895507812
170;755.9479370117188
171;755.3098754882812
172;754.6697998046875
173;754.0262451171875
174;753.3823852539062
175;752.7403564453125
176;752.0957641601562
177;751.4494018554688
178;750.8030395507812
179;750.15478515625
180;749.5047607421875
181;748.8512573242188
182;748.1964721679688
183;747.5398559570312
184;746.8812866210938
185;746.2210083007812
186;745.55859375
187;744.8942260742188
188;744.2280883789062
189;743.5601196289062
190;742.8917236328125
191;742.2212524414062
192;741.5487060546875
193;740.8726196289062
194;740.1944580078125
195;739.5144653320312
196;738.833984375
197;738.1514282226562
198;737.4652709960938
199;736.7769775390625
200;736.0880737304688
201;735.3970336914062
202;734.7022705078125
203;734.0069580078125
204;733.3095092773438
205;732.6082763671875
206;731.9066162109375
207;731.2012939453125
208;730.4939575195312
209;729.7844848632812
210;729.07275390625
211;728.3589477539062
212;727.6428833007812
213;726.9248657226562
214;726.2072143554688
215;725.4874267578125
216;724.7656860351562
217;724.0416259765625
218;723.3169555664062
219;722.5906982421875
220;721.8629760742188
221;721.1319580078125
222;720.4005126953125
223;719.6656494140625
224;718.9306640625
225;718.1936645507812
226;717.4549560546875
227;716.7144775390625
228;715.97265625
229;715.2325439453125
230;714.4949340820312
231;713.7557983398438
232;713.0153198242188
233;712.2732543945312
234;711.5283203125
235;710.7816162109375
236;710.0336303710938
237;709.2841796875
238;708.5347290039062
239;707.7822265625
240;707.0294189453125
241;706.2736206054688
242;705.5161743164062
243;704.7571411132812
244;703.9977416992188
245;703.2366333007812
246;702.4738159179688
247;701.7080078125
248;700.94189453125
249;700.17626953125
250;699.4164428710938
251;698.6587524414062
252;697.8988037109375
253;697.1383056640625
254;696.3801879882812
255;695.6212768554688
256;694.8616943359375
257;694.1014404296875
258;693.3418579101562
259;692.5818481445312
260;691.8204345703125
261;691.0610961914062
262;690.3018798828125
263;689.5415649414062
264;688.7825317382812
265;688.0225830078125
266;687.2623291015625
267;686.5033569335938
268;685.7457885742188
269;684.9888305664062
270;684.2333984375
271;683.4793090820312
272;682.7238159179688
273;681.9697265625
274;681.2153930664062
275;680.4609375
276;679.7049560546875
277;678.9494018554688
278;678.1940307617188
279;677.4408569335938
280;676.6932373046875
281;675.9469604492188
282;675.2017211914062
283;674.4581909179688
284;673.7149047851562
285;672.9766845703125
286;672.2421264648438
287;671.509765625
288;670.7786865234375
289;670.0477905273438
290;669.3197631835938
291;668.5947265625
292;667.87255859375
293;667.154296875
294;666.4400024414062
295;665.7276611328125
296;665.02197265625
297;664.3201293945312
298;663.6202392578125
299;662.9295654296875
300;662.2426147460938
301;661.5590209960938
302;660.8812866210938
303;660.2064819335938
304;659.5421752929688
305;658.8829345703125
306;658.2290649414062
307;657.5814819335938
308;656.9380493164062
309;656.3002319335938
310;655.6668090820312
311;655.0358276367188
312;654.408203125
313;653.7838745117188
314;653.1637573242188
315;652.5554809570312
316;651.9520263671875
317;651.3534545898438
318;650.7594604492188
319;650.16943359375
320;649.5834350585938
321;649.0013427734375
322;648.4218139648438
323;647.8462524414062
324;647.2778930664062
325;646.7147216796875
326;646.1555786132812
327;645.6004638671875
328;645.0479736328125
329;644.4994506835938
330;643.9540405273438
331;643.4120483398438
332;642.8732299804688
333;642.3392944335938
334;641.8099975585938
335;641.2841186523438
336;640.76220703125
337;640.2445678710938
338;639.7294311523438
339;639.2179565429688
340;638.7096557617188
341;638.2042846679688
342;637.7027587890625
343;637.2046508789062
344;636.7125854492188
345;636.22412109375
346;635.7388305664062
347;635.2575073242188
348;634.7791748046875
349;634.3040771484375
350;633.8311767578125
351;633.3624267578125
352;632.8964233398438
353;632.4338989257812
354;631.9747314453125
355;631.5179443359375
356;631.0636596679688
357;630.6124877929688
358;630.1644897460938
359;629.7203979492188
360;629.2791748046875
361;628.8399658203125
362;628.4035034179688
363;627.9703369140625
364;627.5396728515625
365;627.1115112304688
366;626.6861572265625
367;626.2621459960938
368;625.8402099609375
369;625.4204711914062
370;625.0036010742188
371;624.5882568359375
372;624.1753540039062
373;623.7643432617188
374;623.3555297851562
375;622.9487915039062
376;622.5439453125
377;622.1405029296875
378;621.7387084960938
379;621.3397827148438
380;620.9422607421875
381;620.5467529296875
382;620.15234375
383;619.7603149414062
384;619.3702392578125
385;618.9821166992188
386;618.5955200195312
387;618.2127075195312
388;617.8314819335938
389;617.4520874023438
390;617.0736694335938
391;616.6969604492188
392;616.3218994140625
393;615.9486694335938
394;615.5763549804688
395;615.2053833007812
396;614.8355102539062
397;614.4669189453125
398;614.0997314453125
399;613.7337646484375
400;613.3692626953125
401;613.005859375
402;612.6431884765625
403;612.2816772460938
404;611.9212036132812
405;611.5616455078125
406;611.2034912109375
407;610.8462524414062
408;610.4900512695312
409;610.1348266601562
410;609.7805786132812
411;609.4276733398438
412;609.0753173828125
413;608.7240600585938
414;608.3746337890625
415;608.0264892578125
416;607.6791381835938
417;607.3325805664062
418;606.9868774414062
419;606.6426391601562
420;606.2991333007812
421;605.9566040039062
422;605.6152954101562
423;605.27490234375
424;604.9352416992188
425;604.59619140625
426;604.2582397460938
427;603.9205932617188
428;603.583984375
429;603.2481079101562
430;602.9129028320312
431;602.5785522460938
432;602.2455444335938
433;601.9134521484375
434;601.5821533203125
435;601.2513427734375
436;600.9212646484375
437;600.5919799804688
438;600.2635498046875
439;599.9360961914062
440;599.6090698242188
441;599.2830810546875
442;598.9576416015625
443;598.6329345703125
444;598.3088989257812
445;597.9854736328125
446;597.6627807617188
447;597.3410034179688
448;597.0194702148438
449;596.6986694335938
450;596.3787841796875
451;596.0591430664062
452;595.7403564453125
453;595.4220581054688
454;595.1046142578125
455;594.7877807617188
456;594.4716186523438
457;594.1563110351562
458;593.8413696289062
459;593.5274658203125
460;593.2138671875
461;592.9010620117188
462;592.5886840820312
463;592.2769165039062
464;591.9656982421875
465;591.6553344726562
466;591.345703125
467;591.0363159179688
468;590.7275390625
469;590.4192504882812
470;590.1116943359375
471;589.8047485351562
472;589.4982299804688
473;589.1920776367188
474;588.8863525390625
475;588.5814819335938
476;588.2769775390625
477;587.9727783203125
478;587.6690673828125
479;587.3660888671875
480;587.0633544921875
481;586.7613525390625
482;586.4598999023438
483;586.1588134765625
484;585.8583374023438
485;585.5582885742188
486;585.2586669921875
487;584.9598388671875
488;584.6614379882812
489;584.3632202148438
490;584.0657348632812
491;583.7686157226562
492;583.4720458984375
493;583.1759643554688
494;582.8803100585938
495;582.5853271484375
496;582.2904663085938
497;581.9961547851562
498;581.7024536132812
499;581.4088745117188
500;581.11572265625
501;580.8230590820312
502;580.5309448242188
503;580.239013671875
504;579.947509765625
505;579.6563110351562
506;579.3656005859375
507;579.0752563476562
508;578.7852783203125
509;578.4956665039062
510;578.2064208984375
511;577.9178466796875
512;577.62939453125
513;577.34130859375
514;577.0537719726562
515;576.7664794921875
516;576.4795532226562
517;576.19287109375
518;575.9066772460938
519;575.6207885742188
520;575.3352661132812
521;575.050048828125
522;574.7655029296875
523;574.4808959960938
524;574.1969604492188
525;573.9134521484375
526;573.6300659179688
527;573.3470458984375
528;573.0643920898438
529;572.7822265625
530;572.50048828125
531;572.2188720703125
532;571.9378662109375
533;571.6571044921875
534;571.376708984375
535;571.0966796875
536;570.8169555664062
537;570.53759765625
538;570.2586669921875
539;569.9797973632812
540;569.7012329101562
541;569.4231567382812
542;569.1454467773438
543;568.8682250976562
544;568.5911865234375
545;568.314453125
546;568.0382080078125
547;567.7620849609375
548;567.4862670898438
549;567.2108154296875
550;566.9357299804688
551;566.6609497070312
552;566.3863525390625
553;566.1123657226562
554;565.8384399414062
555;565.5648193359375
556;565.2914428710938
557;565.0183715820312
558;564.7456665039062
559;564.4732666015625
560;564.2011108398438
561;563.9290771484375
562;563.6574096679688
563;563.3860473632812
564;563.1148681640625
565;562.8441772460938
566;562.5736083984375
567;562.303466796875
568;562.033447265625
569;561.7636108398438
570;561.4940795898438
571;561.2247924804688
572;560.9559936523438
573;560.6873779296875
574;560.4191284179688
575;560.1510009765625
576;559.8832397460938
577;559.6156616210938
578;559.3482666015625
579;559.0811767578125
580;558.8142700195312
581;558.5475463867188
582;558.2811889648438
583;558.01513671875
584;557.7493896484375
585;557.4835815429688
586;557.2180786132812
587;556.9528198242188
588;556.68798828125
589;556.4234008789062
590;556.1590576171875
591;555.8948974609375
592;555.6309814453125
593;555.3673706054688
594;555.10400390625
595;554.8408813476562
596;554.5780639648438
597;554.3154907226562
598;554.0529174804688
599;553.7907104492188
600;553.5286865234375
601;553.2667846679688
602;553.0052490234375
603;552.7437744140625
604;552.4827270507812
605;552.2218017578125
606;551.9613037109375
607;551.7010498046875
608;551.4410400390625
609;551.1813354492188
610;550.921875
611;550.6625366210938
612;550.4036865234375
613;550.144775390625
614;549.8863525390625
615;549.6279907226562
616;549.3700561523438
617;549.1121826171875
618;548.8545532226562
619;548.59716796875
620;548.3402099609375
621;548.0835571289062
622;547.8270263671875
623;547.57080078125
624;547.3146362304688
625;547.058837890625
626;546.8031005859375
627;546.5477294921875
628;546.2925415039062
629;546.0374755859375
630;545.78271484375
631;545.528076171875
632;545.2737426757812
633;545.0195922851562
634;544.765625
635;544.5118408203125
636;544.2583618164062
637;544.0048828125
638;543.7517700195312
639;543.4986572265625
640;543.2459716796875
641;542.9932250976562
642;542.7408447265625
643;542.4886474609375
644;542.2367553710938
645;541.9850463867188
646;541.7333984375
647;541.48193359375
648;541.2308349609375
649;540.9797973632812
650;540.7290649414062
651;540.4784545898438
652;540.2280883789062
653;539.9779052734375
654;539.7278442382812
655;539.4780883789062
656;539.2283935546875
657;538.9788818359375
658;538.7295532226562
659;538.48046875
660;538.2315063476562
661;537.982666015625
662;537.7341918945312
663;537.48583984375
664;537.23779296875
665;536.9898071289062
666;536.7421875
667;536.49462890625
668;536.2471923828125
669;535.9999389648438
670;535.7528076171875
671;535.5059204101562
672;535.2591552734375
673;535.0126342773438
674;534.7662353515625
675;534.5200805664062
676;534.274169921875
677;534.0284423828125
678;533.7828979492188
679;533.5375366210938
680;533.2921142578125
681;533.0471801757812
682;532.80224609375
683;532.5576171875
684;532.31298828125
685;532.0684204101562
686;531.82421875
687;531.5800170898438
688;531.3361206054688
689;531.0923461914062
690;530.8486938476562
691;530.6053466796875
692;530.3619995117188
693;530.1190795898438
694;529.8760986328125
695;529.6332397460938
696;529.3906860351562
697;529.1483154296875
698;528.9060668945312
699;528.6639404296875
700;528.4219970703125
701;528.1802978515625
702;527.9386596679688
703;527.6972045898438
704;527.4561767578125
705;527.215087890625
706;526.9741821289062
707;526.7333984375
708;526.4929809570312
709;526.2525024414062
710;526.01220703125
711;525.7720336914062
712;525.5320434570312
713;525.2921752929688
714;525.0524291992188
715;524.81298828125
716;524.5736083984375
717;524.33447265625
718;524.0955200195312
719;523.8567504882812
720;523.6178588867188
721;523.3792724609375
722;523.1408081054688
723;522.9026489257812
724;522.6644897460938
725;522.4265747070312
726;522.1886596679688
727;521.9509887695312
728;521.7134399414062
729;521.4760131835938
730;521.23876953125
731;521.0017700195312
732;520.7647705078125
733;520.5281372070312
734;520.2915649414062
735;520.0550537109375
736;519.8187866210938
737;519.5824584960938
738;519.3463745117188
739;519.1104125976562
740;518.8746948242188
741;518.6390380859375
742;518.4035034179688
743;518.1681518554688
744;517.9330444335938
745;517.6980590820312
746;517.4630737304688
747;517.2283325195312
748;516.9937133789062
749;516.7593383789062
750;516.5249633789062
751;516.2908935546875
752;516.0568237304688
753;515.8228149414062
754;515.5890502929688
755;515.35546875
756;515.1218872070312
757;514.8884887695312
758;514.6552734375
759;514.4223022460938
760;514.1893920898438
761;513.9566040039062
762;513.7239379882812
763;513.4913330078125
764;513.2589721679688
765;513.0267333984375
766;512.7946166992188
767;512.5626220703125
768;512.3306884765625
769;512.0989990234375
770;511.8674621582031
771;511.6360168457031
772;511.40472412109375
773;511.17352294921875
774;510.9424743652344
775;510.7115783691406
776;510.4807434082031
777;510.2502746582031
778;510.0197448730469
779;509.7893371582031
780;509.5592346191406
781;509.3291015625
782;509.0992736816406
783;508.8694763183594
784;508.63983154296875
785;508.4103088378906
786;508.1809997558594
787;507.95166015625
788;507.7224426269531
789;507.493408203125
790;507.26446533203125
791;507.03564453125
792;506.80706787109375
793;506.5784606933594
794;506.35015869140625
795;506.12200927734375
796;505.8938903808594
797;505.6659240722656
798;505.43804931640625
799;505.21026611328125
800;504.9826965332031
801;504.7552185058594
802;504.52783203125
803;504.30059814453125
804;504.0735168457031
805;503.84649658203125
806;503.6195983886719
807;503.3928527832031
808;503.1662292480469
809;502.9398498535156
810;502.7135314941406
811;502.4873046875
812;502.26116943359375
813;502.03521728515625
814;501.809326171875
815;501.58367919921875
816;501.3580627441406
817;501.13275146484375
818;500.90740966796875
819;500.6822814941406
820;500.45721435546875
821;500.2322692871094
822;500.0074768066406
823;499.78277587890625
824;499.55816650390625
825;499.3336486816406
826;499.10931396484375
827;498.8850402832031
828;498.6609191894531
829;498.43695068359375
830;498.2130432128906
831;497.9894104003906
832;497.76568603515625
833;497.5421447753906
834;497.31878662109375
835;497.09552001953125
836;496.8724060058594
837;496.6494140625
838;496.4264831542969
839;496.20367431640625
840;495.98101806640625
841;495.7585144042969
842;495.53607177734375
843;495.313720703125
844;495.0915222167969
845;494.8693542480469
846;494.6473083496094
847;494.4254455566406
848;494.20367431640625
849;493.9820861816406
850;493.76055908203125
851;493.53924560546875
852;493.3179626464844
853;493.09686279296875
854;492.8758239746094
855;492.6549987792969
856;492.4342346191406
857;492.21356201171875
858;491.9928894042969
859;491.7724609375
860;491.5522155761719
861;491.3318786621094
862;491.11181640625
863;490.8917541503906
864;490.67181396484375
865;490.4520568847656
866;490.2323303222656
867;490.0127258300781
868;489.7933654785156
869;489.573974609375
870;489.3547058105469
871;489.13568115234375
872;488.9166564941406
873;488.6978454589844
874;488.4791564941406
875;488.2604064941406
876;488.0418395996094
877;487.8233947753906
878;487.60504150390625
879;487.3869323730469
880;487.16876220703125
881;486.9508972167969
882;486.73297119140625
883;486.5151062011719
884;486.29742431640625
885;486.0799255371094
886;485.8624572753906
887;485.6451721191406
888;485.4279479980469
889;485.2109069824219
890;484.99383544921875
891;484.77691650390625
892;484.5602111816406
893;484.3435363769531
894;484.126953125
895;483.91046142578125
896;483.6941223144531
897;483.47784423828125
898;483.26177978515625
899;483.04571533203125
900;482.8298034667969
901;482.614013671875
902;482.3982849121094
903;482.18267822265625
904;481.96728515625
905;481.7518005371094
906;481.5365295410156
907;481.3212890625
908;481.1062927246094
909;480.89129638671875
910;480.6763610839844
911;480.4617004394531
912;480.2470703125
913;480.0326232910156
914;479.81817626953125
915;479.6038513183594
916;479.38970947265625
917;479.1756286621094
918;478.9616394042969
919;478.74774169921875
920;478.5340270996094
921;478.3204040527344
922;478.10687255859375
923;477.8934020996094
924;477.68011474609375
925;477.4668884277344
926;477.25384521484375
927;477.0407409667969
928;476.8279113769531
929;476.6150817871094
930;476.40240478515625
931;476.1897277832031
932;475.97723388671875
933;475.7648010253906
934;475.5524597167969
935;475.3401794433594
936;475.1280822753906
937;474.916015625
938;474.7041320800781
939;474.49237060546875
940;474.28057861328125
941;474.06903076171875
942;473.8575134277344
943;473.6461486816406
944;473.434814453125
945;473.22357177734375
946;473.0124816894531
947;472.8014831542969
948;472.5905456542969
949;472.37982177734375
950;472.1691589355469
951;471.9585876464844
952;471.74810791015625
953;471.5377502441406
954;471.32745361328125
955;471.1173400878906
956;470.9072265625
957;470.697265625
958;470.48736572265625
959;470.277587890625
960;470.0679016113281
961;469.85821533203125
962;469.6487121582031
963;469.4392395019531
964;469.22998046875
965;469.0207214355469
966;468.8115234375
967;468.6025390625
968;468.39361572265625
969;468.1847839355469
970;467.97601318359375
971;467.7673034667969
972;467.5587463378906
973;467.3502502441406
974;467.141845703125
975;466.9335632324219
976;466.7253723144531
977;466.5172424316406
978;466.3092346191406
979;466.101318359375
980;465.89349365234375
981;465.6858215332031
982;465.4781799316406
983;465.2707214355469
984;465.0632629394531
985;464.85589599609375
986;464.6486511230469
987;464.44146728515625
988;464.2345275878906
989;464.0275573730469
990;463.8206481933594
991;463.6139221191406
992;463.4072265625
993;463.2006530761719
994;462.9941711425781
995;462.78778076171875
996;462.5814514160156
997;462.37530517578125
998;462.169189453125
999;461.9632263183594
1000;461.75732421875
1001;461.5515441894531
1002;461.3457946777344
1003;461.14013671875
1004;460.9345703125
1005;460.7291564941406
1006;460.5237731933594
1007;460.318603515625
1008;460.1134338378906
1009;459.9084167480469
1010;459.7033996582031
1011;459.4985046386719
1012;459.29376220703125
1013;459.08905029296875
1014;458.8843688964844
1015;458.679931640625
1016;458.47552490234375
1017;458.27117919921875
1018;458.0670471191406
1019;457.86279296875
1020;457.65869140625
1021;457.4547424316406
1022;457.2508239746094
1023;457.04705810546875
1024;456.8434143066406
1025;456.6398010253906
1026;456.436279296875
1027;456.23284912109375
1028;456.02947998046875
1029;455.8262023925781
1030;455.6231384277344
1031;455.4201354980469
1032;455.2171325683594
1033;455.0142517089844
1034;454.81158447265625
1035;454.6088562011719
1036;454.4062805175781
1037;454.2037658691406
1038;454.0013122558594
1039;453.799072265625
1040;453.5968933105469
1041;453.3947448730469
1042;453.1926574707031
1043;452.9907531738281
1044;452.788818359375
1045;452.5870666503906
1046;452.38543701171875
1047;452.1838073730469
1048;451.9823303222656
1049;451.7809143066406
1050;451.5794982910156
1051;451.3782043457031
1052;451.1770935058594
1053;450.9759216308594
1054;450.7750549316406
1055;450.57415771484375
1056;450.37335205078125
1057;450.1726379394531
1058;449.9720153808594
1059;449.771484375
1060;449.5710144042969
1061;449.3706970214844
1062;449.17041015625
1063;448.97021484375
1064;448.7701721191406
1065;448.5700988769531
1066;448.3701171875
1067;448.1702575683594
1068;447.9704895019531
1069;447.7707824707031
1070;447.5711364746094
1071;447.3716125488281
1072;447.1722717285156
1073;446.972900390625
1074;446.773681640625
1075;446.5744934082031
1076;446.3753967285156
1077;446.1764221191406
1078;445.97747802734375
1079;445.77874755859375
1080;445.5799255371094
1081;445.38128662109375
1082;445.18267822265625
1083;444.9841613769531
1084;444.7858581542969
1085;444.5875549316406
1086;444.3892517089844
1087;444.1911315917969
1088;443.9930725097656
1089;443.7950744628906
1090;443.5971374511719
1091;443.39935302734375
1092;443.2016296386719
1093;443.0040588378906
1094;442.8064880371094
1095;442.60906982421875
1096;442.41168212890625
1097;442.21441650390625
1098;442.0172424316406
1099;441.820068359375
1100;441.6230163574219
1101;441.4260559082031
1102;441.2291564941406
1103;441.03240966796875
1104;440.8356628417969
1105;440.6390075683594
1106;440.4425354003906
1107;440.24609375
1108;440.0496520996094
1109;439.85345458984375
1110;439.6572265625
1111;439.4610900878906
1112;439.26507568359375
1113;439.0691223144531
1114;438.8733215332031
1115;438.6775207519531
1116;438.4817810058594
1117;438.28619384765625
1118;438.09063720703125
1119;437.895263671875
1120;437.6999206542969
1121;437.5046081542969
1122;437.30938720703125
1123;437.11431884765625
1124;436.9192810058594
1125;436.7243347167969
1126;436.52947998046875
1127;436.334716796875
1128;436.1399841308594
1129;435.9454040527344
1130;435.75091552734375
1131;435.55645751953125
1132;435.3620300292969
1133;435.167724609375
1134;434.9734802246094
1135;434.7793884277344
1136;434.5852966308594
1137;434.3913269042969
1138;434.1974792480469
1139;434.0036315917969
1140;433.8099060058594
1141;433.6162414550781
1142;433.4226989746094
1143;433.229248046875
1144;433.0358581542969
1145;432.842529296875
1146;432.6492614746094
1147;432.4560852050781
1148;432.2630310058594
1149;432.0700988769531
1150;431.87713623046875
1151;431.68426513671875
1152;431.4914855957031
1153;431.298828125
1154;431.1062316894531
1155;430.9137268066406
1156;430.7213439941406
1157;430.5289611816406
1158;430.3366394042969
1159;430.1444396972656
1160;429.95233154296875
1161;429.7603454589844
1162;429.568359375
1163;429.3764953613281
1164;429.1847229003906
1165;428.9930114746094
1166;428.8014221191406
1167;428.6098327636719
1168;428.4183044433594
1169;428.22698974609375
1170;428.03564453125
1171;427.8443908691406
1172;427.6531677246094
1173;427.4620666503906
1174;427.2710876464844
1175;427.0802307128906
1176;426.88934326171875
1177;426.6985778808594
1178;426.50787353515625
1179;426.31732177734375
1180;426.12677001953125
1181;425.9363098144531
1182;425.7459411621094
1183;425.5556640625
1184;425.365478515625
1185;425.17535400390625
1186;424.9853515625
1187;424.79534912109375
1188;424.60546875
1189;424.4156799316406
1190;424.22589111328125
1191;424.0362854003906
1192;423.8466796875
1193;423.6571960449219
1194;423.4677734375
1195;423.27838134765625
1196;423.089111328125
1197;422.89996337890625
1198;422.7108459472656
1199;422.52178955078125
1200;422.3327941894531
1201;422.1438903808594
1202;421.95513916015625
1203;421.7663879394531
1204;421.5777282714844
1205;421.3891906738281
1206;421.20068359375
1207;421.01226806640625
1208;420.8239440917969
1209;420.63568115234375
1210;420.44744873046875
1211;420.25933837890625
1212;420.0712890625
1213;419.8833312988281
1214;419.6954040527344
1215;419.5075378417969
1216;419.31982421875
1217;419.1321105957031
1218;418.9444885253906
1219;418.7569274902344
1220;418.56951904296875
1221;418.3821105957031
1222;418.1948547363281
1223;418.00762939453125
1224;417.8204650878906
1225;417.63336181640625
1226;417.44635009765625
1227;417.25946044921875
1228;417.0725402832031
1229;416.8857727050781
1230;416.6990661621094
1231;416.5124816894531
1232;416.3259582519531
1233;416.1394958496094
1234;415.95306396484375
1235;415.7666931152344
1236;415.58050537109375
1237;415.3943176269531
1238;415.2082214355469
1239;415.0221862792969
1240;414.8362121582031
1241;414.650390625
1242;414.4645690917969
1243;414.2788391113281
1244;414.09320068359375
1245;413.9075622558594
1246;413.7220153808594
1247;413.5365905761719
1248;413.35125732421875
1249;413.166015625
1250;412.9807434082031
1251;412.7956237792969
1252;412.61053466796875
1253;412.4255065917969
1254;412.2406311035156
1255;412.05584716796875
1256;411.8710632324219
1257;411.6864318847656
1258;411.5018005371094
1259;411.3172302246094
1260;411.1328125
1261;410.9484558105469
1262;410.76409912109375
1263;410.5798645019531
1264;410.39569091796875
1265;410.2116394042969
1266;410.027587890625
1267;409.8435974121094
1268;409.6597595214844
1269;409.4759216308594
1270;409.29217529296875
1271;409.1085510253906
1272;408.9248962402344
1273;408.741455078125
1274;408.5579528808594
1275;408.37457275390625
1276;408.1913146972656
1277;408.00811767578125
1278;407.8249816894531
1279;407.6418762207031
1280;407.45892333984375
1281;407.27593994140625
1282;407.0931091308594
1283;406.9103698730469
1284;406.7276306152344
1285;406.54498291015625
1286;406.3623962402344
1287;406.17987060546875
1288;405.9975280761719
1289;405.81512451171875
1290;405.6328125
1291;405.45062255859375
1292;405.26849365234375
1293;405.08642578125
1294;404.9044494628906
1295;404.7225036621094
1296;404.5406799316406
1297;404.3589172363281
1298;404.1772155761719
1299;403.9955749511719
1300;403.8139953613281
1301;403.6324768066406
1302;403.4510192871094
1303;403.2696838378906
1304;403.08837890625
1305;402.9071960449219
1306;402.7259826660156
1307;402.5449523925781
1308;402.36395263671875
1309;402.18304443359375
1310;402.002197265625
1311;401.8214416503906
1312;401.64068603515625
1313;401.46002197265625
1314;401.2794494628906
1315;401.09893798828125
1316;400.9184875488281
1317;400.73809814453125
1318;400.557861328125
1319;400.377685546875
1320;400.197509765625
1321;400.0174865722656
1322;399.83746337890625
1323;399.65753173828125
1324;399.4776306152344
1325;399.2978210449219
1326;399.1181640625
1327;398.9384460449219
1328;398.7588806152344
1329;398.579345703125
1330;398.3999328613281
1331;398.22052001953125
1332;398.0412292480469
1333;397.8619689941406
1334;397.6828308105469
1335;397.5036926269531
1336;397.3246765136719
1337;397.14569091796875
1338;396.966796875
1339;396.78802490234375
1340;396.6092834472656
1341;396.4306335449219
1342;396.25201416015625
1343;396.073486328125
1344;395.89501953125
1345;395.71661376953125
1346;395.5382995605469
1347;395.3600158691406
1348;395.1818542480469
1349;395.0036926269531
1350;394.82568359375
1351;394.6476745605469
1352;394.4697570800781
1353;394.29193115234375
1354;394.1141662597656
1355;393.93646240234375
1356;393.7587890625
1357;393.58123779296875
1358;393.40374755859375
1359;393.2262878417969
1360;393.04888916015625
1361;392.8716125488281
1362;392.6943664550781
1363;392.5172424316406
1364;392.34014892578125
1365;392.1631774902344
1366;391.9862365722656
1367;391.80938720703125
1368;391.6325988769531
1369;391.4558410644531
1370;391.2791442871094
1371;391.1025695800781
1372;390.9260559082031
1373;390.74957275390625
1374;390.5732116699219
1375;390.39691162109375
1376;390.2205505371094
1377;390.04443359375
1378;389.8682556152344
1379;389.6922302246094
1380;389.5162658691406
1381;389.3403625488281
1382;389.16448974609375
1383;388.9887390136719
1384;388.8130187988281
1385;388.6373596191406
1386;388.4617614746094
1387;388.2862854003906
1388;388.11083984375
1389;387.9353942871094
1390;387.7601013183594
1391;387.5848083496094
1392;387.40966796875
1393;387.2345275878906
1394;387.0594177246094
1395;386.8844909667969
1396;386.70953369140625
1397;386.53472900390625
1398;386.35992431640625
1399;386.1852722167969
1400;386.0105895996094
1401;385.83599853515625
1402;385.6614685058594
1403;385.48699951171875
1404;385.3126525878906
1405;385.1382751464844
1406;384.96405029296875
1407;384.78985595703125
1408;384.6157531738281
1409;384.4416809082031
1410;384.2676696777344
1411;384.09375
1412;383.9198913574219
1413;383.74609375
1414;383.5723571777344
1415;383.3987121582031
1416;383.2251281738281
1417;383.0516052246094
1418;382.878173828125
1419;382.7047424316406
1420;382.5314636230469
1421;382.3581848144531
1422;382.1850280761719
1423;382.0119323730469
1424;381.8388366699219
1425;381.6658630371094
1426;381.49298095703125
1427;381.32012939453125
1428;381.1473083496094
1429;380.974609375
1430;380.80194091796875
1431;380.6293640136719
1432;380.45684814453125
1433;380.28436279296875
1434;380.1119689941406
1435;379.9396667480469
1436;379.7673645019531
1437;379.59521484375
1438;379.4231262207031
1439;379.25103759765625
1440;379.07904052734375
1441;378.9070739746094
1442;378.73516845703125
1443;378.56341552734375
1444;378.39166259765625
1445;378.2200012207031
1446;378.0483703613281
1447;377.8768615722656
1448;377.7053527832031
1449;377.53399658203125
1450;377.3626403808594
1451;377.19134521484375
1452;377.0201721191406
1453;376.8490295410156
1454;376.6779479980469
1455;376.5068664550781
1456;376.33587646484375
1457;376.1650085449219
1458;375.99420166015625
1459;375.82342529296875
1460;375.65277099609375
1461;375.4821472167969
1462;375.3115539550781
1463;375.14105224609375
1464;374.9706726074219
1465;374.8002624511719
1466;374.6299133300781
1467;374.459716796875
1468;374.2895202636719
1469;374.11944580078125
1470;373.9493713378906
1471;373.7793884277344
1472;373.6094665527344
1473;373.4396667480469
1474;373.2698669433594
1475;373.1001281738281
1476;372.9305114746094
1477;372.7608947753906
1478;372.5913391113281
1479;372.4219055175781
1480;372.25250244140625
1481;372.0830993652344
1482;371.9138488769531
1483;371.74462890625
1484;371.5754699707031
1485;371.4064025878906
1486;371.23736572265625
1487;371.0684509277344
1488;370.8995666503906
1489;370.7307434082031
1490;370.56195068359375
1491;370.3932800292969
1492;370.2246398925781
1493;370.0560607910156
1494;369.8875427246094
1495;369.7191467285156
1496;369.55072021484375
1497;369.38238525390625
1498;369.2141418457031
1499;369.04595947265625
