;loss
0;881.9971313476562
1;881.7258911132812
2;881.4560546875
3;881.1878051757812
4;880.9210815429688
5;880.6672973632812
6;880.4115600585938
7;880.1549682617188
8;879.8980102539062
9;879.6389770507812
10;879.3826904296875
11;879.1270141601562
12;878.87255859375
13;878.6195678710938
14;878.3678588867188
15;878.1161499023438
16;877.8673095703125
17;877.6178588867188
18;877.3695678710938
19;877.1224975585938
20;876.8766479492188
21;876.6346435546875
22;876.3912353515625
23;876.15185546875
24;875.9136352539062
25;875.6766357421875
26;875.4407958984375
27;875.2032470703125
28;874.9697265625
29;874.734375
30;874.5029296875
31;874.2723999023438
32;874.0401611328125
33;873.8088989257812
34;873.5785522460938
35;873.3516845703125
36;873.123046875
37;872.8951416015625
38;872.6680908203125
39;872.4440307617188
40;872.220703125
41;871.9955444335938
42;871.7709350585938
43;871.5488891601562
44;871.3274536132812
45;871.1039428710938
46;870.8829345703125
47;870.6622314453125
48;870.4415283203125
49;870.2210083007812
50;870.0005493164062
51;869.7798461914062
52;869.5591430664062
53;869.3363647460938
54;869.1133422851562
55;868.8900756835938
56;868.6664428710938
57;868.4441528320312
58;868.2214965820312
59;867.9981689453125
60;867.7742919921875
61;867.5497436523438
62;867.3244018554688
63;867.0982666015625
64;866.8712158203125
65;866.6434326171875
66;866.4144287109375
67;866.1844482421875
68;865.9515991210938
69;865.7177734375
70;865.4840698242188
71;865.2476196289062
72;865.0112915039062
73;864.7735595703125
74;864.53271484375
75;864.2918701171875
76;864.0477905273438
77;863.8020629882812
78;863.5545654296875
79;863.30517578125
80;863.0537719726562
81;862.8004760742188
82;862.544921875
83;862.2874145507812
84;862.0275268554688
85;861.7669067382812
86;861.5023803710938
87;861.2354125976562
88;860.9673461914062
89;860.6967163085938
90;860.4232788085938
91;860.1470947265625
92;859.8680419921875
93;859.5860595703125
94;859.3009033203125
95;859.0128173828125
96;858.7198486328125
97;858.4251098632812
98;858.12548828125
99;857.82373046875
100;857.5170288085938
101;857.2078857421875
102;856.8935546875
103;856.5765991210938
104;856.2555541992188
105;855.9290161132812
106;855.5980834960938
107;855.2643432617188
108;854.9244384765625
109;854.5814819335938
110;854.2337036132812
111;853.8809814453125
112;853.5232543945312
113;853.1604614257812
114;852.7924194335938
115;852.41748046875
116;852.0385131835938
117;851.6524658203125
118;851.2606201171875
119;850.8643188476562
120;850.4620361328125
121;850.0517578125
122;849.6368408203125
123;849.2154541015625
124;848.7857055664062
125;848.3507080078125
126;847.9087524414062
127;847.4598388671875
128;847.0036010742188
129;846.5400390625
130;846.0689697265625
131;845.5884399414062
132;845.1000366210938
133;844.6054077148438
134;844.1024169921875
135;843.58935546875
136;843.0675659179688
137;842.5369873046875
138;841.9976196289062
139;841.4490966796875
140;840.8931274414062
141;840.3258666992188
142;839.7491455078125
143;839.16455078125
144;838.5680541992188
145;837.9634399414062
146;837.3465576171875
147;836.7191772460938
148;836.0810546875
149;835.4320678710938
150;834.7738647460938
151;834.1024780273438
152;833.4194946289062
153;832.7269897460938
154;832.0224609375
155;831.3059692382812
156;830.5775146484375
157;829.8366088867188
158;829.0831298828125
159;828.3170776367188
160;827.5382080078125
161;826.7440185546875
162;825.9387817382812
163;825.1201171875
164;824.2858276367188
165;823.4404296875
166;822.5814819335938
167;821.7063598632812
168;820.8171997070312
169;819.9165649414062
170;818.9995727539062
171;818.0711059570312
172;817.1259765625
173;816.1693725585938
174;815.1959838867188
175;814.2112426757812
176;813.2120361328125
177;812.1961669921875
178;811.166015625
179;810.1220703125
180;809.064453125
181;807.9931640625
182;806.9083862304688
183;805.8104248046875
184;804.6990356445312
185;803.5748901367188
186;802.4380493164062
187;801.2890014648438
188;800.13037109375
189;798.9570922851562
190;797.775390625
191;796.5799560546875
192;795.3768310546875
193;794.16357421875
194;792.9407348632812
195;791.7086181640625
196;790.46484375
197;789.2153930664062
198;787.9553833007812
199;786.6880493164062
200;785.4166870117188
201;784.1395263671875
202;782.8568115234375
203;781.5670776367188
204;780.2783813476562
205;778.9830932617188
206;777.6849975585938
207;776.3846435546875
208;775.0820922851562
209;773.7784423828125
210;772.4739379882812
211;771.1691284179688
212;769.86767578125
213;768.5673217773438
214;767.2686157226562
215;765.9693603515625
216;764.67724609375
217;763.3939819335938
218;762.1135864257812
219;760.8422241210938
220;759.57373046875
221;758.3135375976562
222;757.0595092773438
223;755.8128051757812
224;754.5737915039062
225;753.3463134765625
226;752.1293334960938
227;750.9243774414062
228;749.7291870117188
229;748.5473022460938
230;747.3755493164062
231;746.2141723632812
232;745.0653686523438
233;743.9270629882812
234;742.7978515625
235;741.6810302734375
236;740.5723266601562
237;739.4754028320312
238;738.3861694335938
239;737.3084716796875
240;736.2401733398438
241;735.1810302734375
242;734.1293334960938
243;733.0888061523438
244;732.0560913085938
245;731.0344848632812
246;730.0220336914062
247;729.0189819335938
248;728.0234375
249;727.0387573242188
250;726.0618896484375
251;725.09765625
252;724.14111328125
253;723.1954345703125
254;722.2589721679688
255;721.3297729492188
256;720.4098510742188
257;719.4990234375
258;718.5986938476562
259;717.7057495117188
260;716.8233642578125
261;715.9502563476562
262;715.0848999023438
263;714.2295532226562
264;713.3826904296875
265;712.5443725585938
266;711.7144165039062
267;710.8923950195312
268;710.0802001953125
269;709.2764892578125
270;708.4799194335938
271;707.6915283203125
272;706.9111328125
273;706.1396484375
274;705.3748779296875
275;704.6178588867188
276;703.8707885742188
277;703.1303100585938
278;702.3969116210938
279;701.6705932617188
280;700.9526977539062
281;700.2411499023438
282;699.5365600585938
283;698.8399658203125
284;698.1500854492188
285;697.4666748046875
286;696.7899169921875
287;696.1194458007812
288;695.4545288085938
289;694.7955932617188
290;694.1434326171875
291;693.4968872070312
292;692.8558959960938
293;692.2196044921875
294;691.5895385742188
295;690.9638061523438
296;690.3436279296875
297;689.7283325195312
298;689.1190185546875
299;688.5140991210938
300;687.9151611328125
301;687.3208618164062
302;686.7303466796875
303;686.1446533203125
304;685.5634765625
305;684.9876098632812
306;684.4153442382812
307;683.8477172851562
308;683.28515625
309;682.7256469726562
310;682.1707763671875
311;681.6187133789062
312;681.0712890625
313;680.5274047851562
314;679.9872436523438
315;679.4507446289062
316;678.9169921875
317;678.3870239257812
318;677.8609008789062
319;677.3372802734375
320;676.8168334960938
321;676.2993774414062
322;675.78515625
323;675.2745971679688
324;674.76708984375
325;674.2623901367188
326;673.7605590820312
327;673.2608642578125
328;672.7647094726562
329;672.2706909179688
330;671.7794189453125
331;671.2908935546875
332;670.8055419921875
333;670.3225708007812
334;669.8413696289062
335;669.3626708984375
336;668.8867797851562
337;668.4132690429688
338;667.9414672851562
339;667.4719848632812
340;667.0045776367188
341;666.5399169921875
342;666.0768432617188
343;665.6158447265625
344;665.1576538085938
345;664.7015380859375
346;664.2474365234375
347;663.794921875
348;663.3442993164062
349;662.8963012695312
350;662.4501953125
351;662.0059814453125
352;661.5635986328125
353;661.1226196289062
354;660.6838989257812
355;660.2470092773438
356;659.8118896484375
357;659.37841796875
358;658.9461669921875
359;658.51611328125
360;658.0872192382812
361;657.6602783203125
362;657.2350463867188
363;656.8116455078125
364;656.3897705078125
365;655.9690551757812
366;655.55029296875
367;655.1331176757812
368;654.7174682617188
369;654.3028564453125
370;653.89013671875
371;653.4783935546875
372;653.0680541992188
373;652.6591186523438
374;652.2515258789062
375;651.8453979492188
376;651.4409790039062
377;651.03759765625
378;650.6359252929688
379;650.2356567382812
380;649.8361206054688
381;649.4380493164062
382;649.0415649414062
383;648.64599609375
384;648.2518310546875
385;647.8588256835938
386;647.4672241210938
387;647.0772094726562
388;646.6881103515625
389;646.3001708984375
390;645.9138793945312
391;645.5283203125
392;645.1444091796875
393;644.7612915039062
394;644.3792724609375
395;643.9983520507812
396;643.6190185546875
397;643.24072265625
398;642.8632202148438
399;642.4871826171875
400;642.1119384765625
401;641.73828125
402;641.3657836914062
403;640.9938354492188
404;640.6234741210938
405;640.2537841796875
406;639.8851928710938
407;639.5180053710938
408;639.1513061523438
409;638.7860717773438
410;638.4217529296875
411;638.05810546875
412;637.69580078125
413;637.3340454101562
414;636.9736328125
415;636.6143798828125
416;636.255859375
417;635.89794921875
418;635.5413818359375
419;635.1856689453125
420;634.8308715820312
421;634.4769287109375
422;634.1237182617188
423;633.7715454101562
424;633.4200439453125
425;633.0694580078125
426;632.7195434570312
427;632.3701171875
428;632.0218505859375
429;631.6742553710938
430;631.3271484375
431;630.9808349609375
432;630.6354370117188
433;630.2908935546875
434;629.9469604492188
435;629.6038208007812
436;629.2610473632812
437;628.9193725585938
438;628.5782470703125
439;628.2378540039062
440;627.8982543945312
441;627.5588989257812
442;627.2202758789062
443;626.8826904296875
444;626.5457763671875
445;626.2091064453125
446;625.8734741210938
447;625.5380859375
448;625.2037353515625
449;624.8696899414062
450;624.5365600585938
451;624.2037353515625
452;623.8715209960938
453;623.5403442382812
454;623.2092895507812
455;622.8792724609375
456;622.5497436523438
457;622.2205200195312
458;621.8921508789062
459;621.564453125
460;621.2373046875
461;620.9103393554688
462;620.5842895507812
463;620.2584838867188
464;619.93359375
465;619.6089477539062
466;619.2848510742188
467;618.9613037109375
468;618.6385498046875
469;618.3161010742188
470;617.9944458007812
471;617.6729736328125
472;617.3524169921875
473;617.0323486328125
474;616.7124633789062
475;616.3934326171875
476;616.0748291015625
477;615.7565307617188
478;615.4390869140625
479;615.1220092773438
480;614.8052368164062
481;614.4892578125
482;614.1734008789062
483;613.8584594726562
484;613.5438232421875
485;613.2297973632812
486;612.9158935546875
487;612.6025390625
488;612.2898559570312
489;611.9774169921875
490;611.6656494140625
491;611.3541870117188
492;611.0433959960938
493;610.7327880859375
494;610.4228515625
495;610.1134033203125
496;609.8041381835938
497;609.4954223632812
498;609.1873168945312
499;608.8796997070312
500;608.5723876953125
501;608.2653198242188
502;607.958984375
503;607.6530151367188
504;607.3475341796875
505;607.04248046875
506;606.7374877929688
507;606.4332885742188
508;606.1292114257812
509;605.8255615234375
510;605.5223388671875
511;605.2197265625
512;604.9175415039062
513;604.6155395507812
514;604.3139038085938
515;604.0126953125
516;603.7117919921875
517;603.41162109375
518;603.1116333007812
519;602.8121948242188
520;602.5128784179688
521;602.2142333984375
522;601.9159545898438
523;601.6180419921875
524;601.3206176757812
525;601.0234985351562
526;600.7265625
527;600.4301147460938
528;600.1342163085938
529;599.8385620117188
530;599.5433349609375
531;599.2484741210938
532;598.9539794921875
533;598.6597290039062
534;598.3660278320312
535;598.0725708007812
536;597.7794189453125
537;597.4864501953125
538;597.1940307617188
539;596.9020385742188
540;596.6100463867188
541;596.3184814453125
542;596.02734375
543;595.7366943359375
544;595.4462890625
545;595.1561279296875
546;594.8662719726562
547;594.5770263671875
548;594.2881469726562
549;593.9994506835938
550;593.7109985351562
551;593.4229736328125
552;593.1351928710938
553;592.8480224609375
554;592.5610961914062
555;592.2743530273438
556;591.9881591796875
557;591.7022705078125
558;591.4164428710938
559;591.1311645507812
560;590.84619140625
561;590.5615234375
562;590.2770385742188
563;589.9930419921875
564;589.7092895507812
565;589.4258422851562
566;589.1427001953125
567;588.8596801757812
568;588.5772094726562
569;588.2950439453125
570;588.0128173828125
571;587.7313232421875
572;587.4500122070312
573;587.1689453125
574;586.8882446289062
575;586.6077880859375
576;586.32763671875
577;586.0475463867188
578;585.7680053710938
579;585.4887084960938
580;585.2095336914062
581;584.9306030273438
582;584.6521606445312
583;584.3738403320312
584;584.0958862304688
585;583.818115234375
586;583.5407104492188
587;583.2634887695312
588;582.9865112304688
589;582.7100219726562
590;582.4337158203125
591;582.1576538085938
592;581.8817749023438
593;581.6063842773438
594;581.3311157226562
595;581.0562133789062
596;580.7813110351562
597;580.5069580078125
598;580.2327880859375
599;579.9588623046875
600;579.6851806640625
601;579.4118041992188
602;579.1385498046875
603;578.865478515625
604;578.5928955078125
605;578.3203735351562
606;578.0482788085938
607;577.7764282226562
608;577.5048217773438
609;577.2334594726562
610;576.9623413085938
611;576.6913452148438
612;576.4205322265625
613;576.1500244140625
614;575.8799438476562
615;575.6099853515625
616;575.3404541015625
617;575.0709838867188
618;574.8018798828125
619;574.5327758789062
620;574.2640991210938
621;573.9954833984375
622;573.7273559570312
623;573.4593505859375
624;573.19140625
625;572.9237060546875
626;572.6564331054688
627;572.3894653320312
628;572.1226196289062
629;571.8558959960938
630;571.58935546875
631;571.3230590820312
632;571.0571899414062
633;570.7915649414062
634;570.5259399414062
635;570.2605590820312
636;569.9955444335938
637;569.7306518554688
638;569.4658813476562
639;569.20166015625
640;568.9373779296875
641;568.673583984375
642;568.4098510742188
643;568.1463623046875
644;567.8831787109375
645;567.6199951171875
646;567.3571166992188
647;567.0945434570312
648;566.8321533203125
649;566.5700073242188
650;566.3081665039062
651;566.04638671875
652;565.7849731445312
653;565.5237426757812
654;565.2626342773438
655;565.0016479492188
656;564.7409057617188
657;564.4804077148438
658;564.2200927734375
659;563.9599609375
660;563.7002563476562
661;563.4404907226562
662;563.18115234375
663;562.921875
664;562.6629638671875
665;562.4041137695312
666;562.1453857421875
667;561.8869018554688
668;561.628662109375
669;561.37060546875
670;561.1128540039062
671;560.8551635742188
672;560.597900390625
673;560.3407592773438
674;560.0838012695312
675;559.8270874023438
676;559.5704345703125
677;559.3140869140625
678;559.0579223632812
679;558.8019409179688
680;558.5462036132812
681;558.2904663085938
682;558.0350952148438
683;557.7799072265625
684;557.5248413085938
685;557.2700805664062
686;557.0152587890625
687;556.7608642578125
688;556.5064697265625
689;556.2523193359375
690;555.9983520507812
691;555.7446899414062
692;555.4912109375
693;555.2379150390625
694;554.98486328125
695;554.7318115234375
696;554.4790649414062
697;554.2262573242188
698;553.9738159179688
699;553.7215576171875
700;553.4694213867188
701;553.2174682617188
702;552.9658203125
703;552.7142333984375
704;552.462890625
705;552.2117919921875
706;551.9608154296875
707;551.7100219726562
708;551.4595336914062
709;551.2090454101562
710;550.9588623046875
711;550.7088623046875
712;550.4589233398438
713;550.2092895507812
714;549.9596557617188
715;549.7103271484375
716;549.4611206054688
717;549.2120971679688
718;548.9631958007812
719;548.7144775390625
720;548.4659423828125
721;548.2176513671875
722;547.9696044921875
723;547.7216796875
724;547.4739379882812
725;547.2264404296875
726;546.9790649414062
727;546.7318725585938
728;546.48486328125
729;546.2379760742188
730;545.9912719726562
731;545.7447509765625
732;545.4984130859375
733;545.2522583007812
734;545.0061645507812
735;544.7603149414062
736;544.5145874023438
737;544.2691040039062
738;544.0238037109375
739;543.7784423828125
740;543.5333251953125
741;543.2885131835938
742;543.0437622070312
743;542.7990112304688
744;542.5546264648438
745;542.3102416992188
746;542.0661010742188
747;541.8222045898438
748;541.5784912109375
749;541.3348388671875
750;541.0913696289062
751;540.8480834960938
752;540.6050415039062
753;540.3621215820312
754;540.1193237304688
755;539.8767700195312
756;539.6341552734375
757;539.3917846679688
758;539.1495971679688
759;538.9075317382812
760;538.6656494140625
761;538.4239501953125
762;538.1823120117188
763;537.9408569335938
764;537.6997680664062
765;537.4585571289062
766;537.2174682617188
767;536.976806640625
768;536.7361450195312
769;536.4955444335938
770;536.2553100585938
771;536.01513671875
772;535.7750244140625
773;535.5350952148438
774;535.29541015625
775;535.0556640625
776;534.8162841796875
777;534.5769653320312
778;534.337890625
779;534.0988159179688
780;533.8599853515625
781;533.6213989257812
782;533.3827514648438
783;533.1444091796875
784;532.9061889648438
785;532.6680908203125
786;532.4302368164062
787;532.1924438476562
788;531.9548950195312
789;531.7174072265625
790;531.4800415039062
791;531.2427368164062
792;531.0056762695312
793;530.768798828125
794;530.531982421875
795;530.2953491210938
796;530.0587158203125
797;529.8223876953125
798;529.5862426757812
799;529.3501586914062
800;529.1141357421875
801;528.8782348632812
802;528.6426391601562
803;528.4071044921875
804;528.1717529296875
805;527.9364013671875
806;527.7012939453125
807;527.4663696289062
808;527.2315673828125
809;526.9968872070312
810;526.7623291015625
811;526.5279541015625
812;526.2936401367188
813;526.0594482421875
814;525.8253173828125
815;525.5914306640625
816;525.3576049804688
817;525.1240234375
818;524.8905029296875
819;524.6570434570312
820;524.4237060546875
821;524.1905517578125
822;523.9576416015625
823;523.724853515625
824;523.4921875
825;523.259521484375
826;523.0271606445312
827;522.7948608398438
828;522.5626220703125
829;522.3305053710938
830;522.0986938476562
831;521.8668823242188
832;521.63525390625
833;521.4037475585938
834;521.1724243164062
835;520.9411010742188
836;520.7100219726562
837;520.4790649414062
838;520.248291015625
839;520.017578125
840;519.7869262695312
841;519.5564575195312
842;519.3260498046875
843;519.0957641601562
844;518.8657836914062
845;518.6358032226562
846;518.406005859375
847;518.1763305664062
848;517.94677734375
849;517.71728515625
850;517.4879150390625
851;517.2587280273438
852;517.0297241210938
853;516.80078125
854;516.5719604492188
855;516.3433227539062
856;516.1148681640625
857;515.8864135742188
858;515.6581420898438
859;515.4299926757812
860;515.2018432617188
861;514.9739990234375
862;514.7461547851562
863;514.5184326171875
864;514.2908935546875
865;514.0633544921875
866;513.8360595703125
867;513.6087646484375
868;513.3817138671875
869;513.1547241210938
870;512.9278564453125
871;512.701171875
872;512.4745483398438
873;512.248046875
874;512.0216674804688
875;511.7955017089844
876;511.5693359375
877;511.34326171875
878;511.1172790527344
879;510.8916015625
880;510.6658630371094
881;510.4403381347656
882;510.21484375
883;509.98956298828125
884;509.7643127441406
885;509.5392761230469
886;509.3143615722656
887;509.0895080566406
888;508.86480712890625
889;508.64019775390625
890;508.4158020019531
891;508.19140625
892;507.96722412109375
893;507.74298095703125
894;507.5188903808594
895;507.2950134277344
896;507.0712585449219
897;506.84759521484375
898;506.62396240234375
899;506.40045166015625
900;506.1770935058594
901;505.9538269042969
902;505.7306823730469
903;505.5075988769531
904;505.28472900390625
905;505.06201171875
906;504.8393859863281
907;504.6167907714844
908;504.3944396972656
909;504.17205810546875
910;503.94989013671875
911;503.7278137207031
912;503.5058288574219
913;503.2839660644531
914;503.0622863769531
915;502.8406677246094
916;502.6192321777344
917;502.3978576660156
918;502.1764831542969
919;501.9553527832031
920;501.7342224121094
921;501.5133972167969
922;501.29254150390625
923;501.07183837890625
924;500.8512268066406
925;500.6307067871094
926;500.4102478027344
927;500.1899108886719
928;499.9697570800781
929;499.7497253417969
930;499.5296325683594
931;499.3097839355469
932;499.0900573730469
933;498.8704528808594
934;498.65093994140625
935;498.43157958984375
936;498.21234130859375
937;497.9930725097656
938;497.7738952636719
939;497.5549621582031
940;497.3360900878906
941;497.1173400878906
942;496.898681640625
943;496.68017578125
944;496.4617614746094
945;496.2434997558594
946;496.0252990722656
947;495.80712890625
948;495.5890197753906
949;495.3711853027344
950;495.1533508300781
951;494.93560791015625
952;494.7180480957031
953;494.50054931640625
954;494.283203125
955;494.0658874511719
956;493.8486328125
957;493.6315612792969
958;493.41455078125
959;493.1977844238281
960;492.98101806640625
961;492.764404296875
962;492.5478515625
963;492.3313903808594
964;492.1150817871094
965;491.8988952636719
966;491.6827697753906
967;491.4666442871094
968;491.250732421875
969;491.0349426269531
970;490.81915283203125
971;490.60345458984375
972;490.3879699707031
973;490.1725769042969
974;489.9572448730469
975;489.7420349121094
976;489.52691650390625
977;489.3118591308594
978;489.09686279296875
979;488.88201904296875
980;488.6672668457031
981;488.45263671875
982;488.23822021484375
983;488.0237121582031
984;487.8094177246094
985;487.59521484375
986;487.3810729980469
987;487.1669921875
988;486.95306396484375
989;486.7392578125
990;486.5256042480469
991;486.31195068359375
992;486.0984191894531
993;485.8850402832031
994;485.6716613769531
995;485.45849609375
996;485.2453308105469
997;485.0323791503906
998;484.8194274902344
999;484.6065979003906
1000;484.3938903808594
1001;484.18121337890625
1002;483.96868896484375
1003;483.75628662109375
1004;483.5439453125
1005;483.3317565917969
1006;483.1195983886719
1007;482.90753173828125
1008;482.6956481933594
1009;482.4838562011719
1010;482.2721252441406
1011;482.06048583984375
1012;481.8489685058594
1013;481.6374816894531
1014;481.4261169433594
1015;481.21478271484375
1016;481.003662109375
1017;480.7926330566406
1018;480.5816955566406
1019;480.3708190917969
1020;480.16009521484375
1021;479.9493713378906
1022;479.73876953125
1023;479.52825927734375
1024;479.3179016113281
1025;479.1075744628906
1026;478.89739990234375
1027;478.6872863769531
1028;478.477294921875
1029;478.2673645019531
1030;478.0576171875
1031;477.8478088378906
1032;477.63818359375
1033;477.4286804199219
1034;477.21923828125
1035;477.00982666015625
1036;476.8006286621094
1037;476.5914611816406
1038;476.38238525390625
1039;476.1734924316406
1040;475.9645690917969
1041;475.7557678222656
1042;475.5470886230469
1043;475.3385314941406
1044;475.1299743652344
1045;474.92156982421875
1046;474.7132263183594
1047;474.50494384765625
1048;474.2967224121094
1049;474.0887756347656
1050;473.8807067871094
1051;473.6728515625
1052;473.465087890625
1053;473.2573547363281
1054;473.0498046875
1055;472.8422546386719
1056;472.6347961425781
1057;472.42742919921875
1058;472.22021484375
1059;472.0130310058594
1060;471.80596923828125
1061;471.59906005859375
1062;471.39208984375
1063;471.1852722167969
1064;470.97857666015625
1065;470.77197265625
1066;470.5654296875
1067;470.3590393066406
1068;470.1526184082031
1069;469.9463806152344
1070;469.74017333984375
1071;469.5341796875
1072;469.32818603515625
1073;469.1223449707031
1074;468.91656494140625
1075;468.71087646484375
1076;468.50518798828125
1077;468.2996520996094
1078;468.09423828125
1079;467.88885498046875
1080;467.6835632324219
1081;467.47845458984375
1082;467.27337646484375
1083;467.06842041015625
1084;466.86346435546875
1085;466.65869140625
1086;466.45404052734375
1087;466.2493591308594
1088;466.0448913574219
1089;465.8404846191406
1090;465.63604736328125
1091;465.4317932128906
1092;465.2275695800781
1093;465.02337646484375
1094;464.81939697265625
1095;464.6155090332031
1096;464.41162109375
1097;464.2078552246094
1098;464.0041809082031
1099;463.8006286621094
1100;463.59716796875
1101;463.393798828125
1102;463.1904296875
1103;462.9873046875
1104;462.7841796875
1105;462.58111572265625
1106;462.3782043457031
1107;462.1753234863281
1108;461.9725646972656
1109;461.76995849609375
1110;461.5672302246094
1111;461.3647766113281
1112;461.1623229980469
1113;460.9599304199219
1114;460.7576599121094
1115;460.55548095703125
1116;460.3534240722656
1117;460.1513671875
1118;459.94952392578125
1119;459.7476501464844
1120;459.5458984375
1121;459.3442077636719
1122;459.1427307128906
1123;458.9411926269531
1124;458.73980712890625
1125;458.53851318359375
1126;458.3372497558594
1127;458.1361389160156
1128;457.93511962890625
1129;457.7341613769531
1130;457.53326416015625
1131;457.33245849609375
1132;457.1318359375
1133;456.93121337890625
1134;456.7306823730469
1135;456.53021240234375
1136;456.329833984375
1137;456.1294860839844
1138;455.92926025390625
1139;455.7291564941406
1140;455.5290832519531
1141;455.3291015625
1142;455.1292419433594
1143;454.929443359375
1144;454.7297058105469
1145;454.5300598144531
1146;454.33056640625
1147;454.1310729980469
1148;453.93170166015625
1149;453.73248291015625
1150;453.53326416015625
1151;453.3341979980469
1152;453.1351623535156
1153;452.9361877441406
1154;452.7372741699219
1155;452.53851318359375
1156;452.33978271484375
1157;452.14111328125
1158;451.9425354003906
1159;451.74407958984375
1160;451.5456848144531
1161;451.347412109375
1162;451.1492004394531
1163;450.95111083984375
1164;450.75299072265625
1165;450.55499267578125
1166;450.3571472167969
1167;450.15936279296875
1168;449.9616394042969
1169;449.7639465332031
1170;449.56640625
1171;449.3689270019531
1172;449.1716003417969
1173;448.9742736816406
1174;448.77703857421875
1175;448.579833984375
1176;448.38275146484375
1177;448.1857604980469
1178;447.9889221191406
1179;447.79205322265625
1180;447.59527587890625
1181;447.39862060546875
1182;447.2019958496094
1183;447.0054626464844
1184;446.80908203125
1185;446.61273193359375
1186;446.4164123535156
1187;446.22021484375
1188;446.0240783691406
1189;445.8280334472656
1190;445.6320495605469
1191;445.43621826171875
1192;445.2403259277344
1193;445.0446472167969
1194;444.8489685058594
1195;444.65350341796875
1196;444.4579772949219
1197;444.2625427246094
1198;444.0671691894531
1199;443.8719787597656
1200;443.6767578125
1201;443.4817199707031
1202;443.28668212890625
1203;443.091796875
1204;442.89691162109375
1205;442.7021484375
1206;442.50750732421875
1207;442.3127746582031
1208;442.1183166503906
1209;441.923828125
1210;441.72943115234375
1211;441.5351257324219
1212;441.34088134765625
1213;441.1467590332031
1214;440.95269775390625
1215;440.7586364746094
1216;440.5647888183594
1217;440.37103271484375
1218;440.17724609375
1219;439.9836120605469
1220;439.7900390625
1221;439.5964660644531
1222;439.4031066894531
1223;439.2097473144531
1224;439.01654052734375
1225;438.8233947753906
1226;438.6302795410156
1227;438.4372253417969
1228;438.24420166015625
1229;438.05133056640625
1230;437.8585510253906
1231;437.6658630371094
1232;437.4731750488281
1233;437.2806091308594
1234;437.0881652832031
1235;436.8957214355469
1236;436.7033386230469
1237;436.5110778808594
1238;436.31890869140625
1239;436.1267395019531
1240;435.9347839355469
1241;435.74285888671875
1242;435.55096435546875
1243;435.3591613769531
1244;435.16748046875
1245;434.9757995605469
1246;434.7842712402344
1247;434.5927734375
1248;434.4013671875
1249;434.21002197265625
1250;434.01873779296875
1251;433.8276062011719
1252;433.6365051269531
1253;433.4455261230469
1254;433.2545471191406
1255;433.0636901855469
1256;432.87286376953125
1257;432.68212890625
1258;432.49151611328125
1259;432.3009338378906
1260;432.1103820800781
1261;431.9199523925781
1262;431.7296447753906
1263;431.5393371582031
1264;431.34912109375
1265;431.15899658203125
1266;430.9689025878906
1267;430.7789611816406
1268;430.5890197753906
1269;430.3992004394531
1270;430.20941162109375
1271;430.0197448730469
1272;429.83013916015625
1273;429.64056396484375
1274;429.45111083984375
1275;429.26171875
1276;429.0724182128906
1277;428.8832092285156
1278;428.6940612792969
1279;428.5049133300781
1280;428.31591796875
1281;428.1269836425781
1282;427.9381408691406
1283;427.7492980957031
1284;427.560546875
1285;427.37188720703125
1286;427.1833190917969
1287;426.9948425292969
1288;426.80645751953125
1289;426.61810302734375
1290;426.4298400878906
1291;426.24163818359375
1292;426.0534362792969
1293;425.8653869628906
1294;425.67742919921875
1295;425.4895324707031
1296;425.30169677734375
1297;425.11395263671875
1298;424.92626953125
1299;424.7386169433594
1300;424.5510559082031
1301;424.3636169433594
1302;424.17620849609375
1303;423.9889221191406
1304;423.80169677734375
1305;423.6144714355469
1306;423.42742919921875
1307;423.24041748046875
1308;423.053466796875
1309;422.86663818359375
1310;422.6797790527344
1311;422.49310302734375
1312;422.30645751953125
1313;422.1198425292969
1314;421.9333190917969
1315;421.7468566894531
1316;421.56048583984375
1317;421.3741760253906
1318;421.18792724609375
1319;421.00177001953125
1320;420.8157043457031
1321;420.62969970703125
1322;420.4437561035156
1323;420.25787353515625
1324;420.0721130371094
1325;419.8863830566406
1326;419.7007141113281
1327;419.51513671875
1328;419.3296203613281
1329;419.1441955566406
1330;418.9588928222656
1331;418.7735290527344
1332;418.58831787109375
1333;418.4031677246094
1334;418.2181091308594
1335;418.0330505371094
1336;417.84814453125
1337;417.66326904296875
1338;417.4784851074219
1339;417.2937316894531
1340;417.1091003417969
1341;416.9244689941406
1342;416.73992919921875
1343;416.5555114746094
1344;416.3711242675781
1345;416.18682861328125
1346;416.0025939941406
1347;415.81842041015625
1348;415.63433837890625
1349;415.45025634765625
1350;415.266357421875
1351;415.08251953125
1352;414.89874267578125
1353;414.7149963378906
1354;414.5312805175781
1355;414.3476867675781
1356;414.1642150878906
1357;413.9807434082031
1358;413.79742431640625
1359;413.6141052246094
1360;413.4309387207031
1361;413.24774169921875
1362;413.0646667480469
1363;412.8816223144531
1364;412.69873046875
1365;412.5157775878906
1366;412.33294677734375
1367;412.1501770019531
1368;411.9674987792969
1369;411.784912109375
1370;411.6023254394531
1371;411.4198913574219
1372;411.2375183105469
1373;411.0551452636719
1374;410.8728942871094
1375;410.6907043457031
1376;410.5086364746094
1377;410.3266296386719
1378;410.14459228515625
1379;409.96270751953125
1380;409.7808532714844
1381;409.5990905761719
1382;409.41741943359375
1383;409.23577880859375
1384;409.05419921875
1385;408.87274169921875
1386;408.6913146972656
1387;408.50994873046875
1388;408.32861328125
1389;408.14739990234375
1390;407.96624755859375
1391;407.7851867675781
1392;407.6042175292969
1393;407.42327880859375
1394;407.2424011230469
1395;407.06158447265625
1396;406.880859375
1397;406.7001953125
1398;406.51959228515625
1399;406.33905029296875
1400;406.1585388183594
1401;405.97821044921875
1402;405.7978515625
1403;405.61761474609375
1404;405.4373474121094
1405;405.25732421875
1406;405.0773010253906
1407;404.89727783203125
1408;404.7173767089844
1409;404.5375671386719
1410;404.3577575683594
1411;404.1780700683594
1412;403.99847412109375
1413;403.81884765625
1414;403.6393127441406
1415;403.45989990234375
1416;403.2804870605469
1417;403.1012268066406
1418;402.9220275878906
1419;402.74285888671875
1420;402.5637512207031
1421;402.38470458984375
1422;402.2057800292969
1423;402.02685546875
1424;401.8479919433594
1425;401.6692199707031
1426;401.49053955078125
1427;401.3119201660156
1428;401.13336181640625
1429;400.95489501953125
1430;400.7764587402344
1431;400.5981750488281
1432;400.4198913574219
1433;400.24169921875
1434;400.06353759765625
1435;399.8854675292969
1436;399.7074279785156
1437;399.52947998046875
1438;399.3515625
1439;399.17376708984375
1440;398.99603271484375
1441;398.818359375
1442;398.6407165527344
1443;398.4631652832031
1444;398.2856750488281
1445;398.1082458496094
1446;397.930908203125
1447;397.753662109375
1448;397.5764465332031
1449;397.39923095703125
1450;397.2221374511719
1451;397.0451354980469
1452;396.8681640625
1453;396.6912536621094
1454;396.514404296875
1455;396.3376770019531
1456;396.1609802246094
1457;395.984375
1458;395.80780029296875
1459;395.63128662109375
1460;395.4548645019531
1461;395.2784729003906
1462;395.1021423339844
1463;394.92596435546875
1464;394.749755859375
1465;394.5736389160156
1466;394.39764404296875
1467;394.2216796875
1468;394.0458068847656
1469;393.8699645996094
1470;393.69415283203125
1471;393.5185241699219
1472;393.34283447265625
1473;393.1672668457031
1474;392.99176025390625
1475;392.81634521484375
1476;392.6409606933594
1477;392.4656677246094
1478;392.29046630859375
1479;392.1152648925781
1480;391.9401550292969
1481;391.76513671875
1482;391.5901184082031
1483;391.415283203125
1484;391.2403869628906
1485;391.0656433105469
1486;390.8908996582031
1487;390.71624755859375
1488;390.5416564941406
1489;390.36712646484375
1490;390.1926574707031
1491;390.0182189941406
1492;389.8439025878906
1493;389.6696472167969
1494;389.49542236328125
1495;389.3212890625
1496;389.147216796875
1497;388.9732360839844
1498;388.7992858886719
1499;388.6253356933594
1500;388.45159912109375
1501;388.27777099609375
1502;388.1040954589844
1503;387.9305114746094
1504;387.7569274902344
1505;387.5834655761719
1506;387.40997314453125
1507;387.23663330078125
1508;387.0633239746094
1509;386.89013671875
1510;386.7170104980469
1511;386.5438537597656
1512;386.370849609375
1513;386.1979064941406
1514;386.0249328613281
1515;385.85211181640625
1516;385.6793518066406
1517;385.506591796875
1518;385.333984375
1519;385.1614074707031
1520;384.98883056640625
1521;384.8163757324219
1522;384.6440124511719
1523;384.47161865234375
1524;384.2993469238281
1525;384.1271667480469
1526;383.95501708984375
1527;383.782958984375
1528;383.61090087890625
1529;383.4389343261719
1530;383.26702880859375
1531;383.09521484375
1532;382.9234313964844
1533;382.75177001953125
1534;382.58013916015625
1535;382.4085388183594
1536;382.237060546875
1537;382.0655822753906
1538;381.8941955566406
1539;381.7228698730469
1540;381.5516052246094
1541;381.38043212890625
1542;381.2092590332031
1543;381.0382385253906
1544;380.86724853515625
1545;380.6962890625
1546;380.525390625
1547;380.35467529296875
1548;380.1838684082031
1549;380.01318359375
1550;379.8424987792969
1551;379.6719055175781
1552;379.5014953613281
1553;379.33099365234375
1554;379.16064453125
1555;378.99029541015625
1556;378.8200988769531
1557;378.64990234375
1558;378.4797668457031
1559;378.30975341796875
1560;378.13970947265625
1561;377.96978759765625
1562;377.7998962402344
1563;377.6300964355469
1564;377.46038818359375
1565;377.2906799316406
1566;377.12103271484375
1567;376.95147705078125
1568;376.7820129394531
1569;376.6125183105469
1570;376.4431457519531
1571;376.2738952636719
1572;376.1046447753906
1573;375.93548583984375
1574;375.766357421875
1575;375.5973205566406
1576;375.4282531738281
1577;375.25933837890625
1578;375.0904846191406
1579;374.9216613769531
1580;374.7528991699219
1581;374.5841979980469
1582;374.4155578613281
1583;374.24700927734375
1584;374.0784606933594
1585;373.9100036621094
1586;373.74169921875
1587;373.5733337402344
1588;373.4050598144531
1589;373.23687744140625
1590;373.0687561035156
1591;372.9006652832031
1592;372.7326965332031
1593;372.5647277832031
1594;372.3968200683594
1595;372.22900390625
1596;372.0612487792969
1597;371.8935546875
1598;371.7259216308594
1599;371.558349609375
1600;371.390869140625
1601;371.223388671875
1602;371.0559997558594
1603;370.8887023925781
1604;370.721435546875
1605;370.5542297363281
1606;370.3870544433594
1607;370.2200012207031
1608;370.0530090332031
1609;369.8860168457031
1610;369.7190856933594
1611;369.55224609375
1612;369.38543701171875
1613;369.21875
1614;369.0521545410156
1615;368.8855285644531
1616;368.718994140625
1617;368.5525207519531
1618;368.38616943359375
1619;368.21978759765625
1620;368.0534973144531
1621;367.88726806640625
1622;367.7210388183594
1623;367.5549621582031
1624;367.38897705078125
1625;367.2229309082031
1626;367.0570373535156
1627;366.8911437988281
1628;366.7253723144531
1629;366.55963134765625
1630;366.3938903808594
1631;366.2283020019531
1632;366.0627136230469
1633;365.8971862792969
1634;365.7318420410156
1635;365.5664367675781
1636;365.401123046875
1637;365.2358703613281
1638;365.07061767578125
1639;364.9054870605469
1640;364.7404479980469
1641;364.5754089355469
1642;364.41046142578125
1643;364.24554443359375
1644;364.0806579589844
1645;363.9159240722656
1646;363.751220703125
1647;363.5865783691406
1648;363.42193603515625
1649;363.2574157714844
1650;363.0929260253906
1651;362.9284973144531
1652;362.76416015625
1653;362.599853515625
1654;362.43560791015625
1655;362.27142333984375
1656;362.10736083984375
1657;361.94329833984375
1658;361.779296875
1659;361.6153869628906
1660;361.4515075683594
1661;361.28765869140625
1662;361.1239318847656
1663;360.960205078125
1664;360.79656982421875
1665;360.6329650878906
1666;360.469482421875
1667;360.3059997558594
1668;360.1426086425781
1669;359.9792785644531
1670;359.8160095214844
1671;359.65283203125
1672;359.48968505859375
1673;359.3265075683594
1674;359.16351318359375
1675;359.00054931640625
1676;358.8376159667969
1677;358.6747741699219
1678;358.511962890625
1679;358.34918212890625
1680;358.1865234375
1681;358.02386474609375
1682;357.861328125
1683;357.69879150390625
1684;357.536376953125
1685;357.3739929199219
1686;357.2117004394531
1687;357.0494689941406
1688;356.88720703125
1689;356.72503662109375
1690;356.56298828125
1691;356.4009094238281
1692;356.2389831542969
1693;356.0770568847656
1694;355.9151306152344
1695;355.75335693359375
1696;355.59161376953125
1697;355.429931640625
1698;355.2683410644531
1699;355.10675048828125
1700;354.94525146484375
1701;354.7837829589844
1702;354.6224060058594
1703;354.4610900878906
1704;354.2998046875
1705;354.13861083984375
1706;353.97747802734375
1707;353.8163757324219
1708;353.65533447265625
1709;353.4943542480469
1710;353.33343505859375
1711;353.1725769042969
1712;353.01177978515625
1713;352.85101318359375
1714;352.6903381347656
1715;352.52972412109375
1716;352.369140625
1717;352.2086486816406
1718;352.0481872558594
1719;351.88775634765625
1720;351.7274475097656
1721;351.5671691894531
1722;351.4069519042969
1723;351.24676513671875
1724;351.0866394042969
1725;350.9266052246094
1726;350.7666015625
1727;350.6067199707031
1728;350.44683837890625
1729;350.2869567871094
1730;350.1272277832031
1731;349.9675598144531
1732;349.80792236328125
1733;349.6482849121094
1734;349.4888000488281
1735;349.329345703125
1736;349.169921875
1737;349.0105285644531
1738;348.8512878417969
1739;348.6920471191406
1740;348.5328674316406
1741;348.37371826171875
1742;348.2146911621094
1743;348.0556945800781
1744;347.8967590332031
1745;347.73785400390625
1746;347.57904052734375
1747;347.4202575683594
1748;347.2615661621094
1749;347.1028747558594
1750;346.9443054199219
1751;346.7857971191406
1752;346.6272888183594
1753;346.4688415527344
1754;346.3105163574219
1755;346.15216064453125
1756;345.99395751953125
1757;345.8357849121094
1758;345.6776428222656
1759;345.51953125
1760;345.36151123046875
1761;345.20355224609375
1762;345.0456237792969
1763;344.8877868652344
1764;344.72998046875
1765;344.572265625
1766;344.41455078125
1767;344.2569274902344
1768;344.0993957519531
1769;343.9418640136719
1770;343.7843933105469
1771;343.6269836425781
1772;343.46966552734375
1773;343.3124084472656
1774;343.15521240234375
1775;342.9980163574219
1776;342.84088134765625
1777;342.683837890625
1778;342.5268249511719
1779;342.3699035644531
1780;342.2130432128906
1781;342.0561828613281
1782;341.8994140625
1783;341.74273681640625
1784;341.5860900878906
1785;341.429443359375
1786;341.27294921875
1787;341.116455078125
1788;340.96002197265625
1789;340.80364990234375
1790;340.6473083496094
1791;340.4910583496094
1792;340.33489990234375
1793;340.1787109375
1794;340.02264404296875
1795;339.8666076660156
1796;339.7106018066406
1797;339.5546569824219
1798;339.39886474609375
1799;339.2430114746094
1800;339.0872497558594
1801;338.9316101074219
1802;338.7759704589844
1803;338.6203918457031
1804;338.4648742675781
1805;338.3094177246094
1806;338.1540222167969
1807;337.9986267089844
1808;337.8433532714844
1809;337.6881408691406
1810;337.5329284667969
1811;337.3778381347656
1812;337.2227478027344
1813;337.0677185058594
1814;336.9128112792969
1815;336.75787353515625
1816;336.60302734375
1817;336.4482421875
1818;336.2934875488281
1819;336.13885498046875
1820;335.9841613769531
1821;335.8296203613281
1822;335.6751403808594
1823;335.5206604003906
1824;335.3662414550781
1825;335.2119140625
1826;335.0576171875
1827;334.90338134765625
1828;334.7492370605469
1829;334.5950622558594
1830;334.4410705566406
1831;334.28704833984375
1832;334.133056640625
1833;333.97918701171875
1834;333.8253479003906
1835;333.6716003417969
1836;333.5178527832031
1837;333.36419677734375
1838;333.2105407714844
1839;333.0570373535156
1840;332.90350341796875
1841;332.75006103515625
1842;332.59661865234375
1843;332.44329833984375
1844;332.2900390625
1845;332.13677978515625
1846;331.9836120605469
1847;331.8304748535156
1848;331.67742919921875
1849;331.5244140625
1850;331.3714294433594
1851;331.21856689453125
1852;331.06573486328125
1853;330.9129943847656
1854;330.76019287109375
1855;330.60748291015625
1856;330.45489501953125
1857;330.3023376464844
1858;330.14984130859375
1859;329.99737548828125
1860;329.8449401855469
1861;329.692626953125
1862;329.54034423828125
1863;329.38812255859375
1864;329.23590087890625
1865;329.0837707519531
1866;328.93170166015625
1867;328.77972412109375
1868;328.62774658203125
1869;328.4757995605469
1870;328.3240051269531
1871;328.17218017578125
1872;328.0204162597656
1873;327.86871337890625
1874;327.71710205078125
1875;327.5655212402344
1876;327.41400146484375
1877;327.2625427246094
1878;327.1111145019531
1879;326.9597473144531
1880;326.8085021972656
1881;326.6572265625
1882;326.50604248046875
1883;326.3548889160156
1884;326.2038269042969
1885;326.0527648925781
1886;325.9018249511719
1887;325.75091552734375
1888;325.60003662109375
1889;325.44921875
1890;325.2984924316406
1891;325.1477966308594
1892;324.99713134765625
1893;324.8465270996094
1894;324.6960144042969
1895;324.5455627441406
1896;324.3951110839844
1897;324.2447814941406
1898;324.09442138671875
1899;323.94415283203125
1900;323.7939453125
1901;323.6437683105469
1902;323.4936828613281
1903;323.34368896484375
1904;323.19366455078125
1905;323.0437316894531
1906;322.8938293457031
1907;322.7440490722656
1908;322.5942687988281
1909;322.4445495605469
1910;322.29486083984375
1911;322.145263671875
1912;321.99566650390625
1913;321.84619140625
1914;321.69671630859375
1915;321.54736328125
1916;321.39801025390625
1917;321.24871826171875
1918;321.0994567871094
1919;320.9502868652344
1920;320.8011779785156
1921;320.6520690917969
1922;320.5030822753906
1923;320.35406494140625
1924;320.2051696777344
1925;320.0563049316406
1926;319.9075012207031
1927;319.7587890625
1928;319.610107421875
1929;319.4614562988281
1930;319.3128356933594
1931;319.164306640625
1932;319.0158386230469
1933;318.867431640625
1934;318.71905517578125
1935;318.57073974609375
1936;318.42242431640625
1937;318.2742614746094
1938;318.1261291503906
1939;317.9779968261719
1940;317.8299255371094
1941;317.68194580078125
1942;317.5340270996094
1943;317.3861389160156
1944;317.23828125
1945;317.0904846191406
1946;316.9427795410156
1947;316.7950744628906
1948;316.6474914550781
1949;316.49993896484375
1950;316.3523864746094
1951;316.2049255371094
1952;316.0575256347656
1953;315.91015625
1954;315.7629089355469
1955;315.6156311035156
1956;315.46844482421875
1957;315.3213195800781
1958;315.1741638183594
1959;315.0271301269531
1960;314.8801574707031
1961;314.7333068847656
1962;314.5863952636719
1963;314.4395446777344
1964;314.2928161621094
1965;314.1460876464844
1966;313.99945068359375
1967;313.85284423828125
1968;313.7062683105469
1969;313.5597839355469
1970;313.4133605957031
1971;313.2669372558594
1972;313.12060546875
1973;312.9743347167969
1974;312.828125
1975;312.6819152832031
1976;312.5357971191406
1977;312.3896789550781
1978;312.24365234375
1979;312.0976867675781
1980;311.9518127441406
1981;311.805908203125
1982;311.6601257324219
1983;311.5143737792969
1984;311.36865234375
1985;311.22296142578125
1986;311.0773620605469
1987;310.9318542480469
1988;310.7863464355469
1989;310.6408996582031
1990;310.4955139160156
1991;310.35015869140625
1992;310.2048645019531
1993;310.0596618652344
1994;309.9144592285156
1995;309.7693176269531
1996;309.6242980957031
1997;309.479248046875
1998;309.3342590332031
1999;309.1893005371094
2000;309.0444641113281
2001;308.8996887207031
2002;308.7549133300781
2003;308.6101989746094
2004;308.4655456542969
2005;308.3208923339844
2006;308.1763610839844
2007;308.0318908691406
2008;307.887451171875
2009;307.7430114746094
2010;307.59869384765625
2011;307.4544372558594
2012;307.3101501464844
2013;307.1659851074219
2014;307.0218200683594
2015;306.87774658203125
2016;306.73370361328125
2017;306.5896911621094
2018;306.44580078125
2019;306.3019104003906
2020;306.1581115722656
2021;306.01434326171875
2022;305.87060546875
2023;305.7269592285156
2024;305.5833435058594
2025;305.4397888183594
2026;305.29632568359375
2027;305.1528625488281
2028;305.0094299316406
2029;304.8660583496094
2030;304.7228088378906
2031;304.57952880859375
2032;304.4363098144531
2033;304.29315185546875
2034;304.15008544921875
2035;304.0070495605469
2036;303.8640441894531
2037;303.72113037109375
2038;303.5782165527344
2039;303.4353942871094
2040;303.2926330566406
2041;303.1498718261719
2042;303.0071716308594
2043;302.8645935058594
2044;302.7220153808594
2045;302.57952880859375
2046;302.43701171875
2047;302.29461669921875
2048;302.1522521972656
2049;302.00994873046875
2050;301.86767578125
2051;301.7254333496094
2052;301.583251953125
2053;301.4411926269531
2054;301.2991027832031
2055;301.1571350097656
2056;301.0151672363281
2057;300.873291015625
2058;300.7314147949219
2059;300.5895690917969
2060;300.44781494140625
2061;300.30615234375
2062;300.16455078125
2063;300.02294921875
2064;299.88140869140625
2065;299.7398986816406
2066;299.5984191894531
2067;299.4570617675781
2068;299.31573486328125
2069;299.1744689941406
2070;299.0332336425781
2071;298.89202880859375
2072;298.75091552734375
2073;298.6098327636719
2074;298.4687805175781
2075;298.3278503417969
2076;298.1868591308594
2077;298.0460510253906
2078;297.9052429199219
2079;297.7644348144531
2080;297.6237487792969
2081;297.4830017089844
2082;297.3424377441406
2083;297.2018737792969
2084;297.06134033203125
2085;296.9208984375
2086;296.7804870605469
2087;296.64013671875
2088;296.4997863769531
2089;296.3595275878906
2090;296.2193908691406
2091;296.07916259765625
2092;295.9390563964844
2093;295.7990417480469
2094;295.6590270996094
2095;295.5190734863281
2096;295.3791809082031
2097;295.2392883300781
2098;295.0995178222656
2099;294.9598083496094
2100;294.8200378417969
2101;294.6803894042969
2102;294.5408020019531
2103;294.4012756347656
2104;294.2617492675781
2105;294.122314453125
2106;293.98291015625
2107;293.84356689453125
2108;293.70428466796875
2109;293.5650329589844
2110;293.42584228515625
2111;293.28668212890625
2112;293.1476135253906
2113;293.0085754394531
2114;292.8695983886719
2115;292.7306213378906
2116;292.5917663574219
2117;292.4529113769531
2118;292.31414794921875
2119;292.1753845214844
2120;292.0367431640625
2121;291.8981018066406
2122;291.759521484375
2123;291.6210021972656
2124;291.48248291015625
2125;291.34405517578125
2126;291.2056579589844
2127;291.0673522949219
2128;290.9290466308594
2129;290.79083251953125
2130;290.65264892578125
2131;290.5144958496094
2132;290.37640380859375
2133;290.2383728027344
2134;290.10040283203125
2135;289.96246337890625
2136;289.8246154785156
2137;289.686767578125
2138;289.5489807128906
2139;289.4112243652344
2140;289.2735290527344
2141;289.13592529296875
2142;288.9983215332031
2143;288.86077880859375
2144;288.72332763671875
2145;288.58587646484375
2146;288.4485168457031
2147;288.3111877441406
2148;288.17388916015625
2149;288.03668212890625
2150;287.89947509765625
2151;287.7623596191406
2152;287.6252746582031
2153;287.48822021484375
2154;287.3512878417969
2155;287.21429443359375
2156;287.0774230957031
2157;286.94061279296875
2158;286.8038024902344
2159;286.6670837402344
2160;286.53045654296875
2161;286.3938293457031
2162;286.2572326660156
2163;286.1206970214844
2164;285.98419189453125
2165;285.8477478027344
2166;285.71136474609375
2167;285.5750427246094
2168;285.4387512207031
2169;285.30255126953125
2170;285.1663513183594
2171;285.03021240234375
2172;284.8941345214844
2173;284.7580871582031
2174;284.62213134765625
2175;284.4861755371094
2176;284.3503112792969
2177;284.2144470214844
2178;284.07867431640625
2179;283.9429016113281
2180;283.8072509765625
2181;283.6716003417969
2182;283.5360412597656
2183;283.4005432128906
2184;283.2649841308594
2185;283.12957763671875
2186;282.9941711425781
2187;282.85882568359375
2188;282.72357177734375
2189;282.58831787109375
2190;282.453125
2191;282.3179931640625
2192;282.18292236328125
2193;282.0478515625
2194;281.9128723144531
2195;281.77789306640625
2196;281.6430358886719
2197;281.5081481933594
2198;281.3733825683594
2199;281.2386169433594
2200;281.10394287109375
2201;280.9693298339844
2202;280.8347473144531
2203;280.7001953125
2204;280.5657043457031
2205;280.4312438964844
2206;280.2968444824219
2207;280.1625061035156
2208;280.0281677246094
2209;279.8939514160156
2210;279.75970458984375
2211;279.62554931640625
2212;279.491455078125
2213;279.357421875
2214;279.2234191894531
2215;279.08941650390625
2216;278.95550537109375
2217;278.8216552734375
2218;278.6878967285156
2219;278.5540771484375
2220;278.42034912109375
2221;278.28668212890625
2222;278.15313720703125
2223;278.01953125
2224;277.8860168457031
2225;277.7525329589844
2226;277.619140625
2227;277.48577880859375
2228;277.3524475097656
2229;277.2192077636719
2230;277.0859680175781
2231;276.95281982421875
2232;276.8196716308594
2233;276.68658447265625
2234;276.55352783203125
2235;276.4205627441406
2236;276.28765869140625
2237;276.1547546386719
2238;276.0219421386719
2239;275.8891296386719
2240;275.75640869140625
2241;275.62371826171875
2242;275.4910583496094
2243;275.3584899902344
2244;275.2259216308594
2245;275.0934753417969
2246;274.96099853515625
2247;274.82861328125
2248;274.6962585449219
2249;274.56396484375
2250;274.43170166015625
2251;274.2995300292969
2252;274.1673583984375
2253;274.0352478027344
2254;273.9031982421875
2255;273.77117919921875
2256;273.63922119140625
2257;273.50732421875
2258;273.37548828125
2259;273.2436218261719
2260;273.11187744140625
2261;272.98016357421875
2262;272.8485107421875
2263;272.7168884277344
2264;272.5853271484375
2265;272.45379638671875
2266;272.3222961425781
2267;272.1908874511719
2268;272.0595397949219
2269;271.9281921386719
2270;271.7969055175781
2271;271.66571044921875
2272;271.53448486328125
2273;271.4033508300781
2274;271.27227783203125
2275;271.1412353515625
2276;271.0102233886719
2277;270.8793029785156
2278;270.7483825683594
2279;270.6175537109375
2280;270.48675537109375
2281;270.3559875488281
2282;270.22528076171875
2283;270.0946350097656
2284;269.96405029296875
2285;269.8334655761719
2286;269.7029724121094
2287;269.5725402832031
2288;269.44207763671875
2289;269.311767578125
2290;269.18145751953125
2291;269.0511779785156
2292;268.92095947265625
2293;268.7908020019531
2294;268.6606750488281
2295;268.5306091308594
2296;268.40057373046875
2297;268.2705993652344
2298;268.14068603515625
2299;268.0107727050781
2300;267.88092041015625
2301;267.75115966796875
2302;267.62139892578125
2303;267.4916687011719
2304;267.3620300292969
2305;267.2324523925781
2306;267.1028747558594
2307;266.9734191894531
2308;266.8439636230469
2309;266.71453857421875
2310;266.5851745605469
2311;266.45587158203125
2312;266.3266296386719
2313;266.1974182128906
2314;266.0682678222656
2315;265.9391174316406
2316;265.8100280761719
2317;265.6809997558594
2318;265.55206298828125
2319;265.4231262207031
2320;265.2942199707031
2321;265.1654052734375
2322;265.0365905761719
2323;264.90789794921875
2324;264.7792053222656
2325;264.65057373046875
2326;264.5219421386719
2327;264.39337158203125
2328;264.2649230957031
2329;264.136474609375
2330;264.008056640625
2331;263.8796691894531
2332;263.7514343261719
2333;263.62310791015625
2334;263.49493408203125
2335;263.3667297363281
2336;263.2386169433594
2337;263.1105651855469
2338;262.9825134277344
2339;262.85455322265625
2340;262.72662353515625
2341;262.5987243652344
2342;262.4709167480469
2343;262.3431091308594
2344;262.2153625488281
2345;262.0876770019531
2346;261.9599914550781
2347;261.8324279785156
2348;261.7048645019531
2349;261.5773620605469
2350;261.4499206542969
2351;261.3224792480469
2352;261.19512939453125
2353;261.06781005859375
2354;260.9405212402344
2355;260.8133239746094
2356;260.6861267089844
2357;260.55902099609375
2358;260.43194580078125
2359;260.3049011230469
2360;260.1779479980469
2361;260.0509948730469
2362;259.9241027832031
2363;259.7972717285156
2364;259.6704406738281
2365;259.543701171875
2366;259.4170227050781
2367;259.29034423828125
2368;259.16375732421875
2369;259.0372009277344
2370;258.91070556640625
2371;258.7842102050781
2372;258.65777587890625
2373;258.53143310546875
2374;258.40509033203125
2375;258.27880859375
2376;258.1525573730469
2377;258.0263977050781
2378;257.9002380371094
2379;257.7741394042969
2380;257.64813232421875
2381;257.5221252441406
2382;257.39617919921875
2383;257.2702941894531
2384;257.1444091796875
2385;257.0185852050781
2386;256.8927917480469
2387;256.7671203613281
2388;256.6414489746094
2389;256.51580810546875
2390;256.3902282714844
2391;256.2646789550781
2392;256.13922119140625
2393;256.0138244628906
2394;255.8883819580078
2395;255.7630615234375
2396;255.6377716064453
2397;255.5125274658203
2398;255.38734436035156
2399;255.26217651367188
2400;255.13710021972656
2401;255.01199340820312
2402;254.8870086669922
2403;254.7620086669922
2404;254.63710021972656
2405;254.51220703125
2406;254.3873748779297
2407;254.26260375976562
2408;254.13783264160156
2409;254.01316833496094
2410;253.88853454589844
2411;253.76393127441406
2412;253.63938903808594
2413;253.514892578125
2414;253.39041137695312
2415;253.26600646972656
2416;253.14163208007812
2417;253.017333984375
2418;252.89303588867188
2419;252.76882934570312
2420;252.64466857910156
2421;252.5205078125
2422;252.3964080810547
2423;252.2723846435547
2424;252.1483917236328
2425;252.02444458007812
2426;251.90052795410156
2427;251.7766571044922
2428;251.65286254882812
2429;251.5291290283203
2430;251.40538024902344
2431;251.28170776367188
2432;251.15809631347656
2433;251.03453063964844
2434;250.91099548339844
2435;250.78749084472656
2436;250.6640625
2437;250.5406494140625
2438;250.4173126220703
2439;250.2940216064453
2440;250.17079162597656
2441;250.04757690429688
2442;249.9243927001953
2443;249.80128479003906
2444;249.67822265625
2445;249.55520629882812
2446;249.43222045898438
2447;249.3092803955078
2448;249.18638610839844
2449;249.0635528564453
2450;248.94076538085938
2451;248.81802368164062
2452;248.69534301757812
2453;248.57266235351562
2454;248.45005798339844
2455;248.3275146484375
2456;248.2050018310547
2457;248.08251953125
2458;247.96006774902344
2459;247.8377227783203
2460;247.7153778076172
2461;247.59310913085938
2462;247.47085571289062
2463;247.34864807128906
2464;247.22653198242188
2465;247.10440063476562
2466;246.9823455810547
2467;246.86036682128906
2468;246.7383575439453
2469;246.616455078125
2470;246.49459838867188
2471;246.3727569580078
2472;246.25100708007812
2473;246.12924194335938
2474;246.00753784179688
2475;245.8859100341797
2476;245.76429748535156
2477;245.64273071289062
2478;245.52122497558594
2479;245.39974975585938
2480;245.27833557128906
2481;245.15696716308594
2482;245.03564453125
2483;244.9143829345703
2484;244.79312133789062
2485;244.6719207763672
2486;244.55079650878906
2487;244.4296875
2488;244.30860900878906
2489;244.18763732910156
2490;244.06666564941406
2491;243.9457550048828
2492;243.8248748779297
2493;243.7040252685547
2494;243.583251953125
2495;243.46250915527344
2496;243.34182739257812
2497;243.22119140625
2498;243.10060119628906
2499;242.9800567626953
2500;242.85952758789062
2501;242.7390899658203
2502;242.61865234375
2503;242.498291015625
2504;242.37796020507812
2505;242.25770568847656
2506;242.137451171875
2507;242.0172882080078
2508;241.89710998535156
2509;241.7770538330078
2510;241.656982421875
2511;241.53697204589844
2512;241.41702270507812
2513;241.29710388183594
2514;241.17721557617188
2515;241.057373046875
2516;240.93760681152344
2517;240.81785583496094
2518;240.6981658935547
2519;240.57850646972656
2520;240.4589385986328
2521;240.33938598632812
2522;240.21986389160156
2523;240.1003875732422
2524;239.98098754882812
2525;239.86160278320312
2526;239.74229431152344
2527;239.6229705810547
2528;239.50375366210938
2529;239.3845672607422
2530;239.26541137695312
2531;239.14633178710938
2532;239.0272674560547
2533;238.90823364257812
2534;238.78927612304688
2535;238.6703338623047
2536;238.55148315429688
2537;238.43264770507812
2538;238.31385803222656
2539;238.1951141357422
2540;238.07644653320312
2541;237.957763671875
2542;237.8391876220703
2543;237.72059631347656
2544;237.60206604003906
2545;237.48361206054688
2546;237.3651580810547
2547;237.2467803955078
2548;237.12844848632812
2549;237.0101318359375
2550;236.89187622070312
2551;236.77369689941406
2552;236.655517578125
2553;236.5373992919922
2554;236.4193115234375
2555;236.30130004882812
2556;236.18331909179688
2557;236.06533813476562
2558;235.94747924804688
2559;235.8296661376953
2560;235.7118377685547
2561;235.5941162109375
2562;235.4763946533203
2563;235.35873413085938
2564;235.24110412597656
2565;235.12350463867188
2566;235.00599670410156
2567;234.8885040283203
2568;234.7710418701172
2569;234.6536407470703
2570;234.5363006591797
2571;234.4189910888672
2572;234.3017120361328
2573;234.1844940185547
2574;234.0673370361328
2575;233.9501953125
2576;233.83311462402344
2577;233.716064453125
2578;233.5990447998047
2579;233.48208618164062
2580;233.36520385742188
2581;233.24832153320312
2582;233.1315155029297
2583;233.0147247314453
2584;232.8980255126953
2585;232.78134155273438
2586;232.6646728515625
2587;232.5480194091797
2588;232.43150329589844
2589;232.3150177001953
2590;232.19851684570312
2591;232.0821075439453
2592;231.96572875976562
2593;231.8494415283203
2594;231.73312377929688
2595;231.6168670654297
2596;231.5006561279297
2597;231.384521484375
2598;231.2683868408203
2599;231.15234375
2600;231.0363311767578
2601;230.9203338623047
2602;230.8043975830078
2603;230.68849182128906
2604;230.57266235351562
2605;230.45687866210938
2606;230.3411102294922
2607;230.2254180908203
2608;230.10972595214844
2609;229.99412536621094
2610;229.87852478027344
2611;229.7630157470703
2612;229.6475067138672
2613;229.5320587158203
2614;229.41664123535156
2615;229.30130004882812
2616;229.18600463867188
2617;229.0707244873047
2618;228.95545959472656
2619;228.8402862548828
2620;228.7251739501953
2621;228.61009216308594
2622;228.49501037597656
2623;228.3800048828125
2624;228.26504516601562
2625;228.15013122558594
2626;228.03526306152344
2627;227.92041015625
2628;227.80563354492188
2629;227.69088745117188
2630;227.57618713378906
2631;227.46153259277344
2632;227.346923828125
2633;227.2323455810547
2634;227.11782836914062
2635;227.00338745117188
2636;226.88893127441406
2637;226.77455139160156
2638;226.66018676757812
2639;226.54586791992188
2640;226.43162536621094
2641;226.31739807128906
2642;226.20323181152344
2643;226.089111328125
2644;225.9750213623047
2645;225.86097717285156
2646;225.74697875976562
2647;225.63302612304688
2648;225.51914978027344
2649;225.40528869628906
2650;225.2914581298828
2651;225.1776580810547
2652;225.06394958496094
2653;224.95022583007812
2654;224.8366241455078
2655;224.72300720214844
2656;224.6094512939453
2657;224.49594116210938
2658;224.38247680664062
2659;224.26902770996094
2660;224.15565490722656
2661;224.04232788085938
2662;223.9290313720703
2663;223.81576538085938
2664;223.70252990722656
2665;223.58937072753906
2666;223.4762725830078
2667;223.36317443847656
2668;223.2501678466797
2669;223.1371307373047
2670;223.0242156982422
2671;222.9113311767578
2672;222.79847717285156
2673;222.68565368652344
2674;222.57286071777344
2675;222.4601287841797
2676;222.34744262695312
2677;222.2348175048828
2678;222.12220764160156
2679;222.00965881347656
2680;221.89712524414062
2681;221.78466796875
2682;221.67225646972656
2683;221.55984497070312
2684;221.44752502441406
2685;221.335205078125
2686;221.2229461669922
2687;221.11074829101562
2688;220.9985809326172
2689;220.886474609375
2690;220.77438354492188
2691;220.662353515625
2692;220.55038452148438
2693;220.43844604492188
2694;220.32650756835938
2695;220.2146453857422
2696;220.1028594970703
2697;219.9910430908203
2698;219.8793182373047
2699;219.76760864257812
2700;219.65599060058594
2701;219.54440307617188
2702;219.4328155517578
2703;219.3212890625
2704;219.20980834960938
2705;219.098388671875
2706;218.98703002929688
2707;218.8756866455078
2708;218.76437377929688
2709;218.6531524658203
2710;218.54188537597656
2711;218.43075561523438
2712;218.31959533691406
2713;218.20852661132812
2714;218.09750366210938
2715;217.9864959716797
2716;217.8755645751953
2717;217.76461791992188
2718;217.65377807617188
2719;217.54295349121094
2720;217.43214416503906
2721;217.32142639160156
2722;217.210693359375
2723;217.1000518798828
2724;216.9894256591797
2725;216.87887573242188
2726;216.7683563232422
2727;216.6578826904297
2728;216.5474395751953
2729;216.43702697753906
2730;216.32669067382812
2731;216.21633911132812
2732;216.10609436035156
2733;215.99588012695312
2734;215.88571166992188
2735;215.7755584716797
2736;215.6654815673828
2737;215.55538940429688
2738;215.4453887939453
2739;215.33541870117188
2740;215.22547912597656
2741;215.11561584472656
2742;215.0057830810547
2743;214.89596557617188
2744;214.7862091064453
2745;214.67652893066406
2746;214.5668487548828
2747;214.4571990966797
2748;214.34762573242188
2749;214.2380828857422
2750;214.12857055664062
2751;214.01913452148438
2752;213.9097137451172
2753;213.8003692626953
2754;213.69100952148438
2755;213.58175659179688
2756;213.4724884033203
2757;213.36328125
2758;213.25411987304688
2759;213.14501953125
2760;213.0359344482422
2761;212.92691040039062
2762;212.8179473876953
2763;212.70896911621094
2764;212.60009765625
2765;212.4912109375
2766;212.3824005126953
2767;212.2736358642578
2768;212.1649169921875
2769;212.0562286376953
2770;211.9475860595703
2771;211.83897399902344
2772;211.7303924560547
2773;211.62191772460938
2774;211.51344299316406
2775;211.40499877929688
2776;211.296630859375
2777;211.18826293945312
2778;211.07994079589844
2779;210.97171020507812
2780;210.8634796142578
2781;210.7553253173828
2782;210.6471405029297
2783;210.53904724121094
2784;210.43101501464844
2785;210.322998046875
2786;210.2150421142578
2787;210.1071014404297
2788;209.99923706054688
2789;209.89137268066406
2790;209.78358459472656
2791;209.67587280273438
2792;209.568115234375
2793;209.46047973632812
2794;209.35281372070312
2795;209.2452392578125
2796;209.13771057128906
2797;209.0301971435547
2798;208.92271423339844
2799;208.81532287597656
2800;208.7079315185547
2801;208.6005859375
2802;208.49331665039062
2803;208.3860626220703
2804;208.2788848876953
2805;208.1717071533203
2806;208.0645751953125
2807;207.95750427246094
2808;207.8504638671875
2809;207.74349975585938
2810;207.6365203857422
2811;207.5296173095703
2812;207.42274475097656
2813;207.31591796875
2814;207.20913696289062
2815;207.10238647460938
2816;206.99569702148438
2817;206.88902282714844
2818;206.7823944091797
2819;206.6758270263672
2820;206.56932067871094
2821;206.4628143310547
2822;206.3563690185547
2823;206.24996948242188
2824;206.14358520507812
2825;206.03726196289062
2826;205.9309844970703
2827;205.82473754882812
2828;205.7185516357422
2829;205.61239624023438
2830;205.5063018798828
2831;205.40023803710938
2832;205.294189453125
2833;205.18820190429688
2834;205.08226013183594
2835;204.97633361816406
2836;204.87049865722656
2837;204.76467895507812
2838;204.65890502929688
2839;204.5531463623047
2840;204.4474639892578
2841;204.34182739257812
2842;204.23622131347656
2843;204.13063049316406
2844;204.02513122558594
2845;203.91966247558594
2846;203.81419372558594
2847;203.7087860107422
2848;203.6034393310547
2849;203.49813842773438
2850;203.39285278320312
2851;203.28762817382812
2852;203.1824493408203
2853;203.07725524902344
2854;202.97216796875
2855;202.8671112060547
2856;202.7620849609375
2857;202.65708923339844
2858;202.55213928222656
2859;202.44725036621094
2860;202.34239196777344
2861;202.23756408691406
2862;202.13279724121094
2863;202.028076171875
2864;201.92335510253906
2865;201.8187255859375
2866;201.714111328125
2867;201.6095428466797
2868;201.50503540039062
2869;201.40054321289062
2870;201.2960968017578
2871;201.1917266845703
2872;201.0873565673828
2873;200.98301696777344
2874;200.87875366210938
2875;200.77450561523438
2876;200.67030334472656
2877;200.566162109375
2878;200.4620819091797
2879;200.3579864501953
2880;200.2539520263672
2881;200.14999389648438
2882;200.04603576660156
2883;199.942138671875
2884;199.8383026123047
2885;199.73448181152344
2886;199.6306915283203
2887;199.52696228027344
2888;199.42323303222656
2889;199.31961059570312
2890;199.21595764160156
2891;199.11241149902344
2892;199.00889587402344
2893;198.90538024902344
2894;198.8019256591797
2895;198.6985626220703
2896;198.59518432617188
2897;198.49185180664062
2898;198.38856506347656
2899;198.28530883789062
2900;198.18214416503906
2901;198.07896423339844
2902;197.97586059570312
2903;197.87277221679688
2904;197.7696990966797
2905;197.666748046875
2906;197.5637969970703
2907;197.46090698242188
2908;197.35801696777344
2909;197.2552032470703
2910;197.1523895263672
2911;197.04965209960938
2912;196.9469451904297
2913;196.84426879882812
2914;196.74166870117188
2915;196.63905334472656
2916;196.53651428222656
2917;196.4340362548828
2918;196.33157348632812
2919;196.2291259765625
2920;196.1267852783203
2921;196.0244140625
2922;195.922119140625
2923;195.8199005126953
2924;195.71766662597656
2925;195.615478515625
2926;195.5133514404297
2927;195.41127014160156
2928;195.30921936035156
2929;195.2072296142578
2930;195.105224609375
2931;195.00332641601562
2932;194.9014434814453
2933;194.79959106445312
2934;194.69778442382812
2935;194.59605407714844
2936;194.4943084716797
2937;194.3926544189453
2938;194.291015625
2939;194.18942260742188
2940;194.08786010742188
2941;193.98635864257812
2942;193.88487243652344
2943;193.78341674804688
2944;193.68202209472656
2945;193.58067321777344
2946;193.47933959960938
2947;193.37808227539062
2948;193.27684020996094
2949;193.17562866210938
2950;193.07449340820312
2951;192.973388671875
2952;192.872314453125
2953;192.7713165283203
2954;192.67030334472656
2955;192.56936645507812
2956;192.46847534179688
2957;192.3675994873047
2958;192.26675415039062
2959;192.16600036621094
2960;192.0652618408203
2961;191.96456909179688
2962;191.8638916015625
2963;191.76329040527344
2964;191.66270446777344
2965;191.56214904785156
2966;191.46168518066406
2967;191.3612060546875
2968;191.2607879638672
2969;191.16041564941406
2970;191.06008911132812
2971;190.9597930908203
2972;190.8595428466797
2973;190.7593231201172
2974;190.65916442871094
2975;190.5590362548828
2976;190.4589385986328
2977;190.35888671875
2978;190.2588653564453
2979;190.15890502929688
2980;190.05897521972656
2981;189.95907592773438
2982;189.85923767089844
2983;189.75942993164062
2984;189.65966796875
2985;189.5599365234375
2986;189.4602813720703
2987;189.36061096191406
2988;189.26100158691406
2989;189.1614532470703
2990;189.06190490722656
2991;188.96243286132812
2992;188.8629913330078
2993;188.76358032226562
2994;188.6642303466797
2995;188.56492614746094
2996;188.46560668945312
2997;188.3664093017578
2998;188.26718139648438
2999;188.1680145263672
