;loss
0;858.3726806640625
1;857.9932250976562
2;857.6128540039062
3;857.2315063476562
4;856.8493041992188
5;856.4662475585938
6;856.0821533203125
7;855.6971435546875
8;855.3165283203125
9;854.9295654296875
10;854.5435180664062
11;854.1551513671875
12;853.7647705078125
13;853.3737182617188
14;852.9817504882812
15;852.5885620117188
16;852.19140625
17;851.7962036132812
18;851.3997802734375
19;850.9982299804688
20;850.5994262695312
21;850.1951904296875
22;849.7940063476562
23;849.3870849609375
24;848.9786376953125
25;848.5690307617188
26;848.1627807617188
27;847.75048828125
28;847.3416137695312
29;846.9266357421875
30;846.5149536132812
31;846.1019897460938
32;845.6875
33;845.2667846679688
34;844.8493041992188
35;844.4304809570312
36;844.0053100585938
37;843.5831909179688
38;843.1595458984375
39;842.7296142578125
40;842.3026733398438
41;841.8739013671875
42;841.4434204101562
43;841.0111083984375
44;840.5725708007812
45;840.1365966796875
46;839.6986694335938
47;839.2545166015625
48;838.8084716796875
49;838.3603515625
50;837.9141845703125
51;837.4659423828125
52;837.0115966796875
53;836.5549926757812
54;836.1000366210938
55;835.6427612304688
56;835.1831665039062
57;834.71728515625
58;834.2527465820312
59;833.7820434570312
60;833.3125
61;832.8402709960938
62;832.3655395507812
63;831.8844604492188
64;831.4006958007812
65;830.9178466796875
66;830.4285888671875
67;829.9400634765625
68;829.44873046875
69;828.9545288085938
70;828.4573974609375
71;827.9539794921875
72;827.4476928710938
73;826.9383544921875
74;826.4292602539062
75;825.9171142578125
76;825.4019165039062
77;824.8834228515625
78;824.3617553710938
79;823.8370361328125
80;823.3057861328125
81;822.7745361328125
82;822.2423706054688
83;821.7100830078125
84;821.1717529296875
85;820.6336669921875
86;820.0903930664062
87;819.5470581054688
88;818.9977416992188
89;818.4451904296875
90;817.8924560546875
91;817.3363647460938
92;816.7767944335938
93;816.2139892578125
94;815.6450805664062
95;815.0728149414062
96;814.4998779296875
97;813.9205932617188
98;813.3375854492188
99;812.7537841796875
100;812.1633911132812
101;811.5693359375
102;810.9740600585938
103;810.3748779296875
104;809.76904296875
105;809.1591796875
106;808.5479736328125
107;807.9298095703125
108;807.3103637695312
109;806.6865234375
110;806.0584716796875
111;805.42333984375
112;804.7838134765625
113;804.1425170898438
114;803.4940185546875
115;802.8435668945312
116;802.1884155273438
117;801.5283203125
118;800.8607788085938
119;800.1909790039062
120;799.513671875
121;798.8313598632812
122;798.1437377929688
123;797.4511108398438
124;796.7532348632812
125;796.0526123046875
126;795.3464965820312
127;794.634765625
128;793.91748046875
129;793.1946411132812
130;792.4661865234375
131;791.7291870117188
132;790.986328125
133;790.2400512695312
134;789.4874877929688
135;788.7285766601562
136;787.9608154296875
137;787.1865234375
138;786.4082641601562
139;785.6207275390625
140;784.8290405273438
141;784.02783203125
142;783.2197265625
143;782.4071044921875
144;781.5845947265625
145;780.7548217773438
146;779.9178466796875
147;779.0731201171875
148;778.2234497070312
149;777.3660888671875
150;776.5008544921875
151;775.6248168945312
152;774.7405395507812
153;773.8480834960938
154;772.9532470703125
155;772.0532836914062
156;771.1475830078125
157;770.2352294921875
158;769.3153076171875
159;768.3900146484375
160;767.4669189453125
161;766.5413818359375
162;765.6064453125
163;764.6669311523438
164;763.72021484375
165;762.7660522460938
166;761.8043823242188
167;760.8330078125
168;759.8544311523438
169;758.87060546875
170;757.8786010742188
171;756.8762817382812
172;755.8746337890625
173;754.8672485351562
174;753.8523559570312
175;752.8294677734375
176;751.80078125
177;750.7700805664062
178;749.7330932617188
179;748.6863403320312
180;747.6319580078125
181;746.5731201171875
182;745.5120849609375
183;744.4413452148438
184;743.3763427734375
185;742.3128051757812
186;741.2525024414062
187;740.18994140625
188;739.1284790039062
189;738.0709838867188
190;737.013671875
191;735.9539184570312
192;734.8892211914062
193;733.8204345703125
194;732.7473754882812
195;731.6700439453125
196;730.59765625
197;729.5304565429688
198;728.4605102539062
199;727.4008178710938
200;726.34228515625
201;725.2858276367188
202;724.2466430664062
203;723.2069702148438
204;722.1642456054688
205;721.123046875
206;720.0807495117188
207;719.0350341796875
208;717.9879760742188
209;716.9404296875
210;715.8936767578125
211;714.8453369140625
212;713.7955322265625
213;712.7420654296875
214;711.6868286132812
215;710.6300659179688
216;709.5817260742188
217;708.53515625
218;707.5187377929688
219;706.5135498046875
220;705.5107421875
221;704.5103149414062
222;703.5121459960938
223;702.5137939453125
224;701.5191650390625
225;700.5288696289062
226;699.5526123046875
227;698.5847778320312
228;697.6195678710938
229;696.65673828125
230;695.6965942382812
231;694.7376708984375
232;693.7861328125
233;692.8370971679688
234;691.8954467773438
235;690.9642333984375
236;690.0368041992188
237;689.1110229492188
238;688.1942749023438
239;687.2864990234375
240;686.3937377929688
241;685.5086059570312
242;684.6332397460938
243;683.7630004882812
244;682.8988647460938
245;682.0398559570312
246;681.1862182617188
247;680.3464965820312
248;679.5142211914062
249;678.6868286132812
250;677.8638305664062
251;677.0439453125
252;676.2283935546875
253;675.4186401367188
254;674.6181640625
255;673.8226318359375
256;673.0327758789062
257;672.2479858398438
258;671.4692993164062
259;670.6985473632812
260;669.9317016601562
261;669.1698608398438
262;668.4133911132812
263;667.6614379882812
264;666.9144287109375
265;666.1729736328125
266;665.43603515625
267;664.70263671875
268;663.9744873046875
269;663.25146484375
270;662.5323486328125
271;661.81591796875
272;661.1033325195312
273;660.3954467773438
274;659.6926879882812
275;658.9937744140625
276;658.2975463867188
277;657.6050415039062
278;656.9175415039062
279;656.2327270507812
280;655.55126953125
281;654.8744506835938
282;654.2028198242188
283;653.5355834960938
284;652.87353515625
285;652.2156982421875
286;651.5614624023438
287;650.9108276367188
288;650.2637329101562
289;649.6204223632812
290;648.9808349609375
291;648.3465576171875
292;647.7192993164062
293;647.0974731445312
294;646.4791870117188
295;645.8646850585938
296;645.2545776367188
297;644.6471557617188
298;644.0431518554688
299;643.4434814453125
300;642.8491821289062
301;642.2599487304688
302;641.67333984375
303;641.0901489257812
304;640.5101928710938
305;639.9334716796875
306;639.3606567382812
307;638.7901611328125
308;638.2235717773438
309;637.6591186523438
310;637.0984497070312
311;636.5407104492188
312;635.9859008789062
313;635.4338989257812
314;634.88525390625
315;634.3387451171875
316;633.7958984375
317;633.2560424804688
318;632.7188720703125
319;632.1845703125
320;631.6520385742188
321;631.1224365234375
322;630.5958251953125
323;630.0718994140625
324;629.5513305664062
325;629.0333251953125
326;628.5171508789062
327;628.0037841796875
328;627.49365234375
329;626.9852905273438
330;626.4793701171875
331;625.9757690429688
332;625.4752197265625
333;624.9771728515625
334;624.4814453125
335;623.9874267578125
336;623.4959106445312
337;623.0067749023438
338;622.52001953125
339;622.03662109375
340;621.5555419921875
341;621.0768432617188
342;620.6004028320312
343;620.1255493164062
344;619.6534423828125
345;619.1829833984375
346;618.7149658203125
347;618.2487182617188
348;617.7850341796875
349;617.3237915039062
350;616.8646850585938
351;616.4080810546875
352;615.9529418945312
353;615.5003662109375
354;615.0493774414062
355;614.6005249023438
356;614.1536254882812
357;613.7091064453125
358;613.2664794921875
359;612.826171875
360;612.3876953125
361;611.951171875
362;611.5167236328125
363;611.0840454101562
364;610.6539306640625
365;610.2254638671875
366;609.7991943359375
367;609.3742065429688
368;608.9511108398438
369;608.5296020507812
370;608.1098022460938
371;607.6917114257812
372;607.2769775390625
373;606.8640747070312
374;606.4527587890625
375;606.0438232421875
376;605.6360473632812
377;605.2303466796875
378;604.8258056640625
379;604.4232788085938
380;604.0219116210938
381;603.6224975585938
382;603.2244873046875
383;602.8275756835938
384;602.4324951171875
385;602.0385131835938
386;601.6463012695312
387;601.2552490234375
388;600.8660888671875
389;600.4778442382812
390;600.0916137695312
391;599.7066650390625
392;599.3231811523438
393;598.94091796875
394;598.5598754882812
395;598.18017578125
396;597.8014526367188
397;597.4259643554688
398;597.0518798828125
399;596.6787109375
400;596.3067016601562
401;595.9361572265625
402;595.5668334960938
403;595.19873046875
404;594.8320922851562
405;594.4666748046875
406;594.1024169921875
407;593.7395629882812
408;593.3775024414062
409;593.0170288085938
410;592.6575317382812
411;592.2991943359375
412;591.9415893554688
413;591.5855102539062
414;591.23046875
415;590.8760375976562
416;590.52294921875
417;590.1708374023438
418;589.8194580078125
419;589.46923828125
420;589.1200561523438
421;588.7717895507812
422;588.4243774414062
423;588.0775756835938
424;587.7319946289062
425;587.3870239257812
426;587.0432739257812
427;586.7001342773438
428;586.3582763671875
429;586.0170288085938
430;585.6765747070312
431;585.3369140625
432;584.9984130859375
433;584.6605224609375
434;584.323974609375
435;583.9878540039062
436;583.653076171875
437;583.3192749023438
438;582.9859619140625
439;582.6533813476562
440;582.3215942382812
441;581.9905395507812
442;581.6605224609375
443;581.3309326171875
444;581.0023803710938
445;580.6744995117188
446;580.3473510742188
447;580.0206298828125
448;579.6948852539062
449;579.3695068359375
450;579.0450439453125
451;578.7212524414062
452;578.3982543945312
453;578.0761108398438
454;577.7544555664062
455;577.4337158203125
456;577.1138305664062
457;576.7943115234375
458;576.4756469726562
459;576.1574096679688
460;575.8401489257812
461;575.5234375
462;575.2070922851562
463;574.8916015625
464;574.5765380859375
465;574.2622680664062
466;573.9482421875
467;573.6351318359375
468;573.322265625
469;573.01025390625
470;572.6986083984375
471;572.387451171875
472;572.0769653320312
473;571.7670288085938
474;571.4576416015625
475;571.1490478515625
476;570.8411254882812
477;570.5338134765625
478;570.226806640625
479;569.92041015625
480;569.6146240234375
481;569.3090209960938
482;569.0043334960938
483;568.6997680664062
484;568.3958129882812
485;568.0926513671875
486;567.7898559570312
487;567.4876708984375
488;567.1859741210938
489;566.8846435546875
490;566.5836791992188
491;566.2833862304688
492;565.9835815429688
493;565.6841430664062
494;565.38525390625
495;565.0872192382812
496;564.7896728515625
497;564.49267578125
498;564.1961059570312
499;563.9002685546875
500;563.6050415039062
501;563.3101806640625
502;563.0158081054688
503;562.7219848632812
504;562.4285278320312
505;562.1353149414062
506;561.8428955078125
507;561.5508422851562
508;561.2593383789062
509;560.9681396484375
510;560.6773681640625
511;560.3870239257812
512;560.09716796875
513;559.8074340820312
514;559.5184326171875
515;559.2296142578125
516;558.9414672851562
517;558.6536865234375
518;558.3663330078125
519;558.0794067382812
520;557.7928466796875
521;557.5064697265625
522;557.2205810546875
523;556.9349975585938
524;556.6500244140625
525;556.3651733398438
526;556.0809326171875
527;555.7968139648438
528;555.5133666992188
529;555.2301635742188
530;554.9473876953125
531;554.6649169921875
532;554.3828125
533;554.1011352539062
534;553.8200073242188
535;553.5391845703125
536;553.2587890625
537;552.9788208007812
538;552.6991577148438
539;552.419921875
540;552.1412353515625
541;551.8628540039062
542;551.5848999023438
543;551.3074951171875
544;551.0303955078125
545;550.7534790039062
546;550.4771118164062
547;550.201171875
548;549.9254760742188
549;549.6500854492188
550;549.3748779296875
551;549.0999755859375
552;548.8255615234375
553;548.5514526367188
554;548.2777099609375
555;548.0042114257812
556;547.7310180664062
557;547.4580688476562
558;547.1853637695312
559;546.9129638671875
560;546.6410522460938
561;546.3692016601562
562;546.0979614257812
563;545.8267822265625
564;545.5558471679688
565;545.2852172851562
566;545.01513671875
567;544.7453002929688
568;544.4755859375
569;544.2062377929688
570;543.9373168945312
571;543.6683959960938
572;543.3997802734375
573;543.1314697265625
574;542.8634643554688
575;542.595703125
576;542.3284301757812
577;542.0614013671875
578;541.7945556640625
579;541.5281372070312
580;541.2617797851562
581;540.9957885742188
582;540.7301635742188
583;540.4647216796875
584;540.1995239257812
585;539.9345703125
586;539.6698608398438
587;539.4055786132812
588;539.1416015625
589;538.8778686523438
590;538.6143188476562
591;538.3511352539062
592;538.0881958007812
593;537.8255004882812
594;537.5631103515625
595;537.3009033203125
596;537.0388793945312
597;536.7771606445312
598;536.5157470703125
599;536.2546997070312
600;535.9939575195312
601;535.7334594726562
602;535.47314453125
603;535.2129516601562
604;534.9531860351562
605;534.6934204101562
606;534.43408203125
607;534.1749877929688
608;533.916015625
609;533.6574096679688
610;533.3988647460938
611;533.1406860351562
612;532.8828125
613;532.6249389648438
614;532.3673706054688
615;532.1102294921875
616;531.8532104492188
617;531.596435546875
618;531.3399047851562
619;531.0836181640625
620;530.8273315429688
621;530.5714111328125
622;530.3155517578125
623;530.0601806640625
624;529.8051147460938
625;529.5501708984375
626;529.29541015625
627;529.041015625
628;528.7866821289062
629;528.5326538085938
630;528.2789306640625
631;528.025390625
632;527.77197265625
633;527.518798828125
634;527.2659301757812
635;527.0132446289062
636;526.7609252929688
637;526.5089111328125
638;526.2570190429688
639;526.00537109375
640;525.7540283203125
641;525.5028686523438
642;525.2518310546875
643;525.0010986328125
644;524.7504272460938
645;524.5
646;524.2498168945312
647;523.9999389648438
648;523.7503662109375
649;523.5008544921875
650;523.2515258789062
651;523.0025024414062
652;522.7534790039062
653;522.5048217773438
654;522.2562255859375
655;522.0079345703125
656;521.759765625
657;521.5117797851562
658;521.2640991210938
659;521.0165405273438
660;520.7691650390625
661;520.5220947265625
662;520.2750854492188
663;520.0283813476562
664;519.78173828125
665;519.5352783203125
666;519.2891845703125
667;519.0430908203125
668;518.7971801757812
669;518.5513916015625
670;518.3059692382812
671;518.060546875
672;517.8154907226562
673;517.5706787109375
674;517.3260498046875
675;517.08154296875
676;516.8372192382812
677;516.5930786132812
678;516.3490600585938
679;516.1052856445312
680;515.8616333007812
681;515.6181030273438
682;515.3748779296875
683;515.131591796875
684;514.8886108398438
685;514.6458129882812
686;514.4030151367188
687;514.1605834960938
688;513.9181518554688
689;513.6759033203125
690;513.4338989257812
691;513.1920166015625
692;512.9503784179688
693;512.708984375
694;512.4677734375
695;512.2265014648438
696;511.98541259765625
697;511.74456787109375
698;511.5038757324219
699;511.2633972167969
700;511.0231628417969
701;510.7831115722656
702;510.5430603027344
703;510.30328369140625
704;510.06390380859375
705;509.8249206542969
706;509.5862121582031
707;509.34759521484375
708;509.1091003417969
709;508.8708801269531
710;508.6328125
711;508.3948059082031
712;508.156982421875
713;507.91943359375
714;507.68212890625
715;507.4448547363281
716;507.20782470703125
717;506.9709777832031
718;506.7342224121094
719;506.4977111816406
720;506.26123046875
721;506.02490234375
722;505.7888488769531
723;505.552978515625
724;505.3172302246094
725;505.0816955566406
726;504.8462219238281
727;504.6109924316406
728;504.3758239746094
729;504.1408996582031
730;503.9060974121094
731;503.67138671875
732;503.43695068359375
733;503.20257568359375
734;502.96826171875
735;502.73406982421875
736;502.50018310546875
737;502.2663879394531
738;502.03265380859375
739;501.7992248535156
740;501.5657043457031
741;501.33245849609375
742;501.0993957519531
743;500.8664245605469
744;500.6336975097656
745;500.4010925292969
746;500.1686096191406
747;499.9363098144531
748;499.7041320800781
749;499.47210693359375
750;499.240234375
751;499.00830078125
752;498.77679443359375
753;498.5451965332031
754;498.3138122558594
755;498.08251953125
756;497.8514099121094
757;497.6205139160156
758;497.3898010253906
759;497.1591796875
760;496.92864990234375
761;496.6982421875
762;496.4679260253906
763;496.2378234863281
764;496.0078125
765;495.7781066894531
766;495.54833984375
767;495.31866455078125
768;495.0892028808594
769;494.8600158691406
770;494.63079833984375
771;494.40179443359375
772;494.1728515625
773;493.944091796875
774;493.7156066894531
775;493.48724365234375
776;493.25885009765625
777;493.0306091308594
778;492.8025817871094
779;492.5747375488281
780;492.3469543457031
781;492.1193542480469
782;491.8918762207031
783;491.6643981933594
784;491.4372253417969
785;491.21002197265625
786;490.98297119140625
787;490.7560119628906
788;490.529296875
789;490.30267333984375
790;490.07611083984375
791;489.849853515625
792;489.6236267089844
793;489.39764404296875
794;489.1716003417969
795;488.94573974609375
796;488.7201232910156
797;488.4945983886719
798;488.26922607421875
799;488.04388427734375
800;487.81866455078125
801;487.5935363769531
802;487.36871337890625
803;487.1438903808594
804;486.9192810058594
805;486.69482421875
806;486.47052001953125
807;486.2461853027344
808;486.02203369140625
809;485.798095703125
810;485.57427978515625
811;485.3504943847656
812;485.126953125
813;484.90338134765625
814;484.68011474609375
815;484.4569396972656
816;484.23388671875
817;484.0109558105469
818;483.7880554199219
819;483.56524658203125
820;483.34271240234375
821;483.12017822265625
822;482.8977966308594
823;482.6755676269531
824;482.45355224609375
825;482.23162841796875
826;482.0098571777344
827;481.7882385253906
828;481.5666198730469
829;481.34515380859375
830;481.1237487792969
831;480.9025573730469
832;480.6814880371094
833;480.4606018066406
834;480.23974609375
835;480.01898193359375
836;479.79833984375
837;479.5777282714844
838;479.3573913574219
839;479.13714599609375
840;478.9169921875
841;478.697021484375
842;478.4772033691406
843;478.2574157714844
844;478.037841796875
845;477.8182678222656
846;477.5989074707031
847;477.3797302246094
848;477.1604919433594
849;476.94146728515625
850;476.7225036621094
851;476.50372314453125
852;476.2850036621094
853;476.06646728515625
854;475.8481140136719
855;475.62994384765625
856;475.4119567871094
857;475.19403076171875
858;474.9762878417969
859;474.75872802734375
860;474.5412292480469
861;474.32379150390625
862;474.1065979003906
863;473.8893737792969
864;473.67236328125
865;473.4554138183594
866;473.23870849609375
867;473.0221252441406
868;472.8054504394531
869;472.5890197753906
870;472.37261962890625
871;472.15631103515625
872;471.94024658203125
873;471.72418212890625
874;471.50836181640625
875;471.29254150390625
876;471.0768737792969
877;470.8612976074219
878;470.6458435058594
879;470.4305114746094
880;470.2153625488281
881;470.00030517578125
882;469.7853698730469
883;469.5704650878906
884;469.3558044433594
885;469.1412658691406
886;468.9267578125
887;468.71234130859375
888;468.49798583984375
889;468.2839050292969
890;468.06988525390625
891;467.85595703125
892;467.64208984375
893;467.4283752441406
894;467.21484375
895;467.0013122558594
896;466.7878723144531
897;466.5745544433594
898;466.3614196777344
899;466.1484069824219
900;465.93548583984375
901;465.72265625
902;465.5099792480469
903;465.29736328125
904;465.0848083496094
905;464.8724060058594
906;464.66015625
907;464.4480285644531
908;464.2360534667969
909;464.02410888671875
910;463.8123474121094
911;463.6006164550781
912;463.3890075683594
913;463.1775207519531
914;462.96612548828125
915;462.7548828125
916;462.5436706542969
917;462.33258056640625
918;462.12176513671875
919;461.9109802246094
920;461.70025634765625
921;461.48968505859375
922;461.2792053222656
923;461.0686950683594
924;460.85845947265625
925;460.6482849121094
926;460.4382019042969
927;460.2282409667969
928;460.0183410644531
929;459.80853271484375
930;459.598876953125
931;459.3893127441406
932;459.1799011230469
933;458.9704895019531
934;458.76129150390625
935;458.55218505859375
936;458.3431091308594
937;458.13421630859375
938;457.92535400390625
939;457.71673583984375
940;457.5080871582031
941;457.2995910644531
942;457.0912780761719
943;456.88287353515625
944;456.6746520996094
945;456.46661376953125
946;456.2586364746094
947;456.0507507324219
948;455.8429870605469
949;455.6352844238281
950;455.42767333984375
951;455.22027587890625
952;455.0129699707031
953;454.8056945800781
954;454.59857177734375
955;454.3915710449219
956;454.18463134765625
957;453.97784423828125
958;453.77105712890625
959;453.5644226074219
960;453.35784912109375
961;453.1513671875
962;452.9449768066406
963;452.73870849609375
964;452.5325012207031
965;452.3265075683594
966;452.12060546875
967;451.9147644042969
968;451.70892333984375
969;451.5032653808594
970;451.29779052734375
971;451.09228515625
972;450.8869323730469
973;450.68170166015625
974;450.4765625
975;450.271484375
976;450.0666198730469
977;449.8617248535156
978;449.65692138671875
979;449.45220947265625
980;449.2476501464844
981;449.043212890625
982;448.8388366699219
983;448.6346130371094
984;448.4303894042969
985;448.2262268066406
986;448.0221862792969
987;447.818359375
988;447.6145324707031
989;447.4108581542969
990;447.20721435546875
991;447.00372314453125
992;446.80029296875
993;446.5969543457031
994;446.3937072753906
995;446.19049072265625
996;445.9874572753906
997;445.7845153808594
998;445.5816955566406
999;445.37896728515625
1000;445.1763000488281
1001;444.9737854003906
1002;444.7713317871094
1003;444.5690002441406
1004;444.3667297363281
1005;444.16455078125
1006;443.96246337890625
1007;443.7605285644531
1008;443.55859375
1009;443.3568420410156
1010;443.15521240234375
1011;442.95361328125
1012;442.75213623046875
1013;442.55072021484375
1014;442.3493957519531
1015;442.1482238769531
1016;441.9471130371094
1017;441.7461242675781
1018;441.5451965332031
1019;441.34442138671875
1020;441.14361572265625
1021;440.9430236816406
1022;440.7424621582031
1023;440.5419616699219
1024;440.3415832519531
1025;440.1412658691406
1026;439.9411315917969
1027;439.7409362792969
1028;439.541015625
1029;439.3410949707031
1030;439.1412658691406
1031;438.9415588378906
1032;438.7419128417969
1033;438.5423278808594
1034;438.34283447265625
1035;438.1434631347656
1036;437.9441223144531
1037;437.7449645996094
1038;437.5458984375
1039;437.3468933105469
1040;437.1479797363281
1041;436.94921875
1042;436.75048828125
1043;436.55181884765625
1044;436.3532409667969
1045;436.15472412109375
1046;435.9563903808594
1047;435.75811767578125
1048;435.5599060058594
1049;435.3617858886719
1050;435.1638488769531
1051;434.96588134765625
1052;434.76800537109375
1053;434.5703430175781
1054;434.37261962890625
1055;434.17510986328125
1056;433.9776916503906
1057;433.7802734375
1058;433.5829772949219
1059;433.3858337402344
1060;433.1887512207031
1061;432.99176025390625
1062;432.79486083984375
1063;432.5979309082031
1064;432.4012145996094
1065;432.2046203613281
1066;432.0080261230469
1067;431.81158447265625
1068;431.6151428222656
1069;431.4187927246094
1070;431.2225646972656
1071;431.02642822265625
1072;430.83038330078125
1073;430.6344909667969
1074;430.43865966796875
1075;430.24285888671875
1076;430.0471496582031
1077;429.85150146484375
1078;429.6559753417969
1079;429.4606018066406
1080;429.26519775390625
1081;429.0699768066406
1082;428.874755859375
1083;428.6797180175781
1084;428.4846496582031
1085;428.289794921875
1086;428.0950012207031
1087;427.9002380371094
1088;427.70562744140625
1089;427.5110168457031
1090;427.3165588378906
1091;427.1221618652344
1092;426.9278259277344
1093;426.733642578125
1094;426.53948974609375
1095;426.345458984375
1096;426.15142822265625
1097;425.95758056640625
1098;425.7638244628906
1099;425.5701599121094
1100;425.3764953613281
1101;425.1830139160156
1102;424.9895324707031
1103;424.79620361328125
1104;424.60296630859375
1105;424.40972900390625
1106;424.2166442871094
1107;424.0236511230469
1108;423.8307189941406
1109;423.63787841796875
1110;423.445068359375
1111;423.25244140625
1112;423.0598449707031
1113;422.8673400878906
1114;422.6748962402344
1115;422.4825134277344
1116;422.2903137207031
1117;422.09808349609375
1118;421.9060363769531
1119;421.7140808105469
1120;421.52215576171875
1121;421.3302917480469
1122;421.1385803222656
1123;420.9469299316406
1124;420.75531005859375
1125;420.5638122558594
1126;420.37237548828125
1127;420.1809997558594
1128;419.98980712890625
1129;419.7986145019531
1130;419.6075744628906
1131;419.4165954589844
1132;419.2257385253906
1133;419.03485107421875
1134;418.8441467285156
1135;418.6535339355469
1136;418.462890625
1137;418.2724609375
1138;418.08209228515625
1139;417.8917541503906
1140;417.7014465332031
1141;417.5113220214844
1142;417.32122802734375
1143;417.1312561035156
1144;416.94134521484375
1145;416.7514953613281
1146;416.56170654296875
1147;416.3720397949219
1148;416.1824645996094
1149;415.9929504394531
1150;415.8034973144531
1151;415.6141052246094
1152;415.4248352050781
1153;415.2356872558594
1154;415.046630859375
1155;414.8576354980469
1156;414.6687316894531
1157;414.47991943359375
1158;414.29107666015625
1159;414.1023864746094
1160;413.91375732421875
1161;413.7252502441406
1162;413.5367126464844
1163;413.348388671875
1164;413.16015625
1165;412.9719543457031
1166;412.7838439941406
1167;412.59576416015625
1168;412.4078063964844
1169;412.21990966796875
1170;412.0320739746094
1171;411.8443298339844
1172;411.65667724609375
1173;411.46917724609375
1174;411.2816467285156
1175;411.09423828125
1176;410.9069519042969
1177;410.7197265625
1178;410.53253173828125
1179;410.3455505371094
1180;410.15850830078125
1181;409.97161865234375
1182;409.78485107421875
1183;409.5981140136719
1184;409.4114685058594
1185;409.2249450683594
1186;409.0385437011719
1187;408.85211181640625
1188;408.66583251953125
1189;408.4796447753906
1190;408.2934875488281
1191;408.1073913574219
1192;407.9214172363281
1193;407.7355041503906
1194;407.5496520996094
1195;407.36395263671875
1196;407.17828369140625
1197;406.9927062988281
1198;406.80718994140625
1199;406.62176513671875
1200;406.43646240234375
1201;406.251220703125
1202;406.0660705566406
1203;405.8810119628906
1204;405.6959533691406
1205;405.5110168457031
1206;405.326171875
1207;405.1413879394531
1208;404.9566955566406
1209;404.7721252441406
1210;404.5875549316406
1211;404.4030456542969
1212;404.21868896484375
1213;404.0343933105469
1214;403.8501281738281
1215;403.6659851074219
1216;403.4819030761719
1217;403.2979431152344
1218;403.1140441894531
1219;402.93023681640625
1220;402.7464294433594
1221;402.562744140625
1222;402.3791198730469
1223;402.1956481933594
1224;402.01214599609375
1225;401.8287658691406
1226;401.6455383300781
1227;401.46234130859375
1228;401.2790832519531
1229;401.0960998535156
1230;400.9130859375
1231;400.7301330566406
1232;400.54730224609375
1233;400.3645324707031
1234;400.181884765625
1235;399.9992370605469
1236;399.8166809082031
1237;399.63427734375
1238;399.4518737792969
1239;399.2695617675781
1240;399.08740234375
1241;398.9052429199219
1242;398.72320556640625
1243;398.54119873046875
1244;398.3592834472656
1245;398.17742919921875
1246;397.99566650390625
1247;397.81396484375
1248;397.63232421875
1249;397.45074462890625
1250;397.2693176269531
1251;397.0879211425781
1252;396.9065856933594
1253;396.725341796875
1254;396.5441589355469
1255;396.36309814453125
1256;396.18206787109375
1257;396.00115966796875
1258;395.8203430175781
1259;395.6394958496094
1260;395.45880126953125
1261;395.27813720703125
1262;395.09759521484375
1263;394.91705322265625
1264;394.7366638183594
1265;394.55633544921875
1266;394.3760681152344
1267;394.19586181640625
1268;394.0157775878906
1269;393.8357238769531
1270;393.65582275390625
1271;393.4759216308594
1272;393.296142578125
1273;393.116455078125
1274;392.9367980957031
1275;392.75726318359375
1276;392.5777282714844
1277;392.3982849121094
1278;392.218994140625
1279;392.0397033691406
1280;391.8605041503906
1281;391.68133544921875
1282;391.50225830078125
1283;391.32330322265625
1284;391.1443786621094
1285;390.9655456542969
1286;390.78680419921875
1287;390.6080627441406
1288;390.4294738769531
1289;390.25091552734375
1290;390.0724792480469
1291;389.89410400390625
1292;389.7158203125
1293;389.5375671386719
1294;389.3593444824219
1295;389.1813049316406
1296;389.0032043457031
1297;388.82525634765625
1298;388.6474304199219
1299;388.4696350097656
1300;388.2919616699219
1301;388.11431884765625
1302;387.9367370605469
1303;387.7591247558594
1304;387.581787109375
1305;387.4044494628906
1306;387.22711181640625
1307;387.0499572753906
1308;386.872802734375
1309;386.69573974609375
1310;386.51873779296875
1311;386.341796875
1312;386.1648864746094
1313;385.98809814453125
1314;385.8113708496094
1315;385.6347961425781
1316;385.4582214355469
1317;385.2817077636719
1318;385.1053161621094
1319;384.9289855957031
1320;384.7526550292969
1321;384.5764465332031
1322;384.4002380371094
1323;384.2242126464844
1324;384.04827880859375
1325;383.87237548828125
1326;383.696533203125
1327;383.5207214355469
1328;383.3450622558594
1329;383.1694641113281
1330;382.9939270019531
1331;382.8184509277344
1332;382.64306640625
1333;382.4677429199219
1334;382.29254150390625
1335;382.1173400878906
1336;381.9421691894531
1337;381.76708984375
1338;381.5921325683594
1339;381.4172668457031
1340;381.2424621582031
1341;381.0677185058594
1342;380.89306640625
1343;380.71844482421875
1344;380.54388427734375
1345;380.3694152832031
1346;380.195068359375
1347;380.020751953125
1348;379.84649658203125
1349;379.67230224609375
1350;379.4981994628906
1351;379.3241882324219
1352;379.1502380371094
1353;378.9763488769531
1354;378.802490234375
1355;378.62872314453125
1356;378.4551086425781
1357;378.2814636230469
1358;378.1079406738281
1359;377.9344177246094
1360;377.76104736328125
1361;377.5877380371094
1362;377.41448974609375
1363;377.2412414550781
1364;377.0681457519531
1365;376.89508056640625
1366;376.7221374511719
1367;376.5491638183594
1368;376.3763732910156
1369;376.20355224609375
1370;376.03082275390625
1371;375.8581848144531
1372;375.68560791015625
1373;375.51312255859375
1374;375.3406677246094
1375;375.1683044433594
1376;374.99603271484375
1377;374.8237609863281
1378;374.651611328125
1379;374.4794921875
1380;374.30755615234375
1381;374.1355285644531
1382;373.9636535644531
1383;373.79180908203125
1384;373.6201171875
1385;373.44842529296875
1386;373.27679443359375
1387;373.105224609375
1388;372.93377685546875
1389;372.7623596191406
1390;372.591064453125
1391;372.41973876953125
1392;372.2485656738281
1393;372.07745361328125
1394;371.9063415527344
1395;371.73541259765625
1396;371.564453125
1397;371.3935546875
1398;371.2228088378906
1399;371.05206298828125
1400;370.88140869140625
1401;370.7108459472656
1402;370.5403137207031
1403;370.3698425292969
1404;370.199462890625
1405;370.0291442871094
1406;369.8589172363281
1407;369.6887512207031
1408;369.5185852050781
1409;369.3486328125
1410;369.1786193847656
1411;369.0086364746094
1412;368.83880615234375
1413;368.66900634765625
1414;368.4992980957031
1415;368.3296813964844
1416;368.16009521484375
1417;367.9905700683594
1418;367.8210754394531
1419;367.6517028808594
1420;367.482421875
1421;367.31317138671875
1422;367.14398193359375
1423;366.974853515625
1424;366.8058166503906
1425;366.6367492675781
1426;366.4678649902344
1427;366.29901123046875
1428;366.13018798828125
1429;365.96148681640625
1430;365.7928771972656
1431;365.624267578125
1432;365.45574951171875
1433;365.28729248046875
1434;365.1189270019531
1435;364.9505310058594
1436;364.7823181152344
1437;364.6141052246094
1438;364.44598388671875
1439;364.27789306640625
1440;364.10992431640625
1441;363.9420471191406
1442;363.774169921875
1443;363.60638427734375
1444;363.4386901855469
1445;363.27099609375
1446;363.10345458984375
1447;362.93597412109375
1448;362.7685241699219
1449;362.6011047363281
1450;362.4338073730469
1451;362.2665710449219
1452;362.09942626953125
1453;361.93231201171875
1454;361.7652893066406
1455;361.5983581542969
1456;361.431396484375
1457;361.2645568847656
1458;361.0978088378906
1459;360.9310607910156
1460;360.764404296875
1461;360.5978698730469
1462;360.43133544921875
1463;360.264892578125
1464;360.0985412597656
1465;359.9322204589844
1466;359.7659606933594
1467;359.5997619628906
1468;359.43365478515625
1469;359.267578125
1470;359.1015625
1471;358.9356994628906
1472;358.7698059082031
1473;358.6040344238281
1474;358.43829345703125
1475;358.2726745605469
1476;358.1070861816406
1477;357.9414978027344
1478;357.7759704589844
1479;357.610595703125
1480;357.44525146484375
1481;357.2799987792969
1482;357.1147766113281
1483;356.94964599609375
1484;356.7845153808594
1485;356.6195373535156
1486;356.4545593261719
1487;356.2897033691406
1488;356.12481689453125
1489;355.9600524902344
1490;355.7953796386719
1491;355.6307678222656
1492;355.4661560058594
1493;355.30157470703125
1494;355.13714599609375
1495;354.9728088378906
1496;354.8084411621094
1497;354.6441955566406
1498;354.47998046875
1499;354.3158264160156
1500;354.1517028808594
1501;353.98773193359375
1502;353.8237609863281
1503;353.6598815917969
1504;353.49603271484375
1505;353.332275390625
1506;353.1686096191406
1507;353.0049743652344
1508;352.8414001464844
1509;352.6778869628906
1510;352.51446533203125
1511;352.3511047363281
1512;352.1877746582031
1513;352.02447509765625
1514;351.861328125
1515;351.69818115234375
1516;351.5351257324219
1517;351.3720703125
1518;351.2091979980469
1519;351.0462341308594
1520;350.88348388671875
1521;350.7206726074219
1522;350.5580139160156
1523;350.3953552246094
1524;350.23284912109375
1525;350.0703125
1526;349.90789794921875
1527;349.7455139160156
1528;349.5832214355469
1529;349.42095947265625
1530;349.2587890625
1531;349.09661865234375
1532;348.9345703125
1533;348.7725524902344
1534;348.6106262207031
1535;348.44873046875
1536;348.28692626953125
1537;348.12518310546875
1538;347.9635314941406
1539;347.8019104003906
1540;347.6402893066406
1541;347.4787902832031
1542;347.31732177734375
1543;347.1559143066406
1544;346.9945983886719
1545;346.8333435058594
1546;346.672119140625
1547;346.5110168457031
1548;346.3499450683594
1549;346.1889343261719
1550;346.0279846191406
1551;345.8670959472656
1552;345.70623779296875
1553;345.54547119140625
1554;345.384765625
1555;345.22412109375
1556;345.0635070800781
1557;344.9029846191406
1558;344.74249267578125
1559;344.5821228027344
1560;344.4217224121094
1561;344.261474609375
1562;344.1012878417969
1563;343.9411315917969
1564;343.7810363769531
1565;343.62103271484375
1566;343.4610900878906
1567;343.30120849609375
1568;343.1413269042969
1569;342.9815979003906
1570;342.82183837890625
1571;342.66217041015625
1572;342.5025939941406
1573;342.3430480957031
1574;342.18353271484375
1575;342.024169921875
1576;341.86480712890625
1577;341.70550537109375
1578;341.5462341308594
1579;341.3870544433594
1580;341.22796630859375
1581;341.06890869140625
1582;340.90997314453125
1583;340.75103759765625
1584;340.5921936035156
1585;340.4333801269531
1586;340.2746276855469
1587;340.1159362792969
1588;339.9573059082031
1589;339.79876708984375
1590;339.6402893066406
1591;339.4817810058594
1592;339.3233947753906
1593;339.1650695800781
1594;339.0068359375
1595;338.8486633300781
1596;338.69049072265625
1597;338.53240966796875
1598;338.37445068359375
1599;338.2164611816406
1600;338.05859375
1601;337.9007873535156
1602;337.74298095703125
1603;337.58526611328125
1604;337.4275817871094
1605;337.27001953125
1606;337.11248779296875
1607;336.95501708984375
1608;336.7975769042969
1609;336.64019775390625
1610;336.48291015625
1611;336.32568359375
1612;336.16851806640625
1613;336.01141357421875
1614;335.8543395996094
1615;335.6973571777344
1616;335.54046630859375
1617;335.38360595703125
1618;335.2268371582031
1619;335.07000732421875
1620;334.913330078125
1621;334.7566833496094
1622;334.60009765625
1623;334.443603515625
1624;334.2871398925781
1625;334.13079833984375
1626;333.9744567871094
1627;333.8182067871094
1628;333.6619567871094
1629;333.5058288574219
1630;333.3497619628906
1631;333.1937561035156
1632;333.0377502441406
1633;332.8818054199219
1634;332.72601318359375
1635;332.5701599121094
1636;332.4144592285156
1637;332.2587890625
1638;332.1031799316406
1639;331.9476013183594
1640;331.7920837402344
1641;331.63665771484375
1642;331.48126220703125
1643;331.325927734375
1644;331.1706848144531
1645;331.0154724121094
1646;330.8603515625
1647;330.7052917480469
1648;330.55023193359375
1649;330.395263671875
1650;330.2403869628906
1651;330.08551025390625
1652;329.9307556152344
1653;329.77606201171875
1654;329.6213684082031
1655;329.46673583984375
1656;329.3122253417969
1657;329.1577453613281
1658;329.0033264160156
1659;328.84893798828125
1660;328.6946105957031
1661;328.5403747558594
1662;328.38623046875
1663;328.2320251464844
1664;328.0779724121094
1665;327.9239196777344
1666;327.7699890136719
1667;327.6160583496094
1668;327.46221923828125
1669;327.30841064453125
1670;327.1546936035156
1671;327.0010070800781
1672;326.847412109375
1673;326.69384765625
1674;326.5403137207031
1675;326.38690185546875
1676;326.2335510253906
1677;326.0801696777344
1678;325.9269104003906
1679;325.7737121582031
1680;325.62054443359375
1681;325.46746826171875
1682;325.31439208984375
1683;325.1614074707031
1684;325.008544921875
1685;324.855712890625
1686;324.7028503417969
1687;324.55010986328125
1688;324.3974609375
1689;324.24481201171875
1690;324.0922546386719
1691;323.9397277832031
1692;323.78729248046875
1693;323.6349182128906
1694;323.4825744628906
1695;323.33026123046875
1696;323.17803955078125
1697;323.02587890625
1698;322.873779296875
1699;322.7217102050781
1700;322.56976318359375
1701;322.41778564453125
1702;322.26593017578125
1703;322.1141662597656
1704;321.96234130859375
1705;321.8106384277344
1706;321.6590270996094
1707;321.5074768066406
1708;321.3559265136719
1709;321.2044372558594
1710;321.05303955078125
1711;320.90167236328125
1712;320.7503967285156
1713;320.59912109375
1714;320.4479675292969
1715;320.2968444824219
1716;320.145751953125
1717;319.99468994140625
1718;319.84375
1719;319.69287109375
1720;319.54205322265625
1721;319.3912658691406
1722;319.24053955078125
1723;319.08984375
1724;318.9392395019531
1725;318.7887268066406
1726;318.63818359375
1727;318.48773193359375
1728;318.33734130859375
1729;318.18701171875
1730;318.0367736816406
1731;317.8865051269531
1732;317.73638916015625
1733;317.5862731933594
1734;317.43621826171875
1735;317.28619384765625
1736;317.13629150390625
1737;316.98638916015625
1738;316.83660888671875
1739;316.68682861328125
1740;316.53717041015625
1741;316.3874816894531
1742;316.2379455566406
1743;316.08837890625
1744;315.93890380859375
1745;315.78948974609375
1746;315.6401062011719
1747;315.49078369140625
1748;315.3415222167969
1749;315.1923828125
1750;315.0431823730469
1751;314.8941345214844
1752;314.7451171875
1753;314.59613037109375
1754;314.4472351074219
1755;314.2983703613281
1756;314.1495666503906
1757;314.0008239746094
1758;313.85211181640625
1759;313.7034606933594
1760;313.5549011230469
1761;313.40643310546875
1762;313.2579040527344
1763;313.1094665527344
1764;312.9611511230469
1765;312.8128356933594
1766;312.6645812988281
1767;312.51641845703125
1768;312.3683166503906
1769;312.2201843261719
1770;312.07220458984375
1771;311.92425537109375
1772;311.7763366699219
1773;311.62847900390625
1774;311.4806823730469
1775;311.33294677734375
1776;311.18524169921875
1777;311.03759765625
1778;310.89007568359375
1779;310.7425231933594
1780;310.59503173828125
1781;310.4476013183594
1782;310.30029296875
1783;310.1529846191406
1784;310.0057678222656
1785;309.85858154296875
1786;309.7114562988281
1787;309.56439208984375
1788;309.4173889160156
1789;309.2703552246094
1790;309.1235046386719
1791;308.9767150878906
1792;308.8298645019531
1793;308.6831359863281
1794;308.53643798828125
1795;308.38983154296875
1796;308.2432556152344
1797;308.09674072265625
1798;307.9502868652344
1799;307.8038635253906
1800;307.65753173828125
1801;307.51123046875
1802;307.364990234375
1803;307.2187805175781
1804;307.07269287109375
1805;306.92657470703125
1806;306.78057861328125
1807;306.6346130371094
1808;306.48870849609375
1809;306.34283447265625
1810;306.197021484375
1811;306.0513000488281
1812;305.90557861328125
1813;305.7599792480469
1814;305.6143493652344
1815;305.4688415527344
1816;305.3233337402344
1817;305.1779479980469
1818;305.0326232910156
1819;304.88726806640625
1820;304.7420349121094
1821;304.5968322753906
1822;304.4516906738281
1823;304.3066101074219
1824;304.16156005859375
1825;304.0166015625
1826;303.8716125488281
1827;303.7267761230469
1828;303.58197021484375
1829;303.4372253417969
1830;303.29248046875
1831;303.1478576660156
1832;303.00323486328125
1833;302.8586730957031
1834;302.7142028808594
1835;302.56976318359375
1836;302.42535400390625
1837;302.2810363769531
1838;302.13677978515625
1839;301.9925842285156
1840;301.848388671875
1841;301.7043151855469
1842;301.5602111816406
1843;301.4162292480469
1844;301.2722473144531
1845;301.1283874511719
1846;300.9845886230469
1847;300.8408203125
1848;300.69708251953125
1849;300.5533752441406
1850;300.4097595214844
1851;300.2662048339844
1852;300.1227111816406
1853;299.979248046875
1854;299.83587646484375
1855;299.6924743652344
1856;299.5492248535156
1857;299.40594482421875
1858;299.2627868652344
1859;299.11962890625
1860;298.9765625
1861;298.8335266113281
1862;298.6905822753906
1863;298.54766845703125
1864;298.40478515625
1865;298.261962890625
1866;298.11920166015625
1867;297.9765319824219
1868;297.8338317871094
1869;297.6913146972656
1870;297.5486755371094
1871;297.40625
1872;297.2637634277344
1873;297.1214294433594
1874;296.97906494140625
1875;296.83685302734375
1876;296.6946105957031
1877;296.5524597167969
1878;296.4103698730469
1879;296.268310546875
1880;296.1262512207031
1881;295.9843444824219
1882;295.84246826171875
1883;295.7005920410156
1884;295.5588073730469
1885;295.41705322265625
1886;295.2753601074219
1887;295.1337585449219
1888;294.99212646484375
1889;294.85064697265625
1890;294.7091979980469
1891;294.5677185058594
1892;294.4264221191406
1893;294.2850646972656
1894;294.1438293457031
1895;294.00262451171875
1896;293.8614196777344
1897;293.7203674316406
1898;293.5793151855469
1899;293.4383239746094
1900;293.2973937988281
1901;293.1565246582031
1902;293.01568603515625
1903;292.8749084472656
1904;292.73419189453125
1905;292.593505859375
1906;292.452880859375
1907;292.31231689453125
1908;292.1718444824219
1909;292.0313415527344
1910;291.89093017578125
1911;291.7505798339844
1912;291.61029052734375
1913;291.4700622558594
1914;291.3298645019531
1915;291.189697265625
1916;291.04962158203125
1917;290.9095153808594
1918;290.76959228515625
1919;290.629638671875
1920;290.4897766113281
1921;290.3499450683594
1922;290.2101745605469
1923;290.0704650878906
1924;289.9307556152344
1925;289.7911682128906
1926;289.651611328125
1927;289.5120849609375
1928;289.37261962890625
1929;289.23321533203125
1930;289.0938415527344
1931;288.95452880859375
1932;288.8153381347656
1933;288.67608642578125
1934;288.5369567871094
1935;288.39788818359375
1936;288.25885009765625
1937;288.1198425292969
1938;287.98095703125
1939;287.842041015625
1940;287.7032470703125
1941;287.564453125
1942;287.4257507324219
1943;287.2870178222656
1944;287.1484375
1945;287.0098571777344
1946;286.871337890625
1947;286.73291015625
1948;286.5944519042969
1949;286.4561462402344
1950;286.3178405761719
1951;286.1795654296875
1952;286.04132080078125
1953;285.9032287597656
1954;285.7651062011719
1955;285.6270446777344
1956;285.48907470703125
1957;285.35113525390625
1958;285.2132873535156
1959;285.0754089355469
1960;284.9375915527344
1961;284.7998962402344
1962;284.6622009277344
1963;284.5246276855469
1964;284.3870544433594
1965;284.24951171875
1966;284.1120300292969
1967;283.9746398925781
1968;283.8372497558594
1969;283.6999206542969
1970;283.56268310546875
1971;283.42547607421875
1972;283.28826904296875
1973;283.1511535644531
1974;283.0141296386719
1975;282.8771057128906
1976;282.74017333984375
1977;282.6032409667969
1978;282.4664001464844
1979;282.3296203613281
1980;282.19287109375
1981;282.0561828613281
1982;281.9195251464844
1983;281.782958984375
1984;281.64642333984375
1985;281.5099182128906
1986;281.3735046386719
1987;281.2370910644531
1988;281.10076904296875
1989;280.9645080566406
1990;280.8282470703125
1991;280.69207763671875
1992;280.5559387207031
1993;280.41986083984375
1994;280.2838439941406
1995;280.1478576660156
1996;280.0119323730469
1997;279.8760681152344
1998;279.740234375
1999;279.6044921875
2000;279.46875
2001;279.33306884765625
2002;279.1975402832031
2003;279.06195068359375
2004;278.9264221191406
2005;278.79095458984375
2006;278.6555480957031
2007;278.5201721191406
2008;278.3849182128906
2009;278.2496643066406
2010;278.11444091796875
2011;277.9792785644531
2012;277.8441467285156
2013;277.7090759277344
2014;277.5741271972656
2015;277.4391784667969
2016;277.30426025390625
2017;277.16943359375
2018;277.0346374511719
2019;276.89990234375
2020;276.76519775390625
2021;276.63055419921875
2022;276.4960021972656
2023;276.3614196777344
2024;276.2269592285156
2025;276.092529296875
2026;275.9581604003906
2027;275.82379150390625
2028;275.68951416015625
2029;275.55523681640625
2030;275.4211120605469
2031;275.2869873046875
2032;275.15289306640625
2033;275.01885986328125
2034;274.8848571777344
2035;274.7509460449219
2036;274.6170959472656
2037;274.4832458496094
2038;274.3494873046875
2039;274.21575927734375
2040;274.08209228515625
2041;273.948486328125
2042;273.81488037109375
2043;273.6813659667969
2044;273.54791259765625
2045;273.41448974609375
2046;273.2810974121094
2047;273.14776611328125
2048;273.0144958496094
2049;272.88128662109375
2050;272.74810791015625
2051;272.6150207519531
2052;272.48193359375
2053;272.34893798828125
2054;272.21600341796875
2055;272.0830383300781
2056;271.9501647949219
2057;271.8173522949219
2058;271.6845703125
2059;271.5518493652344
2060;271.4192199707031
2061;271.2865905761719
2062;271.15399169921875
2063;271.021484375
2064;270.8890075683594
2065;270.7566223144531
2066;270.6242370605469
2067;270.491943359375
2068;270.35968017578125
2069;270.2274169921875
2070;270.09527587890625
2071;269.9631652832031
2072;269.83111572265625
2073;269.6991271972656
2074;269.567138671875
2075;269.43524169921875
2076;269.3033752441406
2077;269.17156982421875
2078;269.039794921875
2079;268.9080505371094
2080;268.7763977050781
2081;268.6448059082031
2082;268.5132141113281
2083;268.3817138671875
2084;268.250244140625
2085;268.1188659667969
2086;267.9874572753906
2087;267.85614013671875
2088;267.7248840332031
2089;267.5936584472656
2090;267.4624938964844
2091;267.3313903808594
2092;267.2003479003906
2093;267.0693359375
2094;266.9383544921875
2095;266.8074645996094
2096;266.6766052246094
2097;266.5457458496094
2098;266.4150085449219
2099;266.2842712402344
2100;266.1535949707031
2101;266.02301025390625
2102;265.8924255371094
2103;265.76190185546875
2104;265.6314392089844
2105;265.5010070800781
2106;265.3706359863281
2107;265.24029541015625
2108;265.11004638671875
2109;264.97979736328125
2110;264.8496398925781
2111;264.71954345703125
2112;264.5895080566406
2113;264.4594421386719
2114;264.3294677734375
2115;264.19952392578125
2116;264.0696716308594
2117;263.93988037109375
2118;263.81011962890625
2119;263.68035888671875
2120;263.5506896972656
2121;263.42108154296875
2122;263.2914733886719
2123;263.1619567871094
2124;263.032470703125
2125;262.903076171875
2126;262.7736511230469
2127;262.64434814453125
2128;262.5151062011719
2129;262.3858337402344
2130;262.25665283203125
2131;262.12750244140625
2132;261.9984436035156
2133;261.869384765625
2134;261.74041748046875
2135;261.6114501953125
2136;261.4825744628906
2137;261.3537292480469
2138;261.2249450683594
2139;261.09619140625
2140;260.9675598144531
2141;260.8388671875
2142;260.7102966308594
2143;260.5817565917969
2144;260.4532165527344
2145;260.3247985839844
2146;260.1964416503906
2147;260.0680847167969
2148;259.93975830078125
2149;259.8115539550781
2150;259.6833190917969
2151;259.55517578125
2152;259.42706298828125
2153;259.29901123046875
2154;259.17095947265625
2155;259.04302978515625
2156;258.9151306152344
2157;258.78729248046875
2158;258.65948486328125
2159;258.5317077636719
2160;258.40399169921875
2161;258.2763366699219
2162;258.1487121582031
2163;258.02117919921875
2164;257.8936462402344
2165;257.76617431640625
2166;257.6387634277344
2167;257.51141357421875
2168;257.3840637207031
2169;257.25677490234375
2170;257.12957763671875
2171;257.0024108886719
2172;256.875244140625
2173;256.7481994628906
2174;256.6211242675781
2175;256.4941711425781
2176;256.36724853515625
2177;256.2403869628906
2178;256.1135559082031
2179;255.9867706298828
2180;255.8600311279297
2181;255.73330688476562
2182;255.60671997070312
2183;255.48011779785156
2184;255.3535919189453
2185;255.22706604003906
2186;255.10061645507812
2187;254.9742431640625
2188;254.847900390625
2189;254.7216033935547
2190;254.59535217285156
2191;254.46910095214844
2192;254.3429412841797
2193;254.2168426513672
2194;254.09080505371094
2195;253.9647979736328
2196;253.83883666992188
2197;253.71292114257812
2198;253.5870361328125
2199;253.46121215820312
2200;253.33543395996094
2201;253.209716796875
2202;253.08407592773438
2203;252.95848083496094
2204;252.8328399658203
2205;252.7073516845703
2206;252.5818634033203
2207;252.45640563964844
2208;252.33103942871094
2209;252.20567321777344
2210;252.08041381835938
2211;251.9551544189453
2212;251.82994079589844
2213;251.704833984375
2214;251.5797119140625
2215;251.45469665527344
2216;251.32969665527344
2217;251.2047576904297
2218;251.07986450195312
2219;250.9550018310547
2220;250.8302001953125
2221;250.70542907714844
2222;250.58070373535156
2223;250.4560546875
2224;250.33140563964844
2225;250.2068634033203
2226;250.08238220214844
2227;249.9578857421875
2228;249.83346557617188
2229;249.7090606689453
2230;249.58474731445312
2231;249.46046447753906
2232;249.33621215820312
2233;249.21205139160156
2234;249.08792114257812
2235;248.9637908935547
2236;248.8397674560547
2237;248.71578979492188
2238;248.59182739257812
2239;248.46791076660156
2240;248.3440704345703
2241;248.2202606201172
2242;248.0964813232422
2243;247.97280883789062
2244;247.84912109375
2245;247.7255096435547
2246;247.60191345214844
2247;247.47840881347656
2248;247.3549346923828
2249;247.2315216064453
2250;247.108154296875
2251;246.9847869873047
2252;246.86154174804688
2253;246.73828125
2254;246.61512756347656
2255;246.49197387695312
2256;246.36886596679688
2257;246.245849609375
2258;246.12283325195312
2259;245.99990844726562
2260;245.87698364257812
2261;245.754150390625
2262;245.63131713867188
2263;245.50857543945312
2264;245.38587951660156
2265;245.26319885253906
2266;245.14059448242188
2267;245.0180206298828
2268;244.89547729492188
2269;244.7730255126953
2270;244.65060424804688
2271;244.52821350097656
2272;244.40586853027344
2273;244.2835693359375
2274;244.16134643554688
2275;244.03916931152344
2276;243.9169921875
2277;243.794921875
2278;243.6728515625
2279;243.5508575439453
2280;243.4289093017578
2281;243.3070068359375
2282;243.18516540527344
2283;243.0633087158203
2284;242.94154357910156
2285;242.81982421875
2286;242.69813537597656
2287;242.5765380859375
2288;242.45494079589844
2289;242.33340454101562
2290;242.21194458007812
2291;242.09054565429688
2292;241.96910095214844
2293;241.84776306152344
2294;241.72645568847656
2295;241.60519409179688
2296;241.48399353027344
2297;241.3628692626953
2298;241.24172973632812
2299;241.1206512451172
2300;240.99964904785156
2301;240.87869262695312
2302;240.7577667236328
2303;240.6368865966797
2304;240.51608276367188
2305;240.39529418945312
2306;240.27455139160156
2307;240.15383911132812
2308;240.033203125
2309;239.91262817382812
2310;239.79208374023438
2311;239.67153930664062
2312;239.5511016845703
2313;239.43069458007812
2314;239.310302734375
2315;239.1900177001953
2316;239.0697479248047
2317;238.94949340820312
2318;238.82933044433594
2319;238.70919799804688
2320;238.589111328125
2321;238.4690704345703
2322;238.3490447998047
2323;238.2291259765625
2324;238.10923767089844
2325;237.98939514160156
2326;237.86959838867188
2327;237.74986267089844
2328;237.63011169433594
2329;237.51046752929688
2330;237.39085388183594
2331;237.2712860107422
2332;237.15174865722656
2333;237.0323028564453
2334;236.912841796875
2335;236.79345703125
2336;236.6741180419922
2337;236.55484008789062
2338;236.4355926513672
2339;236.31637573242188
2340;236.19723510742188
2341;236.07809448242188
2342;235.9590606689453
2343;235.84005737304688
2344;235.72108459472656
2345;235.6021728515625
2346;235.4832763671875
2347;235.36447143554688
2348;235.2456817626953
2349;235.12693786621094
2350;235.0082244873047
2351;234.88961791992188
2352;234.77099609375
2353;234.65243530273438
2354;234.533935546875
2355;234.4154510498047
2356;234.2970428466797
2357;234.17869567871094
2358;234.06033325195312
2359;233.9420928955078
2360;233.8238525390625
2361;233.70567321777344
2362;233.58750915527344
2363;233.46945190429688
2364;233.35140991210938
2365;233.2333984375
2366;233.11544799804688
2367;232.99754333496094
2368;232.87966918945312
2369;232.76185607910156
2370;232.64407348632812
2371;232.5263671875
2372;232.40869140625
2373;232.29104614257812
2374;232.17347717285156
2375;232.05593872070312
2376;231.9384002685547
2377;231.82093811035156
2378;231.70358276367188
2379;231.58621215820312
2380;231.46890258789062
2381;231.3516082763672
2382;231.2344207763672
2383;231.1172332763672
2384;231.00010681152344
2385;230.883056640625
2386;230.76600646972656
2387;230.64901733398438
2388;230.53207397460938
2389;230.41517639160156
2390;230.29830932617188
2391;230.18150329589844
2392;230.0647735595703
2393;229.94802856445312
2394;229.8313751220703
2395;229.71473693847656
2396;229.59815979003906
2397;229.48165893554688
2398;229.36514282226562
2399;229.2487030029297
2400;229.13229370117188
2401;229.0159454345703
2402;228.899658203125
2403;228.7833709716797
2404;228.6671600341797
2405;228.5509796142578
2406;228.4348907470703
2407;228.3188018798828
2408;228.20274353027344
2409;228.08676147460938
2410;227.9708251953125
2411;227.8549041748047
2412;227.7390899658203
2413;227.62327575683594
2414;227.50753784179688
2415;227.39181518554688
2416;227.276123046875
2417;227.16050720214844
2418;227.044921875
2419;226.92941284179688
2420;226.8138885498047
2421;226.69850158691406
2422;226.5830841064453
2423;226.4677276611328
2424;226.35240173339844
2425;226.23716735839844
2426;226.12191772460938
2427;226.0067596435547
2428;225.8916473388672
2429;225.7765350341797
2430;225.66152954101562
2431;225.54653930664062
2432;225.43161010742188
2433;225.31668090820312
2434;225.2018280029297
2435;225.08705139160156
2436;224.97227478027344
2437;224.8575439453125
2438;224.74288940429688
2439;224.6282501220703
2440;224.513671875
2441;224.39915466308594
2442;224.28463745117188
2443;224.17019653320312
2444;224.0557861328125
2445;223.94142150878906
2446;223.82711791992188
2447;223.71286010742188
2448;223.59860229492188
2449;223.48440551757812
2450;223.3702850341797
2451;223.25619506835938
2452;223.14218139648438
2453;223.0281524658203
2454;222.91421508789062
2455;222.80029296875
2456;222.6864471435547
2457;222.5726318359375
2458;222.45884704589844
2459;222.34510803222656
2460;222.2314453125
2461;222.11778259277344
2462;222.0041961669922
2463;221.890625
2464;221.77711486816406
2465;221.66368103027344
2466;221.55026245117188
2467;221.4368896484375
2468;221.3235626220703
2469;221.2102813720703
2470;221.09703063964844
2471;220.98385620117188
2472;220.87069702148438
2473;220.75759887695312
2474;220.64454650878906
2475;220.53152465820312
2476;220.41856384277344
2477;220.30564880371094
2478;220.19276428222656
2479;220.07994079589844
2480;219.96714782714844
2481;219.85438537597656
2482;219.74169921875
2483;219.62904357910156
2484;219.5164337158203
2485;219.4038543701172
2486;219.29136657714844
2487;219.17886352539062
2488;219.0664520263672
2489;218.9540557861328
2490;218.84170532226562
2491;218.72940063476562
2492;218.6171417236328
2493;218.5049285888672
2494;218.3927459716797
2495;218.28062438964844
2496;218.1685333251953
2497;218.0565185546875
2498;217.9445343017578
2499;217.8325958251953
2500;217.720703125
2501;217.6088104248047
2502;217.49703979492188
2503;217.38525390625
2504;217.2735595703125
2505;217.16188049316406
2506;217.05026245117188
2507;216.9386444091797
2508;216.8271026611328
2509;216.71559143066406
2510;216.6041259765625
2511;216.4927215576172
2512;216.38136291503906
2513;216.27003479003906
2514;216.1587677001953
2515;216.0475311279297
2516;215.93630981445312
2517;215.82521057128906
2518;215.71408081054688
2519;215.60302734375
2520;215.4919891357422
2521;215.3810272216797
2522;215.2700958251953
2523;215.1592254638672
2524;215.0483856201172
2525;214.93759155273438
2526;214.8268280029297
2527;214.7161102294922
2528;214.60546875
2529;214.49484252929688
2530;214.38427734375
2531;214.2737579345703
2532;214.1632537841797
2533;214.0528106689453
2534;213.94241333007812
2535;213.83203125
2536;213.7217559814453
2537;213.61146545410156
2538;213.50125122070312
2539;213.39108276367188
2540;213.28097534179688
2541;213.17086791992188
2542;213.06082153320312
2543;212.9508056640625
2544;212.84085083007812
2545;212.73092651367188
2546;212.62106323242188
2547;212.51123046875
2548;212.40145874023438
2549;212.29171752929688
2550;212.1820068359375
2551;212.07237243652344
2552;211.96275329589844
2553;211.8531951904297
2554;211.74365234375
2555;211.63418579101562
2556;211.5247802734375
2557;211.41539001464844
2558;211.30604553222656
2559;211.1967315673828
2560;211.0874786376953
2561;210.97825622558594
2562;210.8690948486328
2563;210.75999450683594
2564;210.65087890625
2565;210.5418701171875
2566;210.43284606933594
2567;210.3238983154297
2568;210.21499633789062
2569;210.1061248779297
2570;209.99729919433594
2571;209.8885498046875
2572;209.7798309326172
2573;209.67112731933594
2574;209.5625
2575;209.453857421875
2576;209.34530639648438
2577;209.23678588867188
2578;209.1282958984375
2579;209.01988220214844
2580;208.91148376464844
2581;208.8031463623047
2582;208.69485473632812
2583;208.5865936279297
2584;208.47837829589844
2585;208.37022399902344
2586;208.26210021972656
2587;208.15402221679688
2588;208.04598999023438
2589;207.93798828125
2590;207.83004760742188
2591;207.72213745117188
2592;207.61427307128906
2593;207.50645446777344
2594;207.398681640625
2595;207.29092407226562
2596;207.18324279785156
2597;207.07559204101562
2598;206.96798706054688
2599;206.8604278564453
2600;206.7529296875
2601;206.6454315185547
2602;206.5380401611328
2603;206.43063354492188
2604;206.3232879638672
2605;206.21597290039062
2606;206.1087188720703
2607;206.00149536132812
2608;205.89431762695312
2609;205.78721618652344
2610;205.6800994873047
2611;205.57308959960938
2612;205.466064453125
2613;205.35911560058594
2614;205.252197265625
2615;205.1453094482422
2616;205.0384979248047
2617;204.9317169189453
2618;204.82496643066406
2619;204.71826171875
2620;204.6116180419922
2621;204.50498962402344
2622;204.3984375
2623;204.29190063476562
2624;204.18544006347656
2625;204.0789794921875
2626;203.9725799560547
2627;203.86624145507812
2628;203.7599639892578
2629;203.65365600585938
2630;203.54745483398438
2631;203.44125366210938
2632;203.33511352539062
2633;203.22900390625
2634;203.1229705810547
2635;203.0169677734375
2636;202.91098022460938
2637;202.8050537109375
2638;202.69918823242188
2639;202.5933074951172
2640;202.48753356933594
2641;202.38180541992188
2642;202.2760467529297
2643;202.17041015625
2644;202.0647735595703
2645;201.9591827392578
2646;201.85365295410156
2647;201.7481689453125
2648;201.64273071289062
2649;201.5372772216797
2650;201.43191528320312
2651;201.3266143798828
2652;201.2213134765625
2653;201.11607360839844
2654;201.01087951660156
2655;200.90573120117188
2656;200.8006134033203
2657;200.69554138183594
2658;200.5904998779297
2659;200.4855499267578
2660;200.38059997558594
2661;200.2756805419922
2662;200.1708221435547
2663;200.06602478027344
2664;199.9612579345703
2665;199.8565216064453
2666;199.75184631347656
2667;199.64718627929688
2668;199.54258728027344
2669;199.43801879882812
2670;199.33349609375
2671;199.22901916503906
2672;199.12460327148438
2673;199.0202178955078
2674;198.91587829589844
2675;198.81155395507812
2676;198.707275390625
2677;198.60305786132812
2678;198.49888610839844
2679;198.39474487304688
2680;198.29067993164062
2681;198.18663024902344
2682;198.08261108398438
2683;197.97865295410156
2684;197.87474060058594
2685;197.77085876464844
2686;197.66700744628906
2687;197.56321716308594
2688;197.45945739746094
2689;197.35574340820312
2690;197.2520751953125
2691;197.14845275878906
2692;197.0448760986328
2693;196.9413299560547
2694;196.8378143310547
2695;196.734375
2696;196.63096618652344
2697;196.527587890625
2698;196.4242401123047
2699;196.3209686279297
2700;196.2176971435547
2701;196.11451721191406
2702;196.0113525390625
2703;195.9082489013672
2704;195.80517578125
2705;195.70213317871094
2706;195.59915161132812
2707;195.49620056152344
2708;195.39328002929688
2709;195.29042053222656
2710;195.18760681152344
2711;195.08482360839844
2712;194.98207092285156
2713;194.87936401367188
2714;194.77671813964844
2715;194.67408752441406
2716;194.571533203125
2717;194.468994140625
2718;194.3665313720703
2719;194.26405334472656
2720;194.16165161132812
2721;194.05931091308594
2722;193.9569854736328
2723;193.85470581054688
2724;193.75247192382812
2725;193.6502685546875
2726;193.548095703125
2727;193.44601440429688
2728;193.3439483642578
2729;193.24191284179688
2730;193.13990783691406
2731;193.03797912597656
2732;192.9360809326172
2733;192.83421325683594
2734;192.732421875
2735;192.63064575195312
2736;192.52891540527344
2737;192.4272003173828
2738;192.3255615234375
2739;192.2239532470703
2740;192.1223602294922
2741;192.0208740234375
2742;191.9193878173828
2743;191.8179473876953
2744;191.71653747558594
2745;191.61520385742188
2746;191.5138702392578
2747;191.41256713867188
2748;191.3113555908203
2749;191.21017456054688
2750;191.10902404785156
2751;191.0078887939453
2752;190.90684509277344
2753;190.8058319091797
2754;190.704833984375
2755;190.60389709472656
2756;190.5030059814453
2757;190.40211486816406
2758;190.3013153076172
2759;190.2005615234375
2760;190.09982299804688
2761;189.99913024902344
2762;189.89846801757812
2763;189.79788208007812
2764;189.69729614257812
2765;189.59677124023438
2766;189.4962921142578
2767;189.39585876464844
2768;189.2954559326172
2769;189.19509887695312
2770;189.0948028564453
2771;188.9945068359375
2772;188.894287109375
2773;188.79408264160156
2774;188.6939239501953
2775;188.5938262939453
2776;188.49375915527344
2777;188.3937225341797
2778;188.2937469482422
2779;188.1938018798828
2780;188.09388732910156
2781;187.99404907226562
2782;187.8942108154297
2783;187.79443359375
2784;187.69471740722656
2785;187.59500122070312
2786;187.49533081054688
2787;187.395751953125
2788;187.29617309570312
2789;187.19664001464844
2790;187.09716796875
2791;186.99769592285156
2792;186.89830017089844
2793;186.79891967773438
2794;186.69960021972656
2795;186.600341796875
2796;186.5010986328125
2797;186.40188598632812
2798;186.302734375
2799;186.20361328125
2800;186.1045379638672
2801;186.00552368164062
2802;185.90650939941406
2803;185.8075408935547
2804;185.7086639404297
2805;185.60977172851562
2806;185.5109405517578
2807;185.4121551513672
2808;185.3134002685547
2809;185.21470642089844
2810;185.11607360839844
2811;185.01742553710938
2812;184.91883850097656
2813;184.8203125
2814;184.72181701660156
2815;184.6233367919922
2816;184.52491760253906
2817;184.42652893066406
2818;184.32821655273438
2819;184.2299041748047
2820;184.1316680908203
2821;184.03346252441406
2822;183.93528747558594
2823;183.837158203125
2824;183.7390594482422
2825;183.6409912109375
2826;183.54299926757812
2827;183.44503784179688
2828;183.3470916748047
2829;183.24923706054688
2830;183.1513671875
2831;183.0535888671875
2832;182.955810546875
2833;182.8581085205078
2834;182.76039123535156
2835;182.66273498535156
2836;182.5651397705078
2837;182.4676055908203
2838;182.37008666992188
2839;182.27259826660156
2840;182.17515563964844
2841;182.0777587890625
2842;181.9803924560547
2843;181.88308715820312
2844;181.7858123779297
2845;181.68858337402344
2846;181.59140014648438
2847;181.49423217773438
2848;181.39712524414062
2849;181.30001831054688
2850;181.20301818847656
2851;181.1060028076172
2852;181.0091094970703
2853;180.9121856689453
2854;180.81532287597656
2855;180.71847534179688
2856;180.62168884277344
2857;180.52493286132812
2858;180.42825317382812
2859;180.33157348632812
2860;180.23497009277344
2861;180.1383514404297
2862;180.0418243408203
2863;179.9453125
2864;179.84886169433594
2865;179.75245666503906
2866;179.6560821533203
2867;179.5597381591797
2868;179.4634552001953
2869;179.3671875
2870;179.27096557617188
2871;179.1748046875
2872;179.0786590576172
2873;178.98255920410156
2874;178.886474609375
2875;178.79049682617188
2876;178.69448852539062
2877;178.5985870361328
2878;178.50267028808594
2879;178.4068145751953
2880;178.31100463867188
2881;178.21522521972656
2882;178.1195068359375
2883;178.02381896972656
2884;177.9281463623047
2885;177.83255004882812
2886;177.7369842529297
2887;177.64146423339844
2888;177.5459747314453
2889;177.4505157470703
2890;177.3551025390625
2891;177.25973510742188
2892;177.16441345214844
2893;177.06912231445312
2894;176.973876953125
2895;176.878662109375
2896;176.7834930419922
2897;176.68838500976562
2898;176.59327697753906
2899;176.4982147216797
2900;176.40322875976562
2901;176.30824279785156
2902;176.21336364746094
2903;176.1184539794922
2904;176.0236053466797
2905;175.9287872314453
2906;175.8340301513672
2907;175.73928833007812
2908;175.64462280273438
2909;175.5499725341797
2910;175.45535278320312
2911;175.36080932617188
2912;175.2662811279297
2913;175.1717987060547
2914;175.07736206054688
2915;174.98294067382812
2916;174.88856506347656
2917;174.7942657470703
2918;174.69998168945312
2919;174.605712890625
2920;174.51150512695312
2921;174.4173583984375
2922;174.3232421875
2923;174.2291259765625
2924;174.1350860595703
2925;174.0410919189453
2926;173.94712829589844
2927;173.8531951904297
2928;173.75930786132812
2929;173.6654815673828
2930;173.5716552734375
2931;173.47789001464844
2932;173.3841552734375
2933;173.2904815673828
2934;173.1968536376953
2935;173.10324096679688
2936;173.0096893310547
2937;172.91615295410156
2938;172.82266235351562
2939;172.72921752929688
2940;172.6357879638672
2941;172.54244995117188
2942;172.44911193847656
2943;172.3558349609375
2944;172.26258850097656
2945;172.1693878173828
2946;172.0762176513672
2947;171.9831085205078
2948;171.8900146484375
2949;171.7969512939453
2950;171.70396423339844
2951;171.61099243164062
2952;171.51806640625
2953;171.42515563964844
2954;171.33230590820312
2955;171.239501953125
2956;171.14674377441406
2957;171.0540313720703
2958;170.96131896972656
2959;170.86865234375
2960;170.7760772705078
2961;170.68348693847656
2962;170.5909423828125
2963;170.49844360351562
2964;170.406005859375
2965;170.3135986328125
2966;170.22122192382812
2967;170.12890625
2968;170.03660583496094
2969;169.9443359375
2970;169.85214233398438
2971;169.7599334716797
2972;169.66783142089844
2973;169.5757293701172
2974;169.48365783691406
2975;169.3916473388672
2976;169.2996826171875
2977;169.20774841308594
2978;169.11585998535156
2979;169.0240020751953
2980;168.93215942382812
2981;168.8404083251953
2982;168.74867248535156
2983;168.65695190429688
2984;168.56529235839844
2985;168.47366333007812
2986;168.382080078125
2987;168.29054260253906
2988;168.1990509033203
2989;168.10757446289062
2990;168.01614379882812
2991;167.92477416992188
2992;167.8334197998047
2993;167.7421417236328
2994;167.65084838867188
2995;167.5596160888672
2996;167.4684295654297
2997;167.37728881835938
2998;167.2861785888672
2999;167.19509887695312
