;loss
0;903.1696166992188
1;902.8445434570312
2;902.52001953125
3;902.2249145507812
4;901.9008178710938
5;901.5769653320312
6;901.2533569335938
7;900.9299926757812
8;900.6067504882812
9;900.2837524414062
10;899.9609375
11;899.6384887695312
12;899.315673828125
13;898.9916381835938
14;898.66845703125
15;898.3449096679688
16;898.0184936523438
17;897.69091796875
18;897.3654174804688
19;897.0388793945312
20;896.7112426757812
21;896.38232421875
22;896.0519409179688
23;895.7161254882812
24;895.37841796875
25;895.0425415039062
26;894.7007446289062
27;894.356689453125
28;894.0100708007812
29;893.6610717773438
30;893.3093872070312
31;892.9590454101562
32;892.60595703125
33;892.2457885742188
34;891.882568359375
35;891.520263671875
36;891.1505737304688
37;890.7775268554688
38;890.4009399414062
39;890.0208129882812
40;889.64111328125
41;889.2576293945312
42;888.8662719726562
43;888.4749145507812
44;888.0756225585938
45;887.6721801757812
46;887.2683715820312
47;886.8564453125
48;886.4400024414062
49;886.01904296875
50;885.5934448242188
51;885.1630859375
52;884.72802734375
53;884.2916870117188
54;883.8464965820312
55;883.4002075195312
56;882.94482421875
57;882.488037109375
58;882.0256958007812
59;881.5542602539062
60;881.0772094726562
61;880.5982055664062
62;880.11328125
63;879.6188354492188
64;879.1220703125
65;878.619140625
66;878.106201171875
67;877.5906372070312
68;877.0650024414062
69;876.53662109375
70;876.0012817382812
71;875.4557495117188
72;874.906982421875
73;874.3474731445312
74;873.781005859375
75;873.2107543945312
76;872.6296997070312
77;872.041015625
78;871.4448852539062
79;870.841064453125
80;870.2294311523438
81;869.6134643554688
82;868.9857788085938
83;868.3536987304688
84;867.7131958007812
85;867.060791015625
86;866.403564453125
87;865.7377319335938
88;865.0597534179688
89;864.37646484375
90;863.6841430664062
91;862.9830932617188
92;862.2726440429688
93;861.552978515625
94;860.8239135742188
95;860.0855102539062
96;859.333984375
97;858.576416015625
98;857.8053588867188
99;857.0283203125
100;856.2376098632812
101;855.4369506835938
102;854.6296997070312
103;853.8125610351562
104;852.9814453125
105;852.14404296875
106;851.2925415039062
107;850.4345092773438
108;849.5621948242188
109;848.683349609375
110;847.7938842773438
111;846.8941040039062
112;845.98388671875
113;845.0632934570312
114;844.1283569335938
115;843.182861328125
116;842.226806640625
117;841.2643432617188
118;840.2875366210938
119;839.30419921875
120;838.3068237304688
121;837.2992553710938
122;836.281494140625
123;835.2577514648438
124;834.22412109375
125;833.1806640625
126;832.1273803710938
127;831.0607299804688
128;829.9885864257812
129;828.9072265625
130;827.8167114257812
131;826.7171020507812
132;825.60498046875
133;824.4882202148438
134;823.363037109375
135;822.2299194335938
136;821.0888671875
137;819.9404296875
138;818.7848510742188
139;817.6220703125
140;816.4487915039062
141;815.2731323242188
142;814.0873413085938
143;812.8958129882812
144;811.7028198242188
145;810.5046997070312
146;809.2980346679688
147;808.0869750976562
148;806.875732421875
149;805.6608276367188
150;804.4387817382812
151;803.2138671875
152;801.9901733398438
153;800.7639770507812
154;799.5360717773438
155;798.3067016601562
156;797.072509765625
157;795.8375854492188
158;794.6023559570312
159;793.37109375
160;792.14013671875
161;790.9064331054688
162;789.6773071289062
163;788.4501953125
164;787.2250366210938
165;785.9988403320312
166;784.7755737304688
167;783.5553588867188
168;782.3385620117188
169;781.12548828125
170;779.9168090820312
171;778.7160034179688
172;777.516845703125
173;776.3261108398438
174;775.1376342773438
175;773.9548950195312
176;772.7814331054688
177;771.6111450195312
178;770.4505004882812
179;769.2948608398438
180;768.14892578125
181;767.013427734375
182;765.882568359375
183;764.7597045898438
184;763.6475219726562
185;762.54345703125
186;761.447509765625
187;760.3573608398438
188;759.2755737304688
189;758.2048950195312
190;757.14794921875
191;756.1016235351562
192;755.064453125
193;754.0365600585938
194;753.017822265625
195;752.00830078125
196;751.0078735351562
197;750.0166015625
198;749.034423828125
199;748.0632934570312
200;747.09912109375
201;746.1439819335938
202;745.2011108398438
203;744.2685546875
204;743.3449096679688
205;742.4298706054688
206;741.523681640625
207;740.6261596679688
208;739.7352905273438
209;738.8547973632812
210;737.983642578125
211;737.1212768554688
212;736.2671508789062
213;735.4210815429688
214;734.5831909179688
215;733.75390625
216;732.9308471679688
217;732.1171875
218;731.3095092773438
219;730.5093383789062
220;729.7195434570312
221;728.9365844726562
222;728.162841796875
223;727.395751953125
224;726.6381225585938
225;725.8860473632812
226;725.14306640625
227;724.4072875976562
228;723.6786499023438
229;722.9586791992188
230;722.2483520507812
231;721.5466918945312
232;720.8504028320312
233;720.161865234375
234;719.477783203125
235;718.800537109375
236;718.1301879882812
237;717.4656372070312
238;716.8070678710938
239;716.1539916992188
240;715.5068359375
241;714.8649291992188
242;714.2290649414062
243;713.5974731445312
244;712.9705200195312
245;712.35107421875
246;711.7359008789062
247;711.1240234375
248;710.5165405273438
249;709.9130859375
250;709.3136596679688
251;708.7192993164062
252;708.1290893554688
253;707.5426635742188
254;706.9609985351562
255;706.3829956054688
256;705.8093872070312
257;705.2399291992188
258;704.6763305664062
259;704.1171264648438
260;703.5604858398438
261;703.008544921875
262;702.4601440429688
263;701.9138793945312
264;701.3707885742188
265;700.8309936523438
266;700.2951049804688
267;699.761962890625
268;699.2307739257812
269;698.703125
270;698.177490234375
271;697.6549682617188
272;697.1364135742188
273;696.6193237304688
274;696.1046752929688
275;695.59228515625
276;695.0830078125
277;694.5753784179688
278;694.0700073242188
279;693.5667114257812
280;693.065673828125
281;692.5668334960938
282;692.0700073242188
283;691.5750122070312
284;691.0830688476562
285;690.593017578125
286;690.1041870117188
287;689.6172485351562
288;689.1331176757812
289;688.650146484375
290;688.1698608398438
291;687.6907348632812
292;687.21435546875
293;686.7400512695312
294;686.2669067382812
295;685.7955932617188
296;685.326904296875
297;684.8603515625
298;684.3953247070312
299;683.9326171875
300;683.4710083007812
301;683.0110473632812
302;682.5535278320312
303;682.0972290039062
304;681.6431274414062
305;681.1898803710938
306;680.73828125
307;680.2882690429688
308;679.8403930664062
309;679.3933715820312
310;678.9478759765625
311;678.5044555664062
312;678.06201171875
313;677.62158203125
314;677.1821899414062
315;676.7442016601562
316;676.3075561523438
317;675.8728637695312
318;675.4390258789062
319;675.0065307617188
320;674.575927734375
321;674.146240234375
322;673.718505859375
323;673.2920532226562
324;672.8663940429688
325;672.4429321289062
326;672.02099609375
327;671.6002807617188
328;671.1808471679688
329;670.7622680664062
330;670.345458984375
331;669.9295043945312
332;669.5145874023438
333;669.1008911132812
334;668.6889038085938
335;668.277587890625
336;667.8678588867188
337;667.4589233398438
338;667.0515747070312
339;666.6455078125
340;666.2400512695312
341;665.835693359375
342;665.4323120117188
343;665.030029296875
344;664.6290893554688
345;664.2294311523438
346;663.830810546875
347;663.4336547851562
348;663.0376586914062
349;662.642578125
350;662.2489013671875
351;661.8557739257812
352;661.464599609375
353;661.0745239257812
354;660.685546875
355;660.2976684570312
356;659.9110717773438
357;659.5254516601562
358;659.1409301757812
359;658.7572631835938
360;658.3749389648438
361;657.9935302734375
362;657.6127319335938
363;657.233154296875
364;656.8546752929688
365;656.4777221679688
366;656.1015625
367;655.7259521484375
368;655.35205078125
369;654.9789428710938
370;654.6063842773438
371;654.2346801757812
372;653.8638916015625
373;653.4943237304688
374;653.1259765625
375;652.7586059570312
376;652.3916015625
377;652.0256958007812
378;651.6610717773438
379;651.296875
380;650.9338989257812
381;650.5717163085938
382;650.2103271484375
383;649.8496704101562
384;649.4894409179688
385;649.1300659179688
386;648.7716674804688
387;648.4143676757812
388;648.0574340820312
389;647.70166015625
390;647.34619140625
391;646.991455078125
392;646.6373901367188
393;646.2841186523438
394;645.9319458007812
395;645.5801391601562
396;645.2291870117188
397;644.879150390625
398;644.5298461914062
399;644.1813354492188
400;643.8333740234375
401;643.4861450195312
402;643.1395263671875
403;642.7932739257812
404;642.44775390625
405;642.1028442382812
406;641.7586059570312
407;641.4154052734375
408;641.0724487304688
409;640.7300415039062
410;640.388671875
411;640.0479125976562
412;639.7074584960938
413;639.3679809570312
414;639.0289916992188
415;638.690673828125
416;638.3526000976562
417;638.0154418945312
418;637.678466796875
419;637.3425903320312
420;637.0071411132812
421;636.6723022460938
422;636.33837890625
423;636.0050659179688
424;635.6719360351562
425;635.3395385742188
426;635.0076293945312
427;634.6765747070312
428;634.3462524414062
429;634.01611328125
430;633.686767578125
431;633.358154296875
432;633.02978515625
433;632.7019653320312
434;632.3750610351562
435;632.0486450195312
436;631.7224731445312
437;631.3967895507812
438;631.0717163085938
439;630.7470703125
440;630.4229736328125
441;630.0994262695312
442;629.7766723632812
443;629.4544677734375
444;629.1326904296875
445;628.8114624023438
446;628.4903564453125
447;628.1697387695312
448;627.8496704101562
449;627.5299682617188
450;627.2108154296875
451;626.89208984375
452;626.5738525390625
453;626.2560424804688
454;625.938720703125
455;625.6221313476562
456;625.3059692382812
457;624.9899291992188
458;624.6747436523438
459;624.3596801757812
460;624.0450439453125
461;623.7307739257812
462;623.4170532226562
463;623.1039428710938
464;622.7910766601562
465;622.4786376953125
466;622.1668090820312
467;621.8554077148438
468;621.5444946289062
469;621.2337036132812
470;620.9236450195312
471;620.6135864257812
472;620.3040161132812
473;619.9949340820312
474;619.686279296875
475;619.3779907226562
476;619.0700073242188
477;618.7625122070312
478;618.4555053710938
479;618.1487426757812
480;617.8427124023438
481;617.5368041992188
482;617.2313842773438
483;616.9263305664062
484;616.6215209960938
485;616.3173828125
486;616.013427734375
487;615.7100219726562
488;615.40673828125
489;615.1038818359375
490;614.8014526367188
491;614.49951171875
492;614.197998046875
493;613.8965454101562
494;613.5955810546875
495;613.2948608398438
496;612.9945678710938
497;612.694580078125
498;612.3950805664062
499;612.0957641601562
500;611.7969360351562
501;611.4983520507812
502;611.2001953125
503;610.9025268554688
504;610.6050415039062
505;610.3079223632812
506;610.0111694335938
507;609.7146606445312
508;609.4187622070312
509;609.1232299804688
510;608.8276977539062
511;608.5328979492188
512;608.2380981445312
513;607.9436645507812
514;607.6495971679688
515;607.3558349609375
516;607.0624389648438
517;606.7693481445312
518;606.4767456054688
519;606.1842651367188
520;605.8921508789062
521;605.6005859375
522;605.3092651367188
523;605.0183715820312
524;604.7277221679688
525;604.4371948242188
526;604.1471557617188
527;603.8574829101562
528;603.56787109375
529;603.2787475585938
530;602.989990234375
531;602.7013549804688
532;602.4129028320312
533;602.1250610351562
534;601.8373413085938
535;601.5499267578125
536;601.262939453125
537;600.976318359375
538;600.6897583007812
539;600.4037475585938
540;600.1179809570312
541;599.8323364257812
542;599.5469360351562
543;599.2621459960938
544;598.9775390625
545;598.6931762695312
546;598.4090576171875
547;598.1251220703125
548;597.8414916992188
549;597.5581665039062
550;597.2750854492188
551;596.9922485351562
552;596.7097778320312
553;596.427490234375
554;596.1458129882812
555;595.8641357421875
556;595.5827026367188
557;595.3018188476562
558;595.0211791992188
559;594.7407836914062
560;594.4606323242188
561;594.1808471679688
562;593.901123046875
563;593.62158203125
564;593.342529296875
565;593.0635375976562
566;592.7848510742188
567;592.5065307617188
568;592.228271484375
569;591.9503784179688
570;591.6727294921875
571;591.3953247070312
572;591.1182250976562
573;590.8413696289062
574;590.5647583007812
575;590.2883911132812
576;590.0122680664062
577;589.736572265625
578;589.4609985351562
579;589.185791015625
580;588.9107055664062
581;588.6358032226562
582;588.3612670898438
583;588.0870361328125
584;587.8129272460938
585;587.5391235351562
586;587.2654418945312
587;586.9921264648438
588;586.718994140625
589;586.4461059570312
590;586.1736450195312
591;585.9014282226562
592;585.6293334960938
593;585.3574829101562
594;585.0859985351562
595;584.8145751953125
596;584.5435180664062
597;584.272705078125
598;584.0021362304688
599;583.7316284179688
600;583.4613647460938
601;583.1912231445312
602;582.921630859375
603;582.6520385742188
604;582.3827514648438
605;582.11376953125
606;581.844970703125
607;581.5763549804688
608;581.307861328125
609;581.039794921875
610;580.77197265625
611;580.5043334960938
612;580.2367553710938
613;579.9696044921875
614;579.7026977539062
615;579.435791015625
616;579.1691284179688
617;578.9026489257812
618;578.6364135742188
619;578.3705444335938
620;578.1047973632812
621;577.8392944335938
622;577.573974609375
623;577.3090209960938
624;577.0443725585938
625;576.7797241210938
626;576.5153198242188
627;576.2510375976562
628;575.9869995117188
629;575.7232666015625
630;575.4596557617188
631;575.1963500976562
632;574.93310546875
633;574.670166015625
634;574.4074096679688
635;574.1449584960938
636;573.8826293945312
637;573.6205444335938
638;573.3585815429688
639;573.0968017578125
640;572.8352661132812
641;572.5740356445312
642;572.3130493164062
643;572.0521850585938
644;571.7914428710938
645;571.5309448242188
646;571.2705688476562
647;571.010498046875
648;570.750732421875
649;570.4911499023438
650;570.2316284179688
651;569.9722900390625
652;569.713134765625
653;569.454345703125
654;569.1957397460938
655;568.9373168945312
656;568.6791381835938
657;568.4208984375
658;568.1629028320312
659;567.9051513671875
660;567.6475219726562
661;567.39013671875
662;567.1328735351562
663;566.8758544921875
664;566.6190185546875
665;566.3623046875
666;566.1060180664062
667;565.8496704101562
668;565.59375
669;565.3378295898438
670;565.0822143554688
671;564.82666015625
672;564.5713500976562
673;564.31640625
674;564.0615844726562
675;563.8070678710938
676;563.552490234375
677;563.298095703125
678;563.0440063476562
679;562.7901000976562
680;562.5364379882812
681;562.282958984375
682;562.0294799804688
683;561.7763061523438
684;561.5232543945312
685;561.2705688476562
686;561.0178833007812
687;560.765625
688;560.513427734375
689;560.261474609375
690;560.0097045898438
691;559.7581176757812
692;559.5065307617188
693;559.255126953125
694;559.0039672851562
695;558.7529907226562
696;558.5021362304688
697;558.25146484375
698;558.0009155273438
699;557.750732421875
700;557.5005493164062
701;557.25048828125
702;557.0006713867188
703;556.7510375976562
704;556.5015869140625
705;556.2523803710938
706;556.0032348632812
707;555.7543334960938
708;555.5054931640625
709;555.2568359375
710;555.0083618164062
711;554.7600708007812
712;554.5119018554688
713;554.2639770507812
714;554.0161743164062
715;553.7684936523438
716;553.5209350585938
717;553.2736206054688
718;553.0264282226562
719;552.7793579101562
720;552.5326538085938
721;552.2859497070312
722;552.03955078125
723;551.7931518554688
724;551.5469360351562
725;551.3009033203125
726;551.0549926757812
727;550.8092041015625
728;550.5635375976562
729;550.3182373046875
730;550.0730590820312
731;549.8278198242188
732;549.5828247070312
733;549.3380737304688
734;549.0934448242188
735;548.848876953125
736;548.6045532226562
737;548.3604125976562
738;548.1163940429688
739;547.8724975585938
740;547.6287231445312
741;547.3850708007812
742;547.1417236328125
743;546.8984985351562
744;546.6554565429688
745;546.4125366210938
746;546.169677734375
747;545.9270629882812
748;545.6845092773438
749;545.442138671875
750;545.1998901367188
751;544.9577026367188
752;544.7158813476562
753;544.4741821289062
754;544.2325439453125
755;543.9911499023438
756;543.7499389648438
757;543.5088500976562
758;543.2680053710938
759;543.0272827148438
760;542.7866821289062
761;542.5462646484375
762;542.3059692382812
763;542.0657348632812
764;541.8257446289062
765;541.5859375
766;541.3461303710938
767;541.1064453125
768;540.866943359375
769;540.627685546875
770;540.3885498046875
771;540.1494750976562
772;539.91064453125
773;539.6718139648438
774;539.4331665039062
775;539.1946411132812
776;538.956298828125
777;538.7180786132812
778;538.4801025390625
779;538.2422485351562
780;538.00439453125
781;537.7667236328125
782;537.529296875
783;537.2918701171875
784;537.0545654296875
785;536.8174438476562
786;536.5804443359375
787;536.3436889648438
788;536.107177734375
789;535.8707885742188
790;535.6343383789062
791;535.3982543945312
792;535.1622314453125
793;534.9263305664062
794;534.690673828125
795;534.4551391601562
796;534.2195434570312
797;533.9841918945312
798;533.7490844726562
799;533.51416015625
800;533.2793579101562
801;533.044677734375
802;532.8101806640625
803;532.5757446289062
804;532.341552734375
805;532.107421875
806;531.8734130859375
807;531.6395263671875
808;531.4058227539062
809;531.1723022460938
810;530.9389038085938
811;530.70556640625
812;530.4724731445312
813;530.239501953125
814;530.0066528320312
815;529.7738647460938
816;529.5411987304688
817;529.30859375
818;529.076171875
819;528.843994140625
820;528.6118774414062
821;528.3798217773438
822;528.1480102539062
823;527.9163208007812
824;527.6846923828125
825;527.4533081054688
826;527.2219848632812
827;526.9907836914062
828;526.7597045898438
829;526.5286865234375
830;526.2978515625
831;526.0670776367188
832;525.8365478515625
833;525.6061401367188
834;525.3758544921875
835;525.1456298828125
836;524.91552734375
837;524.6856079101562
838;524.455810546875
839;524.2261962890625
840;523.9967041015625
841;523.7671508789062
842;523.5379028320312
843;523.3087158203125
844;523.07958984375
845;522.8506469726562
846;522.6219482421875
847;522.393310546875
848;522.164794921875
849;521.9363403320312
850;521.7081298828125
851;521.4797973632812
852;521.2517700195312
853;521.0238647460938
854;520.7959594726562
855;520.5682373046875
856;520.3407592773438
857;520.1133422851562
858;519.8858032226562
859;519.65869140625
860;519.4314575195312
861;519.2045288085938
862;518.9776000976562
863;518.7507934570312
864;518.5242919921875
865;518.2977294921875
866;518.0712890625
867;517.8449096679688
868;517.6188354492188
869;517.392822265625
870;517.1668090820312
871;516.94091796875
872;516.7151489257812
873;516.4896850585938
874;516.2640991210938
875;516.0387573242188
876;515.8134765625
877;515.5882568359375
878;515.3631591796875
879;515.1382446289062
880;514.9133911132812
881;514.6887817382812
882;514.4641723632812
883;514.23974609375
884;514.0153198242188
885;513.7910766601562
886;513.5669555664062
887;513.3429565429688
888;513.1190795898438
889;512.8952026367188
890;512.6715698242188
891;512.447998046875
892;512.2245483398438
893;512.0011596679688
894;511.7779541015625
895;511.5549011230469
896;511.33203125
897;511.1091003417969
898;510.88623046875
899;510.6636047363281
900;510.4410095214844
901;510.2186584472656
902;509.996337890625
903;509.7741394042969
904;509.552001953125
905;509.3300476074219
906;509.1081848144531
907;508.8865661621094
908;508.664794921875
909;508.4432678222656
910;508.2218017578125
911;508.0004577636719
912;507.7792053222656
913;507.55810546875
914;507.3371887207031
915;507.1163024902344
916;506.8955993652344
917;506.6749572753906
918;506.4544372558594
919;506.2339782714844
920;506.013671875
921;505.7934875488281
922;505.5733337402344
923;505.3533020019531
924;505.1333923339844
925;504.9134826660156
926;504.6938781738281
927;504.4742736816406
928;504.2547607421875
929;504.0353088378906
930;503.8161315917969
931;503.596923828125
932;503.3778381347656
933;503.1588439941406
934;502.9399719238281
935;502.7212829589844
936;502.5025634765625
937;502.2839660644531
938;502.0655517578125
939;501.8471984863281
940;501.6289978027344
941;501.410888671875
942;501.19287109375
943;500.9749755859375
944;500.7571716308594
945;500.5394592285156
946;500.3218688964844
947;500.1043395996094
948;499.8868713378906
949;499.6695251464844
950;499.4523010253906
951;499.2351379394531
952;499.0181884765625
953;498.8012390136719
954;498.5844421386719
955;498.36767578125
956;498.1510925292969
957;497.9345703125
958;497.7180480957031
959;497.5018005371094
960;497.2854919433594
961;497.0693359375
962;496.8533630371094
963;496.6373596191406
964;496.4215393066406
965;496.2058410644531
966;495.9901123046875
967;495.774658203125
968;495.559326171875
969;495.3439025878906
970;495.128662109375
971;494.91357421875
972;494.6986083984375
973;494.4836730957031
974;494.2688903808594
975;494.0541687011719
976;493.8394775390625
977;493.6248779296875
978;493.410400390625
979;493.196044921875
980;492.9817810058594
981;492.7676086425781
982;492.5536193847656
983;492.3396911621094
984;492.1257629394531
985;491.9120178222656
986;491.6983947753906
987;491.4848327636719
988;491.2713623046875
989;491.0579528808594
990;490.8446960449219
991;490.6315612792969
992;490.4183654785156
993;490.2054443359375
994;489.9925231933594
995;489.7796936035156
996;489.5670471191406
997;489.3544616699219
998;489.1419372558594
999;488.9295349121094
1000;488.7172546386719
1001;488.5050048828125
1002;488.2928771972656
1003;488.080810546875
1004;487.868896484375
1005;487.656982421875
1006;487.4452209472656
1007;487.2335510253906
1008;487.02197265625
1009;486.8104248046875
1010;486.5989685058594
1011;486.3876953125
1012;486.1763916015625
1013;485.9653015136719
1014;485.7541809082031
1015;485.5433349609375
1016;485.3324890136719
1017;485.1217346191406
1018;484.9111328125
1019;484.7005310058594
1020;484.4900817871094
1021;484.2796630859375
1022;484.0694274902344
1023;483.8592529296875
1024;483.6491394042969
1025;483.4390563964844
1026;483.2291564941406
1027;483.0193176269531
1028;482.8095703125
1029;482.5999450683594
1030;482.3903503417969
1031;482.180908203125
1032;481.9715270996094
1033;481.7622375488281
1034;481.5530700683594
1035;481.3440856933594
1036;481.1350402832031
1037;480.9261169433594
1038;480.7172546386719
1039;480.5085754394531
1040;480.2998962402344
1041;480.09130859375
1042;479.8828125
1043;479.6744689941406
1044;479.4662780761719
1045;479.258056640625
1046;479.0499572753906
1047;478.8419494628906
1048;478.6340026855469
1049;478.4261474609375
1050;478.2184143066406
1051;478.0107421875
1052;477.80322265625
1053;477.595703125
1054;477.388427734375
1055;477.1811218261719
1056;476.9740295410156
1057;476.7668762207031
1058;476.5599060058594
1059;476.3529357910156
1060;476.1461181640625
1061;475.9393615722656
1062;475.7326965332031
1063;475.5261535644531
1064;475.3197021484375
1065;475.11328125
1066;474.906982421875
1067;474.7008056640625
1068;474.4947509765625
1069;474.2886047363281
1070;474.0827331542969
1071;473.8768310546875
1072;473.6710205078125
1073;473.4653015136719
1074;473.259765625
1075;473.0542297363281
1076;472.8487548828125
1077;472.6434020996094
1078;472.4381103515625
1079;472.23291015625
1080;472.0278625488281
1081;471.8228759765625
1082;471.617919921875
1083;471.4131164550781
1084;471.2084045410156
1085;471.0037536621094
1086;470.7991943359375
1087;470.5947265625
1088;470.3902893066406
1089;470.18603515625
1090;469.9817810058594
1091;469.7776794433594
1092;469.5735778808594
1093;469.36962890625
1094;469.1656799316406
1095;468.9619140625
1096;468.7582092285156
1097;468.5545349121094
1098;468.3509521484375
1099;468.1475524902344
1100;467.9441223144531
1101;467.7408447265625
1102;467.53759765625
1103;467.33447265625
1104;467.1314697265625
1105;466.928466796875
1106;466.7256164550781
1107;466.5228576660156
1108;466.3201599121094
1109;466.1175231933594
1110;465.9150390625
1111;465.712646484375
1112;465.5102844238281
1113;465.3080139160156
1114;465.1058044433594
1115;464.9036865234375
1116;464.70166015625
1117;464.4996643066406
1118;464.2977600097656
1119;464.0960388183594
1120;463.894287109375
1121;463.6926574707031
1122;463.4911193847656
1123;463.2897033691406
1124;463.08837890625
1125;462.8870849609375
1126;462.6859130859375
1127;462.4847717285156
1128;462.28369140625
1129;462.0827941894531
1130;461.8819274902344
1131;461.68115234375
1132;461.4804992675781
1133;461.2799377441406
1134;461.0793762207031
1135;460.8788757324219
1136;460.678466796875
1137;460.4782409667969
1138;460.2779846191406
1139;460.0778503417969
1140;459.8778076171875
1141;459.6778259277344
1142;459.4779968261719
1143;459.2781677246094
1144;459.0783996582031
1145;458.8787536621094
1146;458.6791076660156
1147;458.4797058105469
1148;458.2802734375
1149;458.0809326171875
1150;457.8816833496094
1151;457.6826171875
1152;457.4834289550781
1153;457.2845153808594
1154;457.0856628417969
1155;456.8867492675781
1156;456.6880187988281
1157;456.4893493652344
1158;456.2906799316406
1159;456.0921936035156
1160;455.893798828125
1161;455.6954650878906
1162;455.4972229003906
1163;455.2989807128906
1164;455.1009216308594
1165;454.90283203125
1166;454.7048645019531
1167;454.5069580078125
1168;454.3091735839844
1169;454.1114196777344
1170;453.9137878417969
1171;453.7162170410156
1172;453.5187072753906
1173;453.3213806152344
1174;453.1239929199219
1175;452.9267578125
1176;452.7296142578125
1177;452.532470703125
1178;452.3355407714844
1179;452.1386413574219
1180;451.9417419433594
1181;451.7449951171875
1182;451.5482482910156
1183;451.3516540527344
1184;451.1551208496094
1185;450.9586486816406
1186;450.7623291015625
1187;450.5660400390625
1188;450.3697814941406
1189;450.1736145019531
1190;449.9776306152344
1191;449.7816467285156
1192;449.5857849121094
1193;449.3899230957031
1194;449.1942138671875
1195;448.9985046386719
1196;448.8028869628906
1197;448.6073913574219
1198;448.4119567871094
1199;448.2165832519531
1200;448.0213317871094
1201;447.8261413574219
1202;447.6310119628906
1203;447.4359130859375
1204;447.2409362792969
1205;447.0460205078125
1206;446.8511657714844
1207;446.6564025878906
1208;446.4617614746094
1209;446.2671813964844
1210;446.0726318359375
1211;445.8782043457031
1212;445.683837890625
1213;445.4895935058594
1214;445.2954406738281
1215;445.101318359375
1216;444.9073181152344
1217;444.7132873535156
1218;444.5193786621094
1219;444.3255920410156
1220;444.1318359375
1221;443.938232421875
1222;443.7445983886719
1223;443.5510559082031
1224;443.357666015625
1225;443.164306640625
1226;442.9709777832031
1227;442.7778015136719
1228;442.5846252441406
1229;442.3916015625
1230;442.1986083984375
1231;442.0056457519531
1232;441.8128356933594
1233;441.6200866699219
1234;441.4273681640625
1235;441.2348327636719
1236;441.042236328125
1237;440.8498229980469
1238;440.6574401855469
1239;440.4651794433594
1240;440.2729797363281
1241;440.080810546875
1242;439.8887634277344
1243;439.6968078613281
1244;439.5048828125
1245;439.3130187988281
1246;439.1212158203125
1247;438.9295349121094
1248;438.7379150390625
1249;438.5463562011719
1250;438.3548583984375
1251;438.1634826660156
1252;437.97216796875
1253;437.7809143066406
1254;437.5897521972656
1255;437.3987731933594
1256;437.2076721191406
1257;437.0167541503906
1258;436.825927734375
1259;436.6351318359375
1260;436.4443664550781
1261;436.2536926269531
1262;436.0631408691406
1263;435.8726501464844
1264;435.6822204589844
1265;435.4918518066406
1266;435.3016052246094
1267;435.1114196777344
1268;434.9212341308594
1269;434.731201171875
1270;434.541259765625
1271;434.351318359375
1272;434.1614685058594
1273;433.9718017578125
1274;433.7821044921875
1275;433.5924987792969
1276;433.4029846191406
1277;433.2135314941406
1278;433.0240783691406
1279;432.8347473144531
1280;432.6455078125
1281;432.4563293457031
1282;432.2672424316406
1283;432.0782470703125
1284;431.8893127441406
1285;431.700439453125
1286;431.51171875
1287;431.322998046875
1288;431.1343688964844
1289;430.9457702636719
1290;430.7572326660156
1291;430.5687561035156
1292;430.3804626464844
1293;430.192138671875
1294;430.0039367675781
1295;429.8157958984375
1296;429.627685546875
1297;429.4397277832031
1298;429.2518005371094
1299;429.0639953613281
1300;428.876220703125
1301;428.6884765625
1302;428.5008544921875
1303;428.313232421875
1304;428.125732421875
1305;427.9383544921875
1306;427.7509460449219
1307;427.5636901855469
1308;427.37646484375
1309;427.1893615722656
1310;427.0022888183594
1311;426.8152770996094
1312;426.6283264160156
1313;426.4414978027344
1314;426.2547302246094
1315;426.0680236816406
1316;425.88134765625
1317;425.6947326660156
1318;425.5082702636719
1319;425.3218688964844
1320;425.135498046875
1321;424.9491882324219
1322;424.7630310058594
1323;424.5768737792969
1324;424.3907775878906
1325;424.2047424316406
1326;424.0188903808594
1327;423.8330078125
1328;423.6471862792969
1329;423.4615173339844
1330;423.2757873535156
1331;423.0902404785156
1332;422.90478515625
1333;422.7193908691406
1334;422.5340270996094
1335;422.3487243652344
1336;422.1634826660156
1337;421.9783630371094
1338;421.7932434082031
1339;421.6083068847656
1340;421.4233703613281
1341;421.238525390625
1342;421.0537414550781
1343;420.8690185546875
1344;420.6843566894531
1345;420.4997863769531
1346;420.3153076171875
1347;420.130859375
1348;419.9464416503906
1349;419.7621154785156
1350;419.5780029296875
1351;419.393798828125
1352;419.209716796875
1353;419.0257263183594
1354;418.8417053222656
1355;418.6578674316406
1356;418.4740295410156
1357;418.2902526855469
1358;418.1065368652344
1359;417.9228820800781
1360;417.7393798828125
1361;417.555908203125
1362;417.3724670410156
1363;417.1891174316406
1364;417.005859375
1365;416.8226318359375
1366;416.6394958496094
1367;416.4564514160156
1368;416.2734375
1369;416.0904846191406
1370;415.9076232910156
1371;415.724853515625
1372;415.5422058105469
1373;415.3595886230469
1374;415.1769104003906
1375;414.9944763183594
1376;414.81201171875
1377;414.629638671875
1378;414.4473571777344
1379;414.2650451660156
1380;414.0828857421875
1381;413.9008483886719
1382;413.7187805175781
1383;413.5368347167969
1384;413.3548889160156
1385;413.173095703125
1386;412.9913024902344
1387;412.8096008300781
1388;412.6279602050781
1389;412.4464111328125
1390;412.2649841308594
1391;412.0835266113281
1392;411.9021911621094
1393;411.7209167480469
1394;411.5396728515625
1395;411.3585510253906
1396;411.1774597167969
1397;410.9964904785156
1398;410.8155212402344
1399;410.6346435546875
1400;410.4538269042969
1401;410.2731018066406
1402;410.0924072265625
1403;409.911865234375
1404;409.7312927246094
1405;409.5508117675781
1406;409.3704528808594
1407;409.1900634765625
1408;409.0097961425781
1409;408.82958984375
1410;408.6495056152344
1411;408.4694519042969
1412;408.2894287109375
1413;408.1095275878906
1414;407.9296875
1415;407.7498779296875
1416;407.570068359375
1417;407.3904724121094
1418;407.2108459472656
1419;407.0313415527344
1420;406.8518981933594
1421;406.6725158691406
1422;406.4931640625
1423;406.31396484375
1424;406.1347351074219
1425;405.9555969238281
1426;405.7765197753906
1427;405.5975646972656
1428;405.4186096191406
1429;405.23974609375
1430;405.0609436035156
1431;404.8822021484375
1432;404.7035217285156
1433;404.5249938964844
1434;404.346435546875
1435;404.16796875
1436;403.9895935058594
1437;403.8111877441406
1438;403.6329345703125
1439;403.4547424316406
1440;403.2766418457031
1441;403.0986022949219
1442;402.9205627441406
1443;402.7426452636719
1444;402.5647888183594
1445;402.3869323730469
1446;402.2091369628906
1447;402.031494140625
1448;401.8538818359375
1449;401.6763610839844
1450;401.4989013671875
1451;401.3215026855469
1452;401.1441955566406
1453;400.9668884277344
1454;400.7896423339844
1455;400.6124572753906
1456;400.4353942871094
1457;400.2583923339844
1458;400.0814514160156
1459;399.904541015625
1460;399.7276916503906
1461;399.5509338378906
1462;399.3741760253906
1463;399.1975402832031
1464;399.0210876464844
1465;398.8445129394531
1466;398.6680908203125
1467;398.49169921875
1468;398.3153991699219
1469;398.13916015625
1470;397.9629211425781
1471;397.7868347167969
1472;397.61083984375
1473;397.434814453125
1474;397.2589416503906
1475;397.0830383300781
1476;396.9072265625
1477;396.7315368652344
1478;396.555908203125
1479;396.3803405761719
1480;396.204833984375
1481;396.0293884277344
1482;395.85400390625
1483;395.6787109375
1484;395.50341796875
1485;395.3282165527344
1486;395.1531066894531
1487;394.97802734375
1488;394.802978515625
1489;394.6280517578125
1490;394.4532165527344
1491;394.2784118652344
1492;394.1036376953125
1493;393.928955078125
1494;393.7542724609375
1495;393.5798034667969
1496;393.4052734375
1497;393.2308654785156
1498;393.0565185546875
1499;392.8822021484375
