;loss
0;863.2208251953125
1;861.1267700195312
2;858.2936401367188
3;855.6928100585938
4;852.7996215820312
5;849.8623046875
6;846.8719482421875
7;843.8193359375
8;840.6943359375
9;837.5148315429688
10;834.2117919921875
11;830.8001708984375
12;827.2662353515625
13;823.5946655273438
14;819.7697143554688
15;815.7481689453125
16;811.5629272460938
17;807.1307373046875
18;802.4612426757812
19;797.57958984375
20;792.3637084960938
21;786.8323974609375
22;781.0203857421875
23;774.8348999023438
24;768.23974609375
25;761.1939086914062
26;753.5614013671875
27;745.3726806640625
28;736.5742797851562
29;727.22265625
30;717.0361938476562
31;706.0594482421875
32;694.3685913085938
33;681.7788696289062
34;668.2330932617188
35;653.5131225585938
36;637.734375
37;620.8809204101562
38;602.9750366210938
39;584.2839965820312
40;564.5203857421875
41;544.2543334960938
42;523.2953491210938
43;502.3625793457031
44;481.3663024902344
45;460.87054443359375
46;441.2389221191406
47;422.7703552246094
48;405.8478698730469
49;390.2447814941406
50;376.1420593261719
51;363.49749755859375
52;352.2863464355469
53;342.2472229003906
54;333.1918640136719
55;325.0758361816406
56;317.6716003417969
57;310.8473815917969
58;304.50531005859375
59;298.5240783691406
60;292.95245361328125
61;287.6571960449219
62;282.68768310546875
63;277.9402160644531
64;273.4645690917969
65;269.2069396972656
66;265.1191711425781
67;261.2008056640625
68;257.4344787597656
69;253.8319854736328
70;250.3314971923828
71;246.9470977783203
72;243.6685333251953
73;240.48654174804688
74;237.3916778564453
75;234.39634704589844
76;231.45652770996094
77;228.58712768554688
78;225.78305053710938
79;223.04135131835938
80;220.3731231689453
81;217.7583465576172
82;215.1798095703125
83;212.64968872070312
84;210.16580200195312
85;207.73974609375
86;205.34304809570312
87;202.98741149902344
88;200.67137145996094
89;198.40513610839844
90;196.16378784179688
91;193.9703826904297
92;191.80186462402344
93;189.66859436035156
94;187.5685272216797
95;185.50083923339844
96;183.47439575195312
97;181.46810913085938
98;179.4913330078125
99;177.5524444580078
100;175.6322479248047
101;173.73904418945312
102;171.8721466064453
103;170.0313262939453
104;168.21559143066406
105;166.42442321777344
106;164.66481018066406
107;162.92056274414062
108;161.19900512695312
109;159.50711059570312
110;157.8297576904297
111;156.17372131347656
112;154.53880310058594
113;152.92442321777344
114;151.330078125
115;149.75526428222656
116;148.19972229003906
117;146.66915893554688
118;145.15695190429688
119;143.65696716308594
120;142.17489624023438
121;140.71055603027344
122;139.2636260986328
123;137.83384704589844
124;136.42623901367188
125;135.03524780273438
126;133.6558074951172
127;132.29759216308594
128;130.95091247558594
129;129.62013244628906
130;128.3096160888672
131;127.009765625
132;125.72956848144531
133;124.45980072021484
134;123.20487976074219
135;121.96453094482422
136;120.74284362792969
137;119.53534698486328
138;118.33789825439453
139;117.15836334228516
140;115.99253845214844
141;114.84033203125
142;113.69781494140625
143;112.57222747802734
144;111.45625305175781
145;110.3533935546875
146;109.26700592041016
147;108.18990325927734
148;107.12542724609375
149;106.0735092163086
150;105.03399658203125
151;104.00670623779297
152;102.99152374267578
153;101.9883041381836
154;100.99988555908203
155;100.02030181884766
156;99.05233001708984
157;98.09581756591797
158;97.150634765625
159;96.21939849853516
160;95.29655456542969
161;94.38732147216797
162;93.4863510131836
163;92.59876251220703
164;91.71929168701172
165;90.85272216796875
166;89.99415588378906
167;89.14817810058594
168;88.31009674072266
169;87.48433685302734
170;86.666259765625
171;85.85808563232422
172;85.05963897705078
173;84.27085876464844
174;83.49365997314453
175;82.72383880615234
176;81.96339416503906
177;81.21216583251953
178;80.4700698852539
179;79.73704528808594
180;79.01292419433594
181;78.29767608642578
182;77.59294891357422
183;76.89508056640625
184;76.205810546875
185;75.52500915527344
186;74.8525619506836
187;74.18843078613281
188;73.53407287597656
189;72.88623809814453
190;72.24642181396484
191;71.61455535888672
192;70.99052429199219
193;70.37425231933594
194;69.76567077636719
195;69.16471099853516
196;68.57124328613281
197;67.98657989501953
198;67.40792083740234
199;66.83649444580078
200;66.27227020263672
201;65.71517181396484
202;65.16632080078125
203;64.62321472167969
204;64.08814239501953
205;63.55986404418945
206;63.037086486816406
207;62.520965576171875
208;62.01143264770508
209;61.50836181640625
210;61.01279830932617
211;60.52248764038086
212;60.03845977783203
213;59.56062698364258
214;59.08989715576172
215;58.62423324584961
216;58.16463088989258
217;57.71186065673828
218;57.26405715942383
219;56.82202911376953
220;56.386619567871094
221;55.955963134765625
222;55.53174591064453
223;55.11225128173828
224;54.69820022583008
225;54.28955841064453
226;53.88624954223633
227;53.488224029541016
228;53.0954475402832
229;52.707828521728516
230;52.3260612487793
231;51.94929885864258
232;51.57678985595703
233;51.20989227294922
234;50.8471794128418
235;50.489288330078125
236;50.13684844970703
237;49.78907012939453
238;49.44591522216797
239;49.10673141479492
240;48.772098541259766
241;48.44194412231445
242;48.116817474365234
243;47.795475006103516
244;47.47847366333008
245;47.166290283203125
246;46.857791900634766
247;46.55349349975586
248;46.253334045410156
249;45.95723342895508
250;45.66518783569336
251;45.37709426879883
252;45.09296417236328
253;44.81269454956055
254;44.536293029785156
255;44.2636833190918
256;43.99481964111328
257;43.72966766357422
258;43.46817398071289
259;43.21033477783203
260;42.95608901977539
261;42.70539474487305
262;42.458221435546875
263;42.214500427246094
264;41.97418212890625
265;41.73725128173828
266;41.50362777709961
267;41.27368927001953
268;41.046993255615234
269;40.82347869873047
270;40.6027717590332
271;40.385555267333984
272;40.17139434814453
273;39.95995330810547
274;39.75152587890625
275;39.54604721069336
276;39.343536376953125
277;39.1439094543457
278;38.94747543334961
279;38.7535514831543
280;38.562442779541016
281;38.37409210205078
282;38.18875503540039
283;38.00583267211914
284;37.82558822631836
285;37.64820098876953
286;37.47343063354492
287;37.301185607910156
288;37.13147735595703
289;36.9639892578125
290;36.79897689819336
291;36.63639450073242
292;36.476200103759766
293;36.31840133666992
294;36.16292953491211
295;36.009769439697266
296;35.858882904052734
297;35.710243225097656
298;35.56404495239258
299;35.419822692871094
300;35.2779655456543
301;35.138038635253906
302;35.00020980834961
303;34.86465835571289
304;34.73116683959961
305;34.5994987487793
306;34.469825744628906
307;34.3421516418457
308;34.216407775878906
309;34.09258270263672
310;33.97084426879883
311;33.85079574584961
312;33.732582092285156
313;33.616207122802734
314;33.50162124633789
315;33.38881301879883
316;33.27789306640625
317;33.16869354248047
318;33.06105041503906
319;32.95509719848633
320;32.85091781616211
321;32.74824142456055
322;32.647178649902344
323;32.54770278930664
324;32.44979476928711
325;32.353431701660156
326;32.25871658325195
327;32.16550064086914
328;32.07364273071289
329;31.98324966430664
330;31.894317626953125
331;31.806798934936523
332;31.720796585083008
333;31.63606071472168
334;31.552783966064453
335;31.47086524963379
336;31.390140533447266
337;31.31075096130371
338;31.232715606689453
339;31.155872344970703
340;31.08036231994629
341;31.006072998046875
342;30.93301773071289
343;30.86105728149414
344;30.79026985168457
345;30.720733642578125
346;30.652273178100586
347;30.585004806518555
348;30.51877784729004
349;30.453632354736328
350;30.389583587646484
351;30.32666015625
352;30.264719009399414
353;30.203811645507812
354;30.143922805786133
355;30.085025787353516
356;30.02718734741211
357;29.970333099365234
358;29.91435432434082
359;29.859323501586914
360;29.805227279663086
361;29.752042770385742
362;29.699819564819336
363;29.64842414855957
364;29.5979061126709
365;29.548250198364258
366;29.499446868896484
367;29.451467514038086
368;29.404327392578125
369;29.35799789428711
370;29.312503814697266
371;29.267803192138672
372;29.223875045776367
373;29.18065071105957
374;29.138181686401367
375;29.096452713012695
376;29.05544662475586
377;29.015151977539062
378;28.975574493408203
379;28.936687469482422
380;28.89851951599121
381;28.861021041870117
382;28.82414436340332
383;28.787919998168945
384;28.7523250579834
385;28.71737289428711
386;28.683027267456055
387;28.6492919921875
388;28.616161346435547
389;28.583620071411133
390;28.55169677734375
391;28.52033042907715
392;28.489505767822266
393;28.459224700927734
394;28.429489135742188
395;28.40029525756836
396;28.371623992919922
397;28.343461990356445
398;28.31581687927246
399;28.288671493530273
400;28.262014389038086
401;28.23586082458496
402;28.21015739440918
403;28.1849365234375
404;28.16017723083496
405;28.13588523864746
406;28.112030029296875
407;28.088607788085938
408;28.06561279296875
409;28.04303550720215
410;28.020870208740234
411;27.99911880493164
412;27.977767944335938
413;27.95680046081543
414;27.93619155883789
415;27.915987014770508
416;27.896162033081055
417;27.876697540283203
418;27.85759162902832
419;27.83884048461914
420;27.8204345703125
421;27.802364349365234
422;27.784639358520508
423;27.7672119140625
424;27.750137329101562
425;27.73335838317871
426;27.71689796447754
427;27.700729370117188
428;27.684873580932617
429;27.669315338134766
430;27.65403938293457
431;27.63905143737793
432;27.624326705932617
433;27.609882354736328
434;27.5956974029541
435;27.581768035888672
436;27.56809425354004
437;27.5546875
438;27.541532516479492
439;27.528615951538086
440;27.515926361083984
441;27.503469467163086
442;27.49124526977539
443;27.479238510131836
444;27.467451095581055
445;27.45587158203125
446;27.444509506225586
447;27.433347702026367
448;27.422393798828125
449;27.411638259887695
450;27.401071548461914
451;27.390682220458984
452;27.38047981262207
453;27.37044334411621
454;27.36058235168457
455;27.350894927978516
456;27.34136962890625
457;27.332000732421875
458;27.322795867919922
459;27.31375503540039
460;27.30487060546875
461;27.296138763427734
462;27.287534713745117
463;27.279069900512695
464;27.27072525024414
465;27.262508392333984
466;27.25440788269043
467;27.246435165405273
468;27.238569259643555
469;27.23080825805664
470;27.22313117980957
471;27.215572357177734
472;27.208099365234375
473;27.200714111328125
474;27.19340705871582
475;27.186187744140625
476;27.179019927978516
477;27.171939849853516
478;27.164899826049805
479;27.157907485961914
480;27.150941848754883
481;27.144012451171875
482;27.137128829956055
483;27.130239486694336
484;27.12335205078125
485;27.116445541381836
486;27.109516143798828
487;27.102569580078125
488;27.09556007385254
489;27.088476181030273
490;27.081327438354492
491;27.074087142944336
492;27.066694259643555
493;27.05915641784668
494;27.05143165588379
495;27.04345703125
496;27.03519630432129
497;27.026607513427734
498;27.01761245727539
499;27.00814437866211
