;loss
0;894.1564331054688
1;893.0889282226562
2;891.647705078125
3;890.326416015625
4;888.9469604492188
5;887.4515991210938
6;885.968994140625
7;884.3995971679688
8;882.7810668945312
9;881.1198120117188
10;879.3834838867188
11;877.5603637695312
12;875.637451171875
13;873.5914916992188
14;871.4027709960938
15;869.0440063476562
16;866.5036010742188
17;863.728515625
18;860.6726684570312
19;857.24267578125
20;853.4330444335938
21;849.11669921875
22;844.16845703125
23;838.4169311523438
24;831.62255859375
25;823.4373168945312
26;813.3374633789062
27;800.4953002929688
28;783.561279296875
29;760.2892456054688
30;727.0640258789062
31;679.0117797851562
32;618.8823852539062
33;559.97509765625
34;515.75146484375
35;484.3040466308594
36;460.1564025878906
37;441.032470703125
38;425.1761169433594
39;411.7435302734375
40;400.1248474121094
41;389.9366149902344
42;381.0489196777344
43;373.0707702636719
44;365.8045959472656
45;359.1194763183594
46;352.9495544433594
47;347.1939697265625
48;341.9075012207031
49;336.9560241699219
50;332.28680419921875
51;327.8706970214844
52;323.6582336425781
53;319.6209411621094
54;315.7420959472656
55;312.0058898925781
56;308.3612060546875
57;304.8548583984375
58;301.4440612792969
59;298.1195373535156
60;294.8713073730469
61;291.6689147949219
62;288.55694580078125
63;285.48321533203125
64;282.4678649902344
65;279.5078125
66;276.60052490234375
67;273.7435302734375
68;270.9341735839844
69;268.1700744628906
70;265.4673156738281
71;262.7873229980469
72;260.14697265625
73;257.5617370605469
74;254.9965057373047
75;252.46730041503906
76;249.9731903076172
77;247.51329040527344
78;245.08680725097656
79;242.7074737548828
80;240.35963439941406
81;238.02880859375
82;235.7284393310547
83;233.4706573486328
84;231.22901916503906
85;229.02796936035156
86;226.8541259765625
87;224.70704650878906
88;222.5860595703125
89;220.4905548095703
90;218.4200897216797
91;216.37408447265625
92;214.3416290283203
93;212.33306884765625
94;210.3577880859375
95;208.4051513671875
96;206.46519470214844
97;204.55665588378906
98;202.66954040527344
99;200.8035430908203
100;198.9495391845703
101;197.1245574951172
102;195.31121826171875
103;193.5258331298828
104;191.7517852783203
105;189.99688720703125
106;188.26087951660156
107;186.5509796142578
108;184.8518829345703
109;183.1708221435547
110;181.5074005126953
111;179.8614959716797
112;178.2396697998047
113;176.6280059814453
114;175.03965759277344
115;173.4612274169922
116;171.8991241455078
117;170.35308837890625
118;168.82896423339844
119;167.31436157226562
120;165.8152313232422
121;164.33148193359375
122;162.86302185058594
123;161.4150390625
124;159.9816131591797
125;158.56265258789062
126;157.1578826904297
127;155.76206970214844
128;154.38522338867188
129;153.0220489501953
130;151.67245483398438
131;150.3313751220703
132;149.0037078857422
133;147.6937713623047
134;146.396728515625
135;145.10806274414062
136;143.83641052246094
137;142.5772705078125
138;141.3305206298828
139;140.0959014892578
140;138.8693389892578
141;137.65489196777344
142;136.4562530517578
143;135.26548767089844
144;134.09019470214844
145;132.92636108398438
146;131.77392578125
147;130.6327667236328
148;129.5027313232422
149;128.38377380371094
150;127.27228546142578
151;126.1717300415039
152;125.08541107177734
153;124.0098876953125
154;122.9417724609375
155;121.8873291015625
156;120.84012603759766
157;119.8031997680664
158;118.7764892578125
159;117.75981903076172
160;116.75320434570312
161;115.75643920898438
162;114.77233123779297
163;113.79788970947266
164;112.83297729492188
165;111.8749008178711
166;110.92633056640625
167;109.98714447021484
168;109.05977630615234
169;108.14157104492188
170;107.2300033569336
171;106.3275146484375
172;105.43402862548828
173;104.55181884765625
174;103.67838287353516
175;102.81143188476562
176;101.955322265625
177;101.10774993896484
178;100.26856231689453
179;99.43775177001953
180;98.61519622802734
181;97.80087280273438
182;96.99266815185547
183;96.19454193115234
184;95.4044189453125
185;94.62222290039062
186;93.84786224365234
187;93.08126068115234
188;92.32058715820312
189;91.56938934326172
190;90.82575225830078
191;90.08966827392578
192;89.35930633544922
193;88.63638305664062
194;87.92244720458984
195;87.21414947509766
196;86.51468658447266
197;85.82234954833984
198;85.13707733154297
199;84.45731353759766
200;83.78447723388672
201;83.1186294555664
202;82.4610595703125
203;81.81024932861328
204;81.16617584228516
205;80.52875518798828
206;79.89791107177734
207;79.27227020263672
208;78.65312194824219
209;78.04043579101562
210;77.43415069580078
211;76.83419036865234
212;76.24053192138672
213;75.65430450439453
214;75.07422637939453
215;74.49908447265625
216;73.92999267578125
217;73.3669204711914
218;72.81092071533203
219;72.26082611083984
220;71.7154769897461
221;71.17699432373047
222;70.64317321777344
223;70.11505889892578
224;69.59262084960938
225;69.07676696777344
226;68.56645965576172
227;68.06063842773438
228;67.56024932861328
229;67.06531524658203
230;66.5757064819336
231;66.0923080444336
232;65.61328887939453
233;65.14034271240234
234;64.67256164550781
235;64.2098617553711
236;63.75137710571289
237;63.29791259765625
238;62.850250244140625
239;62.40751266479492
240;61.969635009765625
241;61.5366096496582
242;61.10759353637695
243;60.684085845947266
244;60.26527786254883
245;59.85114669799805
246;59.44087600708008
247;59.035186767578125
248;58.634063720703125
249;58.23811721801758
250;57.84664535522461
251;57.45954513549805
252;57.07615661621094
253;56.69710159301758
254;56.32301712036133
255;55.9525032043457
256;55.58683776855469
257;55.225372314453125
258;54.86738204956055
259;54.513519287109375
260;54.1636962890625
261;53.818485260009766
262;53.47725296020508
263;53.13938522338867
264;52.8054313659668
265;52.475341796875
266;52.14909744262695
267;51.826656341552734
268;51.508487701416016
269;51.194034576416016
270;50.883270263671875
271;50.57566452026367
272;50.272159576416016
273;49.97222900390625
274;49.67535400390625
275;49.38248062133789
276;49.09261703491211
277;48.806182861328125
278;48.523162841796875
279;48.2435302734375
280;47.9676513671875
281;47.695072174072266
282;47.42535400390625
283;47.158905029296875
284;46.895633697509766
285;46.63554763793945
286;46.37898635864258
287;46.12517166137695
288;45.87480545043945
289;45.627132415771484
290;45.3828239440918
291;45.141143798828125
292;44.90278625488281
293;44.6669921875
294;44.43410110473633
295;44.20442581176758
296;43.97758102416992
297;43.75320053100586
298;43.53193283081055
299;43.313106536865234
300;43.09730911254883
301;42.88389205932617
302;42.673431396484375
303;42.465335845947266
304;42.25984191894531
305;42.05722427368164
306;41.85687255859375
307;41.659061431884766
308;41.46400833129883
309;41.271175384521484
310;41.081050872802734
311;40.8930778503418
312;40.707759857177734
313;40.52482223510742
314;40.34421157836914
315;40.16569137573242
316;39.98970031738281
317;39.81574630737305
318;39.6440315246582
319;39.474544525146484
320;39.30747985839844
321;39.142574310302734
322;38.979827880859375
323;38.81897735595703
324;38.66022872924805
325;38.50358963012695
326;38.349185943603516
327;38.19660949707031
328;38.04606246948242
329;37.89748764038086
330;37.75090408325195
331;37.6064338684082
332;37.46369171142578
333;37.322872161865234
334;37.18391036987305
335;37.0469856262207
336;36.911895751953125
337;36.778621673583984
338;36.646976470947266
339;36.51725769042969
340;36.38929748535156
341;36.26291275024414
342;36.138397216796875
343;36.015567779541016
344;35.89425277709961
345;35.774749755859375
346;35.65688705444336
347;35.54047775268555
348;35.4256706237793
349;35.312583923339844
350;35.201053619384766
351;35.09092330932617
352;34.982444763183594
353;34.8754768371582
354;34.76999282836914
355;34.66584396362305
356;34.563270568847656
357;34.46213150024414
358;34.3624153137207
359;34.26396560668945
360;34.16691207885742
361;34.07120895385742
362;33.97697830200195
363;33.88397216796875
364;33.79227828979492
365;33.70188522338867
366;33.61277770996094
367;33.524940490722656
368;33.4383544921875
369;33.353111267089844
370;33.26907730102539
371;33.18626022338867
372;33.104530334472656
373;33.02408218383789
374;32.94477844238281
375;32.86654281616211
376;32.78952407836914
377;32.713626861572266
378;32.638763427734375
379;32.56498336791992
380;32.49235153198242
381;32.4207763671875
382;32.35018539428711
383;32.280704498291016
384;32.21223831176758
385;32.144779205322266
386;32.07825469970703
387;32.01279067993164
388;31.94822120666504
389;31.884675979614258
390;31.82200813293457
391;31.76027488708496
392;31.6994686126709
393;31.639633178710938
394;31.580698013305664
395;31.52264976501465
396;31.465408325195312
397;31.409088134765625
398;31.35357093811035
399;31.298934936523438
400;31.24513816833496
401;31.192100524902344
402;31.139917373657227
403;31.088537216186523
404;31.037940979003906
405;30.988073348999023
406;30.939016342163086
407;30.890657424926758
408;30.843093872070312
409;30.796218872070312
410;30.75011444091797
411;30.704721450805664
412;30.65997886657715
413;30.615943908691406
414;30.572586059570312
415;30.529922485351562
416;30.487899780273438
417;30.446584701538086
418;30.405920028686523
419;30.365890502929688
420;30.32649040222168
421;30.28767967224121
422;30.249509811401367
423;30.211942672729492
424;30.174942016601562
425;30.138519287109375
426;30.102691650390625
427;30.067419052124023
428;30.032751083374023
429;29.99860191345215
430;29.964996337890625
431;29.931962966918945
432;29.89943504333496
433;29.867446899414062
434;29.835988998413086
435;29.80503273010254
436;29.774581909179688
437;29.74458885192871
438;29.715110778808594
439;29.68611717224121
440;29.6575927734375
441;29.62953758239746
442;29.601938247680664
443;29.574783325195312
444;29.548072814941406
445;29.521799087524414
446;29.495941162109375
447;29.47054100036621
448;29.445556640625
449;29.42095375061035
450;29.39679527282715
451;29.373023986816406
452;29.34965705871582
453;29.32666015625
454;29.30406379699707
455;29.281824111938477
456;29.259984970092773
457;29.238500595092773
458;29.217384338378906
459;29.196603775024414
460;29.17619514465332
461;29.15612030029297
462;29.136375427246094
463;29.116979598999023
464;29.09790802001953
465;29.07917022705078
466;29.060752868652344
467;29.042634963989258
468;29.024824142456055
469;29.007326126098633
470;28.990135192871094
471;28.973215103149414
472;28.95659828186035
473;28.940263748168945
474;28.924209594726562
475;28.9084415435791
476;28.892953872680664
477;28.877731323242188
478;28.862756729125977
479;28.84807014465332
480;28.8336181640625
481;28.819427490234375
482;28.80548095703125
483;28.791776657104492
484;28.77829933166504
485;28.765090942382812
486;28.7520809173584
487;28.739320755004883
488;28.726774215698242
489;28.714452743530273
490;28.70234489440918
491;28.690460205078125
492;28.678796768188477
493;28.667329788208008
494;28.65605354309082
495;28.64500617980957
496;28.6341552734375
497;28.623476028442383
498;28.612998962402344
499;28.60272216796875
500;28.592613220214844
501;28.58269691467285
502;28.572946548461914
503;28.563385009765625
504;28.553985595703125
505;28.544763565063477
506;28.535715103149414
507;28.526832580566406
508;28.51810646057129
509;28.50953483581543
510;28.501121520996094
511;28.492860794067383
512;28.484758377075195
513;28.4768009185791
514;28.4689998626709
515;28.46132469177246
516;28.45380401611328
517;28.4464168548584
518;28.439170837402344
519;28.43206024169922
520;28.425073623657227
521;28.418222427368164
522;28.41149139404297
523;28.404897689819336
524;28.398420333862305
525;28.392065048217773
526;28.385831832885742
527;28.37970733642578
528;28.373693466186523
529;28.367813110351562
530;28.362030029296875
531;28.356353759765625
532;28.35079002380371
533;28.34532928466797
534;28.3399715423584
535;28.334716796875
536;28.329561233520508
537;28.32450294494629
538;28.319549560546875
539;28.31468963623047
540;28.309906005859375
541;28.305234909057617
542;28.300643920898438
543;28.296142578125
544;28.291725158691406
545;28.287405014038086
546;28.283151626586914
547;28.27899169921875
548;28.2749080657959
549;28.270896911621094
550;28.266969680786133
551;28.26312255859375
552;28.25933265686035
553;28.255632400512695
554;28.251998901367188
555;28.248443603515625
556;28.244956970214844
557;28.241533279418945
558;28.23818016052246
559;28.234893798828125
560;28.231666564941406
561;28.228506088256836
562;28.22540855407715
563;28.222373962402344
564;28.219390869140625
565;28.216474533081055
566;28.2136173248291
567;28.210813522338867
568;28.20806312561035
569;28.205368041992188
570;28.202730178833008
571;28.20014762878418
572;28.197607040405273
573;28.19512367248535
574;28.19269371032715
575;28.190305709838867
576;28.18796730041504
577;28.18568229675293
578;28.183435440063477
579;28.181238174438477
580;28.1790828704834
581;28.176969528198242
582;28.174911499023438
583;28.172880172729492
584;28.170896530151367
585;28.16895294189453
586;28.167051315307617
587;28.16518211364746
588;28.16335105895996
589;28.161569595336914
590;28.15981101989746
591;28.158096313476562
592;28.156408309936523
593;28.15476417541504
594;28.153146743774414
595;28.151565551757812
596;28.1500186920166
597;28.14850425720215
598;28.147024154663086
599;28.14556312561035
600;28.144140243530273
601;28.142744064331055
602;28.141374588012695
603;28.14003562927246
604;28.13873291015625
605;28.137451171875
606;28.136199951171875
607;28.13496971130371
608;28.133771896362305
609;28.13258934020996
610;28.131437301635742
611;28.13031578063965
612;28.129209518432617
613;28.128128051757812
614;28.12706756591797
615;28.126035690307617
616;28.125017166137695
617;28.124025344848633
618;28.123056411743164
619;28.122108459472656
620;28.121177673339844
621;28.120269775390625
622;28.11937713623047
623;28.118507385253906
624;28.11766242980957
625;28.1168212890625
626;28.116010665893555
627;28.115211486816406
628;28.114425659179688
629;28.113662719726562
630;28.1129093170166
631;28.1121883392334
632;28.111467361450195
633;28.110763549804688
634;28.110082626342773
635;28.109413146972656
636;28.108747482299805
637;28.108108520507812
638;28.10748291015625
639;28.106863021850586
640;28.10626792907715
641;28.105676651000977
642;28.105104446411133
643;28.10453987121582
644;28.103994369506836
645;28.10345458984375
646;28.102933883666992
647;28.1024112701416
648;28.101911544799805
649;28.101411819458008
650;28.100936889648438
651;28.1004638671875
652;28.100006103515625
653;28.09955406188965
654;28.09911346435547
655;28.09868621826172
656;28.0982608795166
657;28.09784698486328
658;28.097444534301758
659;28.0970516204834
660;28.096670150756836
661;28.096290588378906
662;28.095922470092773
663;28.09556007385254
664;28.0952091217041
665;28.09486961364746
666;28.09452247619629
667;28.094205856323242
668;28.0938777923584
669;28.093564987182617
670;28.093259811401367
671;28.092954635620117
672;28.092660903930664
673;28.092376708984375
674;28.092092514038086
675;28.09181785583496
676;28.091550827026367
677;28.091299057006836
678;28.091033935546875
679;28.090789794921875
680;28.090539932250977
681;28.090301513671875
682;28.09006690979004
683;28.0898380279541
684;28.089616775512695
685;28.089393615722656
686;28.089187622070312
687;28.08897590637207
688;28.088769912719727
689;28.08857536315918
690;28.08837890625
691;28.08818817138672
692;28.087997436523438
693;28.087820053100586
694;28.087644577026367
695;28.087461471557617
696;28.08730125427246
697;28.087133407592773
698;28.08696746826172
699;28.086809158325195
700;28.086660385131836
701;28.086502075195312
702;28.08635711669922
703;28.086210250854492
704;28.08607292175293
705;28.085927963256836
706;28.085798263549805
707;28.085668563842773
708;28.085538864135742
709;28.085412979125977
710;28.085289001464844
711;28.085168838500977
712;28.085046768188477
713;28.084936141967773
714;28.084823608398438
715;28.0847110748291
716;28.08460807800293
717;28.084508895874023
718;28.084396362304688
719;28.08429718017578
720;28.084197998046875
721;28.084104537963867
722;28.084009170532227
723;28.08392333984375
724;28.083831787109375
725;28.0837459564209
726;28.08365821838379
727;28.08357810974121
728;28.0834903717041
729;28.083410263061523
730;28.08333396911621
731;28.0832576751709
732;28.083181381225586
733;28.08310890197754
734;28.083044052124023
735;28.082969665527344
736;28.082901000976562
737;28.082834243774414
738;28.08277130126953
739;28.08270835876465
740;28.08264923095703
741;28.08258628845215
742;28.0825252532959
743;28.08246421813965
744;28.082406997680664
745;28.082351684570312
746;28.082298278808594
747;28.082239151000977
748;28.08219337463379
749;28.082143783569336
750;28.08209228515625
751;28.082040786743164
752;28.081995010375977
753;28.08194923400879
754;28.08190155029297
755;28.081857681274414
756;28.081815719604492
757;28.081771850585938
758;28.08172607421875
759;28.081689834594727
760;28.08164405822754
761;28.08160972595215
762;28.081573486328125
763;28.081533432006836
764;28.081497192382812
765;28.081457138061523
766;28.0814266204834
767;28.081392288208008
768;28.08135414123535
769;28.08131980895996
770;28.081289291381836
771;28.081254959106445
772;28.081222534179688
773;28.081192016601562
774;28.081161499023438
775;28.08112907409668
776;28.081106185913086
777;28.08107566833496
778;28.081052780151367
779;28.081022262573242
780;28.08098793029785
781;28.080968856811523
782;28.08094024658203
783;28.080917358398438
784;28.080888748168945
785;28.08086395263672
786;28.080841064453125
787;28.080825805664062
788;28.08079719543457
789;28.080766677856445
790;28.08074951171875
791;28.080726623535156
792;28.080713272094727
793;28.0806884765625
794;28.080659866333008
795;28.080644607543945
796;28.08062744140625
797;28.080610275268555
798;28.080581665039062
799;28.080564498901367
800;28.080549240112305
801;28.08052635192871
802;28.080503463745117
803;28.080490112304688
804;28.080472946166992
805;28.080453872680664
806;28.080434799194336
807;28.080419540405273
808;28.08040428161621
809;28.080385208129883
810;28.080373764038086
811;28.08036231994629
812;28.080337524414062
813;28.080324172973633
814;28.08030891418457
815;28.080291748046875
816;28.08027458190918
817;28.08026695251465
818;28.08025550842285
819;28.08024024963379
820;28.080224990844727
821;28.080209732055664
822;28.0801944732666
823;28.080184936523438
824;28.080163955688477
825;28.080148696899414
826;28.08014678955078
827;28.080129623413086
828;28.080114364624023
829;28.080102920532227
830;28.080087661743164
831;28.080078125
832;28.080062866210938
833;28.080047607421875
834;28.08003807067871
835;28.08003044128418
836;28.08001708984375
837;28.080007553100586
838;28.07999610900879
839;28.079984664916992
840;28.079971313476562
841;28.0799560546875
842;28.0799503326416
843;28.079940795898438
844;28.079927444458008
845;28.07991600036621
846;28.07990074157715
847;28.079885482788086
848;28.079885482788086
849;28.079866409301758
850;28.07985496520996
851;28.07985496520996
852;28.079835891723633
853;28.0798282623291
854;28.07982063293457
855;28.079809188842773
856;28.07979393005371
857;28.079782485961914
858;28.07977867126465
859;28.079763412475586
860;28.079755783081055
861;28.079748153686523
862;28.079736709594727
863;28.079727172851562
864;28.0797176361084
865;28.079710006713867
866;28.079694747924805
867;28.079687118530273
868;28.079675674438477
869;28.07967185974121
870;28.07965660095215
871;28.079648971557617
872;28.07963752746582
873;28.07962989807129
874;28.079620361328125
875;28.079605102539062
876;28.07959747314453
877;28.07958984375
878;28.0795841217041
879;28.07956886291504
880;28.079561233520508
881;28.079553604125977
882;28.079545974731445
883;28.07953453063965
884;28.07952117919922
885;28.079513549804688
886;28.079505920410156
887;28.079492568969727
888;28.079483032226562
889;28.079469680786133
890;28.0794620513916
891;28.079458236694336
892;28.07944679260254
893;28.079435348510742
894;28.07942771911621
895;28.07941436767578
896;28.07941246032715
897;28.07939338684082
898;28.079381942749023
899;28.079376220703125
900;28.079362869262695
901;28.079355239868164
902;28.079345703125
903;28.07933235168457
904;28.079320907592773
905;28.079317092895508
906;28.07930564880371
907;28.07929229736328
908;28.079286575317383
909;28.079275131225586
910;28.07926368713379
911;28.079254150390625
912;28.07924461364746
913;28.079233169555664
914;28.0792236328125
915;28.07921028137207
916;28.079206466674805
917;28.079193115234375
918;28.07918357849121
919;28.079172134399414
920;28.079164505004883
921;28.07914924621582
922;28.079139709472656
923;28.079133987426758
924;28.07912254333496
925;28.0791072845459
926;28.079103469848633
927;28.079092025756836
928;28.079084396362305
929;28.079072952270508
930;28.079063415527344
931;28.07904624938965
932;28.079042434692383
933;28.079030990600586
934;28.079023361206055
935;28.079011917114258
936;28.079004287719727
937;28.078996658325195
938;28.0789852142334
939;28.07897186279297
940;28.078956604003906
941;28.078947067260742
942;28.078943252563477
943;28.078927993774414
944;28.078920364379883
945;28.07891082763672
946;28.078893661499023
947;28.078882217407227
948;28.078866958618164
949;28.07887077331543
950;28.0788516998291
951;28.0788516998291
952;28.07883644104004
953;28.078826904296875
954;28.078811645507812
955;28.078805923461914
956;28.07879638671875
957;28.078786849975586
958;28.07877540588379
959;28.078760147094727
960;28.078760147094727
961;28.078744888305664
962;28.0787353515625
963;28.078720092773438
964;28.07871437072754
965;28.078699111938477
966;28.078691482543945
967;28.078683853149414
968;28.07866859436035
969;28.07866668701172
970;28.078651428222656
971;28.078638076782227
972;28.07862663269043
973;28.078622817993164
974;28.078615188598633
975;28.078603744506836
976;28.078590393066406
977;28.078582763671875
978;28.07856559753418
979;28.07855796813965
980;28.078550338745117
981;28.078535079956055
982;28.07853126525879
983;28.078516006469727
984;28.078506469726562
985;28.0784969329834
986;28.078489303588867
987;28.078475952148438
988;28.078474044799805
989;28.078460693359375
990;28.078447341918945
991;28.07843780517578
992;28.07843017578125
993;28.07842445373535
994;28.078401565551758
995;28.078405380249023
996;28.078393936157227
997;28.078378677368164
998;28.078371047973633
999;28.07836151123047
