;loss
0;861.4345703125
1;858.3280029296875
2;855.2469482421875
3;852.1845703125
4;849.1325073242188
5;846.0814819335938
6;843.0223388671875
7;839.9453125
8;836.8853759765625
9;833.7740478515625
10;830.6051635742188
11;827.3662719726562
12;824.0625
13;820.6832885742188
14;817.21728515625
15;813.6524658203125
16;809.9759521484375
17;806.1405639648438
18;802.1596069335938
19;798.0576782226562
20;793.78173828125
21;789.3125
22;784.5753173828125
23;779.6519165039062
24;774.4672241210938
25;768.9281616210938
26;763.1333618164062
27;756.9857177734375
28;750.44921875
29;743.48583984375
30;736.0521240234375
31;728.0985717773438
32;719.5753173828125
33;710.3175048828125
34;700.3576049804688
35;689.6323852539062
36;678.2050170898438
37;665.8901977539062
38;652.6176147460938
39;638.3262939453125
40;622.9609375
41;606.4804077148438
42;588.8616943359375
43;570.1177368164062
44;550.3038940429688
45;529.3250122070312
46;507.76019287109375
47;485.65106201171875
48;463.31298828125
49;441.1091003417969
50;419.4293518066406
51;398.6761779785156
52;379.21270751953125
53;361.30926513671875
54;345.13507080078125
55;330.6026916503906
56;317.75592041015625
57;306.5670471191406
58;296.6794738769531
59;287.890380859375
60;280.00518798828125
61;272.8923645019531
62;266.4391784667969
63;260.5135192871094
64;255.03904724121094
65;249.94442749023438
66;245.17417907714844
67;240.68336486816406
68;236.409912109375
69;232.3838653564453
70;228.5472412109375
71;224.8622283935547
72;221.33811950683594
73;217.95631408691406
74;214.72543334960938
75;211.6146697998047
76;208.61378479003906
77;205.69247436523438
78;202.87966918945312
79;200.13107299804688
80;197.47349548339844
81;194.885009765625
82;192.35934448242188
83;189.89219665527344
84;187.4807586669922
85;185.12203979492188
86;182.80067443847656
87;180.5399169921875
88;178.312744140625
89;176.1294708251953
90;173.9881591796875
91;171.8872528076172
92;169.8254852294922
93;167.80104064941406
94;165.8122100830078
95;163.86727905273438
96;161.94569396972656
97;160.05593872070312
98;158.19703674316406
99;156.3766632080078
100;154.57656860351562
101;152.81298828125
102;151.06849670410156
103;149.3507537841797
104;147.6667022705078
105;146.00033569335938
106;144.35888671875
107;142.74169921875
108;141.1483154296875
109;139.5850372314453
110;138.0376739501953
111;136.51901245117188
112;135.01547241210938
113;133.5331573486328
114;132.07748413085938
115;130.6361541748047
116;129.22052001953125
117;127.81861877441406
118;126.44123840332031
119;125.07713317871094
120;123.73136138916016
121;122.4088134765625
122;121.10386657714844
123;119.81623840332031
124;118.5456771850586
125;117.29191589355469
126;116.05001068115234
127;114.82445526123047
128;113.61500549316406
129;112.42133331298828
130;111.24324798583984
131;110.08056640625
132;108.9329833984375
133;107.80036926269531
134;106.682373046875
135;105.5789566040039
136;104.48979949951172
137;103.41472625732422
138;102.35710906982422
139;101.3095703125
140;100.27556610107422
141;99.25484466552734
142;98.247314453125
143;97.25273895263672
144;96.2709732055664
145;95.30182647705078
146;94.34815216064453
147;93.40373992919922
148;92.47432708740234
149;91.553955078125
150;90.6482162475586
151;89.75406646728516
152;88.8713150024414
153;87.99726104736328
154;87.13697052001953
155;86.28514099121094
156;85.44428253173828
157;84.61417388916016
158;83.79715728759766
159;82.99053955078125
160;82.19428253173828
161;81.40825653076172
162;80.63005828857422
163;79.86407470703125
164;79.10581970214844
165;78.35728454589844
166;77.61842346191406
167;76.88911437988281
168;76.17118072509766
169;75.46244812011719
170;74.76288604736328
171;74.07050323486328
172;73.38707733154297
173;72.71428680419922
174;72.04845428466797
175;71.39298248291016
176;70.7459945678711
177;70.1073989868164
178;69.4754867553711
179;68.85182189941406
180;68.23784637451172
181;67.63187408447266
182;67.03233337402344
183;66.44062042236328
184;65.85667419433594
185;65.28038787841797
186;64.7116928100586
187;64.15047454833984
188;63.59796905517578
189;63.05146026611328
190;62.513427734375
191;61.98125457763672
192;61.45735549926758
193;60.94038009643555
194;60.430267333984375
195;59.926944732666016
196;59.43029022216797
197;58.93914794921875
198;58.455631256103516
199;57.97861099243164
200;57.5079345703125
201;57.04255294799805
202;56.58342742919922
203;56.131473541259766
204;55.68559646606445
205;55.24571990966797
206;54.81085205078125
207;54.38188934326172
208;53.95873260498047
209;53.542240142822266
210;53.13138961791992
211;52.726165771484375
212;52.32645797729492
213;51.93223190307617
214;51.54337692260742
215;51.159881591796875
216;50.78087615966797
217;50.40785598754883
218;50.03923416137695
219;49.67645263671875
220;49.317989349365234
221;48.964500427246094
222;48.61666488647461
223;48.27296829223633
224;47.934078216552734
225;47.6005973815918
226;47.27113723754883
227;46.946327209472656
228;46.626708984375
229;46.31159210205078
230;46.00093460083008
231;45.69466018676758
232;45.39215850830078
233;45.09452438354492
234;44.80112838745117
235;44.51190948486328
236;44.226829528808594
237;43.9453010559082
238;43.66782760620117
239;43.394344329833984
240;43.125308990478516
241;42.86014175415039
242;42.59833908081055
243;42.3408203125
244;42.086578369140625
245;41.83647918701172
246;41.589599609375
247;41.34634017944336
248;41.106651306152344
249;40.8704948425293
250;40.63821029663086
251;40.408966064453125
252;40.18349075317383
253;39.96098709106445
254;39.74177169799805
255;39.526222229003906
256;39.31350326538086
257;39.10431671142578
258;38.89828109741211
259;38.69532012939453
260;38.49541091918945
261;38.298519134521484
262;38.10460662841797
263;37.91330337524414
264;37.72490692138672
265;37.539398193359375
266;37.35670852661133
267;37.17681121826172
268;36.999671936035156
269;36.82525634765625
270;36.65378189086914
271;36.484703063964844
272;36.31821823120117
273;36.15433883666992
274;35.992984771728516
275;35.83437728881836
276;35.67802047729492
277;35.524085998535156
278;35.372581481933594
279;35.22343063354492
280;35.076637268066406
281;34.93239212036133
282;34.790401458740234
283;34.650447845458984
284;34.5129280090332
285;34.37759017944336
286;34.244205474853516
287;34.11314010620117
288;33.983985900878906
289;33.85708999633789
290;33.732215881347656
291;33.609188079833984
292;33.488136291503906
293;33.369232177734375
294;33.25222396850586
295;33.13695526123047
296;33.02357864379883
297;32.91202926635742
298;32.80231857299805
299;32.69440460205078
300;32.58841323852539
301;32.48414993286133
302;32.381465911865234
303;32.280487060546875
304;32.18132019042969
305;32.08378219604492
306;31.987735748291016
307;31.893434524536133
308;31.80069923400879
309;31.709379196166992
310;31.619726181030273
311;31.531452178955078
312;31.444774627685547
313;31.359439849853516
314;31.275564193725586
315;31.193099975585938
316;31.112043380737305
317;31.032470703125
318;30.954132080078125
319;30.877248764038086
320;30.80156898498535
321;30.72719383239746
322;30.65410041809082
323;30.582345962524414
324;30.511829376220703
325;30.442447662353516
326;30.374263763427734
327;30.30727195739746
328;30.241436004638672
329;30.17674446105957
330;30.11318588256836
331;30.05074691772461
332;29.989389419555664
333;29.92911148071289
334;29.86997413635254
335;29.81186294555664
336;29.754718780517578
337;29.698579788208008
338;29.643442153930664
339;29.589275360107422
340;29.536067962646484
341;29.48381233215332
342;29.432559967041016
343;29.382217407226562
344;29.33271598815918
345;29.284099578857422
346;29.23636245727539
347;29.18953514099121
348;29.143505096435547
349;29.098297119140625
350;29.05391502380371
351;29.010334014892578
352;28.967533111572266
353;28.92552375793457
354;28.884273529052734
355;28.84377098083496
356;28.804019927978516
357;28.764984130859375
358;28.72671127319336
359;28.689144134521484
360;28.6522216796875
361;28.615970611572266
362;28.580398559570312
363;28.545473098754883
364;28.51119613647461
365;28.477590560913086
366;28.44460678100586
367;28.41219711303711
368;28.38043212890625
369;28.3492374420166
370;28.318593978881836
371;28.288564682006836
372;28.259057998657227
373;28.230098724365234
374;28.20168685913086
375;28.173830032348633
376;28.146459579467773
377;28.119646072387695
378;28.09330177307129
379;28.06746482849121
380;28.04212760925293
381;28.017230987548828
382;27.992799758911133
383;27.968847274780273
384;27.945337295532227
385;27.922256469726562
386;27.899606704711914
387;27.877389907836914
388;27.855587005615234
389;27.83419418334961
390;27.813201904296875
391;27.792606353759766
392;27.77240562438965
393;27.752595901489258
394;27.73313331604004
395;27.714035034179688
396;27.695293426513672
397;27.676895141601562
398;27.65884780883789
399;27.641157150268555
400;27.623779296875
401;27.606740951538086
402;27.590017318725586
403;27.57358741760254
404;27.55746078491211
405;27.541624069213867
406;27.526086807250977
407;27.51082992553711
408;27.495845794677734
409;27.481136322021484
410;27.46668815612793
411;27.45250129699707
412;27.438589096069336
413;27.42490577697754
414;27.411455154418945
415;27.398252487182617
416;27.385278701782227
417;27.37253189086914
418;27.3599853515625
419;27.347660064697266
420;27.33555030822754
421;27.32362937927246
422;27.31191635131836
423;27.30039405822754
424;27.289052963256836
425;27.27789306640625
426;27.266916275024414
427;27.256084442138672
428;27.245424270629883
429;27.234928131103516
430;27.224578857421875
431;27.214372634887695
432;27.20431137084961
433;27.194379806518555
434;27.1845760345459
435;27.174896240234375
436;27.16533088684082
437;27.1558837890625
438;27.146535873413086
439;27.13728141784668
440;27.12812614440918
441;27.119049072265625
442;27.11005973815918
443;27.10113525390625
444;27.09227180480957
445;27.083452224731445
446;27.07468032836914
447;27.06595802307129
448;27.057252883911133
449;27.04855728149414
450;27.03987693786621
451;27.031185150146484
452;27.02247428894043
453;27.01374626159668
454;27.00496482849121
455;26.99611473083496
456;26.987197875976562
457;26.97817611694336
458;26.969057083129883
459;26.95979118347168
460;26.950366973876953
461;26.94075584411621
462;26.93092155456543
463;26.92083740234375
464;26.91048240661621
465;26.899810791015625
466;26.88874626159668
467;26.877275466918945
468;26.865310668945312
469;26.852815628051758
470;26.839725494384766
471;26.82594871520996
472;26.81136703491211
473;26.795894622802734
474;26.779401779174805
475;26.761775970458984
476;26.742849349975586
477;26.72247314453125
478;26.70048713684082
479;26.67667007446289
480;26.65085792541504
481;26.622854232788086
482;26.592514038085938
483;26.55971336364746
484;26.524412155151367
485;26.486713409423828
486;26.4467716217041
487;26.405073165893555
488;26.362150192260742
489;26.318843841552734
490;26.276134490966797
491;26.23505973815918
492;26.1966609954834
493;26.161344528198242
494;26.12923240661621
495;26.099767684936523
496;26.071712493896484
497;26.043487548828125
498;26.013076782226562
499;25.97859764099121
500;25.938358306884766
501;25.890954971313477
502;25.835527420043945
503;25.772233963012695
504;25.70155143737793
505;25.623327255249023
506;25.538787841796875
507;25.44978141784668
508;25.359172821044922
509;25.27020263671875
510;25.186246871948242
511;25.110761642456055
512;25.04575538635254
513;24.992340087890625
514;24.95077896118164
515;24.91622543334961
516;24.88292121887207
517;24.848329544067383
518;24.81240463256836
519;24.774213790893555
520;24.734600067138672
521;24.696624755859375
522;24.660289764404297
523;24.625898361206055
524;24.592899322509766
525;24.561105728149414
526;24.529720306396484
527;24.497365951538086
528;24.46293067932129
529;24.425947189331055
530;24.38763427734375
531;24.351924896240234
532;24.316293716430664
533;24.279619216918945
534;24.24183464050293
535;24.202823638916016
536;24.16304588317871
537;24.123519897460938
538;24.08711814880371
539;24.051483154296875
540;24.015064239501953
541;23.977535247802734
542;23.939130783081055
543;23.900146484375
544;23.8593692779541
545;23.816686630249023
546;23.773122787475586
547;23.727598190307617
548;23.680572509765625
549;23.630701065063477
550;23.577619552612305
551;23.521087646484375
552;23.46063804626465
553;23.3955078125
554;23.3261661529541
555;23.253650665283203
556;23.174882888793945
557;23.09245491027832
558;23.00446891784668
559;22.9104061126709
560;22.81216812133789
561;22.71091651916504
562;22.612140655517578
563;22.514162063598633
564;22.42067527770996
565;22.334285736083984
566;22.253414154052734
567;22.18386459350586
568;22.121646881103516
569;22.058589935302734
570;21.993911743164062
571;21.925283432006836
572;21.852216720581055
573;21.774852752685547
574;21.69486427307129
575;21.614822387695312
576;21.535192489624023
577;21.458688735961914
578;21.386463165283203
579;21.31747055053711
580;21.254751205444336
581;21.193071365356445
582;21.132741928100586
583;21.07414436340332
584;21.01583480834961
585;20.954896926879883
586;20.89052391052246
587;20.822528839111328
588;20.75374984741211
589;20.680395126342773
590;20.603300094604492
591;20.52464485168457
592;20.442943572998047
593;20.360536575317383
594;20.280181884765625
595;20.19435691833496
596;20.102861404418945
597;20.012237548828125
598;19.920976638793945
599;19.82760238647461
600;19.731441497802734
601;19.633073806762695
602;19.531057357788086
603;19.424962997436523
604;19.31722068786621
605;19.206649780273438
606;19.094491958618164
607;18.98050880432129
608;18.86673927307129
609;18.753341674804688
610;18.640655517578125
611;18.528331756591797
612;18.41864013671875
613;18.312198638916016
614;18.20595359802246
615;18.104387283325195
616;18.008298873901367
617;17.914949417114258
618;17.82259178161621
619;17.73090934753418
620;17.638813018798828
621;17.545440673828125
622;17.452356338500977
623;17.359323501586914
624;17.266284942626953
625;17.174808502197266
626;17.0838623046875
627;16.991790771484375
628;16.901334762573242
629;16.814464569091797
630;16.727712631225586
631;16.651187896728516
632;16.567550659179688
633;16.48044776916504
634;16.399097442626953
635;16.326995849609375
636;16.25084114074707
637;16.170337677001953
638;16.092121124267578
639;16.01729965209961
640;15.943705558776855
641;15.869013786315918
642;15.794529914855957
643;15.720574378967285
644;15.64703369140625
645;15.574742317199707
646;15.507063865661621
647;15.437821388244629
648;15.366331100463867
649;15.293564796447754
650;15.221860885620117
651;15.15291690826416
652;15.083536148071289
653;15.013096809387207
654;14.944404602050781
655;14.872871398925781
656;14.801039695739746
657;14.732073783874512
658;14.659899711608887
659;14.587068557739258
660;14.51423454284668
661;14.440119743347168
662;14.366486549377441
663;14.295106887817383
664;14.221611976623535
665;14.147839546203613
666;14.0736083984375
667;14.003230094909668
668;13.931175231933594
669;13.859025001525879
670;13.785445213317871
671;13.716105461120605
672;13.647442817687988
673;13.58037281036377
674;13.510931015014648
675;13.442851066589355
676;13.375517845153809
677;13.308212280273438
678;13.24515438079834
679;13.181912422180176
680;13.116047859191895
681;13.050080299377441
682;12.983826637268066
683;12.917500495910645
684;12.849650382995605
685;12.779825210571289
686;12.710463523864746
687;12.641447067260742
688;12.569368362426758
689;12.494202613830566
690;12.416319847106934
691;12.336482048034668
692;12.252891540527344
693;12.164324760437012
694;12.073174476623535
695;11.978327751159668
696;11.878737449645996
697;11.77554988861084
698;11.66957950592041
699;11.56238842010498
700;11.446391105651855
701;11.324604988098145
702;11.197205543518066
703;11.066598892211914
704;10.939981460571289
705;10.804000854492188
706;10.65797233581543
707;10.498679161071777
708;10.322141647338867
709;10.137320518493652
710;9.951547622680664
711;9.78251838684082
712;9.610154151916504
713;9.43567943572998
714;9.269975662231445
715;9.125869750976562
716;8.996400833129883
717;8.88383960723877
718;8.787043571472168
719;8.695849418640137
720;8.61135196685791
721;8.525002479553223
722;8.446985244750977
723;8.37280559539795
724;8.306212425231934
725;8.241111755371094
726;8.186591148376465
727;8.134757041931152
728;8.087220191955566
729;8.043413162231445
730;8.0006685256958
731;7.959640026092529
732;7.922879695892334
733;7.887540340423584
734;7.854671001434326
735;7.822192192077637
736;7.792636871337891
737;7.763054847717285
738;7.733283996582031
739;7.70617151260376
740;7.6787824630737305
741;7.652662754058838
742;7.630403995513916
743;7.612288951873779
744;7.595876216888428
745;7.590926170349121
746;7.570876121520996
747;7.556221008300781
748;7.50564432144165
749;7.462662696838379
750;7.429542064666748
751;7.410897254943848
752;7.39969539642334
753;7.389865398406982
754;7.375659465789795
755;7.344580173492432
756;7.311604022979736
757;7.284559726715088
758;7.270178318023682
759;7.258678913116455
760;7.242262363433838
761;7.220268726348877
762;7.199236869812012
763;7.178469181060791
764;7.160201072692871
765;7.144538402557373
766;7.13067102432251
767;7.116645812988281
768;7.101943492889404
769;7.084535121917725
770;7.0717854499816895
771;7.058253765106201
772;7.043132305145264
773;7.025516033172607
774;7.007012367248535
775;6.99147891998291
776;6.978290557861328
777;6.964632511138916
778;6.950648784637451
779;6.936670780181885
780;6.922969341278076
781;6.909603595733643
782;6.90088415145874
783;6.895002841949463
784;6.893504619598389
785;6.897195339202881
786;6.907175540924072
787;6.905655384063721
788;6.899381160736084
789;6.862136363983154
790;6.823066711425781
791;6.79032564163208
792;6.775943756103516
793;6.775727272033691
794;6.77658748626709
795;6.7719621658325195
796;6.74428653717041
797;6.715213775634766
798;6.690056800842285
799;6.676556587219238
800;6.682436466217041
801;6.6929450035095215
802;6.692749500274658
803;6.675545692443848
804;6.64901876449585
805;6.620547294616699
806;6.602074146270752
807;6.59881591796875
808;6.600557804107666
809;6.604125022888184
810;6.594430446624756
811;6.575308799743652
812;6.554102420806885
813;6.539505481719971
814;6.532796382904053
815;6.53018856048584
816;6.525535583496094
817;6.526535987854004
818;6.519431114196777
819;6.501784801483154
820;6.474206447601318
821;6.451538562774658
822;6.442385196685791
823;6.446296691894531
824;6.447948932647705
825;6.434872150421143
826;6.414440631866455
827;6.389720439910889
828;6.373902797698975
829;6.37553071975708
830;6.3947434425354
831;6.398693561553955
832;6.367259979248047
833;6.330145835876465
834;6.30849027633667
835;6.306362628936768
836;6.305248260498047
837;6.288018703460693
838;6.263622760772705
839;6.244617938995361
840;6.2337646484375
841;6.25054407119751
842;6.272487640380859
843;6.2733025550842285
844;6.241230487823486
845;6.1974616050720215
846;6.163163185119629
847;6.152824878692627
848;6.1586480140686035
849;6.184618949890137
850;6.171518802642822
851;6.157013416290283
852;6.1259918212890625
853;6.094790935516357
854;6.078941822052002
855;6.085059642791748
856;6.112659931182861
857;6.137202262878418
858;6.157818794250488
859;6.092769622802734
860;6.035809516906738
861;6.0305633544921875
862;6.07088565826416
863;6.085107326507568
864;6.02801513671875
865;5.989335060119629
866;6.006162166595459
867;6.0362749099731445
868;6.0100202560424805
869;5.961927890777588
870;5.9567694664001465
871;5.9735565185546875
872;5.966915607452393
873;5.9406418800354
874;5.91625452041626
875;5.917185306549072
876;5.921938419342041
877;5.918398380279541
878;5.9032135009765625
879;5.884293079376221
880;5.871540069580078
881;5.8718461990356445
882;5.868518829345703
883;5.865516185760498
884;5.847280979156494
885;5.836392402648926
886;5.826085090637207
887;5.819861888885498
888;5.81708288192749
889;5.822449684143066
890;5.836358547210693
891;5.835807800292969
892;5.8465752601623535
893;5.815826416015625
894;5.8013176918029785
895;5.7742414474487305
896;5.761136054992676
897;5.7549872398376465
898;5.753077983856201
899;5.743462562561035
900;5.736217021942139
901;5.725737571716309
902;5.719721794128418
903;5.719882488250732
904;5.724193572998047
905;5.723545551300049
906;5.733882427215576
907;5.74174165725708
908;5.744211673736572
909;5.711988925933838
910;5.698155403137207
911;5.672379970550537
912;5.656868934631348
913;5.661983489990234
914;5.68088960647583
915;5.699449062347412
916;5.671928405761719
917;5.638723850250244
918;5.619144916534424
919;5.63301944732666
920;5.671932697296143
921;5.65779972076416
922;5.638346195220947
923;5.593541622161865
924;5.587454795837402
925;5.60809326171875
926;5.612886905670166
927;5.621718406677246
928;5.588010311126709
929;5.568190097808838
930;5.552961826324463
931;5.54636812210083
932;5.5333404541015625
933;5.525768756866455
934;5.518851280212402
935;5.5127177238464355
936;5.506210803985596
937;5.4997735023498535
938;5.4942240715026855
939;5.493540287017822
940;5.503129005432129
941;5.542552471160889
942;5.599232196807861
943;5.584202289581299
944;5.525570392608643
945;5.466556549072266
946;5.4554338455200195
947;5.449589252471924
948;5.465798854827881
949;5.47035551071167
950;5.498073101043701
951;5.468578338623047
952;5.453975200653076
953;5.418399333953857
954;5.397994518280029
955;5.396489143371582
956;5.435948848724365
957;5.503726005554199
958;5.491490840911865
959;5.407642841339111
960;5.365994453430176
961;5.355666637420654
962;5.354115962982178
963;5.386023998260498
964;5.448004245758057
965;5.443419933319092
966;5.392325401306152
967;5.330142021179199
968;5.312459468841553
969;5.333691120147705
970;5.389825344085693
971;5.423271656036377
972;5.368430137634277
973;5.297309398651123
974;5.2734904289245605
975;5.264280796051025
976;5.25560998916626
977;5.248998165130615
978;5.242537498474121
979;5.2345476150512695
980;5.226786136627197
981;5.2211785316467285
982;5.235282897949219
983;5.287482738494873
984;5.337086200714111
985;5.318235874176025
986;5.2477335929870605
987;5.195908546447754
988;5.174653053283691
989;5.1687798500061035
990;5.1876044273376465
991;5.245490074157715
992;5.2816877365112305
993;5.244039058685303
994;5.167960166931152
995;5.128940582275391
996;5.11607027053833
997;5.1068291664123535
998;5.101434230804443
999;5.130713939666748
1000;5.21991491317749
1001;5.266476631164551
1002;5.20382833480835
1003;5.104538917541504
1004;5.061966896057129
1005;5.04599142074585
1006;5.0372772216796875
1007;5.036247730255127
1008;5.081181526184082
1009;5.187358856201172
1010;5.245759010314941
1011;5.130828857421875
1012;5.032346248626709
1013;4.990816593170166
1014;4.990603923797607
1015;5.006947994232178
1016;5.0415143966674805
1017;5.093814849853516
1018;5.08689022064209
1019;5.021667957305908
1020;4.971194744110107
1021;4.94146203994751
1022;4.932295799255371
1023;4.920773983001709
1024;4.912051677703857
1025;4.904707431793213
1026;4.900242328643799
1027;4.936048984527588
1028;4.998525142669678
1029;5.059998989105225
1030;5.0183587074279785
1031;4.950538635253906
1032;4.885771751403809
1033;4.861939430236816
1034;4.845942974090576
1035;4.860180377960205
1036;4.8928914070129395
1037;4.937526226043701
1038;4.936708927154541
1039;4.900154113769531
1040;4.845761299133301
1041;4.815632343292236
1042;4.800049781799316
1043;4.801887512207031
1044;4.813892841339111
1045;4.8499016761779785
1046;4.858855247497559
1047;4.848606586456299
1048;4.796512126922607
1049;4.767903804779053
1050;4.748940944671631
1051;4.753855228424072
1052;4.769721984863281
1053;4.797471046447754
1054;4.794159412384033
1055;4.771950721740723
1056;4.730824947357178
1057;4.706636905670166
1058;4.695637226104736
1059;4.696061134338379
1060;4.704296112060547
1061;4.714606285095215
1062;4.714010715484619
1063;4.710689067840576
1064;4.686295986175537
1065;4.662179470062256
1066;4.636477947235107
1067;4.6230597496032715
1068;4.619869709014893
1069;4.62636137008667
1070;4.6348490715026855
1071;4.641471862792969
1072;4.622795581817627
1073;4.602278709411621
1074;4.57348108291626
1075;4.5609540939331055
1076;4.550244331359863
1077;4.563738822937012
1078;4.563762664794922
1079;4.584494590759277
1080;4.565071105957031
1081;4.5514421463012695
1082;4.504467010498047
1083;4.4898576736450195
1084;4.472389221191406
1085;4.484574317932129
1086;4.49130916595459
1087;4.5135908126831055
1088;4.503274917602539
1089;4.502758979797363
1090;4.4611310958862305
1091;4.430765628814697
1092;4.3989129066467285
1093;4.402260780334473
1094;4.413626670837402
1095;4.463996410369873
1096;4.460968971252441
1097;4.443798065185547
1098;4.383538246154785
1099;4.352785587310791
1100;4.324987888336182
1101;4.298178195953369
1102;4.290380954742432
1103;4.2803874015808105
1104;4.270331859588623
1105;4.260087966918945
1106;4.251344680786133
1107;4.242129802703857
1108;4.232497692108154
1109;4.247204780578613
1110;4.364996910095215
1111;4.496151447296143
1112;4.46903657913208
1113;4.293010711669922
1114;4.199589729309082
1115;4.178153038024902
1116;4.224011421203613
1117;4.339791774749756
1118;4.360215187072754
1119;4.272672653198242
1120;4.167959213256836
1121;4.125085353851318
1122;4.115151882171631
1123;4.104739665985107
1124;4.096897125244141
1125;4.106996059417725
1126;4.1915812492370605
1127;4.291083335876465
1128;4.273062229156494
1129;4.137475490570068
1130;4.0752272605896
1131;4.039859294891357
1132;4.0299835205078125
1133;4.019715785980225
1134;4.018218517303467
1135;4.046010971069336
1136;4.129051685333252
1137;4.168605804443359
1138;4.105624198913574
1139;4.004824638366699
1140;3.971855401992798
1141;3.950336456298828
1142;3.9378981590270996
1143;3.927049398422241
1144;3.934598684310913
1145;3.973024606704712
1146;4.0617756843566895
1147;4.088412761688232
1148;4.026303291320801
1149;3.9246885776519775
1150;3.892061233520508
1151;3.864370822906494
1152;3.8538858890533447
1153;3.8415560722351074
1154;3.842031478881836
1155;3.848083019256592
1156;3.9243927001953125
1157;3.9543991088867188
1158;3.9464800357818604
1159;3.843137502670288
1160;3.8123955726623535
1161;3.766223430633545
1162;3.764960765838623
1163;3.855241537094116
1164;3.888089418411255
1165;3.862393617630005
1166;3.750588893890381
1167;3.713461399078369
1168;3.679515838623047
1169;3.683432102203369
1170;3.740198850631714
1171;3.7463645935058594
1172;3.736585855484009
1173;3.6490330696105957
1174;3.6196460723876953
1175;3.6301863193511963
1176;3.639906644821167
1177;3.702000856399536
1178;3.6527669429779053
1179;3.618821859359741
1180;3.560478925704956
1181;3.546919107437134
1182;3.5448246002197266
1183;3.5415565967559814
1184;3.5504395961761475
1185;3.5330867767333984
1186;3.511345386505127
1187;3.489952325820923
1188;3.4774646759033203
1189;3.4676623344421387
1190;3.465039014816284
1191;3.475597381591797
1192;3.5565433502197266
1193;3.5430240631103516
1194;3.540269374847412
1195;3.4237992763519287
1196;3.4318339824676514
1197;3.596923589706421
1198;3.502607583999634
1199;3.414252996444702
1200;3.334789752960205
1201;3.422412872314453
1202;3.66957688331604
1203;3.43464994430542
1204;3.292891025543213
1205;3.280848264694214
1206;3.329584836959839
1207;3.28180193901062
1208;3.204132556915283
1209;3.273589849472046
1210;3.4527690410614014
1211;3.2382431030273438
1212;3.1396851539611816
1213;3.1493117809295654
1214;3.149268865585327
1215;3.120767116546631
1216;3.0677683353424072
1217;3.092747211456299
1218;3.124755382537842
1219;3.022425413131714
1220;3.0358176231384277
1221;3.159168004989624
1222;3.001004457473755
1223;2.951598882675171
1224;2.9758708477020264
1225;2.9081807136535645
1226;2.8924171924591064
1227;2.961085796356201
1228;2.8755013942718506
1229;2.873194932937622
1230;2.7999107837677
1231;2.8137600421905518
1232;2.817577362060547
1233;2.7438042163848877
1234;2.7419230937957764
1235;2.756427049636841
1236;2.693497896194458
1237;2.6735503673553467
1238;2.6961095333099365
1239;2.667752504348755
1240;2.6974539756774902
1241;2.6381802558898926
1242;2.601025104522705
1243;2.5790774822235107
1244;2.5804965496063232
1245;2.5784313678741455
1246;2.555743932723999
1247;2.536789655685425
1248;2.5272116661071777
1249;2.5232317447662354
1250;2.522616147994995
1251;2.5138282775878906
1252;2.492737293243408
1253;2.478104829788208
1254;2.475308895111084
1255;2.4676339626312256
1256;2.452885866165161
1257;2.446962356567383
1258;2.4884469509124756
1259;2.541337251663208
1260;2.8388497829437256
1261;2.87559175491333
1262;2.7658603191375732
1263;2.4499144554138184
1264;2.5259032249450684
1265;2.621849775314331
1266;2.4442086219787598
1267;2.5006911754608154
1268;2.5153257846832275
1269;2.3925940990448
1270;2.46590256690979
1271;2.476395845413208
1272;2.359450101852417
1273;2.4714972972869873
1274;2.678563356399536
1275;2.4001104831695557
1276;2.3534507751464844
1277;2.4472362995147705
1278;2.3484766483306885
1279;2.3366286754608154
1280;2.391751527786255
1281;2.319552183151245
1282;2.3072121143341064
1283;2.355621099472046
1284;2.30615496635437
1285;2.273285150527954
1286;2.2739386558532715
1287;2.277679443359375
1288;2.2539165019989014
1289;2.2498433589935303
1290;2.2537310123443604
1291;2.2371280193328857
1292;2.22668719291687
1293;2.228700876235962
1294;2.2209465503692627
1295;2.2069461345672607
1296;2.203364610671997
1297;2.202208995819092
1298;2.1914172172546387
1299;2.1812806129455566
1300;2.17724871635437
1301;2.1731531620025635
1302;2.1655609607696533
1303;2.1565098762512207
1304;2.151492118835449
1305;2.1471285820007324
1306;2.1394362449645996
1307;2.1319479942321777
1308;2.1261146068573
1309;2.1214699745178223
1310;2.117579698562622
1311;2.111097574234009
1312;2.103548765182495
1313;2.0961062908172607
1314;2.0895371437072754
1315;2.0839645862579346
1316;2.07939076423645
1317;2.075303316116333
1318;2.070953845977783
1319;2.0699238777160645
1320;2.0805909633636475
1321;2.1841371059417725
1322;2.315969228744507
1323;2.6279377937316895
1324;2.4499776363372803
1325;2.19358229637146
1326;2.0661027431488037
1327;2.2236170768737793
1328;2.143348455429077
1329;2.0571157932281494
1330;2.1595113277435303
1331;2.0679242610931396
1332;2.0218000411987305
1333;2.1319375038146973
1334;2.2311832904815674
1335;2.0333399772644043
1336;1.9940687417984009
1337;2.1347804069519043
1338;2.0822670459747314
1339;2.021019458770752
1340;1.9597879648208618
1341;2.0202298164367676
1342;2.009911298751831
1343;1.945372223854065
1344;1.9799821376800537
1345;1.987496018409729
1346;1.9238208532333374
1347;1.9314908981323242
1348;1.9467874765396118
1349;1.9096919298171997
1350;1.9015111923217773
1351;1.918169379234314
1352;1.8957092761993408
1353;1.8828469514846802
1354;1.8660098314285278
1355;1.865852952003479
1356;1.8560912609100342
1357;1.8439725637435913
1358;1.8443633317947388
1359;1.838205337524414
1360;1.823649287223816
1361;1.8201078176498413
1362;1.816532015800476
1363;1.8020076751708984
1364;1.7916818857192993
1365;1.7872188091278076
1366;1.7776705026626587
1367;1.7662832736968994
1368;1.7588332891464233
1369;1.7526187896728516
1370;1.7426856756210327
1371;1.7341678142547607
1372;1.7270241975784302
1373;1.7173244953155518
1374;1.708172082901001
1375;1.7006075382232666
1376;1.6929399967193604
1377;1.6833933591842651
1378;1.6755952835083008
1379;1.6691863536834717
1380;1.6587544679641724
1381;1.649471640586853
1382;1.6425544023513794
1383;1.633479118347168
1384;1.6237236261367798
1385;1.6152784824371338
1386;1.6081870794296265
1387;1.6002365350723267
1388;1.5903633832931519
1389;1.5808794498443604
1390;1.5740013122558594
1391;1.5659600496292114
1392;1.5562390089035034
1393;1.5467863082885742
1394;1.5388191938400269
1395;1.5305194854736328
1396;1.5212501287460327
1397;1.5127462148666382
1398;1.5047458410263062
1399;1.4966069459915161
1400;1.4886314868927002
1401;1.4799232482910156
1402;1.47412109375
1403;1.4632161855697632
1404;1.4534956216812134
1405;1.4452778100967407
1406;1.4369735717773438
1407;1.4275829792022705
1408;1.419285535812378
1409;1.4113260507583618
1410;1.4034024477005005
1411;1.3948304653167725
1412;1.3868954181671143
1413;1.376816749572754
1414;1.3682087659835815
1415;1.360837697982788
1416;1.351601004600525
1417;1.342125654220581
1418;1.3350279331207275
1419;1.3265025615692139
1420;1.3164509534835815
1421;1.3093184232711792
1422;1.300505518913269
1423;1.2903335094451904
1424;1.2823259830474854
1425;1.273629903793335
1426;1.2628992795944214
1427;1.254143476486206
1428;1.246200680732727
1429;1.235741376876831
1430;1.2255117893218994
1431;1.2166341543197632
1432;1.2098435163497925
1433;1.200271725654602
1434;1.1905453205108643
1435;1.1794339418411255
1436;1.1697256565093994
1437;1.1625481843948364
1438;1.153820276260376
1439;1.1430031061172485
1440;1.1324875354766846
1441;1.1236528158187866
1442;1.114488959312439
1443;1.104987382888794
1444;1.0954140424728394
1445;1.085390329360962
1446;1.0765334367752075
1447;1.0681265592575073
1448;1.0593788623809814
1449;1.0489932298660278
1450;1.0393834114074707
1451;1.0317527055740356
1452;1.023858904838562
1453;1.0144153833389282
1454;1.0040161609649658
1455;0.9950237274169922
1456;0.9859954714775085
1457;0.9767812490463257
1458;0.9683902859687805
1459;0.9605903625488281
1460;0.9515921473503113
1461;0.9423432350158691
1462;0.9340866804122925
1463;0.9260719418525696
1464;0.9179593920707703
1465;0.9099003076553345
1466;0.9021192789077759
1467;0.8949900269508362
1468;0.8879371881484985
1469;0.881084144115448
1470;0.8737741112709045
1471;0.8669498562812805
1472;0.8607066869735718
1473;0.8547438383102417
1474;0.8489474058151245
1475;0.8424443006515503
1476;0.8361716866493225
1477;0.8299689888954163
1478;0.8239765167236328
1479;0.8178930282592773
1480;0.8121230006217957
1481;0.8069577813148499
1482;0.8030694127082825
1483;0.7992121577262878
1484;0.7962239980697632
1485;0.7927111983299255
1486;0.7887870073318481
1487;0.7865720391273499
1488;0.7824163436889648
1489;0.7774617075920105
1490;0.7697723507881165
1491;0.7651528716087341
1492;0.7579646706581116
1493;0.7510911822319031
1494;0.744332492351532
1495;0.7386197447776794
1496;0.7342172265052795
1497;0.7300409078598022
1498;0.728941798210144
1499;0.7360706329345703
1500;0.7458318471908569
1501;0.7533642053604126
1502;0.7558466196060181
1503;0.7426129579544067
1504;0.7239349484443665
1505;0.7112818956375122
1506;0.698275625705719
1507;0.6915841102600098
1508;0.6905656456947327
1509;0.6942303776741028
1510;0.698017418384552
1511;0.6981917023658752
1512;0.6910039186477661
1513;0.6840162873268127
1514;0.6742991209030151
1515;0.6707953214645386
1516;0.6657763719558716
1517;0.6597915291786194
1518;0.6550722718238831
1519;0.6519011855125427
1520;0.6495158076286316
1521;0.6477445960044861
1522;0.6493523716926575
1523;0.6554793119430542
1524;0.6641951203346252
1525;0.6886046528816223
1526;0.721893310546875
1527;0.7535983324050903
1528;0.7524046301841736
1529;0.7919146418571472
1530;0.74562007188797
1531;0.670783519744873
1532;0.6214969754219055
1533;0.6368350386619568
1534;0.683074414730072
1535;0.6911014914512634
1536;0.6730631589889526
1537;0.6292418241500854
1538;0.6021703481674194
1539;0.5964884161949158
1540;0.6049977540969849
1541;0.6220059394836426
1542;0.6395726799964905
1543;0.6519767045974731
1544;0.6501628160476685
1545;0.6344695687294006
1546;0.6081008911132812
1547;0.5838727355003357
1548;0.5729418992996216
1549;0.5753008723258972
1550;0.587612509727478
1551;0.6040935516357422
1552;0.6094785332679749
1553;0.6020584106445312
1554;0.5952639579772949
1555;0.5842241048812866
1556;0.5684987306594849
1557;0.5570661425590515
1558;0.5485194325447083
1559;0.5447275638580322
1560;0.545417845249176
1561;0.5506356358528137
1562;0.5600859522819519
1563;0.5724977254867554
1564;0.5864530205726624
1565;0.6087014079093933
1566;0.6103305816650391
1567;0.6057001948356628
1568;0.5740293860435486
1569;0.5439810156822205
1570;0.5242134928703308
1571;0.5194136500358582
1572;0.5273087024688721
1573;0.5470427870750427
1574;0.5713679194450378
1575;0.5884183049201965
1576;0.6074712872505188
1577;0.5994220972061157
1578;0.5776177048683167
1579;0.5402092337608337
1580;0.5098149180412292
1581;0.4975116550922394
1582;0.4984787106513977
1583;0.5050045251846313
1584;0.5152443647384644
1585;0.5209527611732483
1586;0.5228533148765564
1587;0.5169969797134399
1588;0.5085176825523376
1589;0.49865177273750305
1590;0.48821672797203064
1591;0.48042985796928406
1592;0.4737986624240875
1593;0.4711168110370636
1594;0.4718957841396332
1595;0.4726097285747528
1596;0.472303569316864
1597;0.4721292555332184
1598;0.47589176893234253
1599;0.478270024061203
1600;0.484118789434433
1601;0.49444344639778137
1602;0.5094442963600159
1603;0.5192765593528748
1604;0.5385483503341675
1605;0.534789502620697
1606;0.5302079319953918
1607;0.4986456334590912
1608;0.4693297743797302
1609;0.447175532579422
1610;0.4387580454349518
1611;0.4459676742553711
1612;0.4594593346118927
1613;0.48262593150138855
1614;0.5025880932807922
1615;0.5297964811325073
1616;0.5299038290977478
1617;0.519966185092926
1618;0.480818510055542
1619;0.44383272528648376
1620;0.4229082465171814
1621;0.4230975806713104
1622;0.4366634786128998
1623;0.4528124928474426
1624;0.4670877158641815
1625;0.46624359488487244
1626;0.45370379090309143
1627;0.4368893802165985
1628;0.42176881432533264
1629;0.4089381992816925
1630;0.4038810729980469
1631;0.40123870968818665
1632;0.40121522545814514
1633;0.4016897678375244
1634;0.40214672684669495
1635;0.3996976315975189
1636;0.39674752950668335
1637;0.3926765024662018
1638;0.3894893229007721
1639;0.38817310333251953
1640;0.387906014919281
1641;0.38731908798217773
1642;0.39114561676979065
1643;0.39744892716407776
1644;0.41601118445396423
1645;0.44231849908828735
1646;0.49179044365882874
1647;0.5157308578491211
1648;0.5277654528617859
1649;0.4762077331542969
1650;0.4163208305835724
1651;0.37632089853286743
1652;0.37421509623527527
1653;0.400790274143219
1654;0.4362316131591797
1655;0.47054412961006165
1656;0.4696529805660248
1657;0.46039795875549316
1658;0.41964951157569885
1659;0.3826598525047302
1660;0.36045950651168823
1661;0.35904940962791443
1662;0.3727090656757355
1663;0.39163869619369507
1664;0.4086349606513977
1665;0.40939977765083313
1666;0.39693498611450195
1667;0.37708523869514465
1668;0.36089709401130676
1669;0.3480496108531952
1670;0.3436901271343231
1671;0.345811665058136
1672;0.3528765141963959
1673;0.36937662959098816
1674;0.3865213096141815
1675;0.4000793397426605
1676;0.39781448245048523
1677;0.38659340143203735
1678;0.36508098244667053
1679;0.3499554991722107
1680;0.3370122015476227
1681;0.33016401529312134
1682;0.3311408460140228
1683;0.3359646201133728
1684;0.33949071168899536
1685;0.33898529410362244
1686;0.34408053755760193
1687;0.34957435727119446
1688;0.3585132658481598
1689;0.363077849149704
1690;0.36705583333969116
1691;0.3629259169101715
1692;0.3581449091434479
1693;0.3465871810913086
1694;0.3393515944480896
1695;0.3287046253681183
1696;0.3187622129917145
1697;0.3130394518375397
1698;0.3124294877052307
1699;0.3151152729988098
1700;0.31978684663772583
1701;0.3320606052875519
1702;0.3499361574649811
1703;0.37724044919013977
1704;0.4007851779460907
1705;0.4410668909549713
1706;0.43450555205345154
1707;0.41717076301574707
1708;0.35836097598075867
1709;0.3185636103153229
1710;0.3026946485042572
1711;0.31395965814590454
1712;0.3368094861507416
1713;0.3540616035461426
1714;0.3714342415332794
1715;0.3655559718608856
1716;0.3516295254230499
1717;0.3275349736213684
1718;0.310153990983963
1719;0.29755979776382446
1720;0.291210800409317
1721;0.2941373288631439
1722;0.30235007405281067
1723;0.3112662136554718
1724;0.3157237470149994
1725;0.3204355835914612
1726;0.31728819012641907
1727;0.31363609433174133
1728;0.3069058358669281
1729;0.304686963558197
1730;0.30063343048095703
1731;0.30015426874160767
1732;0.297048956155777
1733;0.2972561717033386
1734;0.2941831052303314
1735;0.288326233625412
1736;0.28327250480651855
1737;0.2783260941505432
1738;0.27553102374076843
1739;0.2745709717273712
1740;0.27494016289711
1741;0.2768421173095703
1742;0.27914902567863464
1743;0.2812173664569855
1744;0.28961917757987976
1745;0.30217456817626953
1746;0.32509952783584595
1747;0.3480403423309326
1748;0.39305898547172546
1749;0.4059488773345947
1750;0.4171179234981537
1751;0.365248441696167
1752;0.3129940330982208
1753;0.2723698019981384
1754;0.2663647532463074
1755;0.29112520813941956
1756;0.3262935280799866
1757;0.36508625745773315
1758;0.36389511823654175
1759;0.3601420819759369
1760;0.31670260429382324
1761;0.28092899918556213
1762;0.2596455514431
1763;0.26230472326278687
1764;0.2789274752140045
1765;0.2933632433414459
1766;0.2980645000934601
1767;0.2851088345050812
1768;0.26965752243995667
1769;0.25719064474105835
1770;0.2522812783718109
1771;0.2537449300289154
1772;0.25811517238616943
1773;0.26362523436546326
1774;0.27001315355300903
1775;0.27122828364372253
1776;0.2686370015144348
1777;0.2623436450958252
1778;0.2570636570453644
1779;0.25194090604782104
1780;0.24799878895282745
1781;0.24595631659030914
1782;0.24434338510036469
1783;0.24335584044456482
1784;0.24309277534484863
1785;0.24331583082675934
1786;0.24375522136688232
1787;0.24445538222789764
1788;0.24524272978305817
1789;0.24826134741306305
1790;0.25557905435562134
1791;0.26505598425865173
1792;0.278749018907547
1793;0.2928725779056549
1794;0.31512758135795593
1795;0.3268701136112213
1796;0.36104169487953186
1797;0.3709380328655243
1798;0.3844413161277771
1799;0.3478381037712097
1800;0.315828412771225
1801;0.2643841803073883
1802;0.23796163499355316
1803;0.2360173612833023
1804;0.25334465503692627
1805;0.2793505787849426
1806;0.29449230432510376
1807;0.29922375082969666
1808;0.2824692726135254
1809;0.25973471999168396
1810;0.23889823257923126
1811;0.2290646731853485
1812;0.22800366580486298
1813;0.23272821307182312
1814;0.24273207783699036
1815;0.2525889277458191
1816;0.25678232312202454
1817;0.25261449813842773
1818;0.24276955425739288
1819;0.2345808446407318
1820;0.22719530761241913
1821;0.22341202199459076
1822;0.22192852199077606
1823;0.2216913402080536
1824;0.22187767922878265
1825;0.22202752530574799
1826;0.22212061285972595
1827;0.22218716144561768
1828;0.22362932562828064
1829;0.22685149312019348
1830;0.23135192692279816
1831;0.23784196376800537
1832;0.24321945011615753
1833;0.24943402409553528
1834;0.25397762656211853
1835;0.25755953788757324
1836;0.25800469517707825
1837;0.2562923729419708
1838;0.25132185220718384
1839;0.24430152773857117
1840;0.23613913357257843
1841;0.22836245596408844
1842;0.22357149422168732
1843;0.2199944704771042
1844;0.22002901136875153
1845;0.22117123007774353
1846;0.2264138162136078
1847;0.23344619572162628
1848;0.24430228769779205
1849;0.2694796919822693
1850;0.29668331146240234
1851;0.35022225975990295
1852;0.36439117789268494
1853;0.38366299867630005
1854;0.3239257037639618
1855;0.26595640182495117
1856;0.21532535552978516
1857;0.20948967337608337
1858;0.23720060288906097
1859;0.2663809359073639
1860;0.28293517231941223
1861;0.2657569944858551
1862;0.2476971447467804
1863;0.2184022217988968
1864;0.20330561697483063
1865;0.205555722117424
1866;0.2200160026550293
1867;0.2341184914112091
1868;0.2321152240037918
1869;0.21945242583751678
1870;0.20438696444034576
1871;0.1991121917963028
1872;0.20173373818397522
1873;0.2095620483160019
1874;0.2174254208803177
1875;0.2171073853969574
1876;0.21088716387748718
1877;0.20244358479976654
1878;0.1973952353000641
1879;0.19531391561031342
1880;0.19654273986816406
1881;0.1985573023557663
1882;0.20023570954799652
1883;0.2028338611125946
1884;0.20267459750175476
1885;0.20188339054584503
1886;0.19887469708919525
1887;0.19711725413799286
1888;0.1947171539068222
1889;0.19254764914512634
1890;0.1910848766565323
1891;0.18983329832553864
1892;0.1892017424106598
1893;0.1891385316848755
1894;0.18917860090732574
1895;0.18902389705181122
1896;0.1889646053314209
1897;0.1886478215456009
1898;0.1889747679233551
1899;0.19078493118286133
1900;0.19554223120212555
1901;0.20274761319160461
1902;0.21693460643291473
1903;0.2363436073064804
1904;0.27607086300849915
1905;0.31538039445877075
1906;0.3656192123889923
1907;0.35924598574638367
1908;0.33457061648368835
1909;0.26259931921958923
1910;0.2096836268901825
1911;0.18436740338802338
1912;0.1919785737991333
1913;0.22345376014709473
1914;0.2587825059890747
1915;0.28994712233543396
1916;0.27680763602256775
1917;0.24419419467449188
1918;0.20323431491851807
1919;0.18120023608207703
1920;0.18723101913928986
1921;0.21032266318798065
1922;0.23021480441093445
1923;0.22858913242816925
1924;0.21901920437812805
1925;0.1977270394563675
1926;0.18098238110542297
1927;0.17694887518882751
1928;0.18176671862602234
1929;0.19076789915561676
1930;0.1984955221414566
1931;0.19953422248363495
1932;0.19425749778747559
1933;0.18577203154563904
1934;0.17810051143169403
1935;0.1739383488893509
1936;0.17370210587978363
1937;0.17604272067546844
1938;0.17969827353954315
1939;0.18330788612365723
1940;0.18653224408626556
1941;0.18693923950195312
1942;0.18649275600910187
1943;0.18350407481193542
1944;0.18192839622497559
1945;0.17925836145877838
1946;0.17697684466838837
1947;0.17498621344566345
1948;0.1738060563802719
1949;0.172443225979805
1950;0.17123661935329437
1951;0.1705544888973236
1952;0.17009684443473816
1953;0.17034295201301575
1954;0.1715950071811676
1955;0.1741379350423813
1956;0.1798950731754303
1957;0.18882600963115692
1958;0.21254470944404602
1959;0.24928416311740875
1960;0.30929645895957947
1961;0.3488505184650421
1962;0.4354667663574219
1963;0.3898145258426666
1964;0.32449573278427124
1965;0.2148284614086151
1966;0.1683199256658554
1967;0.1942327469587326
1968;0.2534428536891937
1969;0.31489297747612
1970;0.29072776436805725
1971;0.24018192291259766
1972;0.17920637130737305
1973;0.16523678600788116
1974;0.19389593601226807
1975;0.2302023023366928
1976;0.2540130615234375
1977;0.2237110137939453
1978;0.18853817880153656
1979;0.16466711461544037
1980;0.16633735597133636
1981;0.1851198673248291
1982;0.19651690125465393
1983;0.19697201251983643
1984;0.1803746223449707
1985;0.16350404918193817
1986;0.16107825934886932
1987;0.17154474556446075
1988;0.18137894570827484
1989;0.18040646612644196
1990;0.1702536791563034
1991;0.16035103797912598
1992;0.15792891383171082
1993;0.16263516247272491
1994;0.1689966768026352
1995;0.16973146796226501
1996;0.1647430658340454
1997;0.15874752402305603
1998;0.15572676062583923
1999;0.15568925440311432
