;loss
0;897.6195678710938
1;896.0264282226562
2;894.4453125
3;892.8740234375
4;891.3088989257812
5;889.745849609375
6;888.2272338867188
7;886.685791015625
8;885.09619140625
9;883.4977416992188
10;881.8528442382812
11;880.1687622070312
12;878.427734375
13;876.6246948242188
14;874.734619140625
15;872.7479858398438
16;870.6458129882812
17;868.42431640625
18;866.0164184570312
19;863.404052734375
20;860.54150390625
21;857.4060668945312
22;853.8562622070312
23;849.876220703125
24;845.2488403320312
25;839.84375
26;833.41943359375
27;825.72509765625
28;816.1865844726562
29;804.013671875
30;787.6840209960938
31;765.04296875
32;732.2434692382812
33;684.7890014648438
34;622.026123046875
35;559.4253540039062
36;514.0015258789062
37;484.3377685546875
38;463.30419921875
39;447.1424865722656
40;433.9551696777344
41;422.8099670410156
42;413.1503601074219
43;404.62744140625
44;396.94189453125
45;389.8501892089844
46;383.3651123046875
47;377.2745666503906
48;371.4427490234375
49;365.8746032714844
50;360.590087890625
51;355.5218200683594
52;350.607177734375
53;345.8677978515625
54;341.30108642578125
55;336.8972473144531
56;332.6433410644531
57;328.5381774902344
58;324.5699157714844
59;320.7500305175781
60;317.00933837890625
61;313.37310791015625
62;309.8332824707031
63;306.3838806152344
64;303.0444641113281
65;299.7606506347656
66;296.5509338378906
67;293.4325256347656
68;290.35748291015625
69;287.363037109375
70;284.40423583984375
71;281.4997253417969
72;278.6658630371094
73;275.8802185058594
74;273.1225891113281
75;270.4263610839844
76;267.77215576171875
77;265.1422424316406
78;262.5520324707031
79;260.01544189453125
80;257.5160217285156
81;255.0384979248047
82;252.61036682128906
83;250.2022705078125
84;247.8406524658203
85;245.5104522705078
86;243.2108612060547
87;240.9409637451172
88;238.7003173828125
89;236.48841857910156
90;234.2930908203125
91;232.13623046875
92;230.0050048828125
93;227.88800048828125
94;225.7954559326172
95;223.7267608642578
96;221.68128967285156
97;219.6584930419922
98;217.6577606201172
99;215.6787109375
100;213.7208709716797
101;211.79278564453125
102;209.8759765625
103;207.98793029785156
104;206.119384765625
105;204.26988220214844
106;202.43115234375
107;200.611083984375
108;198.8172149658203
109;197.0336456298828
110;195.26795959472656
111;193.5272674560547
112;191.8037567138672
113;190.0902099609375
114;188.4004669189453
115;186.72743225097656
116;185.0640411376953
117;183.42356872558594
118;181.79905700683594
119;180.18402099609375
120;178.5910186767578
121;177.0135498046875
122;175.451416015625
123;173.8985137939453
124;172.3665008544922
125;170.84938049316406
126;169.34132385253906
127;167.85342407226562
128;166.37449645996094
129;164.9099884033203
130;163.4647674560547
131;162.0283966064453
132;160.61094665527344
133;159.20713806152344
134;157.81678771972656
135;156.4350128173828
136;155.0712127685547
137;153.7158966064453
138;152.37815856933594
139;151.04881286621094
140;149.73223876953125
141;148.4283905029297
142;147.14122009277344
143;145.86639404296875
144;144.59974670410156
145;143.34532165527344
146;142.1028594970703
147;140.87632751464844
148;139.6615447998047
149;138.45840454101562
150;137.2630615234375
151;136.07933044433594
152;134.9069366455078
153;133.745849609375
154;132.59938049316406
155;131.4639129638672
156;130.33937072753906
157;129.2223358154297
158;128.11611938476562
159;127.02377319335938
160;125.94190216064453
161;124.87049102783203
162;123.8063735961914
163;122.7525863647461
164;121.70895385742188
165;120.67544555664062
166;119.65201568603516
167;118.64119720458984
168;117.63742065429688
169;116.64337921142578
170;115.65896606445312
171;114.68416595458984
172;113.71881103515625
173;112.76529693603516
174;111.82113647460938
175;110.88607025146484
176;109.9600830078125
177;109.04314422607422
178;108.13277435302734
179;107.23358154296875
180;106.3431625366211
181;105.46142578125
182;104.58831024169922
183;103.72372436523438
184;102.86761474609375
185;102.0198974609375
186;101.18048095703125
187;100.34732055664062
188;99.5243911743164
189;98.70763397216797
190;97.89893341064453
191;97.10015106201172
192;96.30924224853516
193;95.52623748779297
194;94.74913787841797
195;93.98159790039062
196;93.22168731689453
197;92.4693374633789
198;91.72449493408203
199;90.98711395263672
200;90.25543212890625
201;89.5311050415039
202;88.815673828125
203;88.1058349609375
204;87.40316772460938
205;86.7076187133789
206;86.01909637451172
207;85.33905792236328
208;84.66590118408203
209;83.99817657470703
210;83.33727264404297
211;82.68450164794922
212;82.03705596923828
213;81.39624786376953
214;80.76200103759766
215;80.13429260253906
216;79.51309967041016
217;78.89954376220703
218;78.29231262207031
219;77.69131469726562
220;77.09654998779297
221;76.50678253173828
222;75.92427825927734
223;75.34783935546875
224;74.77625274658203
225;74.21176147460938
226;73.65203857421875
227;73.09819793701172
228;72.5501480102539
229;72.00889587402344
230;71.47232818603516
231;70.94139862060547
232;70.4170913696289
233;69.8973617553711
234;69.38309478759766
235;68.8752670288086
236;68.3728256225586
237;67.87482452392578
238;67.38301849365234
239;66.89647674560547
240;66.41429138183594
241;65.93722534179688
242;65.46531677246094
243;64.99849700927734
244;64.5367202758789
245;64.0799331665039
246;63.6288948059082
247;63.18277359008789
248;62.74147415161133
249;62.30419921875
250;61.872467041015625
251;61.4447135925293
252;61.02166748046875
253;60.60394287109375
254;60.19084548950195
255;59.782291412353516
256;59.37822341918945
257;58.9786491394043
258;58.58348083496094
259;58.19203567504883
260;57.80564498901367
261;57.42287063598633
262;57.0450325012207
263;56.671417236328125
264;56.301361083984375
265;55.93607711791992
266;55.57429885864258
267;55.21663284301758
268;54.86356735229492
269;54.51450729370117
270;54.16884231567383
271;53.827117919921875
272;53.48982620239258
273;53.15586853027344
274;52.82623291015625
275;52.50038528442383
276;52.17828369140625
277;51.859378814697266
278;51.54414749145508
279;51.23258590698242
280;50.92461013793945
281;50.62067794799805
282;50.32027053833008
283;50.02337646484375
284;49.72993469238281
285;49.439937591552734
286;49.1533317565918
287;48.870086669921875
288;48.589778900146484
289;48.31279373168945
290;48.039093017578125
291;47.76902389526367
292;47.50218200683594
293;47.238494873046875
294;46.97793197631836
295;46.72013473510742
296;46.46577072143555
297;46.214473724365234
298;45.9661750793457
299;45.72050857543945
300;45.47780227661133
301;45.238037109375
302;45.00117492675781
303;44.767181396484375
304;44.53605270385742
305;44.30803298950195
306;44.0825080871582
307;43.860015869140625
308;43.64027786254883
309;43.42293167114258
310;43.20853805541992
311;42.996517181396484
312;42.787109375
313;42.58030319213867
314;42.3763313293457
315;42.17464828491211
316;41.97573471069336
317;41.779048919677734
318;41.5850830078125
319;41.393550872802734
320;41.204193115234375
321;41.01719665527344
322;40.83256149291992
323;40.650264739990234
324;40.470516204833984
325;40.29303741455078
326;40.11781311035156
327;39.94480514526367
328;39.773990631103516
329;39.605159759521484
330;39.4384880065918
331;39.274139404296875
332;39.11192321777344
333;38.95158004760742
334;38.79330062866211
335;38.63706588745117
336;38.48286056518555
337;38.33065414428711
338;38.180419921875
339;38.03232955932617
340;37.88615798950195
341;37.74174118041992
342;37.59937286376953
343;37.45870590209961
344;37.31988525390625
345;37.18291091918945
346;37.047733306884766
347;36.91434860229492
348;36.78272247314453
349;36.653011322021484
350;36.52486038208008
351;36.39842224121094
352;36.27383041381836
353;36.15074920654297
354;36.02946853637695
355;35.90981674194336
356;35.79175567626953
357;35.67517852783203
358;35.56016159057617
359;35.44683837890625
360;35.33489990234375
361;35.224639892578125
362;35.1157341003418
363;35.00832748413086
364;34.90250778198242
365;34.79813003540039
366;34.695194244384766
367;34.59364700317383
368;34.4935188293457
369;34.3946647644043
370;34.29727554321289
371;34.201236724853516
372;34.10642623901367
373;34.01304244995117
374;33.92095947265625
375;33.83015060424805
376;33.74061965942383
377;33.652347564697266
378;33.565216064453125
379;33.47939682006836
380;33.39479064941406
381;33.31137466430664
382;33.22905349731445
383;33.147979736328125
384;33.06806564331055
385;32.989288330078125
386;32.911617279052734
387;32.83506393432617
388;32.75959777832031
389;32.68522644042969
390;32.61183547973633
391;32.53958511352539
392;32.46829605102539
393;32.39804458618164
394;32.328792572021484
395;32.26062774658203
396;32.19337844848633
397;32.12717056274414
398;32.06192398071289
399;31.997573852539062
400;31.934165954589844
401;31.871742248535156
402;31.810171127319336
403;31.74958610534668
404;31.68981170654297
405;31.6309871673584
406;31.573022842407227
407;31.51593017578125
408;31.459671020507812
409;31.404197692871094
410;31.34955406188965
411;31.2957763671875
412;31.242799758911133
413;31.19057273864746
414;31.139175415039062
415;31.0885009765625
416;31.038589477539062
417;30.98943328857422
418;30.941015243530273
419;30.893381118774414
420;30.846460342407227
421;30.800247192382812
422;30.754716873168945
423;30.709909439086914
424;30.665742874145508
425;30.62229347229004
426;30.5794734954834
427;30.537309646606445
428;30.49582862854004
429;30.4549560546875
430;30.414709091186523
431;30.3751163482666
432;30.336118698120117
433;30.29770851135254
434;30.259897232055664
435;30.22271728515625
436;30.18611717224121
437;30.150049209594727
438;30.114545822143555
439;30.07960319519043
440;30.04520606994629
441;30.011388778686523
442;29.978063583374023
443;29.945287704467773
444;29.91302490234375
445;29.881284713745117
446;29.850051879882812
447;29.81931495666504
448;29.78907012939453
449;29.75928497314453
450;29.72995948791504
451;29.701141357421875
452;29.672758102416992
453;29.644859313964844
454;29.61738395690918
455;29.590341567993164
456;29.563772201538086
457;29.537612915039062
458;29.511877059936523
459;29.4865665435791
460;29.461671829223633
461;29.437162399291992
462;29.413049697875977
463;29.38935661315918
464;29.36602210998535
465;29.34307861328125
466;29.320531845092773
467;29.2983455657959
468;29.276514053344727
469;29.255035400390625
470;29.233922958374023
471;29.213172912597656
472;29.19276237487793
473;29.172685623168945
474;29.1529483795166
475;29.133529663085938
476;29.11442756652832
477;29.095666885375977
478;29.077219009399414
479;29.0590763092041
480;29.041244506835938
481;29.023691177368164
482;29.006437301635742
483;28.989484786987305
484;28.972808837890625
485;28.956403732299805
486;28.940305709838867
487;28.924468994140625
488;28.908889770507812
489;28.893590927124023
490;28.87852668762207
491;28.863759994506836
492;28.849210739135742
493;28.83493995666504
494;28.820907592773438
495;28.807098388671875
496;28.79353141784668
497;28.78020668029785
498;28.767099380493164
499;28.754220962524414
500;28.741586685180664
501;28.729148864746094
502;28.716947555541992
503;28.704946517944336
504;28.69315528869629
505;28.681570053100586
506;28.67018699645996
507;28.65900230407715
508;28.64801597595215
509;28.637222290039062
510;28.626615524291992
511;28.616201400756836
512;28.605972290039062
513;28.595924377441406
514;28.58604621887207
515;28.57634735107422
516;28.566816329956055
517;28.557464599609375
518;28.548269271850586
519;28.53923797607422
520;28.53037452697754
521;28.521669387817383
522;28.51311492919922
523;28.504724502563477
524;28.496475219726562
525;28.488378524780273
526;28.48042106628418
527;28.47260284423828
528;28.464935302734375
529;28.4573974609375
530;28.45001220703125
531;28.4427547454834
532;28.435625076293945
533;28.428625106811523
534;28.4217586517334
535;28.415016174316406
536;28.40840721130371
537;28.401906967163086
538;28.395523071289062
539;28.38926887512207
540;28.38312339782715
541;28.377084732055664
542;28.371164321899414
543;28.3653564453125
544;28.359651565551758
545;28.354049682617188
546;28.34855842590332
547;28.343162536621094
548;28.337865829467773
549;28.332674026489258
550;28.32757568359375
551;28.322572708129883
552;28.317657470703125
553;28.31284523010254
554;28.308115005493164
555;28.30347442626953
556;28.298925399780273
557;28.294464111328125
558;28.290075302124023
559;28.285776138305664
560;28.28156280517578
561;28.277421951293945
562;28.273366928100586
563;28.269378662109375
564;28.265480041503906
565;28.261642456054688
566;28.257888793945312
567;28.25420570373535
568;28.250595092773438
569;28.247053146362305
570;28.243576049804688
571;28.240163803100586
572;28.236818313598633
573;28.233543395996094
574;28.230323791503906
575;28.2271728515625
576;28.22408103942871
577;28.22104835510254
578;28.21807098388672
579;28.215158462524414
580;28.212295532226562
581;28.209501266479492
582;28.206741333007812
583;28.20404815673828
584;28.201406478881836
585;28.198816299438477
586;28.19626808166504
587;28.19378089904785
588;28.19134521484375
589;28.188941955566406
590;28.186594009399414
591;28.184293746948242
592;28.182037353515625
593;28.179834365844727
594;28.177656173706055
595;28.175527572631836
596;28.173446655273438
597;28.171415328979492
598;28.169408798217773
599;28.167444229125977
600;28.16552734375
601;28.163644790649414
602;28.16179847717285
603;28.159997940063477
604;28.15822410583496
605;28.15648651123047
606;28.154783248901367
607;28.15311622619629
608;28.15148162841797
609;28.149885177612305
610;28.1483154296875
611;28.146774291992188
612;28.14527702331543
613;28.143798828125
614;28.142349243164062
615;28.14093589782715
616;28.139549255371094
617;28.13818359375
618;28.13686180114746
619;28.13555145263672
620;28.13427734375
621;28.133031845092773
622;28.131799697875977
623;28.13060188293457
624;28.129426956176758
625;28.12827491760254
626;28.12714195251465
627;28.12604522705078
628;28.12495994567871
629;28.1239013671875
630;28.122865676879883
631;28.121850967407227
632;28.1208553314209
633;28.11988067626953
634;28.118927001953125
635;28.117990493774414
636;28.117080688476562
637;28.116182327270508
638;28.115304946899414
639;28.11444664001465
640;28.113611221313477
641;28.1127872467041
642;28.111982345581055
643;28.111190795898438
644;28.110422134399414
645;28.109664916992188
646;28.108922958374023
647;28.108200073242188
648;28.10748863220215
649;28.106796264648438
650;28.106115341186523
651;28.105453491210938
652;28.10479736328125
653;28.104154586791992
654;28.103532791137695
655;28.10292625427246
656;28.10231590270996
657;28.101730346679688
658;28.101160049438477
659;28.10059928894043
660;28.10004997253418
661;28.09950828552246
662;28.09897804260254
663;28.09846305847168
664;28.09795570373535
665;28.09746551513672
666;28.09698486328125
667;28.096506118774414
668;28.096044540405273
669;28.0955867767334
670;28.095138549804688
671;28.094711303710938
672;28.094284057617188
673;28.0938663482666
674;28.093467712402344
675;28.093063354492188
676;28.092674255371094
677;28.0922908782959
678;28.091917037963867
679;28.0915584564209
680;28.091201782226562
681;28.090852737426758
682;28.09050750732422
683;28.090179443359375
684;28.08984375
685;28.08953094482422
686;28.089218139648438
687;28.088911056518555
688;28.08861541748047
689;28.08832359313965
690;28.08803367614746
691;28.08775520324707
692;28.08748435974121
693;28.08721351623535
694;28.086950302124023
695;28.086694717407227
696;28.086435317993164
697;28.086191177368164
698;28.085954666137695
699;28.08571434020996
700;28.085494995117188
701;28.085264205932617
702;28.08504295349121
703;28.08482551574707
704;28.084617614746094
705;28.084409713745117
706;28.084205627441406
707;28.084012985229492
708;28.083816528320312
709;28.0836238861084
710;28.08344078063965
711;28.0832576751709
712;28.08308219909668
713;28.082908630371094
714;28.082738876342773
715;28.082571029663086
716;28.082412719726562
717;28.08225440979004
718;28.08209800720215
719;28.08194923400879
720;28.08180046081543
721;28.08165168762207
722;28.081512451171875
723;28.081375122070312
724;28.08124351501465
725;28.08111000061035
726;28.080978393554688
727;28.080848693847656
728;28.080724716186523
729;28.08060646057129
730;28.080480575561523
731;28.080368041992188
732;28.08025550842285
733;28.08014488220215
734;28.08003807067871
735;28.079919815063477
736;28.079818725585938
737;28.0797119140625
738;28.079618453979492
739;28.079519271850586
740;28.079421997070312
741;28.079330444335938
742;28.07923126220703
743;28.079145431518555
744;28.079063415527344
745;28.078969955444336
746;28.078880310058594
747;28.07880210876465
748;28.078720092773438
749;28.078636169433594
750;28.07856559753418
751;28.078481674194336
752;28.078414916992188
753;28.078336715698242
754;28.07826805114746
755;28.078195571899414
756;28.078125
757;28.078062057495117
758;28.077987670898438
759;28.07792091369629
760;28.077865600585938
761;28.077802658081055
762;28.07773780822754
763;28.077680587768555
764;28.077613830566406
765;28.077558517456055
766;28.077505111694336
767;28.077451705932617
768;28.0773868560791
769;28.07733726501465
770;28.077285766601562
771;28.077238082885742
772;28.077184677124023
773;28.077133178710938
774;28.07708740234375
775;28.077043533325195
776;28.076990127563477
777;28.07694435119629
778;28.076904296875
779;28.076852798461914
780;28.076814651489258
781;28.076765060424805
782;28.07673454284668
783;28.076677322387695
784;28.076644897460938
785;28.076601028442383
786;28.076568603515625
787;28.076522827148438
788;28.076486587524414
789;28.076454162597656
790;28.076414108276367
791;28.07637596130371
792;28.076339721679688
793;28.07630729675293
794;28.076271057128906
795;28.07623863220215
796;28.076202392578125
797;28.0761775970459
798;28.076135635375977
799;28.07610321044922
800;28.076074600219727
801;28.0760440826416
802;28.076017379760742
803;28.07598304748535
804;28.075944900512695
805;28.075925827026367
806;28.075902938842773
807;28.075864791870117
808;28.075836181640625
809;28.0758113861084
810;28.075782775878906
811;28.075754165649414
812;28.07572364807129
813;28.075698852539062
814;28.07567596435547
815;28.075651168823242
816;28.075620651245117
817;28.075597763061523
818;28.075576782226562
819;28.075551986694336
820;28.075523376464844
821;28.07550048828125
822;28.075471878051758
823;28.075448989868164
824;28.075429916381836
825;28.075408935546875
826;28.075380325317383
827;28.07535743713379
828;28.075332641601562
829;28.07530975341797
830;28.075288772583008
831;28.075271606445312
832;28.07525062561035
833;28.075220108032227
834;28.075197219848633
835;28.075185775756836
836;28.075157165527344
837;28.075143814086914
838;28.075124740600586
839;28.075101852416992
840;28.0750789642334
841;28.07505989074707
842;28.075035095214844
843;28.07501220703125
844;28.074996948242188
845;28.074981689453125
846;28.074966430664062
847;28.074941635131836
848;28.074920654296875
849;28.074899673461914
850;28.074888229370117
851;28.074865341186523
852;28.07484245300293
853;28.0748233795166
854;28.07480812072754
855;28.07478904724121
856;28.074769973754883
857;28.074758529663086
858;28.074737548828125
859;28.074722290039062
860;28.0747013092041
861;28.07468605041504
862;28.074668884277344
863;28.07465171813965
864;28.07462501525879
865;28.074615478515625
866;28.074594497680664
867;28.07457733154297
868;28.074560165405273
869;28.074541091918945
870;28.074525833129883
871;28.074508666992188
872;28.074493408203125
873;28.074480056762695
874;28.074460983276367
875;28.07444190979004
876;28.074426651000977
877;28.07440757751465
878;28.074392318725586
879;28.07438087463379
880;28.074357986450195
881;28.0743465423584
882;28.07432746887207
883;28.074312210083008
884;28.074296951293945
885;28.07427406311035
886;28.07426643371582
887;28.074254989624023
888;28.074234008789062
889;28.074216842651367
890;28.07419776916504
891;28.074193954467773
892;28.074167251586914
893;28.074155807495117
894;28.07413673400879
895;28.074121475219727
896;28.074106216430664
897;28.074094772338867
898;28.074066162109375
899;28.074060440063477
900;28.07404327392578
901;28.07402992248535
902;28.074012756347656
903;28.073997497558594
904;28.0739803314209
905;28.07396125793457
906;28.073945999145508
907;28.07393455505371
908;28.07392120361328
909;28.073904037475586
910;28.073888778686523
911;28.073869705200195
912;28.0738525390625
913;28.0738468170166
914;28.073827743530273
915;28.073806762695312
916;28.073793411254883
917;28.073781967163086
918;28.073762893676758
919;28.073745727539062
920;28.07373809814453
921;28.07371711730957
922;28.073705673217773
923;28.073684692382812
924;28.07366371154785
925;28.07364845275879
926;28.073637008666992
927;28.073623657226562
928;28.0736141204834
929;28.073593139648438
930;28.073577880859375
931;28.07356071472168
932;28.07354164123535
933;28.07352638244629
934;28.073511123657227
935;28.07349967956543
936;28.073484420776367
937;28.07346534729004
938;28.07344627380371
939;28.073434829711914
940;28.07341957092285
941;28.07341194152832
942;28.07338523864746
943;28.0733699798584
944;28.073354721069336
945;28.073339462280273
946;28.073328018188477
947;28.07330322265625
948;28.073293685913086
949;28.073274612426758
950;28.073259353637695
951;28.073244094848633
952;28.07322883605957
953;28.073213577270508
954;28.073196411132812
955;28.07318115234375
956;28.073163986206055
957;28.073144912719727
958;28.073129653930664
959;28.0731143951416
960;28.073097229003906
961;28.073081970214844
962;28.07306671142578
963;28.073049545288086
964;28.073034286499023
965;28.07301902770996
966;28.0730037689209
967;28.07298469543457
968;28.072967529296875
969;28.072954177856445
970;28.072935104370117
971;28.07292366027832
972;28.072900772094727
973;28.0728816986084
974;28.072866439819336
975;28.072851181030273
976;28.072843551635742
977;28.07282066345215
978;28.07280921936035
979;28.072784423828125
980;28.07277488708496
981;28.07275390625
982;28.072744369506836
983;28.072723388671875
984;28.072710037231445
985;28.072690963745117
986;28.07267189025879
987;28.07265281677246
988;28.07263946533203
989;28.07262420654297
990;28.072608947753906
991;28.072586059570312
992;28.07257652282715
993;28.072561264038086
994;28.072538375854492
995;28.07251739501953
996;28.072500228881836
997;28.072484970092773
998;28.072479248046875
999;28.072450637817383
1000;28.07243537902832
1001;28.072416305541992
1002;28.072404861450195
1003;28.0723876953125
1004;28.07236671447754
1005;28.072349548339844
1006;28.072328567504883
1007;28.072317123413086
1008;28.072296142578125
1009;28.072275161743164
1010;28.072265625
1011;28.072242736816406
1012;28.072229385375977
1013;28.07221221923828
1014;28.07219123840332
1015;28.072175979614258
1016;28.072158813476562
1017;28.07213592529297
1018;28.072118759155273
1019;28.072105407714844
1020;28.072084426879883
1021;28.07206916809082
1022;28.072052001953125
1023;28.072031021118164
1024;28.07201385498047
1025;28.07200050354004
1026;28.071985244750977
1027;28.071962356567383
1028;28.071943283081055
1029;28.071929931640625
1030;28.071908950805664
1031;28.071897506713867
1032;28.071870803833008
1033;28.07185935974121
1034;28.071836471557617
1035;28.071815490722656
1036;28.07179832458496
1037;28.071779251098633
1038;28.07176399230957
1039;28.071748733520508
1040;28.071725845336914
1041;28.071706771850586
1042;28.07169532775879
1043;28.071670532226562
1044;28.0716495513916
1045;28.071640014648438
1046;28.07161521911621
1047;28.07159423828125
1048;28.071578979492188
1049;28.071561813354492
1050;28.071542739868164
1051;28.071523666381836
1052;28.071502685546875
1053;28.07148551940918
1054;28.07146644592285
1055;28.071447372436523
1056;28.071434020996094
1057;28.071401596069336
1058;28.071395874023438
1059;28.071374893188477
1060;28.07135581970215
1061;28.07132911682129
1062;28.071319580078125
1063;28.071298599243164
1064;28.071279525756836
1065;28.071256637573242
1066;28.07123565673828
1067;28.07122802734375
1068;28.071205139160156
1069;28.071182250976562
1070;28.0711612701416
1071;28.071136474609375
1072;28.071121215820312
1073;28.07110595703125
1074;28.07108497619629
1075;28.07106590270996
1076;28.071044921875
1077;28.071029663085938
1078;28.07100486755371
1079;28.070981979370117
1080;28.070968627929688
1081;28.070945739746094
1082;28.0709228515625
1083;28.070907592773438
1084;28.070886611938477
1085;28.07086753845215
1086;28.07084846496582
1087;28.070831298828125
1088;28.0708065032959
1089;28.070785522460938
1090;28.070772171020508
1091;28.070749282836914
1092;28.07072639465332
1093;28.070707321166992
1094;28.070688247680664
1095;28.07066535949707
1096;28.070648193359375
1097;28.07062530517578
1098;28.070608139038086
1099;28.070587158203125
1100;28.0705623626709
1101;28.07054328918457
1102;28.070520401000977
1103;28.07050323486328
1104;28.07048797607422
1105;28.070465087890625
1106;28.0704402923584
1107;28.07042121887207
1108;28.070402145385742
1109;28.070375442504883
1110;28.070356369018555
1111;28.07033348083496
1112;28.0703125
1113;28.070297241210938
1114;28.070276260375977
1115;28.07025718688965
1116;28.070234298706055
1117;28.07021141052246
1118;28.070188522338867
1119;28.070167541503906
1120;28.070144653320312
1121;28.07012367248535
1122;28.070106506347656
1123;28.070077896118164
1124;28.070066452026367
1125;28.070035934448242
1126;28.07001495361328
1127;28.07000160217285
1128;28.069974899291992
1129;28.06995391845703
1130;28.069931030273438
1131;28.069910049438477
1132;28.069887161254883
1133;28.069862365722656
1134;28.069841384887695
1135;28.0698184967041
1136;28.069807052612305
1137;28.069772720336914
1138;28.06975555419922
1139;28.069732666015625
1140;28.0697078704834
1141;28.069684982299805
1142;28.069671630859375
1143;28.06964111328125
1144;28.06962013244629
1145;28.06960105895996
1146;28.06957244873047
1147;28.069549560546875
1148;28.069528579711914
1149;28.06950569152832
1150;28.069488525390625
1151;28.069459915161133
1152;28.069433212280273
1153;28.06941032409668
1154;28.06939125061035
1155;28.069366455078125
1156;28.069345474243164
1157;28.069320678710938
1158;28.069299697875977
1159;28.06927490234375
1160;28.069257736206055
1161;28.06923484802246
1162;28.0692081451416
1163;28.069177627563477
1164;28.069162368774414
1165;28.06913948059082
1166;28.069114685058594
1167;28.069093704223633
1168;28.069067001342773
1169;28.069040298461914
1170;28.06901741027832
1171;28.068994522094727
1172;28.068979263305664
1173;28.068944931030273
1174;28.06892967224121
1175;28.06890106201172
1176;28.068878173828125
1177;28.068862915039062
1178;28.06883430480957
1179;28.06880760192871
1180;28.06878662109375
1181;28.068761825561523
1182;28.068740844726562
1183;28.068710327148438
1184;28.06868553161621
1185;28.06866455078125
1186;28.068639755249023
1187;28.068618774414062
1188;28.06859016418457
1189;28.06856346130371
1190;28.06854248046875
1191;28.068519592285156
1192;28.06848907470703
1193;28.06846809387207
1194;28.068445205688477
1195;28.068418502807617
1196;28.068395614624023
1197;28.06836700439453
1198;28.068342208862305
1199;28.068321228027344
1200;28.06829261779785
1201;28.068273544311523
1202;28.0682373046875
1203;28.06821632385254
1204;28.068191528320312
1205;28.06817054748535
1206;28.068143844604492
1207;28.0681095123291
1208;28.068084716796875
1209;28.06806182861328
1210;28.06803321838379
1211;28.068002700805664
1212;28.06798553466797
1213;28.067956924438477
1214;28.067930221557617
1215;28.067903518676758
1216;28.06788444519043
1217;28.06785011291504
1218;28.06783103942871
1219;28.067800521850586
1220;28.06777000427246
1221;28.0677433013916
1222;28.067712783813477
1223;28.06769561767578
1224;28.06766700744629
1225;28.067642211914062
1226;28.067611694335938
1227;28.067583084106445
1228;28.067556381225586
1229;28.067529678344727
1230;28.067502975463867
1231;28.067476272583008
1232;28.06744384765625
1233;28.067420959472656
1234;28.067392349243164
1235;28.06736183166504
1236;28.067344665527344
1237;28.067304611206055
1238;28.067283630371094
1239;28.06725311279297
1240;28.067222595214844
1241;28.067201614379883
1242;28.067171096801758
1243;28.067138671875
1244;28.06711769104004
1245;28.06708335876465
1246;28.067054748535156
1247;28.067026138305664
1248;28.06699562072754
1249;28.066970825195312
1250;28.066940307617188
1251;28.066911697387695
1252;28.06688117980957
1253;28.06685447692871
1254;28.06682777404785
1255;28.066789627075195
1256;28.0667667388916
1257;28.066736221313477
1258;28.066709518432617
1259;28.066675186157227
1260;28.0666561126709
1261;28.066625595092773
1262;28.066591262817383
1263;28.066564559936523
1264;28.066530227661133
1265;28.066497802734375
1266;28.06647300720215
1267;28.066442489624023
1268;28.066408157348633
1269;28.066375732421875
1270;28.06635093688965
1271;28.066320419311523
1272;28.0662899017334
1273;28.066253662109375
1274;28.06622314453125
1275;28.066190719604492
1276;28.066162109375
1277;28.066133499145508
1278;28.06610107421875
1279;28.066068649291992
1280;28.0660400390625
1281;28.066003799438477
1282;28.06597900390625
1283;28.06593894958496
1284;28.065908432006836
1285;28.065881729125977
1286;28.065847396850586
1287;28.065813064575195
1288;28.065780639648438
1289;28.065752029418945
1290;28.06571388244629
1291;28.0656795501709
1292;28.065649032592773
1293;28.06561279296875
1294;28.065582275390625
1295;28.06553840637207
1296;28.065507888793945
1297;28.06548309326172
1298;28.065444946289062
1299;28.065404891967773
1300;28.06537437438965
1301;28.065332412719727
1302;28.0653018951416
1303;28.065269470214844
1304;28.065231323242188
1305;28.065195083618164
1306;28.065156936645508
1307;28.06511878967285
1308;28.065086364746094
1309;28.065048217773438
1310;28.06501579284668
1311;28.064973831176758
1312;28.064939498901367
1313;28.064905166625977
1314;28.064865112304688
1315;28.06483268737793
1316;28.064794540405273
1317;28.06476402282715
1318;28.064727783203125
1319;28.06468391418457
1320;28.06465721130371
1321;28.064620971679688
1322;28.064577102661133
1323;28.064550399780273
1324;28.06450843811035
1325;28.064476013183594
1326;28.064437866210938
1327;28.064401626586914
1328;28.064363479614258
1329;28.0643367767334
1330;28.064298629760742
1331;28.06426429748535
1332;28.064224243164062
1333;28.064191818237305
1334;28.06415367126465
1335;28.064117431640625
1336;28.06407928466797
1337;28.06403923034668
1338;28.064001083374023
1339;28.063966751098633
1340;28.063934326171875
1341;28.063894271850586
1342;28.063858032226562
1343;28.06382179260254
1344;28.06378746032715
1345;28.063749313354492
1346;28.063711166381836
1347;28.063669204711914
1348;28.063629150390625
1349;28.0635929107666
1350;28.06355857849121
1351;28.063520431518555
1352;28.0634765625
1353;28.063444137573242
1354;28.063400268554688
1355;28.063364028930664
1356;28.063325881958008
1357;28.06329345703125
1358;28.06325340270996
1359;28.063207626342773
1360;28.06317710876465
1361;28.063135147094727
1362;28.063100814819336
1363;28.063058853149414
1364;28.063020706176758
1365;28.0629825592041
1366;28.06294822692871
1367;28.062911987304688
1368;28.0628662109375
1369;28.062829971313477
1370;28.06279182434082
1371;28.06275177001953
1372;28.062707901000977
1373;28.06266975402832
1374;28.0626277923584
1375;28.062597274780273
1376;28.062551498413086
1377;28.062509536743164
1378;28.062469482421875
1379;28.06243324279785
1380;28.062387466430664
1381;28.062355041503906
1382;28.06230926513672
1383;28.062273025512695
1384;28.062227249145508
1385;28.06218910217285
1386;28.062149047851562
1387;28.062108993530273
1388;28.062070846557617
1389;28.06202507019043
1390;28.061986923217773
1391;28.061935424804688
1392;28.06190299987793
1393;28.061859130859375
1394;28.061819076538086
1395;28.0617733001709
1396;28.061731338500977
1397;28.061681747436523
1398;28.061647415161133
1399;28.061601638793945
1400;28.06156349182129
1401;28.0615177154541
1402;28.061477661132812
1403;28.061424255371094
1404;28.061386108398438
1405;28.06134605407715
1406;28.061302185058594
1407;28.06125831604004
1408;28.061203002929688
1409;28.061166763305664
1410;28.061120986938477
1411;28.061080932617188
1412;28.06102752685547
1413;28.060989379882812
1414;28.060943603515625
1415;28.060897827148438
1416;28.06084442138672
1417;28.060806274414062
1418;28.060754776000977
1419;28.06070899963379
1420;28.06066131591797
1421;28.06062126159668
1422;28.060571670532227
1423;28.060529708862305
1424;28.06047821044922
1425;28.0604305267334
1426;28.060386657714844
1427;28.060338973999023
1428;28.060287475585938
1429;28.06024742126465
1430;28.06019401550293
1431;28.060142517089844
1432;28.06009864807129
1433;28.0600528717041
1434;28.06000328063965
1435;28.059951782226562
1436;28.059906005859375
1437;28.059852600097656
1438;28.05980682373047
1439;28.05975341796875
1440;28.0596981048584
1441;28.059654235839844
1442;28.059602737426758
1443;28.05954933166504
1444;28.059499740600586
1445;28.059450149536133
1446;28.059396743774414
1447;28.05934715270996
1448;28.059295654296875
1449;28.059249877929688
1450;28.059188842773438
1451;28.05914306640625
1452;28.0590877532959
1453;28.059036254882812
1454;28.058977127075195
1455;28.058931350708008
1456;28.058874130249023
1457;28.058828353881836
1458;28.05877113342285
1459;28.0587158203125
1460;28.05866241455078
1461;28.058609008789062
1462;28.058561325073242
1463;28.058496475219727
1464;28.058441162109375
1465;28.05838966369629
1466;28.058326721191406
1467;28.05828094482422
1468;28.0582218170166
1469;28.058164596557617
1470;28.0581111907959
1471;28.05805206298828
1472;28.057998657226562
1473;28.05794334411621
1474;28.057878494262695
1475;28.057823181152344
1476;28.057762145996094
1477;28.057708740234375
1478;28.057649612426758
1479;28.057588577270508
1480;28.057531356811523
1481;28.057470321655273
1482;28.057405471801758
1483;28.05735206604004
1484;28.057287216186523
1485;28.057228088378906
1486;28.057165145874023
1487;28.057104110717773
1488;28.05704689025879
1489;28.05698585510254
1490;28.05692481994629
1491;28.05686378479004
1492;28.056798934936523
1493;28.056737899780273
1494;28.056678771972656
1495;28.056615829467773
1496;28.056543350219727
1497;28.056488037109375
1498;28.056421279907227
1499;28.05635643005371
1500;28.05629539489746
1501;28.05623435974121
1502;28.05616569519043
1503;28.056093215942383
1504;28.056032180786133
1505;28.055967330932617
1506;28.0559024810791
1507;28.055831909179688
1508;28.055763244628906
1509;28.055696487426758
1510;28.055625915527344
1511;28.05556297302246
1512;28.055496215820312
1513;28.05542755126953
1514;28.055356979370117
1515;28.05529022216797
1516;28.05521583557129
1517;28.055147171020508
1518;28.055068969726562
1519;28.055002212524414
1520;28.054929733276367
1521;28.054861068725586
1522;28.05478858947754
1523;28.054718017578125
1524;28.05464744567871
1525;28.0545711517334
1526;28.05449867248535
1527;28.05442237854004
1528;28.054346084594727
1529;28.054275512695312
1530;28.0542049407959
1531;28.05412483215332
1532;28.054040908813477
1533;28.053970336914062
1534;28.05389404296875
1535;28.053815841674805
1536;28.053743362426758
1537;28.05365562438965
1538;28.053579330444336
1539;28.053491592407227
1540;28.053415298461914
1541;28.05333709716797
1542;28.053260803222656
1543;28.053176879882812
1544;28.0530948638916
1545;28.053010940551758
1546;28.052932739257812
1547;28.0528507232666
1548;28.052764892578125
1549;28.052682876586914
1550;28.052595138549805
1551;28.05251121520996
1552;28.05242156982422
1553;28.052335739135742
1554;28.05225372314453
1555;28.052162170410156
1556;28.052072525024414
1557;28.051986694335938
1558;28.051895141601562
1559;28.051803588867188
1560;28.05171775817871
1561;28.051626205444336
1562;28.051523208618164
1563;28.05143928527832
1564;28.05134391784668
1565;28.051246643066406
1566;28.05115509033203
1567;28.051061630249023
1568;28.050966262817383
1569;28.050867080688477
1570;28.050771713256836
1571;28.05067253112793
1572;28.050575256347656
1573;28.050477981567383
1574;28.05036735534668
1575;28.050275802612305
1576;28.0501766204834
1577;28.050073623657227
1578;28.049964904785156
1579;28.04986572265625
1580;28.04976463317871
1581;28.049652099609375
1582;28.04954719543457
1583;28.049436569213867
1584;28.04933738708496
1585;28.049222946166992
1586;28.049116134643555
1587;28.049001693725586
1588;28.048887252807617
1589;28.04877471923828
1590;28.04866600036621
1591;28.048553466796875
1592;28.048437118530273
1593;28.04831886291504
1594;28.048200607299805
1595;28.048086166381836
1596;28.047964096069336
1597;28.0478458404541
1598;28.047727584838867
1599;28.047597885131836
1600;28.047475814819336
1601;28.047353744506836
1602;28.047225952148438
1603;28.04709815979004
1604;28.046972274780273
1605;28.046838760375977
1606;28.04671287536621
1607;28.04657554626465
1608;28.046445846557617
1609;28.046308517456055
1610;28.046171188354492
1611;28.04603385925293
1612;28.0458927154541
1613;28.04575538635254
1614;28.04561424255371
1615;28.045473098754883
1616;28.04532814025879
1617;28.045188903808594
1618;28.04503631591797
1619;28.044889450073242
1620;28.04473876953125
1621;28.044586181640625
1622;28.0444278717041
1623;28.044273376464844
1624;28.04412269592285
1625;28.04396629333496
1626;28.043800354003906
1627;28.04364013671875
1628;28.04347038269043
1629;28.043310165405273
1630;28.043142318725586
1631;28.04296875
1632;28.042795181274414
1633;28.04262351989746
1634;28.042444229125977
1635;28.042264938354492
1636;28.042089462280273
1637;28.041902542114258
1638;28.041715621948242
1639;28.041528701782227
1640;28.041336059570312
1641;28.04114532470703
1642;28.040952682495117
1643;28.040748596191406
1644;28.040550231933594
1645;28.04034996032715
1646;28.040145874023438
1647;28.03993797302246
1648;28.03972053527832
1649;28.039499282836914
1650;28.03928565979004
1651;28.0390682220459
1652;28.038846969604492
1653;28.03861427307129
1654;28.03838539123535
1655;28.03814697265625
1656;28.03790283203125
1657;28.03765869140625
1658;28.037416458129883
1659;28.03716468811035
1660;28.03690528869629
1661;28.036651611328125
1662;28.0363826751709
1663;28.03611183166504
1664;28.035842895507812
1665;28.035568237304688
1666;28.0352840423584
1667;28.03499412536621
1668;28.034706115722656
1669;28.03440284729004
1670;28.034101486206055
1671;28.033788681030273
1672;28.033472061157227
1673;28.033151626586914
1674;28.03281593322754
1675;28.032487869262695
1676;28.03214454650879
1677;28.03179931640625
1678;28.03143882751465
1679;28.03106689453125
1680;28.030698776245117
1681;28.030317306518555
1682;28.02992820739746
1683;28.0295352935791
1684;28.029123306274414
1685;28.028709411621094
1686;28.02828025817871
1687;28.02783966064453
1688;28.027395248413086
1689;28.02693748474121
1690;28.026464462280273
1691;28.025983810424805
1692;28.025489807128906
1693;28.024980545043945
1694;28.024452209472656
1695;28.023916244506836
1696;28.02337074279785
1697;28.022802352905273
1698;28.022218704223633
1699;28.021615982055664
1700;28.0210018157959
1701;28.020360946655273
1702;28.01969337463379
1703;28.019020080566406
1704;28.01831817626953
1705;28.01758575439453
1706;28.01683807373047
1707;28.01607322692871
1708;28.01526641845703
1709;28.014440536499023
1710;28.013574600219727
1711;28.012693405151367
1712;28.01177215576172
1713;28.010812759399414
1714;28.009817123413086
1715;28.0087947845459
1716;28.007728576660156
1717;28.006614685058594
1718;28.005462646484375
1719;28.004255294799805
1720;28.00299072265625
1721;28.001684188842773
1722;28.000320434570312
1723;27.9988956451416
1724;27.997400283813477
1725;27.995840072631836
1726;27.994211196899414
1727;27.99251365661621
1728;27.99072265625
1729;27.98884391784668
1730;27.98686981201172
1731;27.984804153442383
1732;27.98262596130371
1733;27.98033905029297
1734;27.977928161621094
1735;27.97540283203125
1736;27.97273826599121
1737;27.969940185546875
1738;27.966981887817383
1739;27.9638729095459
1740;27.96059226989746
1741;27.957130432128906
1742;27.95348358154297
1743;27.94964027404785
1744;27.945602416992188
1745;27.941360473632812
1746;27.936899185180664
1747;27.932228088378906
1748;27.927345275878906
1749;27.9222469329834
1750;27.91695213317871
1751;27.911468505859375
1752;27.905778884887695
1753;27.899917602539062
1754;27.893890380859375
1755;27.887720108032227
1756;27.881452560424805
1757;27.8751277923584
1758;27.868799209594727
1759;27.862478256225586
1760;27.856252670288086
1761;27.850107192993164
1762;27.844085693359375
1763;27.838211059570312
1764;27.832487106323242
1765;27.826929092407227
1766;27.82154083251953
1767;27.81635856628418
1768;27.811342239379883
1769;27.806472778320312
1770;27.801790237426758
1771;27.79705238342285
1772;27.79229736328125
1773;27.787744522094727
1774;27.783029556274414
1775;27.77826499938965
1776;27.773447036743164
1777;27.768510818481445
1778;27.763490676879883
1779;27.758371353149414
1780;27.753171920776367
1781;27.7479305267334
1782;27.74268913269043
1783;27.7374210357666
1784;27.7321720123291
1785;27.726913452148438
1786;27.721694946289062
1787;27.716522216796875
1788;27.711374282836914
1789;27.706281661987305
1790;27.70123291015625
1791;27.69622230529785
1792;27.691251754760742
1793;27.686315536499023
1794;27.6814022064209
1795;27.67650032043457
1796;27.671607971191406
1797;27.66672706604004
1798;27.661849975585938
1799;27.656984329223633
1800;27.65212059020996
1801;27.647268295288086
1802;27.642419815063477
1803;27.63759422302246
1804;27.632781982421875
1805;27.62799072265625
1806;27.623220443725586
1807;27.61846923828125
1808;27.613733291625977
1809;27.609024047851562
1810;27.604331970214844
1811;27.599647521972656
1812;27.594980239868164
1813;27.590322494506836
1814;27.58567237854004
1815;27.581029891967773
1816;27.576400756835938
1817;27.57176399230957
1818;27.56713104248047
1819;27.56251335144043
1820;27.557891845703125
1821;27.55328369140625
1822;27.54868507385254
1823;27.544082641601562
1824;27.539487838745117
1825;27.534896850585938
1826;27.530311584472656
1827;27.525732040405273
1828;27.521150588989258
1829;27.516571044921875
1830;27.511999130249023
1831;27.507415771484375
1832;27.502836227416992
1833;27.498254776000977
1834;27.493669509887695
1835;27.489089965820312
1836;27.4844913482666
1837;27.47989845275879
1838;27.47530174255371
1839;27.470701217651367
1840;27.466100692749023
1841;27.46148109436035
1842;27.45686912536621
1843;27.452245712280273
1844;27.44761848449707
1845;27.442983627319336
1846;27.438339233398438
1847;27.433691024780273
1848;27.42902183532715
1849;27.424352645874023
1850;27.41966438293457
1851;27.41497802734375
1852;27.4102783203125
1853;27.405563354492188
1854;27.40083885192871
1855;27.396102905273438
1856;27.3913516998291
1857;27.38658905029297
1858;27.38181495666504
1859;27.377031326293945
1860;27.372220993041992
1861;27.367403030395508
1862;27.36256980895996
1863;27.35771369934082
1864;27.35283851623535
1865;27.34795379638672
1866;27.343048095703125
1867;27.338119506835938
1868;27.333181381225586
1869;27.328216552734375
1870;27.323232650756836
1871;27.31822395324707
1872;27.313186645507812
1873;27.308130264282227
1874;27.303049087524414
1875;27.297937393188477
1876;27.292810440063477
1877;27.287643432617188
1878;27.282426834106445
1879;27.27716636657715
1880;27.27191925048828
1881;27.266647338867188
1882;27.261335372924805
1883;27.255990982055664
1884;27.2506046295166
1885;27.24518394470215
1886;27.23973846435547
1887;27.234243392944336
1888;27.228721618652344
1889;27.2231502532959
1890;27.217546463012695
1891;27.2119140625
1892;27.206153869628906
1893;27.200361251831055
1894;27.194494247436523
1895;27.188568115234375
1896;27.182600021362305
1897;27.17658805847168
1898;27.1705322265625
1899;27.164390563964844
1900;27.158193588256836
1901;27.151918411254883
1902;27.145586013793945
1903;27.139190673828125
1904;27.132726669311523
1905;27.126197814941406
1906;27.11956787109375
1907;27.112642288208008
1908;27.1054630279541
1909;27.098134994506836
1910;27.09067726135254
1911;27.08306312561035
1912;27.07538414001465
1913;27.067672729492188
1914;27.05991554260254
1915;27.05205726623535
1916;27.044301986694336
1917;27.03663444519043
1918;27.028907775878906
1919;27.02109718322754
1920;27.013219833374023
1921;27.005399703979492
1922;26.997507095336914
1923;26.989669799804688
1924;26.981834411621094
1925;26.973886489868164
1926;26.965845108032227
1927;26.95775604248047
1928;26.94980812072754
1929;26.941858291625977
1930;26.933866500854492
1931;26.925796508789062
1932;26.9176082611084
1933;26.909467697143555
1934;26.901391983032227
1935;26.893495559692383
1936;26.885663986206055
1937;26.87786293029785
1938;26.8699951171875
1939;26.8621768951416
1940;26.854394912719727
1941;26.846586227416992
1942;26.83881187438965
1943;26.831113815307617
1944;26.823562622070312
1945;26.8159122467041
1946;26.808372497558594
1947;26.80074119567871
1948;26.793251037597656
1949;26.785751342773438
1950;26.77828025817871
1951;26.770753860473633
1952;26.763275146484375
1953;26.75580596923828
1954;26.748321533203125
1955;26.740827560424805
1956;26.733400344848633
1957;26.725900650024414
1958;26.71843719482422
1959;26.710973739624023
1960;26.703519821166992
1961;26.69605255126953
1962;26.68855857849121
1963;26.681053161621094
1964;26.673574447631836
1965;26.666101455688477
1966;26.658571243286133
1967;26.651159286499023
1968;26.64369773864746
1969;26.63614845275879
1970;26.6285343170166
1971;26.62101173400879
1972;26.61345863342285
1973;26.605859756469727
1974;26.598344802856445
1975;26.590856552124023
1976;26.583358764648438
1977;26.57594871520996
1978;26.568262100219727
1979;26.5606689453125
1980;26.55291748046875
1981;26.54534149169922
1982;26.53778648376465
1983;26.53017234802246
1984;26.522865295410156
1985;26.51496696472168
1986;26.507596969604492
1987;26.500282287597656
1988;26.492538452148438
1989;26.484474182128906
1990;26.47745704650879
1991;26.470182418823242
1992;26.462011337280273
1993;26.453638076782227
1994;26.446609497070312
1995;26.439077377319336
1996;26.430770874023438
1997;26.42271614074707
1998;26.41581153869629
1999;26.4080867767334
