;loss
0;887.0580444335938
1;885.849365234375
2;884.231201171875
3;882.6177978515625
4;881.0048217773438
5;879.45703125
6;877.880859375
7;876.2767944335938
8;874.6422119140625
9;872.9572143554688
10;871.2361450195312
11;869.4683837890625
12;867.6417846679688
13;865.7362670898438
14;863.748779296875
15;861.6553344726562
16;859.4194946289062
17;857.0307006835938
18;854.4861450195312
19;851.7327880859375
20;848.697509765625
21;845.3923950195312
22;841.7228393554688
23;837.6060180664062
24;832.9341430664062
25;827.5625610351562
26;821.2921752929688
27;813.836669921875
28;804.7681884765625
29;793.4202880859375
30;778.4957275390625
31;758.4994506835938
32;730.2281494140625
33;688.862548828125
34;633.7490844726562
35;574.3804931640625
36;527.1758422851562
37;494.0947570800781
38;470.2607421875
39;451.8666687011719
40;436.98651123046875
41;424.4406433105469
42;413.6718444824219
43;404.1805725097656
44;395.7793273925781
45;388.1673889160156
46;381.0914001464844
47;374.4813232421875
48;368.3173828125
49;362.4197082519531
50;356.7922058105469
51;351.39642333984375
52;346.1965637207031
53;341.16156005859375
54;336.2799987792969
55;331.5394287109375
56;326.92449951171875
57;322.4647521972656
58;318.0843200683594
59;313.8434143066406
60;309.6998291015625
61;305.61602783203125
62;301.6479797363281
63;297.7611083984375
64;293.9259948730469
65;290.16943359375
66;286.5138854980469
67;282.9041442871094
68;279.3919677734375
69;275.9583740234375
70;272.5943603515625
71;269.284912109375
72;266.03387451171875
73;262.82598876953125
74;259.704833984375
75;256.6318054199219
76;253.62757873535156
77;250.7052764892578
78;247.82537841796875
79;245.00340270996094
80;242.23583984375
81;239.5207061767578
82;236.85728454589844
83;234.2626495361328
84;231.70335388183594
85;229.18856811523438
86;226.71664428710938
87;224.29965209960938
88;221.9221649169922
89;219.58311462402344
90;217.2692413330078
91;215.00384521484375
92;212.7734832763672
93;210.56573486328125
94;208.39117431640625
95;206.25950622558594
96;204.14842224121094
97;202.07786560058594
98;200.03660583496094
99;198.0142059326172
100;196.02040100097656
101;194.0653839111328
102;192.13771057128906
103;190.22698974609375
104;188.34156799316406
105;186.48104858398438
106;184.64427185058594
107;182.8307647705078
108;181.04766845703125
109;179.28640747070312
110;177.53907775878906
111;175.82101440429688
112;174.1244354248047
113;172.44088745117188
114;170.77703857421875
115;169.132568359375
116;167.50709533691406
117;165.90036010742188
118;164.318115234375
119;162.74765014648438
120;161.19488525390625
121;159.65948486328125
122;158.14707946777344
123;156.65138244628906
124;155.16659545898438
125;153.7039031982422
126;152.25201416015625
127;150.81619262695312
128;149.39602661132812
129;147.99623107910156
130;146.611328125
131;145.23631286621094
132;143.88075256347656
133;142.53492736816406
134;141.20343017578125
135;139.88616943359375
136;138.58302307128906
137;137.29798889160156
138;136.0222625732422
139;134.75979614257812
140;133.51048278808594
141;132.27816772460938
142;131.0585479736328
143;129.84765625
144;128.6531219482422
145;127.4671401977539
146;126.29350280761719
147;125.13569641113281
148;123.98979187011719
149;122.85564422607422
150;121.7297592163086
151;120.61878204345703
152;119.519287109375
153;118.42776489257812
154;117.35065460205078
155;116.28137969970703
156;115.22624206542969
157;114.17877960205078
158;113.1421127319336
159;112.11616516113281
160;111.10371398925781
161;110.09878540039062
162;109.1041488647461
163;108.12242889404297
164;107.14804077148438
165;106.18627166748047
166;105.23171997070312
167;104.2868881225586
168;103.35176086425781
169;102.4286880493164
170;101.51258087158203
171;100.60595703125
172;99.71102905273438
173;98.82524871826172
174;97.94623565673828
175;97.07624816894531
176;96.21517944335938
177;95.36298370361328
178;94.51956176757812
179;93.68480682373047
180;92.85870361328125
181;92.04110717773438
182;91.23394012451172
183;90.43313598632812
184;89.64253234863281
185;88.86013793945312
186;88.08578491210938
187;87.31947326660156
188;86.56106567382812
189;85.81053924560547
190;85.0660171508789
191;84.32927703857422
192;83.60020446777344
193;82.87875366210938
194;82.16651153564453
195;81.4600830078125
196;80.76110076904297
197;80.07105255126953
198;79.38665771484375
199;78.70950317382812
200;78.03950500488281
201;77.37657928466797
202;76.72211456298828
203;76.0731430053711
204;75.43109893798828
205;74.79581451416016
206;74.16870880126953
207;73.54825592041016
208;72.93439483642578
209;72.32709503173828
210;71.72499084472656
211;71.12934112548828
212;70.54007720947266
213;69.95838165283203
214;69.38172149658203
215;68.81248474121094
216;68.24938201904297
217;67.69119262695312
218;67.14020538330078
219;66.59515380859375
220;66.05493927001953
221;65.5206298828125
222;64.99321746826172
223;64.47052001953125
224;63.954551696777344
225;63.4432487487793
226;62.938541412353516
227;62.43842697143555
228;61.943790435791016
229;61.45468521118164
230;60.971885681152344
231;60.49445724487305
232;60.02140808105469
233;59.55450439453125
234;59.09282302856445
235;58.636287689208984
236;58.184818267822266
237;57.738441467285156
238;57.29704284667969
239;56.86062240600586
240;56.429100036621094
241;56.0024299621582
242;55.579833984375
243;55.16275405883789
244;54.749691009521484
245;54.3413200378418
246;53.93759536743164
247;53.539188385009766
248;53.14533996582031
249;52.75599670410156
250;52.37043762207031
251;51.989994049072266
252;51.613277435302734
253;51.240901947021484
254;50.87348937988281
255;50.50968933105469
256;50.150108337402344
257;49.795352935791016
258;49.444114685058594
259;49.09701156616211
260;48.75396728515625
261;48.415523529052734
262;48.08052062988281
263;47.749977111816406
264;47.42336654663086
265;47.10009765625
266;46.78117752075195
267;46.46554183959961
268;46.15419006347656
269;45.8460578918457
270;45.54161071777344
271;45.24129104614258
272;44.94456481933594
273;44.65095520019531
274;44.36087417602539
275;44.07429504394531
276;43.79118347167969
277;43.51152038574219
278;43.23567199707031
279;42.962764739990234
280;42.69359588623047
281;42.427303314208984
282;42.16427993774414
283;41.90448760986328
284;41.64826965332031
285;41.39482879638672
286;41.14451599121094
287;40.89730453491211
288;40.653526306152344
289;40.41276931762695
290;40.17464828491211
291;39.93949508666992
292;39.707637786865234
293;39.47833251953125
294;39.252227783203125
295;39.02864456176758
296;38.80788803100586
297;38.59022903442383
298;38.37500762939453
299;38.16281509399414
300;37.95301818847656
301;37.74589538574219
302;37.541412353515625
303;37.33952713012695
304;37.1402473449707
305;36.94378662109375
306;36.74984359741211
307;36.558406829833984
308;36.36917495727539
309;36.18265151977539
310;35.9985237121582
311;35.81680679321289
312;35.63743591308594
313;35.460411071777344
314;35.28544616699219
315;35.1127815246582
316;34.942386627197266
317;34.77421951293945
318;34.6082763671875
319;34.44453048706055
320;34.28292465209961
321;34.12369155883789
322;33.96656799316406
323;33.811527252197266
324;33.658355712890625
325;33.50741195678711
326;33.3585090637207
327;33.21159362792969
328;33.066646575927734
329;32.92365264892578
330;32.782596588134766
331;32.64342498779297
332;32.50597381591797
333;32.37038803100586
334;32.236637115478516
335;32.10471725463867
336;31.9746036529541
337;31.846263885498047
338;31.719690322875977
339;31.5948486328125
340;31.471729278564453
341;31.350313186645508
342;31.230567932128906
343;31.11248779296875
344;30.99604606628418
345;30.88135528564453
346;30.768266677856445
347;30.656757354736328
348;30.54681396484375
349;30.438392639160156
350;30.331493377685547
351;30.225990295410156
352;30.122087478637695
353;30.01952362060547
354;29.918420791625977
355;29.81886100769043
356;29.720720291137695
357;29.623868942260742
358;29.52838706970215
359;29.43438720703125
360;29.34162139892578
361;29.250185012817383
362;29.160070419311523
363;29.07134437561035
364;28.983924865722656
365;28.897632598876953
366;28.812610626220703
367;28.728925704956055
368;28.646446228027344
369;28.565166473388672
370;28.485078811645508
371;28.406160354614258
372;28.328386306762695
373;28.251768112182617
374;28.17626953125
375;28.101806640625
376;28.0284366607666
377;27.956153869628906
378;27.88495445251465
379;27.814882278442383
380;27.745771408081055
381;27.677776336669922
382;27.610790252685547
383;27.544736862182617
384;27.47966957092285
385;27.41558074951172
386;27.352460861206055
387;27.29029083251953
388;27.22913360595703
389;27.16888999938965
390;27.109569549560547
391;27.051084518432617
392;26.99347496032715
393;26.936767578125
394;26.88092041015625
395;26.825986862182617
396;26.771833419799805
397;26.71851348876953
398;26.6660099029541
399;26.614330291748047
400;26.563488006591797
401;26.513439178466797
402;26.46417236328125
403;26.41565704345703
404;26.367900848388672
405;26.32085418701172
406;26.274578094482422
407;26.229026794433594
408;26.1841983795166
409;26.140058517456055
410;26.09661865234375
411;26.05382537841797
412;26.011751174926758
413;25.970338821411133
414;25.929582595825195
415;25.889429092407227
416;25.849925994873047
417;25.811084747314453
418;25.772859573364258
419;25.735206604003906
420;25.698205947875977
421;25.66179084777832
422;25.625965118408203
423;25.590679168701172
424;25.555957794189453
425;25.521800994873047
426;25.488239288330078
427;25.4552059173584
428;25.4227294921875
429;25.390769958496094
430;25.359302520751953
431;25.328351974487305
432;25.297935485839844
433;25.267986297607422
434;25.238557815551758
435;25.2095947265625
436;25.181121826171875
437;25.15313148498535
438;25.125598907470703
439;25.098499298095703
440;25.07185173034668
441;25.045637130737305
442;25.0198917388916
443;24.994544982910156
444;24.969636917114258
445;24.945140838623047
446;24.92106819152832
447;24.897411346435547
448;24.874122619628906
449;24.851259231567383
450;24.828773498535156
451;24.8066463470459
452;24.784914016723633
453;24.763526916503906
454;24.742530822753906
455;24.721893310546875
456;24.70160484313965
457;24.681659698486328
458;24.662046432495117
459;24.64276123046875
460;24.623828887939453
461;24.6052188873291
462;24.586942672729492
463;24.5689640045166
464;24.551307678222656
465;24.533946990966797
466;24.516883850097656
467;24.5001220703125
468;24.483654022216797
469;24.467466354370117
470;24.45155143737793
471;24.435924530029297
472;24.420581817626953
473;24.405498504638672
474;24.39068603515625
475;24.376136779785156
476;24.361841201782227
477;24.34779167175293
478;24.33399772644043
479;24.32044792175293
480;24.307140350341797
481;24.2940673828125
482;24.281221389770508
483;24.268613815307617
484;24.25623321533203
485;24.244068145751953
486;24.23211669921875
487;24.22040367126465
488;24.208873748779297
489;24.197568893432617
490;24.186460494995117
491;24.175559997558594
492;24.16484832763672
493;24.154333114624023
494;24.144020080566406
495;24.133886337280273
496;24.123943328857422
497;24.114173889160156
498;24.104581832885742
499;24.09516143798828
500;24.085920333862305
501;24.07685089111328
502;24.06794548034668
503;24.0592041015625
504;24.050626754760742
505;24.042200088500977
506;24.0339298248291
507;24.02582359313965
508;24.017852783203125
509;24.010047912597656
510;24.002382278442383
511;23.994861602783203
512;23.987470626831055
513;23.9802303314209
514;23.973115921020508
515;23.966142654418945
516;23.95929527282715
517;23.95257568359375
518;23.94598388671875
519;23.939516067504883
520;23.933177947998047
521;23.92695426940918
522;23.920848846435547
523;23.91486167907715
524;23.908979415893555
525;23.903221130371094
526;23.897565841674805
527;23.89201545715332
528;23.886571884155273
529;23.88123893737793
530;23.876005172729492
531;23.870872497558594
532;23.86583709716797
533;23.86090087890625
534;23.85606575012207
535;23.851318359375
536;23.846656799316406
537;23.84209442138672
538;23.837623596191406
539;23.833223342895508
540;23.82892417907715
541;23.82470703125
542;23.820568084716797
543;23.816505432128906
544;23.812532424926758
545;23.808643341064453
546;23.80481719970703
547;23.801069259643555
548;23.797395706176758
549;23.793794631958008
550;23.790266036987305
551;23.786806106567383
552;23.783414840698242
553;23.78009605407715
554;23.776838302612305
555;23.773649215698242
556;23.77052116394043
557;23.7674503326416
558;23.764448165893555
559;23.761499404907227
560;23.758617401123047
561;23.755786895751953
562;23.753019332885742
563;23.75031089782715
564;23.747650146484375
565;23.745038986206055
566;23.74248695373535
567;23.7399845123291
568;23.737531661987305
569;23.735136032104492
570;23.73278045654297
571;23.73048210144043
572;23.728227615356445
573;23.72600746154785
574;23.723848342895508
575;23.721717834472656
576;23.719642639160156
577;23.717613220214844
578;23.715618133544922
579;23.713665008544922
580;23.711750030517578
581;23.709880828857422
582;23.708038330078125
583;23.70625114440918
584;23.704490661621094
585;23.70276641845703
586;23.701082229614258
587;23.699434280395508
588;23.69780921936035
589;23.696229934692383
590;23.694684982299805
591;23.693164825439453
592;23.691682815551758
593;23.690223693847656
594;23.688804626464844
595;23.687410354614258
596;23.6860408782959
597;23.684711456298828
598;23.683399200439453
599;23.6821231842041
600;23.680875778198242
601;23.679643630981445
602;23.678443908691406
603;23.677268981933594
604;23.676118850708008
605;23.674989700317383
606;23.67388343811035
607;23.672809600830078
608;23.6717472076416
609;23.670726776123047
610;23.669706344604492
611;23.668724060058594
612;23.667757034301758
613;23.666807174682617
614;23.66588592529297
615;23.664976119995117
616;23.664093017578125
617;23.663227081298828
618;23.662372589111328
619;23.661540985107422
620;23.660734176635742
621;23.659942626953125
622;23.659156799316406
623;23.658403396606445
624;23.65765953063965
625;23.656932830810547
626;23.656217575073242
627;23.65552520751953
628;23.65485191345215
629;23.6541805267334
630;23.653526306152344
631;23.652891159057617
632;23.652265548706055
633;23.651653289794922
634;23.65106201171875
635;23.650474548339844
636;23.6499080657959
637;23.649354934692383
638;23.6488037109375
639;23.648271560668945
640;23.647748947143555
641;23.647241592407227
642;23.646751403808594
643;23.646263122558594
644;23.645780563354492
645;23.64532470703125
646;23.644861221313477
647;23.6444149017334
648;23.643983840942383
649;23.6435546875
650;23.643138885498047
651;23.642732620239258
652;23.642333984375
653;23.641944885253906
654;23.641572952270508
655;23.641193389892578
656;23.640832901000977
657;23.640480041503906
658;23.640134811401367
659;23.639799118041992
660;23.63947105407715
661;23.639137268066406
662;23.638826370239258
663;23.638521194458008
664;23.638221740722656
665;23.637922286987305
666;23.63763427734375
667;23.637357711791992
668;23.6370792388916
669;23.636808395385742
670;23.636547088623047
671;23.63629150390625
672;23.636045455932617
673;23.635791778564453
674;23.63555335998535
675;23.63532257080078
676;23.635099411010742
677;23.634870529174805
678;23.63465118408203
679;23.634441375732422
680;23.63422966003418
681;23.634021759033203
682;23.633825302124023
683;23.633634567260742
684;23.633447647094727
685;23.633258819580078
686;23.633073806762695
687;23.632905960083008
688;23.632728576660156
689;23.63256072998047
690;23.63239288330078
691;23.632234573364258
692;23.632080078125
693;23.631921768188477
694;23.63177490234375
695;23.631624221801758
696;23.631481170654297
697;23.6313419342041
698;23.631208419799805
699;23.631072998046875
700;23.630943298339844
701;23.63081169128418
702;23.630693435668945
703;23.63056755065918
704;23.630451202392578
705;23.630334854125977
706;23.630224227905273
707;23.630109786987305
708;23.6300106048584
709;23.629899978637695
710;23.629793167114258
711;23.62969970703125
712;23.629594802856445
713;23.629499435424805
714;23.629411697387695
715;23.629310607910156
716;23.629228591918945
717;23.629138946533203
718;23.629051208496094
719;23.62896728515625
720;23.628889083862305
721;23.628807067871094
722;23.62872886657715
723;23.6286563873291
724;23.628582000732422
725;23.628511428833008
726;23.628440856933594
727;23.62837028503418
728;23.6283016204834
729;23.62823486328125
730;23.6281681060791
731;23.62810707092285
732;23.6280517578125
733;23.62798500061035
734;23.6279239654541
735;23.62786865234375
736;23.6278133392334
737;23.62775230407715
738;23.627704620361328
739;23.627653121948242
740;23.627605438232422
741;23.6275577545166
742;23.62750244140625
743;23.627458572387695
744;23.627410888671875
745;23.627363204956055
746;23.627321243286133
747;23.62727165222168
748;23.627233505249023
749;23.62718963623047
750;23.627153396606445
751;23.627107620239258
752;23.6270751953125
753;23.627031326293945
754;23.626996994018555
755;23.626964569091797
756;23.626928329467773
757;23.62689781188965
758;23.626863479614258
759;23.62681770324707
760;23.626789093017578
761;23.626758575439453
762;23.626726150512695
763;23.62669563293457
764;23.626665115356445
765;23.626636505126953
766;23.626611709594727
767;23.6265811920166
768;23.626556396484375
769;23.626523971557617
770;23.626497268676758
771;23.626476287841797
772;23.626445770263672
773;23.626420974731445
774;23.62639808654785
775;23.626373291015625
776;23.626354217529297
777;23.62632942199707
778;23.626304626464844
779;23.62628936767578
780;23.626264572143555
781;23.626243591308594
782;23.626218795776367
783;23.626197814941406
784;23.626184463500977
785;23.626161575317383
786;23.62614631652832
787;23.626123428344727
788;23.62610626220703
789;23.62609100341797
790;23.626068115234375
791;23.626054763793945
792;23.62603187561035
793;23.626008987426758
794;23.626005172729492
795;23.625988006591797
796;23.62596893310547
797;23.625953674316406
798;23.625934600830078
799;23.62592124938965
800;23.62590980529785
801;23.625892639160156
802;23.625883102416992
803;23.6258602142334
804;23.625843048095703
805;23.625835418701172
806;23.625822067260742
807;23.625810623168945
808;23.625795364379883
809;23.625776290893555
810;23.625764846801758
811;23.625749588012695
812;23.6257381439209
813;23.6257381439209
814;23.625720977783203
815;23.625707626342773
816;23.625694274902344
817;23.625682830810547
818;23.62567138671875
819;23.625659942626953
820;23.625648498535156
821;23.625638961791992
822;23.625627517700195
823;23.62561798095703
824;23.625598907470703
825;23.625591278076172
826;23.625579833984375
827;23.625574111938477
828;23.625560760498047
829;23.62554931640625
830;23.62554168701172
831;23.625526428222656
832;23.625513076782227
833;23.625505447387695
834;23.625499725341797
835;23.62548828125
836;23.625476837158203
837;23.625471115112305
838;23.625459671020508
839;23.625452041625977
840;23.625444412231445
841;23.62543296813965
842;23.62542152404785
843;23.625408172607422
844;23.625408172607422
845;23.625402450561523
846;23.625385284423828
847;23.625377655029297
848;23.6253719329834
849;23.6253604888916
850;23.625354766845703
851;23.625343322753906
852;23.625333786010742
853;23.625333786010742
854;23.62531089782715
855;23.62530517578125
856;23.62529754638672
857;23.625288009643555
858;23.625280380249023
859;23.625274658203125
860;23.625267028808594
861;23.625255584716797
862;23.6252498626709
863;23.6252384185791
864;23.625232696533203
865;23.625219345092773
866;23.625213623046875
867;23.625200271606445
868;23.625200271606445
869;23.62518882751465
870;23.625181198120117
871;23.625171661376953
872;23.625165939331055
873;23.625158309936523
874;23.625144958496094
875;23.625133514404297
876;23.6251277923584
877;23.6251163482666
878;23.62510871887207
879;23.625104904174805
880;23.625093460083008
881;23.625089645385742
882;23.625080108642578
883;23.62506675720215
884;23.625059127807617
885;23.62505340576172
886;23.625041961669922
887;23.625036239624023
888;23.625028610229492
889;23.625011444091797
890;23.6250057220459
891;23.6249942779541
892;23.624988555908203
893;23.624980926513672
894;23.624969482421875
895;23.624961853027344
896;23.624950408935547
897;23.624940872192383
898;23.624927520751953
899;23.624919891357422
900;23.624910354614258
901;23.624897003173828
902;23.62489128112793
903;23.624879837036133
904;23.62487030029297
905;23.624853134155273
906;23.624839782714844
907;23.624834060668945
908;23.62481689453125
909;23.624814987182617
910;23.624797821044922
911;23.624792098999023
912;23.624778747558594
913;23.62476348876953
914;23.624755859375
915;23.624744415283203
916;23.624731063842773
917;23.624717712402344
918;23.624706268310547
919;23.62469482421875
920;23.624675750732422
921;23.624671936035156
922;23.624662399291992
923;23.624645233154297
924;23.6246395111084
925;23.6246280670166
926;23.624614715576172
927;23.624608993530273
928;23.624601364135742
929;23.624595642089844
930;23.624584197998047
931;23.62457275390625
932;23.624561309814453
933;23.624555587768555
934;23.624549865722656
935;23.624540328979492
936;23.624534606933594
937;23.624523162841797
938;23.6245174407959
939;23.6245059967041
940;23.624500274658203
941;23.624488830566406
942;23.624481201171875
943;23.624473571777344
944;23.624467849731445
945;23.624452590942383
946;23.62444496154785
947;23.62444305419922
948;23.624427795410156
949;23.624420166015625
950;23.624414443969727
951;23.624401092529297
952;23.6243953704834
953;23.624387741088867
954;23.624378204345703
955;23.624366760253906
956;23.624353408813477
957;23.624357223510742
958;23.62434196472168
959;23.62433433532715
960;23.624326705932617
961;23.62431526184082
962;23.624300003051758
963;23.624296188354492
964;23.624284744262695
965;23.624267578125
966;23.624256134033203
967;23.624244689941406
968;23.624225616455078
969;23.624217987060547
970;23.62420082092285
971;23.624187469482422
972;23.624170303344727
973;23.624156951904297
974;23.624128341674805
975;23.624109268188477
976;23.62407875061035
977;23.624053955078125
978;23.62401580810547
979;23.623979568481445
980;23.623939514160156
981;23.6239013671875
982;23.623878479003906
983;23.623872756958008
984;23.623889923095703
985;23.6238956451416
986;23.623868942260742
987;23.62382698059082
988;23.623796463012695
989;23.623779296875
990;23.623779296875
991;23.623779296875
992;23.6237735748291
993;23.623762130737305
994;23.623746871948242
995;23.62372589111328
996;23.623701095581055
997;23.623687744140625
998;23.623687744140625
999;23.623682022094727
1000;23.623674392700195
1001;23.6236515045166
1002;23.623634338378906
1003;23.623620986938477
1004;23.62360954284668
1005;23.62360191345215
1006;23.62359046936035
1007;23.62358283996582
1008;23.623559951782227
1009;23.623552322387695
1010;23.6235408782959
1011;23.6235294342041
1012;23.623523712158203
1013;23.623512268066406
1014;23.623491287231445
1015;23.623476028442383
1016;23.623472213745117
1017;23.62346076965332
1018;23.623445510864258
1019;23.623435974121094
1020;23.62342071533203
1021;23.623411178588867
1022;23.62339973449707
1023;23.623390197753906
1024;23.623374938964844
1025;23.623363494873047
1026;23.62335205078125
1027;23.623340606689453
1028;23.623327255249023
1029;23.623313903808594
1030;23.6232967376709
1031;23.623291015625
1032;23.62327766418457
1033;23.623266220092773
1034;23.623252868652344
1035;23.62323760986328
1036;23.62322998046875
1037;23.623212814331055
1038;23.623199462890625
1039;23.623186111450195
1040;23.623170852661133
1041;23.623157501220703
1042;23.623157501220703
1043;23.623136520385742
1044;23.623125076293945
1045;23.62310791015625
1046;23.623096466064453
1047;23.623085021972656
1048;23.623071670532227
1049;23.62305450439453
1050;23.623046875
1051;23.623035430908203
1052;23.623018264770508
1053;23.623004913330078
1054;23.62299156188965
1055;23.62297821044922
1056;23.622968673706055
1057;23.622957229614258
1058;23.622941970825195
1059;23.622926712036133
1060;23.622913360595703
1061;23.622900009155273
1062;23.622886657714844
1063;23.622875213623047
1064;23.62286376953125
1065;23.62285041809082
1066;23.622838973999023
1067;23.622825622558594
1068;23.622802734375
1069;23.622791290283203
1070;23.622777938842773
1071;23.622760772705078
1072;23.62274742126465
1073;23.62273597717285
1074;23.622722625732422
1075;23.622709274291992
1076;23.62268829345703
1077;23.62267303466797
1078;23.622663497924805
1079;23.622648239135742
1080;23.622631072998047
1081;23.62262535095215
1082;23.622602462768555
1083;23.622587203979492
1084;23.622575759887695
1085;23.622560501098633
1086;23.622541427612305
1087;23.622528076171875
1088;23.622516632080078
1089;23.622499465942383
1090;23.622478485107422
1091;23.622468948364258
1092;23.622455596923828
1093;23.6224422454834
1094;23.622425079345703
1095;23.622400283813477
1096;23.622386932373047
1097;23.62237548828125
1098;23.622358322143555
1099;23.622337341308594
1100;23.622325897216797
1101;23.622314453125
1102;23.622291564941406
1103;23.622276306152344
1104;23.62225914001465
1105;23.622241973876953
1106;23.622224807739258
1107;23.6221981048584
1108;23.622190475463867
1109;23.622173309326172
1110;23.622154235839844
1111;23.622133255004883
1112;23.62211799621582
1113;23.622102737426758
1114;23.622081756591797
1115;23.62206268310547
1116;23.622039794921875
1117;23.62202262878418
1118;23.62200355529785
1119;23.621980667114258
1120;23.621971130371094
1121;23.621946334838867
1122;23.621923446655273
1123;23.621904373168945
1124;23.62188720703125
1125;23.621864318847656
1126;23.62183952331543
1127;23.6218204498291
1128;23.621803283691406
1129;23.621782302856445
1130;23.621753692626953
1131;23.621736526489258
1132;23.6217098236084
1133;23.621686935424805
1134;23.621662139892578
1135;23.62163734436035
1136;23.621620178222656
1137;23.6215877532959
1138;23.621564865112305
1139;23.621545791625977
1140;23.62151527404785
1141;23.621488571166992
1142;23.6214656829834
1143;23.621440887451172
1144;23.621410369873047
1145;23.621376037597656
1146;23.621349334716797
1147;23.62132453918457
1148;23.621299743652344
1149;23.621265411376953
1150;23.621238708496094
1151;23.621204376220703
1152;23.621179580688477
1153;23.621137619018555
1154;23.62110710144043
1155;23.621074676513672
1156;23.62104034423828
1157;23.621009826660156
1158;23.6209774017334
1159;23.620939254760742
1160;23.62089729309082
1161;23.620861053466797
1162;23.620820999145508
1163;23.62078285217285
1164;23.620750427246094
1165;23.620704650878906
1166;23.620655059814453
1167;23.620616912841797
1168;23.620576858520508
1169;23.620527267456055
1170;23.6204776763916
1171;23.620439529418945
1172;23.620384216308594
1173;23.620330810546875
1174;23.620277404785156
1175;23.62022590637207
1176;23.62017059326172
1177;23.620115280151367
1178;23.620058059692383
1179;23.6200008392334
1180;23.619935989379883
1181;23.6198787689209
1182;23.61980438232422
1183;23.619733810424805
1184;23.619667053222656
1185;23.619586944580078
1186;23.6195125579834
1187;23.619434356689453
1188;23.619352340698242
1189;23.6192626953125
1190;23.619176864624023
1191;23.61907958984375
1192;23.618988037109375
1193;23.61888313293457
1194;23.6187744140625
1195;23.61865997314453
1196;23.618547439575195
1197;23.618432998657227
1198;23.618324279785156
1199;23.618255615234375
1200;23.61811637878418
1201;23.618074417114258
1202;23.617773056030273
1203;23.617631912231445
1204;23.61760902404785
1205;23.617401123046875
1206;23.617223739624023
1207;23.61699867248535
1208;23.61683464050293
1209;23.616741180419922
1210;23.616559982299805
1211;23.61644172668457
1212;23.616090774536133
1213;23.615856170654297
1214;23.615705490112305
1215;23.615161895751953
1216;23.617841720581055
1217;23.616844177246094
1218;23.620180130004883
1219;23.621498107910156
1220;23.62176513671875
1221;23.62127113342285
1222;23.619779586791992
1223;23.616626739501953
1224;23.613121032714844
1225;23.614044189453125
1226;23.614213943481445
1227;23.61383819580078
1228;23.61219596862793
1229;23.617454528808594
1230;23.623493194580078
1231;23.6271915435791
1232;23.630170822143555
1233;23.631336212158203
1234;23.63115882873535
1235;23.62981414794922
1236;23.62748908996582
1237;23.62397003173828
1238;23.61967658996582
1239;23.617582321166992
1240;23.611614227294922
1241;23.61358642578125
1242;23.61195182800293
1243;23.615558624267578
1244;23.621326446533203
1245;23.623960494995117
1246;23.625255584716797
1247;23.62590980529785
1248;23.626192092895508
1249;23.626203536987305
1250;23.6259708404541
1251;23.62543296813965
1252;23.624475479125977
1253;23.622804641723633
1254;23.619773864746094
1255;23.614107131958008
1256;23.608741760253906
1257;23.6102352142334
1258;23.607847213745117
1259;23.61090850830078
1260;23.611295700073242
1261;23.61113166809082
1262;23.610334396362305
1263;23.608369827270508
1264;23.6054630279541
1265;23.607810974121094
1266;23.60798454284668
1267;23.607744216918945
1268;23.607337951660156
1269;23.606786727905273
1270;23.605995178222656
1271;23.604541778564453
1272;23.601768493652344
1273;23.602947235107422
1274;23.6031436920166
1275;23.600324630737305
1276;23.60222816467285
1277;23.602441787719727
1278;23.601625442504883
1279;23.599340438842773
1280;23.597612380981445
1281;23.599403381347656
1282;23.596513748168945
1283;23.59742546081543
1284;23.59900665283203
1285;23.599031448364258
1286;23.598600387573242
1287;23.597816467285156
1288;23.595396041870117
1289;23.593524932861328
1290;23.597803115844727
1291;23.599021911621094
1292;23.599096298217773
1293;23.598766326904297
1294;23.598051071166992
1295;23.596656799316406
1296;23.592723846435547
1297;23.59092903137207
1298;23.594392776489258
1299;23.5958251953125
1300;23.594865798950195
1301;23.593774795532227
1302;23.590248107910156
1303;23.588672637939453
1304;23.591890335083008
1305;23.593080520629883
1306;23.59259605407715
1307;23.590431213378906
1308;23.586902618408203
1309;23.58747673034668
1310;23.591157913208008
1311;23.594392776489258
1312;23.593355178833008
1313;23.590192794799805
1314;23.5884952545166
1315;23.585603713989258
1316;23.58368492126465
1317;23.586891174316406
1318;23.587553024291992
1319;23.58494758605957
1320;23.5832462310791
1321;23.58375358581543
1322;23.5834903717041
1323;23.583221435546875
1324;23.583044052124023
1325;23.582847595214844
1326;23.582517623901367
1327;23.5821475982666
1328;23.581756591796875
1329;23.581449508666992
1330;23.581199645996094
1331;23.579627990722656
1332;23.578990936279297
1333;23.578441619873047
1334;23.57805633544922
1335;23.578840255737305
1336;23.57811164855957
1337;23.577198028564453
1338;23.5781307220459
1339;23.57665252685547
1340;23.576635360717773
1341;23.576799392700195
1342;23.5761775970459
1343;23.575458526611328
1344;23.575977325439453
1345;23.574951171875
1346;23.574623107910156
1347;23.575380325317383
1348;23.57514762878418
1349;23.57378387451172
1350;23.573448181152344
1351;23.574487686157227
1352;23.57282066345215
1353;23.573102951049805
1354;23.573198318481445
1355;23.5721492767334
1356;23.571617126464844
1357;23.572864532470703
1358;23.571189880371094
1359;23.570823669433594
1360;23.57099151611328
1361;23.57074737548828
1362;23.569990158081055
1363;23.569581985473633
1364;23.57012939453125
1365;23.568986892700195
1366;23.56877899169922
1367;23.568510055541992
1368;23.568462371826172
1369;23.568174362182617
1370;23.567598342895508
1371;23.567338943481445
1372;23.5670108795166
1373;23.566661834716797
1374;23.566638946533203
1375;23.566062927246094
1376;23.565797805786133
1377;23.565507888793945
1378;23.56519889831543
1379;23.564861297607422
1380;23.564802169799805
1381;23.564289093017578
1382;23.563947677612305
1383;23.56376838684082
1384;23.563343048095703
1385;23.5632381439209
1386;23.562726974487305
1387;23.562389373779297
1388;23.56249237060547
1389;23.5617618560791
1390;23.561674118041992
1391;23.561126708984375
1392;23.561033248901367
1393;23.56065559387207
1394;23.560243606567383
1395;23.560209274291992
1396;23.559553146362305
1397;23.559663772583008
1398;23.558917999267578
1399;23.559053421020508
1400;23.558311462402344
1401;23.558422088623047
1402;23.557714462280273
1403;23.557771682739258
1404;23.557104110717773
1405;23.5571346282959
1406;23.556455612182617
1407;23.556516647338867
1408;23.555768966674805
1409;23.555919647216797
1410;23.55506706237793
1411;23.555137634277344
1412;23.554590225219727
1413;23.554828643798828
1414;23.554283142089844
1415;23.553936004638672
1416;23.553295135498047
1417;23.553173065185547
1418;23.552600860595703
1419;23.552885055541992
1420;23.551942825317383
1421;23.552337646484375
1422;23.552528381347656
1423;23.55194664001465
1424;23.55059051513672
1425;23.551240921020508
1426;23.551246643066406
1427;23.548988342285156
1428;23.550188064575195
1429;23.551054000854492
1430;23.551048278808594
1431;23.54853057861328
1432;23.547143936157227
1433;23.547998428344727
1434;23.547088623046875
1435;23.544836044311523
1436;23.544322967529297
1437;23.544710159301758
1438;23.543718338012695
1439;23.54279327392578
1440;23.542316436767578
1441;23.540678024291992
1442;23.540565490722656
1443;23.539081573486328
1444;23.539308547973633
1445;23.5389404296875
1446;23.537389755249023
1447;23.534608840942383
1448;23.535661697387695
1449;23.534996032714844
1450;23.53246307373047
1451;23.52992057800293
1452;23.528308868408203
1453;23.527620315551758
1454;23.526287078857422
1455;23.523347854614258
1456;23.522680282592773
1457;23.524126052856445
1458;23.521465301513672
1459;23.517303466796875
1460;23.520082473754883
1461;23.522533416748047
1462;23.516496658325195
1463;23.543397903442383
1464;23.520618438720703
1465;23.53130531311035
1466;23.535367965698242
1467;23.53510284423828
1468;23.533449172973633
1469;23.536510467529297
1470;23.538515090942383
1471;23.53534507751465
1472;23.53386116027832
1473;23.534442901611328
1474;23.534196853637695
1475;23.532957077026367
1476;23.533403396606445
1477;23.53345489501953
1478;23.533161163330078
1479;23.53254508972168
1480;23.531587600708008
1481;23.530519485473633
1482;23.530332565307617
1483;23.529930114746094
1484;23.529315948486328
1485;23.528533935546875
1486;23.528165817260742
1487;23.527679443359375
1488;23.526899337768555
1489;23.526355743408203
1490;23.526172637939453
1491;23.525531768798828
1492;23.524904251098633
1493;23.524574279785156
1494;23.5240421295166
1495;23.523313522338867
1496;23.522676467895508
1497;23.522493362426758
1498;23.521644592285156
1499;23.521120071411133
1500;23.520668029785156
1501;23.5200252532959
1502;23.519489288330078
1503;23.518877029418945
1504;23.518474578857422
1505;23.518327713012695
1506;23.5174617767334
1507;23.51715660095215
1508;23.516796112060547
1509;23.515796661376953
1510;23.5156192779541
1511;23.51445198059082
1512;23.514192581176758
1513;23.51373291015625
1514;23.51274299621582
1515;23.5130615234375
1516;23.51161003112793
1517;23.511445999145508
1518;23.51105499267578
1519;23.510112762451172
1520;23.509366989135742
1521;23.509265899658203
1522;23.508222579956055
1523;23.508058547973633
1524;23.507301330566406
1525;23.506013870239258
1526;23.506757736206055
1527;23.505189895629883
1528;23.504100799560547
1529;23.503602981567383
1530;23.502626419067383
1531;23.501880645751953
1532;23.50139617919922
1533;23.5003662109375
1534;23.49993896484375
1535;23.499235153198242
1536;23.498023986816406
1537;23.496776580810547
1538;23.495750427246094
1539;23.494199752807617
1540;23.49268913269043
1541;23.49102783203125
1542;23.48845863342285
1543;23.48552703857422
1544;23.480670928955078
1545;23.47186851501465
1546;23.4566707611084
1547;23.439014434814453
1548;23.441957473754883
1549;23.4404239654541
1550;23.44378662109375
1551;23.434532165527344
1552;23.435108184814453
1553;23.425539016723633
1554;23.423303604125977
1555;23.415027618408203
1556;23.4194278717041
1557;23.41459846496582
1558;23.415576934814453
1559;23.405534744262695
1560;23.429229736328125
1561;23.404541015625
1562;23.41423988342285
1563;23.400962829589844
1564;23.397743225097656
1565;23.38848304748535
1566;23.382734298706055
1567;23.37762451171875
1568;23.385276794433594
1569;23.380638122558594
1570;23.364646911621094
1571;23.363862991333008
1572;23.367692947387695
1573;23.36504554748535
1574;23.350017547607422
1575;23.341960906982422
1576;23.33868980407715
1577;23.334430694580078
1578;23.3255672454834
1579;23.323545455932617
1580;23.327909469604492
1581;23.322975158691406
1582;23.33195686340332
1583;23.32586097717285
1584;23.339189529418945
1585;23.320356369018555
1586;23.321672439575195
1587;23.323152542114258
1588;23.283061981201172
1589;23.36785316467285
1590;23.31609535217285
1591;23.3042049407959
1592;23.317371368408203
1593;23.286344528198242
1594;23.309558868408203
1595;23.308759689331055
1596;23.24293327331543
1597;23.291467666625977
1598;23.272245407104492
1599;23.262115478515625
1600;23.279008865356445
1601;23.233186721801758
1602;23.275306701660156
1603;23.26561164855957
1604;23.222801208496094
1605;23.294017791748047
1606;23.3082332611084
1607;23.22116470336914
1608;23.24799156188965
1609;23.2791748046875
1610;23.23114585876465
1611;23.201879501342773
1612;23.250778198242188
1613;23.23548126220703
1614;23.17816734313965
1615;23.23625373840332
1616;23.273475646972656
1617;23.260278701782227
1618;23.200639724731445
1619;23.179527282714844
1620;23.22699546813965
1621;23.21145248413086
1622;23.151813507080078
1623;23.14653778076172
1624;23.120481491088867
1625;23.132719039916992
1626;23.147478103637695
1627;23.138574600219727
1628;23.113554000854492
1629;23.100473403930664
1630;23.080303192138672
1631;23.080047607421875
1632;23.074739456176758
1633;23.071815490722656
1634;23.082439422607422
1635;23.09150505065918
1636;23.07748031616211
1637;23.058868408203125
1638;23.037635803222656
1639;23.042194366455078
1640;23.04619598388672
1641;23.049266815185547
1642;23.059675216674805
1643;23.05902099609375
1644;23.04646110534668
1645;23.023923873901367
1646;23.019588470458984
1647;22.992155075073242
1648;22.99125862121582
1649;22.977863311767578
1650;22.998933792114258
1651;22.990522384643555
1652;22.995330810546875
1653;22.99054527282715
1654;22.985488891601562
1655;22.978506088256836
1656;22.96124267578125
1657;22.934436798095703
1658;22.990123748779297
1659;22.930036544799805
1660;22.936717987060547
1661;22.92767906188965
1662;22.90926170349121
1663;22.925142288208008
1664;22.937030792236328
1665;22.960002899169922
1666;22.974468231201172
1667;22.96965217590332
1668;22.94536018371582
1669;22.928688049316406
1670;22.92890167236328
1671;22.921934127807617
1672;22.890296936035156
1673;22.872478485107422
1674;22.871318817138672
1675;22.888925552368164
1676;22.878623962402344
1677;22.890480041503906
1678;22.849151611328125
1679;22.844696044921875
1680;22.843109130859375
1681;22.907255172729492
1682;22.85009765625
1683;22.847881317138672
1684;22.839345932006836
1685;22.831890106201172
1686;22.825101852416992
1687;22.813987731933594
1688;22.80365562438965
1689;22.792573928833008
1690;22.781246185302734
1691;22.76941680908203
1692;22.75717544555664
1693;22.745328903198242
1694;22.732328414916992
1695;22.71648406982422
1696;22.700265884399414
1697;22.684633255004883
1698;22.667570114135742
1699;22.65355682373047
1700;22.6374454498291
1701;22.618688583374023
1702;22.60293197631836
1703;22.58226203918457
1704;22.569847106933594
1705;22.55791664123535
1706;22.54648208618164
1707;22.536396026611328
1708;22.5236873626709
1709;22.511852264404297
1710;22.502174377441406
1711;22.49245262145996
1712;22.481992721557617
1713;22.471508026123047
1714;22.459720611572266
1715;22.448884963989258
1716;22.435462951660156
1717;22.41998863220215
1718;22.40580940246582
1719;22.3896427154541
1720;22.376277923583984
1721;22.360193252563477
1722;22.340412139892578
1723;22.328161239624023
1724;22.29845428466797
1725;22.20148468017578
1726;21.946321487426758
1727;21.896034240722656
1728;21.960296630859375
1729;22.000988006591797
1730;21.99127960205078
1731;21.97564697265625
1732;21.887798309326172
1733;23.021608352661133
1734;23.013141632080078
1735;23.00008773803711
1736;21.901012420654297
1737;21.92786979675293
1738;22.25807762145996
1739;21.64739418029785
1740;21.819059371948242
1741;21.962139129638672
1742;21.896150588989258
1743;21.734485626220703
1744;21.69737434387207
1745;21.57897186279297
1746;21.52606964111328
1747;21.470373153686523
1748;21.425018310546875
1749;21.504051208496094
1750;21.441692352294922
1751;21.368017196655273
1752;21.21055030822754
1753;21.55961799621582
1754;21.34611701965332
1755;21.490440368652344
1756;21.526079177856445
1757;21.409460067749023
1758;21.2708683013916
1759;20.964235305786133
1760;21.029905319213867
1761;21.30058479309082
1762;21.546937942504883
1763;21.447431564331055
1764;21.38643455505371
1765;21.3452205657959
1766;22.64644432067871
1767;21.2923583984375
1768;21.18932342529297
1769;21.12077522277832
1770;22.613161087036133
1771;22.30133628845215
1772;20.979948043823242
1773;21.135318756103516
1774;21.326000213623047
1775;21.374147415161133
1776;21.378206253051758
1777;21.36811065673828
1778;21.166667938232422
1779;22.49471092224121
1780;20.79770851135254
1781;21.167736053466797
1782;21.136789321899414
1783;21.071056365966797
1784;21.008831024169922
1785;20.957233428955078
1786;20.893604278564453
1787;20.780742645263672
1788;20.659284591674805
1789;20.635160446166992
1790;20.69078254699707
1791;20.72774314880371
1792;20.63701057434082
1793;20.600706100463867
1794;20.5860595703125
1795;20.584117889404297
1796;20.53331756591797
1797;20.419511795043945
1798;20.361268997192383
1799;20.349075317382812
1800;20.242158889770508
1801;20.209564208984375
1802;20.198820114135742
1803;20.08039665222168
1804;19.89718246459961
1805;19.764068603515625
1806;19.52079963684082
1807;19.71031951904297
1808;19.423561096191406
1809;19.48711395263672
1810;19.075122833251953
1811;19.373414993286133
1812;19.32884979248047
1813;18.751636505126953
1814;20.01837921142578
1815;20.279483795166016
1816;20.67987823486328
1817;20.7962589263916
1818;20.764284133911133
1819;20.623106002807617
1820;20.378910064697266
1821;20.15569305419922
1822;19.93291664123535
1823;19.210472106933594
1824;19.553346633911133
1825;18.200349807739258
1826;18.852479934692383
1827;18.353410720825195
1828;18.12055015563965
1829;18.657272338867188
1830;18.067781448364258
1831;19.63127899169922
1832;19.238004684448242
1833;17.58576202392578
1834;21.095125198364258
1835;20.721893310546875
1836;17.679166793823242
1837;19.3015079498291
1838;19.358198165893555
1839;17.688451766967773
1840;17.45084571838379
1841;19.531970977783203
1842;17.23101234436035
1843;17.437175750732422
1844;18.11131477355957
1845;17.173511505126953
1846;17.019132614135742
1847;17.612945556640625
1848;16.943187713623047
1849;16.93239974975586
1850;17.01500701904297
1851;17.23967742919922
1852;17.02362060546875
1853;16.899879455566406
1854;16.834182739257812
1855;16.801610946655273
1856;16.770526885986328
1857;16.75139045715332
1858;16.721843719482422
1859;16.629440307617188
1860;16.546775817871094
1861;16.50461769104004
1862;16.475950241088867
1863;16.449613571166992
1864;16.42113494873047
1865;16.384626388549805
1866;16.335124969482422
1867;16.284961700439453
1868;16.302265167236328
1869;16.240983963012695
1870;16.25813102722168
1871;16.24276351928711
1872;16.19392204284668
1873;16.09054946899414
1874;16.252166748046875
1875;16.26167869567871
1876;16.62542724609375
1877;18.450462341308594
1878;16.18022346496582
1879;15.894257545471191
1880;19.953046798706055
1881;16.421005249023438
1882;19.856121063232422
1883;21.119237899780273
1884;26.508386611938477
1885;26.536724090576172
1886;25.6877384185791
1887;24.79595947265625
1888;23.499982833862305
1889;20.984119415283203
1890;20.238142013549805
1891;20.006439208984375
1892;19.967729568481445
1893;19.946069717407227
1894;19.9449520111084
1895;19.912981033325195
1896;19.812705993652344
1897;19.73133659362793
1898;19.690454483032227
1899;19.65516471862793
1900;19.63116455078125
1901;19.61334800720215
1902;19.6055965423584
1903;19.60564422607422
1904;19.632423400878906
1905;19.652816772460938
1906;19.72834014892578
1907;19.715808868408203
1908;19.63078498840332
1909;19.50990867614746
1910;19.46070671081543
1911;19.405059814453125
1912;19.360694885253906
1913;19.321697235107422
1914;19.278837203979492
1915;19.228605270385742
1916;19.174659729003906
1917;19.117002487182617
1918;19.063709259033203
1919;18.986042022705078
1920;18.89488983154297
1921;18.779132843017578
1922;18.450950622558594
1923;17.818073272705078
1924;18.14911651611328
1925;18.01512908935547
1926;17.447511672973633
1927;16.780540466308594
1928;16.70707893371582
1929;16.706968307495117
1930;16.60742950439453
1931;16.409624099731445
1932;16.224773406982422
1933;16.08319854736328
1934;15.973419189453125
1935;15.889026641845703
1936;15.805401802062988
1937;15.696022987365723
1938;15.466444969177246
1939;15.843710899353027
1940;15.6071138381958
1941;15.705791473388672
1942;15.7310209274292
1943;15.740187644958496
1944;15.73876667022705
1945;15.731951713562012
1946;15.721159934997559
1947;15.708124160766602
1948;15.69167709350586
1949;15.672277450561523
1950;15.651217460632324
1951;15.628235816955566
1952;15.603543281555176
1953;15.577893257141113
1954;15.551013946533203
1955;15.522591590881348
1956;15.490527153015137
1957;15.451735496520996
1958;15.406582832336426
1959;15.347243309020996
1960;15.261821746826172
1961;15.119071006774902
1962;15.302660942077637
1963;14.964398384094238
1964;15.004866600036621
1965;14.962896347045898
1966;14.710454940795898
1967;14.801329612731934
1968;14.70157241821289
1969;14.544231414794922
1970;14.697457313537598
1971;14.465656280517578
1972;14.467179298400879
1973;14.469512939453125
1974;14.424233436584473
1975;14.362316131591797
1976;14.332845687866211
1977;14.343039512634277
1978;14.277487754821777
1979;14.264328956604004
1980;14.256586074829102
1981;14.234455108642578
1982;14.199830055236816
1983;14.170852661132812
1984;14.172222137451172
1985;14.132055282592773
1986;14.115639686584473
1987;14.102935791015625
1988;14.085312843322754
1989;14.063157081604004
1990;14.040480613708496
1991;14.022747039794922
1992;14.012642860412598
1993;13.987845420837402
1994;13.973580360412598
1995;13.960915565490723
1996;13.946310997009277
1997;13.9297513961792
1998;13.912731170654297
1999;13.897022247314453
