;loss
0;865.63037109375
1;863.7640991210938
2;861.6055908203125
3;859.3082885742188
4;856.7647094726562
5;854.1945190429688
6;851.5889892578125
7;848.9387817382812
8;846.2725219726562
9;843.5044555664062
10;840.6757202148438
11;837.7490234375
12;834.72265625
13;831.5810546875
14;828.3115234375
15;824.9000244140625
16;821.3580932617188
17;817.6151733398438
18;813.7160034179688
19;809.5682983398438
20;805.2313842773438
21;800.5894165039062
22;795.7161865234375
23;790.5339965820312
24;785.0098876953125
25;779.1094360351562
26;772.7952880859375
27;765.9432373046875
28;758.6666870117188
29;750.7431030273438
30;742.30615234375
31;733.0999145507812
32;723.1605834960938
33;712.4269409179688
34;700.9710083007812
35;688.4757080078125
36;675.1694946289062
37;660.8798828125
38;645.4178466796875
39;628.9505615234375
40;611.5206909179688
41;593.2256469726562
42;574.2083129882812
43;554.8844604492188
44;535.1156616210938
45;515.4207763671875
46;496.3232116699219
47;477.9660339355469
48;460.4773864746094
49;444.4103698730469
50;429.5778503417969
51;416.17767333984375
52;404.2648620605469
53;393.5413513183594
54;383.9079284667969
55;375.25323486328125
56;367.3492736816406
57;359.9956970214844
58;353.2106018066406
59;346.7882385253906
60;340.72357177734375
61;335.0033874511719
62;329.53387451171875
63;324.2885437011719
64;319.255859375
65;314.40966796875
66;309.7400207519531
67;305.2386169433594
68;300.8898010253906
69;296.69012451171875
70;292.62530517578125
71;288.6829528808594
72;284.851806640625
73;281.12286376953125
74;277.4892578125
75;273.9221496582031
76;270.44024658203125
77;267.03759765625
78;263.7304992675781
79;260.4975891113281
80;257.33404541015625
81;254.236083984375
82;251.2012481689453
83;248.2100372314453
84;245.29354858398438
85;242.43310546875
86;239.61143493652344
87;236.85665893554688
88;234.13650512695312
89;231.46377563476562
90;228.85096740722656
91;226.2694091796875
92;223.7444610595703
93;221.26156616210938
94;218.80763244628906
95;216.4065704345703
96;214.0436248779297
97;211.71812438964844
98;209.4288787841797
99;207.1747589111328
100;204.9551544189453
101;202.76979064941406
102;200.607421875
103;198.48654174804688
104;196.3963623046875
105;194.33596801757812
106;192.29537963867188
107;190.2830047607422
108;188.2982635498047
109;186.34901428222656
110;184.42581176757812
111;182.51998901367188
112;180.63926696777344
113;178.78305053710938
114;176.95082092285156
115;175.14210510253906
116;173.36363220214844
117;171.60755920410156
118;169.8665313720703
119;168.1538543701172
120;166.46229553222656
121;164.79153442382812
122;163.134765625
123;161.50439453125
124;159.88755798339844
125;158.29624938964844
126;156.7239227294922
127;155.17019653320312
128;153.6292266845703
129;152.10665893554688
130;150.60751342773438
131;149.12606811523438
132;147.6566162109375
133;146.20933532714844
134;144.77871704101562
135;143.35968017578125
136;141.95704650878906
137;140.5704803466797
138;139.20437622070312
139;137.85379028320312
140;136.5141143798828
141;135.19406127929688
142;133.8845977783203
143;132.58999633789062
144;131.3100128173828
145;130.04452514648438
146;128.79319763183594
147;127.55989837646484
148;126.34041595458984
149;125.13078308105469
150;123.93831634521484
151;122.75917053222656
152;121.59308624267578
153;120.43997955322266
154;119.29972076416016
155;118.16873931884766
156;117.05045318603516
157;115.94465637207031
158;114.85123443603516
159;113.7733154296875
160;112.7073745727539
161;111.65320587158203
162;110.60780334472656
163;109.57398986816406
164;108.55449676513672
165;107.54632568359375
166;106.54659271240234
167;105.56072235107422
168;104.58312225341797
169;103.6189956665039
170;102.66302490234375
171;101.71769714355469
172;100.78539276123047
173;99.8634262084961
174;98.9517593383789
175;98.0503158569336
176;97.15898895263672
177;96.27757263183594
178;95.40596008300781
179;94.54194641113281
180;93.68762969970703
181;92.84503936767578
182;92.01188659667969
183;91.1860122680664
184;90.37141418457031
185;89.56400299072266
186;88.76567840576172
187;87.97637176513672
188;87.19597625732422
189;86.42445373535156
190;85.66163635253906
191;84.90750885009766
192;84.16193389892578
193;83.42659759521484
194;82.69960021972656
195;81.979248046875
196;81.26872253417969
197;80.56632232666016
198;79.8719482421875
199;79.18553161621094
200;78.50695037841797
201;77.83613586425781
202;77.17304992675781
203;76.517578125
204;75.86966705322266
205;75.22779083251953
206;74.59337615966797
207;73.9676513671875
208;73.34917449951172
209;72.73797607421875
210;72.13395690917969
211;71.53710174560547
212;70.94718170166016
213;70.36406707763672
214;69.78770446777344
215;69.21805572509766
216;68.65503692626953
217;68.09859466552734
218;67.54869079589844
219;67.00528717041016
220;66.46836853027344
221;65.9367446899414
222;65.41252136230469
223;64.89447021484375
224;64.3825454711914
225;63.87670135498047
226;63.37679672241211
227;62.88289260864258
228;62.39396286010742
229;61.9108772277832
230;61.43366241455078
231;60.96303939819336
232;60.49807357788086
233;60.03780746459961
234;59.58395767211914
235;59.134735107421875
236;58.69183349609375
237;58.25434494018555
238;57.82136917114258
239;57.39364242553711
240;56.971920013427734
241;56.55533981323242
242;56.14388656616211
243;55.736732482910156
244;55.33453369140625
245;54.93799591064453
246;54.54564666748047
247;54.15814971923828
248;53.77545166015625
249;53.398162841796875
250;53.02556610107422
251;52.656959533691406
252;52.2935791015625
253;51.9340934753418
254;51.5797119140625
255;51.229774475097656
256;50.88421630859375
257;50.54240036010742
258;50.20547866821289
259;49.872802734375
260;49.54429244995117
261;49.21942138671875
262;48.899192810058594
263;48.5830192565918
264;48.270870208740234
265;47.96217727661133
266;47.65743637084961
267;47.35709762573242
268;47.060142517089844
269;46.767459869384766
270;46.47855758666992
271;46.19335174560547
272;45.91140365600586
273;45.63352584838867
274;45.35883331298828
275;45.08769989013672
276;44.820098876953125
277;44.55598831176758
278;44.29572296142578
279;44.03887939453125
280;43.785011291503906
281;43.53484344482422
282;43.28797149658203
283;43.04435348510742
284;42.8039665222168
285;42.56673812866211
286;42.33266067504883
287;42.10170364379883
288;41.873809814453125
289;41.64863967895508
290;41.42679977416992
291;41.2076301574707
292;40.99169158935547
293;40.77865219116211
294;40.56848907470703
295;40.36116409301758
296;40.15663528442383
297;39.954872131347656
298;39.75583267211914
299;39.559226989746094
300;39.36530303955078
301;39.17430877685547
302;38.985660552978516
303;38.79959487915039
304;38.61608123779297
305;38.435096740722656
306;38.256839752197266
307;38.080814361572266
308;37.907470703125
309;37.736289978027344
310;37.5674934387207
311;37.40105056762695
312;37.2369270324707
313;37.0753288269043
314;36.91599655151367
315;36.75868606567383
316;36.60358428955078
317;36.450862884521484
318;36.300106048583984
319;36.151466369628906
320;36.0051383972168
321;35.860877990722656
322;35.718685150146484
323;35.578487396240234
324;35.4403076171875
325;35.30409622192383
326;35.16983413696289
327;35.037322998046875
328;34.90689468383789
329;34.77817153930664
330;34.65131759643555
331;34.52645492553711
332;34.403385162353516
333;34.28211212158203
334;34.162445068359375
335;34.0446662902832
336;33.928466796875
337;33.81395721435547
338;33.70113754272461
339;33.59010696411133
340;33.480567932128906
341;33.37277603149414
342;33.266571044921875
343;33.16194152832031
344;33.0587272644043
345;32.95705032348633
346;32.85687255859375
347;32.758201599121094
348;32.66100311279297
349;32.565242767333984
350;32.47092056274414
351;32.37802505493164
352;32.28661346435547
353;32.19648361206055
354;32.10780715942383
355;32.02047348022461
356;31.934452056884766
357;31.8497371673584
358;31.76630210876465
359;31.684038162231445
360;31.603137969970703
361;31.523391723632812
362;31.444849014282227
363;31.367504119873047
364;31.29134750366211
365;31.216442108154297
366;31.14263916015625
367;31.07004737854004
368;30.998552322387695
369;30.928104400634766
370;30.85873794555664
371;30.790510177612305
372;30.7232723236084
373;30.657175064086914
374;30.592090606689453
375;30.52800941467285
376;30.464855194091797
377;30.40268325805664
378;30.341493606567383
379;30.28131675720215
380;30.22203254699707
381;30.163677215576172
382;30.106287002563477
383;30.049808502197266
384;29.99422264099121
385;29.939512252807617
386;29.88566017150879
387;29.83258056640625
388;29.78041648864746
389;29.7291259765625
390;29.678607940673828
391;29.6289119720459
392;29.58003807067871
393;29.531919479370117
394;29.484601974487305
395;29.438053131103516
396;29.392257690429688
397;29.34711265563965
398;29.30274772644043
399;29.25906753540039
400;29.216123580932617
401;29.173892974853516
402;29.13229751586914
403;29.091360092163086
404;29.05111312866211
405;29.011484146118164
406;28.972476959228516
407;28.934112548828125
408;28.89642333984375
409;28.859281539916992
410;28.822744369506836
411;28.78682518005371
412;28.75145149230957
413;28.71668815612793
414;28.68251609802246
415;28.648889541625977
416;28.61574935913086
417;28.583173751831055
418;28.551101684570312
419;28.51953125
420;28.48850440979004
421;28.457958221435547
422;28.427886962890625
423;28.3983154296875
424;28.369218826293945
425;28.340606689453125
426;28.312471389770508
427;28.284738540649414
428;28.25749397277832
429;28.23066520690918
430;28.204254150390625
431;28.178237915039062
432;28.152639389038086
433;28.12748146057129
434;28.10264778137207
435;28.07821273803711
436;28.054140090942383
437;28.030426025390625
438;28.007083892822266
439;27.984081268310547
440;27.961395263671875
441;27.93903923034668
442;27.91703224182129
443;27.89530372619629
444;27.873905181884766
445;27.85282325744629
446;27.83197021484375
447;27.81144142150879
448;27.791168212890625
449;27.77113914489746
450;27.75140953063965
451;27.731929779052734
452;27.71270751953125
453;27.69371223449707
454;27.67499351501465
455;27.65645408630371
456;27.63810157775879
457;27.61997413635254
458;27.60200309753418
459;27.584197998046875
460;27.566524505615234
461;27.548978805541992
462;27.531557083129883
463;27.51423454284668
464;27.496997833251953
465;27.479867935180664
466;27.462787628173828
467;27.44576072692871
468;27.4287166595459
469;27.411718368530273
470;27.394655227661133
471;27.37753677368164
472;27.360336303710938
473;27.3430233001709
474;27.325551986694336
475;27.30790901184082
476;27.29009437561035
477;27.271989822387695
478;27.2535400390625
479;27.234783172607422
480;27.215608596801758
481;27.195932388305664
482;27.175724029541016
483;27.1549129486084
484;27.133413314819336
485;27.11115837097168
486;27.088083267211914
487;27.06410789489746
488;27.039154052734375
489;27.0131893157959
490;26.986156463623047
491;26.95806884765625
492;26.92872428894043
493;26.898271560668945
494;26.866683959960938
495;26.834272384643555
496;26.801586151123047
497;26.768930435180664
498;26.7370548248291
499;26.705778121948242
500;26.675533294677734
501;26.64661979675293
502;26.61934471130371
503;26.594036102294922
504;26.570650100708008
505;26.549118041992188
506;26.529211044311523
507;26.510555267333984
508;26.49267578125
509;26.475101470947266
510;26.457380294799805
511;26.43906021118164
512;26.420032501220703
513;26.40011978149414
514;26.379148483276367
515;26.357208251953125
516;26.33441162109375
517;26.310943603515625
518;26.287057876586914
519;26.262887954711914
520;26.23853874206543
521;26.214136123657227
522;26.189807891845703
523;26.165578842163086
524;26.1414794921875
525;26.117570877075195
526;26.093795776367188
527;26.070175170898438
528;26.046701431274414
529;26.023366928100586
530;26.00027084350586
531;25.977413177490234
532;25.954843521118164
533;25.932239532470703
534;25.909809112548828
535;25.887754440307617
536;25.866018295288086
537;25.84507942199707
538;25.824445724487305
539;25.804018020629883
540;25.784259796142578
541;25.7647705078125
542;25.745288848876953
543;25.725988388061523
544;25.70681381225586
545;25.687633514404297
546;25.66842269897461
547;25.64912986755371
548;25.629703521728516
549;25.610158920288086
550;25.590471267700195
551;25.570566177368164
552;25.5505428314209
553;25.530534744262695
554;25.51043701171875
555;25.49024772644043
556;25.46993637084961
557;25.449296951293945
558;25.42841911315918
559;25.407344818115234
560;25.38618278503418
561;25.36495018005371
562;25.343753814697266
563;25.322269439697266
564;25.301259994506836
565;25.280378341674805
566;25.25931167602539
567;25.238037109375
568;25.21670913696289
569;25.19510841369629
570;25.17301368713379
571;25.150421142578125
572;25.12727928161621
573;25.10368537902832
574;25.079748153686523
575;25.05521583557129
576;25.030126571655273
577;25.004446029663086
578;24.978193283081055
579;24.95130729675293
580;24.923906326293945
581;24.895498275756836
582;24.866092681884766
583;24.83566665649414
584;24.80405616760254
585;24.77096176147461
586;24.737504959106445
587;24.70382308959961
588;24.66988754272461
589;24.635446548461914
590;24.600353240966797
591;24.56467628479004
592;24.529327392578125
593;24.49408531188965
594;24.45960807800293
595;24.425989151000977
596;24.395389556884766
597;24.36524772644043
598;24.3355712890625
599;24.305828094482422
600;24.275957107543945
601;24.246057510375977
602;24.21512222290039
603;24.182851791381836
604;24.14886474609375
605;24.113149642944336
606;24.07564926147461
607;24.036306381225586
608;23.994979858398438
609;23.951509475708008
610;23.907217025756836
611;23.860504150390625
612;23.8111515045166
613;23.758846282958984
614;23.703031539916992
615;23.644193649291992
616;23.582027435302734
617;23.515607833862305
618;23.44580078125
619;23.374332427978516
620;23.30160903930664
621;23.230056762695312
622;23.162050247192383
623;23.09979820251465
624;23.04574966430664
625;23.001773834228516
626;22.96551513671875
627;22.933101654052734
628;22.90300178527832
629;22.87447738647461
630;22.843597412109375
631;22.808202743530273
632;22.76806640625
633;22.724185943603516
634;22.677459716796875
635;22.62894630432129
636;22.58003044128418
637;22.532182693481445
638;22.486812591552734
639;22.44302749633789
640;22.40093421936035
641;22.35921287536621
642;22.317684173583984
643;22.27663230895996
644;22.235946655273438
645;22.195608139038086
646;22.153966903686523
647;22.11128807067871
648;22.067806243896484
649;22.024341583251953
650;21.980804443359375
651;21.937862396240234
652;21.895456314086914
653;21.852407455444336
654;21.80862045288086
655;21.764726638793945
656;21.72162437438965
657;21.67860221862793
658;21.635271072387695
659;21.591339111328125
660;21.54722785949707
661;21.502233505249023
662;21.456844329833984
663;21.41061019897461
664;21.3643798828125
665;21.3175048828125
666;21.270597457885742
667;21.22257423400879
668;21.1739501953125
669;21.125165939331055
670;21.075529098510742
671;21.02458381652832
672;20.971893310546875
673;20.91847801208496
674;20.864206314086914
675;20.80952262878418
676;20.75250244140625
677;20.694900512695312
678;20.635040283203125
679;20.573654174804688
680;20.510379791259766
681;20.44533348083496
682;20.378347396850586
683;20.31031608581543
684;20.241043090820312
685;20.17054557800293
686;20.09810447692871
687;20.02433967590332
688;19.948787689208984
689;19.87082862854004
690;19.790843963623047
691;19.70780372619629
692;19.621932983398438
693;19.534135818481445
694;19.443588256835938
695;19.349863052368164
696;19.252941131591797
697;19.15384292602539
698;19.05211067199707
699;18.94968032836914
700;18.84554100036621
701;18.740570068359375
702;18.63640785217285
703;18.533477783203125
704;18.43276596069336
705;18.33432388305664
706;18.238527297973633
707;18.145662307739258
708;18.055795669555664
709;17.967832565307617
710;17.88203239440918
711;17.796403884887695
712;17.710189819335938
713;17.624168395996094
714;17.537744522094727
715;17.448848724365234
716;17.358312606811523
717;17.26643943786621
718;17.17073631286621
719;17.075368881225586
720;16.980470657348633
721;16.889408111572266
722;16.803607940673828
723;16.71937370300293
724;16.635915756225586
725;16.552488327026367
726;16.468708038330078
727;16.38534927368164
728;16.30061149597168
729;16.2154483795166
730;16.12921142578125
731;16.041400909423828
732;15.951529502868652
733;15.859899520874023
734;15.767511367797852
735;15.674294471740723
736;15.579859733581543
737;15.486137390136719
738;15.39234447479248
739;15.298851013183594
740;15.206059455871582
741;15.113926887512207
742;15.022689819335938
743;14.934296607971191
744;14.847506523132324
745;14.762261390686035
746;14.679064750671387
747;14.59827995300293
748;14.519622802734375
749;14.445137977600098
750;14.375140190124512
751;14.310432434082031
752;14.246665954589844
753;14.183561325073242
754;14.12209415435791
755;14.061179161071777
756;14.000350952148438
757;13.939963340759277
758;13.88039493560791
759;13.821355819702148
760;13.76244831085205
761;13.703913688659668
762;13.645713806152344
763;13.58753490447998
764;13.530363082885742
765;13.474764823913574
766;13.419230461120605
767;13.363317489624023
768;13.306818962097168
769;13.249496459960938
770;13.191351890563965
771;13.13178539276123
772;13.070205688476562
773;13.006112098693848
774;12.93934440612793
775;12.869720458984375
776;12.796900749206543
777;12.71998405456543
778;12.638970375061035
779;12.554032325744629
780;12.46505069732666
781;12.372458457946777
782;12.27783489227295
783;12.18256664276123
784;12.08870792388916
785;11.998926162719727
786;11.914323806762695
787;11.835564613342285
788;11.763184547424316
789;11.695666313171387
790;11.631418228149414
791;11.568909645080566
792;11.506251335144043
793;11.442049026489258
794;11.374579429626465
795;11.303571701049805
796;11.22845458984375
797;11.149469375610352
798;11.066530227661133
799;10.979970932006836
800;10.889769554138184
801;10.795891761779785
802;10.698591232299805
803;10.599017143249512
804;10.498017311096191
805;10.397418022155762
806;10.298836708068848
807;10.204256057739258
808;10.115640640258789
809;10.035980224609375
810;9.965644836425781
811;9.901208877563477
812;9.83879280090332
813;9.781229972839355
814;9.73115062713623
815;9.675577163696289
816;9.623475074768066
817;9.567818641662598
818;9.503951072692871
819;9.449275016784668
820;9.384371757507324
821;9.318482398986816
822;9.259576797485352
823;9.195114135742188
824;9.13214111328125
825;9.075423240661621
826;9.01008129119873
827;8.952630043029785
828;8.893324851989746
829;8.841384887695312
830;8.777958869934082
831;8.724114418029785
832;8.6644926071167
833;8.599313735961914
834;8.545729637145996
835;8.47331428527832
836;8.411105155944824
837;8.346570014953613
838;8.269429206848145
839;8.185976028442383
840;8.10588264465332
841;8.030426979064941
842;7.939206600189209
843;7.8571648597717285
844;7.779480934143066
845;7.7002434730529785
846;7.6227569580078125
847;7.5624260902404785
848;7.496717929840088
849;7.447892189025879
850;7.397830486297607
851;7.350954532623291
852;7.310787677764893
853;7.273007869720459
854;7.234177589416504
855;7.195428371429443
856;7.155144214630127
857;7.114548206329346
858;7.069157123565674
859;7.03084135055542
860;6.981037616729736
861;6.938729286193848
862;6.89570951461792
863;6.852318286895752
864;6.814201831817627
865;6.77096700668335
866;6.740489482879639
867;6.6957502365112305
868;6.661250591278076
869;6.620032787322998
870;6.5819878578186035
871;6.548520565032959
872;6.51305627822876
873;6.483862400054932
874;6.44236421585083
875;6.4020514488220215
876;6.380564212799072
877;6.333296298980713
878;6.3112568855285645
879;6.2694525718688965
880;6.221688270568848
881;6.198253631591797
882;6.147255897521973
883;6.114579200744629
884;6.079337120056152
885;6.033413410186768
886;6.001121520996094
887;5.957973003387451
888;5.925817012786865
889;5.877795696258545
890;5.844284534454346
891;5.798591613769531
892;5.764222145080566
893;5.71211576461792
894;5.684103965759277
895;5.627783298492432
896;5.590321063995361
897;5.534214496612549
898;5.5006256103515625
899;5.444569110870361
900;5.402024745941162
901;5.340752601623535
902;5.307766914367676
903;5.250870227813721
904;5.209920406341553
905;5.141193389892578
906;5.138128757476807
907;5.052364826202393
908;5.0284223556518555
909;4.959490776062012
910;4.926945209503174
911;4.879514217376709
912;4.842158317565918
913;4.809128761291504
914;4.780841827392578
915;4.744908332824707
916;4.715363025665283
917;4.689072132110596
918;4.656504154205322
919;4.644099712371826
920;4.6060590744018555
921;4.575969219207764
922;4.555120944976807
923;4.537101745605469
924;4.497694492340088
925;4.4789814949035645
926;4.452378749847412
927;4.4232354164123535
928;4.400495529174805
929;4.381375789642334
930;4.348948955535889
931;4.333844184875488
932;4.312378406524658
933;4.282839775085449
934;4.279788494110107
935;4.234854698181152
936;4.229711055755615
937;4.193789958953857
938;4.17007303237915
939;4.151010990142822
940;4.141542911529541
941;4.118305683135986
942;4.092278957366943
943;4.098495006561279
944;4.053353309631348
945;4.061351776123047
946;4.0179572105407715
947;3.998805522918701
948;4.0031208992004395
949;3.9698777198791504
950;3.9719412326812744
951;3.9338576793670654
952;3.9281437397003174
953;3.8990025520324707
954;3.899705648422241
955;3.871168613433838
956;3.863819122314453
957;3.834993362426758
958;3.8273048400878906
959;3.805166006088257
960;3.7863214015960693
961;3.7866580486297607
962;3.756716012954712
963;3.7424092292785645
964;3.733302593231201
965;3.713090181350708
966;3.6964282989501953
967;3.689218044281006
968;3.67340087890625
969;3.656189203262329
970;3.6457712650299072
971;3.627690553665161
972;3.6142795085906982
973;3.5947914123535156
974;3.5925636291503906
975;3.566951036453247
976;3.5509212017059326
977;3.5500781536102295
978;3.5223255157470703
979;3.5210509300231934
980;3.4943182468414307
981;3.4863362312316895
982;3.4859652519226074
983;3.4653685092926025
984;3.4421133995056152
985;3.4318950176239014
986;3.4088551998138428
987;3.4029617309570312
988;3.3689017295837402
989;3.3898587226867676
990;3.354198455810547
991;3.3453266620635986
992;3.3180460929870605
993;3.2860565185546875
994;3.2728731632232666
995;3.2528140544891357
996;3.240062713623047
997;3.23612904548645
998;3.2065036296844482
999;3.2074389457702637
1000;3.17447829246521
1001;3.1641011238098145
1002;3.141953945159912
1003;3.125030994415283
1004;3.1115305423736572
1005;3.0900299549102783
1006;3.0793185234069824
1007;3.052915573120117
1008;3.053666353225708
1009;3.0206167697906494
1010;3.0371055603027344
1011;3.0044009685516357
1012;2.9924564361572266
1013;2.9769251346588135
1014;2.9514269828796387
1015;2.943634033203125
1016;2.923426389694214
1017;2.9218432903289795
1018;2.9088492393493652
1019;2.8951077461242676
1020;2.8854854106903076
1021;2.8630993366241455
1022;2.8602912425994873
1023;2.8417887687683105
1024;2.836738109588623
1025;2.821488618850708
1026;2.815030813217163
1027;2.802069902420044
1028;2.7941668033599854
1029;2.786557674407959
1030;2.7756502628326416
1031;2.764408588409424
1032;2.7580764293670654
1033;2.7440948486328125
1034;2.7395968437194824
1035;2.726144313812256
1036;2.7205004692077637
1037;2.7098329067230225
1038;2.7018582820892334
1039;2.6946423053741455
1040;2.693397283554077
1041;2.6764817237854004
1042;2.6745338439941406
1043;2.6638717651367188
1044;2.6531617641448975
1045;2.6474804878234863
1046;2.6399002075195312
1047;2.633713960647583
1048;2.6241281032562256
1049;2.6199440956115723
1050;2.611044406890869
1051;2.6066067218780518
1052;2.608520269393921
1053;2.5900115966796875
1054;2.591956377029419
1055;2.5807604789733887
1056;2.581005334854126
1057;2.56807541847229
1058;2.5699973106384277
1059;2.5533740520477295
1060;2.5562374591827393
1061;2.5420079231262207
1062;2.541360378265381
1063;2.5319228172302246
1064;2.526914596557617
1065;2.522145986557007
1066;2.5131916999816895
1067;2.511413097381592
1068;2.501523733139038
1069;2.4997878074645996
1070;2.4909706115722656
1071;2.4878733158111572
1072;2.4812815189361572
1073;2.4762179851531982
1074;2.4717326164245605
1075;2.4654247760772705
1076;2.4620144367218018
1077;2.4554309844970703
1078;2.4521453380584717
1079;2.446112871170044
1080;2.442242383956909
1081;2.4372692108154297
1082;2.432701826095581
1083;2.4284799098968506
1084;2.4236409664154053
1085;2.4218156337738037
1086;2.4224116802215576
1087;2.4129443168640137
1088;2.4131126403808594
1089;2.4034838676452637
1090;2.404240846633911
1091;2.3978583812713623
1092;2.396808385848999
1093;2.3877811431884766
1094;2.3887791633605957
1095;2.3796894550323486
1096;2.380207061767578
1097;2.3727376461029053
1098;2.37153697013855
1099;2.3660800457000732
1100;2.3632142543792725
1101;2.3595244884490967
1102;2.3552703857421875
1103;2.3526854515075684
1104;2.3478569984436035
1105;2.345773458480835
1106;2.34079909324646
1107;2.33888840675354
1108;2.3341739177703857
1109;2.3320693969726562
1110;2.3278214931488037
1111;2.325443744659424
1112;2.321592330932617
1113;2.3189074993133545
1114;2.3155200481414795
1115;2.31262469291687
1116;2.3096046447753906
1117;2.3065497875213623
1118;2.303760528564453
1119;2.3006815910339355
1120;2.2979965209960938
1121;2.2949154376983643
1122;2.292285442352295
1123;2.2893118858337402
1124;2.2867236137390137
1125;2.2838358879089355
1126;2.281266689300537
1127;2.2784934043884277
1128;2.2759387493133545
1129;2.2732467651367188
1130;2.2712883949279785
1131;2.276158094406128
1132;2.2659239768981934
1133;2.272620677947998
1134;2.264824151992798
1135;2.2650763988494873
1136;2.258890390396118
1137;2.2601821422576904
1138;2.2528533935546875
1139;2.254875421524048
1140;2.247593402862549
1141;2.249377965927124
1142;2.242577314376831
1143;2.2441020011901855
1144;2.237971067428589
1145;2.238882303237915
1146;2.233431339263916
1147;2.2338991165161133
1148;2.2289881706237793
1149;2.2289068698883057
1150;2.2246153354644775
1151;2.2241909503936768
1152;2.2203845977783203
1153;2.2195515632629395
1154;2.2161705493927
1155;2.214973211288452
1156;2.212005376815796
1157;2.2105252742767334
1158;2.2079215049743652
1159;2.2062275409698486
1160;2.203972101211548
1161;2.202030658721924
1162;2.200010299682617
1163;2.19783353805542
1164;2.1960437297821045
1165;2.1938586235046387
1166;2.1921744346618652
1167;2.1899187564849854
1168;2.1882741451263428
1169;2.1861016750335693
1170;2.1844589710235596
1171;2.1823556423187256
1172;2.1806774139404297
1173;2.178647994995117
1174;2.1769258975982666
1175;2.174974203109741
1176;2.1732304096221924
1177;2.1713647842407227
1178;2.1695425510406494
1179;2.1677935123443604
1180;2.1659064292907715
1181;2.1641972064971924
1182;2.1622889041900635
1183;2.160576105117798
1184;2.158595323562622
1185;2.156609058380127
1186;2.1544277667999268
1187;2.1522395610809326
1188;2.1499600410461426
1189;2.1475980281829834
1190;2.145216226577759
1191;2.142709970474243
1192;2.1402010917663574
1193;2.1376121044158936
1194;2.1351921558380127
1195;2.1330227851867676
1196;2.1308066844940186
1197;2.12861967086792
1198;2.1263718605041504
1199;2.12412691116333
1200;2.121973752975464
1201;2.1281533241271973
1202;2.1188724040985107
1203;2.120839834213257
1204;2.1368281841278076
1205;2.1113975048065186
1206;2.1261813640594482
1207;2.1268773078918457
1208;2.1091887950897217
1209;2.124990701675415
1210;2.1006124019622803
1211;2.117934226989746
1212;2.0980937480926514
1213;2.103760242462158
1214;2.0981247425079346
1215;2.0900211334228516
1216;2.0961952209472656
1217;2.082446575164795
1218;2.08943772315979
1219;2.0803568363189697
1220;2.0780656337738037
1221;2.078176736831665
1222;2.068904161453247
1223;2.071690320968628
1224;2.0642285346984863
1225;2.062836170196533
1226;2.0607855319976807
1227;2.0547144412994385
1228;2.055091142654419
1229;2.0492653846740723
1230;2.0470824241638184
1231;2.0446057319641113
1232;2.0394535064697266
1233;2.0382039546966553
1234;2.0336689949035645
1235;2.0303385257720947
1236;2.0279905796051025
1237;2.0231852531433105
1238;2.020700693130493
1239;2.0170905590057373
1240;2.0128254890441895
1241;2.0099849700927734
1242;2.0061874389648438
1243;2.0021636486053467
1244;1.9988558292388916
1245;1.994933009147644
1246;1.990887999534607
1247;1.9870901107788086
1248;1.9838926792144775
1249;1.990559697151184
1250;1.9869455099105835
1251;1.9805099964141846
1252;1.9681155681610107
1253;1.9704034328460693
1254;1.9652241468429565
1255;1.9555352926254272
1256;1.9560937881469727
1257;1.9511425495147705
1258;1.9414666891098022
1259;1.939131736755371
1260;1.9374383687973022
1261;1.9293005466461182
1262;1.922057867050171
1263;1.9194133281707764
1264;1.9164398908615112
1265;1.91110360622406
1266;1.9031188488006592
1267;1.896354079246521
1268;1.891492247581482
1269;1.8875242471694946
1270;1.884889006614685
1271;1.8839868307113647
1272;1.9355672597885132
1273;2.0788590908050537
1274;2.06764554977417
1275;1.9060536623001099
1276;2.0422816276550293
1277;1.9985668659210205
1278;1.9526981115341187
1279;2.0189764499664307
1280;1.857140302658081
1281;1.969374656677246
1282;2.055492877960205
1283;1.8601000308990479
1284;1.9664369821548462
1285;1.8571034669876099
1286;1.9394876956939697
1287;1.8896963596343994
1288;1.8536441326141357
1289;1.9103068113327026
1290;1.7902268171310425
1291;1.899763822555542
1292;1.8179737329483032
1293;1.8397818803787231
1294;1.8104512691497803
1295;1.8300215005874634
1296;1.7729883193969727
1297;1.802824854850769
1298;1.7630404233932495
1299;1.767207384109497
1300;1.781554937362671
1301;1.724212884902954
1302;1.7464914321899414
1303;1.7211655378341675
1304;1.727863073348999
1305;1.7104464769363403
1306;1.7064539194107056
1307;1.7019684314727783
1308;1.6768251657485962
1309;1.698637843132019
1310;1.6690553426742554
1311;1.6676616668701172
1312;1.67262864112854
1313;1.6469666957855225
1314;1.6638376712799072
1315;1.6365420818328857
1316;1.636842131614685
1317;1.642713189125061
1318;1.61614990234375
1319;1.612396240234375
1320;1.6188355684280396
1321;1.6003879308700562
1322;1.5947952270507812
1323;1.6017802953720093
1324;1.5836259126663208
1325;1.571968674659729
1326;1.575360655784607
1327;1.576314091682434
1328;1.5646493434906006
1329;1.550495982170105
1330;1.5439447164535522
1331;1.5426228046417236
1332;1.5395697355270386
1333;1.5294570922851562
1334;1.5202398300170898
1335;1.5115690231323242
1336;1.5051395893096924
1337;1.4982513189315796
1338;1.4935283660888672
1339;1.4934475421905518
1340;1.4993027448654175
1341;1.5369681119918823
1342;1.5666329860687256
1343;1.5490453243255615
1344;1.481825828552246
1345;1.5117018222808838
1346;1.4724597930908203
1347;1.4328060150146484
1348;1.4709821939468384
1349;1.5996016263961792
1350;1.6101791858673096
1351;1.4700167179107666
1352;1.5660794973373413
1353;1.4985496997833252
1354;1.5127837657928467
1355;1.438822865486145
1356;1.4532397985458374
1357;1.399880051612854
1358;1.441036581993103
1359;1.4117507934570312
1360;1.3720520734786987
1361;1.3789405822753906
1362;1.3502861261367798
1363;1.3525601625442505
1364;1.3565112352371216
1365;1.334939956665039
1366;1.334387183189392
1367;1.3087128400802612
1368;1.3030017614364624
1369;1.3053117990493774
1370;1.2854480743408203
1371;1.2822058200836182
1372;1.2684037685394287
1373;1.2586511373519897
1374;1.2574633359909058
1375;1.2482328414916992
1376;1.2469621896743774
1377;1.2331947088241577
1378;1.2313133478164673
1379;1.2210496664047241
1380;1.2141315937042236
1381;1.2141892910003662
1382;1.2044495344161987
1383;1.1948596239089966
1384;1.1917133331298828
1385;1.1856114864349365
1386;1.1816927194595337
1387;1.1768020391464233
1388;1.1695655584335327
1389;1.1652899980545044
1390;1.1597522497177124
1391;1.1555043458938599
1392;1.1504229307174683
1393;1.1442910432815552
1394;1.1400665044784546
1395;1.135094165802002
1396;1.1310511827468872
1397;1.1261179447174072
1398;1.1210695505142212
1399;1.1226396560668945
1400;1.1370395421981812
1401;1.1202479600906372
1402;1.1058169603347778
1403;1.1026791334152222
1404;1.0998228788375854
1405;1.0941342115402222
1406;1.0921330451965332
1407;1.0857901573181152
1408;1.0832704305648804
1409;1.0784457921981812
1410;1.0744085311889648
1411;1.071861982345581
1412;1.0665826797485352
1413;1.0634543895721436
1414;1.0621753931045532
1415;1.0735100507736206
1416;1.0564711093902588
1417;1.0502729415893555
1418;1.0481764078140259
1419;1.0459760427474976
1420;1.041851282119751
1421;1.0399380922317505
1422;1.0343973636627197
1423;1.0316613912582397
1424;1.02674400806427
1425;1.0234684944152832
1426;1.0232075452804565
1427;1.053100347518921
1428;1.032834529876709
1429;1.0161586999893188
1430;1.0117251873016357
1431;1.0138911008834839
1432;1.003438949584961
1433;1.0084704160690308
1434;0.9991603493690491
1435;0.9967894554138184
1436;0.9947714805603027
1437;0.9869166016578674
1438;0.9955697655677795
1439;1.0027307271957397
1440;0.9830894470214844
1441;0.9760205149650574
1442;0.9739364981651306
1443;0.9711240530014038
1444;0.9684737920761108
1445;0.9657353162765503
1446;0.9622783064842224
1447;0.959267258644104
1448;0.955716073513031
1449;0.9534390568733215
1450;0.9629074931144714
1451;0.9627784490585327
1452;0.9592770934104919
1453;0.9426321983337402
1454;0.9582328200340271
1455;0.9890785217285156
1456;0.9375961422920227
1457;0.9821558594703674
1458;1.00618577003479
1459;0.9461134672164917
1460;1.0089004039764404
1461;0.9565572738647461
1462;0.9742504954338074
1463;0.9459018707275391
1464;0.9572702050209045
1465;0.9585561156272888
1466;0.9431867003440857
1467;0.944675862789154
1468;0.9079346060752869
1469;0.9285856485366821
1470;0.9026196599006653
1471;0.9209221005439758
1472;0.9131098389625549
1473;0.9128354787826538
1474;0.9027839303016663
1475;0.8970257639884949
1476;0.9000927209854126
1477;0.8929966688156128
1478;0.8884908556938171
1479;0.8809185028076172
1480;0.880195677280426
1481;0.8757113814353943
1482;0.8763068914413452
1483;0.8707365989685059
1484;0.8673287034034729
1485;0.8652474284172058
1486;0.8684815168380737
1487;0.8606038093566895
1488;0.8645114302635193
1489;0.8505340814590454
1490;0.8541880249977112
1491;0.8444636464118958
1492;0.8543863296508789
1493;0.864316999912262
1494;0.8425751328468323
1495;0.8724914193153381
1496;0.852584719657898
1497;0.8476306796073914
1498;0.8504530787467957
1499;0.8289403915405273
1500;0.8380856513977051
1501;0.8235164880752563
1502;0.8305712938308716
1503;0.8240442276000977
1504;0.8228496313095093
1505;0.8144525289535522
1506;0.8197717666625977
1507;0.8475857377052307
1508;0.8075091242790222
1509;0.8566816449165344
1510;0.8187055587768555
1511;0.8190654516220093
1512;0.820245087146759
1513;0.7893550992012024
1514;0.803248941898346
1515;0.7835689187049866
1516;0.7992766499519348
1517;0.8106279969215393
1518;0.7869341969490051
1519;0.8074379563331604
1520;0.7781909704208374
1521;0.7895635962486267
1522;0.7769655585289001
1523;0.7697410583496094
1524;0.7782063484191895
1525;0.7582211494445801
1526;0.7706736922264099
1527;0.7606071829795837
1528;0.7589645385742188
1529;0.7596396207809448
1530;0.7431865334510803
1531;0.7495068907737732
1532;0.7379401922225952
1533;0.7425470948219299
1534;0.7742977738380432
1535;0.735268235206604
1536;0.7833846211433411
1537;0.7398849725723267
1538;0.7474827766418457
1539;0.7336674332618713
1540;0.7212796211242676
1541;0.7364860773086548
1542;0.7117804288864136
1543;0.7446237802505493
1544;0.7170281410217285
1545;0.714889407157898
1546;0.7195665240287781
1547;0.6934157609939575
1548;0.7034754157066345
1549;0.6888524293899536
1550;0.6979789733886719
1551;0.7072991728782654
1552;0.6857055425643921
1553;0.7124212384223938
1554;0.6803016662597656
1555;0.6867377161979675
1556;0.6762872338294983
1557;0.6670039296150208
1558;0.6672085523605347
1559;0.6582155227661133
1560;0.6608661413192749
1561;0.6609452962875366
1562;0.6488090753555298
1563;0.6546570062637329
1564;0.6453140377998352
1565;0.641198992729187
1566;0.6410471200942993
1567;0.631542980670929
1568;0.6334279179573059
1569;0.6225577592849731
1570;0.6318345069885254
1571;0.6426175832748413
1572;0.614631712436676
1573;0.6585476994514465
1574;0.6383914947509766
1575;0.6230133771896362
1576;0.648952066898346
1577;0.6113042235374451
1578;0.6163133382797241
1579;0.6080711483955383
1580;0.5882628560066223
1581;0.5951381921768188
1582;0.5785998106002808
1583;0.599052906036377
1584;0.5984658002853394
1585;0.5715437531471252
1586;0.6199389696121216
1587;0.6142330169677734
1588;0.5720245242118835
1589;0.6424331665039062
1590;0.5978026986122131
1591;0.5841887593269348
1592;0.6151143908500671
1593;0.552115797996521
1594;0.577524721622467
1595;0.5488623976707458
1596;0.5617455244064331
1597;0.6101808547973633
1598;0.5328037142753601
1599;0.6362587809562683
1600;0.6011258363723755
1601;0.5524188876152039
1602;0.6428417563438416
1603;0.5418661832809448
1604;0.5683302879333496
1605;0.5559796690940857
1606;0.5129696726799011
1607;0.5398862957954407
1608;0.5063223242759705
1609;0.5285806059837341
1610;0.5365832448005676
1611;0.5026569366455078
1612;0.5481456518173218
1613;0.5154169201850891
1614;0.5062199831008911
1615;0.5301522612571716
1616;0.4955842196941376
1617;0.49787285923957825
1618;0.500393271446228
1619;0.477780282497406
1620;0.4852287769317627
1621;0.4764070212841034
1622;0.4732076823711395
1623;0.4717640280723572
1624;0.46209001541137695
1625;0.4730159640312195
1626;0.46829989552497864
1627;0.45334845781326294
1628;0.472360759973526
1629;0.4679470360279083
1630;0.44642192125320435
1631;0.4717598259449005
1632;0.48269638419151306
1633;0.44092050194740295
1634;0.48459091782569885
1635;0.49915313720703125
1636;0.43862682580947876
1637;0.5001634359359741
1638;0.4904313087463379
1639;0.44300252199172974
1640;0.5090564489364624
1641;0.46188873052597046
1642;0.4522547721862793
1643;0.48045259714126587
1644;0.42947033047676086
1645;0.44731682538986206
1646;0.4394058883190155
1647;0.41749030351638794
1648;0.43662187457084656
1649;0.4084664285182953
1650;0.4259045124053955
1651;0.43877944350242615
1652;0.40073445439338684
1653;0.43828457593917847
1654;0.4375593960285187
1655;0.3975495398044586
1656;0.44762444496154785
1657;0.4409836232662201
1658;0.39917662739753723
1659;0.4500313401222229
1660;0.4143323302268982
1661;0.40701526403427124
1662;0.4272652566432953
1663;0.3823181092739105
1664;0.41617733240127563
1665;0.3809851109981537
1666;0.4012511670589447
1667;0.432065486907959
1668;0.3701808750629425
1669;0.4336804747581482
1670;0.4437916576862335
1671;0.3688143789768219
1672;0.44709402322769165
1673;0.4137084186077118
1674;0.38521653413772583
1675;0.42847225069999695
1676;0.36878281831741333
1677;0.4087230861186981
1678;0.37952473759651184
1679;0.3793748915195465
1680;0.3845648169517517
1681;0.35322195291519165
1682;0.3830302059650421
1683;0.36310356855392456
1684;0.3529241979122162
1685;0.3760054409503937
1686;0.35113242268562317
1687;0.34784775972366333
1688;0.35843512415885925
1689;0.3357415497303009
1690;0.3537091314792633
1691;0.33223089575767517
1692;0.3441750109195709
1693;0.3581884801387787
1694;0.3260876536369324
1695;0.35796427726745605
1696;0.3497665822505951
1697;0.32540249824523926
1698;0.354015976190567
1699;0.3362003266811371
1700;0.32788845896720886
1701;0.3422083854675293
1702;0.3140875995159149
1703;0.33572128415107727
1704;0.31463757157325745
1705;0.32051920890808105
1706;0.3182201087474823
1707;0.3072252571582794
1708;0.32395270466804504
1709;0.3171418011188507
1710;0.3021637499332428
1711;0.3229566514492035
1712;0.32042643427848816
1713;0.29747575521469116
1714;0.31743088364601135
1715;0.2954065501689911
1716;0.30702176690101624
1717;0.30224722623825073
1718;0.29153162240982056
1719;0.3022775650024414
1720;0.28522661328315735
1721;0.29982468485832214
1722;0.320551335811615
1723;0.2837946116924286
1724;0.2821800410747528
1725;0.3067014515399933
1726;0.2823651134967804
1727;0.290671169757843
1728;0.29041221737861633
1729;0.2759353518486023
1730;0.28720441460609436
1731;0.27293726801872253
1732;0.27771058678627014
1733;0.2741270959377289
1734;0.2673059403896332
1735;0.27329257130622864
1736;0.26555100083351135
1737;0.2638406455516815
1738;0.26058346033096313
1739;0.2610105574131012
1740;0.2601425349712372
1741;0.2565130591392517
1742;0.2587251365184784
1743;0.2778182625770569
1744;0.2598070502281189
1745;0.2588984966278076
1746;0.26600831747055054
1747;0.25073450803756714
1748;0.2586269974708557
1749;0.28180158138275146
1750;0.25137823820114136
1751;0.26144295930862427
1752;0.30820903182029724
1753;0.25406569242477417
1754;0.2690179944038391
1755;0.34009549021720886
1756;0.25176236033439636
1757;0.2940521836280823
1758;0.35172122716903687
1759;0.24345161020755768
1760;0.3201441764831543
1761;0.33083978295326233
1762;0.24554356932640076
1763;0.32660481333732605
1764;0.25154349207878113
1765;0.27545878291130066
1766;0.2840344309806824
1767;0.23540079593658447
1768;0.2839645445346832
1769;0.2387101650238037
1770;0.2560090720653534
1771;0.31672564148902893
1772;0.22934946417808533
1773;0.2896903455257416
1774;0.3307013213634491
1775;0.2253868281841278
1776;0.3153929114341736
1777;0.28241199254989624
1778;0.24723270535469055
1779;0.2921278178691864
1780;0.22652065753936768
1781;0.28436389565467834
1782;0.22763505578041077
1783;0.25403204560279846
1784;0.2401222139596939
1785;0.22258126735687256
1786;0.25461262464523315
1787;0.22662857174873352
1788;0.22300951182842255
1789;0.23891857266426086
1790;0.21483536064624786
1791;0.22094175219535828
1792;0.22195596992969513
1793;0.21075914800167084
1794;0.2231954038143158
1795;0.20704372227191925
1796;0.21498893201351166
1797;0.20759473741054535
1798;0.20607374608516693
1799;0.21023602783679962
1800;0.2046929895877838
1801;0.20104864239692688
1802;0.20739547908306122
1803;0.20627626776695251
1804;0.19720861315727234
1805;0.20351803302764893
1806;0.19661489129066467
1807;0.19797727465629578
1808;0.19930985569953918
1809;0.1931157410144806
1810;0.19785889983177185
1811;0.19164259731769562
1812;0.1952841728925705
1813;0.21279799938201904
1814;0.19187864661216736
1815;0.18849660456180573
1816;0.19198332726955414
1817;0.18878173828125
1818;0.18785548210144043
1819;0.1883227527141571
1820;0.18457959592342377
1821;0.18600678443908691
1822;0.18363730609416962
1823;0.18278543651103973
1824;0.18297798931598663
1825;0.1803715080022812
1826;0.18023528158664703
1827;0.18153557181358337
1828;0.1865861415863037
1829;0.18077452480793
1830;0.17857716977596283
1831;0.17754337191581726
1832;0.17883369326591492
1833;0.17590031027793884
1834;0.17626406252384186
1835;0.1751692295074463
1836;0.17329783737659454
1837;0.1737595945596695
1838;0.17182210087776184
1839;0.1711522489786148
1840;0.17102749645709991
1841;0.1694771945476532
1842;0.16905808448791504
1843;0.18321958184242249
1844;0.1832166463136673
1845;0.17711639404296875
1846;0.16765891015529633
1847;0.17500565946102142
1848;0.17067740857601166
1849;0.1671597808599472
1850;0.17008118331432343
1851;0.1654287427663803
1852;0.16516616940498352
1853;0.16589125990867615
1854;0.16214172542095184
1855;0.16334450244903564
1856;0.1632385104894638
1857;0.1602400243282318
1858;0.16085338592529297
1859;0.16120345890522003
1860;0.167943075299263
1861;0.16226516664028168
1862;0.1606379896402359
1863;0.15783540904521942
1864;0.16141770780086517
1865;0.1582469940185547
1866;0.1568160206079483
1867;0.15802688896656036
1868;0.15440963208675385
1869;0.15417273342609406
1870;0.15505291521549225
1871;0.15253467857837677
1872;0.15248431265354156
1873;0.1532973349094391
1874;0.16363491117954254
1875;0.1592770516872406
1876;0.15796981751918793
1877;0.1500319540500641
1878;0.15362271666526794
1879;0.15490297973155975
1880;0.1496322602033615
1881;0.15015599131584167
1882;0.15083518624305725
1883;0.14666812121868134
1884;0.1471351683139801
1885;0.14792762696743011
1886;0.14513370394706726
1887;0.1449274718761444
1888;0.14591194689273834
1889;0.14377248287200928
1890;0.1423536241054535
1891;0.14290685951709747
1892;0.1441790759563446
1893;0.15192629396915436
1894;0.15293104946613312
1895;0.1524893045425415
1896;0.1426309496164322
1897;0.14530816674232483
1898;0.1488327533006668
1899;0.14181499183177948
1900;0.14013516902923584
1901;0.14420856535434723
1902;0.1400357037782669
1903;0.13753311336040497
1904;0.1411367952823639
1905;0.13982731103897095
1906;0.13589105010032654
1907;0.13700249791145325
1908;0.13850389420986176
1909;0.14462007582187653
1910;0.13766227662563324
1911;0.13424894213676453
1912;0.14040030539035797
1913;0.13679954409599304
1914;0.13254494965076447
1915;0.1366250365972519
1916;0.13567154109477997
1917;0.13858012855052948
1918;0.13337263464927673
1919;0.12995867431163788
1920;0.13414302468299866
1921;0.1333855241537094
1922;0.13749639689922333
1923;0.13264428079128265
1924;0.1282329261302948
1925;0.13265997171401978
1926;0.13213777542114258
1927;0.12726852297782898
1928;0.12897159159183502
1929;0.1304170787334442
1930;0.12660670280456543
1931;0.12587536871433258
1932;0.12810221314430237
1933;0.1269400417804718
1934;0.12413198500871658
1935;0.12441720813512802
1936;0.12633256614208221
1937;0.12702853977680206
1938;0.13632552325725555
1939;0.13908620178699493
1940;0.14275462925434113
1941;0.12932351231575012
1942;0.12506428360939026
1943;0.1363891214132309
1944;0.1347189098596573
1945;0.12242426723241806
1946;0.1276438683271408
1947;0.13297997415065765
1948;0.1243959590792656
1949;0.12071889638900757
1950;0.12699343264102936
1951;0.1274012327194214
1952;0.12189032882452011
1953;0.11851125210523605
1954;0.12176156789064407
1955;0.12234999984502792
1956;0.1283722072839737
1957;0.12201022356748581
1958;0.11733366549015045
1959;0.12308941036462784
1960;0.12324846535921097
1961;0.11662351340055466
1962;0.11718674749135971
1963;0.12243087589740753
1964;0.13411325216293335
1965;0.1337367594242096
1966;0.13161876797676086
1967;0.11910830438137054
1968;0.11545135825872421
1969;0.12432827055454254
1970;0.12572695314884186
1971;0.11542314291000366
1972;0.11576927453279495
1973;0.12225323915481567
1974;0.11840647459030151
1975;0.11230996996164322
1976;0.11504845321178436
1977;0.11857537925243378
1978;0.1149153858423233
1979;0.11084894835948944
1980;0.11270960420370102
1981;0.11553603410720825
1982;0.12573155760765076
1983;0.1265827715396881
1984;0.1299935132265091
1985;0.11826492846012115
1986;0.11086048185825348
1987;0.12104678899049759
1988;0.12512032687664032
1989;0.11236637830734253
1990;0.11045186966657639
1991;0.11939941346645355
1992;0.11781949549913406
1993;0.10911787301301956
1994;0.1091628149151802
1995;0.11526302248239517
1996;0.11521787941455841
1997;0.12200137227773666
1998;0.11763431876897812
1999;0.1069667711853981
2000;0.1100800633430481
2001;0.11647161096334457
2002;0.11079291254281998
2003;0.10549132525920868
2004;0.10965419560670853
2005;0.11172091215848923
2006;0.10680152475833893
2007;0.10405363142490387
2008;0.10726754367351532
2009;0.11283941566944122
2010;0.1301986426115036
2011;0.14474034309387207
2012;0.15289616584777832
2013;0.12940651178359985
2014;0.1051788479089737
2015;0.1268298625946045
2016;0.14048968255519867
2017;0.11211905628442764
2018;0.10930841416120529
2019;0.12915845215320587
2020;0.11931093782186508
2021;0.1031564250588417
2022;0.10742323100566864
2023;0.11876099556684494
2024;0.11830887943506241
2025;0.11836104840040207
2026;0.10710500925779343
2027;0.10086549073457718
2028;0.10835299640893936
2029;0.11025813966989517
2030;0.10199572890996933
2031;0.10167910903692245
2032;0.10691005736589432
2033;0.1036515012383461
2034;0.0990029126405716
2035;0.10175212472677231
2036;0.11958131939172745
2037;0.12635664641857147
2038;0.1252569854259491
2039;0.10834593325853348
2040;0.0991823822259903
2041;0.11231254786252975
2042;0.11450197547674179
2043;0.10021946579217911
2044;0.10162925720214844
2045;0.11081220954656601
2046;0.10436837375164032
2047;0.09695147722959518
2048;0.10133545845746994
2049;0.10486803203821182
2050;0.10186544805765152
2051;0.09621405601501465
2052;0.09806473553180695
2053;0.10297328233718872
2054;0.11233427375555038
2055;0.11130166798830032
2056;0.1095910593867302
2057;0.09922713786363602
2058;0.09694894403219223
2059;0.10462290048599243
2060;0.10517128556966782
2061;0.09603250026702881
2062;0.09698883444070816
2063;0.10272664576768875
2064;0.09916942566633224
2065;0.09392321109771729
2066;0.09589643776416779
2067;0.0989365428686142
2068;0.09687864780426025
2069;0.09983497112989426
2070;0.09790658205747604
2071;0.09293179214000702
2072;0.09418775886297226
2073;0.0971229150891304
2074;0.09443143755197525
2075;0.09199821949005127
2076;0.09361899644136429
2077;0.09423989802598953
2078;0.09207434207201004
2079;0.0947788804769516
2080;0.09597943723201752
2081;0.10524839907884598
2082;0.10486405342817307
2083;0.09396085888147354
2084;0.09157343208789825
2085;0.09673953801393509
2086;0.0967867448925972
2087;0.09245806932449341
2088;0.09046469628810883
2089;0.09296482056379318
2090;0.09360108524560928
2091;0.09065747261047363
2092;0.08926957100629807
2093;0.09083277732133865
2094;0.09222222864627838
2095;0.09277895838022232
2096;0.10115588456392288
2097;0.10626639425754547
2098;0.11661579459905624
2099;0.10750698298215866
2100;0.09014038741588593
2101;0.09853262454271317
2102;0.11195381730794907
2103;0.099154993891716
2104;0.08878163248300552
2105;0.09580447524785995
2106;0.10118255764245987
2107;0.09562379866838455
2108;0.08769397437572479
2109;0.09055031090974808
2110;0.09787087887525558
2111;0.11148882657289505
2112;0.11218522489070892
2113;0.10810571908950806
2114;0.0925176739692688
2115;0.08897040039300919
2116;0.1003485843539238
2117;0.10124293714761734
2118;0.08848552405834198
2119;0.09015082567930222
2120;0.09827936440706253
2121;0.09279103577136993
2122;0.08552087098360062
2123;0.08906789869070053
2124;0.09370272606611252
2125;0.09325744211673737
2126;0.09505511075258255
2127;0.09045397490262985
2128;0.09037457406520844
2129;0.08661633729934692
2130;0.08488313108682632
2131;0.08771739155054092
2132;0.0879233255982399
2133;0.08466268330812454
2134;0.08450715988874435
2135;0.08636701107025146
2136;0.08539735525846481
2137;0.08353676646947861
2138;0.08290935307741165
2139;0.08397487550973892
2140;0.08615077286958694
2141;0.09617777913808823
2142;0.1032860279083252
2143;0.11336960643529892
2144;0.10249291360378265
2145;0.09139938652515411
2146;0.08407805114984512
2147;0.090335413813591
2148;0.09219297021627426
2149;0.08605639636516571
2150;0.0829024463891983
2151;0.0873623639345169
2152;0.08991234749555588
2153;0.08515637367963791
2154;0.08156030625104904
2155;0.08260123431682587
2156;0.08483555167913437
2157;0.08428891003131866
2158;0.08116399496793747
2159;0.08000840991735458
2160;0.08085455000400543
2161;0.08093801885843277
2162;0.08062256127595901
2163;0.08320394903421402
2164;0.08740732818841934
2165;0.0967329740524292
2166;0.09573303163051605
2167;0.09233278036117554
2168;0.08236207067966461
2169;0.0808831974864006
2170;0.08818209171295166
2171;0.08959783613681793
2172;0.08146920055150986
2173;0.07903022319078445
2174;0.0845566913485527
2175;0.08632608503103256
2176;0.08187688887119293
2177;0.07746587693691254
2178;0.07893284410238266
2179;0.08250580728054047
2180;0.09337078779935837
2181;0.09408630430698395
2182;0.09231884032487869
2183;0.0809679850935936
2184;0.07775046676397324
2185;0.08563793450593948
2186;0.08717967569828033
2187;0.08831246197223663
2188;0.07934855669736862
2189;0.0765470638871193
2190;0.08311175554990768
2191;0.08496475219726562
2192;0.08900036662817001
2193;0.08143313229084015
2194;0.07484734803438187
2195;0.08045224100351334
2196;0.08622252196073532
2197;0.0941791757941246
2198;0.084311343729496
2199;0.0740407183766365
2200;0.08247236162424088
2201;0.09109438955783844
2202;0.09892729669809341
2203;0.08432815223932266
2204;0.07360420376062393
2205;0.08683960884809494
2206;0.09440253674983978
2207;0.09203982353210449
2208;0.07614121586084366
2209;0.07477628439664841
2210;0.08580678701400757
2211;0.08536840975284576
2212;0.08187191933393478
2213;0.07259822636842728
2214;0.07343979924917221
2215;0.07921385765075684
2216;0.07697536051273346
2217;0.07073348015546799
2218;0.07218348234891891
2219;0.07828284800052643
2220;0.09010995179414749
2221;0.0889577642083168
2222;0.08485733717679977
2223;0.07263544946908951
2224;0.07213754951953888
2225;0.08055911958217621
2226;0.0780554860830307
2227;0.06936512142419815
2228;0.07208772748708725
2229;0.07865023612976074
2230;0.08417940139770508
2231;0.07632189989089966
2232;0.07124721258878708
2233;0.06775219738483429
2234;0.07066899538040161
2235;0.07301401346921921
2236;0.06936010718345642
2237;0.06646236777305603
2238;0.06796940416097641
2239;0.07085905969142914
2240;0.07526832818984985
2241;0.0749017521739006
2242;0.07270459830760956
2243;0.06681758910417557
2244;0.06563850492238998
2245;0.06880875676870346
2246;0.06850560009479523
2247;0.0713433176279068
2248;0.06699403375387192
2249;0.06734254211187363
2250;0.06444445252418518
2251;0.06399413198232651
2252;0.06567161530256271
2253;0.06489923596382141
2254;0.06285784393548965
2255;0.0624430850148201
2256;0.06470956653356552
2257;0.07308904081583023
2258;0.07891248166561127
2259;0.08146762102842331
2260;0.0703219547867775
2261;0.06440902501344681
2262;0.06253926455974579
2263;0.0661008358001709
2264;0.0652528777718544
2265;0.06101159378886223
2266;0.061532747000455856
2267;0.0644930750131607
2268;0.06479603797197342
2269;0.06821443140506744
2270;0.067121222615242
2271;0.07064656913280487
2272;0.06456683576107025
2273;0.0594530813395977
2274;0.06468722224235535
2275;0.06738795340061188
2276;0.0717252641916275
2277;0.0641077533364296
2278;0.060432516038417816
2279;0.05710345506668091
2280;0.05899322032928467
2281;0.06138027086853981
2282;0.05826380476355553
2283;0.05566951259970665
2284;0.05696580931544304
2285;0.0601576566696167
2286;0.07078995555639267
2287;0.07565868645906448
2288;0.07916320115327835
2289;0.06653685122728348
2290;0.05925443023443222
2291;0.05559154972434044
2292;0.06020306423306465
2293;0.060394320636987686
2294;0.05508589372038841
2295;0.05442987009882927
2296;0.05684354528784752
2297;0.05680989474058151
2298;0.06017804518342018
2299;0.05810655280947685
2300;0.06040691211819649
2301;0.05585889890789986
2302;0.052630722522735596
2303;0.05555928125977516
2304;0.057417090982198715
2305;0.06100336089730263
2306;0.057337433099746704
2307;0.05485043302178383
2308;0.050826359540224075
2309;0.0504896305501461
2310;0.053003132343292236
2311;0.05327845737338066
2312;0.056388113647699356
2313;0.05405481904745102
2314;0.05626710504293442
2315;0.05239131301641464
2316;0.048764560371637344
2317;0.05001363530755043
2318;0.05300954729318619
2319;0.06400556117296219
2320;0.0678892657160759
2321;0.07121764868497849
2322;0.059600330889225006
2323;0.05229690670967102
2324;0.04872436448931694
2325;0.053758565336465836
2326;0.055057983845472336
2327;0.05009261146187782
2328;0.04703593626618385
2329;0.050484996289014816
2330;0.053125686943531036
2331;0.05937867611646652
2332;0.055615801364183426
2333;0.05375323444604874
2334;0.04741940274834633
2335;0.04604391008615494
2336;0.04890048876404762
2337;0.04922293499112129
2338;0.04548049718141556
2339;0.043900590389966965
2340;0.04743216186761856
2341;0.059514496475458145
2342;0.07584720104932785
2343;0.09247656911611557
2344;0.08921416848897934
2345;0.07449322193861008
2346;0.05076473206281662
2347;0.04990648478269577
2348;0.06533955782651901
2349;0.06452205032110214
2350;0.04598434641957283
2351;0.05059029534459114
2352;0.06480056792497635
2353;0.07252804934978485
2354;0.05885256081819534
2355;0.042348455637693405
2356;0.05398857593536377
2357;0.07124551385641098
2358;0.07460595667362213
2359;0.05527609959244728
2360;0.043095238506793976
2361;0.04269285872578621
2362;0.05088992044329643
2363;0.06108042597770691
2364;0.05306641012430191
2365;0.04065365344285965
2366;0.04863554611802101
2367;0.05944035202264786
2368;0.06099386885762215
2369;0.04741034284234047
2370;0.040150873363018036
2371;0.05110238119959831
2372;0.05960541591048241
2373;0.05853448435664177
2374;0.04475396126508713
2375;0.039127640426158905
2376;0.049330901354551315
2377;0.05689867585897446
2378;0.05698654428124428
2379;0.044979028403759
2380;0.03929286450147629
2381;0.03899816423654556
2382;0.042897969484329224
2383;0.04122473672032356
2384;0.037453748285770416
2385;0.038121335208415985
2386;0.040276069194078445
2387;0.039057087153196335
2388;0.03644823655486107
2389;0.036619506776332855
2390;0.039024095982313156
2391;0.04544234275817871
2392;0.04985160008072853
2393;0.05315126106142998
2394;0.04714527353644371
2395;0.04143479838967323
2396;0.035999566316604614
2397;0.03688971325755119
2398;0.04000090807676315
2399;0.040060605853796005
2400;0.036015111953020096
2401;0.03553849086165428
2402;0.037924446165561676
2403;0.03740861639380455
2404;0.035420987755060196
2405;0.03360501676797867
2406;0.034399475902318954
2407;0.03673389554023743
2408;0.04221729561686516
2409;0.048550862818956375
2410;0.05235183984041214
2411;0.052551813423633575
2412;0.047529615461826324
2413;0.03844425454735756
2414;0.033074576407670975
2415;0.039208102971315384
2416;0.04348338395357132
2417;0.03703423961997032
2418;0.032376982271671295
2419;0.03553333133459091
2420;0.03896547108888626
2421;0.03887104615569115
2422;0.040480855852365494
2423;0.037550728768110275
2424;0.0376654751598835
2425;0.03459927439689636
2426;0.03116942010819912
2427;0.03194168955087662
2428;0.034319017082452774
2429;0.03370442986488342
2430;0.03116355463862419
2431;0.030088838189840317
2432;0.031207669526338577
2433;0.03331945464015007
2434;0.03850444406270981
2435;0.04540654644370079
2436;0.055979859083890915
2437;0.06207452341914177
2438;0.06113740801811218
2439;0.04932797700166702
2440;0.03132233768701553
2441;0.03663557395339012
2442;0.0512380413711071
2443;0.060134682804346085
2444;0.05199681967496872
2445;0.031839463859796524
2446;0.03386407718062401
2447;0.04886651784181595
2448;0.047764889895915985
2449;0.03808462247252464
2450;0.028565095737576485
2451;0.0317147895693779
2452;0.04111311212182045
2453;0.05332084745168686
2454;0.05905542150139809
2455;0.06177910044789314
2456;0.05320947617292404
2457;0.038126140832901
2458;0.028666431084275246
2459;0.03226723521947861
2460;0.03852466866374016
2461;0.036166172474622726
2462;0.02862177975475788
2463;0.02886381186544895
2464;0.03414130210876465
2465;0.03409244492650032
2466;0.029294099658727646
2467;0.02618960477411747
2468;0.02831868641078472
2469;0.032083816826343536
2470;0.038793690502643585
2471;0.04319531470537186
2472;0.04422513023018837
2473;0.03978439420461655
2474;0.03355524316430092
2475;0.026574308052659035
2476;0.026828492060303688
2477;0.0317155085504055
2478;0.03264043107628822
2479;0.02785888873040676
2480;0.0251306239515543
2481;0.02717575430870056
2482;0.02936326153576374
2483;0.028324604034423828
2484;0.02519765868782997
2485;0.024139927700161934
2486;0.025831567123532295
2487;0.03439522907137871
2488;0.04600537568330765
2489;0.056752752512693405
2490;0.06293755024671555
2491;0.057770583778619766
2492;0.044143009930849075
2493;0.02557288110256195
2494;0.031208541244268417
2495;0.04647063836455345
2496;0.04115775600075722
2497;0.027950560674071312
2498;0.024494560435414314
2499;0.03257748484611511
2500;0.03829600661993027
2501;0.04163032025098801
2502;0.036550600081682205
2503;0.025082843378186226
2504;0.02364879660308361
2505;0.031224621459841728
2506;0.04500376433134079
2507;0.05295650288462639
2508;0.04815110191702843
2509;0.03529517725110054
2510;0.0259028859436512
2511;0.022695252671837807
2512;0.028042297810316086
2513;0.030736999586224556
2514;0.027113348245620728
2515;0.022305509075522423
2516;0.023266291245818138
2517;0.02692025527358055
2518;0.026708025485277176
2519;0.023447273299098015
2520;0.021017560735344887
2521;0.022072669118642807
2522;0.024312632158398628
2523;0.031167063862085342
2524;0.03681854531168938
2525;0.04053356125950813
2526;0.03928915411233902
2527;0.03299441188573837
2528;0.02483135275542736
2529;0.02072713151574135
2530;0.02523614466190338
2531;0.029803751036524773
2532;0.026479339227080345
2533;0.021265337243676186
2534;0.020593419671058655
2535;0.023860393092036247
2536;0.025734197348356247
2537;0.023231500759720802
2538;0.020019875839352608
2539;0.01944686844944954
2540;0.021280799061059952
2541;0.023644166067242622
2542;0.02975168265402317
2543;0.03746519610285759
2544;0.04514211788773537
2545;0.050830550491809845
2546;0.04541320353746414
2547;0.03486763313412666
2548;0.020742341876029968
2549;0.023602554574608803
2550;0.03510001301765442
2551;0.03414459899067879
2552;0.025243012234568596
2553;0.01891295239329338
2554;0.022335397079586983
2555;0.028618818148970604
2556;0.027905505150556564
2557;0.02431926503777504
2558;0.019001392647624016
2559;0.01817120797932148
2560;0.021637853235006332
2561;0.031200284138321877
2562;0.0425896942615509
2563;0.04941820725798607
2564;0.051106519997119904
2565;0.03902596980333328
2566;0.025016997009515762
2567;0.018208499997854233
2568;0.026106644421815872
2569;0.03442477062344551
2570;0.028419701382517815
2571;0.019506137818098068
2572;0.018191620707511902
2573;0.0238854568451643
2574;0.027787460014224052
2575;0.03131668642163277
2576;0.02719436213374138
2577;0.018854817375540733
2578;0.01704240031540394
2579;0.021787768229842186
2580;0.024974146857857704
2581;0.024063382297754288
2582;0.022998610511422157
2583;0.01936858892440796
2584;0.01617588847875595
2585;0.016860628500580788
2586;0.019624996930360794
2587;0.020232943817973137
2588;0.018438665196299553
2589;0.016044171527028084
2590;0.015712622553110123
2591;0.01713692955672741
2592;0.02304520085453987
2593;0.027797864750027657
2594;0.030756821855902672
2595;0.030764264985919
2596;0.02770039811730385
2597;0.022273080423474312
2598;0.01611025631427765
2599;0.01651488058269024
2600;0.021151727065443993
2601;0.022784527391195297
2602;0.020408419892191887
2603;0.016237523406744003
2604;0.014774939976632595
2605;0.016460049897432327
2606;0.018559454008936882
2607;0.01903690956532955
2608;0.017202744260430336
2609;0.01507688220590353
2610;0.014150133356451988
2611;0.014874475076794624
2612;0.016761736944317818
2613;0.021384121850132942
2614;0.02951209433376789
2615;0.041049983352422714
2616;0.056827012449502945
2617;0.06254070997238159
2618;0.06690844148397446
2619;0.04792312905192375
2620;0.02741079032421112
2621;0.0159702580422163
2622;0.02675679326057434
2623;0.040893103927373886
2624;0.03362248092889786
2625;0.020163675770163536
2626;0.014384257607161999
2627;0.02082955650985241
2628;0.029706107452511787
2629;0.02877952717244625
2630;0.02434820868074894
2631;0.016348877921700478
2632;0.013361500576138496
2633;0.01642809435725212
2634;0.02040574885904789
2635;0.022291863337159157
2636;0.023172959685325623
2637;0.020918169990181923
2638;0.018730387091636658
2639;0.01514113787561655
2640;0.012943366542458534
2641;0.014095231890678406
2642;0.01641635037958622
2643;0.016493644565343857
2644;0.014732168056070805
2645;0.012819658033549786
2646;0.012598039582371712
2647;0.01370676513761282
2648;0.014482212252914906
2649;0.014211446046829224
2650;0.012976397760212421
2651;0.012072630226612091
2652;0.012111912481486797
2653;0.012718850746750832
2654;0.01372226420789957
2655;0.016029607504606247
2656;0.01876518502831459
2657;0.02258906699717045
2658;0.02450612559914589
2659;0.025551285594701767
2660;0.024416645988821983
2661;0.022248700261116028
2662;0.016655990853905678
2663;0.012227530591189861
2664;0.012988627888262272
2665;0.016776960343122482
2666;0.018639875575900078
2667;0.017586100846529007
2668;0.014055131003260612
2669;0.01157018356025219
2670;0.011362261138856411
2671;0.012923246249556541
2672;0.01624198444187641
2673;0.018290698528289795
2674;0.02065705694258213
2675;0.025825297459959984
2676;0.03173878788948059
2677;0.036637552082538605
2678;0.04160836338996887
2679;0.0387112982571125
2680;0.033014215528964996
2681;0.017558468505740166
2682;0.011518292129039764
2683;0.01741769351065159
2684;0.025070521980524063
2685;0.027633149176836014
2686;0.020200436934828758
2687;0.012870058417320251
2688;0.010392880998551846
2689;0.013489487580955029
2690;0.018872510641813278
2691;0.02764776721596718
2692;0.0385240837931633
2693;0.0485648550093174
2694;0.060717932879924774
2695;0.06832218915224075
2696;0.07175041735172272
2697;0.04179064556956291
2698;0.01591256819665432
2699;0.016651436686515808
2700;0.034819595515728
2701;0.04370470717549324
2702;0.02548004686832428
2703;0.011695342138409615
2704;0.01490167435258627
2705;0.02613849565386772
2706;0.03243187814950943
2707;0.02381816692650318
2708;0.013696794398128986
2709;0.00992870144546032
2710;0.014555939473211765
2711;0.020949583500623703
2712;0.026349782943725586
2713;0.024493923410773277
2714;0.018759682774543762
2715;0.011802047491073608
2716;0.00967262964695692
2717;0.013336285017430782
2718;0.017143389210104942
2719;0.015447504818439484
2720;0.01150602288544178
2721;0.009334160946309566
2722;0.010778794065117836
2723;0.01340107899159193
2724;0.013336039148271084
2725;0.011247516609728336
2726;0.009134412743151188
2727;0.009202761575579643
2728;0.010715159587562084
2729;0.01141277700662613
2730;0.010608074255287647
2731;0.0091190654784441
2732;0.008537134155631065
2733;0.009204447269439697
2734;0.01260453648865223
2735;0.01643105037510395
2736;0.01971006765961647
2737;0.01970742829144001
2738;0.017591260373592377
2739;0.012842131778597832
2740;0.008790451101958752
2741;0.009538623504340649
2742;0.013115380890667439
2743;0.014426231384277344
2744;0.012857375666499138
2745;0.00955056119710207
2746;0.008054379373788834
2747;0.0090341717004776
2748;0.010847746394574642
2749;0.011890440247952938
2750;0.011058097705245018
2751;0.009471322409808636
2752;0.008049138821661472
2753;0.007751068565994501
2754;0.008424890227615833
2755;0.009204521775245667
2756;0.009485321119427681
2757;0.011433782987296581
2758;0.01235424168407917
2759;0.015166858211159706
2760;0.015704352408647537
2761;0.012447459623217583
2762;0.009072606451809406
2763;0.007442616391927004
2764;0.008365286514163017
2765;0.010459338314831257
2766;0.011536931619048119
2767;0.011272395960986614
2768;0.009529458358883858
2769;0.007897819392383099
2770;0.007088827900588512
2771;0.007357107009738684
2772;0.008252705447375774
2773;0.008991544134914875
2774;0.009343111887574196
2775;0.012177870608866215
2776;0.016860639676451683
2777;0.025204449892044067
2778;0.037802595645189285
2779;0.04842814803123474
2780;0.06402450054883957
2781;0.059101004153490067
2782;0.05249876528978348
2783;0.027768267318606377
2784;0.010661214590072632
2785;0.011997198686003685
2786;0.024707693606615067
2787;0.03401007130742073
2788;0.02562420256435871
2789;0.015811527147889137
2790;0.007804335094988346
2791;0.008415614254772663
2792;0.014919239096343517
2793;0.019986096769571304
2794;0.023975852876901627
2795;0.025383025407791138
2796;0.024479305371642113
2797;0.019891079515218735
2798;0.012770642526447773
2799;0.007184634916484356
2800;0.00808974914252758
2801;0.012823991477489471
2802;0.01488913781940937
2803;0.0132907098159194
2804;0.008886588737368584
2805;0.006500739138573408
2806;0.007294436451047659
2807;0.009551702067255974
2808;0.011037344112992287
2809;0.009945866651833057
2810;0.007872228510677814
2811;0.006257831119000912
2812;0.006329293828457594
2813;0.007536741904914379
2814;0.008352519012987614
2815;0.00836835615336895
2816;0.009064042009413242
2817;0.008798702619969845
2818;0.009333967231214046
2819;0.008612026460468769
2820;0.006894998252391815
2821;0.005847984459251165
2822;0.006031389813870192
2823;0.006927239242941141
2824;0.007632448337972164
2825;0.007384250406175852
2826;0.006623327732086182
2827;0.0058052693493664265
2828;0.005509142763912678
2829;0.005750435870140791
2830;0.006188120227307081
2831;0.006470362655818462
2832;0.006365376058965921
2833;0.006024539936333895
2834;0.005621117539703846
2835;0.005332290660589933
2836;0.005242818035185337
2837;0.0053086476400494576
2838;0.005482618696987629
2839;0.006873949430882931
2840;0.008942956104874611
2841;0.013292600400745869
2842;0.017824197188019753
2843;0.02213379368185997
2844;0.025103433057665825
2845;0.024738313630223274
2846;0.024120809510350227
2847;0.019782906398177147
2848;0.013261275365948677
2849;0.006949140690267086
2850;0.005572115071117878
2851;0.008562530390918255
2852;0.01257223729044199
2853;0.015701033174991608
2854;0.015048553235828876
2855;0.014714926481246948
2856;0.011636304669082165
2857;0.009701441042125225
2858;0.007140141446143389
2859;0.005408068653196096
2860;0.004847655538469553
2861;0.005354591179639101
2862;0.006400971673429012
2863;0.007238280028104782
2864;0.00762774795293808
2865;0.00717786094173789
2866;0.006422471255064011
2867;0.005490453448146582
2868;0.004807420540601015
2869;0.004520404152572155
2870;0.004617782775312662
2871;0.004945495631545782
2872;0.005276315379887819
2873;0.005472737830132246
2874;0.005416342057287693
2875;0.00522213289514184
2876;0.0061274366453289986
2877;0.0071064080111682415
2878;0.00960460864007473
2879;0.01251616608351469
2880;0.0183027982711792
2881;0.028168274089694023
2882;0.03831363841891289
2883;0.057839419692754745
2884;0.07074464857578278
2885;0.09495311975479126
2886;0.0842011496424675
2887;0.073819100856781
2888;0.03052605502307415
2889;0.007934029214084148
2890;0.018708303570747375
2891;0.03864287585020065
2892;0.04767432436347008
2893;0.026790279895067215
2894;0.008855604566633701
2895;0.005806249100714922
2896;0.01664968766272068
2897;0.030443524941802025
2898;0.030792932957410812
2899;0.02662097103893757
2900;0.017125969752669334
2901;0.007994959130883217
2902;0.00475327717140317
2903;0.008957925252616405
2904;0.014528402127325535
2905;0.013487225398421288
2906;0.008864914998412132
2907;0.004646524786949158
2908;0.005088475998491049
2909;0.008462775498628616
2910;0.009992130100727081
2911;0.008677751757204533
2912;0.005517187062650919
2913;0.00404221098870039
2914;0.005051054060459137
2915;0.006688405759632587
2916;0.007109642960131168
2917;0.005652750376611948
2918;0.0042083412408828735
2919;0.003987838979810476
2920;0.00483274832367897
2921;0.005797886289656162
2922;0.007176714949309826
2923;0.007494188379496336
2924;0.007362033240497112
2925;0.005944613367319107
2926;0.00415427703410387
2927;0.0037801270373165607
2928;0.004733394831418991
2929;0.005623410921543837
2930;0.005586814600974321
2931;0.004558758344501257
2932;0.003705193055793643
2933;0.0036235821899026632
2934;0.004151754546910524
2935;0.0046549467369914055
2936;0.004592724144458771
2937;0.004122440237551928
2938;0.0036049112677574158
2939;0.0034041893668472767
2940;0.0035567961167544127
2941;0.0038309521041810513
2942;0.0040909294039011
2943;0.0049756476655602455
2944;0.0057172467932105064
2945;0.007222225423902273
2946;0.0076436069793999195
2947;0.008037224411964417
2948;0.00684882840141654
2949;0.0046053724363446236
2950;0.0033763672690838575
2951;0.0036891899071633816
2952;0.004859425127506256
2953;0.005882387049496174
2954;0.005773782730102539
2955;0.005009990651160479
2956;0.003934735897928476
2957;0.0032437921036034822
2958;0.003143258159980178
2959;0.0035173706710338593
2960;0.004031458869576454
2961;0.004302954766899347
2962;0.004239129833877087
2963;0.003830212401226163
2964;0.0033583547919988632
2965;0.0030157703440636396
2966;0.0029284083284437656
2967;0.0030574097763746977
2968;0.0032615489326417446
2969;0.00340627646073699
2970;0.0034066210500895977
2971;0.0032848736736923456
2972;0.003118358552455902
2973;0.002938436111435294
2974;0.002803230192512274
2975;0.0027389824390411377
2976;0.0027470330242067575
2977;0.0028571023140102625
2978;0.003194818738847971
2979;0.004360746126621962
2980;0.006602548062801361
2981;0.011071071960031986
2982;0.017238033935427666
2983;0.02387448027729988
2984;0.03220761567354202
2985;0.036241140216588974
2986;0.04401994124054909
2987;0.03971346840262413
2988;0.035482894629240036
2989;0.02214227244257927
2990;0.009953809902071953
2991;0.0035788121167570353
2992;0.006699240766465664
2993;0.015013345517218113
2994;0.01996796205639839
2995;0.023876424878835678
2996;0.019231369718909264
2997;0.015032589435577393
2998;0.00821708794683218
2999;0.003871325636282563
