;loss
0;868.2307739257812
1;866.9133911132812
2;865.7832641601562
3;864.4622192382812
4;863.2123413085938
5;861.8641357421875
6;860.5331420898438
7;859.1286010742188
8;857.6826171875
9;856.1995849609375
10;854.650390625
11;853.0248413085938
12;851.3118286132812
13;849.4985961914062
14;847.5807495117188
15;845.5230102539062
16;843.3331909179688
17;840.9779052734375
18;838.4326782226562
19;835.6692504882812
20;832.6216430664062
21;829.3137817382812
22;825.6265258789062
23;821.5866088867188
24;817.0891723632812
25;812.0565185546875
26;806.3953857421875
27;799.912109375
28;792.5287475585938
29;784.0718383789062
30;774.4493408203125
31;763.3115844726562
32;750.34375
33;735.15771484375
34;717.291015625
35;695.9568481445312
36;671.0756225585938
37;641.6058959960938
38;607.6280517578125
39;569.652587890625
40;529.2969970703125
41;489.5017395019531
42;454.2309875488281
43;425.5196838378906
44;404.3737487792969
45;389.4488830566406
46;378.7569885253906
47;370.5762023925781
48;363.7037658691406
49;357.67608642578125
50;352.11614990234375
51;346.871337890625
52;341.8536682128906
53;336.97998046875
54;332.3099060058594
55;327.7472839355469
56;323.36444091796875
57;319.1158752441406
58;314.9874572753906
59;310.9683532714844
60;307.0489196777344
61;303.2218933105469
62;299.4527893066406
63;295.79095458984375
64;292.20025634765625
65;288.6744079589844
66;285.20977783203125
67;281.8000793457031
68;278.4159851074219
69;275.07720947265625
70;271.77923583984375
71;268.5195007324219
72;265.3172302246094
73;262.15167236328125
74;259.005126953125
75;255.9225311279297
76;252.88864135742188
77;249.89083862304688
78;246.95339965820312
79;244.09780883789062
80;241.3086700439453
81;238.5865936279297
82;235.93431091308594
83;233.34840393066406
84;230.82339477539062
85;228.34165954589844
86;225.91343688964844
87;223.54808044433594
88;221.23109436035156
89;218.9555206298828
90;216.71815490722656
91;214.51705932617188
92;212.34951782226562
93;210.2139434814453
94;208.09828186035156
95;206.01210021972656
96;203.95443725585938
97;201.92442321777344
98;199.92124938964844
99;197.9441375732422
100;195.9922637939453
101;194.0652618408203
102;192.16246032714844
103;190.28317260742188
104;188.4351806640625
105;186.60128784179688
106;184.78933715820312
107;182.9992218017578
108;181.23826599121094
109;179.49783325195312
110;177.7775421142578
111;176.0769805908203
112;174.39576721191406
113;172.73367309570312
114;171.08352661132812
115;169.45205688476562
116;167.845458984375
117;166.25035095214844
118;164.67929077148438
119;163.1256103515625
120;161.5830841064453
121;160.06349182128906
122;158.56057739257812
123;157.06849670410156
124;155.59278869628906
125;154.13864135742188
126;152.70018005371094
127;151.27720642089844
128;149.86953735351562
129;148.4769744873047
130;147.0992889404297
131;145.73146057128906
132;144.38304138183594
133;143.04893493652344
134;141.724365234375
135;140.41392517089844
136;139.1217803955078
137;137.84329223632812
138;136.57826232910156
139;135.3266143798828
140;134.083984375
141;132.8585662841797
142;131.64596557617188
143;130.44223022460938
144;129.2511749267578
145;128.07264709472656
146;126.9064712524414
147;125.75255584716797
148;124.61424255371094
149;123.48433685302734
150;122.36621856689453
151;121.25987243652344
152;120.1650390625
153;119.08502960205078
154;118.01629638671875
155;116.95563507080078
156;115.9092025756836
157;114.87064361572266
158;113.84589385986328
159;112.83180236816406
160;111.82540130615234
161;110.82951354980469
162;109.8440170288086
163;108.8687973022461
164;107.9037857055664
165;106.94886779785156
166;106.00651550292969
167;105.073974609375
168;104.15116119384766
169;103.2380142211914
170;102.33192443847656
171;101.437744140625
172;100.55290985107422
173;99.67731475830078
174;98.81087493896484
175;97.95353698730469
176;97.10297393798828
177;96.26134490966797
178;95.42859649658203
179;94.6046142578125
180;93.78932189941406
181;92.98265838623047
182;92.18452453613281
183;91.39679718017578
184;90.61736297607422
185;89.84430694580078
186;89.08128356933594
187;88.32453918457031
188;87.57585906982422
189;86.8368911743164
190;86.10582733154297
191;85.38249969482422
192;84.66521453857422
193;83.95561981201172
194;83.2552490234375
195;82.56079864501953
196;81.87379455566406
197;81.19576263427734
198;80.52350616455078
199;79.85851287841797
200;79.20069122314453
201;78.5500259399414
202;77.90637969970703
203;77.26972198486328
204;76.63999938964844
205;76.01850891113281
206;75.40375518798828
207;74.79570770263672
208;74.19429016113281
209;73.59818267822266
210;73.0098648071289
211;72.42797088623047
212;71.85249328613281
213;71.28331756591797
214;70.72041320800781
215;70.1625747680664
216;69.61206817626953
217;69.06648254394531
218;68.5270004272461
219;67.99351501464844
220;67.46595764160156
221;66.94432067871094
222;66.42952728271484
223;65.92051696777344
224;65.41621398925781
225;64.91754150390625
226;64.42453002929688
227;63.93706512451172
228;63.455108642578125
229;62.978633880615234
230;62.50844955444336
231;62.04362106323242
232;61.58318328857422
233;61.12801742553711
234;60.678043365478516
235;60.23323440551758
236;59.794349670410156
237;59.360496520996094
238;58.93084716796875
239;58.50615310668945
240;58.08713150024414
241;57.67220687866211
242;57.26284408569336
243;56.85748291015625
244;56.456878662109375
245;56.0609130859375
246;55.66961669921875
247;55.28287887573242
248;54.9013671875
249;54.524349212646484
250;54.151100158691406
251;53.78289794921875
252;53.418426513671875
253;53.05826950073242
254;52.70302200317383
255;52.35136032104492
256;52.003929138183594
257;51.66063690185547
258;51.32146453857422
259;50.98690414428711
260;50.65583038330078
261;50.32928466796875
262;50.00613021850586
263;49.68741226196289
264;49.37206268310547
265;49.06050491333008
266;48.75275802612305
267;48.44876480102539
268;48.14846420288086
269;47.851871490478516
270;47.55891036987305
271;47.26953125
272;46.98374557495117
273;46.70191192626953
274;46.423126220703125
275;46.148250579833984
276;45.87633514404297
277;45.60780715942383
278;45.34262466430664
279;45.0811653137207
280;44.82258224487305
281;44.56723403930664
282;44.31512451171875
283;44.066532135009766
284;43.82110595703125
285;43.57875442504883
286;43.33913040161133
287;43.10253143310547
288;42.86894989013672
289;42.638694763183594
290;42.41102981567383
291;42.18662643432617
292;41.96477127075195
293;41.746070861816406
294;41.5298957824707
295;41.316497802734375
296;41.105857849121094
297;40.89794921875
298;40.69304275512695
299;40.49051284790039
300;40.29061508178711
301;40.09333038330078
302;39.89891815185547
303;39.70703125
304;39.51742172241211
305;39.33029556274414
306;39.14564895629883
307;38.96344757080078
308;38.78365707397461
309;38.60626220703125
310;38.43146514892578
311;38.25899887084961
312;38.088844299316406
313;37.92071533203125
314;37.7548828125
315;37.59147262573242
316;37.43026351928711
317;37.27102279663086
318;37.113929748535156
319;36.95896530151367
320;36.80612564086914
321;36.65535354614258
322;36.506832122802734
323;36.36014938354492
324;36.21548843383789
325;36.072792053222656
326;35.932071685791016
327;35.79346466064453
328;35.656776428222656
329;35.52180862426758
330;35.38870620727539
331;35.25761032104492
332;35.12819290161133
333;35.000579833984375
334;34.874881744384766
335;34.750980377197266
336;34.6287956237793
337;34.50818634033203
338;34.38926315307617
339;34.27202224731445
340;34.15645217895508
341;34.042659759521484
342;33.93032455444336
343;33.819618225097656
344;33.710609436035156
345;33.603145599365234
346;33.497108459472656
347;33.39259338378906
348;33.289573669433594
349;33.18803024291992
350;33.08796691894531
351;32.989463806152344
352;32.89228057861328
353;32.796607971191406
354;32.70220184326172
355;32.60919952392578
356;32.517547607421875
357;32.42723846435547
358;32.338253021240234
359;32.25057601928711
360;32.164188385009766
361;32.079063415527344
362;31.995214462280273
363;31.91261100769043
364;31.83122444152832
365;31.751131057739258
366;31.6722354888916
367;31.594526290893555
368;31.51788330078125
369;31.442474365234375
370;31.368106842041016
371;31.294862747192383
372;31.222736358642578
373;31.151763916015625
374;31.081790924072266
375;31.01288414001465
376;30.945016860961914
377;30.878177642822266
378;30.812427520751953
379;30.747690200805664
380;30.683874130249023
381;30.62103843688965
382;30.559160232543945
383;30.49823570251465
384;30.43832015991211
385;30.379262924194336
386;30.32112693786621
387;30.26394271850586
388;30.207595825195312
389;30.152116775512695
390;30.097564697265625
391;30.0438175201416
392;29.990903854370117
393;29.93882179260254
394;29.887556076049805
395;29.837106704711914
396;29.787443161010742
397;29.738569259643555
398;29.690473556518555
399;29.643131256103516
400;29.5965518951416
401;29.550703048706055
402;29.50560188293457
403;29.461210250854492
404;29.417524337768555
405;29.37455177307129
406;29.332256317138672
407;29.2906494140625
408;29.249719619750977
409;29.20944595336914
410;29.169870376586914
411;29.130884170532227
412;29.09258460998535
413;29.054861068725586
414;29.017757415771484
415;28.981258392333984
416;28.94534683227539
417;28.910037994384766
418;28.875314712524414
419;28.84115219116211
420;28.80757713317871
421;28.774545669555664
422;28.742048263549805
423;28.710092544555664
424;28.678659439086914
425;28.647783279418945
426;28.61739158630371
427;28.587514877319336
428;28.558130264282227
429;28.529239654541016
430;28.5008544921875
431;28.472930908203125
432;28.44549560546875
433;28.418502807617188
434;28.3919677734375
435;28.36587905883789
436;28.34023666381836
437;28.31502342224121
438;28.290239334106445
439;28.265880584716797
440;28.241962432861328
441;28.218429565429688
442;28.195322036743164
443;28.172597885131836
444;28.150259017944336
445;28.128305435180664
446;28.106719970703125
447;28.08553695678711
448;28.064714431762695
449;28.044252395629883
450;28.024152755737305
451;28.004392623901367
452;27.984981536865234
453;27.965917587280273
454;27.94717788696289
455;27.92875099182129
456;27.910663604736328
457;27.892900466918945
458;27.87542724609375
459;27.858259201049805
460;27.841419219970703
461;27.82486343383789
462;27.808597564697266
463;27.792633056640625
464;27.77695083618164
465;27.76153564453125
466;27.746400833129883
467;27.731536865234375
468;27.71693992614746
469;27.70261001586914
470;27.688541412353516
471;27.67472267150879
472;27.66115379333496
473;27.647817611694336
474;27.634740829467773
475;27.62188720703125
476;27.609262466430664
477;27.59686279296875
478;27.584697723388672
479;27.572750091552734
480;27.561019897460938
481;27.549514770507812
482;27.538209915161133
483;27.527109146118164
484;27.516218185424805
485;27.50552749633789
486;27.495027542114258
487;27.4847354888916
488;27.474624633789062
489;27.46469497680664
490;27.454959869384766
491;27.445402145385742
492;27.43602180480957
493;27.426807403564453
494;27.417776107788086
495;27.40891456604004
496;27.400211334228516
497;27.39168357849121
498;27.383310317993164
499;27.375091552734375
500;27.36703109741211
501;27.359121322631836
502;27.35135841369629
503;27.343748092651367
504;27.336286544799805
505;27.32896614074707
506;27.32177734375
507;27.31473159790039
508;27.307819366455078
509;27.30103874206543
510;27.294387817382812
511;27.287858963012695
512;27.28145980834961
513;27.27518081665039
514;27.26902198791504
515;27.262983322143555
516;27.25705909729004
517;27.251245498657227
518;27.24555778503418
519;27.239971160888672
520;27.234498977661133
521;27.229135513305664
522;27.223861694335938
523;27.21870231628418
524;27.21364402770996
525;27.208683013916016
526;27.20381736755371
527;27.199054718017578
528;27.194381713867188
529;27.189800262451172
530;27.185293197631836
531;27.180898666381836
532;27.17657470703125
533;27.172346115112305
534;27.16819953918457
535;27.164127349853516
536;27.160140991210938
537;27.15622901916504
538;27.152400970458984
539;27.14865493774414
540;27.144975662231445
541;27.141374588012695
542;27.13784408569336
543;27.134382247924805
544;27.130990982055664
545;27.127666473388672
546;27.12441635131836
547;27.12122917175293
548;27.118101119995117
549;27.115041732788086
550;27.112035751342773
551;27.10909080505371
552;27.10622215270996
553;27.103397369384766
554;27.100635528564453
555;27.09792137145996
556;27.095277786254883
557;27.09267807006836
558;27.090133666992188
559;27.0876407623291
560;27.0851993560791
561;27.08280372619629
562;27.080461502075195
563;27.078168869018555
564;27.075923919677734
565;27.073720932006836
566;27.07157325744629
567;27.0694580078125
568;27.0673885345459
569;27.06536865234375
570;27.063385009765625
571;27.061445236206055
572;27.059545516967773
573;27.057689666748047
574;27.055866241455078
575;27.054079055786133
576;27.052337646484375
577;27.05063247680664
578;27.048959732055664
579;27.047319412231445
580;27.045717239379883
581;27.04414176940918
582;27.042606353759766
583;27.04110336303711
584;27.03963279724121
585;27.038183212280273
586;27.036773681640625
587;27.035396575927734
588;27.03404426574707
589;27.032718658447266
590;27.03142738342285
591;27.030155181884766
592;27.028915405273438
593;27.0277042388916
594;27.026517868041992
595;27.025348663330078
596;27.02420997619629
597;27.023101806640625
598;27.022008895874023
599;27.020944595336914
600;27.019895553588867
601;27.018877029418945
602;27.017873764038086
603;27.016897201538086
604;27.01593589782715
605;27.01500129699707
606;27.01408576965332
607;27.013187408447266
608;27.012311935424805
609;27.011455535888672
610;27.010616302490234
611;27.009790420532227
612;27.00898551940918
613;27.00819969177246
614;27.00743293762207
615;27.00667381286621
616;27.005939483642578
617;27.005218505859375
618;27.004512786865234
619;27.003828048706055
620;27.003143310546875
621;27.002490997314453
622;27.0018367767334
623;27.001209259033203
624;27.00058937072754
625;26.999984741210938
626;26.999393463134766
627;26.998815536499023
628;26.998247146606445
629;26.997695922851562
630;26.997148513793945
631;26.996623992919922
632;26.9960994720459
633;26.995594024658203
634;26.99509620666504
635;26.99461555480957
636;26.994136810302734
637;26.99367332458496
638;26.99321937561035
639;26.992780685424805
640;26.992341995239258
641;26.99191665649414
642;26.991500854492188
643;26.991092681884766
644;26.990692138671875
645;26.990299224853516
646;26.989919662475586
647;26.989545822143555
648;26.989185333251953
649;26.98883056640625
650;26.98847770690918
651;26.98813247680664
652;26.98780632019043
653;26.987470626831055
654;26.987152099609375
655;26.98683738708496
656;26.986528396606445
657;26.98623275756836
658;26.985929489135742
659;26.985647201538086
660;26.985363006591797
661;26.98509407043457
662;26.98482322692871
663;26.98455810546875
664;26.984302520751953
665;26.984052658081055
666;26.98379898071289
667;26.98356056213379
668;26.98332405090332
669;26.983089447021484
670;26.982858657836914
671;26.982637405395508
672;26.982421875
673;26.982208251953125
674;26.982004165649414
675;26.98179817199707
676;26.981595993041992
677;26.981403350830078
678;26.9812068939209
679;26.981021881103516
680;26.980836868286133
681;26.98065185546875
682;26.980478286743164
683;26.980302810668945
684;26.980133056640625
685;26.97996711730957
686;26.979801177978516
687;26.979646682739258
688;26.979480743408203
689;26.979328155517578
690;26.979177474975586
691;26.97903060913086
692;26.9788818359375
693;26.97874641418457
694;26.978605270385742
695;26.978469848632812
696;26.97833251953125
697;26.97819709777832
698;26.97806739807129
699;26.97794532775879
700;26.977819442749023
701;26.97770118713379
702;26.97756576538086
703;26.977460861206055
704;26.977340698242188
705;26.97722816467285
706;26.97711753845215
707;26.977006912231445
708;26.97688865661621
709;26.97678565979004
710;26.9766845703125
711;26.976573944091797
712;26.976484298706055
713;26.97637939453125
714;26.97628402709961
715;26.976186752319336
716;26.976091384887695
717;26.97599983215332
718;26.975906372070312
719;26.975812911987305
720;26.975725173950195
721;26.975637435913086
722;26.975555419921875
723;26.975465774536133
724;26.975378036499023
725;26.97530174255371
726;26.9752197265625
727;26.975139617919922
728;26.975053787231445
729;26.9749813079834
730;26.97490119934082
731;26.974822998046875
732;26.974748611450195
733;26.974674224853516
734;26.974605560302734
735;26.97452163696289
736;26.974454879760742
737;26.97438621520996
738;26.974315643310547
739;26.974246978759766
740;26.974172592163086
741;26.974111557006836
742;26.974040985107422
743;26.97397804260254
744;26.973905563354492
745;26.97384262084961
746;26.97378158569336
747;26.973712921142578
748;26.973649978637695
749;26.973588943481445
750;26.97352409362793
751;26.973464965820312
752;26.97340202331543
753;26.973337173461914
754;26.97327995300293
755;26.973220825195312
756;26.973159790039062
757;26.97310447692871
758;26.973039627075195
759;26.972986221313477
760;26.97292709350586
761;26.972867965698242
762;26.972810745239258
763;26.97275161743164
764;26.97269630432129
765;26.97264289855957
766;26.972583770751953
767;26.9725284576416
768;26.97247314453125
769;26.972412109375
770;26.972360610961914
771;26.972305297851562
772;26.972257614135742
773;26.972196578979492
774;26.972139358520508
775;26.97209358215332
776;26.97203254699707
777;26.971981048583984
778;26.971927642822266
779;26.971872329711914
780;26.971818923950195
781;26.971759796142578
782;26.97171401977539
783;26.971662521362305
784;26.971603393554688
785;26.971548080444336
786;26.97149658203125
787;26.971445083618164
788;26.971391677856445
789;26.97134017944336
790;26.97128677368164
791;26.971235275268555
792;26.97117805480957
793;26.97112464904785
794;26.971073150634766
795;26.971017837524414
796;26.970972061157227
797;26.970905303955078
798;26.97086524963379
799;26.97080421447754
800;26.970754623413086
801;26.970699310302734
802;26.970645904541016
803;26.970590591430664
804;26.970539093017578
805;26.970483779907227
806;26.970430374145508
807;26.970369338989258
808;26.970317840576172
809;26.97027015686035
810;26.970211029052734
811;26.970163345336914
812;26.97010612487793
813;26.970046997070312
814;26.969995498657227
815;26.96994400024414
816;26.96988296508789
817;26.969831466674805
818;26.969770431518555
819;26.969717025756836
820;26.969661712646484
821;26.9696044921875
822;26.969545364379883
823;26.9694881439209
824;26.96943473815918
825;26.969377517700195
826;26.96932029724121
827;26.969263076782227
828;26.96920394897461
829;26.969146728515625
830;26.96908950805664
831;26.969026565551758
832;26.968969345092773
833;26.96891212463379
834;26.968854904174805
835;26.968793869018555
836;26.968732833862305
837;26.96866798400879
838;26.968612670898438
839;26.968549728393555
840;26.968488693237305
841;26.968429565429688
842;26.96836280822754
843;26.96830940246582
844;26.96824073791504
845;26.968175888061523
846;26.96811866760254
847;26.968050003051758
848;26.96798324584961
849;26.967926025390625
850;26.96786117553711
851;26.967798233032227
852;26.967737197875977
853;26.967660903930664
854;26.967594146728516
855;26.967529296875
856;26.96746826171875
857;26.967397689819336
858;26.967329025268555
859;26.967260360717773
860;26.967195510864258
861;26.96712875366211
862;26.96706199645996
863;26.966989517211914
864;26.9669189453125
865;26.966846466064453
866;26.966777801513672
867;26.966699600219727
868;26.966630935668945
869;26.966562271118164
870;26.966495513916016
871;26.966415405273438
872;26.96634292602539
873;26.96626853942871
874;26.966196060180664
875;26.96612548828125
876;26.96604347229004
877;26.96596908569336
878;26.965892791748047
879;26.9658203125
880;26.96573829650879
881;26.965654373168945
882;26.96558952331543
883;26.96550178527832
884;26.965423583984375
885;26.965341567993164
886;26.965259552001953
887;26.965181350708008
888;26.965097427368164
889;26.965011596679688
890;26.964933395385742
891;26.9648494720459
892;26.964757919311523
893;26.96468162536621
894;26.964595794677734
895;26.96450424194336
896;26.964420318603516
897;26.964330673217773
898;26.96424674987793
899;26.964157104492188
900;26.96406364440918
901;26.963977813720703
902;26.963882446289062
903;26.963796615600586
904;26.963699340820312
905;26.963607788085938
906;26.963516235351562
907;26.963420867919922
908;26.963327407836914
909;26.963226318359375
910;26.963130950927734
911;26.96303367614746
912;26.962936401367188
913;26.96284294128418
914;26.962736129760742
915;26.962636947631836
916;26.9625301361084
917;26.962432861328125
918;26.962331771850586
919;26.962223052978516
920;26.96211814880371
921;26.96200942993164
922;26.961902618408203
923;26.961795806884766
924;26.961687088012695
925;26.961576461791992
926;26.961469650268555
927;26.961360931396484
928;26.961252212524414
929;26.961130142211914
930;26.961015701293945
931;26.96089744567871
932;26.960784912109375
933;26.960668563842773
934;26.960552215576172
935;26.960432052612305
936;26.96030616760254
937;26.960187911987305
938;26.960065841674805
939;26.95993423461914
940;26.95981216430664
941;26.959686279296875
942;26.95956039428711
943;26.959428787231445
944;26.95928955078125
945;26.959163665771484
946;26.959028244018555
947;26.95890235900879
948;26.95876121520996
949;26.958627700805664
950;26.95848274230957
951;26.958345413208008
952;26.95820426940918
953;26.95806312561035
954;26.957916259765625
955;26.95777702331543
956;26.957622528076172
957;26.957475662231445
958;26.957326889038086
959;26.95718002319336
960;26.9570255279541
961;26.956872940063477
962;26.95671272277832
963;26.956552505493164
964;26.95638656616211
965;26.95623207092285
966;26.95606803894043
967;26.95589828491211
968;26.955732345581055
969;26.955564498901367
970;26.955394744873047
971;26.95522689819336
972;26.955047607421875
973;26.954870223999023
974;26.954692840576172
975;26.954511642456055
976;26.954330444335938
977;26.954145431518555
978;26.95395278930664
979;26.95376968383789
980;26.95357894897461
981;26.953386306762695
982;26.95318603515625
983;26.952985763549805
984;26.952783584594727
985;26.952579498291016
986;26.95236587524414
987;26.95216178894043
988;26.95195198059082
989;26.951732635498047
990;26.951513290405273
991;26.951303482055664
992;26.951066970825195
993;26.950847625732422
994;26.95062255859375
995;26.950382232666016
996;26.95014762878418
997;26.94991111755371
998;26.94967269897461
999;26.949413299560547
1000;26.949174880981445
1001;26.948917388916016
1002;26.94866943359375
1003;26.94840431213379
1004;26.948137283325195
1005;26.947874069213867
1006;26.947601318359375
1007;26.947324752807617
1008;26.94704818725586
1009;26.946760177612305
1010;26.946474075317383
1011;26.946184158325195
1012;26.945886611938477
1013;26.945587158203125
1014;26.945276260375977
1015;26.944961547851562
1016;26.944644927978516
1017;26.944318771362305
1018;26.94399642944336
1019;26.943668365478516
1020;26.943330764770508
1021;26.94297981262207
1022;26.942636489868164
1023;26.942279815673828
1024;26.941919326782227
1025;26.94154167175293
1026;26.941165924072266
1027;26.9407901763916
1028;26.940399169921875
1029;26.940004348754883
1030;26.93960189819336
1031;26.939193725585938
1032;26.93876838684082
1033;26.938339233398438
1034;26.937908172607422
1035;26.93746566772461
1036;26.93701171875
1037;26.936553955078125
1038;26.93607521057129
1039;26.93559455871582
1040;26.935110092163086
1041;26.93460464477539
1042;26.93409538269043
1043;26.93357276916504
1044;26.933034896850586
1045;26.932485580444336
1046;26.931928634643555
1047;26.931360244750977
1048;26.93077278137207
1049;26.930171966552734
1050;26.9295654296875
1051;26.92892837524414
1052;26.92829704284668
1053;26.92763328552246
1054;26.92696189880371
1055;26.926267623901367
1056;26.92555809020996
1057;26.92483139038086
1058;26.92408561706543
1059;26.92331314086914
1060;26.92252540588379
1061;26.92171859741211
1062;26.920879364013672
1063;26.92002296447754
1064;26.91914176940918
1065;26.91823387145996
1066;26.917295455932617
1067;26.916332244873047
1068;26.91534423828125
1069;26.914308547973633
1070;26.913253784179688
1071;26.912160873413086
1072;26.91103172302246
1073;26.90986442565918
1074;26.90865707397461
1075;26.90740394592285
1076;26.90610694885254
1077;26.904767990112305
1078;26.903371810913086
1079;26.901933670043945
1080;26.90043067932129
1081;26.898874282836914
1082;26.897249221801758
1083;26.895566940307617
1084;26.893802642822266
1085;26.891971588134766
1086;26.89006233215332
1087;26.888057708740234
1088;26.885969161987305
1089;26.8837890625
1090;26.88149642944336
1091;26.87909507751465
1092;26.876571655273438
1093;26.873926162719727
1094;26.87114143371582
1095;26.868213653564453
1096;26.8651180267334
1097;26.861862182617188
1098;26.858423233032227
1099;26.85477638244629
1100;26.85091781616211
1101;26.84681510925293
1102;26.842472076416016
1103;26.83785057067871
1104;26.832927703857422
1105;26.827680587768555
1106;26.82206916809082
1107;26.816083908081055
1108;26.809701919555664
1109;26.802927017211914
1110;26.795684814453125
1111;26.78790283203125
1112;26.779569625854492
1113;26.770647048950195
1114;26.761028289794922
1115;26.750669479370117
1116;26.739505767822266
1117;26.72749900817871
1118;26.714664459228516
1119;26.700937271118164
1120;26.686283111572266
1121;26.670698165893555
1122;26.65420150756836
1123;26.63697624206543
1124;26.61897087097168
1125;26.600339889526367
1126;26.581289291381836
1127;26.56210708618164
1128;26.54311180114746
1129;26.524822235107422
1130;26.50748062133789
1131;26.49143409729004
1132;26.477067947387695
1133;26.464651107788086
1134;26.45414924621582
1135;26.445667266845703
1136;26.43887710571289
1137;26.43330955505371
1138;26.42845344543457
1139;26.424102783203125
1140;26.419588088989258
1141;26.414554595947266
1142;26.408735275268555
1143;26.40200424194336
1144;26.39435386657715
1145;26.385868072509766
1146;26.376728057861328
1147;26.367143630981445
1148;26.357324600219727
1149;26.347488403320312
1150;26.337783813476562
1151;26.32832145690918
1152;26.31917381286621
1153;26.310354232788086
1154;26.30182456970215
1155;26.293519973754883
1156;26.285287857055664
1157;26.277029037475586
1158;26.268657684326172
1159;26.260135650634766
1160;26.251434326171875
1161;26.242549896240234
1162;26.233383178710938
1163;26.22395133972168
1164;26.214250564575195
1165;26.204227447509766
1166;26.194250106811523
1167;26.1843318939209
1168;26.17420768737793
1169;26.16402816772461
1170;26.15351676940918
1171;26.142595291137695
1172;26.13133430480957
1173;26.119882583618164
1174;26.1080265045166
1175;26.095722198486328
1176;26.082902908325195
1177;26.06953239440918
1178;26.055540084838867
1179;26.04090690612793
1180;26.02562141418457
1181;26.009674072265625
1182;25.993118286132812
1183;25.97606086730957
1184;25.958654403686523
1185;25.941129684448242
1186;25.92373275756836
1187;25.906719207763672
1188;25.89040184020996
1189;25.874984741210938
1190;25.860580444335938
1191;25.84714126586914
1192;25.83447265625
1193;25.82225227355957
1194;25.81016731262207
1195;25.79762077331543
1196;25.784488677978516
1197;25.770483016967773
1198;25.75554084777832
1199;25.739736557006836
1200;25.723196029663086
1201;25.706090927124023
1202;25.688640594482422
1203;25.671064376831055
1204;25.65346336364746
1205;25.635883331298828
1206;25.618303298950195
1207;25.60068130493164
1208;25.583011627197266
1209;25.56492805480957
1210;25.54656982421875
1211;25.527740478515625
1212;25.50836181640625
1213;25.48837661743164
1214;25.467744827270508
1215;25.446456909179688
1216;25.424516677856445
1217;25.40192985534668
1218;25.378705978393555
1219;25.35483169555664
1220;25.330259323120117
1221;25.304994583129883
1222;25.278884887695312
1223;25.25193214416504
1224;25.224172592163086
1225;25.19550895690918
1226;25.165739059448242
1227;25.134963989257812
1228;25.10383415222168
1229;25.072187423706055
1230;25.0399169921875
1231;25.007211685180664
1232;24.974239349365234
1233;24.9411678314209
1234;24.90817642211914
1235;24.87544059753418
1236;24.843008041381836
1237;24.81093978881836
1238;24.77913475036621
1239;24.74748420715332
1240;24.71583366394043
1241;24.683961868286133
1242;24.651620864868164
1243;24.61866569519043
1244;24.585147857666016
1245;24.550512313842773
1246;24.51491928100586
1247;24.478485107421875
1248;24.44112777709961
1249;24.402631759643555
1250;24.362234115600586
1251;24.320478439331055
1252;24.277755737304688
1253;24.232669830322266
1254;24.18679428100586
1255;24.142242431640625
1256;24.09804916381836
1257;24.0531005859375
1258;24.007320404052734
1259;23.96061897277832
1260;23.91303062438965
1261;23.864398956298828
1262;23.81463623046875
1263;23.76359748840332
1264;23.711450576782227
1265;23.65800666809082
1266;23.603317260742188
1267;23.547388076782227
1268;23.490198135375977
1269;23.431869506835938
1270;23.3725528717041
1271;23.312129974365234
1272;23.250823974609375
1273;23.188602447509766
1274;23.125579833984375
1275;23.061954498291016
1276;22.99788475036621
1277;22.933584213256836
1278;22.869054794311523
1279;22.804319381713867
1280;22.739526748657227
1281;22.67476463317871
1282;22.609867095947266
1283;22.544816970825195
1284;22.479543685913086
1285;22.414005279541016
1286;22.348173141479492
1287;22.282012939453125
1288;22.215585708618164
1289;22.149084091186523
1290;22.08236312866211
1291;22.015432357788086
1292;21.94839859008789
1293;21.881410598754883
1294;21.814579010009766
1295;21.74776268005371
1296;21.681161880493164
1297;21.615413665771484
1298;21.55080795288086
1299;21.486831665039062
1300;21.42357063293457
1301;21.3609619140625
1302;21.29905128479004
1303;21.237987518310547
1304;21.177358627319336
1305;21.11698341369629
1306;21.057247161865234
1307;20.998519897460938
1308;20.940288543701172
1309;20.888498306274414
1310;20.831235885620117
1311;20.772106170654297
1312;20.717967987060547
1313;20.664091110229492
1314;20.609773635864258
1315;20.555856704711914
1316;20.50527000427246
1317;20.45161247253418
1318;20.398168563842773
1319;20.34756088256836
1320;20.29597282409668
1321;20.24235725402832
1322;20.188186645507812
1323;20.137950897216797
1324;20.086366653442383
1325;20.031383514404297
1326;19.975738525390625
1327;19.907373428344727
1328;19.89872932434082
1329;19.80607032775879
1330;19.765398025512695
1331;19.714157104492188
1332;19.665904998779297
1333;19.6164493560791
1334;19.566375732421875
1335;19.51589012145996
1336;19.46490478515625
1337;19.41550064086914
1338;19.366518020629883
1339;19.320068359375
1340;19.275936126708984
1341;19.229658126831055
1342;19.180816650390625
1343;19.136226654052734
1344;19.089712142944336
1345;19.041906356811523
1346;18.993778228759766
1347;18.946077346801758
1348;18.90170669555664
1349;18.85455894470215
1350;18.805160522460938
1351;18.762893676757812
1352;18.72020149230957
1353;18.676088333129883
1354;18.631175994873047
1355;18.58432388305664
1356;18.536848068237305
1357;18.493331909179688
1358;18.446741104125977
1359;18.40175437927246
1360;18.35414695739746
1361;18.301225662231445
1362;18.241445541381836
1363;18.207595825195312
1364;18.159160614013672
1365;18.105026245117188
1366;18.068965911865234
1367;18.026124954223633
1368;17.97664451599121
1369;17.935853958129883
1370;17.893627166748047
1371;17.850826263427734
1372;17.809871673583984
1373;17.768253326416016
1374;17.728065490722656
1375;17.685958862304688
1376;17.64645004272461
1377;17.60648536682129
1378;17.564685821533203
1379;17.524377822875977
1380;17.48403549194336
1381;17.44199562072754
1382;17.402912139892578
1383;17.3632869720459
1384;17.322336196899414
1385;17.279470443725586
1386;17.229190826416016
1387;17.18837547302246
1388;17.151193618774414
1389;17.108598709106445
1390;17.06637954711914
1391;17.023822784423828
1392;16.98635482788086
1393;16.95384979248047
1394;16.908740997314453
1395;16.864660263061523
1396;16.823898315429688
1397;16.790693283081055
1398;16.749296188354492
1399;16.710845947265625
1400;16.671356201171875
1401;16.632434844970703
1402;16.594158172607422
1403;16.55527114868164
1404;16.519207000732422
1405;16.48358726501465
1406;16.447416305541992
1407;16.410968780517578
1408;16.373947143554688
1409;16.340837478637695
1410;16.30694007873535
1411;16.272293090820312
1412;16.23982048034668
1413;16.207571029663086
1414;16.174543380737305
1415;16.143293380737305
1416;16.113018035888672
1417;16.081378936767578
1418;16.049421310424805
1419;16.020395278930664
1420;15.99079418182373
1421;15.959409713745117
1422;15.930323600769043
1423;15.902989387512207
1424;15.87391185760498
1425;15.84337329864502
1426;15.814265251159668
1427;15.790098190307617
1428;15.763076782226562
1429;15.73314380645752
1430;15.702719688415527
1431;15.676009178161621
1432;15.649361610412598
1433;15.62102222442627
1434;15.59400463104248
1435;15.5701265335083
1436;15.545567512512207
1437;15.518563270568848
1438;15.49396800994873
1439;15.470377922058105
1440;15.445548057556152
1441;15.41962718963623
1442;15.39405345916748
1443;15.371678352355957
1444;15.348434448242188
1445;15.323060989379883
1446;15.298505783081055
1447;15.275853157043457
1448;15.252490043640137
1449;15.228528022766113
1450;15.204781532287598
1451;15.18204402923584
1452;15.158061027526855
1453;15.134597778320312
1454;15.111663818359375
1455;15.088427543640137
1456;15.06419849395752
1457;15.04051685333252
1458;15.019781112670898
1459;14.99640941619873
1460;14.97271728515625
1461;14.951494216918945
1462;14.929375648498535
1463;14.906362533569336
1464;14.882829666137695
1465;14.859283447265625
1466;14.837080955505371
1467;14.811601638793945
1468;14.786309242248535
1469;14.761086463928223
1470;14.734755516052246
1471;14.705245971679688
1472;14.6739501953125
1473;14.63889217376709
1474;14.601841926574707
1475;14.555228233337402
1476;14.496184349060059
1477;14.42438793182373
1478;14.332990646362305
1479;14.213663101196289
1480;14.070405006408691
1481;13.922429084777832
1482;13.801392555236816
1483;13.741562843322754
1484;13.734618186950684
1485;13.741914749145508
1486;13.727259635925293
1487;13.682340621948242
1488;13.613996505737305
1489;13.541316032409668
1490;13.478297233581543
1491;13.428842544555664
1492;13.391663551330566
1493;13.358946800231934
1494;13.323819160461426
1495;13.27949047088623
1496;13.229681968688965
1497;13.184446334838867
1498;13.14648723602295
1499;13.114434242248535
1500;13.084135055541992
1501;13.053220748901367
1502;13.020027160644531
1503;12.983999252319336
1504;12.953094482421875
1505;12.92284107208252
1506;12.89411735534668
1507;12.864466667175293
1508;12.83281421661377
1509;12.804483413696289
1510;12.776618003845215
1511;12.749189376831055
1512;12.721808433532715
1513;12.694841384887695
1514;12.668716430664062
1515;12.643880844116211
1516;12.619874954223633
1517;12.595718383789062
1518;12.571160316467285
1519;12.546687126159668
1520;12.524090766906738
1521;12.501523971557617
1522;12.477581977844238
1523;12.45340633392334
1524;12.42984676361084
1525;12.408217430114746
1526;12.386285781860352
1527;12.36461353302002
1528;12.343125343322754
1529;12.322853088378906
1530;12.30231761932373
1531;12.28144645690918
1532;12.261021614074707
1533;12.24088191986084
1534;12.220823287963867
1535;12.201092720031738
1536;12.181793212890625
1537;12.1617431640625
1538;12.143092155456543
1539;12.124038696289062
1540;12.105751037597656
1541;12.086957931518555
1542;12.068708419799805
1543;12.05065631866455
1544;12.032529830932617
1545;12.014741897583008
1546;11.996785163879395
1547;11.97940731048584
1548;11.961946487426758
1549;11.945074081420898
1550;11.927505493164062
1551;11.9093017578125
1552;11.891901969909668
1553;11.87465763092041
1554;11.857393264770508
1555;11.839789390563965
1556;11.822386741638184
1557;11.80445384979248
1558;11.788092613220215
1559;11.769814491271973
1560;11.750883102416992
1561;11.73319149017334
1562;11.714508056640625
1563;11.695334434509277
1564;11.676077842712402
1565;11.656248092651367
1566;11.635722160339355
1567;11.614593505859375
1568;11.592329025268555
1569;11.56861686706543
1570;11.542746543884277
1571;11.515639305114746
1572;11.485458374023438
1573;11.452430725097656
1574;11.41490364074707
1575;11.37252140045166
1576;11.323044776916504
1577;11.265006065368652
1578;11.19780158996582
1579;11.120237350463867
1580;11.033196449279785
1581;10.94001293182373
1582;10.849198341369629
1583;10.76972770690918
1584;10.708984375
1585;10.66956615447998
1586;10.648350715637207
1587;10.636031150817871
1588;10.622942924499512
1589;10.604986190795898
1590;10.57328987121582
1591;10.531025886535645
1592;10.48464298248291
1593;10.433524131774902
1594;10.383893966674805
1595;10.344069480895996
1596;10.304373741149902
1597;10.267971992492676
1598;10.238174438476562
1599;10.208938598632812
1600;10.179359436035156
1601;10.151826858520508
1602;10.121885299682617
1603;10.088238716125488
1604;10.050270080566406
1605;10.009448051452637
1606;9.966486930847168
1607;9.919264793395996
1608;9.864667892456055
1609;9.805035591125488
1610;9.737156867980957
1611;9.65953254699707
1612;9.572840690612793
1613;9.481040000915527
1614;9.39587116241455
1615;9.324427604675293
1616;9.27115535736084
1617;9.239583969116211
1618;9.221264839172363
1619;9.20745849609375
1620;9.19570255279541
1621;9.180436134338379
1622;9.15511417388916
1623;9.122011184692383
1624;9.082425117492676
1625;9.04278564453125
1626;9.003632545471191
1627;8.95966911315918
1628;8.928200721740723
1629;8.901278495788574
1630;8.874795913696289
1631;8.85078239440918
1632;8.826942443847656
1633;8.805571556091309
1634;8.785561561584473
1635;8.765547752380371
1636;8.744712829589844
1637;8.723422050476074
1638;8.701641082763672
1639;8.677979469299316
1640;8.656363487243652
1641;8.634188652038574
1642;8.611811637878418
1643;8.590314865112305
1644;8.56965160369873
1645;8.54902458190918
1646;8.530088424682617
1647;8.512606620788574
1648;8.495626449584961
1649;8.475730895996094
1650;8.459264755249023
1651;8.443829536437988
1652;8.42505931854248
1653;8.407926559448242
1654;8.389337539672852
1655;8.372411727905273
1656;8.353544235229492
1657;8.336112976074219
1658;8.318634986877441
1659;8.300386428833008
1660;8.283646583557129
1661;8.266799926757812
1662;8.24954605102539
1663;8.23266887664795
1664;8.215240478515625
1665;8.199716567993164
1666;8.182573318481445
1667;8.166579246520996
1668;8.14974308013916
1669;8.134013175964355
1670;8.117257118225098
1671;8.099247932434082
1672;8.084990501403809
1673;8.069799423217773
1674;8.055715560913086
1675;8.040942192077637
1676;8.034748077392578
1677;8.012160301208496
1678;7.988212585449219
1679;7.962413311004639
1680;7.9436516761779785
1681;7.933108329772949
1682;7.924346923828125
1683;7.916057586669922
1684;7.882782459259033
1685;7.855945110321045
1686;7.833050727844238
1687;7.817183971405029
1688;7.803585529327393
1689;7.775608539581299
1690;7.745711326599121
1691;7.711562156677246
1692;7.681204319000244
1693;7.648662090301514
1694;7.615814208984375
1695;7.585945129394531
1696;7.552027225494385
1697;7.525383949279785
1698;7.457295894622803
1699;7.39078950881958
1700;7.318312644958496
1701;7.257143497467041
1702;7.2101640701293945
1703;7.1771464347839355
1704;7.163047790527344
1705;7.164037227630615
1706;7.1934638023376465
1707;7.140268802642822
1708;7.080966949462891
1709;7.0315351486206055
1710;7.027487277984619
1711;7.039462566375732
1712;6.989010334014893
1713;6.936501502990723
1714;6.926077842712402
1715;6.928982257843018
1716;6.913112163543701
1717;6.8618621826171875
1718;6.8354973793029785
1719;6.82736349105835
1720;6.821055889129639
1721;6.832050323486328
1722;6.801321983337402
1723;6.77588415145874
1724;6.741491794586182
1725;6.713104248046875
1726;6.676289081573486
1727;6.657638072967529
1728;6.637290954589844
1729;6.616346836090088
1730;6.597623348236084
1731;6.578740119934082
1732;6.563777446746826
1733;6.552456378936768
1734;6.559346675872803
1735;6.601210117340088
1736;6.769820213317871
1737;6.597443580627441
1738;6.509246826171875
1739;6.430998802185059
1740;6.413588047027588
1741;6.430496692657471
1742;6.43402624130249
1743;6.44113826751709
1744;6.361917972564697
1745;6.311825752258301
1746;6.300007343292236
1747;6.309220314025879
1748;6.324250221252441
1749;6.26859188079834
1750;6.225290775299072
1751;6.1825079917907715
1752;6.148190975189209
1753;6.133614540100098
1754;6.124650001525879
1755;6.130073547363281
1756;6.0801849365234375
1757;6.033720970153809
1758;5.957435607910156
1759;5.8959784507751465
1760;5.846833229064941
1761;5.809329986572266
1762;5.806727886199951
1763;5.791703701019287
1764;5.808852672576904
1765;5.679257392883301
1766;5.589042663574219
1767;5.492242336273193
1768;5.423654079437256
1769;5.369722843170166
1770;5.346707344055176
1771;5.319031715393066
1772;5.320830345153809
1773;5.367318153381348
1774;5.4248433113098145
1775;5.4838032722473145
1776;5.319228172302246
1777;5.180084705352783
1778;5.168713092803955
1779;5.285404682159424
1780;5.408656597137451
1781;5.133854389190674
1782;5.060263156890869
1783;5.202151775360107
1784;5.115841865539551
1785;4.9604973793029785
1786;4.957455158233643
1787;4.9876885414123535
1788;4.983314037322998
1789;4.886054039001465
1790;4.823907375335693
1791;4.83707857131958
1792;4.841675281524658
1793;4.80892276763916
1794;4.720832347869873
1795;4.693897724151611
1796;4.705977439880371
1797;4.713381290435791
1798;4.688618183135986
1799;4.6068596839904785
1800;4.55143404006958
1801;4.548003673553467
1802;4.521330833435059
1803;4.472245216369629
1804;4.444302558898926
1805;4.424129486083984
1806;4.405217170715332
1807;4.3718791007995605
1808;4.344329833984375
1809;4.332175254821777
1810;4.346418857574463
1811;4.314841270446777
1812;4.264464855194092
1813;4.182661533355713
1814;4.146496295928955
1815;4.1093668937683105
1816;4.070740699768066
1817;4.0450968742370605
1818;4.023848056793213
1819;4.012897968292236
1820;3.938342571258545
1821;3.8832600116729736
1822;3.857430934906006
1823;3.87538743019104
1824;3.8336071968078613
1825;3.7542474269866943
1826;3.6591529846191406
1827;3.5830459594726562
1828;3.5448849201202393
1829;3.52642560005188
1830;3.5228915214538574
1831;3.4689812660217285
1832;3.4060661792755127
1833;3.353322744369507
1834;3.3014771938323975
1835;3.2506394386291504
1836;3.2069544792175293
1837;3.1581382751464844
1838;3.1228692531585693
1839;3.1022956371307373
1840;3.0709521770477295
1841;3.0171961784362793
1842;2.970059871673584
1843;2.939519166946411
1844;2.902052402496338
1845;2.871563196182251
1846;2.8642287254333496
1847;2.89306640625
1848;2.9590365886688232
1849;2.9219517707824707
1850;2.858551025390625
1851;2.733255624771118
1852;2.6798183917999268
1853;2.7023608684539795
1854;2.7359235286712646
1855;2.7593040466308594
1856;2.6671245098114014
1857;2.580491781234741
1858;2.521902561187744
1859;2.5207080841064453
1860;2.5371639728546143
1861;2.515612840652466
1862;2.483541250228882
1863;2.430466890335083
1864;2.3845863342285156
1865;2.3586068153381348
1866;2.335233449935913
1867;2.3151233196258545
1868;2.311903715133667
1869;2.3262484073638916
1870;2.3192336559295654
1871;2.3111796379089355
1872;2.2496449947357178
1873;2.2025773525238037
1874;2.2017576694488525
1875;2.214365243911743
1876;2.1995224952697754
1877;2.1497180461883545
1878;2.1175410747528076
1879;2.0977084636688232
1880;2.095287322998047
1881;2.0983123779296875
1882;2.100989580154419
1883;2.0788328647613525
1884;2.04740834236145
1885;2.0107743740081787
1886;1.991367220878601
1887;1.9769524335861206
1888;1.972831130027771
1889;1.9644947052001953
1890;1.9457193613052368
1891;1.9233789443969727
1892;1.9084243774414062
1893;1.899120569229126
1894;1.8939993381500244
1895;1.8845325708389282
1896;1.8672226667404175
1897;1.8475617170333862
1898;1.8270097970962524
1899;1.8222535848617554
1900;1.8407819271087646
1901;1.8426473140716553
1902;1.8430917263031006
1903;1.7986522912979126
1904;1.7593939304351807
1905;1.7514288425445557
1906;1.7610414028167725
1907;1.7593269348144531
1908;1.7364095449447632
1909;1.7178438901901245
1910;1.6960465908050537
1911;1.6766940355300903
1912;1.6627848148345947
1913;1.648256540298462
1914;1.6340152025222778
1915;1.6274348497390747
1916;1.632124900817871
1917;1.6362543106079102
1918;1.6482133865356445
1919;1.6273534297943115
1920;1.5920826196670532
1921;1.5640920400619507
1922;1.5549334287643433
1923;1.5586401224136353
1924;1.5713375806808472
1925;1.581433892250061
1926;1.598130226135254
1927;1.593347430229187
1928;1.5452842712402344
1929;1.4981662034988403
1930;1.4738737344741821
1931;1.4637185335159302
1932;1.4563583135604858
1933;1.450861930847168
1934;1.442447304725647
1935;1.4320886135101318
1936;1.4264723062515259
1937;1.4215084314346313
1938;1.416387915611267
1939;1.4131602048873901
1940;1.4066784381866455
1941;1.3993055820465088
1942;1.390692114830017
1943;1.3840131759643555
1944;1.377435326576233
1945;1.3634744882583618
1946;1.3526039123535156
1947;1.3359917402267456
1948;1.3184555768966675
1949;1.3076884746551514
1950;1.306391954421997
1951;1.312839388847351
1952;1.3311928510665894
1953;1.3492738008499146
1954;1.350005865097046
1955;1.3303910493850708
1956;1.2922022342681885
1957;1.2596509456634521
1958;1.239648461341858
1959;1.2352145910263062
1960;1.2509533166885376
1961;1.2632917165756226
1962;1.270536184310913
1963;1.2399932146072388
1964;1.2045198678970337
1965;1.1910450458526611
1966;1.2025127410888672
1967;1.2279268503189087
1968;1.2301267385482788
1969;1.2098981142044067
1970;1.1737383604049683
1971;1.1493958234786987
1972;1.1431783437728882
1973;1.1491910219192505
1974;1.1621538400650024
1975;1.1580955982208252
1976;1.1461378335952759
1977;1.1208447217941284
1978;1.1061513423919678
1979;1.0985523462295532
1980;1.0975277423858643
1981;1.0955283641815186
1982;1.088485836982727
1983;1.081290602684021
1984;1.0735021829605103
1985;1.06513512134552
1986;1.058196783065796
1987;1.0515013933181763
1988;1.0458335876464844
1989;1.0412009954452515
1990;1.036139965057373
1991;1.0332903861999512
1992;1.0263020992279053
1993;1.018081545829773
1994;1.0101079940795898
1995;1.0057741403579712
1996;1.0056036710739136
1997;1.0101357698440552
1998;1.0074689388275146
1999;1.0014382600784302
2000;0.9888018369674683
2001;0.9781673550605774
2002;0.9696664810180664
2003;0.9642232060432434
2004;0.9607974886894226
2005;0.9614453911781311
2006;0.9611072540283203
2007;0.9616928100585938
2008;0.9519466161727905
2009;0.9422659277915955
2010;0.932344913482666
2011;0.927176296710968
2012;0.925931990146637
2013;0.9256264567375183
2014;0.9242101311683655
2015;0.9196270108222961
2016;0.9109402298927307
2017;0.9038335084915161
2018;0.8966142535209656
2019;0.8913989067077637
2020;0.8881834149360657
2021;0.8841909766197205
2022;0.8791252970695496
2023;0.8752164840698242
2024;0.871978759765625
2025;0.8701926469802856
2026;0.8685966730117798
2027;0.86700040102005
2028;0.8635696172714233
2029;0.858760416507721
2030;0.853877604007721
2031;0.8474720120429993
2032;0.8417254686355591
2033;0.8384234309196472
2034;0.8372101783752441
2035;0.83653324842453
2036;0.8351038098335266
2037;0.8302606344223022
2038;0.8241530656814575
2039;0.8180359601974487
2040;0.8135117888450623
2041;0.8110257983207703
2042;0.810640275478363
2043;0.8095962405204773
2044;0.8073927760124207
2045;0.8010688424110413
2046;0.7957456707954407
2047;0.7927414178848267
2048;0.7914547324180603
2049;0.7926548719406128
2050;0.7900704741477966
2051;0.7856079936027527
2052;0.7787649035453796
2053;0.7745576500892639
2054;0.7728290557861328
2055;0.7719535231590271
2056;0.772384762763977
2057;0.7691785097122192
2058;0.7651446461677551
2059;0.7593703866004944
2060;0.7552958726882935
2061;0.7538428902626038
2062;0.7529635429382324
2063;0.7535048723220825
2064;0.7504701614379883
2065;0.7476457953453064
2066;0.742699146270752
2067;0.7380253672599792
2068;0.7355151772499084
2069;0.7345402836799622
2070;0.7331357002258301
2071;0.7304848432540894
2072;0.7276506423950195
2073;0.7245575785636902
2074;0.7219130396842957
2075;0.7194927930831909
2076;0.7169163823127747
2077;0.7145248055458069
2078;0.7125560641288757
2079;0.7108739018440247
2080;0.7095330357551575
2081;0.7078740000724792
2082;0.7062527537345886
2083;0.7036441564559937
2084;0.7004237174987793
2085;0.698112964630127
2086;0.6964859366416931
2087;0.6952225565910339
2088;0.6939004063606262
2089;0.6911324858665466
2090;0.6883090138435364
2091;0.6867755055427551
2092;0.6853762269020081
2093;0.683266282081604
2094;0.6805862784385681
2095;0.6783996224403381
2096;0.6770347356796265
2097;0.6753482818603516
2098;0.6737390160560608
2099;0.6711335778236389
2100;0.6682515144348145
2101;0.6661022305488586
2102;0.6644020080566406
2103;0.6624415516853333
2104;0.6592637896537781
2105;0.6548680067062378
2106;0.6514502763748169
2107;0.6504530906677246
2108;0.6492258906364441
2109;0.6476542353630066
2110;0.6454663872718811
2111;0.6434020400047302
2112;0.6418018341064453
2113;0.6395288705825806
2114;0.6382900476455688
2115;0.6371017098426819
2116;0.6364492177963257
2117;0.6360087990760803
2118;0.6347271800041199
2119;0.6325752139091492
2120;0.630092203617096
2121;0.6278194785118103
2122;0.6258129477500916
2123;0.6243693232536316
2124;0.6233538389205933
2125;0.6216902732849121
2126;0.6205204129219055
2127;0.6195183992385864
2128;0.6182978749275208
2129;0.6169144511222839
2130;0.6154690980911255
2131;0.614008903503418
2132;0.6127048134803772
2133;0.611413300037384
2134;0.6101128458976746
2135;0.6086884140968323
2136;0.6073545217514038
2137;0.6065569519996643
2138;0.6055218577384949
2139;0.6044630408287048
2140;0.6032443642616272
2141;0.6018475890159607
2142;0.6003497242927551
2143;0.5993141531944275
2144;0.5982359647750854
2145;0.5966519117355347
2146;0.5956911444664001
2147;0.5947179794311523
2148;0.5936006307601929
2149;0.5923576951026917
2150;0.5914820432662964
2151;0.5900647044181824
2152;0.5891398787498474
2153;0.5882402658462524
2154;0.587162971496582
2155;0.5861175656318665
2156;0.5849303007125854
2157;0.584100604057312
2158;0.5827563405036926
2159;0.5817872285842896
2160;0.5806030035018921
2161;0.5800185799598694
2162;0.5790363550186157
2163;0.5777886509895325
2164;0.5766583681106567
2165;0.5758367776870728
2166;0.5748236775398254
2167;0.5738288164138794
2168;0.5728554129600525
2169;0.5718302726745605
2170;0.5709319710731506
2171;0.5697066783905029
2172;0.5695651769638062
2173;0.5683801770210266
2174;0.567221999168396
2175;0.5663537979125977
2176;0.5651047825813293
2177;0.5642070174217224
2178;0.5631837844848633
2179;0.5620740056037903
2180;0.5611387491226196
2181;0.56025230884552
2182;0.5592159628868103
2183;0.5582996606826782
2184;0.5575090050697327
2185;0.5564112067222595
2186;0.5559379458427429
2187;0.5547184944152832
2188;0.5545691251754761
2189;0.5542740225791931
2190;0.5534019470214844
2191;0.552351176738739
2192;0.5508888363838196
2193;0.5505402684211731
2194;0.5492275357246399
2195;0.5477368831634521
2196;0.5475112795829773
2197;0.5468035340309143
2198;0.546251654624939
2199;0.5455803275108337
2200;0.5440324544906616
2201;0.5422576665878296
2202;0.5414712429046631
2203;0.5414696335792542
2204;0.5406896471977234
2205;0.538920521736145
2206;0.5379919409751892
2207;0.5375491976737976
2208;0.5370045900344849
2209;0.5360594987869263
2210;0.5349939465522766
2211;0.5337625741958618
2212;0.5327443480491638
2213;0.5319344401359558
2214;0.5309537649154663
2215;0.5300945043563843
2216;0.5296114087104797
2217;0.5291394591331482
2218;0.5282959342002869
2219;0.5272966027259827
2220;0.5259777307510376
2221;0.525413990020752
2222;0.5243123173713684
2223;0.5231191515922546
2224;0.5224305391311646
2225;0.5215758681297302
2226;0.5210281014442444
2227;0.5210039019584656
2228;0.5192044377326965
2229;0.5187234878540039
2230;0.5180714726448059
2231;0.5168361067771912
2232;0.5158451795578003
2233;0.5152387022972107
2234;0.5142877697944641
2235;0.5132430195808411
2236;0.5124753713607788
2237;0.5113967061042786
2238;0.5100918412208557
2239;0.5095547437667847
2240;0.509038507938385
2241;0.5084714889526367
2242;0.5082693099975586
2243;0.5083907842636108
2244;0.5085257887840271
2245;0.5073809027671814
2246;0.5069577097892761
2247;0.504831850528717
2248;0.5029491186141968
2249;0.5014342069625854
2250;0.5006103515625
2251;0.5003144145011902
2252;0.4999183714389801
2253;0.49933820962905884
2254;0.4981658458709717
2255;0.49678128957748413
2256;0.4954337179660797
2257;0.4949459135532379
2258;0.4938110411167145
2259;0.49319693446159363
2260;0.4924820363521576
2261;0.4916774332523346
2262;0.49066877365112305
2263;0.49023908376693726
2264;0.48921021819114685
2265;0.4882941246032715
2266;0.487383097410202
2267;0.48636698722839355
2268;0.4857172966003418
2269;0.48506852984428406
2270;0.48405832052230835
2271;0.4835605025291443
2272;0.48333024978637695
2273;0.4830099940299988
2274;0.4824884831905365
2275;0.4821276068687439
2276;0.4812016189098358
2277;0.4798756539821625
2278;0.4781232178211212
2279;0.47631528973579407
2280;0.4756472408771515
2281;0.47492116689682007
2282;0.4747399687767029
2283;0.47474879026412964
2284;0.4746719002723694
2285;0.4745207130908966
2286;0.47363343834877014
2287;0.47184911370277405
2288;0.46989941596984863
2289;0.46831390261650085
2290;0.46713224053382874
2291;0.4667049050331116
2292;0.4663342833518982
2293;0.46611446142196655
2294;0.46564981341362
2295;0.4648797810077667
2296;0.4637736678123474
2297;0.4619949758052826
2298;0.4608243405818939
2299;0.45976170897483826
2300;0.45875176787376404
2301;0.4578227698802948
2302;0.457022100687027
2303;0.4563094675540924
2304;0.45546063780784607
2305;0.454389363527298
2306;0.453313410282135
2307;0.4520583748817444
2308;0.4510386288166046
2309;0.45011043548583984
2310;0.44918209314346313
2311;0.44861510396003723
2312;0.44777584075927734
2313;0.4466564357280731
2314;0.44547271728515625
2315;0.44448089599609375
2316;0.44369176030158997
2317;0.4425610899925232
2318;0.4417533874511719
2319;0.4407539367675781
2320;0.440004825592041
2321;0.439096599817276
2322;0.4379061162471771
2323;0.436713844537735
2324;0.43576905131340027
2325;0.43482229113578796
2326;0.433635413646698
2327;0.4326306879520416
2328;0.43167176842689514
2329;0.43050244450569153
2330;0.4291928708553314
2331;0.42800015211105347
2332;0.42668119072914124
2333;0.4253367781639099
2334;0.42402383685112
2335;0.42296072840690613
2336;0.4217055141925812
2337;0.4202151298522949
2338;0.41884762048721313
2339;0.4175846576690674
2340;0.41630205512046814
2341;0.41506966948509216
2342;0.41364526748657227
2343;0.41232535243034363
2344;0.4110341966152191
2345;0.4097641408443451
2346;0.4084128737449646
2347;0.40728917717933655
2348;0.40593376755714417
2349;0.4043984115123749
2350;0.4028422236442566
2351;0.4012506306171417
2352;0.39974063634872437
2353;0.39828819036483765
2354;0.3969179689884186
2355;0.3956451416015625
2356;0.39431068301200867
2357;0.39292284846305847
2358;0.3912656903266907
2359;0.39011797308921814
2360;0.38878414034843445
2361;0.38762447237968445
2362;0.3865358531475067
2363;0.38509926199913025
2364;0.3839503824710846
2365;0.38266387581825256
2366;0.38151007890701294
2367;0.3803076148033142
2368;0.3790787160396576
2369;0.3778853118419647
2370;0.3765523135662079
2371;0.37535104155540466
2372;0.37413233518600464
2373;0.3729722201824188
2374;0.3718644082546234
2375;0.37077638506889343
2376;0.36981064081192017
2377;0.368518203496933
2378;0.367050439119339
2379;0.3656570017337799
2380;0.36428922414779663
2381;0.36310333013534546
2382;0.3618223965167999
2383;0.3606020510196686
2384;0.3593747317790985
2385;0.3580338656902313
2386;0.3567498028278351
2387;0.355461061000824
2388;0.35430383682250977
2389;0.3532733917236328
2390;0.35233446955680847
2391;0.3511587679386139
2392;0.3495646119117737
2393;0.34784337878227234
2394;0.34621313214302063
2395;0.34492969512939453
2396;0.3437766432762146
2397;0.3425406813621521
2398;0.3410545885562897
2399;0.3393392860889435
2400;0.33763250708580017
2401;0.33607548475265503
2402;0.3346706032752991
2403;0.3336087763309479
2404;0.33212581276893616
2405;0.330362468957901
2406;0.3287437856197357
2407;0.3272075653076172
2408;0.32578590512275696
2409;0.32435789704322815
2410;0.3228210508823395
2411;0.3211698532104492
2412;0.31952545046806335
2413;0.31791654229164124
2414;0.31635522842407227
2415;0.31478971242904663
2416;0.3131994307041168
2417;0.3116489052772522
2418;0.31000709533691406
2419;0.3083532750606537
2420;0.30674687027931213
2421;0.3051835596561432
2422;0.3035571277141571
2423;0.3018949329853058
2424;0.3002716600894928
2425;0.2985810935497284
2426;0.29684561491012573
2427;0.2952108085155487
2428;0.2935231626033783
2429;0.2918308675289154
2430;0.2901335656642914
2431;0.2883748412132263
2432;0.2866686284542084
2433;0.2849312126636505
2434;0.2834658920764923
2435;0.2821088135242462
2436;0.28079408407211304
2437;0.2794375717639923
2438;0.2777264714241028
2439;0.2758927345275879
2440;0.27398163080215454
2441;0.27216723561286926
2442;0.27060791850090027
2443;0.2696724534034729
2444;0.2689325213432312
2445;0.26740047335624695
2446;0.2651093602180481
2447;0.26307931542396545
2448;0.26172885298728943
2449;0.260746031999588
2450;0.2595057785511017
2451;0.25798287987709045
2452;0.2560887634754181
2453;0.25418975949287415
2454;0.2526768147945404
2455;0.25132885575294495
2456;0.2499946802854538
2457;0.2484477311372757
2458;0.24683921039104462
2459;0.24514763057231903
2460;0.24360784888267517
2461;0.24216702580451965
2462;0.24089956283569336
2463;0.2394069880247116
2464;0.23791959881782532
2465;0.23614928126335144
2466;0.23447354137897491
2467;0.23294155299663544
2468;0.2315218448638916
2469;0.2301671802997589
2470;0.2286931574344635
2471;0.22698333859443665
2472;0.22519977390766144
2473;0.22375842928886414
2474;0.22233794629573822
2475;0.22118619084358215
2476;0.2199621945619583
2477;0.21828393638134003
2478;0.21650466322898865
2479;0.2146115005016327
2480;0.21296140551567078
2481;0.21162955462932587
2482;0.21037939190864563
2483;0.20892539620399475
2484;0.20712603628635406
2485;0.20517753064632416
2486;0.20357196033000946
2487;0.2020285427570343
2488;0.20039017498493195
2489;0.19924752414226532
2490;0.1980668157339096
2491;0.19659121334552765
2492;0.19476880133152008
2493;0.1929314136505127
2494;0.19132207334041595
2495;0.18968071043491364
2496;0.18794046342372894
2497;0.1862710863351822
2498;0.18464817106723785
2499;0.18297125399112701
2500;0.1812748908996582
2501;0.17982158064842224
2502;0.1784605234861374
2503;0.17701292037963867
2504;0.175339475274086
2505;0.17354263365268707
2506;0.1718660593032837
2507;0.17038509249687195
2508;0.168941929936409
2509;0.16737297177314758
2510;0.16586735844612122
2511;0.16449964046478271
2512;0.16307830810546875
2513;0.161616250872612
2514;0.16021893918514252
2515;0.1587669402360916
2516;0.15732334554195404
2517;0.15606334805488586
2518;0.15474019944667816
2519;0.15331986546516418
2520;0.15201905369758606
2521;0.15075556933879852
2522;0.14949628710746765
2523;0.14822213351726532
2524;0.14692334830760956
2525;0.14564386010169983
2526;0.1444203108549118
2527;0.1431548297405243
2528;0.14195871353149414
2529;0.1407572329044342
2530;0.1395663619041443
2531;0.13841331005096436
2532;0.1372147500514984
2533;0.1360761672258377
2534;0.1348920613527298
2535;0.13384291529655457
2536;0.13275077939033508
2537;0.1316751390695572
2538;0.13056017458438873
2539;0.12947893142700195
2540;0.12844525277614594
2541;0.12742304801940918
2542;0.12642177939414978
2543;0.12542283535003662
2544;0.12441062927246094
2545;0.1234712228178978
2546;0.12247979640960693
2547;0.12149621546268463
2548;0.12053956091403961
2549;0.11958565562963486
2550;0.11864930391311646
2551;0.11772651225328445
2552;0.1167990043759346
2553;0.11587125808000565
2554;0.114977166056633
2555;0.11408083885908127
2556;0.11318162828683853
2557;0.11226822435855865
2558;0.11139706522226334
2559;0.11055556684732437
2560;0.10969265550374985
2561;0.10879159718751907
2562;0.10800603777170181
2563;0.10718398541212082
2564;0.10639914125204086
2565;0.10554083436727524
2566;0.10468216985464096
2567;0.1038670763373375
2568;0.10307598114013672
2569;0.10228092223405838
2570;0.10146699845790863
2571;0.10071301460266113
2572;0.09995974600315094
2573;0.09911220520734787
2574;0.09834955632686615
2575;0.09761998802423477
2576;0.09685155004262924
2577;0.0961337611079216
2578;0.09536620229482651
2579;0.09460429102182388
2580;0.09391571581363678
2581;0.09317969530820847
2582;0.09252595901489258
2583;0.09179212898015976
2584;0.09104150533676147
2585;0.09036961942911148
2586;0.08971069753170013
2587;0.08902380615472794
2588;0.0883035659790039
2589;0.08762555569410324
2590;0.08697210252285004
2591;0.08631832897663116
2592;0.08564469963312149
2593;0.08503536880016327
2594;0.08449065685272217
2595;0.08407969027757645
2596;0.08392678946256638
2597;0.08355433493852615
2598;0.08340580761432648
2599;0.08269543200731277
2600;0.08204334229230881
2601;0.08098240941762924
2602;0.08027427643537521
2603;0.07956533133983612
2604;0.07883967459201813
2605;0.07848813384771347
2606;0.07797560840845108
2607;0.07726776599884033
2608;0.07662801444530487
2609;0.07607275992631912
2610;0.07555718719959259
2611;0.07522136718034744
2612;0.07509154081344604
2613;0.07503998279571533
2614;0.07472269237041473
2615;0.07439356297254562
2616;0.0735049620270729
2617;0.07267343997955322
2618;0.07173238694667816
2619;0.07117654383182526
2620;0.07061485946178436
2621;0.0700286328792572
2622;0.06964994966983795
2623;0.0692957192659378
2624;0.06875701993703842
2625;0.0681634321808815
2626;0.06800805032253265
2627;0.06789400428533554
2628;0.0678744837641716
2629;0.06867492198944092
2630;0.0695008710026741
2631;0.07001075893640518
2632;0.06896764785051346
2633;0.06776909530162811
2634;0.06568077951669693
2635;0.0638837218284607
2636;0.0633903294801712
2637;0.0638267993927002
2638;0.06424064934253693
2639;0.06425642967224121
2640;0.06321103870868683
2641;0.06201836094260216
2642;0.06102604418992996
2643;0.06068440154194832
2644;0.06077638640999794
2645;0.060727424919605255
2646;0.06015731766819954
2647;0.05934610590338707
2648;0.05868005007505417
2649;0.058486614376306534
2650;0.058524519205093384
2651;0.058668024837970734
2652;0.058434855192899704
2653;0.0579385831952095
2654;0.057110559195280075
2655;0.05652162805199623
2656;0.05600587651133537
2657;0.05573031306266785
2658;0.05549895763397217
2659;0.05527836084365845
2660;0.054886382073163986
2661;0.05445441976189613
2662;0.05406000092625618
2663;0.05378381162881851
2664;0.05354323238134384
2665;0.053223829716444016
2666;0.052849676460027695
2667;0.05269797518849373
2668;0.052340973168611526
2669;0.05197402089834213
2670;0.05165507271885872
2671;0.05135920271277428
2672;0.05119951441884041
2673;0.051138587296009064
2674;0.05104875564575195
2675;0.050683822482824326
2676;0.0501934252679348
2677;0.04958562180399895
2678;0.04941381886601448
2679;0.049414731562137604
2680;0.049420733004808426
2681;0.04929962009191513
2682;0.04884008318185806
2683;0.04827561601996422
2684;0.04773294925689697
2685;0.047373056411743164
2686;0.047182414680719376
2687;0.04712206870317459
2688;0.047185156494379044
2689;0.0469365194439888
2690;0.04673723503947258
2691;0.046323467046022415
2692;0.04581855610013008
2693;0.04535457119345665
2694;0.04503484442830086
2695;0.044929128140211105
2696;0.04483392834663391
2697;0.04490506276488304
2698;0.04466021806001663
2699;0.04427545890212059
2700;0.043774448335170746
2701;0.04332984238862991
2702;0.04306668043136597
2703;0.04294569045305252
2704;0.04279302433133125
2705;0.04253131523728371
2706;0.042495377361774445
2707;0.04220035672187805
2708;0.0419006273150444
2709;0.041547682136297226
2710;0.04120660200715065
2711;0.04097292199730873
2712;0.0408414788544178
2713;0.04064048454165459
2714;0.04046889767050743
2715;0.04035385698080063
2716;0.04012167826294899
2717;0.03993012756109238
2718;0.03969334810972214
2719;0.03933238610625267
2720;0.038986388593912125
2721;0.038763999938964844
2722;0.038629718124866486
2723;0.03858780860900879
2724;0.03867853060364723
2725;0.038542427122592926
2726;0.03831014782190323
2727;0.03796550631523132
2728;0.03750693053007126
2729;0.0371052585542202
2730;0.03689512237906456
2731;0.036817990243434906
2732;0.03708794340491295
2733;0.03748658671975136
2734;0.037693049758672714
2735;0.03755636885762215
2736;0.03718667849898338
2737;0.03642972186207771
2738;0.03580806776881218
2739;0.035310048609972
2740;0.03493037074804306
2741;0.03491766005754471
2742;0.03479917719960213
2743;0.034654803574085236
2744;0.03446922078728676
2745;0.03408447653055191
2746;0.03384282812476158
2747;0.033624645322561264
2748;0.033610813319683075
2749;0.033838529139757156
2750;0.03420700505375862
2751;0.03406728059053421
2752;0.03381415084004402
2753;0.033418189734220505
2754;0.032784800976514816
2755;0.032337311655282974
2756;0.03227250277996063
2757;0.0324321873486042
2758;0.03243312984704971
2759;0.032192036509513855
2760;0.03175099566578865
2761;0.03140464052557945
2762;0.031311340630054474
2763;0.031208382919430733
2764;0.031063077971339226
2765;0.03090953454375267
2766;0.030690034851431847
2767;0.030494671314954758
2768;0.030407728627324104
2769;0.030361058190464973
2770;0.03019608184695244
2771;0.03006288968026638
2772;0.029856977984309196
2773;0.02960600145161152
2774;0.029599696397781372
2775;0.02980288304388523
2776;0.029763968661427498
2777;0.029698040336370468
2778;0.029418455436825752
2779;0.029166344553232193
2780;0.02875584550201893
2781;0.028581243008375168
2782;0.028490904718637466
2783;0.02840527333319187
2784;0.028322819620370865
2785;0.02822674810886383
2786;0.02803732641041279
2787;0.027820710092782974
2788;0.027639705687761307
2789;0.02750329114496708
2790;0.027418579906225204
2791;0.027375901117920876
2792;0.027309034019708633
2793;0.027395937591791153
2794;0.027424219995737076
2795;0.027568889781832695
2796;0.02738921530544758
2797;0.0272468663752079
2798;0.026882534846663475
2799;0.026417693123221397
2800;0.02631525881588459
2801;0.026256922632455826
2802;0.026201320812106133
2803;0.0263262540102005
2804;0.026442615315318108
2805;0.026174847036600113
2806;0.026033276692032814
2807;0.0255746953189373
2808;0.02529001049697399
2809;0.025249673053622246
2810;0.025184137746691704
2811;0.025157729163765907
2812;0.02511495351791382
2813;0.024887626990675926
2814;0.02468862012028694
2815;0.024501094594597816
2816;0.024372905492782593
2817;0.024333927780389786
2818;0.02424567937850952
2819;0.024134250357747078
2820;0.024014228954911232
2821;0.023916741833090782
2822;0.023848991841077805
2823;0.02382837049663067
2824;0.023922443389892578
2825;0.02367250621318817
2826;0.02345460280776024
2827;0.023395994678139687
2828;0.023152444511651993
2829;0.023103978484869003
2830;0.023039041087031364
2831;0.022909948602318764
2832;0.022901596501469612
2833;0.022744502872228622
2834;0.02261202223598957
2835;0.02252761460840702
2836;0.02237085811793804
2837;0.02223151922225952
2838;0.022168835625052452
2839;0.022083738818764687
2840;0.021982267498970032
2841;0.022028235718607903
2842;0.022075219079852104
2843;0.021965447813272476
2844;0.02208399958908558
2845;0.022099049761891365
2846;0.021792849525809288
2847;0.021645141765475273
2848;0.021675096824765205
2849;0.021379899233579636
2850;0.021268831565976143
2851;0.021166866645216942
2852;0.020823555067181587
2853;0.020860129967331886
2854;0.02086915634572506
2855;0.020611459389328957
2856;0.020728426054120064
2857;0.020697155967354774
2858;0.0203368179500103
2859;0.020377563312649727
2860;0.020197415724396706
2861;0.020018383860588074
2862;0.020082682371139526
2863;0.019970040768384933
2864;0.019750555977225304
2865;0.019864587113261223
2866;0.019824938848614693
2867;0.019626667723059654
2868;0.01972266472876072
2869;0.019598159939050674
2870;0.019293636083602905
2871;0.01933557167649269
2872;0.019240230321884155
2873;0.018979350104928017
2874;0.019043076783418655
2875;0.018881896510720253
2876;0.018738342449069023
2877;0.01876574195921421
2878;0.018750837072730064
2879;0.018654828891158104
2880;0.018826032057404518
2881;0.018991759046912193
2882;0.0189130287617445
2883;0.019084395840764046
2884;0.018977036699652672
2885;0.01873762346804142
2886;0.018609417602419853
2887;0.018334748223423958
2888;0.018014417961239815
2889;0.017947429791092873
2890;0.017795776948332787
2891;0.017540333792567253
2892;0.01759810745716095
2893;0.01752305030822754
2894;0.017435817047953606
2895;0.01750732958316803
2896;0.017387446016073227
2897;0.017317887395620346
2898;0.01735149510204792
2899;0.017339901998639107
2900;0.017306137830018997
2901;0.017452914267778397
2902;0.017512859776616096
2903;0.01743938960134983
2904;0.017470523715019226
2905;0.017460469156503677
2906;0.01737212762236595
2907;0.01722828857600689
2908;0.01713496819138527
2909;0.016893399879336357
2910;0.01672455482184887
2911;0.01682959496974945
2912;0.016660360619425774
2913;0.016794010996818542
2914;0.01700635254383087
2915;0.017151951789855957
2916;0.01730635203421116
2917;0.017374420538544655
2918;0.017564496025443077
2919;0.017599070444703102
2920;0.017839979380369186
2921;0.017796969041228294
2922;0.017644250765442848
2923;0.01735115610063076
2924;0.0169551819562912
2925;0.016473306342959404
2926;0.016033411026000977
2927;0.015582568012177944
2928;0.015240119770169258
2929;0.014986120164394379
2930;0.014808563515543938
2931;0.014735160395503044
2932;0.014719928614795208
2933;0.014726816676557064
2934;0.014797537587583065
2935;0.014905142597854137
2936;0.01502525620162487
2937;0.015142464078962803
2938;0.015212871134281158
2939;0.01536394190043211
2940;0.015435696579515934
2941;0.015529506839811802
2942;0.01557477843016386
2943;0.015670262277126312
2944;0.016092456877231598
2945;0.016407134011387825
2946;0.0166866946965456
2947;0.01717541553080082
2948;0.01715785637497902
2949;0.01742205210030079
2950;0.018238389864563942
2951;0.018766487017273903
2952;0.019434776157140732
2953;0.0200494471937418
2954;0.01974690519273281
2955;0.019271980971097946
2956;0.018041474744677544
2957;0.016768720000982285
2958;0.015275031328201294
2959;0.014110445976257324
2960;0.013317020609974861
2961;0.012934908270835876
2962;0.012970591895282269
2963;0.01325459498912096
2964;0.01370953768491745
2965;0.014229252934455872
2966;0.014804203994572163
2967;0.015169731341302395
2968;0.015550228767096996
2969;0.015460888855159283
2970;0.015201774425804615
2971;0.014636455103754997
2972;0.014017291367053986
2973;0.01329771988093853
2974;0.012734916992485523
2975;0.012348271906375885
2976;0.012117375619709492
2977;0.01207937952131033
2978;0.012158025987446308
2979;0.012302369810640812
2980;0.0124835055321455
2981;0.012638123705983162
2982;0.012708340771496296
2983;0.012732090428471565
2984;0.012679645791649818
2985;0.012636498548090458
2986;0.01253147516399622
2987;0.012400518171489239
2988;0.012224935926496983
2989;0.012020696885883808
2990;0.01182679645717144
2991;0.011635459959506989
2992;0.01146032102406025
2993;0.01132479403167963
2994;0.011209158226847649
2995;0.01113078836351633
2996;0.011077714152634144
2997;0.011055304668843746
2998;0.010994802229106426
2999;0.010960490442812443
