;loss
0;869.2249145507812
1;867.6614990234375
2;865.5654296875
3;863.4713745117188
4;861.5026245117188
5;859.4862060546875
6;857.3631591796875
7;855.2610473632812
8;853.0816040039062
9;850.8804321289062
10;848.6190185546875
11;846.2842407226562
12;843.8712768554688
13;841.36376953125
14;838.74658203125
15;836.0028076171875
16;833.1351928710938
17;830.0778198242188
18;826.82666015625
19;823.3515625
20;819.6177368164062
21;815.62841796875
22;811.2470703125
23;806.5101318359375
24;801.2972412109375
25;795.5152587890625
26;788.9651489257812
27;781.64306640625
28;773.1614990234375
29;763.4254760742188
30;751.9158935546875
31;737.7890625
32;720.24658203125
33;697.080078125
34;663.96240234375
35;615.0224609375
36;549.7733764648438
37;486.74005126953125
38;442.48284912109375
39;412.89959716796875
40;390.8160095214844
41;373.5036926269531
42;359.4125671386719
43;347.60638427734375
44;337.4698791503906
45;328.59429931640625
46;320.7790222167969
47;313.664794921875
48;307.2484436035156
49;301.35107421875
50;295.8740234375
51;290.7112731933594
52;285.8609313964844
53;281.28411865234375
54;276.9855651855469
55;272.8631286621094
56;268.9339294433594
57;265.1788635253906
58;261.6083068847656
59;258.1773681640625
60;254.8441619873047
61;251.6483612060547
62;248.55259704589844
63;245.5249786376953
64;242.5809326171875
65;239.7136688232422
66;236.91650390625
67;234.20289611816406
68;231.5482940673828
69;228.93067932128906
70;226.38218688964844
71;223.86509704589844
72;221.39442443847656
73;218.9675750732422
74;216.59768676757812
75;214.2670135498047
76;211.97412109375
77;209.71763610839844
78;207.49607849121094
79;205.29502868652344
80;203.13986206054688
81;201.0161895751953
82;198.92306518554688
83;196.84788513183594
84;194.80189514160156
85;192.79563903808594
86;190.80580139160156
87;188.84298706054688
88;186.91683959960938
89;185.01602172851562
90;183.14002990722656
91;181.2786102294922
92;179.45059204101562
93;177.64573669433594
94;175.85459899902344
95;174.0859375
96;172.3393096923828
97;170.61428833007812
98;168.910400390625
99;167.2273712158203
100;165.5647735595703
101;163.92984008789062
102;162.31442260742188
103;160.7108154296875
104;159.12619018554688
105;157.5602264404297
106;156.01951599121094
107;154.49668884277344
108;152.99134826660156
109;151.4970245361328
110;150.02615356445312
111;148.57211303710938
112;147.12852478027344
113;145.70730590820312
114;144.30209350585938
115;142.91270446777344
116;141.53334045410156
117;140.17489624023438
118;138.8262939453125
119;137.49281311035156
120;136.17420959472656
121;134.87527465820312
122;133.58583068847656
123;132.3155059814453
124;131.0591583251953
125;129.81666564941406
126;128.58323669433594
127;127.36341857910156
128;126.16139221191406
129;124.97246551513672
130;123.79239654541016
131;122.62522888183594
132;121.4708251953125
133;120.33307647705078
134;119.2039794921875
135;118.08736419677734
136;116.98681640625
137;115.89472198486328
138;114.81818389892578
139;113.75336456298828
140;112.70008850097656
141;111.65821838378906
142;110.62769317626953
143;109.60832214355469
144;108.59999084472656
145;107.60261535644531
146;106.61604309082031
147;105.63706970214844
148;104.66881561279297
149;103.71405029296875
150;102.7696533203125
151;101.83548736572266
152;100.90870666503906
153;99.9947738647461
154;99.08805084228516
155;98.1939468383789
156;97.30693817138672
157;96.42964935302734
158;95.56449127197266
159;94.70628356933594
160;93.85752868652344
161;93.02043151855469
162;92.19014739990234
163;91.36903381347656
164;90.55693817138672
165;89.75379180908203
166;88.96168518066406
167;88.17616271972656
168;87.40145111083984
169;86.6352767944336
170;85.87757110595703
171;85.12822723388672
172;84.38521575927734
173;83.65241241455078
174;82.92584228515625
175;82.20922088623047
176;81.50059509277344
177;80.79988098144531
178;80.10694885253906
179;79.42179870605469
180;78.74430084228516
181;78.07440185546875
182;77.41204071044922
183;76.75709533691406
184;76.10796356201172
185;75.4661636352539
186;74.83318328857422
187;74.20585632324219
188;73.58565521240234
189;72.9739761352539
190;72.36927032470703
191;71.7699966430664
192;71.17900848388672
193;70.5934066772461
194;70.01586151123047
195;69.44361877441406
196;68.87798309326172
197;68.32015228271484
198;67.76750183105469
199;67.22247314453125
200;66.68376159667969
201;66.1501235961914
202;65.62386322021484
203;65.10257720947266
204;64.58850860595703
205;64.0804443359375
206;63.577247619628906
207;63.079978942871094
208;62.58855056762695
209;62.10395431518555
210;61.624053955078125
211;61.14986038208008
212;60.682273864746094
213;60.21928024291992
214;59.76274490356445
215;59.31070327758789
216;58.864986419677734
217;58.4237060546875
218;57.98859405517578
219;57.55872344970703
220;57.13314437866211
221;56.71272659301758
222;56.2982177734375
223;55.88789749145508
224;55.48337936401367
225;55.083778381347656
226;54.688255310058594
227;54.29833984375
228;53.91316604614258
229;53.532012939453125
230;53.1555290222168
231;52.783668518066406
232;52.41642379760742
233;52.05371856689453
234;51.696205139160156
235;51.34312057495117
236;50.993778228759766
237;50.64878463745117
238;50.30812454223633
239;49.97173309326172
240;49.640167236328125
241;49.312171936035156
242;48.98832321166992
243;48.66913986206055
244;48.35399627685547
245;48.0428466796875
246;47.73511505126953
247;47.431278228759766
248;47.13136672973633
249;46.83578109741211
250;46.54349899291992
251;46.25497817993164
252;45.970672607421875
253;45.69001007080078
254;45.412513732910156
255;45.13862991333008
256;44.868289947509766
257;44.601951599121094
258;44.33906936645508
259;44.079185485839844
260;43.82315444946289
261;43.57003402709961
262;43.3206787109375
263;43.074615478515625
264;42.831390380859375
265;42.591796875
266;42.35537338256836
267;42.122100830078125
268;41.89193344116211
269;41.66447830200195
270;41.4400634765625
271;41.21866989135742
272;41.00059127807617
273;40.78546905517578
274;40.57324981689453
275;40.36357498168945
276;40.156742095947266
277;39.95304489135742
278;39.75210952758789
279;39.55363082885742
280;39.3581657409668
281;39.16537857055664
282;38.97526168823242
283;38.7877311706543
284;38.60253143310547
285;38.419898986816406
286;38.24005126953125
287;38.06271743774414
288;37.88785171508789
289;37.715431213378906
290;37.54517364501953
291;37.37753677368164
292;37.212276458740234
293;37.049320220947266
294;36.888450622558594
295;36.72983932495117
296;36.57349395751953
297;36.419368743896484
298;36.26764678955078
299;36.117881774902344
300;35.97046661376953
301;35.82497024536133
302;35.681766510009766
303;35.54041290283203
304;35.40110397338867
305;35.26382064819336
306;35.12851333618164
307;34.995361328125
308;34.863975524902344
309;34.734676361083984
310;34.60709762573242
311;34.48155975341797
312;34.35786056518555
313;34.235965728759766
314;34.11589813232422
315;33.997581481933594
316;33.88086700439453
317;33.765892028808594
318;33.65262222290039
319;33.54119873046875
320;33.431419372558594
321;33.323150634765625
322;33.21664810180664
323;33.11174011230469
324;33.00841522216797
325;32.90665817260742
326;32.806419372558594
327;32.70771026611328
328;32.610496520996094
329;32.51476287841797
330;32.42049026489258
331;32.32754135131836
332;32.23612594604492
333;32.145999908447266
334;32.057376861572266
335;31.970111846923828
336;31.884199142456055
337;31.799617767333984
338;31.716236114501953
339;31.6341552734375
340;31.553449630737305
341;31.474008560180664
342;31.39581298828125
343;31.31883430480957
344;31.24306869506836
345;31.168487548828125
346;31.0950870513916
347;31.022846221923828
348;30.951663970947266
349;30.88170051574707
350;30.812759399414062
351;30.744993209838867
352;30.67830467224121
353;30.612695693969727
354;30.548137664794922
355;30.484607696533203
356;30.42209815979004
357;30.36053466796875
358;30.30002784729004
359;30.240514755249023
360;30.181947708129883
361;30.124338150024414
362;30.067670822143555
363;30.01186752319336
364;29.95697021484375
365;29.903034210205078
366;29.84998893737793
367;29.797758102416992
368;29.746374130249023
369;29.695919036865234
370;29.64622688293457
371;29.597421646118164
372;29.549434661865234
373;29.502180099487305
374;29.45577621459961
375;29.410083770751953
376;29.365161895751953
377;29.321044921875
378;29.277624130249023
379;29.234933853149414
380;29.19296646118164
381;29.151702880859375
382;29.111148834228516
383;29.07132911682129
384;29.032135009765625
385;28.9936580657959
386;28.95583152770996
387;28.918649673461914
388;28.882078170776367
389;28.846128463745117
390;28.810791015625
391;28.776077270507812
392;28.741989135742188
393;28.708498001098633
394;28.675556182861328
395;28.64320945739746
396;28.611392974853516
397;28.580169677734375
398;28.549495697021484
399;28.519357681274414
400;28.48973274230957
401;28.460615158081055
402;28.4320068359375
403;28.403900146484375
404;28.37629508972168
405;28.349170684814453
406;28.322542190551758
407;28.29640769958496
408;28.270708084106445
409;28.24547004699707
410;28.220706939697266
411;28.19639015197754
412;28.172502517700195
413;28.149051666259766
414;28.12599754333496
415;28.103363037109375
416;28.081132888793945
417;28.059328079223633
418;28.03791618347168
419;28.016876220703125
420;27.9962158203125
421;27.97593879699707
422;27.95602798461914
423;27.93648910522461
424;27.917314529418945
425;27.898481369018555
426;27.880014419555664
427;27.86186408996582
428;27.84406852722168
429;27.82661247253418
430;27.809465408325195
431;27.79262924194336
432;27.776103973388672
433;27.759897232055664
434;27.743999481201172
435;27.728397369384766
436;27.71308708190918
437;27.69804573059082
438;27.683303833007812
439;27.668842315673828
440;27.65464210510254
441;27.640714645385742
442;27.627058029174805
443;27.613656997680664
444;27.600494384765625
445;27.58758544921875
446;27.57493782043457
447;27.56252098083496
448;27.55035400390625
449;27.538410186767578
450;27.52669906616211
451;27.51521110534668
452;27.50394630432129
453;27.49288558959961
454;27.482059478759766
455;27.471439361572266
456;27.461002349853516
457;27.45078468322754
458;27.440771102905273
459;27.43094253540039
460;27.421314239501953
461;27.411874771118164
462;27.40260887145996
463;27.39352798461914
464;27.38462257385254
465;27.37588882446289
466;27.367328643798828
467;27.358951568603516
468;27.350738525390625
469;27.342670440673828
470;27.33477783203125
471;27.32703971862793
472;27.319454193115234
473;27.312015533447266
474;27.304731369018555
475;27.29759407043457
476;27.29059410095215
477;27.28373908996582
478;27.277019500732422
479;27.270437240600586
480;27.26398277282715
481;27.25766372680664
482;27.251476287841797
483;27.245405197143555
484;27.23946762084961
485;27.233631134033203
486;27.227930068969727
487;27.22233772277832
488;27.216861724853516
489;27.21149253845215
490;27.206233978271484
491;27.201093673706055
492;27.196054458618164
493;27.19111442565918
494;27.186281204223633
495;27.18154525756836
496;27.176910400390625
497;27.172367095947266
498;27.167917251586914
499;27.163558959960938
500;27.159297943115234
501;27.155120849609375
502;27.151033401489258
503;27.147029876708984
504;27.143108367919922
505;27.139266967773438
506;27.135501861572266
507;27.13182258605957
508;27.12822151184082
509;27.124698638916016
510;27.12124252319336
511;27.11786460876465
512;27.114553451538086
513;27.111318588256836
514;27.108144760131836
515;27.105037689208984
516;27.102006912231445
517;27.099027633666992
518;27.09612464904785
519;27.093273162841797
520;27.09048080444336
521;27.087757110595703
522;27.085086822509766
523;27.08247947692871
524;27.07992935180664
525;27.07742691040039
526;27.074981689453125
527;27.072586059570312
528;27.070247650146484
529;27.06795310974121
530;27.06571388244629
531;27.06352424621582
532;27.06138038635254
533;27.059276580810547
534;27.057222366333008
535;27.055212020874023
536;27.05325698852539
537;27.051332473754883
538;27.049455642700195
539;27.04762077331543
540;27.045820236206055
541;27.044063568115234
542;27.042354583740234
543;27.04067039489746
544;27.03902816772461
545;27.037418365478516
546;27.035844802856445
547;27.0343074798584
548;27.032804489135742
549;27.03133201599121
550;27.029891967773438
551;27.02849006652832
552;27.027103424072266
553;27.02577018737793
554;27.02444839477539
555;27.02317237854004
556;27.021913528442383
557;27.020681381225586
558;27.019485473632812
559;27.018306732177734
560;27.01716423034668
561;27.01603889465332
562;27.01494026184082
563;27.013866424560547
564;27.0128173828125
565;27.01179313659668
566;27.010791778564453
567;27.009815216064453
568;27.008853912353516
569;27.00792121887207
570;27.007003784179688
571;27.006105422973633
572;27.005239486694336
573;27.004383087158203
574;27.003543853759766
575;27.002729415893555
576;27.001934051513672
577;27.001155853271484
578;27.00038719177246
579;26.99964714050293
580;26.99891471862793
581;26.99820327758789
582;26.997512817382812
583;26.9968318939209
584;26.996170043945312
585;26.99551773071289
586;26.99488639831543
587;26.9942626953125
588;26.99365234375
589;26.99306869506836
590;26.992488861083984
591;26.991914749145508
592;26.99137306213379
593;26.990827560424805
594;26.990299224853516
595;26.989776611328125
596;26.989274978637695
597;26.988786697387695
598;26.98830795288086
599;26.987836837768555
600;26.987369537353516
601;26.98692512512207
602;26.98649024963379
603;26.986055374145508
604;26.98563003540039
605;26.9852237701416
606;26.98482894897461
607;26.98443603515625
608;26.984045028686523
609;26.983671188354492
610;26.983312606811523
611;26.982954025268555
612;26.98260498046875
613;26.982269287109375
614;26.98193359375
615;26.981597900390625
616;26.981287002563477
617;26.980974197387695
618;26.98066520690918
619;26.98037338256836
620;26.980085372924805
621;26.97980308532715
622;26.97951889038086
623;26.979251861572266
624;26.97898292541504
625;26.97872543334961
626;26.978471755981445
627;26.978219985961914
628;26.977981567382812
629;26.977741241455078
630;26.97750473022461
631;26.97728157043457
632;26.977066040039062
633;26.97684669494629
634;26.97662925720215
635;26.97642707824707
636;26.97622299194336
637;26.976024627685547
638;26.975830078125
639;26.97564125061035
640;26.97545051574707
641;26.975271224975586
642;26.975093841552734
643;26.97491455078125
644;26.97474479675293
645;26.974578857421875
646;26.97441291809082
647;26.974246978759766
648;26.97409439086914
649;26.97393798828125
650;26.97378921508789
651;26.973644256591797
652;26.973493576049805
653;26.97335433959961
654;26.97321128845215
655;26.973079681396484
656;26.97294807434082
657;26.97281265258789
658;26.972684860229492
659;26.972562789916992
660;26.972436904907227
661;26.97231101989746
662;26.97219467163086
663;26.97208595275879
664;26.971960067749023
665;26.971853256225586
666;26.971744537353516
667;26.97163963317871
668;26.971529006958008
669;26.971424102783203
670;26.97132682800293
671;26.971221923828125
672;26.971126556396484
673;26.97102928161621
674;26.97093391418457
675;26.970842361450195
676;26.970748901367188
677;26.970659255981445
678;26.970571517944336
679;26.97047996520996
680;26.970401763916016
681;26.97031593322754
682;26.97022819519043
683;26.97015380859375
684;26.97007179260254
685;26.969999313354492
686;26.969919204711914
687;26.969844818115234
688;26.96976661682129
689;26.96969223022461
690;26.96962547302246
691;26.969552993774414
692;26.969482421875
693;26.969406127929688
694;26.96933937072754
695;26.969268798828125
696;26.96920394897461
697;26.969141006469727
698;26.969074249267578
699;26.969003677368164
700;26.968950271606445
701;26.96888542175293
702;26.968820571899414
703;26.968759536743164
704;26.968698501586914
705;26.968643188476562
706;26.968584060668945
707;26.968524932861328
708;26.968469619750977
709;26.968412399291992
710;26.96834945678711
711;26.96829605102539
712;26.96824836730957
713;26.96819496154785
714;26.968141555786133
715;26.96808433532715
716;26.96803092956543
717;26.96797752380371
718;26.967926025390625
719;26.967878341674805
720;26.967824935913086
721;26.9677791595459
722;26.967727661132812
723;26.96767807006836
724;26.96762466430664
725;26.96758460998535
726;26.967533111572266
727;26.967483520507812
728;26.967437744140625
729;26.96739387512207
730;26.967342376708984
731;26.967302322387695
732;26.967252731323242
733;26.967206954956055
734;26.967159271240234
735;26.967117309570312
736;26.967069625854492
737;26.96702766418457
738;26.966976165771484
739;26.966936111450195
740;26.96689796447754
741;26.966854095458984
742;26.966806411743164
743;26.96676254272461
744;26.96672248840332
745;26.9666748046875
746;26.96663475036621
747;26.96659278869629
748;26.966548919677734
749;26.966508865356445
750;26.96646499633789
751;26.966426849365234
752;26.966386795043945
753;26.966339111328125
754;26.966299057006836
755;26.96626091003418
756;26.96621322631836
757;26.966176986694336
758;26.96613883972168
759;26.966096878051758
760;26.966054916381836
761;26.966020584106445
762;26.965984344482422
763;26.965938568115234
764;26.965906143188477
765;26.965856552124023
766;26.965824127197266
767;26.96578598022461
768;26.96574592590332
769;26.965709686279297
770;26.965667724609375
771;26.965633392333984
772;26.965593338012695
773;26.96555519104004
774;26.965518951416016
775;26.965471267700195
776;26.96544075012207
777;26.965402603149414
778;26.96535873413086
779;26.965322494506836
780;26.965288162231445
781;26.96525001525879
782;26.9652099609375
783;26.96517562866211
784;26.965131759643555
785;26.9650936126709
786;26.96504783630371
787;26.965015411376953
788;26.9649715423584
789;26.964935302734375
790;26.96490478515625
791;26.964862823486328
792;26.964826583862305
793;26.96478271484375
794;26.96474838256836
795;26.964710235595703
796;26.964664459228516
797;26.964624404907227
798;26.964588165283203
799;26.964550018310547
800;26.964509963989258
801;26.964473724365234
802;26.96442985534668
803;26.96439552307129
804;26.96435546875
805;26.96431541442871
806;26.96427345275879
807;26.9642333984375
808;26.964197158813477
809;26.964153289794922
810;26.964115142822266
811;26.964075088500977
812;26.964033126831055
813;26.963993072509766
814;26.96394920349121
815;26.963909149169922
816;26.963871002197266
817;26.963823318481445
818;26.963788986206055
819;26.963735580444336
820;26.963701248168945
821;26.96366310119629
822;26.9636173248291
823;26.963573455810547
824;26.96352195739746
825;26.96347999572754
826;26.963436126708984
827;26.96339225769043
828;26.96334457397461
829;26.96329116821289
830;26.96324348449707
831;26.963193893432617
832;26.963144302368164
833;26.963088989257812
834;26.96303939819336
835;26.962970733642578
836;26.962909698486328
837;26.962846755981445
838;26.96278190612793
839;26.96271324157715
840;26.962635040283203
841;26.96255111694336
842;26.96246337890625
843;26.96236228942871
844;26.962247848510742
845;26.96211814880371
846;26.961965560913086
847;26.9617919921875
848;26.96157455444336
849;26.961313247680664
850;26.9609375
851;26.960407257080078
852;26.9594669342041
853;26.957210540771484
854;26.9528865814209
855;26.947689056396484
856;26.971500396728516
857;26.951889038085938
858;26.94413948059082
859;26.94989013671875
860;26.952999114990234
861;26.95454216003418
862;26.95517921447754
863;26.954648971557617
864;26.953060150146484
865;26.951032638549805
866;26.944814682006836
867;26.936491012573242
868;26.93992042541504
869;26.93937110900879
870;26.935237884521484
871;26.932065963745117
872;26.93545150756836
873;26.9327449798584
874;26.93057632446289
875;26.930591583251953
876;26.93027114868164
877;26.929410934448242
878;26.92814826965332
879;26.9263973236084
880;26.926820755004883
881;26.925464630126953
882;26.924503326416016
883;26.92452621459961
884;26.924272537231445
885;26.923303604125977
886;26.922225952148438
887;26.92127799987793
888;26.92152976989746
889;26.920358657836914
890;26.92013931274414
891;26.919780731201172
892;26.919469833374023
893;26.919055938720703
894;26.918481826782227
895;26.918094635009766
896;26.917720794677734
897;26.917369842529297
898;26.917009353637695
899;26.916667938232422
900;26.916406631469727
901;26.916046142578125
902;26.9156494140625
903;26.915266036987305
904;26.91497802734375
905;26.91474723815918
906;26.91440200805664
907;26.9140625
908;26.91380500793457
909;26.913530349731445
910;26.913251876831055
911;26.91303825378418
912;26.91278076171875
913;26.912487030029297
914;26.91226577758789
915;26.912029266357422
916;26.91178321838379
917;26.911666870117188
918;26.911441802978516
919;26.911130905151367
920;26.910940170288086
921;26.910736083984375
922;26.910497665405273
923;26.910364151000977
924;26.91009521484375
925;26.90988540649414
926;26.909284591674805
927;26.908737182617188
928;26.909395217895508
929;26.90878677368164
930;26.908212661743164
931;26.90852928161621
932;26.908418655395508
933;26.908069610595703
934;26.906940460205078
935;26.90772819519043
936;26.908065795898438
937;26.90728187561035
938;26.905899047851562
939;26.906707763671875
940;26.906728744506836
941;26.90578842163086
942;26.90500831604004
943;26.905412673950195
944;26.90519905090332
945;26.904754638671875
946;26.904281616210938
947;26.903446197509766
948;26.903839111328125
949;26.903045654296875
950;26.903169631958008
951;26.902957916259766
952;26.90233039855957
953;26.90195083618164
954;26.902042388916016
955;26.90155029296875
956;26.900583267211914
957;26.900043487548828
958;26.899429321289062
959;26.899145126342773
960;26.89878273010254
961;26.89797019958496
962;26.897510528564453
963;26.89719009399414
964;26.896196365356445
965;26.89592170715332
966;26.895355224609375
967;26.8946590423584
968;26.8940372467041
969;26.8941650390625
970;26.89286231994629
971;26.89335060119629
972;26.89299964904785
973;26.892499923706055
974;26.891916275024414
975;26.890380859375
976;26.891300201416016
977;26.89161491394043
978;26.88986587524414
979;26.888498306274414
980;26.888675689697266
981;26.88807487487793
982;26.887874603271484
983;26.887033462524414
984;26.886348724365234
985;26.885679244995117
986;26.88480567932129
987;26.885009765625
988;26.884281158447266
989;26.883071899414062
990;26.88277244567871
991;26.88395881652832
992;26.883779525756836
993;26.881052017211914
994;26.87957763671875
995;26.87904167175293
996;26.88047218322754
997;26.877206802368164
998;26.87455177307129
999;26.87302589416504
1000;26.87031364440918
1001;26.882314682006836
1002;26.873903274536133
1003;26.868026733398438
1004;26.868871688842773
1005;26.86795997619629
1006;26.868619918823242
1007;26.868974685668945
1008;26.866939544677734
1009;26.862768173217773
1010;26.856624603271484
1011;26.854305267333984
1012;26.853506088256836
1013;26.85158348083496
1014;26.8480167388916
1015;26.84836196899414
1016;26.843923568725586
1017;26.84596061706543
1018;26.847305297851562
1019;26.84327507019043
1020;26.834386825561523
1021;26.84627914428711
1022;26.835214614868164
1023;26.836984634399414
1024;26.836395263671875
1025;26.82577133178711
1026;26.826507568359375
1027;26.833072662353516
1028;26.818037033081055
1029;26.82859230041504
1030;26.83979606628418
1031;26.821136474609375
1032;26.810033798217773
1033;26.819828033447266
1034;26.81989860534668
1035;26.80317497253418
1036;26.80184555053711
1037;26.802289962768555
1038;26.79384994506836
1039;26.800081253051758
1040;26.79715919494629
1041;26.78909683227539
1042;26.789852142333984
1043;26.786151885986328
1044;26.783735275268555
1045;26.784128189086914
1046;26.779937744140625
1047;26.777246475219727
1048;26.77712631225586
1049;26.774173736572266
1050;26.773630142211914
1051;26.768373489379883
1052;26.76882553100586
1053;26.766504287719727
1054;26.76041603088379
1055;26.767072677612305
1056;26.756778717041016
1057;26.76066780090332
1058;26.751752853393555
1059;26.754655838012695
1060;26.75432777404785
1061;26.745859146118164
1062;26.749143600463867
1063;26.743072509765625
1064;26.741710662841797
1065;26.742036819458008
1066;26.736988067626953
1067;26.736923217773438
1068;26.73574447631836
1069;26.73117446899414
1070;26.727033615112305
1071;26.731197357177734
1072;26.721513748168945
1073;26.72049903869629
1074;26.722946166992188
1075;26.71705436706543
1076;26.711179733276367
1077;26.7257080078125
1078;26.70604133605957
1079;26.717159271240234
1080;26.707103729248047
1081;26.70587158203125
1082;26.708669662475586
1083;26.69462013244629
1084;26.700674057006836
1085;26.689483642578125
1086;26.6889705657959
1087;26.6861515045166
1088;26.68400001525879
1089;26.682531356811523
1090;26.67711067199707
1091;26.676799774169922
1092;26.67498779296875
1093;26.671804428100586
1094;26.66741371154785
1095;26.66543960571289
1096;26.663949966430664
1097;26.66063117980957
1098;26.65948486328125
1099;26.654911041259766
1100;26.65445327758789
1101;26.65091896057129
1102;26.646440505981445
1103;26.645328521728516
1104;26.64267349243164
1105;26.63957405090332
1106;26.63631820678711
1107;26.63510513305664
1108;26.630794525146484
1109;26.628387451171875
1110;26.62763023376465
1111;26.622549057006836
1112;26.62408447265625
1113;26.619457244873047
1114;26.613679885864258
1115;26.61287498474121
1116;26.606327056884766
1117;26.60409927368164
1118;26.602975845336914
1119;26.595319747924805
1120;26.596742630004883
1121;26.59047508239746
1122;26.584196090698242
1123;26.57859992980957
1124;26.574724197387695
1125;26.56888198852539
1126;26.565439224243164
1127;26.559452056884766
1128;26.554983139038086
1129;26.55007553100586
1130;26.543474197387695
1131;26.537639617919922
1132;26.532012939453125
1133;26.5242919921875
1134;26.519601821899414
1135;26.510805130004883
1136;26.506484985351562
1137;26.504365921020508
1138;26.50288200378418
1139;26.492374420166016
1140;26.470096588134766
1141;26.489171981811523
1142;26.47426414489746
1143;26.436620712280273
1144;26.439517974853516
1145;26.49379539489746
1146;26.401241302490234
1147;26.41956901550293
1148;26.40896224975586
1149;26.39122200012207
1150;26.34439468383789
1151;26.34512710571289
1152;26.42057228088379
1153;26.33738899230957
1154;26.303722381591797
1155;26.264774322509766
1156;26.298770904541016
1157;26.329301834106445
1158;26.21724510192871
1159;26.267412185668945
1160;26.281185150146484
1161;26.17668342590332
1162;26.177892684936523
1163;26.19320297241211
1164;26.129098892211914
1165;26.10629653930664
1166;26.093385696411133
1167;26.0817813873291
1168;26.09042739868164
1169;26.08489990234375
1170;26.00146484375
1171;26.05032730102539
1172;26.11151123046875
1173;25.995542526245117
1174;26.26407814025879
1175;25.907522201538086
1176;26.20792007446289
1177;26.19053840637207
1178;25.829599380493164
1179;26.32503890991211
1180;26.021425247192383
1181;26.10696792602539
1182;26.29019546508789
1183;26.14644432067871
1184;25.708837509155273
1185;26.294952392578125
1186;26.126419067382812
1187;25.862199783325195
1188;26.199161529541016
1189;26.18655014038086
1190;25.883636474609375
1191;25.674774169921875
1192;25.882526397705078
1193;25.60770606994629
1194;25.68149185180664
1195;25.726276397705078
1196;25.552974700927734
1197;25.652822494506836
1198;25.597412109375
1199;25.513776779174805
1200;25.591251373291016
1201;25.435684204101562
1202;25.484174728393555
1203;25.385652542114258
1204;25.42613410949707
1205;25.45164680480957
1206;25.269208908081055
1207;25.455570220947266
1208;25.22287940979004
1209;25.292362213134766
1210;25.29693031311035
1211;25.14518165588379
1212;25.26399803161621
1213;25.09132194519043
1214;25.120691299438477
1215;25.101633071899414
1216;25.020801544189453
1217;25.058637619018555
1218;24.98947525024414
1219;24.971296310424805
1220;24.979429244995117
1221;24.906232833862305
1222;24.920475006103516
1223;24.878265380859375
1224;24.840486526489258
1225;24.844482421875
1226;24.79542350769043
1227;24.77811622619629
1228;24.771413803100586
1229;24.72032356262207
1230;24.7200927734375
1231;24.67827033996582
1232;24.657209396362305
1233;24.63956642150879
1234;24.605514526367188
1235;24.59724235534668
1236;24.555187225341797
1237;24.549558639526367
1238;24.51521873474121
1239;24.504709243774414
1240;24.46748924255371
1241;24.459033966064453
1242;24.42875099182129
1243;24.399417877197266
1244;24.381357192993164
1245;24.34890365600586
1246;24.32979393005371
1247;24.304019927978516
1248;24.280731201171875
1249;24.260440826416016
1250;24.23594856262207
1251;24.214773178100586
1252;24.191572189331055
1253;24.169424057006836
1254;24.14794921875
1255;24.12599754333496
1256;24.10540771484375
1257;24.0848445892334
1258;24.064157485961914
1259;24.042476654052734
1260;24.021818161010742
1261;24.00066566467285
1262;23.978755950927734
1263;23.95821189880371
1264;23.93851089477539
1265;23.916955947875977
1266;23.896638870239258
1267;23.87733268737793
1268;23.85759925842285
1269;23.83757209777832
1270;23.815908432006836
1271;23.790441513061523
1272;23.764339447021484
1273;23.744770050048828
1274;23.72773551940918
1275;23.70778465270996
1276;23.673736572265625
1277;23.654157638549805
1278;23.63201904296875
1279;23.608612060546875
1280;23.570951461791992
1281;23.55242919921875
1282;23.527711868286133
1283;23.496366500854492
1284;23.471454620361328
1285;23.44793701171875
1286;23.416887283325195
1287;23.387939453125
1288;23.36244773864746
1289;23.33333969116211
1290;23.302181243896484
1291;23.271053314208984
1292;23.240175247192383
1293;23.21004295349121
1294;23.17796516418457
1295;23.14535903930664
1296;23.111055374145508
1297;23.078567504882812
1298;23.046123504638672
1299;23.01474380493164
1300;22.97780418395996
1301;22.948781967163086
1302;22.91115379333496
1303;22.878042221069336
1304;22.841588973999023
1305;22.806346893310547
1306;22.76912498474121
1307;22.733219146728516
1308;22.69510841369629
1309;22.65582847595215
1310;22.612274169921875
1311;22.56071662902832
1312;22.50786018371582
1313;22.44498634338379
1314;22.38056755065918
1315;22.30497932434082
1316;22.249603271484375
1317;22.361865997314453
1318;22.34279441833496
1319;22.01349449157715
1320;22.74839210510254
1321;23.707338333129883
1322;22.334856033325195
1323;23.039602279663086
1324;22.124507904052734
1325;22.694896697998047
1326;23.199176788330078
1327;22.27314567565918
1328;22.58675193786621
1329;23.007247924804688
1330;21.725194931030273
1331;22.474063873291016
1332;22.60478401184082
1333;22.00472640991211
1334;21.681699752807617
1335;21.859432220458984
1336;21.428956985473633
1337;21.57358169555664
1338;21.435441970825195
1339;21.29238510131836
1340;21.428359985351562
1341;21.232891082763672
1342;21.244272232055664
1343;21.264328002929688
1344;21.14886474609375
1345;21.12166976928711
1346;21.129823684692383
1347;21.035898208618164
1348;21.037567138671875
1349;21.00545310974121
1350;20.93951988220215
1351;20.944433212280273
1352;20.910722732543945
1353;20.850650787353516
1354;20.85184097290039
1355;20.82038688659668
1356;20.773855209350586
1357;20.76302719116211
1358;20.741031646728516
1359;20.706743240356445
1360;20.674652099609375
1361;20.652286529541016
1362;20.629878997802734
1363;20.60068130493164
1364;20.577848434448242
1365;20.555051803588867
1366;20.530879974365234
1367;20.50486946105957
1368;20.477813720703125
1369;20.450687408447266
1370;20.424131393432617
1371;20.398630142211914
1372;20.375473022460938
1373;20.346088409423828
1374;20.319915771484375
1375;20.294431686401367
1376;20.26909828186035
1377;20.243011474609375
1378;20.21573257446289
1379;20.188779830932617
1380;20.164302825927734
1381;20.140392303466797
1382;20.11386489868164
1383;20.088979721069336
1384;20.06526756286621
1385;20.03921127319336
1386;20.011770248413086
1387;19.985607147216797
1388;19.951475143432617
1389;19.90779685974121
1390;19.83697509765625
1391;19.766403198242188
1392;19.768051147460938
1393;19.737010955810547
1394;19.64759635925293
1395;19.597042083740234
1396;19.577260971069336
1397;19.52403450012207
1398;19.463855743408203
1399;19.425891876220703
1400;19.39291000366211
1401;19.33749771118164
1402;19.286203384399414
1403;19.242460250854492
1404;19.1832218170166
1405;19.14225959777832
1406;19.089889526367188
1407;19.035722732543945
1408;18.99039077758789
1409;18.940622329711914
1410;18.88346290588379
1411;18.831405639648438
1412;18.784067153930664
1413;18.727022171020508
1414;18.67642593383789
1415;18.623117446899414
1416;18.571691513061523
1417;18.51779556274414
1418;18.466264724731445
1419;18.413761138916016
1420;18.36404037475586
1421;18.314151763916016
1422;18.267024993896484
1423;18.217256546020508
1424;18.17031478881836
1425;18.122987747192383
1426;18.073829650878906
1427;18.025911331176758
1428;17.981306076049805
1429;17.936058044433594
1430;17.89469337463379
1431;17.85003089904785
1432;17.80730438232422
1433;17.764787673950195
1434;17.72199249267578
1435;17.68112564086914
1436;17.638402938842773
1437;17.597761154174805
1438;17.558853149414062
1439;17.516098022460938
1440;17.477705001831055
1441;17.438161849975586
1442;17.39836311340332
1443;17.357864379882812
1444;17.31930160522461
1445;17.280933380126953
1446;17.24204444885254
1447;17.201900482177734
1448;17.161561965942383
1449;17.124685287475586
1450;17.084150314331055
1451;17.060701370239258
1452;17.143598556518555
1453;16.981487274169922
1454;16.94801139831543
1455;17.29774284362793
1456;21.23959732055664
1457;17.515981674194336
1458;20.83390235900879
1459;26.719802856445312
1460;26.628082275390625
1461;23.915109634399414
1462;19.976308822631836
1463;18.589702606201172
1464;21.744064331054688
1465;23.11225700378418
1466;20.77231788635254
1467;17.965862274169922
1468;19.683908462524414
1469;20.660032272338867
1470;20.80173110961914
1471;20.44944190979004
1472;18.084209442138672
1473;16.892202377319336
1474;19.30671501159668
1475;20.18659782409668
1476;19.24704360961914
1477;16.576629638671875
1478;17.911273956298828
1479;17.531831741333008
1480;16.503381729125977
1481;17.27985954284668
1482;17.406719207763672
1483;17.504512786865234
1484;17.463003158569336
1485;17.214685440063477
1486;16.955900192260742
1487;16.266918182373047
1488;16.5881404876709
1489;16.862808227539062
1490;16.813730239868164
1491;16.253890991210938
1492;15.994199752807617
1493;15.937905311584473
1494;16.236833572387695
1495;16.295867919921875
1496;15.770330429077148
1497;15.6496000289917
1498;15.564790725708008
1499;15.491847038269043
