;loss
0;860.3840942382812
1;858.3346557617188
2;856.2945556640625
3;854.2593994140625
4;852.2239379882812
5;850.2703857421875
6;848.2183227539062
7;846.1926879882812
8;844.1300659179688
9;842.0073852539062
10;839.8558959960938
11;837.6453857421875
12;835.3751220703125
13;833.0333862304688
14;830.6067504882812
15;828.0637817382812
16;825.41943359375
17;822.6148071289062
18;819.6751098632812
19;816.5520629882812
20;813.1798095703125
21;809.59375
22;805.7178955078125
23;801.453125
24;796.8333129882812
25;791.6744384765625
26;786.0004272460938
27;779.6323852539062
28;772.41259765625
29;764.1318359375
30;754.3829345703125
31;742.9834594726562
32;729.0310668945312
33;711.8221435546875
34;689.3180541992188
35;657.7962646484375
36;610.2033081054688
37;546.9017944335938
38;488.91619873046875
39;450.94268798828125
40;426.0927734375
41;408.0428771972656
42;393.71630859375
43;381.9484558105469
44;371.9449768066406
45;363.33489990234375
46;355.70220947265625
47;348.8315124511719
48;342.5071105957031
49;336.69390869140625
50;331.3352355957031
51;326.272216796875
52;321.5475158691406
53;317.078125
54;312.7948913574219
55;308.7088928222656
56;304.7917785644531
57;301.0240783691406
58;297.3858947753906
59;293.8605041503906
60;290.4633483886719
61;287.1319274902344
62;283.9088439941406
63;280.7602233886719
64;277.65771484375
65;274.61962890625
66;271.6419372558594
67;268.74139404296875
68;265.8930969238281
69;263.075439453125
70;260.3061218261719
71;257.60113525390625
72;254.939697265625
73;252.3029022216797
74;249.72360229492188
75;247.16726684570312
76;244.64930725097656
77;242.16847229003906
78;239.73841857910156
79;237.3424835205078
80;234.96571350097656
81;232.62161254882812
82;230.32260131835938
83;228.04110717773438
84;225.80245971679688
85;223.5927734375
86;221.4114227294922
87;219.25767517089844
88;217.11940002441406
89;215.01904296875
90;212.94444274902344
91;210.88436889648438
92;208.8596954345703
93;206.8592529296875
94;204.87246704101562
95;202.90914916992188
96;200.9783935546875
97;199.0699005126953
98;197.17417907714844
99;195.30014038085938
100;193.44747924804688
101;191.62429809570312
102;189.81307983398438
103;188.0302276611328
104;186.26698303222656
105;184.51522827148438
106;182.78269958496094
107;181.0690460205078
108;179.38134765625
109;177.70460510253906
110;176.0458984375
111;174.41183471679688
112;172.7951202392578
113;171.19541931152344
114;169.60604858398438
115;168.03346252441406
116;166.47738647460938
117;164.9438018798828
118;163.4261016845703
119;161.91830444335938
120;160.42613220214844
121;158.95510864257812
122;157.49925231933594
123;156.058349609375
124;154.6268768310547
125;153.210205078125
126;151.81320190429688
127;150.4254150390625
128;149.0518341064453
129;147.69715881347656
130;146.35145568847656
131;145.0194549560547
132;143.70108032226562
133;142.40065002441406
134;141.10887145996094
135;139.83021545410156
136;138.56883239746094
137;137.3201141357422
138;136.08396911621094
139;134.856201171875
140;133.640869140625
141;132.43777465820312
142;131.25067138671875
143;130.07168579101562
144;128.90464782714844
145;127.7493896484375
146;126.60939025878906
147;125.48079681396484
148;124.36359405517578
149;123.25421142578125
150;122.15936279296875
151;121.07554626464844
152;120.00270080566406
153;118.94068908691406
154;117.88628387451172
155;116.84566497802734
156;115.8155517578125
157;114.79288482666016
158;113.78346252441406
159;112.7813949584961
160;111.7923355102539
161;110.813232421875
162;109.84406280517578
163;108.8846664428711
164;107.93235778808594
165;106.98970794677734
166;106.05667877197266
167;105.13563537597656
168;104.22151947021484
169;103.31669616699219
170;102.42110443115234
171;101.53704071044922
172;100.65971374511719
173;99.7936019897461
174;98.93409729003906
175;98.08565521240234
176;97.24372863769531
177;96.41045379638672
178;95.58788299560547
179;94.77376556396484
180;93.96800994873047
181;93.17059326171875
182;92.37940979003906
183;91.5964584350586
184;90.8216323852539
185;90.0548095703125
186;89.29788970947266
187;88.54875946044922
188;87.80571746826172
189;87.0721435546875
190;86.34627532958984
191;85.62626647949219
192;84.91547393798828
193;84.212158203125
194;83.51622772216797
195;82.82604217529297
196;82.14311981201172
197;81.46898651123047
198;80.80198669433594
199;80.14054107666016
200;79.48763275146484
201;78.84165954589844
202;78.20115661621094
203;77.5674819946289
204;76.94197082519531
205;76.32179260253906
206;75.70964050292969
207;75.10271453857422
208;74.50238037109375
209;73.90973663330078
210;73.3222885131836
211;72.74116516113281
212;72.16633605957031
213;71.59895324707031
214;71.03654479980469
215;70.48139953613281
216;69.93119049072266
217;69.38811492919922
218;68.85095977783203
219;68.3197021484375
220;67.79426574707031
221;67.27462005615234
222;66.7596435546875
223;66.25137329101562
224;65.74773406982422
225;65.24967193603516
226;64.75713348388672
227;64.27104949951172
228;63.790374755859375
229;63.31505584716797
230;62.84505844116211
231;62.37942123413086
232;61.919036865234375
233;61.46469497680664
234;61.01547622680664
235;60.571319580078125
236;60.1322021484375
237;59.69723129272461
238;59.26719284057617
239;58.84208297729492
240;58.42258071899414
241;58.00711441040039
242;57.59640121459961
243;57.19115447998047
244;56.78982925415039
245;56.39312744140625
246;56.001705169677734
247;55.614131927490234
248;55.23105239868164
249;54.852420806884766
250;54.47886276245117
251;54.109642028808594
252;53.7447395324707
253;53.38349151611328
254;53.026466369628906
255;52.67424774169922
256;52.32617950439453
257;51.98160934448242
258;51.6417236328125
259;51.3052864074707
260;50.97336959838867
261;50.64544677734375
262;50.32140350341797
263;50.001224517822266
264;49.68488311767578
265;49.37181854248047
266;49.06301498413086
267;48.757450103759766
268;48.45554733276367
269;48.1573371887207
270;47.86317825317383
271;47.572601318359375
272;47.28557205200195
273;47.00201416015625
274;46.72147750854492
275;46.444393157958984
276;46.1711311340332
277;45.90081024169922
278;45.634239196777344
279;45.37094497680664
280;45.11050796508789
281;44.85371017456055
282;44.59969711303711
283;44.3492317199707
284;44.10190963745117
285;43.85765838623047
286;43.61610794067383
287;43.37757110595703
288;43.14241409301758
289;42.90987777709961
290;42.680267333984375
291;42.453575134277344
292;42.2300910949707
293;42.00910186767578
294;41.79094696044922
295;41.57558059692383
296;41.36327362060547
297;41.1536865234375
298;40.946781158447266
299;40.74254608154297
300;40.54065704345703
301;40.341373443603516
302;40.14493942260742
303;39.951072692871094
304;39.75972366333008
305;39.570858001708984
306;39.38419723510742
307;39.199989318847656
308;39.018436431884766
309;38.83926773071289
310;38.66221237182617
311;38.48751449584961
312;38.315345764160156
313;38.145450592041016
314;37.977806091308594
315;37.812408447265625
316;37.649200439453125
317;37.487953186035156
318;37.32888412475586
319;37.17213821411133
320;37.01749801635742
321;36.86475372314453
322;36.71425247192383
323;36.565608978271484
324;36.419151306152344
325;36.27469253540039
326;36.13199996948242
327;35.991451263427734
328;35.85263442993164
329;35.715721130371094
330;35.580692291259766
331;35.4475212097168
332;35.31633377075195
333;35.18696975708008
334;35.059391021728516
335;34.93357467651367
336;34.80952072143555
337;34.68701934814453
338;34.56637954711914
339;34.447418212890625
340;34.330142974853516
341;34.21449279785156
342;34.100337982177734
343;33.987789154052734
344;33.876827239990234
345;33.7675666809082
346;33.65971755981445
347;33.55353927612305
348;33.44873809814453
349;33.34543991088867
350;33.24372482299805
351;33.14336013793945
352;33.04453659057617
353;32.9471435546875
354;32.85103225708008
355;32.75642776489258
356;32.66317367553711
357;32.5712890625
358;32.480735778808594
359;32.39137649536133
360;32.30332565307617
361;32.21656799316406
362;32.131072998046875
363;32.04692840576172
364;31.963926315307617
365;31.88223648071289
366;31.801666259765625
367;31.722370147705078
368;31.644250869750977
369;31.56728744506836
370;31.491378784179688
371;31.41660499572754
372;31.34293556213379
373;31.27037239074707
374;31.198984146118164
375;31.128585815429688
376;31.059310913085938
377;30.991018295288086
378;30.923828125
379;30.857641220092773
380;30.79246711730957
381;30.72821044921875
382;30.664997100830078
383;30.602746963500977
384;30.541372299194336
385;30.480939865112305
386;30.421504974365234
387;30.3629150390625
388;30.305288314819336
389;30.248550415039062
390;30.19268226623535
391;30.1376895904541
392;30.08353614807129
393;30.03017234802246
394;29.97769546508789
395;29.92597770690918
396;29.8751220703125
397;29.825069427490234
398;29.77578353881836
399;29.727283477783203
400;29.67954444885254
401;29.63250732421875
402;29.586254119873047
403;29.540695190429688
404;29.49591064453125
405;29.451818466186523
406;29.408390045166016
407;29.365705490112305
408;29.323688507080078
409;29.282304763793945
410;29.241592407226562
411;29.201566696166992
412;29.162141799926758
413;29.12335777282715
414;29.0851993560791
415;29.04769515991211
416;29.01076316833496
417;28.974458694458008
418;28.93874740600586
419;28.90362548828125
420;28.869062423706055
421;28.835073471069336
422;28.80160903930664
423;28.768722534179688
424;28.736371994018555
425;28.704532623291016
426;28.673248291015625
427;28.642465591430664
428;28.6121768951416
429;28.582412719726562
430;28.553117752075195
431;28.524335861206055
432;28.496030807495117
433;28.468204498291016
434;28.440839767456055
435;28.413930892944336
436;28.38747215270996
437;28.361469268798828
438;28.335866928100586
439;28.310731887817383
440;28.285991668701172
441;28.26169204711914
442;28.237810134887695
443;28.214330673217773
444;28.19122886657715
445;28.16853904724121
446;28.146236419677734
447;28.12432289123535
448;28.102783203125
449;28.081600189208984
450;28.060794830322266
451;28.04032325744629
452;28.020206451416016
453;28.000438690185547
454;27.98103141784668
455;27.96193504333496
456;27.943180084228516
457;27.924760818481445
458;27.906660079956055
459;27.88887596130371
460;27.871402740478516
461;27.85422706604004
462;27.837345123291016
463;27.820770263671875
464;27.804473876953125
465;27.788480758666992
466;27.772775650024414
467;27.757328033447266
468;27.74216079711914
469;27.72728157043457
470;27.712663650512695
471;27.698293685913086
472;27.6841983795166
473;27.670347213745117
474;27.65673828125
475;27.64337730407715
476;27.630260467529297
477;27.617361068725586
478;27.60471534729004
479;27.59227180480957
480;27.580068588256836
481;27.56808090209961
482;27.556304931640625
483;27.544750213623047
484;27.533416748046875
485;27.522281646728516
486;27.5113525390625
487;27.500619888305664
488;27.49006462097168
489;27.479732513427734
490;27.469573974609375
491;27.459598541259766
492;27.44981575012207
493;27.440202713012695
494;27.430782318115234
495;27.42152976989746
496;27.41244888305664
497;27.403532028198242
498;27.394790649414062
499;27.38620948791504
500;27.377790451049805
501;27.369524002075195
502;27.36141014099121
503;27.353450775146484
504;27.34564208984375
505;27.337982177734375
506;27.330455780029297
507;27.323083877563477
508;27.31585121154785
509;27.30873680114746
510;27.30177879333496
511;27.294940948486328
512;27.288238525390625
513;27.28166389465332
514;27.275203704833984
515;27.268877029418945
516;27.26267433166504
517;27.256587982177734
518;27.250600814819336
519;27.244747161865234
520;27.239002227783203
521;27.23336410522461
522;27.227842330932617
523;27.222410202026367
524;27.21709632873535
525;27.211885452270508
526;27.206769943237305
527;27.20175552368164
528;27.196840286254883
529;27.192020416259766
530;27.18729591369629
531;27.18265724182129
532;27.178112030029297
533;27.173662185668945
534;27.16928482055664
535;27.165014266967773
536;27.16081428527832
537;27.15669822692871
538;27.152666091918945
539;27.148710250854492
540;27.144826889038086
541;27.14102554321289
542;27.13730239868164
543;27.133663177490234
544;27.130083084106445
545;27.126575469970703
546;27.12313461303711
547;27.119762420654297
548;27.11646842956543
549;27.113229751586914
550;27.11005973815918
551;27.106950759887695
552;27.103906631469727
553;27.10091781616211
554;27.09800148010254
555;27.09513282775879
556;27.09232521057129
557;27.08957862854004
558;27.08687400817871
559;27.08424186706543
560;27.081655502319336
561;27.07911491394043
562;27.076631546020508
563;27.074199676513672
564;27.071813583374023
565;27.069482803344727
566;27.067197799682617
567;27.064956665039062
568;27.062761306762695
569;27.060609817504883
570;27.058504104614258
571;27.05644416809082
572;27.05442237854004
573;27.052446365356445
574;27.050506591796875
575;27.048608779907227
576;27.0467529296875
577;27.044925689697266
578;27.043140411376953
579;27.041399002075195
580;27.03968620300293
581;27.03801155090332
582;27.036373138427734
583;27.03476333618164
584;27.03318977355957
585;27.031652450561523
586;27.030141830444336
587;27.028669357299805
588;27.0272216796875
589;27.02580451965332
590;27.024417877197266
591;27.023061752319336
592;27.021732330322266
593;27.020429611206055
594;27.01915168762207
595;27.017913818359375
596;27.01668357849121
597;27.01548957824707
598;27.01432228088379
599;27.013174057006836
600;27.01205062866211
601;27.01094627380371
602;27.009870529174805
603;27.008825302124023
604;27.007787704467773
605;27.006778717041016
606;27.005788803100586
607;27.00482177734375
608;27.003875732421875
609;27.00295066833496
610;27.00204086303711
611;27.00115966796875
612;27.000289916992188
613;26.999433517456055
614;26.998607635498047
615;26.997787475585938
616;26.996992111206055
617;26.996212005615234
618;26.99544906616211
619;26.994701385498047
620;26.993967056274414
621;26.99325180053711
622;26.992551803588867
623;26.99186134338379
624;26.991191864013672
625;26.99053955078125
626;26.98989486694336
627;26.989269256591797
628;26.9886474609375
629;26.988046646118164
630;26.987457275390625
631;26.986879348754883
632;26.986312866210938
633;26.985759735107422
634;26.985218048095703
635;26.984689712524414
636;26.984172821044922
637;26.983659744262695
638;26.983163833618164
639;26.982683181762695
640;26.98219871520996
641;26.981735229492188
642;26.981279373168945
643;26.980831146240234
644;26.980390548706055
645;26.97995948791504
646;26.979541778564453
647;26.979129791259766
648;26.978731155395508
649;26.97833251953125
650;26.977951049804688
651;26.97757339477539
652;26.977205276489258
653;26.976842880249023
654;26.976490020751953
655;26.976139068603516
656;26.975801467895508
657;26.975467681884766
658;26.975143432617188
659;26.974824905395508
660;26.974504470825195
661;26.97420310974121
662;26.97389793395996
663;26.97360610961914
664;26.97332191467285
665;26.973041534423828
666;26.972774505615234
667;26.97249412536621
668;26.972227096557617
669;26.97197151184082
670;26.97171401977539
671;26.971466064453125
672;26.971223831176758
673;26.970979690551758
674;26.97074317932129
675;26.970516204833984
676;26.970285415649414
677;26.97006607055664
678;26.969852447509766
679;26.96963882446289
680;26.969430923461914
681;26.969221115112305
682;26.969018936157227
683;26.968826293945312
684;26.968631744384766
685;26.968448638916016
686;26.96826171875
687;26.96807861328125
688;26.9678955078125
689;26.96771812438965
690;26.96755027770996
691;26.96738052368164
692;26.967214584350586
693;26.967058181762695
694;26.966899871826172
695;26.966739654541016
696;26.96658706665039
697;26.9664363861084
698;26.966291427612305
699;26.966142654418945
700;26.965999603271484
701;26.96586036682129
702;26.96571922302246
703;26.96558952331543
704;26.965444564819336
705;26.965314865112305
706;26.96518898010254
707;26.965057373046875
708;26.964929580688477
709;26.96480369567871
710;26.96468162536621
711;26.964557647705078
712;26.964433670043945
713;26.964311599731445
714;26.96419334411621
715;26.96407699584961
716;26.963956832885742
717;26.963842391967773
718;26.96372413635254
719;26.963605880737305
720;26.963489532470703
721;26.963376998901367
722;26.963258743286133
723;26.963144302368164
724;26.963024139404297
725;26.962902069091797
726;26.962778091430664
727;26.962646484375
728;26.962514877319336
729;26.962371826171875
730;26.96221923828125
731;26.96205711364746
732;26.961872100830078
733;26.961673736572266
734;26.96145248413086
735;26.961212158203125
736;26.960939407348633
737;26.96065902709961
738;26.960308074951172
739;26.95985221862793
740;26.959299087524414
741;26.958953857421875
742;26.958648681640625
743;26.9581241607666
744;26.958044052124023
745;26.958526611328125
746;26.95808219909668
747;26.957624435424805
748;26.95762825012207
749;26.95761489868164
750;26.95774269104004
751;26.957672119140625
752;26.9573974609375
753;26.957178115844727
754;26.957035064697266
755;26.956815719604492
756;26.956880569458008
757;26.95695686340332
758;26.95661735534668
759;26.95643424987793
760;26.95643424987793
761;26.956377029418945
762;26.956296920776367
763;26.95620346069336
764;26.956098556518555
765;26.95595359802246
766;26.955774307250977
767;26.955663681030273
768;26.955636978149414
769;26.95550537109375
770;26.95535659790039
771;26.95529556274414
772;26.955202102661133
773;26.955081939697266
774;26.95501708984375
775;26.95490837097168
776;26.95482063293457
777;26.954715728759766
778;26.954633712768555
779;26.954545974731445
780;26.95445442199707
781;26.954389572143555
782;26.95428466796875
783;26.954204559326172
784;26.95412254333496
785;26.95402717590332
786;26.953969955444336
787;26.9538631439209
788;26.953792572021484
789;26.95369529724121
790;26.95361328125
791;26.953535079956055
792;26.95345115661621
793;26.953372955322266
794;26.953283309936523
795;26.95321273803711
796;26.953123092651367
797;26.953046798706055
798;26.952959060668945
799;26.952880859375
800;26.95279884338379
801;26.952728271484375
802;26.95265007019043
803;26.95256996154785
804;26.95248794555664
805;26.952404022216797
806;26.95233726501465
807;26.95224380493164
808;26.95216941833496
809;26.952083587646484
810;26.952016830444336
811;26.951929092407227
812;26.951860427856445
813;26.951780319213867
814;26.951704025268555
815;26.951627731323242
816;26.9515380859375
817;26.95145606994629
818;26.95138168334961
819;26.951311111450195
820;26.951221466064453
821;26.951141357421875
822;26.951080322265625
823;26.95100975036621
824;26.950916290283203
825;26.95083999633789
826;26.95075798034668
827;26.950672149658203
828;26.95062255859375
829;26.95051383972168
830;26.95045280456543
831;26.950353622436523
832;26.95029067993164
833;26.950199127197266
834;26.950138092041016
835;26.950057983398438
836;26.949954986572266
837;26.94986915588379
838;26.9498291015625
839;26.94974136352539
840;26.94963264465332
841;26.94955062866211
842;26.94950294494629
843;26.949390411376953
844;26.94938850402832
845;26.949296951293945
846;26.94915771484375
847;26.94913673400879
848;26.948984146118164
849;26.948957443237305
850;26.948827743530273
851;26.948848724365234
852;26.948686599731445
853;26.948667526245117
854;26.948610305786133
855;26.94845199584961
856;26.94847297668457
857;26.94841957092285
858;26.948163986206055
859;26.948217391967773
860;26.94819450378418
861;26.948034286499023
862;26.94784164428711
863;26.94781494140625
864;26.94767189025879
865;26.947641372680664
866;26.947509765625
867;26.9475154876709
868;26.9473876953125
869;26.947301864624023
870;26.947256088256836
871;26.947086334228516
872;26.947099685668945
873;26.947052001953125
874;26.94683265686035
875;26.946828842163086
876;26.946683883666992
877;26.946596145629883
878;26.94651985168457
879;26.94643783569336
880;26.946414947509766
881;26.94622802734375
882;26.94621467590332
883;26.946056365966797
884;26.94601058959961
885;26.945964813232422
886;26.945743560791016
887;26.945890426635742
888;26.94583511352539
889;26.945425033569336
890;26.945573806762695
891;26.945539474487305
892;26.945344924926758
893;26.94512939453125
894;26.94508171081543
895;26.94491195678711
896;26.944868087768555
897;26.944705963134766
898;26.944631576538086
899;26.944589614868164
900;26.944467544555664
901;26.944351196289062
902;26.944231033325195
903;26.94413948059082
904;26.944049835205078
905;26.943973541259766
906;26.94389533996582
907;26.943822860717773
908;26.94364356994629
909;26.94358253479004
910;26.94344139099121
911;26.943410873413086
912;26.94325828552246
913;26.943185806274414
914;26.94308853149414
915;26.942913055419922
916;26.942840576171875
917;26.94270133972168
918;26.942583084106445
919;26.942548751831055
920;26.9423828125
921;26.942230224609375
922;26.94217872619629
923;26.94196891784668
924;26.94179916381836
925;26.941640853881836
926;26.94148826599121
927;26.94135856628418
928;26.94113540649414
929;26.94094467163086
930;26.940725326538086
931;26.940521240234375
932;26.94022560119629
933;26.93994140625
934;26.939743041992188
935;26.939571380615234
936;26.93935775756836
937;26.939245223999023
938;26.939189910888672
939;26.93907356262207
940;26.93894386291504
941;26.93878746032715
942;26.938596725463867
943;26.938379287719727
944;26.93814468383789
945;26.93794822692871
946;26.93775749206543
947;26.937515258789062
948;26.937326431274414
949;26.9371280670166
950;26.93695640563965
951;26.936784744262695
952;26.936595916748047
953;26.93638038635254
954;26.936153411865234
955;26.93594741821289
956;26.935726165771484
957;26.935426712036133
958;26.93507957458496
959;26.93453025817871
960;26.93305015563965
961;26.93226432800293
962;26.932918548583984
963;26.931278228759766
964;26.931825637817383
965;26.931766510009766
966;26.930410385131836
967;26.930755615234375
968;26.929597854614258
969;26.92910385131836
970;26.929174423217773
971;26.92826271057129
972;26.92803955078125
973;26.92713737487793
974;26.926586151123047
975;26.926319122314453
976;26.925457000732422
977;26.925296783447266
978;26.92449951171875
979;26.924203872680664
980;26.923824310302734
981;26.92281150817871
982;26.922534942626953
983;26.92194938659668
984;26.921146392822266
985;26.920928955078125
986;26.920169830322266
987;26.91970443725586
988;26.91946029663086
989;26.91816520690918
990;26.91899299621582
991;26.917430877685547
992;26.916873931884766
993;26.91640281677246
994;26.915624618530273
995;26.91446876525879
996;26.907896041870117
997;26.908124923706055
998;26.909137725830078
999;26.907440185546875
1000;26.91193199157715
1001;26.90983772277832
1002;26.90921401977539
1003;26.910247802734375
1004;26.908849716186523
1005;26.908475875854492
1006;26.90760612487793
1007;26.904918670654297
1008;26.90354347229004
1009;26.90024757385254
1010;26.894351959228516
1011;26.895294189453125
1012;26.90273666381836
1013;26.89328956604004
1014;26.89228630065918
1015;26.891008377075195
1016;26.88849449157715
1017;26.889760971069336
1018;26.889156341552734
1019;26.88528060913086
1020;26.884347915649414
1021;26.887418746948242
1022;26.886566162109375
1023;26.88163185119629
1024;26.87879753112793
1025;26.8814754486084
1026;26.881296157836914
1027;26.881683349609375
1028;26.877344131469727
1029;26.87564468383789
1030;26.878376007080078
1031;26.874284744262695
1032;26.871835708618164
1033;26.886281967163086
1034;26.887651443481445
1035;26.868085861206055
1036;26.86517333984375
1037;26.87504768371582
1038;26.880910873413086
1039;26.883167266845703
1040;26.878870010375977
1041;26.87241554260254
1042;26.86350440979004
1043;26.85471534729004
1044;26.863330841064453
1045;26.869434356689453
1046;26.860681533813477
1047;26.860525131225586
1048;26.854705810546875
1049;26.849239349365234
1050;26.852460861206055
1051;26.854551315307617
1052;26.854122161865234
1053;26.858036041259766
1054;26.851919174194336
1055;26.846181869506836
1056;26.839040756225586
1057;26.847047805786133
1058;26.850263595581055
1059;26.84226417541504
1060;26.83259391784668
1061;26.838443756103516
1062;26.83812141418457
1063;26.82808494567871
1064;26.828800201416016
1065;26.831912994384766
1066;26.827434539794922
1067;26.821592330932617
1068;26.821413040161133
1069;26.821964263916016
1070;26.817331314086914
1071;26.81983757019043
1072;26.81703758239746
1073;26.81165885925293
1074;26.81095314025879
1075;26.813615798950195
1076;26.807992935180664
1077;26.80527687072754
1078;26.80634880065918
1079;26.80290412902832
1080;26.801437377929688
1081;26.799928665161133
1082;26.798553466796875
1083;26.795745849609375
1084;26.794559478759766
1085;26.792604446411133
1086;26.790761947631836
1087;26.789907455444336
1088;26.787485122680664
1089;26.78655433654785
1090;26.783966064453125
1091;26.78309440612793
1092;26.78215980529785
1093;26.778593063354492
1094;26.777666091918945
1095;26.77437400817871
1096;26.77384376525879
1097;26.772531509399414
1098;26.76626968383789
1099;26.76511001586914
1100;26.762630462646484
1101;26.758745193481445
1102;26.75715446472168
1103;26.75166893005371
1104;26.7513370513916
1105;26.752193450927734
1106;26.7468318939209
1107;26.735408782958984
1108;26.74045753479004
1109;26.731658935546875
1110;26.728879928588867
1111;26.736312866210938
1112;26.725570678710938
1113;26.715932846069336
1114;26.73501968383789
1115;26.70985221862793
1116;26.711267471313477
1117;26.718338012695312
1118;26.701860427856445
1119;26.71052360534668
1120;26.69894027709961
1121;26.692777633666992
1122;26.70591163635254
1123;26.685192108154297
1124;26.6807804107666
1125;26.6861572265625
1126;26.67352867126465
1127;26.668386459350586
1128;26.668670654296875
1129;26.660131454467773
1130;26.65749168395996
1131;26.657169342041016
1132;26.651193618774414
1133;26.64144515991211
1134;26.64553451538086
1135;26.630233764648438
1136;26.629358291625977
1137;26.62019920349121
1138;26.621244430541992
1139;26.604597091674805
1140;26.605175018310547
1141;26.590484619140625
1142;26.598222732543945
1143;26.588178634643555
1144;26.570804595947266
1145;26.593563079833984
1146;26.553466796875
1147;26.574979782104492
1148;26.534738540649414
1149;26.543882369995117
1150;26.52011489868164
1151;26.500717163085938
1152;26.497737884521484
1153;26.514957427978516
1154;26.50248146057129
1155;26.463321685791016
1156;26.461408615112305
1157;26.438655853271484
1158;26.437984466552734
1159;26.43610954284668
1160;26.404537200927734
1161;26.385665893554688
1162;26.372318267822266
1163;26.34858512878418
1164;26.343374252319336
1165;26.347412109375
1166;26.36587142944336
1167;26.330902099609375
1168;26.260189056396484
1169;26.236162185668945
1170;26.21611213684082
1171;26.20152473449707
1172;26.264217376708984
1173;26.255746841430664
1174;26.11610221862793
1175;26.180150985717773
1176;26.180307388305664
1177;26.047290802001953
1178;26.26121711730957
1179;25.998395919799805
1180;26.12680435180664
1181;25.9637451171875
1182;25.91389274597168
1183;25.93515968322754
1184;25.88204574584961
1185;25.8138427734375
1186;25.79452896118164
1187;25.8128719329834
1188;25.768169403076172
1189;25.689374923706055
1190;25.679317474365234
1191;25.704483032226562
1192;25.622751235961914
1193;25.58388900756836
1194;25.56815528869629
1195;25.548147201538086
1196;25.533639907836914
1197;25.495283126831055
1198;25.473264694213867
1199;25.457321166992188
1200;25.424741744995117
1201;25.403461456298828
1202;25.37978744506836
1203;25.346391677856445
1204;25.322343826293945
1205;25.289838790893555
1206;25.26578140258789
1207;25.23554039001465
1208;25.20851707458496
1209;25.179096221923828
1210;25.14988899230957
1211;25.13022804260254
1212;25.0958251953125
1213;25.072656631469727
1214;25.048229217529297
1215;25.025333404541016
1216;24.99234390258789
1217;24.972564697265625
1218;24.967145919799805
1219;24.925567626953125
1220;24.928056716918945
1221;24.867746353149414
1222;24.858068466186523
1223;24.82003402709961
1224;24.814977645874023
1225;24.769289016723633
1226;24.75398826599121
1227;24.71927833557129
1228;24.703962326049805
1229;24.66769790649414
1230;24.651336669921875
1231;24.627084732055664
1232;24.598079681396484
1233;24.57865333557129
1234;24.53363037109375
1235;24.52010154724121
1236;24.4813175201416
1237;24.46019172668457
1238;24.440473556518555
1239;24.402116775512695
1240;24.377716064453125
1241;24.354984283447266
1242;24.33527183532715
1243;24.294803619384766
1244;24.29880142211914
1245;24.285308837890625
1246;24.23786735534668
1247;24.243194580078125
1248;24.17103385925293
1249;24.16632080078125
1250;24.113290786743164
1251;24.135942459106445
1252;24.117101669311523
1253;24.10825538635254
1254;24.017887115478516
1255;24.081390380859375
1256;24.24917221069336
1257;24.00785255432129
1258;24.004079818725586
1259;23.919748306274414
1260;23.88973617553711
1261;23.91261863708496
1262;23.820005416870117
1263;23.8243465423584
1264;23.780744552612305
1265;23.748430252075195
1266;23.755985260009766
1267;23.716259002685547
1268;23.660343170166016
1269;23.660367965698242
1270;23.606897354125977
1271;23.586441040039062
1272;23.56637954711914
1273;23.537553787231445
1274;23.508195877075195
1275;23.482967376708984
1276;23.462141036987305
1277;23.431161880493164
1278;23.40643310546875
1279;23.38243293762207
1280;23.358293533325195
1281;23.333494186401367
1282;23.3115234375
1283;23.29154396057129
1284;23.26875114440918
1285;23.246870040893555
1286;23.227216720581055
1287;23.206172943115234
1288;23.18441390991211
1289;23.163347244262695
1290;23.14326286315918
1291;23.12271499633789
1292;23.10175895690918
1293;23.08155632019043
1294;23.061513900756836
1295;23.04104995727539
1296;23.021015167236328
1297;23.00112533569336
1298;22.981027603149414
1299;22.960784912109375
1300;22.940898895263672
1301;22.920902252197266
1302;22.900760650634766
1303;22.880800247192383
1304;22.860782623291016
1305;22.84071159362793
1306;22.82061767578125
1307;22.8006591796875
1308;22.780447006225586
1309;22.76043701171875
1310;22.740354537963867
1311;22.71993637084961
1312;22.699655532836914
1313;22.67985725402832
1314;22.659677505493164
1315;22.63981819152832
1316;22.619415283203125
1317;22.59896469116211
1318;22.578569412231445
1319;22.55765151977539
1320;22.53658103942871
1321;22.515472412109375
1322;22.49394416809082
1323;22.47165870666504
1324;22.4486083984375
1325;22.42483901977539
1326;22.400054931640625
1327;22.373348236083984
1328;22.34453010559082
1329;22.31595802307129
1330;22.28822898864746
1331;22.260629653930664
1332;22.234189987182617
1333;22.20847511291504
1334;22.185211181640625
1335;22.16375732421875
1336;22.13978385925293
1337;22.113452911376953
1338;22.085630416870117
1339;22.05669593811035
1340;22.02670669555664
1341;21.995615005493164
1342;21.963308334350586
1343;21.929853439331055
1344;21.894351959228516
1345;21.85538101196289
1346;21.809682846069336
1347;21.761953353881836
1348;21.70759391784668
1349;21.65363883972168
1350;21.61110496520996
1351;21.57621192932129
1352;21.521968841552734
1353;21.491077423095703
1354;21.44330406188965
1355;21.4122371673584
1356;21.370698928833008
1357;21.33205795288086
1358;21.297470092773438
1359;21.256067276000977
1360;21.220947265625
1361;21.18275260925293
1362;21.14340591430664
1363;21.106693267822266
1364;21.07139778137207
1365;21.032073974609375
1366;20.996145248413086
1367;20.96055030822754
1368;20.921756744384766
1369;20.88356590270996
1370;20.848758697509766
1371;20.808551788330078
1372;20.77223777770996
1373;20.734304428100586
1374;20.693599700927734
1375;20.656755447387695
1376;20.615087509155273
1377;20.57661247253418
1378;20.53596305847168
1379;20.493343353271484
1380;20.45313835144043
1381;20.409164428710938
1382;20.367733001708984
1383;20.321807861328125
1384;20.278615951538086
1385;20.234039306640625
1386;20.18800926208496
1387;20.142818450927734
1388;20.09518051147461
1389;20.046945571899414
1390;19.997854232788086
1391;19.948055267333984
1392;19.896533966064453
1393;19.843442916870117
1394;19.78855323791504
1395;19.731414794921875
1396;19.67374038696289
1397;19.613525390625
1398;19.551130294799805
1399;19.484956741333008
1400;19.416067123413086
1401;19.341909408569336
1402;19.263530731201172
1403;19.179718017578125
1404;19.08989143371582
1405;18.99178695678711
1406;18.897628784179688
1407;18.775575637817383
1408;18.672502517700195
1409;18.525386810302734
1410;18.42683982849121
1411;18.251466751098633
1412;18.377349853515625
1413;18.75271987915039
1414;19.780710220336914
1415;18.417036056518555
1416;17.826231002807617
1417;25.10268211364746
1418;26.402210235595703
1419;26.0086612701416
1420;25.39914321899414
1421;24.663320541381836
1422;24.03533363342285
1423;23.54140853881836
1424;23.11611557006836
1425;22.7908878326416
1426;22.583221435546875
1427;22.481510162353516
1428;22.442249298095703
1429;22.426057815551758
1430;22.401153564453125
1431;22.331100463867188
1432;22.183584213256836
1433;21.86811637878418
1434;21.148929595947266
1435;20.204010009765625
1436;19.186391830444336
1437;19.86899757385254
1438;20.19620704650879
1439;19.338716506958008
1440;18.018882751464844
1441;17.374650955200195
1442;17.61282730102539
1443;17.405481338500977
1444;16.55494499206543
1445;16.467073440551758
1446;16.830875396728516
1447;16.729490280151367
1448;16.460186004638672
1449;15.936636924743652
1450;15.983484268188477
1451;15.937026977539062
1452;16.68698501586914
1453;15.680170059204102
1454;16.0964412689209
1455;16.157236099243164
1456;16.239816665649414
1457;16.843603134155273
1458;16.069257736206055
1459;15.897660255432129
1460;15.757786750793457
1461;15.165457725524902
1462;15.066996574401855
1463;14.841546058654785
1464;15.94019889831543
1465;14.608227729797363
1466;14.691031455993652
1467;14.61388874053955
1468;14.551955223083496
1469;14.574372291564941
1470;14.454886436462402
1471;14.288981437683105
1472;14.162811279296875
1473;13.966646194458008
1474;13.613141059875488
1475;13.739873886108398
1476;13.564522743225098
1477;13.29082202911377
1478;13.357413291931152
1479;13.203118324279785
1480;12.947446823120117
1481;12.936944961547852
1482;12.817618370056152
1483;12.594322204589844
1484;12.557104110717773
1485;12.472102165222168
1486;12.275606155395508
1487;12.246500968933105
1488;12.153444290161133
1489;11.956841468811035
1490;11.89203929901123
1491;11.822420120239258
1492;11.660696029663086
1493;11.528616905212402
1494;11.458322525024414
1495;11.313615798950195
1496;11.159720420837402
1497;11.059948921203613
1498;10.929390907287598
1499;10.755279541015625
1500;10.627336502075195
1501;10.497477531433105
1502;10.332791328430176
1503;10.15772819519043
1504;10.065271377563477
1505;9.894227981567383
1506;9.818292617797852
1507;9.69561767578125
1508;9.579363822937012
1509;9.484440803527832
1510;9.376023292541504
1511;9.28238582611084
1512;9.160378456115723
1513;9.054006576538086
1514;8.946425437927246
1515;8.823249816894531
1516;8.715085983276367
1517;8.583885192871094
1518;8.489785194396973
1519;8.343520164489746
1520;8.284989356994629
1521;8.187067031860352
1522;8.003619194030762
1523;8.093360900878906
1524;8.503501892089844
1525;7.746894836425781
1526;9.336638450622559
1527;7.801907062530518
1528;8.312314987182617
1529;7.3005595207214355
1530;8.294512748718262
1531;7.198193073272705
1532;7.455112934112549
1533;7.1347808837890625
1534;7.08738374710083
1535;6.857031345367432
1536;6.807719707489014
1537;6.747710704803467
1538;6.5062689781188965
1539;6.613588809967041
1540;6.327987194061279
1541;6.356711387634277
1542;6.065848350524902
1543;6.172665596008301
1544;5.909156322479248
1545;5.89220666885376
1546;5.727040767669678
1547;5.68118143081665
1548;5.639194965362549
1549;5.487033843994141
1550;5.556397438049316
1551;5.357823371887207
1552;5.390205383300781
1553;5.280570030212402
1554;5.2379841804504395
1555;5.233222961425781
1556;5.135288715362549
1557;5.181312561035156
1558;5.051070213317871
1559;5.051231861114502
1560;4.9713521003723145
1561;4.981825828552246
1562;4.918025016784668
1563;4.900355815887451
1564;4.827168941497803
1565;4.8311567306518555
1566;4.760331153869629
1567;4.7543110847473145
1568;4.708451747894287
1569;4.6778669357299805
1570;4.65690279006958
1571;4.6121649742126465
1572;4.598263263702393
1573;4.560891628265381
1574;4.5352606773376465
1575;4.513525485992432
1576;4.479460716247559
1577;4.462721824645996
1578;4.435495853424072
1579;4.413375377655029
1580;4.3946027755737305
1581;4.368293285369873
1582;4.351558685302734
1583;4.3275837898254395
1584;4.308562278747559
1585;4.289127349853516
1586;4.268096923828125
1587;4.251952648162842
1588;4.231358528137207
1589;4.217001914978027
1590;4.1983232498168945
1591;4.183430194854736
1592;4.167445182800293
1593;4.151643753051758
1594;4.137722015380859
1595;4.12196683883667
1596;4.108914375305176
1597;4.093929767608643
1598;4.08099365234375
1599;4.067356109619141
1600;4.054540157318115
1601;4.042206764221191
1602;4.029534816741943
1603;4.017970561981201
1604;4.005606651306152
1605;3.9947261810302734
1606;3.9831161499023438
1607;3.972766637802124
1608;3.9619574546813965
1609;3.951944589614868
1610;3.941779851913452
1611;3.932114362716675
1612;3.9225611686706543
1613;3.9131839275360107
1614;3.904109239578247
1615;3.89508056640625
1616;3.8865292072296143
1617;3.877957582473755
1618;3.869835615158081
1619;3.8616790771484375
1620;3.853938579559326
1621;3.8461930751800537
1622;3.8387815952301025
1623;3.8314366340637207
1624;3.824397325515747
1625;3.81740140914917
1626;3.8106532096862793
1627;3.804006576538086
1628;3.797600507736206
1629;3.791271686553955
1630;3.7851226329803467
1631;3.779062032699585
1632;3.7732043266296387
1633;3.767467737197876
1634;3.7618813514709473
1635;3.756411075592041
1636;3.751058578491211
1637;3.7458341121673584
1638;3.7407212257385254
1639;3.7357420921325684
1640;3.730865240097046
1641;3.7261157035827637
1642;3.7214581966400146
1643;3.7169222831726074
1644;3.712472677230835
1645;3.7081401348114014
1646;3.703885555267334
1647;3.6997509002685547
1648;3.6956937313079834
1649;3.691734552383423
1650;3.6878600120544434
1651;3.6840779781341553
1652;3.680370569229126
1653;3.676750659942627
1654;3.673208236694336
1655;3.669748544692993
1656;3.6663572788238525
1657;3.663043260574341
1658;3.659799814224243
1659;3.656625747680664
1660;3.6535258293151855
1661;3.65049409866333
1662;3.647521495819092
1663;3.6446197032928467
1664;3.6417787075042725
1665;3.6389966011047363
1666;3.6362757682800293
1667;3.6336097717285156
1668;3.6310079097747803
1669;3.6284568309783936
1670;3.625962972640991
1671;3.623518228530884
1672;3.621128797531128
1673;3.618790864944458
1674;3.6165049076080322
1675;3.614262104034424
1676;3.612072467803955
1677;3.609926462173462
1678;3.6078248023986816
1679;3.605762481689453
1680;3.603747844696045
1681;3.601778030395508
1682;3.5998520851135254
1683;3.597959518432617
1684;3.5961105823516846
1685;3.594297409057617
1686;3.5925261974334717
1687;3.5907883644104004
1688;3.589087963104248
1689;3.5874176025390625
1690;3.585780620574951
1691;3.5841832160949707
1692;3.582618236541748
1693;3.5810768604278564
1694;3.579570770263672
1695;3.578101873397827
1696;3.576653003692627
1697;3.5752365589141846
1698;3.5738422870635986
1699;3.5724806785583496
1700;3.5711498260498047
1701;3.5698413848876953
1702;3.568556547164917
1703;3.567307710647583
1704;3.5660738945007324
1705;3.564866304397583
1706;3.5636768341064453
1707;3.562514543533325
1708;3.5613763332366943
1709;3.5602545738220215
1710;3.5591602325439453
1711;3.5580828189849854
1712;3.557029962539673
1713;3.555985927581787
1714;3.5549681186676025
1715;3.5539710521698
1716;3.5529894828796387
1717;3.5520222187042236
1718;3.5510706901550293
1719;3.550137996673584
1720;3.549224376678467
1721;3.548323392868042
1722;3.5474395751953125
1723;3.5465705394744873
1724;3.5457184314727783
1725;3.54487681388855
1726;3.5440497398376465
1727;3.5432398319244385
1728;3.542440176010132
1729;3.5416529178619385
1730;3.540877103805542
1731;3.540111780166626
1732;3.539355993270874
1733;3.538616180419922
1734;3.5378878116607666
1735;3.5371670722961426
1736;3.536454439163208
1737;3.5357494354248047
1738;3.5350582599639893
1739;3.534376859664917
1740;3.533708095550537
1741;3.5330452919006348
1742;3.532390594482422
1743;3.5317459106445312
1744;3.531115770339966
1745;3.5304946899414062
1746;3.5298750400543213
1747;3.5292656421661377
1748;3.5286669731140137
1749;3.5280702114105225
1750;3.527479410171509
1751;3.5268919467926025
1752;3.5263149738311768
1753;3.5257320404052734
1754;3.5251572132110596
1755;3.524585723876953
1756;3.524013042449951
1757;3.5234410762786865
1758;3.52286958694458
1759;3.5222935676574707
1760;3.521712064743042
1761;3.5211308002471924
1762;3.520533323287964
1763;3.5199267864227295
1764;3.519306182861328
1765;3.5186638832092285
1766;3.517991781234741
1767;3.517282247543335
1768;3.516545534133911
1769;3.515775203704834
1770;3.5149760246276855
1771;3.5141067504882812
1772;3.5131287574768066
1773;3.5119950771331787
1774;3.5106146335601807
1775;3.509010076522827
1776;3.506998062133789
1777;3.5041396617889404
1778;3.5005438327789307
1779;3.495666980743408
1780;3.486975908279419
1781;3.4769129753112793
1782;3.4689509868621826
1783;3.465235471725464
1784;3.460634469985962
1785;3.4592366218566895
1786;3.4572157859802246
1787;3.458495616912842
1788;3.4589450359344482
1789;3.4593873023986816
1790;3.4599573612213135
1791;3.4584603309631348
1792;3.4585893154144287
1793;3.4567325115203857
1794;3.4544193744659424
1795;3.452549457550049
1796;3.4498584270477295
1797;3.4493179321289062
1798;3.4477696418762207
1799;3.447134494781494
1800;3.4463136196136475
1801;3.445371627807617
1802;3.4449782371520996
1803;3.4438703060150146
1804;3.4434707164764404
1805;3.442570209503174
1806;3.4422988891601562
1807;3.4416239261627197
1808;3.441009759902954
1809;3.440192699432373
1810;3.439237117767334
1811;3.4385294914245605
1812;3.4376137256622314
1813;3.4369852542877197
1814;3.4361929893493652
1815;3.435607671737671
1816;3.435032367706299
1817;3.4344615936279297
1818;3.433987855911255
1819;3.433418035507202
1820;3.4329988956451416
1821;3.4324944019317627
1822;3.432039737701416
1823;3.431492328643799
1824;3.4309380054473877
1825;3.4303934574127197
1826;3.429840564727783
1827;3.4293434619903564
1828;3.4288251399993896
1829;3.428375005722046
1830;3.4279112815856934
1831;3.4274845123291016
1832;3.427046537399292
1833;3.426622152328491
1834;3.426206588745117
1835;3.4257960319519043
1836;3.425407886505127
1837;3.4250009059906006
1838;3.4245991706848145
1839;3.4242007732391357
1840;3.423811197280884
1841;3.423422336578369
1842;3.423042058944702
1843;3.422675371170044
1844;3.422312021255493
1845;3.421966075897217
1846;3.4216148853302
1847;3.4212727546691895
1848;3.4209392070770264
1849;3.4206080436706543
1850;3.4202849864959717
1851;3.419963836669922
1852;3.4196510314941406
1853;3.4193389415740967
1854;3.4190304279327393
1855;3.418727397918701
1856;3.418426990509033
1857;3.4181342124938965
1858;3.4178459644317627
1859;3.417558193206787
1860;3.4172768592834473
1861;3.4170000553131104
1862;3.416729211807251
1863;3.4164655208587646
1864;3.416200637817383
1865;3.415936231613159
1866;3.4156785011291504
1867;3.4154279232025146
1868;3.4151782989501953
1869;3.414930820465088
1870;3.4146857261657715
1871;3.4144465923309326
1872;3.4142088890075684
1873;3.413975238800049
1874;3.4137444496154785
1875;3.4135184288024902
1876;3.4132931232452393
1877;3.413073778152466
1878;3.4128544330596924
1879;3.4126393795013428
1880;3.412428617477417
1881;3.412217378616333
1882;3.4120090007781982
1883;3.411801815032959
1884;3.4116034507751465
1885;3.411402940750122
1886;3.411207675933838
1887;3.4110090732574463
1888;3.4108211994171143
1889;3.410627603530884
1890;3.4104411602020264
1891;3.410255193710327
1892;3.410071611404419
1893;3.409888505935669
1894;3.4097113609313965
1895;3.4095311164855957
1896;3.409357786178589
1897;3.409181594848633
1898;3.4090075492858887
1899;3.408839464187622
1900;3.4086740016937256
1901;3.4085028171539307
1902;3.4083399772644043
1903;3.408175230026245
1904;3.408007860183716
1905;3.4078500270843506
1906;3.4076907634735107
1907;3.4075303077697754
1908;3.407371759414673
1909;3.407217025756836
1910;3.407064199447632
1911;3.406909465789795
1912;3.4067554473876953
1913;3.406604766845703
1914;3.4064526557922363
1915;3.4063093662261963
1916;3.4061598777770996
1917;3.406012773513794
1918;3.4058687686920166
1919;3.4057230949401855
1920;3.405576467514038
1921;3.4054369926452637
1922;3.4052963256835938
1923;3.4051570892333984
1924;3.4050209522247314
1925;3.404881238937378
1926;3.404742956161499
1927;3.404606342315674
1928;3.404472589492798
1929;3.404329776763916
1930;3.4041991233825684
1931;3.404066562652588
1932;3.403931140899658
1933;3.4038028717041016
1934;3.40366792678833
1935;3.4035375118255615
1936;3.4034082889556885
1937;3.4032742977142334
1938;3.4031479358673096
1939;3.403019428253174
1940;3.402888536453247
1941;3.402761697769165
1942;3.4026336669921875
1943;3.4025065898895264
1944;3.402381658554077
1945;3.402256727218628
1946;3.4021341800689697
1947;3.402005434036255
1948;3.401880979537964
1949;3.4017586708068848
1950;3.4016363620758057
1951;3.4015066623687744
1952;3.4013864994049072
1953;3.401259660720825
1954;3.401139736175537
1955;3.401021957397461
1956;3.4008967876434326
1957;3.4007771015167236
1958;3.4006540775299072
1959;3.4005331993103027
1960;3.4004132747650146
1961;3.4002933502197266
1962;3.400170087814331
1963;3.400052309036255
1964;3.399933338165283
1965;3.399808883666992
1966;3.399691343307495
1967;3.399569272994995
1968;3.3994476795196533
1969;3.3993301391601562
1970;3.399207830429077
1971;3.399085521697998
1972;3.3989644050598145
1973;3.3988468647003174
1974;3.398725986480713
1975;3.398604154586792
1976;3.3984858989715576
1977;3.3983654975891113
1978;3.398245096206665
1979;3.398123025894165
1980;3.397998332977295
1981;3.3978769779205322
1982;3.3977630138397217
1983;3.397639751434326
1984;3.397521734237671
1985;3.3973922729492188
1986;3.397273540496826
1987;3.397150754928589
1988;3.397026777267456
1989;3.396899938583374
1990;3.396775484085083
1991;3.39665150642395
1992;3.396526575088501
1993;3.396401882171631
1994;3.3962738513946533
1995;3.3961472511291504
1996;3.3960227966308594
1997;3.3958933353424072
1998;3.3957653045654297
1999;3.3956375122070312
2000;3.39550518989563
2001;3.395378828048706
2002;3.3952488899230957
2003;3.3951213359832764
2004;3.3949952125549316
2005;3.3948638439178467
2006;3.3947365283966064
2007;3.3946073055267334
2008;3.3944754600524902
2009;3.394343614578247
2010;3.3942103385925293
2011;3.3940746784210205
2012;3.3939452171325684
2013;3.3938100337982178
2014;3.393671751022339
2015;3.393541097640991
2016;3.3934056758880615
2017;3.3932645320892334
2018;3.393131732940674
2019;3.3929924964904785
2020;3.392854928970337
2021;3.392716646194458
2022;3.3925750255584717
2023;3.39243483543396
2024;3.3922932147979736
2025;3.3921468257904053
2026;3.3920085430145264
2027;3.3918583393096924
2028;3.391718626022339
2029;3.391569137573242
2030;3.391420841217041
2031;3.3912806510925293
2032;3.3911330699920654
2033;3.3909943103790283
2034;3.390855073928833
2035;3.390721559524536
2036;3.3906009197235107
2037;3.3905012607574463
2038;3.3904526233673096
2039;3.3904550075531006
2040;3.390491008758545
2041;3.3905656337738037
2042;3.390683889389038
2043;3.3916237354278564
2044;3.393460750579834
2045;3.399259090423584
2046;3.404696226119995
2047;3.419720411300659
2048;3.4222609996795654
2049;3.4215447902679443
2050;3.402728796005249
2051;3.3900511264801025
2052;3.392531156539917
2053;3.402372360229492
2054;3.408785581588745
2055;3.394625425338745
2056;3.3891608715057373
2057;3.3969948291778564
2058;3.3964786529541016
2059;3.389920711517334
2060;3.387704849243164
2061;3.3919990062713623
2062;3.3917527198791504
2063;3.3869760036468506
2064;3.388317346572876
2065;3.390026569366455
2066;3.386709451675415
2067;3.386096954345703
2068;3.3882973194122314
2069;3.3873679637908936
2070;3.3850362300872803
2071;3.3862478733062744
2072;3.38680100440979
2073;3.3844966888427734
2074;3.385005474090576
2075;3.3860530853271484
2076;3.3847219944000244
2077;3.383460760116577
2078;3.3842873573303223
2079;3.383885145187378
2080;3.3827250003814697
2081;3.3830416202545166
2082;3.383279323577881
2083;3.382228136062622
2084;3.381861448287964
2085;3.382148504257202
2086;3.381533145904541
2087;3.3810513019561768
2088;3.38116455078125
2089;3.3808233737945557
2090;3.380267858505249
2091;3.3801097869873047
2092;3.3799760341644287
2093;3.379594326019287
2094;3.379180669784546
2095;3.379065752029419
2096;3.3789193630218506
2097;3.3784499168395996
2098;3.378037929534912
2099;3.377789258956909
2100;3.377586841583252
2101;3.377333164215088
2102;3.3769402503967285
2103;3.376570224761963
2104;3.376204252243042
2105;3.3758602142333984
2106;3.375518798828125
2107;3.375192403793335
2108;3.3748748302459717
2109;3.3745474815368652
2110;3.374229669570923
2111;3.3739120960235596
2112;3.373605966567993
2113;3.3732807636260986
2114;3.372976541519165
2115;3.372623920440674
2116;3.372262954711914
2117;3.371825933456421
2118;3.3714635372161865
2119;3.371046781539917
2120;3.37084698677063
2121;3.37070894241333
2122;3.3724920749664307
2123;3.3751299381256104
2124;3.386615514755249
2125;3.387214183807373
2126;3.38901686668396
2127;3.3723092079162598
2128;3.367513418197632
2129;3.3739259243011475
2130;3.383678674697876
2131;3.403049945831299
2132;3.3876941204071045
2133;3.3733747005462646
2134;3.3712050914764404
2135;3.3821213245391846
2136;3.38344144821167
2137;3.366269588470459
2138;3.3630788326263428
2139;3.3712844848632812
2140;3.371908187866211
2141;3.3656697273254395
2142;3.3608672618865967
2143;3.367034673690796
2144;3.3709568977355957
2145;3.35908842086792
2146;3.3575284481048584
2147;3.3641746044158936
2148;3.358123779296875
2149;3.3541011810302734
2150;3.3543992042541504
2151;3.3547463417053223
2152;3.353400707244873
2153;3.3502726554870605
2154;3.3493213653564453
2155;3.349708318710327
2156;3.3487257957458496
2157;3.346442461013794
2158;3.3442509174346924
2159;3.343486785888672
2160;3.3430275917053223
2161;3.341296911239624
2162;3.3390204906463623
2163;3.3378026485443115
2164;3.3369197845458984
2165;3.335099697113037
2166;3.3327014446258545
2167;3.331306219100952
2168;3.330026626586914
2169;3.3276615142822266
2170;3.3252389430999756
2171;3.323359251022339
2172;3.3214454650878906
2173;3.318960428237915
2174;3.316256284713745
2175;3.3138649463653564
2176;3.3114495277404785
2177;3.308582067489624
2178;3.305518865585327
2179;3.302659749984741
2180;3.2997100353240967
2181;3.2964444160461426
2182;3.2931673526763916
2183;3.2900640964508057
2184;3.2868504524230957
2185;3.2834584712982178
2186;3.280261278152466
2187;3.2771239280700684
2188;3.2738006114959717
2189;3.2705795764923096
2190;3.2676169872283936
2191;3.264653444290161
2192;3.261627674102783
2193;3.258772611618042
2194;3.255976438522339
2195;3.2531657218933105
2196;3.2504653930664062
2197;3.24780535697937
2198;3.2451326847076416
2199;3.2426629066467285
2200;3.240177869796753
2201;3.23761248588562
2202;3.235172748565674
2203;3.2326786518096924
2204;3.230151891708374
2205;3.227600574493408
2206;3.225026845932007
2207;3.2224771976470947
2208;3.2199130058288574
2209;3.217317819595337
2210;3.2147388458251953
2211;3.2121365070343018
2212;3.20954966545105
2213;3.206977605819702
2214;3.2043750286102295
2215;3.2019400596618652
2216;3.199514865875244
2217;3.197113513946533
2218;3.194761276245117
2219;3.1923813819885254
2220;3.189993143081665
2221;3.1875832080841064
2222;3.18520188331604
2223;3.1828668117523193
2224;3.180537462234497
2225;3.1782190799713135
2226;3.1759161949157715
2227;3.1736130714416504
2228;3.1713390350341797
2229;3.169058322906494
2230;3.166809320449829
2231;3.164538621902466
2232;3.1622378826141357
2233;3.15998911857605
2234;3.1577327251434326
2235;3.155449390411377
2236;3.153167247772217
2237;3.1509628295898438
2238;3.1487560272216797
2239;3.146517515182495
2240;3.144253969192505
2241;3.1419873237609863
2242;3.1397557258605957
2243;3.13749623298645
2244;3.135211706161499
2245;3.13297700881958
2246;3.1307263374328613
2247;3.1284244060516357
2248;3.1261141300201416
2249;3.123833179473877
2250;3.1215109825134277
2251;3.119208812713623
2252;3.116884708404541
2253;3.1145150661468506
2254;3.1121490001678467
2255;3.109790802001953
2256;3.107395887374878
2257;3.1050209999084473
2258;3.1026272773742676
2259;3.100196361541748
2260;3.0977702140808105
2261;3.0953192710876465
2262;3.0928127765655518
2263;3.0903007984161377
2264;3.087785482406616
2265;3.08520770072937
2266;3.0826385021209717
2267;3.0800445079803467
2268;3.0773870944976807
2269;3.0747368335723877
2270;3.0720255374908447
2271;3.0693111419677734
2272;3.0665643215179443
2273;3.0637590885162354
2274;3.0609400272369385
2275;3.0581018924713135
2276;3.055205821990967
2277;3.0522701740264893
2278;3.049389123916626
2279;3.0464062690734863
2280;3.0433602333068848
2281;3.0403518676757812
2282;3.037318706512451
2283;3.0342166423797607
2284;3.0311195850372314
2285;3.0279996395111084
2286;3.0248262882232666
2287;3.021730661392212
2288;3.018538236618042
2289;3.015293836593628
2290;3.012092113494873
2291;3.0088613033294678
2292;3.00559663772583
2293;3.0024359226226807
2294;2.999202251434326
2295;2.995906114578247
2296;2.9925739765167236
2297;2.989316940307617
2298;2.985941171646118
2299;2.982644557952881
2300;2.979388475418091
2301;2.976051092147827
2302;2.9727580547332764
2303;2.9694247245788574
2304;2.9661083221435547
2305;2.9628090858459473
2306;2.959440231323242
2307;2.9560678005218506
2308;2.9528872966766357
2309;2.949596643447876
2310;2.9461607933044434
2311;2.9429473876953125
2312;2.9396212100982666
2313;2.9362106323242188
2314;2.93263840675354
2315;2.9294679164886475
2316;2.9261231422424316
2317;2.9225122928619385
2318;2.918806791305542
2319;2.915417194366455
2320;2.911884069442749
2321;2.9082868099212646
2322;2.904766798019409
2323;2.901278257369995
2324;2.897683620452881
2325;2.894059658050537
2326;2.8904659748077393
2327;2.886904001235962
2328;2.8832833766937256
2329;2.879568576812744
2330;2.8758792877197266
2331;2.8722798824310303
2332;2.868562698364258
2333;2.864763021469116
2334;2.861067295074463
2335;2.857518434524536
2336;2.853837728500366
2337;2.8500077724456787
2338;2.846446990966797
2339;2.842721462249756
2340;2.838752508163452
2341;2.8352012634277344
2342;2.8315558433532715
2343;2.8276848793029785
2344;2.8236725330352783
2345;2.819504499435425
2346;2.8159213066101074
2347;2.8121190071105957
2348;2.8079752922058105
2349;2.803666830062866
2350;2.799792766571045
2351;2.79573130607605
2352;2.7915072441101074
2353;2.787597417831421
2354;2.7834813594818115
2355;2.7790942192077637
2356;2.7749183177948
2357;2.770615816116333
2358;2.7663540840148926
2359;2.7619898319244385
2360;2.7576088905334473
2361;2.7531239986419678
2362;2.7486135959625244
2363;2.744044065475464
2364;2.7394912242889404
2365;2.7348175048828125
2366;2.7299954891204834
2367;2.725179672241211
2368;2.7202155590057373
2369;2.7152860164642334
2370;2.710136890411377
2371;2.7050986289978027
2372;2.6998636722564697
2373;2.6943509578704834
2374;2.6890790462493896
2375;2.6834824085235596
2376;2.6775169372558594
2377;2.6717591285705566
2378;2.6657721996307373
2379;2.6596903800964355
2380;2.653594493865967
2381;2.647216796875
2382;2.6407768726348877
2383;2.6342532634735107
2384;2.627506971359253
2385;2.6207218170166016
2386;2.613853931427002
2387;2.606689453125
2388;2.5993340015411377
2389;2.5921390056610107
2390;2.5846309661865234
2391;2.577249526977539
2392;2.5699427127838135
2393;2.5625016689300537
2394;2.554824113845825
2395;2.547267436981201
2396;2.539865493774414
2397;2.532352924346924
2398;2.5245354175567627
2399;2.5169811248779297
2400;2.509380340576172
2401;2.5016748905181885
2402;2.494093179702759
2403;2.4863719940185547
2404;2.479156255722046
2405;2.4715182781219482
2406;2.463621139526367
2407;2.456178665161133
2408;2.4486567974090576
2409;2.440513849258423
2410;2.4326040744781494
2411;2.4245076179504395
2412;2.416246175765991
2413;2.4079582691192627
2414;2.3994596004486084
2415;2.3909242153167725
2416;2.3822505474090576
2417;2.373476266860962
2418;2.3645553588867188
2419;2.355571746826172
2420;2.346386671066284
2421;2.3370959758758545
2422;2.327730894088745
2423;2.3182084560394287
2424;2.3085594177246094
2425;2.298720598220825
2426;2.2887990474700928
2427;2.2789413928985596
2428;2.2685580253601074
2429;2.258216619491577
2430;2.2477805614471436
2431;2.237149715423584
2432;2.2265002727508545
2433;2.215651750564575
2434;2.2046492099761963
2435;2.1934940814971924
2436;2.1822216510772705
2437;2.1707451343536377
2438;2.1592836380004883
2439;2.1476187705993652
2440;2.1358230113983154
2441;2.123913288116455
2442;2.111933946609497
2443;2.09981369972229
2444;2.08764386177063
2445;2.0755250453948975
2446;2.063246250152588
2447;2.0508196353912354
2448;2.038482427597046
2449;2.026141405105591
2450;2.0138039588928223
2451;2.001561403274536
2452;1.9893556833267212
2453;1.9772435426712036
2454;1.9653329849243164
2455;1.9535534381866455
2456;1.9418895244598389
2457;1.9304084777832031
2458;1.9191139936447144
2459;1.9080088138580322
2460;1.8970611095428467
2461;1.886354684829712
2462;1.875939965248108
2463;1.8656545877456665
2464;1.8556731939315796
2465;1.8458902835845947
2466;1.8365164995193481
2467;1.8275278806686401
2468;1.8192789554595947
2469;1.8130594491958618
2470;1.8148772716522217
2471;1.8395421504974365
2472;1.9495166540145874
2473;1.857407808303833
2474;1.8457094430923462
2475;1.780523419380188
2476;1.8472172021865845
2477;2.0394630432128906
2478;1.7458823919296265
2479;2.0548923015594482
2480;2.092768430709839
2481;1.8101065158843994
2482;2.2766594886779785
2483;1.7383860349655151
2484;2.0544111728668213
2485;1.7283798456192017
2486;1.9928550720214844
2487;1.7408572435379028
2488;1.8746898174285889
2489;1.7589857578277588
2490;1.805780053138733
2491;1.7269171476364136
2492;1.7526922225952148
2493;1.7249982357025146
2494;1.699407696723938
2495;1.7163665294647217
2496;1.6688079833984375
2497;1.705712080001831
2498;1.6501190662384033
2499;1.689255952835083
2500;1.6400307416915894
2501;1.6662509441375732
2502;1.6349164247512817
2503;1.640339970588684
2504;1.632076382637024
2505;1.6169803142547607
2506;1.6284396648406982
2507;1.6012184619903564
2508;1.6165649890899658
2509;1.592441201210022
2510;1.597838044166565
2511;1.5894471406936646
2512;1.578895926475525
2513;1.5833666324615479
2514;1.5655183792114258
2515;1.5698699951171875
2516;1.5599676370620728
2517;1.5526725053787231
2518;1.5537703037261963
2519;1.541208267211914
2520;1.5409437417984009
2521;1.5345951318740845
2522;1.5269972085952759
2523;1.5262534618377686
2524;1.5168685913085938
2525;1.5135024785995483
2526;1.508957028388977
2527;1.5008045434951782
2528;1.4979366064071655
2529;1.4913331270217896
2530;1.485350489616394
2531;1.481576681137085
2532;1.4748021364212036
2533;1.4694843292236328
2534;1.4649903774261475
2535;1.458420991897583
2536;1.452982783317566
2537;1.4483163356781006
2538;1.4422483444213867
2539;1.4363101720809937
2540;1.431435465812683
2541;1.427258849143982
2542;1.4234399795532227
2543;1.4205600023269653
2544;1.4206321239471436
2545;1.4287452697753906
2546;1.4719353914260864
2547;1.531420350074768
2548;1.5758635997772217
2549;1.423931360244751
2550;1.4126845598220825
2551;1.4839054346084595
2552;1.4359283447265625
2553;1.3916927576065063
2554;1.4405499696731567
2555;1.4139376878738403
2556;1.3787343502044678
2557;1.4090299606323242
2558;1.4005481004714966
2559;1.3689976930618286
2560;1.3789454698562622
2561;1.3770309686660767
2562;1.357188105583191
2563;1.3593186140060425
2564;1.361618995666504
2565;1.3478174209594727
2566;1.3406535387039185
2567;1.3461486101150513
2568;1.3525617122650146
2569;1.3480557203292847
2570;1.3384422063827515
2571;1.3300098180770874
2572;1.3228130340576172
2573;1.3177481889724731
2574;1.3133498430252075
2575;1.3098818063735962
2576;1.3073323965072632
2577;1.3069485425949097
2578;1.312484622001648
2579;1.3391058444976807
2580;1.4020270109176636
2581;1.5234034061431885
2582;1.3745988607406616
2583;1.3023531436920166
2584;1.3132648468017578
2585;1.3476380109786987
2586;1.3511625528335571
2587;1.2845096588134766
2588;1.3253421783447266
2589;1.3760024309158325
2590;1.2894723415374756
2591;1.292103886604309
2592;1.341674566268921
2593;1.2845401763916016
2594;1.2737826108932495
2595;1.305368185043335
2596;1.269370198249817
2597;1.2622461318969727
2598;1.2850253582000732
2599;1.2658756971359253
2600;1.2480272054672241
2601;1.2488481998443604
2602;1.2612766027450562
2603;1.283373236656189
2604;1.2713425159454346
2605;1.2691162824630737
2606;1.241204023361206
2607;1.2281097173690796
2608;1.2316474914550781
2609;1.2407188415527344
2610;1.2627999782562256
2611;1.242116093635559
2612;1.2309582233428955
2613;1.2141422033309937
2614;1.2150202989578247
2615;1.2312438488006592
2616;1.239073634147644
2617;1.2708323001861572
2618;1.2348629236221313
2619;1.2163140773773193
2620;1.198923110961914
2621;1.2015831470489502
2622;1.2235478162765503
2623;1.214940071105957
2624;1.2068395614624023
2625;1.187078833580017
2626;1.1896889209747314
2627;1.2149461507797241
2628;1.220677375793457
2629;1.2460098266601562
2630;1.1929981708526611
2631;1.173598289489746
2632;1.1766422986984253
2633;1.19301438331604
2634;1.239161729812622
2635;1.187697172164917
2636;1.1654061079025269
2637;1.1705788373947144
2638;1.1903064250946045
2639;1.2298847436904907
2640;1.1810373067855835
2641;1.1614277362823486
2642;1.1539698839187622
2643;1.1733382940292358
2644;1.218860387802124
2645;1.1812059879302979
2646;1.1712477207183838
2647;1.1444413661956787
2648;1.16757071018219
2649;1.2578372955322266
2650;1.1793365478515625
2651;1.1534874439239502
2652;1.1473321914672852
2653;1.1644588708877563
2654;1.1963475942611694
2655;1.1368122100830078
2656;1.1254385709762573
2657;1.1544002294540405
2658;1.1355398893356323
2659;1.1176108121871948
2660;1.1148070096969604
2661;1.1275421380996704
2662;1.1530592441558838
2663;1.135830044746399
2664;1.1332497596740723
2665;1.1042790412902832
2666;1.1096709966659546
2667;1.160115361213684
2668;1.1402664184570312
2669;1.1329485177993774
2670;1.0952266454696655
2671;1.1051146984100342
2672;1.1644818782806396
2673;1.1157563924789429
2674;1.098716139793396
2675;1.0778404474258423
2676;1.0836414098739624
2677;1.1144452095031738
2678;1.1044667959213257
2679;1.105280876159668
2680;1.0731103420257568
2681;1.0615661144256592
2682;1.0612577199935913
2683;1.0660278797149658
2684;1.081058382987976
2685;1.0763312578201294
2686;1.0889389514923096
2687;1.0669710636138916
2688;1.0608665943145752
2689;1.042981505393982
2690;1.0338772535324097
2691;1.029954195022583
2692;1.0307978391647339
2693;1.0397599935531616
2694;1.0533162355422974
2695;1.1558048725128174
2696;1.133309245109558
2697;1.279639482498169
2698;1.0319187641143799
2699;1.1361463069915771
2700;1.5066354274749756
2701;1.0914064645767212
2702;1.8273988962173462
2703;1.5317456722259521
2704;1.6608314514160156
2705;1.226822018623352
2706;1.4508373737335205
2707;1.419695496559143
2708;1.4302057027816772
2709;1.1083199977874756
2710;1.5400211811065674
2711;1.0259976387023926
2712;1.3724148273468018
2713;1.0531647205352783
2714;1.2859687805175781
2715;1.0746639966964722
2716;1.1640186309814453
2717;1.1900770664215088
2718;1.0156199932098389
2719;1.203635811805725
2720;1.000054121017456
2721;1.1163463592529297
2722;1.039339542388916
2723;1.0212775468826294
2724;1.055001139640808
2725;0.9776855707168579
2726;1.0251431465148926
2727;0.9414164423942566
2728;0.9838495254516602
2729;0.9066821336746216
2730;0.9079185128211975
2731;0.8631277084350586
2732;0.8076057434082031
2733;0.7449821829795837
2734;0.72672039270401
2735;0.6588132977485657
2736;0.6297472715377808
2737;0.5862952470779419
2738;0.49027174711227417
2739;1.364540696144104
2740;9.959614753723145
2741;12.288674354553223
2742;15.620147705078125
2743;17.203283309936523
2744;17.792591094970703
2745;18.240642547607422
2746;18.67893409729004
2747;19.06821632385254
2748;19.426733016967773
2749;19.732799530029297
2750;19.89305305480957
2751;19.939830780029297
2752;19.919382095336914
2753;19.83254051208496
2754;19.683420181274414
2755;19.472976684570312
2756;19.202667236328125
2757;18.88566780090332
2758;18.533504486083984
2759;18.161916732788086
2760;17.787982940673828
2761;17.41588020324707
2762;17.03743553161621
2763;16.657346725463867
2764;16.26167106628418
2765;15.860386848449707
2766;15.461618423461914
2767;15.105550765991211
2768;14.762801170349121
2769;14.444883346557617
2770;14.168317794799805
2771;13.883667945861816
2772;13.546711921691895
2773;13.166842460632324
2774;12.758967399597168
2775;12.355731010437012
2776;11.96822452545166
2777;11.617772102355957
2778;11.298798561096191
2779;11.00787353515625
2780;10.729310989379883
2781;10.450780868530273
2782;10.168378829956055
2783;9.88463020324707
2784;9.603598594665527
2785;9.328903198242188
2786;9.06486988067627
2787;8.820357322692871
2788;8.582345008850098
2789;8.364286422729492
2790;8.160865783691406
2791;7.975342750549316
2792;7.801007270812988
2793;7.631406307220459
2794;7.460399150848389
2795;7.29099702835083
2796;7.123191833496094
2797;6.956813335418701
2798;6.794944763183594
2799;6.636691093444824
2800;6.478492259979248
2801;6.317464351654053
2802;6.161705493927002
2803;6.009554386138916
2804;5.864537239074707
2805;5.726352691650391
2806;5.59108304977417
2807;5.46759557723999
2808;5.3403120040893555
2809;5.214685916900635
2810;5.0970635414123535
2811;4.986238956451416
2812;4.88190221786499
2813;4.777665138244629
2814;4.676217079162598
2815;4.5759477615356445
2816;4.461745738983154
2817;4.34775447845459
2818;4.228666305541992
2819;4.1161065101623535
2820;4.004720211029053
2821;3.895113706588745
2822;3.782947063446045
2823;3.639719247817993
2824;3.5030009746551514
2825;3.3502159118652344
2826;3.2946605682373047
2827;3.209526777267456
2828;3.132765054702759
2829;3.0871455669403076
2830;3.050251007080078
2831;2.995635986328125
2832;2.915407657623291
2833;2.8136866092681885
2834;2.717026948928833
2835;2.657378673553467
2836;2.61368989944458
2837;2.56950044631958
2838;2.517899751663208
2839;2.4530978202819824
2840;2.3722918033599854
2841;2.299727201461792
2842;2.247713804244995
2843;2.2053024768829346
2844;2.148064374923706
2845;2.0688605308532715
2846;2.0043113231658936
2847;1.9739305973052979
2848;1.9081544876098633
2849;1.8474347591400146
2850;1.8190972805023193
2851;1.7651089429855347
2852;1.704063057899475
2853;1.66326105594635
2854;1.6302099227905273
2855;1.597691297531128
2856;1.5875880718231201
2857;1.5734188556671143
2858;1.5491687059402466
2859;1.5282716751098633
2860;1.513931393623352
2861;1.492620825767517
2862;1.4671493768692017
2863;1.4479011297225952
2864;1.4321801662445068
2865;1.4122740030288696
2866;1.3945506811141968
2867;1.3793517351150513
2868;1.361262559890747
2869;1.3450905084609985
2870;1.333832025527954
2871;1.3228110074996948
2872;1.3109482526779175
2873;1.3003685474395752
2874;1.2896735668182373
2875;1.2766711711883545
2876;1.2639045715332031
2877;1.25312077999115
2878;1.2423468828201294
2879;1.231772780418396
2880;1.2221418619155884
2881;1.212411880493164
2882;1.2017549276351929
2883;1.1921900510787964
2884;1.1833784580230713
2885;1.174667477607727
2886;1.1666427850723267
2887;1.158700704574585
2888;1.1503448486328125
2889;1.1420313119888306
2890;1.1340100765228271
2891;1.1264268159866333
2892;1.119044542312622
2893;1.1117769479751587
2894;1.1044021844863892
2895;1.0970827341079712
2896;1.0900205373764038
2897;1.0832158327102661
2898;1.0765960216522217
2899;1.0702011585235596
2900;1.063748836517334
2901;1.057140588760376
2902;1.0507367849349976
2903;1.0443789958953857
2904;1.0380946397781372
2905;1.0320146083831787
2906;1.0261415243148804
2907;1.0203373432159424
2908;1.0145243406295776
2909;1.0087125301361084
2910;1.0028820037841797
2911;0.997072696685791
2912;0.9913730621337891
2913;0.9857193827629089
2914;0.9800897240638733
2915;0.9745503664016724
2916;0.9690638780593872
2917;0.9635089039802551
2918;0.9579775929450989
2919;0.9526352286338806
2920;0.947309136390686
2921;0.9419463276863098
2922;0.9365167617797852
2923;0.9311801195144653
2924;0.9258801341056824
2925;0.9204646348953247
2926;0.9149689078330994
2927;0.9094789624214172
2928;0.904091477394104
2929;0.8988471031188965
2930;0.8935925364494324
2931;0.8884135484695435
2932;0.8832334280014038
2933;0.8780831098556519
2934;0.8729637861251831
2935;0.8678644895553589
2936;0.8627368211746216
2937;0.8576841950416565
2938;0.8527733683586121
2939;0.8478144407272339
2940;0.8428779244422913
2941;0.8380020260810852
2942;0.8330865502357483
2943;0.8282464742660522
2944;0.8233166337013245
2945;0.8182564973831177
2946;0.813441276550293
2947;0.8084585070610046
2948;0.8036932945251465
2949;0.7991170287132263
2950;0.7943467497825623
2951;0.7898300886154175
2952;0.7855225205421448
2953;0.7810168862342834
2954;0.7765065431594849
2955;0.7720500230789185
2956;0.767562747001648
2957;0.7631338834762573
2958;0.7587728500366211
2959;0.7544049620628357
2960;0.7500433325767517
2961;0.7457073926925659
2962;0.7414202094078064
2963;0.7371085286140442
2964;0.7328325510025024
2965;0.7286423444747925
2966;0.7244811654090881
2967;0.7203412055969238
2968;0.716148316860199
2969;0.7120079398155212
2970;0.707992672920227
2971;0.7039019465446472
2972;0.6998500823974609
2973;0.695803701877594
2974;0.6916860342025757
2975;0.687662661075592
2976;0.6836797595024109
2977;0.6797738075256348
2978;0.6758993864059448
2979;0.6720237731933594
2980;0.6681508421897888
2981;0.6643077731132507
2982;0.6606411933898926
2983;0.6567941308021545
2984;0.6530795693397522
2985;0.6493245363235474
2986;0.6455947160720825
2987;0.6418473124504089
2988;0.6381440162658691
2989;0.6344560980796814
2990;0.6307405829429626
2991;0.62706458568573
2992;0.6234069466590881
2993;0.6197385191917419
2994;0.6161256432533264
2995;0.6125332117080688
2996;0.6089529991149902
2997;0.6053529381752014
2998;0.6017772555351257
2999;0.5982180237770081
