;loss
0;866.9656372070312
1;865.5386352539062
2;864.1044921875
3;862.6546020507812
4;861.2733154296875
5;859.8384399414062
6;858.3510131835938
7;856.8084716796875
8;855.1824340820312
9;853.4957885742188
10;851.7452392578125
11;849.8991088867188
12;847.9473266601562
13;845.8671875
14;843.6202392578125
15;841.1796264648438
16;838.5244140625
17;835.5616455078125
18;832.2423095703125
19;828.5164184570312
20;824.2393188476562
21;819.1978149414062
22;813.2840576171875
23;806.1425170898438
24;797.3178100585938
25;785.9666748046875
26;771.0096435546875
27;750.7907104492188
28;721.7085571289062
29;680.5134887695312
30;625.9201049804688
31;567.9361572265625
32;522.8937377929688
33;492.2742614746094
34;469.6506042480469
35;451.9300231933594
36;437.4649963378906
37;425.3498229980469
38;414.7588806152344
39;405.2587890625
40;396.8354797363281
41;389.19830322265625
42;382.1162109375
43;375.6413269042969
44;369.6501770019531
45;364.0124206542969
46;358.7701721191406
47;353.8215637207031
48;349.1381530761719
49;344.64886474609375
50;340.35992431640625
51;336.24560546875
52;332.3212890625
53;328.50469970703125
54;324.8157653808594
55;321.2356262207031
56;317.7511901855469
57;314.35296630859375
58;311.05999755859375
59;307.8386535644531
60;304.65985107421875
61;301.5685729980469
62;298.5123596191406
63;295.51165771484375
64;292.5636291503906
65;289.6861877441406
66;286.85504150390625
67;284.0485534667969
68;281.3040466308594
69;278.6000671386719
70;275.9165954589844
71;273.27105712890625
72;270.6622009277344
73;268.0887145996094
74;265.5656433105469
75;263.07513427734375
76;260.6163635253906
77;258.1734313964844
78;255.7757110595703
79;253.40733337402344
80;251.06759643554688
81;248.75588989257812
82;246.45828247070312
83;244.1879119873047
84;241.95677185058594
85;239.7388458251953
86;237.5584259033203
87;235.39076232910156
88;233.24746704101562
89;231.12803649902344
90;229.03224182128906
91;226.9711151123047
92;224.93405151367188
93;222.92027282714844
94;220.92822265625
95;218.9573211669922
96;216.9976806640625
97;215.0681915283203
98;213.1496124267578
99;211.2601318359375
100;209.3814239501953
101;207.5308074951172
102;205.6991424560547
103;203.88621520996094
104;202.09169006347656
105;200.307373046875
106;198.5489959716797
107;196.8083038330078
108;195.0775146484375
109;193.36428833007812
110;191.6685791015625
111;189.99021911621094
112;188.32872009277344
113;186.6838836669922
114;185.06211853027344
115;183.44967651367188
116;181.8532257080078
117;180.27247619628906
118;178.70730590820312
119;177.157470703125
120;175.62879943847656
121;174.11495971679688
122;172.6157989501953
123;171.1255340576172
124;169.6553497314453
125;168.19387817382812
126;166.74661254882812
127;165.3134002685547
128;163.8992462158203
129;162.49356079101562
130;161.10153198242188
131;159.72775268554688
132;158.36227416992188
133;157.00987243652344
134;155.675048828125
135;154.3483428955078
136;153.03871154785156
137;151.73704528808594
138;150.4520721435547
139;149.17916870117188
140;147.91409301757812
141;146.66090393066406
142;145.41952514648438
143;144.1937713623047
144;142.9755401611328
145;141.76869201660156
146;140.57693481445312
147;139.3961944580078
148;138.22280883789062
149;137.0639190673828
150;135.91575622558594
151;134.77474975585938
152;133.64779663085938
153;132.5278778076172
154;131.42164611816406
155;130.32240295410156
156;129.23654174804688
157;128.1575469970703
158;127.0886001586914
159;126.02955627441406
160;124.98033905029297
161;123.94084930419922
162;122.9110107421875
163;121.89360809326172
164;120.88558197021484
165;119.88688659667969
166;118.8946533203125
167;117.91162109375
168;116.94036102294922
169;115.9780502319336
170;115.02464294433594
171;114.08002471923828
172;113.1441650390625
173;112.21697235107422
174;111.29596710205078
175;110.38591766357422
176;109.48197174072266
177;108.5887222290039
178;107.70381164550781
179;106.82486724853516
180;105.95638275146484
181;105.09596252441406
182;104.2414779663086
183;103.39707946777344
184;102.55851745605469
185;101.72989654541016
186;100.9070053100586
187;100.09385681152344
188;99.28643035888672
189;98.48662567138672
190;97.69628143310547
191;96.91336822509766
192;96.13607025146484
193;95.36614227294922
194;94.60533142089844
195;93.85169982910156
196;93.10523986816406
197;92.36421203613281
198;91.63191986083984
199;90.9066162109375
200;90.18663024902344
201;89.47355651855469
202;88.76732635498047
203;88.06787872314453
204;87.37517547607422
205;86.69065856933594
206;86.01273345947266
207;85.33989715576172
208;84.67498779296875
209;84.01654815673828
210;83.36307525634766
211;82.71598815917969
212;82.07649993896484
213;81.4432601928711
214;80.81488800048828
215;80.19266510009766
216;79.57781219482422
217;78.96897888183594
218;78.36486053466797
219;77.76792907714844
220;77.17684173583984
221;76.59160614013672
222;76.01097106933594
223;75.43607330322266
224;74.86690521240234
225;74.30448150634766
226;73.74656677246094
227;73.19529724121094
228;72.64950561523438
229;72.10811614990234
230;71.57319641113281
231;71.04261016845703
232;70.51837921142578
233;69.99938201904297
234;69.4846420288086
235;68.97513580322266
236;68.4717025756836
237;67.9733657836914
238;67.47915649414062
239;66.99089050292969
240;66.50758361816406
241;66.02832794189453
242;65.55484771728516
243;65.08533477783203
244;64.62149810791016
245;64.1615982055664
246;63.70723342895508
247;63.25754928588867
248;62.81250762939453
249;62.37131118774414
250;61.935455322265625
251;61.50412368774414
252;61.07727813720703
253;60.654170989990234
254;60.23548126220703
255;59.82120132446289
256;59.41194534301758
257;59.0063362121582
258;58.605003356933594
259;58.207916259765625
260;57.81505584716797
261;57.4270133972168
262;57.04247283935547
263;56.66204071044922
264;56.28569412231445
265;55.913394927978516
266;55.54570388793945
267;55.181968688964844
268;54.82216262817383
269;54.46566390991211
270;54.11307907104492
271;53.764312744140625
272;53.41936492919922
273;53.07874298095703
274;52.741859436035156
275;52.408180236816406
276;52.07868194580078
277;51.75284194946289
278;51.430580139160156
279;51.11144256591797
280;50.79633712768555
281;50.48428726196289
282;50.17618942260742
283;49.87112045288086
284;49.56947708129883
285;49.271236419677734
286;48.97638702392578
287;48.68534469604492
288;48.39715576171875
289;48.112274169921875
290;47.83107376098633
291;47.55310821533203
292;47.27791976928711
293;47.00632858276367
294;46.73789596557617
295;46.47216796875
296;46.20954132080078
297;45.950347900390625
298;45.69382858276367
299;45.440330505371094
300;45.19016647338867
301;44.942604064941406
302;44.69829559326172
303;44.45656204223633
304;44.218017578125
305;43.98232650756836
306;43.74911880493164
307;43.5190315246582
308;43.29136276245117
309;43.06675338745117
310;42.84485626220703
311;42.62562942504883
312;42.40875244140625
313;42.19449996948242
314;41.98286819458008
315;41.774085998535156
316;41.56756591796875
317;41.363582611083984
318;41.16237258911133
319;40.963356018066406
320;40.76705551147461
321;40.57317352294922
322;40.381439208984375
323;40.192344665527344
324;40.00558853149414
325;39.820919036865234
326;39.63854217529297
327;39.458675384521484
328;39.28107452392578
329;39.105712890625
330;38.932334899902344
331;38.76112747192383
332;38.59208297729492
333;38.425193786621094
334;38.2606315612793
335;38.09796142578125
336;37.937355041503906
337;37.778804779052734
338;37.622291564941406
339;37.46779251098633
340;37.31545639038086
341;37.16490936279297
342;37.01648712158203
343;36.86997604370117
344;36.72536849975586
345;36.58247756958008
346;36.44142532348633
347;36.30240249633789
348;36.165184020996094
349;36.02959442138672
350;35.89595413208008
351;35.764068603515625
352;35.63376235961914
353;35.50533676147461
354;35.37846755981445
355;35.253414154052734
356;35.12989044189453
357;35.007999420166016
358;34.887733459472656
359;34.769222259521484
360;34.65215301513672
361;34.53679275512695
362;34.42285919189453
363;34.31059265136719
364;34.19969940185547
365;34.09031295776367
366;33.98253631591797
367;33.87622833251953
368;33.771236419677734
369;33.66779708862305
370;33.56565475463867
371;33.46501922607422
372;33.365779876708984
373;33.26778030395508
374;33.17112350463867
375;33.0758171081543
376;32.9818229675293
377;32.889137268066406
378;32.797725677490234
379;32.707584381103516
380;32.61870574951172
381;32.53107452392578
382;32.44475555419922
383;32.35955047607422
384;32.275543212890625
385;32.192726135253906
386;32.11115264892578
387;32.03064727783203
388;31.951290130615234
389;31.873125076293945
390;31.796085357666016
391;31.72004508972168
392;31.64510154724121
393;31.57130241394043
394;31.49854850769043
395;31.42683982849121
396;31.35616683959961
397;31.286447525024414
398;31.21771240234375
399;31.149978637695312
400;31.08329963684082
401;31.017574310302734
402;30.952810287475586
403;30.88898277282715
404;30.82602310180664
405;30.764039993286133
406;30.702911376953125
407;30.64272689819336
408;30.583383560180664
409;30.52490234375
410;30.467336654663086
411;30.41058349609375
412;30.354705810546875
413;30.29966163635254
414;30.24542236328125
415;30.19200325012207
416;30.139375686645508
417;30.087472915649414
418;30.03635025024414
419;29.986053466796875
420;29.936445236206055
421;29.88764762878418
422;29.839527130126953
423;29.792131423950195
424;29.74550437927246
425;29.699527740478516
426;29.65426254272461
427;29.609670639038086
428;29.565767288208008
429;29.522525787353516
430;29.479949951171875
431;29.438066482543945
432;29.39678955078125
433;29.35614013671875
434;29.31611442565918
435;29.276704788208008
436;29.23790168762207
437;29.199750900268555
438;29.162139892578125
439;29.12510871887207
440;29.088666915893555
441;29.05278205871582
442;29.017465591430664
443;28.982728958129883
444;28.948530197143555
445;28.91487693786621
446;28.88174057006836
447;28.849103927612305
448;28.81698226928711
449;28.785364151000977
450;28.754243850708008
451;28.723649978637695
452;28.693540573120117
453;28.663883209228516
454;28.634714126586914
455;28.605998992919922
456;28.577754974365234
457;28.54994773864746
458;28.522598266601562
459;28.495697021484375
460;28.46922492980957
461;28.443185806274414
462;28.417537689208984
463;28.3923282623291
464;28.36752700805664
465;28.34310531616211
466;28.319080352783203
467;28.295438766479492
468;28.272199630737305
469;28.249345779418945
470;28.226871490478516
471;28.20473861694336
472;28.183000564575195
473;28.161592483520508
474;28.14053726196289
475;28.11985206604004
476;28.099498748779297
477;28.079484939575195
478;28.05979347229004
479;28.040420532226562
480;28.02138900756836
481;28.002670288085938
482;27.984272003173828
483;27.966171264648438
484;27.9483642578125
485;27.930864334106445
486;27.913652420043945
487;27.896724700927734
488;27.88010597229004
489;27.863752365112305
490;27.84768295288086
491;27.831865310668945
492;27.81633186340332
493;27.80105209350586
494;27.78603744506836
495;27.771282196044922
496;27.756778717041016
497;27.742507934570312
498;27.728498458862305
499;27.714731216430664
500;27.701181411743164
501;27.687875747680664
502;27.674795150756836
503;27.661941528320312
504;27.649316787719727
505;27.636913299560547
506;27.624711990356445
507;27.612730026245117
508;27.600948333740234
509;27.589385986328125
510;27.578020095825195
511;27.56684684753418
512;27.555864334106445
513;27.545074462890625
514;27.53447151184082
515;27.52406120300293
516;27.51383399963379
517;27.503787994384766
518;27.49390983581543
519;27.48421287536621
520;27.474687576293945
521;27.46533203125
522;27.456144332885742
523;27.44712257385254
524;27.438257217407227
525;27.42954444885254
526;27.42099380493164
527;27.412593841552734
528;27.404342651367188
529;27.396249771118164
530;27.388296127319336
531;27.380496978759766
532;27.37282943725586
533;27.365299224853516
534;27.357900619506836
535;27.350643157958984
536;27.343507766723633
537;27.336517333984375
538;27.32964515686035
539;27.32288932800293
540;27.316267013549805
541;27.30976676940918
542;27.30338478088379
543;27.297109603881836
544;27.290958404541016
545;27.284915924072266
546;27.27899169921875
547;27.27317237854004
548;27.2674560546875
549;27.261850357055664
550;27.256349563598633
551;27.25094985961914
552;27.245656967163086
553;27.240449905395508
554;27.2353458404541
555;27.230335235595703
556;27.22542381286621
557;27.220605850219727
558;27.215866088867188
559;27.211217880249023
560;27.206661224365234
561;27.20219612121582
562;27.197799682617188
563;27.193498611450195
564;27.189273834228516
565;27.185121536254883
566;27.181060791015625
567;27.177064895629883
568;27.173147201538086
569;27.169315338134766
570;27.165542602539062
571;27.16185188293457
572;27.15822982788086
573;27.15467643737793
574;27.151187896728516
575;27.147775650024414
576;27.144420623779297
577;27.14112663269043
578;27.13789939880371
579;27.13474464416504
580;27.13163185119629
581;27.128591537475586
582;27.1256103515625
583;27.122684478759766
584;27.11981201171875
585;27.117000579833984
586;27.11423683166504
587;27.111539840698242
588;27.10888671875
589;27.106281280517578
590;27.10373306274414
591;27.10123062133789
592;27.098785400390625
593;27.09638023376465
594;27.094024658203125
595;27.09172248840332
596;27.089458465576172
597;27.087236404418945
598;27.08505630493164
599;27.082937240600586
600;27.080842971801758
601;27.07879638671875
602;27.076786041259766
603;27.074819564819336
604;27.072895050048828
605;27.071008682250977
606;27.069156646728516
607;27.067340850830078
608;27.065561294555664
609;27.063814163208008
610;27.06210708618164
611;27.06043815612793
612;27.05880355834961
613;27.057188034057617
614;27.055620193481445
615;27.054079055786133
616;27.052568435668945
617;27.05108642578125
618;27.049633026123047
619;27.048213958740234
620;27.046817779541016
621;27.04545783996582
622;27.044118881225586
623;27.042810440063477
624;27.04153060913086
625;27.040273666381836
626;27.03904151916504
627;27.037837982177734
628;27.036657333374023
629;27.03550148010254
630;27.034364700317383
631;27.033260345458984
632;27.032175064086914
633;27.031108856201172
634;27.030073165893555
635;27.029048919677734
636;27.028051376342773
637;27.02707290649414
638;27.026107788085938
639;27.02517318725586
640;27.02425193786621
641;27.023359298706055
642;27.022472381591797
643;27.021610260009766
644;27.020763397216797
645;27.01993751525879
646;27.01913070678711
647;27.01833724975586
648;27.017559051513672
649;27.016799926757812
650;27.01605796813965
651;27.015329360961914
652;27.014619827270508
653;27.013917922973633
654;27.013240814208984
655;27.012571334838867
656;27.011919021606445
657;27.011274337768555
658;27.01065444946289
659;27.010042190551758
660;27.009443283081055
661;27.00885009765625
662;27.00827407836914
663;27.00771713256836
664;27.007158279418945
665;27.006622314453125
666;27.0060977935791
667;27.005584716796875
668;27.00507926940918
669;27.004581451416016
670;27.00410270690918
671;27.003631591796875
672;27.0031681060791
673;27.00271224975586
674;27.00227165222168
675;27.001842498779297
676;27.00141716003418
677;27.001001358032227
678;27.00059700012207
679;27.00020408630371
680;26.999814987182617
681;26.99943733215332
682;26.999067306518555
683;26.998706817626953
684;26.998350143432617
685;26.99799919128418
686;26.99765968322754
687;26.99732780456543
688;26.996997833251953
689;26.99668312072754
690;26.99636459350586
691;26.99606704711914
692;26.99576759338379
693;26.995471954345703
694;26.995187759399414
695;26.994903564453125
696;26.994625091552734
697;26.994352340698242
698;26.994083404541016
699;26.99382209777832
700;26.99356460571289
701;26.993322372436523
702;26.993078231811523
703;26.99283790588379
704;26.992597579956055
705;26.992374420166016
706;26.992155075073242
707;26.991939544677734
708;26.991727828979492
709;26.991512298583984
710;26.991313934326172
711;26.99111557006836
712;26.99091911315918
713;26.990726470947266
714;26.990543365478516
715;26.990358352661133
716;26.990177154541016
717;26.99001121520996
718;26.989837646484375
719;26.989675521850586
720;26.989519119262695
721;26.98935890197754
722;26.989200592041016
723;26.98904800415039
724;26.988895416259766
725;26.98875617980957
726;26.98861312866211
727;26.988466262817383
728;26.988325119018555
729;26.98819923400879
730;26.98806381225586
731;26.987932205200195
732;26.98780632019043
733;26.987680435180664
734;26.987560272216797
735;26.987442016601562
736;26.98733139038086
737;26.98722267150879
738;26.987112045288086
739;26.987003326416016
740;26.98690414428711
741;26.986801147460938
742;26.986703872680664
743;26.986608505249023
744;26.98651123046875
745;26.98642349243164
746;26.986337661743164
747;26.98624610900879
748;26.98615837097168
749;26.986074447631836
750;26.985992431640625
751;26.985916137695312
752;26.985836029052734
753;26.98575210571289
754;26.985687255859375
755;26.98560905456543
756;26.985538482666016
757;26.985462188720703
758;26.98539924621582
759;26.985332489013672
760;26.985260009765625
761;26.98520278930664
762;26.985139846801758
763;26.985076904296875
764;26.985017776489258
765;26.984952926635742
766;26.984907150268555
767;26.98484230041504
768;26.984792709350586
769;26.984731674194336
770;26.98468017578125
771;26.98463249206543
772;26.984582901000977
773;26.984527587890625
774;26.984477996826172
775;26.984432220458984
776;26.984384536743164
777;26.98434066772461
778;26.984296798706055
779;26.984251022338867
780;26.98420524597168
781;26.984163284301758
782;26.984121322631836
783;26.98408317565918
784;26.984041213989258
785;26.984004974365234
786;26.983959197998047
787;26.98392105102539
788;26.983884811401367
789;26.983850479125977
790;26.983816146850586
791;26.98377799987793
792;26.983747482299805
793;26.98370933532715
794;26.98367691040039
795;26.983646392822266
796;26.983612060546875
797;26.983579635620117
798;26.983551025390625
799;26.983522415161133
800;26.983489990234375
801;26.98345947265625
802;26.983442306518555
803;26.983407974243164
804;26.983379364013672
805;26.983354568481445
806;26.98332405090332
807;26.98329734802246
808;26.983272552490234
809;26.983245849609375
810;26.98321533203125
811;26.98318862915039
812;26.983171463012695
813;26.983150482177734
814;26.983123779296875
815;26.983102798461914
816;26.983076095581055
817;26.98305892944336
818;26.9830322265625
819;26.983013153076172
820;26.98299217224121
821;26.98297119140625
822;26.98295021057129
823;26.98293113708496
824;26.982908248901367
825;26.982894897460938
826;26.98287582397461
827;26.98284912109375
828;26.98283576965332
829;26.98280906677246
830;26.982789993286133
831;26.982778549194336
832;26.98276138305664
833;26.982736587524414
834;26.982725143432617
835;26.982702255249023
836;26.982690811157227
837;26.982667922973633
838;26.98265266418457
839;26.982633590698242
840;26.98261833190918
841;26.98260498046875
842;26.98259162902832
843;26.98256492614746
844;26.98255729675293
845;26.982540130615234
846;26.98252296447754
847;26.982511520385742
848;26.982492446899414
849;26.982486724853516
850;26.98246955871582
851;26.982452392578125
852;26.982433319091797
853;26.982421875
854;26.982404708862305
855;26.982391357421875
856;26.982376098632812
857;26.98236083984375
858;26.982351303100586
859;26.982332229614258
860;26.98232078552246
861;26.982309341430664
862;26.982295989990234
863;26.982275009155273
864;26.982267379760742
865;26.98225212097168
866;26.982236862182617
867;26.98222541809082
868;26.98221206665039
869;26.982196807861328
870;26.982187271118164
871;26.982173919677734
872;26.982160568237305
873;26.98215103149414
874;26.982131958007812
875;26.98212242126465
876;26.98211097717285
877;26.98209571838379
878;26.982086181640625
879;26.982072830200195
880;26.982057571411133
881;26.982051849365234
882;26.982030868530273
883;26.982025146484375
884;26.982011795043945
885;26.981998443603516
886;26.981985092163086
887;26.981977462768555
888;26.981966018676758
889;26.981950759887695
890;26.981943130493164
891;26.9819278717041
892;26.981916427612305
893;26.98191261291504
894;26.98189926147461
895;26.981887817382812
896;26.981876373291016
897;26.981870651245117
898;26.98185157775879
899;26.98184585571289
900;26.981830596923828
901;26.981822967529297
902;26.981807708740234
903;26.981801986694336
904;26.98179054260254
905;26.98177719116211
906;26.98177146911621
907;26.981760025024414
908;26.981746673583984
909;26.981733322143555
910;26.981725692749023
911;26.981718063354492
912;26.98170280456543
913;26.981693267822266
914;26.981679916381836
915;26.981679916381836
916;26.981660842895508
917;26.981653213500977
918;26.98164176940918
919;26.981630325317383
920;26.981616973876953
921;26.98161506652832
922;26.98160171508789
923;26.98158836364746
924;26.981578826904297
925;26.981571197509766
926;26.98155403137207
927;26.98154067993164
928;26.981534957885742
929;26.981523513793945
930;26.981515884399414
931;26.981502532958984
932;26.98149299621582
933;26.981487274169922
934;26.981475830078125
935;26.981462478637695
936;26.981454849243164
937;26.981447219848633
938;26.98143196105957
939;26.981428146362305
940;26.98141098022461
941;26.981403350830078
942;26.981393814086914
943;26.981380462646484
944;26.981372833251953
945;26.98136329650879
946;26.981348037719727
947;26.98133659362793
948;26.981332778930664
949;26.9813175201416
950;26.981307983398438
951;26.98128890991211
952;26.981279373168945
953;26.981279373168945
954;26.98126220703125
955;26.981252670288086
956;26.98124122619629
957;26.98122787475586
958;26.98121452331543
959;26.981201171875
960;26.981204986572266
961;26.98118782043457
962;26.98118019104004
963;26.98116111755371
964;26.98115348815918
965;26.981143951416016
966;26.98112678527832
967;26.98111343383789
968;26.981109619140625
969;26.981096267700195
970;26.981082916259766
971;26.981075286865234
972;26.981060028076172
973;26.98105239868164
974;26.98103904724121
975;26.98103141784668
976;26.981021881103516
977;26.981014251708984
978;26.980998992919922
979;26.98099136352539
980;26.98098373413086
981;26.980968475341797
982;26.980960845947266
983;26.980947494506836
984;26.980939865112305
985;26.980926513671875
986;26.98091697692871
987;26.980905532836914
988;26.98089599609375
989;26.980886459350586
990;26.980880737304688
991;26.980865478515625
992;26.98086166381836
993;26.98084831237793
994;26.9808349609375
995;26.9808292388916
996;26.980815887451172
997;26.980817794799805
998;26.98079490661621
999;26.98078727722168
