;loss
0;909.2172241210938
1;908.7844848632812
2;908.2853393554688
3;907.7036743164062
4;907.1217651367188
5;906.5393676757812
6;905.9562377929688
7;905.372314453125
8;904.7872924804688
9;904.2064819335938
10;903.6220092773438
11;903.033203125
12;902.443115234375
13;901.8511352539062
14;901.2575073242188
15;900.6580200195312
16;900.060302734375
17;899.4602661132812
18;898.8523559570312
19;898.241455078125
20;897.6276245117188
21;897.010498046875
22;896.3970336914062
23;895.7734985351562
24;895.1536254882812
25;894.5304565429688
26;893.9035034179688
27;893.2730102539062
28;892.630859375
29;891.9923706054688
30;891.349609375
31;890.7024536132812
32;890.0507202148438
33;889.3865356445312
34;888.7250366210938
35;888.0585327148438
36;887.38671875
37;886.7096557617188
38;886.0270385742188
39;885.3385620117188
40;884.6442260742188
41;883.9365234375
42;883.2225952148438
43;882.509521484375
44;881.7897338867188
45;881.0631713867188
46;880.3297729492188
47;879.5890502929688
48;878.841064453125
49;878.078369140625
50;877.3076782226562
51;876.5361328125
52;875.7564086914062
53;874.96142578125
54;874.15771484375
55;873.3518676757812
56;872.530029296875
57;871.69873046875
58;870.8644409179688
59;870.0202026367188
60;869.1657104492188
61;868.3004760742188
62;867.4175415039062
63;866.5234375
64;865.6243286132812
65;864.7066040039062
66;863.783203125
67;862.84716796875
68;861.8981323242188
69;860.928955078125
70;859.9524536132812
71;858.9614868164062
72;857.9558715820312
73;856.9348754882812
74;855.8980102539062
75;854.8380737304688
76;853.7678833007812
77;852.68017578125
78;851.574462890625
79;850.4500122070312
80;849.3063354492188
81;848.1425170898438
82;846.9511108398438
83;845.7379760742188
84;844.5097045898438
85;843.2510375976562
86;841.9751586914062
87;840.6674194335938
88;839.3408203125
89;837.9804077148438
90;836.5921020507812
91;835.1751098632812
92;833.728515625
93;832.2509155273438
94;830.7493286132812
95;829.2150268554688
96;827.6464233398438
97;826.0349731445312
98;824.39453125
99;822.7080078125
100;820.9900512695312
101;819.2314453125
102;817.4309692382812
103;815.5867309570312
104;813.6902465820312
105;811.7568359375
106;809.766357421875
107;807.7351684570312
108;805.6463012695312
109;803.5166015625
110;801.3474731445312
111;799.1250610351562
112;796.8374633789062
113;794.5017700195312
114;792.107421875
115;789.66162109375
116;787.14599609375
117;784.5678100585938
118;781.927734375
119;779.23974609375
120;776.50048828125
121;773.6997680664062
122;770.8363647460938
123;767.898193359375
124;764.908935546875
125;761.8624877929688
126;758.7805786132812
127;755.645751953125
128;752.4563598632812
129;749.2212524414062
130;745.9325561523438
131;742.6204223632812
132;739.2914428710938
133;735.945068359375
134;732.59765625
135;729.2614135742188
136;725.9476928710938
137;722.6552124023438
138;719.3818359375
139;716.1403198242188
140;712.9447631835938
141;709.8084106445312
142;706.7429809570312
143;703.7380981445312
144;700.7908325195312
145;697.9052734375
146;695.0890502929688
147;692.3341674804688
148;689.67626953125
149;687.0856323242188
150;684.57666015625
151;682.1569213867188
152;679.8143920898438
153;677.5647583007812
154;675.384521484375
155;673.2765502929688
156;671.2410278320312
157;669.2708129882812
158;667.3656005859375
159;665.5130615234375
160;663.718017578125
161;661.9745483398438
162;660.2810668945312
163;658.6251831054688
164;657.0119018554688
165;655.4411010742188
166;653.9096069335938
167;652.4143676757812
168;650.953369140625
169;649.5330200195312
170;648.1437377929688
171;646.7841796875
172;645.4534301757812
173;644.14794921875
174;642.8739624023438
175;641.621337890625
176;640.3963012695312
177;639.1959838867188
178;638.0216674804688
179;636.8687744140625
180;635.7342529296875
181;634.6246948242188
182;633.532958984375
183;632.46240234375
184;631.410400390625
185;630.37841796875
186;629.363525390625
187;628.3627319335938
188;627.380615234375
189;626.4131469726562
190;625.4577026367188
191;624.517822265625
192;623.5892333984375
193;622.675048828125
194;621.7725219726562
195;620.8792114257812
196;619.9984741210938
197;619.1253051757812
198;618.2642211914062
199;617.4129028320312
200;616.56884765625
201;615.7334594726562
202;614.9087524414062
203;614.0924072265625
204;613.2815551757812
205;612.4778442382812
206;611.6830444335938
207;610.8949584960938
208;610.1118774414062
209;609.336669921875
210;608.5659790039062
211;607.8034057617188
212;607.0468139648438
213;606.294189453125
214;605.5470581054688
215;604.8065795898438
216;604.0697021484375
217;603.3391723632812
218;602.6118774414062
219;601.8897094726562
220;601.1740112304688
221;600.4639282226562
222;599.757568359375
223;599.0569458007812
224;598.3590698242188
225;597.6654052734375
226;596.9773559570312
227;596.2930908203125
228;595.6135864257812
229;594.9368286132812
230;594.2650146484375
231;593.5974731445312
232;592.9338989257812
233;592.273681640625
234;591.6167602539062
235;590.9618530273438
236;590.3101196289062
237;589.661376953125
238;589.0169067382812
239;588.3740844726562
240;587.7354125976562
241;587.099609375
242;586.4667358398438
243;585.8363647460938
244;585.2075805664062
245;584.5812377929688
246;583.9574584960938
247;583.3370971679688
248;582.7180786132812
249;582.1025390625
250;581.4894409179688
251;580.8786010742188
252;580.2689208984375
253;579.6615600585938
254;579.0574340820312
255;578.454345703125
256;577.8533935546875
257;577.255615234375
258;576.659912109375
259;576.0662231445312
260;575.4745483398438
261;574.884765625
262;574.2960205078125
263;573.7100219726562
264;573.1250610351562
265;572.5420532226562
266;571.9620971679688
267;571.3838500976562
268;570.8074340820312
269;570.2328491210938
270;569.6591186523438
271;569.0869750976562
272;568.5166015625
273;567.9479370117188
274;567.3818359375
275;566.8164672851562
276;566.2527465820312
277;565.6915893554688
278;565.1319580078125
279;564.5738525390625
280;564.0164184570312
281;563.46142578125
282;562.9078979492188
283;562.3558349609375
284;561.80517578125
285;561.2559814453125
286;560.7073364257812
287;560.16015625
288;559.6143188476562
289;559.0706787109375
290;558.5283203125
291;557.9866333007812
292;557.4461669921875
293;556.9077758789062
294;556.370849609375
295;555.8350219726562
296;555.3005981445312
297;554.7673950195312
298;554.2354125976562
299;553.7047119140625
300;553.1751098632812
301;552.6469116210938
302;552.119873046875
303;551.5940551757812
304;551.0693969726562
305;550.5453491210938
306;550.0230102539062
307;549.501220703125
308;548.9812622070312
309;548.4624633789062
310;547.9448852539062
311;547.4283447265625
312;546.9129028320312
313;546.3986206054688
314;545.8853759765625
315;545.3733520507812
316;544.8617553710938
317;544.3512573242188
318;543.8423461914062
319;543.3345947265625
320;542.8272094726562
321;542.3208618164062
322;541.8154907226562
323;541.3118286132812
324;540.8085327148438
325;540.30615234375
326;539.8047485351562
327;539.3043823242188
328;538.8055419921875
329;538.3076171875
330;537.8107299804688
331;537.3140258789062
332;536.8182983398438
333;536.3235473632812
334;535.829833984375
335;535.3377075195312
336;534.8457641601562
337;534.3554077148438
338;533.8660278320312
339;533.3770141601562
340;532.8894653320312
341;532.4022827148438
342;531.91650390625
343;531.4310913085938
344;530.9471435546875
345;530.4634399414062
346;529.9806518554688
347;529.4992065429688
348;529.0180053710938
349;528.5382690429688
350;528.0586547851562
351;527.580078125
352;527.1029052734375
353;526.6265258789062
354;526.1504516601562
355;525.6757202148438
356;525.201171875
357;524.7274169921875
358;524.2549438476562
359;523.7832641601562
360;523.3124389648438
361;522.84228515625
362;522.3724365234375
363;521.9038696289062
364;521.4359741210938
365;520.9683227539062
366;520.5014038085938
367;520.0352172851562
368;519.5697631835938
369;519.1055297851562
370;518.6419677734375
371;518.1787109375
372;517.7167358398438
373;517.2554321289062
374;516.7943725585938
375;516.33447265625
376;515.8748168945312
377;515.416259765625
378;514.9584350585938
379;514.5007934570312
380;514.0444946289062
381;513.5883178710938
382;513.1333618164062
383;512.6791381835938
384;512.2255249023438
385;511.772705078125
386;511.3207092285156
387;510.8694152832031
388;510.4182434082031
389;509.96826171875
390;509.5189514160156
391;509.0702209472656
392;508.6216735839844
393;508.1742248535156
394;507.7274169921875
395;507.28125
396;506.8352966308594
397;506.390380859375
398;505.946044921875
399;505.5023498535156
400;505.058837890625
401;504.6158752441406
402;504.1739807128906
403;503.7326965332031
404;503.2919921875
405;502.8518981933594
406;502.4122619628906
407;501.9732971191406
408;501.5345153808594
409;501.0962829589844
410;500.6585998535156
411;500.2215270996094
412;499.785400390625
413;499.3498840332031
414;498.9149169921875
415;498.4804382324219
416;498.0461730957031
417;497.61279296875
418;497.1795959472656
419;496.7474060058594
420;496.3157043457031
421;495.8841552734375
422;495.4535827636719
423;495.0231018066406
424;494.5935974121094
425;494.1645812988281
426;493.7356872558594
427;493.3078308105469
428;492.8804626464844
429;492.4535827636719
430;492.02685546875
431;491.6006774902344
432;491.1755065917969
433;490.7508239746094
434;490.3262634277344
435;489.9026794433594
436;489.4792175292969
437;489.0562438964844
438;488.6342468261719
439;488.2127380371094
440;487.791748046875
441;487.3709411621094
442;486.9505920410156
443;486.5310974121094
444;486.1117858886719
445;485.6932678222656
446;485.2752685546875
447;484.857421875
448;484.4401550292969
449;484.0232238769531
450;483.6072692871094
451;483.1917419433594
452;482.7762756347656
453;482.3617248535156
454;481.9472961425781
455;481.53369140625
456;481.1204528808594
457;480.7074279785156
458;480.295166015625
459;479.883056640625
460;479.4717712402344
461;479.0609436035156
462;478.6505432128906
463;478.2406311035156
464;477.8311462402344
465;477.4221496582031
466;477.0132751464844
467;476.6047668457031
468;476.1971130371094
469;475.7895812988281
470;475.3825378417969
471;474.9759216308594
472;474.5699768066406
473;474.1645812988281
474;473.75927734375
475;473.354736328125
476;472.9503173828125
477;472.546630859375
478;472.14306640625
479;471.7402648925781
480;471.3375549316406
481;470.9356689453125
482;470.5338439941406
483;470.1327209472656
484;469.7318115234375
485;469.3315734863281
486;468.9315185546875
487;468.5321044921875
488;468.1328430175781
489;467.7342834472656
490;467.336181640625
491;466.9381408691406
492;466.5409240722656
493;466.14404296875
494;465.74755859375
495;465.3515625
496;464.9556579589844
497;464.5604248046875
498;464.1656799316406
499;463.7713317871094
500;463.3773498535156
501;462.9835205078125
502;462.5904235839844
503;462.1976318359375
504;461.804931640625
505;461.4127502441406
506;461.0209045410156
507;460.6297607421875
508;460.2387390136719
509;459.8481140136719
510;459.4578552246094
511;459.0679931640625
512;458.6788024902344
513;458.2900390625
514;457.9013671875
515;457.5130920410156
516;457.1251525878906
517;456.7379455566406
518;456.350830078125
519;455.964111328125
520;455.5780334472656
521;455.1924133300781
522;454.8070373535156
523;454.421875
524;454.0373229980469
525;453.6528625488281
526;453.2690734863281
527;452.8854064941406
528;452.50244140625
529;452.1194763183594
530;451.7369079589844
531;451.35498046875
532;450.9731750488281
533;450.5916748046875
534;450.2106018066406
535;449.8301696777344
536;449.4501037597656
537;449.0700988769531
538;448.6905212402344
539;448.3115234375
540;447.9326171875
541;447.5544128417969
542;447.1765441894531
543;446.7987365722656
544;446.4213562011719
545;446.0445251464844
546;445.6680603027344
547;445.2918395996094
548;444.916015625
549;444.5406799316406
550;444.1656799316406
551;443.790771484375
552;443.4164733886719
553;443.0425720214844
554;442.6686706542969
555;442.295166015625
556;441.9220275878906
557;441.5492858886719
558;441.1771240234375
559;440.8052978515625
560;440.433837890625
561;440.062744140625
562;439.6919860839844
563;439.321533203125
564;438.9515075683594
565;438.5817565917969
566;438.212158203125
567;437.8428649902344
568;437.4739685058594
569;437.1056213378906
570;436.7373046875
571;436.3697204589844
572;436.0021057128906
573;435.6348876953125
574;435.2679748535156
575;434.901611328125
576;434.53564453125
577;434.1697692871094
578;433.804443359375
579;433.439453125
580;433.0745544433594
581;432.7099914550781
582;432.345947265625
583;431.9822998046875
584;431.6187438964844
585;431.2557373046875
586;430.8928527832031
587;430.5302734375
588;430.1679992675781
589;429.8060607910156
590;429.4446716308594
591;429.0834045410156
592;428.72265625
593;428.3622741699219
594;428.001953125
595;427.6419677734375
596;427.2825012207031
597;426.9233703613281
598;426.5643615722656
599;426.2058410644531
600;425.8476867675781
601;425.4896545410156
602;425.1318664550781
603;424.7746887207031
604;424.417724609375
605;424.0611877441406
606;423.7049255371094
607;423.3489685058594
608;422.9930419921875
609;422.6375427246094
610;422.2823181152344
611;421.9275817871094
612;421.5731506347656
613;421.2190856933594
614;420.8653259277344
615;420.5115966796875
616;420.158447265625
617;419.8055725097656
618;419.4530029296875
619;419.1007995605469
620;418.7486572265625
621;418.3970031738281
622;418.0457458496094
623;417.6947326660156
624;417.3440856933594
625;416.9936828613281
626;416.6435852050781
627;416.2937927246094
628;415.9443359375
629;415.5951843261719
630;415.2462463378906
631;414.8974609375
632;414.5492248535156
633;414.2010803222656
634;413.8533630371094
635;413.5057678222656
636;413.1587219238281
637;412.8119201660156
638;412.4654541015625
639;412.1190490722656
640;411.773193359375
641;411.4276123046875
642;411.082275390625
643;410.7372741699219
644;410.3924865722656
645;410.0479431152344
646;409.70361328125
647;409.3595275878906
648;409.0160827636719
649;408.6728210449219
650;408.329833984375
651;407.9869689941406
652;407.6446228027344
653;407.3023376464844
654;406.9603271484375
655;406.6186218261719
656;406.2771911621094
657;405.9361267089844
658;405.595458984375
659;405.255126953125
660;404.9148254394531
661;404.5750427246094
662;404.2353515625
663;403.8961486816406
664;403.5570373535156
665;403.2183532714844
666;402.8797912597656
667;402.5415344238281
668;402.2037048339844
669;401.8660583496094
670;401.52880859375
671;401.1918029785156
672;400.85498046875
673;400.5185852050781
674;400.1824645996094
675;399.8466491699219
676;399.5110778808594
677;399.1756286621094
678;398.840576171875
679;398.5056457519531
680;398.1712341308594
681;397.8368835449219
682;397.5027770996094
683;397.1691589355469
684;396.8358154296875
685;396.5025939941406
686;396.1697692871094
687;395.8372497558594
688;395.5048522949219
689;395.1726989746094
690;394.8409729003906
691;394.5095520019531
692;394.1783752441406
693;393.8473205566406
694;393.5166931152344
695;393.1863708496094
696;392.8562927246094
697;392.5263366699219
698;392.1966247558594
699;391.8671875
700;391.5381774902344
701;391.2093200683594
702;390.8807067871094
703;390.5523376464844
704;390.2243957519531
705;389.8967590332031
706;389.5693664550781
707;389.2420654296875
708;388.915283203125
709;388.588623046875
710;388.2623596191406
711;387.9361267089844
712;387.6103210449219
713;387.2845764160156
714;386.9591979980469
715;386.6341857910156
716;386.3094177246094
717;385.9849548339844
718;385.6605529785156
719;385.3365173339844
720;385.0126037597656
721;384.689208984375
722;384.3660583496094
723;384.0431213378906
724;383.7203674316406
725;383.3977966308594
726;383.07568359375
727;382.7537536621094
728;382.43212890625
729;382.1107482910156
730;381.78955078125
731;381.4686584472656
732;381.14794921875
733;380.8275146484375
734;380.5072326660156
735;380.1874084472656
736;379.8678894042969
737;379.5484313964844
738;379.2293701171875
739;378.9104919433594
740;378.5917663574219
741;378.2733459472656
742;377.955322265625
743;377.6373596191406
744;377.3198547363281
745;377.0026550292969
746;376.6855773925781
747;376.3687438964844
748;376.0521545410156
749;375.7358703613281
750;375.419921875
751;375.1041564941406
752;374.7886657714844
753;374.473388671875
754;374.1583557128906
755;373.8435974121094
756;373.5291442871094
757;373.21484375
758;372.9007873535156
759;372.5870666503906
760;372.2734375
761;371.9600524902344
762;371.6470642089844
763;371.334228515625
764;371.0215759277344
765;370.7091979980469
766;370.3970031738281
767;370.0852355957031
768;369.7735290527344
769;369.4623107910156
770;369.1512451171875
771;368.84033203125
772;368.5296325683594
773;368.2193908691406
774;367.9093017578125
775;367.5993957519531
776;367.2898254394531
777;366.9803771972656
778;366.6712951660156
779;366.3625183105469
780;366.0538635253906
781;365.7455749511719
782;365.4373474121094
783;365.1294860839844
784;364.82177734375
785;364.514404296875
786;364.2071228027344
787;363.9001159667969
788;363.5932922363281
789;363.2868957519531
790;362.9807434082031
791;362.6746826171875
792;362.3690490722656
793;362.0635681152344
794;361.7583923339844
795;361.4534606933594
796;361.1486511230469
797;360.8441467285156
798;360.5399475097656
799;360.2358093261719
800;359.931884765625
801;359.6283264160156
802;359.3250427246094
803;359.0218200683594
804;358.718994140625
805;358.4162902832031
806;358.1138916015625
807;357.811767578125
808;357.5098571777344
809;357.2080993652344
810;356.9065246582031
811;356.605224609375
812;356.3042297363281
813;356.00341796875
814;355.702880859375
815;355.4026794433594
816;355.1026306152344
817;354.8028564453125
818;354.503173828125
819;354.2037048339844
820;353.9045104980469
821;353.6056213378906
822;353.306884765625
823;353.0084533691406
824;352.7102966308594
825;352.4123229980469
826;352.1145324707031
827;351.81689453125
828;351.5196838378906
829;351.22265625
830;350.9258728027344
831;350.6292419433594
832;350.3329162597656
833;350.0368347167969
834;349.7409362792969
835;349.4452819824219
836;349.1497802734375
837;348.8545227050781
838;348.5594787597656
839;348.2647399902344
840;347.9700927734375
841;347.67578125
842;347.3816223144531
843;347.0877990722656
844;346.7940368652344
845;346.5005798339844
846;346.207275390625
847;345.9143371582031
848;345.6214904785156
849;345.3289489746094
850;345.0366516113281
851;344.7445068359375
852;344.4526672363281
853;344.1611022949219
854;343.8697204589844
855;343.5784606933594
856;343.2874755859375
857;342.9967041015625
858;342.7062683105469
859;342.416015625
860;342.1260070800781
861;341.836181640625
862;341.5465393066406
863;341.2571105957031
864;340.9679260253906
865;340.67901611328125
866;340.3902282714844
867;340.10174560546875
868;339.8133850097656
869;339.52532958984375
870;339.2375183105469
871;338.9499206542969
872;338.6623840332031
873;338.3752746582031
874;338.0882263183594
875;337.8013610839844
876;337.514892578125
877;337.2286071777344
878;336.9424133300781
879;336.6565246582031
880;336.3708801269531
881;336.0854187011719
882;335.8002624511719
883;335.5151672363281
884;335.23040771484375
885;334.9458312988281
886;334.6614074707031
887;334.37725830078125
888;334.0932922363281
889;333.8096008300781
890;333.5261535644531
891;333.2427978515625
892;332.9597473144531
893;332.6768798828125
894;332.3941650390625
895;332.1117858886719
896;331.8296203613281
897;331.5476379394531
898;331.2658996582031
899;330.9842834472656
900;330.7028503417969
901;330.4216613769531
902;330.1407775878906
903;329.8600158691406
904;329.5794677734375
905;329.2992248535156
906;329.0191955566406
907;328.7393798828125
908;328.4596862792969
909;328.1801452636719
910;327.9010009765625
911;327.6219482421875
912;327.34307861328125
913;327.064453125
914;326.7861022949219
915;326.50799560546875
916;326.2300720214844
917;325.9522399902344
918;325.6747741699219
919;325.39739990234375
920;325.12030029296875
921;324.84344482421875
922;324.5666809082031
923;324.2902526855469
924;324.0140075683594
925;323.7380065917969
926;323.4620666503906
927;323.1863708496094
928;322.91094970703125
929;322.6357421875
930;322.3607482910156
931;322.0860290527344
932;321.8113098144531
933;321.5369567871094
934;321.2628173828125
935;320.9888610839844
936;320.7151184082031
937;320.44158935546875
938;320.16827392578125
939;319.89501953125
940;319.62213134765625
941;319.3493347167969
942;319.07672119140625
943;318.804443359375
944;318.5323486328125
945;318.2604675292969
946;317.98876953125
947;317.71728515625
948;317.44598388671875
949;317.1749267578125
950;316.904052734375
951;316.63330078125
952;316.36279296875
953;316.09246826171875
954;315.8222961425781
955;315.5524597167969
956;315.28277587890625
957;315.01318359375
958;314.7439270019531
959;314.474853515625
960;314.2060546875
961;313.9373474121094
962;313.6688537597656
963;313.4005432128906
964;313.1325378417969
965;312.86468505859375
966;312.5970153808594
967;312.3295593261719
968;312.0622863769531
969;311.795166015625
970;311.5283203125
971;311.2615966796875
972;310.9951477050781
973;310.7289123535156
974;310.462890625
975;310.1970520019531
976;309.9313659667969
977;309.6659240722656
978;309.4006652832031
979;309.13568115234375
980;308.8708801269531
981;308.60626220703125
982;308.3417663574219
983;308.0774841308594
984;307.8133850097656
985;307.54949951171875
986;307.2858581542969
987;307.0223083496094
988;306.7591247558594
989;306.49609375
990;306.2332458496094
991;305.9706726074219
992;305.70819091796875
993;305.4459228515625
994;305.1838073730469
995;304.9219665527344
996;304.6602478027344
997;304.3987121582031
998;304.1374206542969
999;303.8763732910156
1000;303.6153869628906
1001;303.3547668457031
1002;303.09429931640625
1003;302.8339538574219
1004;302.57379150390625
1005;302.3138427734375
1006;302.0540466308594
1007;301.7945861816406
1008;301.53521728515625
1009;301.276123046875
1010;301.0172424316406
1011;300.7585144042969
1012;300.4999694824219
1013;300.2415771484375
1014;299.9834289550781
1015;299.7254943847656
1016;299.4678039550781
1017;299.21014404296875
1018;298.9527282714844
1019;298.6955871582031
1020;298.4386291503906
1021;298.1817932128906
1022;297.9252624511719
1023;297.6688232421875
1024;297.4125671386719
1025;297.1565246582031
1026;296.9006652832031
1027;296.6450500488281
1028;296.3896179199219
1029;296.1343688964844
1030;295.8793029785156
1031;295.6244812011719
1032;295.36981201171875
1033;295.1153259277344
1034;294.8609619140625
1035;294.6068420410156
1036;294.3528747558594
1037;294.09918212890625
1038;293.8455810546875
1039;293.5922546386719
1040;293.339111328125
1041;293.086181640625
1042;292.83343505859375
1043;292.5808410644531
1044;292.3285217285156
1045;292.0763244628906
1046;291.8242492675781
1047;291.5724792480469
1048;291.32086181640625
1049;291.0693664550781
1050;290.818115234375
1051;290.5670166015625
1052;290.3161315917969
1053;290.06549072265625
1054;289.81494140625
1055;289.5646667480469
1056;289.3145446777344
1057;289.0645446777344
1058;288.81475830078125
1059;288.5651550292969
1060;288.3158264160156
1061;288.0666198730469
1062;287.8175354003906
1063;287.5686950683594
1064;287.32000732421875
1065;287.07159423828125
1066;286.8232727050781
1067;286.5752258300781
1068;286.327392578125
1069;286.0796813964844
1070;285.8321838378906
1071;285.5848388671875
1072;285.3376770019531
1073;285.0906677246094
1074;284.8439025878906
1075;284.5972900390625
1076;284.3507995605469
1077;284.1045837402344
1078;283.8585510253906
1079;283.6127624511719
1080;283.3670349121094
1081;283.1215515136719
1082;282.876220703125
1083;282.631103515625
1084;282.38623046875
1085;282.1415100097656
1086;281.8968811035156
1087;281.6525573730469
1088;281.40838623046875
1089;281.1643981933594
1090;280.9205627441406
1091;280.6769714355469
1092;280.4335021972656
1093;280.1901550292969
1094;279.9470520019531
1095;279.70416259765625
1096;279.46148681640625
1097;279.2189636230469
1098;278.9765319824219
1099;278.7343444824219
1100;278.4924011230469
1101;278.2505187988281
1102;278.00885009765625
1103;277.7674255371094
1104;277.5260925292969
1105;277.2849426269531
1106;277.0440673828125
1107;276.8033447265625
1108;276.5627136230469
1109;276.32232666015625
1110;276.0821533203125
1111;275.8420715332031
1112;275.6022033691406
1113;275.3626403808594
1114;275.1230773925781
1115;274.88385009765625
1116;274.6447448730469
1117;274.40582275390625
1118;274.1670227050781
1119;273.928466796875
1120;273.6900329589844
1121;273.4518737792969
1122;273.2138366699219
1123;272.9759521484375
1124;272.7383117675781
1125;272.50079345703125
1126;272.2634582519531
1127;272.0262756347656
1128;271.7892761230469
1129;271.55242919921875
1130;271.3158264160156
1131;271.0794372558594
1132;270.8432312011719
1133;270.607177734375
1134;270.3712463378906
1135;270.1355285644531
1136;269.9000244140625
1137;269.6646728515625
1138;269.4295349121094
1139;269.1945495605469
1140;268.9596862792969
1141;268.7250061035156
1142;268.4905700683594
1143;268.25628662109375
1144;268.0221252441406
1145;267.78814697265625
1146;267.55438232421875
1147;267.3207702636719
1148;267.0873718261719
1149;266.8541259765625
1150;266.6210632324219
1151;266.3882141113281
1152;266.1554870605469
1153;265.9229736328125
1154;265.6906433105469
1155;265.45843505859375
1156;265.2264099121094
1157;264.9945983886719
1158;264.7629089355469
1159;264.5314025878906
1160;264.3000793457031
1161;264.0690002441406
1162;263.8380432128906
1163;263.6072082519531
1164;263.37652587890625
1165;263.1460876464844
1166;262.9157409667969
1167;262.6856689453125
1168;262.4556884765625
1169;262.22589111328125
1170;261.9963073730469
1171;261.7669677734375
1172;261.5377197265625
1173;261.3086242675781
1174;261.0797424316406
1175;260.8510437011719
1176;260.6225280761719
1177;260.3941650390625
1178;260.1659851074219
1179;259.93798828125
1180;259.7101135253906
1181;259.4824523925781
1182;259.2549133300781
1183;259.027587890625
1184;258.8003845214844
1185;258.5733337402344
1186;258.34649658203125
1187;258.1198425292969
1188;257.8933410644531
1189;257.6670227050781
1190;257.44091796875
1191;257.2149353027344
1192;256.9891357421875
1193;256.7634582519531
1194;256.5379638671875
1195;256.31268310546875
1196;256.0875244140625
1197;255.86260986328125
1198;255.6378173828125
1199;255.4132537841797
1200;255.188720703125
1201;254.96446228027344
1202;254.7403106689453
1203;254.51634216308594
1204;254.2926025390625
1205;254.0690155029297
1206;253.8456268310547
1207;253.6223602294922
1208;253.39930725097656
1209;253.1763458251953
1210;252.95362854003906
1211;252.7310028076172
1212;252.50856018066406
1213;252.28631591796875
1214;252.0642852783203
1215;251.8423614501953
1216;251.62066650390625
1217;251.39906311035156
1218;251.17762756347656
1219;250.95635986328125
1220;250.7352752685547
1221;250.51434326171875
1222;250.2936248779297
1223;250.072998046875
1224;249.85260009765625
1225;249.6323699951172
1226;249.412353515625
1227;249.1924591064453
1228;248.97267150878906
1229;248.75315856933594
1230;248.5337371826172
1231;248.31455993652344
1232;248.09547424316406
1233;247.8765869140625
1234;247.6578369140625
1235;247.4392852783203
1236;247.22088623046875
1237;247.00262451171875
1238;246.7845458984375
1239;246.56663513183594
1240;246.34889221191406
1241;246.13136291503906
1242;245.91392517089844
1243;245.69664001464844
1244;245.4795684814453
1245;245.2626495361328
1246;245.0458984375
1247;244.8292999267578
1248;244.61293029785156
1249;244.39666748046875
1250;244.1805877685547
1251;243.9646759033203
1252;243.74896240234375
1253;243.53330993652344
1254;243.31787109375
1255;243.10264587402344
1256;242.88746643066406
1257;242.67250061035156
1258;242.45774841308594
1259;242.24310302734375
1260;242.0286865234375
1261;241.8143310546875
1262;241.60015869140625
1263;241.3861846923828
1264;241.17234802246094
1265;240.9586944580078
1266;240.74522399902344
1267;240.5319061279297
1268;240.3187255859375
1269;240.1057586669922
1270;239.8929443359375
1271;239.6802978515625
1272;239.46775817871094
1273;239.2554473876953
1274;239.043212890625
1275;238.83123779296875
1276;238.619384765625
1277;238.40773010253906
1278;238.1961212158203
1279;237.9847412109375
1280;237.7734832763672
1281;237.5624542236328
1282;237.35154724121094
1283;237.14080810546875
1284;236.93019104003906
1285;236.7198028564453
1286;236.5095977783203
1287;236.2995147705078
1288;236.08961486816406
1289;235.8798370361328
1290;235.6702117919922
1291;235.4607696533203
1292;235.25152587890625
1293;235.04237365722656
1294;234.83343505859375
1295;234.6245880126953
1296;234.41595458984375
1297;234.20741271972656
1298;233.99908447265625
1299;233.79087829589844
1300;233.5828857421875
1301;233.3750457763672
1302;233.1673583984375
1303;232.9598388671875
1304;232.7524871826172
1305;232.5452423095703
1306;232.3381805419922
1307;232.13128662109375
1308;231.92454528808594
1309;231.71791076660156
1310;231.511474609375
1311;231.3052215576172
1312;231.0990753173828
1313;230.89312744140625
1314;230.6873321533203
1315;230.4817352294922
1316;230.2761993408203
1317;230.07090759277344
1318;229.86573791503906
1319;229.6607208251953
1320;229.4558868408203
1321;229.2511749267578
1322;229.0466766357422
1323;228.84222412109375
1324;228.6380157470703
1325;228.4339141845703
1326;228.2300262451172
1327;228.02622985839844
1328;227.8226776123047
1329;227.6192169189453
1330;227.41600036621094
1331;227.21282958984375
1332;227.0098876953125
1333;226.8070831298828
1334;226.6044158935547
1335;226.40187072753906
1336;226.1995391845703
1337;225.9973907470703
1338;225.79539489746094
1339;225.5934600830078
1340;225.3917694091797
1341;225.190185546875
1342;224.9888153076172
1343;224.7875518798828
1344;224.5865020751953
1345;224.3855438232422
1346;224.18475341796875
1347;223.9840850830078
1348;223.7836456298828
1349;223.58326721191406
1350;223.3831329345703
1351;223.18312072753906
1352;222.9832305908203
1353;222.78355407714844
1354;222.583984375
1355;222.38458251953125
1356;222.18531799316406
1357;221.9862060546875
1358;221.7872314453125
1359;221.58843994140625
1360;221.38978576660156
1361;221.1913299560547
1362;220.99298095703125
1363;220.79481506347656
1364;220.59681701660156
1365;220.39891052246094
1366;220.2012176513672
1367;220.00360107421875
1368;219.8061981201172
1369;219.60894775390625
1370;219.411865234375
1371;219.21495056152344
1372;219.0181427001953
1373;218.8214874267578
1374;218.62498474121094
1375;218.4286651611328
1376;218.23248291015625
1377;218.0364532470703
1378;217.840576171875
1379;217.64479064941406
1380;217.44921875
1381;217.25376892089844
1382;217.05848693847656
1383;216.8633575439453
1384;216.66835021972656
1385;216.4735565185547
1386;216.2788848876953
1387;216.0843505859375
1388;215.8899688720703
1389;215.6957550048828
1390;215.50164794921875
1391;215.3076934814453
1392;215.1138916015625
1393;214.9202880859375
1394;214.7268524169922
1395;214.5334930419922
1396;214.34034729003906
1397;214.1473388671875
1398;213.9544677734375
1399;213.7617645263672
1400;213.5691680908203
1401;213.37672424316406
1402;213.18446350097656
1403;212.99232482910156
1404;212.80035400390625
1405;212.6085205078125
1406;212.41685485839844
1407;212.225341796875
1408;212.0339813232422
1409;211.8427276611328
1410;211.6516876220703
1411;211.4607391357422
1412;211.2699737548828
1413;211.079345703125
1414;210.88880920410156
1415;210.698486328125
1416;210.5082550048828
1417;210.31825256347656
1418;210.1283721923828
1419;209.9385986328125
1420;209.74900817871094
1421;209.5595703125
1422;209.37025451660156
1423;209.18113708496094
1424;208.99212646484375
1425;208.80322265625
1426;208.61456298828125
1427;208.42601013183594
1428;208.23756408691406
1429;208.04931640625
1430;207.8612060546875
1431;207.67327880859375
1432;207.4854278564453
1433;207.2977294921875
1434;207.1102294921875
1435;206.9228515625
1436;206.73561096191406
1437;206.5485076904297
1438;206.361572265625
1439;206.1747589111328
1440;205.98809814453125
1441;205.80157470703125
1442;205.615234375
1443;205.4290008544922
1444;205.24293518066406
1445;205.05706787109375
1446;204.8712615966797
1447;204.6856231689453
1448;204.5001678466797
1449;204.31483459472656
1450;204.129638671875
1451;203.944580078125
1452;203.75965881347656
1453;203.5748748779297
1454;203.3902587890625
1455;203.20579528808594
1456;203.0214385986328
1457;202.8372802734375
1458;202.6532745361328
1459;202.4694061279297
1460;202.28565979003906
1461;202.1020965576172
1462;201.9186553955078
1463;201.7353515625
1464;201.5522003173828
1465;201.3691864013672
1466;201.1863250732422
1467;201.0035858154297
1468;200.8209991455078
1469;200.6385040283203
1470;200.4562225341797
1471;200.2740478515625
1472;200.09202575683594
1473;199.91014099121094
1474;199.7284393310547
1475;199.54685974121094
1476;199.3654022216797
1477;199.18409729003906
1478;199.0029296875
1479;198.82191467285156
1480;198.64105224609375
1481;198.4603271484375
1482;198.2797393798828
1483;198.0993194580078
1484;197.9190216064453
1485;197.7388916015625
1486;197.55885314941406
1487;197.3789825439453
1488;197.19923400878906
1489;197.0196533203125
1490;196.84019470214844
1491;196.660888671875
1492;196.48170471191406
1493;196.3026885986328
1494;196.1238250732422
1495;195.945068359375
1496;195.7664794921875
1497;195.58802795410156
1498;195.40972900390625
1499;195.2315673828125
1500;195.05352783203125
1501;194.8756561279297
1502;194.69789123535156
1503;194.52027893066406
1504;194.3428497314453
1505;194.16551208496094
1506;193.98834228515625
1507;193.811279296875
1508;193.6343994140625
1509;193.45765686035156
1510;193.28102111816406
1511;193.1045684814453
1512;192.92822265625
1513;192.7520294189453
1514;192.5760040283203
1515;192.40008544921875
1516;192.22430419921875
1517;192.0486602783203
1518;191.8731689453125
1519;191.69781494140625
1520;191.5225830078125
1521;191.34751892089844
1522;191.17259216308594
1523;190.997802734375
1524;190.8231201171875
1525;190.6486053466797
1526;190.4742431640625
1527;190.3000030517578
1528;190.1259002685547
1529;189.95191955566406
1530;189.778076171875
1531;189.60443115234375
1532;189.43089294433594
1533;189.2574920654297
1534;189.0841827392578
1535;188.9110565185547
1536;188.7380828857422
1537;188.56520080566406
1538;188.3925323486328
1539;188.2199249267578
1540;188.0474853515625
1541;187.8751678466797
1542;187.7030029296875
1543;187.531005859375
1544;187.3590850830078
1545;187.1873321533203
1546;187.0157470703125
1547;186.84423828125
1548;186.6729278564453
1549;186.501708984375
1550;186.33067321777344
1551;186.15972900390625
1552;185.9889678955078
1553;185.81829833984375
1554;185.6477813720703
1555;185.4773712158203
1556;185.30714416503906
1557;185.13702392578125
1558;184.96705627441406
1559;184.79722595214844
1560;184.62754821777344
1561;184.45794677734375
1562;184.28851318359375
1563;184.1192626953125
1564;183.95013427734375
1565;183.78111267089844
1566;183.6121826171875
1567;183.4434814453125
1568;183.27488708496094
1569;183.1063995361328
1570;182.9380645751953
1571;182.7698516845703
1572;182.60182189941406
1573;182.4339141845703
1574;182.26611328125
1575;182.0984649658203
1576;181.93096923828125
1577;181.76356506347656
1578;181.59632873535156
1579;181.42919921875
1580;181.26219177246094
1581;181.0953826904297
1582;180.9286651611328
1583;180.7620849609375
1584;180.59564208984375
1585;180.42933654785156
1586;180.26316833496094
1587;180.0971221923828
1588;179.9311981201172
1589;179.7654571533203
1590;179.59983825683594
1591;179.43431091308594
1592;179.2689666748047
1593;179.10374450683594
1594;178.9386444091797
1595;178.77366638183594
1596;178.6088104248047
1597;178.44410705566406
1598;178.279541015625
1599;178.1151123046875
1600;177.9508056640625
1601;177.78663635253906
1602;177.6226043701172
1603;177.4586944580078
1604;177.2949676513672
1605;177.13128662109375
1606;176.9677734375
1607;176.8043975830078
1608;176.6411590576172
1609;176.47808837890625
1610;176.3151092529297
1611;176.15228271484375
1612;175.98960876464844
1613;175.8270263671875
1614;175.66461181640625
1615;175.50233459472656
1616;175.3401336669922
1617;175.1781005859375
1618;175.0161895751953
1619;174.85443115234375
1620;174.6927947998047
1621;174.5312957763672
1622;174.3699188232422
1623;174.2086181640625
1624;174.0475311279297
1625;173.8865509033203
1626;173.7257080078125
1627;173.5650177001953
1628;173.40443420410156
1629;173.2439422607422
1630;173.0836181640625
1631;172.9234619140625
1632;172.76341247558594
1633;172.60350036621094
1634;172.4436798095703
1635;172.2840118408203
1636;172.1244659423828
1637;171.96510314941406
1638;171.80580139160156
1639;171.64666748046875
1640;171.48765563964844
1641;171.32875061035156
1642;171.16998291015625
1643;171.0113983154297
1644;170.85289001464844
1645;170.694580078125
1646;170.53631591796875
1647;170.37818908691406
1648;170.22023010253906
1649;170.06239318847656
1650;169.90464782714844
1651;169.74708557128906
1652;169.5896453857422
1653;169.43231201171875
1654;169.2751007080078
1655;169.11802673339844
1656;168.96107482910156
1657;168.80430603027344
1658;168.64759826660156
1659;168.49102783203125
1660;168.3346405029297
1661;168.17835998535156
1662;168.0221405029297
1663;167.86611938476562
1664;167.71022033691406
1665;167.554443359375
1666;167.3988037109375
1667;167.2432403564453
1668;167.08786010742188
1669;166.93263244628906
1670;166.7774658203125
1671;166.62249755859375
1672;166.46759033203125
1673;166.31283569335938
1674;166.15821838378906
1675;166.00372314453125
1676;165.84933471679688
1677;165.69508361816406
1678;165.5409698486328
1679;165.38697814941406
1680;165.23309326171875
1681;165.07936096191406
1682;164.92578125
1683;164.77227783203125
1684;164.6189422607422
1685;164.46571350097656
1686;164.31256103515625
1687;164.1596221923828
1688;164.0067901611328
1689;163.85406494140625
1690;163.70147705078125
1691;163.54905700683594
1692;163.3966827392578
1693;163.24447631835938
1694;163.0924072265625
1695;162.94044494628906
1696;162.78863525390625
1697;162.63694763183594
1698;162.48536682128906
1699;162.33392333984375
1700;162.18260192871094
1701;162.0313720703125
1702;161.88031005859375
1703;161.72935485839844
1704;161.57858276367188
1705;161.4279022216797
1706;161.27731323242188
1707;161.12689208984375
1708;160.97657775878906
1709;160.82640075683594
1710;160.67628479003906
1711;160.52633666992188
1712;160.3765411376953
1713;160.22686767578125
1714;160.07728576660156
1715;159.92782592773438
1716;159.77847290039062
1717;159.62933349609375
1718;159.48025512695312
1719;159.331298828125
1720;159.18247985839844
1721;159.03379821777344
1722;158.88523864746094
1723;158.73678588867188
1724;158.58848571777344
1725;158.44029235839844
1726;158.29222106933594
1727;158.14430236816406
1728;157.99644470214844
1729;157.8487548828125
1730;157.70114135742188
1731;157.55372619628906
1732;157.40640258789062
1733;157.25917053222656
1734;157.1121063232422
1735;156.9651336669922
1736;156.81834411621094
1737;156.671630859375
1738;156.52503967285156
1739;156.3785858154297
1740;156.2322540283203
1741;156.0860595703125
1742;155.93995666503906
1743;155.79400634765625
1744;155.6481475830078
1745;155.50242614746094
1746;155.35684204101562
1747;155.21136474609375
1748;155.0659942626953
1749;154.92076110839844
1750;154.7756805419922
1751;154.6306610107422
1752;154.48582458496094
1753;154.34107971191406
1754;154.1964569091797
1755;154.05197143554688
1756;153.90760803222656
1757;153.76332092285156
1758;153.61924743652344
1759;153.4752197265625
1760;153.3313446044922
1761;153.1875457763672
1762;153.04396057128906
1763;152.90040588378906
1764;152.7570343017578
1765;152.61375427246094
1766;152.47059631347656
1767;152.32752990722656
1768;152.18466186523438
1769;152.0418701171875
1770;151.89918518066406
1771;151.7566375732422
1772;151.61419677734375
1773;151.47190856933594
1774;151.3297119140625
1775;151.1876678466797
1776;151.04568481445312
1777;150.9038848876953
1778;150.7621612548828
1779;150.62062072753906
1780;150.47915649414062
1781;150.3378143310547
1782;150.1965789794922
1783;150.0554656982422
1784;149.91448974609375
1785;149.7736358642578
1786;149.63287353515625
1787;149.49227905273438
1788;149.35179138183594
1789;149.21144104003906
1790;149.0711212158203
1791;148.93101501464844
1792;148.7909698486328
1793;148.6510772705078
1794;148.51133728027344
1795;148.3716583251953
1796;148.2321014404297
1797;148.0926971435547
1798;147.95335388183594
1799;147.8141632080078
1800;147.6751251220703
1801;147.53614807128906
1802;147.39732360839844
1803;147.25860595703125
1804;147.12001037597656
1805;146.98158264160156
1806;146.8432159423828
1807;146.7050018310547
1808;146.56690979003906
1809;146.4288787841797
1810;146.291015625
1811;146.15325927734375
1812;146.01559448242188
1813;145.87806701660156
1814;145.74066162109375
1815;145.6033935546875
1816;145.46621704101562
1817;145.32920837402344
1818;145.1922607421875
1819;145.05543518066406
1820;144.9187469482422
1821;144.78213500976562
1822;144.64569091796875
1823;144.5093536376953
1824;144.37315368652344
1825;144.23703002929688
1826;144.1010284423828
1827;143.96514892578125
1828;143.82937622070312
1829;143.69374084472656
1830;143.5582275390625
1831;143.42283630371094
1832;143.2875518798828
1833;143.15235900878906
1834;143.01731872558594
1835;142.8824005126953
1836;142.74757385253906
1837;142.61288452148438
1838;142.4783172607422
1839;142.34381103515625
1840;142.20945739746094
1841;142.0752410888672
1842;141.9411163330078
1843;141.80714416503906
1844;141.67323303222656
1845;141.5394744873047
1846;141.40582275390625
1847;141.2722930908203
1848;141.1388702392578
1849;141.0055389404297
1850;140.87237548828125
1851;140.73927307128906
1852;140.6062774658203
1853;140.47348022460938
1854;140.34071350097656
1855;140.20811462402344
1856;140.0756378173828
1857;139.9432373046875
1858;139.81097412109375
1859;139.67884826660156
1860;139.5467987060547
1861;139.41490173339844
1862;139.2831268310547
1863;139.1514129638672
1864;139.01980590820312
1865;138.88839721679688
1866;138.7570037841797
1867;138.62579345703125
1868;138.4946746826172
1869;138.3636932373047
1870;138.2328338623047
1871;138.10203552246094
1872;137.97140502929688
1873;137.8408660888672
1874;137.7104034423828
1875;137.58009338378906
1876;137.44989013671875
1877;137.31980895996094
1878;137.18983459472656
1879;137.05999755859375
1880;136.93026733398438
1881;136.80064392089844
1882;136.67112731933594
1883;136.5417022705078
1884;136.4124298095703
1885;136.2832794189453
1886;136.15419006347656
1887;136.02520751953125
1888;135.89637756347656
1889;135.7677001953125
1890;135.63905334472656
1891;135.5105743408203
1892;135.3822021484375
1893;135.25392150878906
1894;135.12576293945312
1895;134.99769592285156
1896;134.86978149414062
1897;134.7419891357422
1898;134.61424255371094
1899;134.48667907714844
1900;134.3591766357422
1901;134.23179626464844
1902;134.10458374023438
1903;133.97743225097656
1904;133.8504180908203
1905;133.72349548339844
1906;133.59669494628906
1907;133.46998596191406
1908;133.3434295654297
1909;133.21693420410156
1910;133.09059143066406
1911;132.96434020996094
1912;132.83819580078125
1913;132.7122039794922
1914;132.5863037109375
1915;132.46051025390625
1916;132.33482360839844
1917;132.209228515625
1918;132.08377075195312
1919;131.95838928222656
1920;131.8331756591797
1921;131.70802307128906
1922;131.58302307128906
1923;131.4581298828125
1924;131.3333282470703
1925;131.20863342285156
1926;131.08409118652344
1927;130.95960998535156
1928;130.83526611328125
1929;130.71107482910156
1930;130.5869140625
1931;130.46287536621094
1932;130.33900451660156
1933;130.21519470214844
1934;130.09149169921875
1935;129.9679412841797
1936;129.844482421875
1937;129.72113037109375
1938;129.59788513183594
1939;129.4747314453125
1940;129.35169982910156
1941;129.22879028320312
1942;129.10598754882812
1943;128.9832763671875
1944;128.86068725585938
1945;128.7382354736328
1946;128.6158447265625
1947;128.49359130859375
1948;128.3714599609375
1949;128.2494354248047
1950;128.1274871826172
1951;128.0056915283203
1952;127.88399505615234
1953;127.76239013671875
1954;127.6408920288086
1955;127.51953125
1956;127.39823150634766
1957;127.27706909179688
1958;127.1560287475586
1959;127.03509521484375
1960;126.91426849365234
1961;126.79352569580078
1962;126.67290496826172
1963;126.5523681640625
1964;126.43197631835938
1965;126.3116683959961
1966;126.1915054321289
1967;126.0714340209961
1968;125.951416015625
1969;125.8315658569336
1970;125.71183013916016
1971;125.59215545654297
1972;125.47261810302734
1973;125.35317993164062
1974;125.23389434814453
1975;125.11466217041016
1976;124.9955825805664
1977;124.87652587890625
1978;124.7576675415039
1979;124.63890838623047
1980;124.52023315429688
1981;124.40166473388672
1982;124.28321075439453
1983;124.16485595703125
1984;124.0466079711914
1985;123.92847442626953
1986;123.81047821044922
1987;123.69254302978516
1988;123.5747299194336
1989;123.45699310302734
1990;123.33939361572266
1991;123.2219009399414
1992;123.10449981689453
1993;122.98722076416016
1994;122.87004852294922
1995;122.75298309326172
1996;122.63602447509766
1997;122.5191879272461
1998;122.4024429321289
1999;122.2857894897461
2000;122.16925048828125
2001;122.0528335571289
2002;121.93648529052734
2003;121.82025909423828
2004;121.70413970947266
2005;121.58817291259766
2006;121.47228240966797
2007;121.3564682006836
2008;121.2408218383789
2009;121.12521362304688
2010;121.00972747802734
2011;120.89434051513672
2012;120.77908325195312
2013;120.6639175415039
2014;120.54888153076172
2015;120.43389892578125
2016;120.3190689086914
2017;120.2043228149414
2018;120.0896987915039
2019;119.97515869140625
2020;119.86075592041016
2021;119.74642181396484
2022;119.63220977783203
2023;119.51811981201172
2024;119.40410614013672
2025;119.29019165039062
2026;119.1764144897461
2027;119.0627212524414
2028;118.94915008544922
2029;118.83565521240234
2030;118.72229766845703
2031;118.60900115966797
2032;118.495849609375
2033;118.3827896118164
2034;118.26981353759766
2035;118.15697479248047
2036;118.0442123413086
2037;117.93155670166016
2038;117.81900787353516
2039;117.70660400390625
2040;117.59423828125
2041;117.48201751708984
2042;117.3698959350586
2043;117.25787353515625
2044;117.14593505859375
2045;117.03412628173828
2046;116.92245483398438
2047;116.81082916259766
2048;116.6993408203125
2049;116.58792877197266
2050;116.47662353515625
2051;116.36544036865234
2052;116.25432586669922
2053;116.14337158203125
2054;116.0324478149414
2055;115.92166137695312
2056;115.8110122680664
2057;115.7004165649414
2058;115.5899658203125
2059;115.47957611083984
2060;115.36929321289062
2061;115.2591323852539
2062;115.14908599853516
2063;115.03910064697266
2064;114.92926788330078
2065;114.81951904296875
2066;114.7098388671875
2067;114.60031127929688
2068;114.4908447265625
2069;114.38150024414062
2070;114.2722396850586
2071;114.1630859375
2072;114.0540542602539
2073;113.94510650634766
2074;113.83629608154297
2075;113.72754669189453
2076;113.618896484375
2077;113.51038360595703
2078;113.40191650390625
2079;113.29358673095703
2080;113.18536376953125
2081;113.07723999023438
2082;112.9692153930664
2083;112.86128997802734
2084;112.75345611572266
2085;112.645751953125
2086;112.53814697265625
2087;112.43058013916016
2088;112.32318115234375
2089;112.21588134765625
2090;112.1086654663086
2091;112.00154876708984
2092;111.8945083618164
2093;111.7875747680664
2094;111.68079376220703
2095;111.57406616210938
2096;111.46746826171875
2097;111.3609390258789
2098;111.25452423095703
2099;111.1482162475586
2100;111.04199981689453
2101;110.93588256835938
2102;110.82989501953125
2103;110.72396087646484
2104;110.6181411743164
2105;110.512451171875
2106;110.4068374633789
2107;110.30133819580078
2108;110.1959228515625
2109;110.09060668945312
2110;109.98538970947266
2111;109.88027954101562
2112;109.77527618408203
2113;109.67034912109375
2114;109.56552124023438
2115;109.46078491210938
2116;109.356201171875
2117;109.25167083740234
2118;109.14727020263672
2119;109.0429458618164
2120;108.9386978149414
2121;108.83458709716797
2122;108.7305679321289
2123;108.62664794921875
2124;108.5228042602539
2125;108.41910552978516
2126;108.31546783447266
2127;108.21194458007812
2128;108.1085205078125
2129;108.00516510009766
2130;107.90194702148438
2131;107.7988052368164
2132;107.6957778930664
2133;107.59283447265625
2134;107.489990234375
2135;107.38726043701172
2136;107.28461456298828
2137;107.18209075927734
2138;107.07962799072266
2139;106.97728729248047
2140;106.87500762939453
2141;106.77286529541016
2142;106.67082977294922
2143;106.56885528564453
2144;106.46700286865234
2145;106.365234375
2146;106.26355743408203
2147;106.16197967529297
2148;106.06053924560547
2149;105.95914459228516
2150;105.8578872680664
2151;105.7567367553711
2152;105.65563201904297
2153;105.55464935302734
2154;105.4537582397461
2155;105.35296630859375
2156;105.25226593017578
2157;105.15172576904297
2158;105.05120086669922
2159;104.95077514648438
2160;104.8504867553711
2161;104.75028228759766
2162;104.65017700195312
2163;104.55016326904297
2164;104.45023345947266
2165;104.35040283203125
2166;104.25069427490234
2167;104.15105438232422
2168;104.0515365600586
2169;103.95209503173828
2170;103.85275268554688
2171;103.75350952148438
2172;103.65438842773438
2173;103.5553207397461
2174;103.45636749267578
2175;103.3575210571289
2176;103.25875091552734
2177;103.16007232666016
2178;103.06151580810547
2179;102.9630355834961
2180;102.8646469116211
2181;102.76636505126953
2182;102.66815948486328
2183;102.570068359375
2184;102.47207641601562
2185;102.37417602539062
2186;102.27637481689453
2187;102.17865753173828
2188;102.08102416992188
2189;101.9834976196289
2190;101.88607788085938
2191;101.78874969482422
2192;101.6915054321289
2193;101.59435272216797
2194;101.49730682373047
2195;101.40035247802734
2196;101.30350494384766
2197;101.20672607421875
2198;101.11004638671875
2199;101.01346588134766
2200;100.91699981689453
2201;100.82062530517578
2202;100.72430419921875
2203;100.62811279296875
2204;100.5320053100586
2205;100.43597412109375
2206;100.34005737304688
2207;100.24423217773438
2208;100.14850616455078
2209;100.0528793334961
2210;99.95734405517578
2211;99.86187744140625
2212;99.76653289794922
2213;99.67127227783203
2214;99.57614135742188
2215;99.48102569580078
2216;99.38607025146484
2217;99.29117584228516
2218;99.19638061523438
2219;99.10167694091797
2220;99.007080078125
2221;98.9125747680664
2222;98.81814575195312
2223;98.72382354736328
2224;98.62957000732422
2225;98.53543853759766
2226;98.44141387939453
2227;98.34745025634766
2228;98.25359344482422
2229;98.1598129272461
2230;98.06613159179688
2231;97.97252655029297
2232;97.87905883789062
2233;97.7856674194336
2234;97.69232940673828
2235;97.59912109375
2236;97.5060043334961
2237;97.41297149658203
2238;97.32003784179688
2239;97.2271957397461
2240;97.13446044921875
2241;97.04177856445312
2242;96.9491958618164
2243;96.85675048828125
2244;96.76434326171875
2245;96.67206573486328
2246;96.57987213134766
2247;96.48773956298828
2248;96.3957290649414
2249;96.30380249023438
2250;96.21195220947266
2251;96.1202392578125
2252;96.02857208251953
2253;95.93700408935547
2254;95.84555053710938
2255;95.75414276123047
2256;95.66287231445312
2257;95.57168579101562
2258;95.48052978515625
2259;95.38953399658203
2260;95.2986068725586
2261;95.20780181884766
2262;95.1170425415039
2263;95.0263900756836
2264;94.93582916259766
2265;94.8453369140625
2266;94.75497436523438
2267;94.6646728515625
2268;94.57447052001953
2269;94.484375
2270;94.39435577392578
2271;94.3044204711914
2272;94.21459197998047
2273;94.12487030029297
2274;94.03519439697266
2275;93.94564819335938
2276;93.85616302490234
2277;93.76677703857422
2278;93.677490234375
2279;93.58824920654297
2280;93.49913787841797
2281;93.41010284423828
2282;93.32119750976562
2283;93.23233795166016
2284;93.14358520507812
2285;93.054931640625
2286;92.9663314819336
2287;92.87786102294922
2288;92.78948211669922
2289;92.70114135742188
2290;92.6129150390625
2291;92.52478790283203
2292;92.436767578125
2293;92.34881591796875
2294;92.26094818115234
2295;92.1731948852539
2296;92.08548736572266
2297;91.99791717529297
2298;91.9103775024414
2299;91.8229751586914
2300;91.73564910888672
2301;91.64840698242188
2302;91.5612564086914
2303;91.47418975830078
2304;91.38723754882812
2305;91.30034637451172
2306;91.21355438232422
2307;91.12682342529297
2308;91.04019165039062
2309;90.95369720458984
2310;90.86724853515625
2311;90.7808837890625
2312;90.6946029663086
2313;90.6084213256836
2314;90.52233123779297
2315;90.43630981445312
2316;90.35040283203125
2317;90.26455688476562
2318;90.1788330078125
2319;90.09317779541016
2320;90.00762176513672
2321;89.9221420288086
2322;89.83673858642578
2323;89.75142669677734
2324;89.66622161865234
2325;89.58106231689453
2326;89.49603271484375
2327;89.41107177734375
2328;89.32623291015625
2329;89.24144744873047
2330;89.15673065185547
2331;89.0721206665039
2332;88.98760986328125
2333;88.90319061279297
2334;88.81884002685547
2335;88.73458099365234
2336;88.65039825439453
2337;88.56633758544922
2338;88.48233795166016
2339;88.39840698242188
2340;88.31458282470703
2341;88.23084259033203
2342;88.14718627929688
2343;88.06362915039062
2344;87.98013305664062
2345;87.89676666259766
2346;87.81344604492188
2347;87.7302017211914
2348;87.6470718383789
2349;87.56403350830078
2350;87.48104858398438
2351;87.39818572998047
2352;87.31539154052734
2353;87.232666015625
2354;87.1500473022461
2355;87.06754302978516
2356;86.98507690429688
2357;86.90271759033203
2358;86.8204345703125
2359;86.73825073242188
2360;86.6561508178711
2361;86.57410430908203
2362;86.4921646118164
2363;86.41031646728516
2364;86.32857513427734
2365;86.24689483642578
2366;86.16527557373047
2367;86.08379364013672
2368;86.0023422241211
2369;85.9210205078125
2370;85.83975982666016
2371;85.7585678100586
2372;85.67748260498047
2373;85.59648895263672
2374;85.51555633544922
2375;85.43475341796875
2376;85.35399627685547
2377;85.2733383178711
2378;85.19275665283203
2379;85.11227416992188
2380;85.03184509277344
2381;84.95153045654297
2382;84.87126922607422
2383;84.7911148071289
2384;84.7110366821289
2385;84.63104248046875
2386;84.55115509033203
2387;84.47129821777344
2388;84.3915786743164
2389;84.31192016601562
2390;84.23234558105469
2391;84.15286254882812
2392;84.07345581054688
2393;83.99413299560547
2394;83.91488647460938
2395;83.83574676513672
2396;83.75666046142578
2397;83.67768096923828
2398;83.59876251220703
2399;83.51995849609375
2400;83.44120788574219
2401;83.36254119873047
2402;83.28398895263672
2403;83.20548248291016
2404;83.12709045410156
2405;83.04874420166016
2406;82.97054290771484
2407;82.89238739013672
2408;82.81431579589844
2409;82.7363052368164
2410;82.65840148925781
2411;82.58057403564453
2412;82.5028305053711
2413;82.42515563964844
2414;82.34757232666016
2415;82.27010345458984
2416;82.19268798828125
2417;82.1153335571289
2418;82.0381088256836
2419;81.96092987060547
2420;81.88383483886719
2421;81.80684661865234
2422;81.72994232177734
2423;81.6530990600586
2424;81.57633972167969
2425;81.49967193603516
2426;81.4230728149414
2427;81.34656524658203
2428;81.2701187133789
2429;81.19377899169922
2430;81.11749267578125
2431;81.04131317138672
2432;80.96521759033203
2433;80.88919067382812
2434;80.8132553100586
2435;80.73738861083984
2436;80.6615982055664
2437;80.5859146118164
2438;80.51028442382812
2439;80.43477630615234
2440;80.35932159423828
2441;80.28392791748047
2442;80.20864868164062
2443;80.13341522216797
2444;80.05831146240234
2445;79.98324584960938
2446;79.90828704833984
2447;79.83341217041016
2448;79.75859832763672
2449;79.68388366699219
2450;79.60923767089844
2451;79.53466796875
2452;79.46016693115234
2453;79.3857650756836
2454;79.31143951416016
2455;79.23722839355469
2456;79.16304779052734
2457;79.08895111083984
2458;79.01496124267578
2459;78.9410171508789
2460;78.86717987060547
2461;78.7934341430664
2462;78.71974182128906
2463;78.64612579345703
2464;78.5726318359375
2465;78.49916076660156
2466;78.4258041381836
2467;78.35250854492188
2468;78.27931213378906
2469;78.2061767578125
2470;78.13312530517578
2471;78.06017303466797
2472;77.98728942871094
2473;77.91448211669922
2474;77.84176635742188
2475;77.76909637451172
2476;77.6965103149414
2477;77.6240463256836
2478;77.5516128540039
2479;77.47928619384766
2480;77.40701293945312
2481;77.3348388671875
2482;77.26275634765625
2483;77.19072723388672
2484;77.1187744140625
2485;77.04691314697266
2486;76.97513580322266
2487;76.9034423828125
2488;76.83180236816406
2489;76.7602767944336
2490;76.68881225585938
2491;76.61739349365234
2492;76.54606628417969
2493;76.47484588623047
2494;76.40369415283203
2495;76.33259582519531
2496;76.2616195678711
2497;76.1906967163086
2498;76.11986541748047
2499;76.04907989501953
2500;75.97838592529297
2501;75.90778350830078
2502;75.83724975585938
2503;75.76680755615234
2504;75.69642639160156
2505;75.62610626220703
2506;75.55587768554688
2507;75.4857406616211
2508;75.4156723022461
2509;75.34569549560547
2510;75.27574920654297
2511;75.20592498779297
2512;75.13616180419922
2513;75.06648254394531
2514;74.99686431884766
2515;74.92735290527344
2516;74.85790252685547
2517;74.78852081298828
2518;74.71923828125
2519;74.6500015258789
2520;74.58085632324219
2521;74.51180267333984
2522;74.44281768798828
2523;74.37390899658203
2524;74.30506134033203
2525;74.23629760742188
2526;74.16759490966797
2527;74.0990219116211
2528;74.03046417236328
2529;73.96202850341797
2530;73.8936538696289
2531;73.82532501220703
2532;73.75708770751953
2533;73.6889419555664
2534;73.6208724975586
2535;73.5528793334961
2536;73.48494720458984
2537;73.41710662841797
2538;73.34933471679688
2539;73.28163146972656
2540;73.21399688720703
2541;73.14646911621094
2542;73.0789794921875
2543;73.01160430908203
2544;72.94426727294922
2545;72.8770523071289
2546;72.80988311767578
2547;72.74276733398438
2548;72.6757583618164
2549;72.60882568359375
2550;72.54194641113281
2551;72.47515106201172
2552;72.40843963623047
2553;72.341796875
2554;72.2752456665039
2555;72.20874786376953
2556;72.142333984375
2557;72.07599639892578
2558;72.00972747802734
2559;71.94353485107422
2560;71.8774185180664
2561;71.81139373779297
2562;71.74542236328125
2563;71.67951965332031
2564;71.61368560791016
2565;71.54794311523438
2566;71.4822769165039
2567;71.41667938232422
2568;71.35115814208984
2569;71.28569793701172
2570;71.22032165527344
2571;71.155029296875
2572;71.08980560302734
2573;71.02464294433594
2574;70.95956420898438
2575;70.89458465576172
2576;70.82965087890625
2577;70.76480865478516
2578;70.70000457763672
2579;70.63529205322266
2580;70.57067108154297
2581;70.50611114501953
2582;70.44161224365234
2583;70.377197265625
2584;70.31285095214844
2585;70.24860382080078
2586;70.18441009521484
2587;70.12029266357422
2588;70.05621337890625
2589;69.99224853515625
2590;69.92835235595703
2591;69.86453247070312
2592;69.8007583618164
2593;69.73706817626953
2594;69.6734619140625
2595;69.60993957519531
2596;69.54647064208984
2597;69.48307800292969
2598;69.41973876953125
2599;69.35651397705078
2600;69.29334259033203
2601;69.23023223876953
2602;69.16719818115234
2603;69.1042251586914
2604;69.04136657714844
2605;68.97854614257812
2606;68.91582489013672
2607;68.85314178466797
2608;68.79053497314453
2609;68.72801971435547
2610;68.66556549072266
2611;68.60318756103516
2612;68.54088592529297
2613;68.4786376953125
2614;68.41647338867188
2615;68.35440063476562
2616;68.2923583984375
2617;68.23042297363281
2618;68.16854858398438
2619;68.10674285888672
2620;68.04500579833984
2621;67.98335266113281
2622;67.92174530029297
2623;67.8602294921875
2624;67.79875946044922
2625;67.73739624023438
2626;67.67605590820312
2627;67.6148452758789
2628;67.55368041992188
2629;67.49259948730469
2630;67.43158721923828
2631;67.3706283569336
2632;67.30974578857422
2633;67.2489242553711
2634;67.1882095336914
2635;67.12752532958984
2636;67.06692504882812
2637;67.00638580322266
2638;66.94593811035156
2639;66.88555145263672
2640;66.82524871826172
2641;66.76498413085938
2642;66.704833984375
2643;66.64472198486328
2644;66.58467864990234
2645;66.52472686767578
2646;66.46484375
2647;66.40499114990234
2648;66.3452377319336
2649;66.28556060791016
2650;66.2259521484375
2651;66.16638946533203
2652;66.10694122314453
2653;66.04753875732422
2654;65.98819732666016
2655;65.92896270751953
2656;65.86975860595703
2657;65.81060791015625
2658;65.75155639648438
2659;65.69257354736328
2660;65.63365936279297
2661;65.57481384277344
2662;65.51602935791016
2663;65.45732879638672
2664;65.3987045288086
2665;65.34014892578125
2666;65.28162384033203
2667;65.22319793701172
2668;65.16482543945312
2669;65.10653686523438
2670;65.04830932617188
2671;64.99015808105469
2672;64.93209075927734
2673;64.87406158447266
2674;64.81611633300781
2675;64.75823974609375
2676;64.70040893554688
2677;64.64266204833984
2678;64.58499145507812
2679;64.52738189697266
2680;64.46984100341797
2681;64.41239166259766
2682;64.35498046875
2683;64.29766082763672
2684;64.2403793334961
2685;64.18318176269531
2686;64.12606048583984
2687;64.06900024414062
2688;64.01200103759766
2689;63.9550895690918
2690;63.89822006225586
2691;63.84145736694336
2692;63.78471755981445
2693;63.72806167602539
2694;63.671478271484375
2695;63.61497116088867
2696;63.55852127075195
2697;63.502132415771484
2698;63.44581985473633
2699;63.38957595825195
2700;63.3333854675293
2701;63.27728271484375
2702;63.221221923828125
2703;63.165252685546875
2704;63.10934829711914
2705;63.053497314453125
2706;62.99772262573242
2707;62.94199752807617
2708;62.88637161254883
2709;62.8307991027832
2710;62.77529525756836
2711;62.7198371887207
2712;62.66447067260742
2713;62.60916519165039
2714;62.55391311645508
2715;62.49873733520508
2716;62.443634033203125
2717;62.38859558105469
2718;62.333614349365234
2719;62.27871322631836
2720;62.2238655090332
2721;62.169097900390625
2722;62.1143684387207
2723;62.059749603271484
2724;62.00517272949219
2725;61.95066452026367
2726;61.89622116088867
2727;61.84184265136719
2728;61.78751754760742
2729;61.7332763671875
2730;61.6790885925293
2731;61.624969482421875
2732;61.5709228515625
2733;61.51694869995117
2734;61.4630241394043
2735;61.409175872802734
2736;61.355377197265625
2737;61.30165481567383
2738;61.24800109863281
2739;61.19441604614258
2740;61.14088821411133
2741;61.087432861328125
2742;61.0340461730957
2743;60.980716705322266
2744;60.92744064331055
2745;60.87424087524414
2746;60.82109451293945
2747;60.76804733276367
2748;60.71503829956055
2749;60.662109375
2750;60.60922622680664
2751;60.55642318725586
2752;60.503692626953125
2753;60.450984954833984
2754;60.39838790893555
2755;60.345829010009766
2756;60.2933464050293
2757;60.24091720581055
2758;60.18857192993164
2759;60.13627624511719
2760;60.08406066894531
2761;60.03188705444336
2762;59.97977828979492
2763;59.92775344848633
2764;59.87576675415039
2765;59.8238525390625
2766;59.77202224731445
2767;59.72024154663086
2768;59.66853713989258
2769;59.61688232421875
2770;59.565303802490234
2771;59.5137825012207
2772;59.46232604980469
2773;59.41093826293945
2774;59.35960006713867
2775;59.30832290649414
2776;59.257110595703125
2777;59.20598220825195
2778;59.15488815307617
2779;59.1038818359375
2780;59.05293273925781
2781;59.002044677734375
2782;58.95123291015625
2783;58.90047073364258
2784;58.84977340698242
2785;58.79912185668945
2786;58.748565673828125
2787;58.69804763793945
2788;58.64760971069336
2789;58.59721755981445
2790;58.5468864440918
2791;58.49662780761719
2792;58.44645309448242
2793;58.39632034301758
2794;58.34626388549805
2795;58.29623794555664
2796;58.24631118774414
2797;58.19642639160156
2798;58.1465950012207
2799;58.09685134887695
2800;58.04713439941406
2801;57.99751281738281
2802;57.947967529296875
2803;57.89845275878906
2804;57.84901428222656
2805;57.79963302612305
2806;57.75030517578125
2807;57.7010498046875
2808;57.6518440246582
2809;57.60270309448242
2810;57.553619384765625
2811;57.50461196899414
2812;57.4556770324707
2813;57.40678787231445
2814;57.35795593261719
2815;57.3091926574707
2816;57.26047897338867
2817;57.211849212646484
2818;57.163272857666016
2819;57.11476516723633
2820;57.06630325317383
2821;57.017913818359375
2822;56.969573974609375
2823;56.92131423950195
2824;56.87308883666992
2825;56.824951171875
2826;56.7768669128418
2827;56.72883224487305
2828;56.680850982666016
2829;56.63295364379883
2830;56.58510971069336
2831;56.53731155395508
2832;56.48960494995117
2833;56.44193649291992
2834;56.39433670043945
2835;56.34678268432617
2836;56.29930114746094
2837;56.25189208984375
2838;56.20452880859375
2839;56.1572265625
2840;56.11000061035156
2841;56.06281661987305
2842;56.015689849853516
2843;55.968658447265625
2844;55.9216423034668
2845;55.87471008300781
2846;55.82783889770508
2847;55.78102493286133
2848;55.7342643737793
2849;55.687564849853516
2850;55.64091873168945
2851;55.5943489074707
2852;55.547821044921875
2853;55.501373291015625
2854;55.4549674987793
2855;55.408626556396484
2856;55.36234664916992
2857;55.31613540649414
2858;55.26997375488281
2859;55.223880767822266
2860;55.17783737182617
2861;55.13186264038086
2862;55.085933685302734
2863;55.04005813598633
2864;54.9942626953125
2865;54.94851303100586
2866;54.90283203125
2867;54.857208251953125
2868;54.811649322509766
2869;54.76613235473633
2870;54.7206916809082
2871;54.675296783447266
2872;54.62997055053711
2873;54.58469772338867
2874;54.53946304321289
2875;54.49430465698242
2876;54.44921875
2877;54.4041862487793
2878;54.35920333862305
2879;54.31428146362305
2880;54.26942825317383
2881;54.22462844848633
2882;54.17987060546875
2883;54.13519287109375
2884;54.0905647277832
2885;54.04598617553711
2886;54.00148010253906
2887;53.957027435302734
2888;53.91261672973633
2889;53.868289947509766
2890;53.82400894165039
2891;53.77978515625
2892;53.73561477661133
2893;53.691524505615234
2894;53.6474723815918
2895;53.603485107421875
2896;53.55955123901367
2897;53.515655517578125
2898;53.471858978271484
2899;53.428104400634766
2900;53.38438415527344
2901;53.34074401855469
2902;53.297149658203125
2903;53.25361633300781
2904;53.210140228271484
2905;53.166717529296875
2906;53.12337875366211
2907;53.080074310302734
2908;53.036834716796875
2909;52.99362564086914
2910;52.95050048828125
2911;52.90742874145508
2912;52.86441421508789
2913;52.82145309448242
2914;52.77853775024414
2915;52.7357063293457
2916;52.692901611328125
2917;52.65018844604492
2918;52.60749435424805
2919;52.564876556396484
2920;52.52231216430664
2921;52.47981643676758
2922;52.43735122680664
2923;52.39495849609375
2924;52.35262680053711
2925;52.31034469604492
2926;52.268123626708984
2927;52.22593688964844
2928;52.1838264465332
2929;52.141780853271484
2930;52.09977722167969
2931;52.057830810546875
2932;52.01594543457031
2933;51.974117279052734
2934;51.93233871459961
2935;51.890621185302734
2936;51.848941802978516
2937;51.80733108520508
2938;51.765777587890625
2939;51.72428894042969
2940;51.68284225463867
2941;51.641448974609375
2942;51.60011291503906
2943;51.558841705322266
2944;51.51761245727539
2945;51.47645568847656
2946;51.43532943725586
2947;51.39427185058594
2948;51.3532829284668
2949;51.31233215332031
2950;51.271453857421875
2951;51.230621337890625
2952;51.1898307800293
2953;51.14910888671875
2954;51.10841751098633
2955;51.067813873291016
2956;51.02726364135742
2957;50.986759185791016
2958;50.94630813598633
2959;50.90589904785156
2960;50.86555099487305
2961;50.82528305053711
2962;50.785030364990234
2963;50.74485778808594
2964;50.704742431640625
2965;50.664669036865234
2966;50.62466049194336
2967;50.584686279296875
2968;50.54478073120117
2969;50.50492858886719
2970;50.46512985229492
2971;50.425384521484375
2972;50.38569259643555
2973;50.3460578918457
2974;50.30648422241211
2975;50.26694869995117
2976;50.22747802734375
2977;50.18804931640625
2978;50.148685455322266
2979;50.10939025878906
2980;50.07011413574219
2981;50.03091049194336
2982;49.99174499511719
2983;49.9526481628418
2984;49.913604736328125
2985;49.874603271484375
2986;49.83565902709961
2987;49.79679870605469
2988;49.75795364379883
2989;49.71918869018555
2990;49.68046188354492
2991;49.641788482666016
2992;49.603179931640625
2993;49.56459426879883
2994;49.52608871459961
2995;49.48762130737305
2996;49.449214935302734
2997;49.41084289550781
2998;49.372554779052734
2999;49.33428955078125
