;loss
0;887.136474609375
1;886.8407592773438
2;886.4404907226562
3;886.0369262695312
4;885.6296997070312
5;885.2366333007812
6;884.8220825195312
7;884.4125366210938
8;883.9900512695312
9;883.5635375976562
10;883.1326293945312
11;882.6973266601562
12;882.2570190429688
13;881.812255859375
14;881.3627319335938
15;880.9050903320312
16;880.4417114257812
17;879.9723510742188
18;879.4970092773438
19;879.0153198242188
20;878.5324096679688
21;878.0379028320312
22;877.5368041992188
23;877.0343627929688
24;876.5250854492188
25;876.002685546875
26;875.4788208007812
27;874.941162109375
28;874.3954467773438
29;873.847900390625
30;873.2919921875
31;872.7208862304688
32;872.1474609375
33;871.55810546875
34;870.9592895507812
35;870.3505249023438
36;869.7316284179688
37;869.102294921875
38;868.462158203125
39;867.8108520507812
40;867.1482543945312
41;866.4738159179688
42;865.7943725585938
43;865.0952758789062
44;864.38330078125
45;863.665283203125
46;862.9336547851562
47;862.1881713867188
48;861.4209594726562
49;860.6461791992188
50;859.8490600585938
51;859.0357055664062
52;858.2060546875
53;857.359375
54;856.5027465820312
55;855.6281127929688
56;854.735107421875
57;853.8228149414062
58;852.8909301757812
59;851.93115234375
60;850.957763671875
61;849.9548950195312
62;848.9290161132812
63;847.8873901367188
64;846.8134765625
65;845.7141723632812
66;844.5968627929688
67;843.4441528320312
68;842.271484375
69;841.06982421875
70;839.829345703125
71;838.5573120117188
72;837.2610473632812
73;835.922119140625
74;834.5475463867188
75;833.1450805664062
76;831.6953125
77;830.2055053710938
78;828.673828125
79;827.1083984375
80;825.498046875
81;823.84130859375
82;822.136474609375
83;820.37109375
84;818.5531616210938
85;816.6808471679688
86;814.7518920898438
87;812.7753295898438
88;810.7384643554688
89;808.6392211914062
90;806.4640502929688
91;804.2334594726562
92;801.9340209960938
93;799.5519409179688
94;797.1095581054688
95;794.5934448242188
96;792.0022583007812
97;789.3211059570312
98;786.5625
99;783.7399291992188
100;780.8396606445312
101;777.8486938476562
102;774.7970581054688
103;771.6731567382812
104;768.4794921875
105;765.2055053710938
106;761.87060546875
107;758.4811401367188
108;755.06005859375
109;751.60009765625
110;748.1110229492188
111;744.6027221679688
112;741.0702514648438
113;737.5551147460938
114;734.0531616210938
115;730.5762329101562
116;727.1355590820312
117;723.727783203125
118;720.3759765625
119;717.1018676757812
120;713.89990234375
121;710.7763671875
122;707.7254028320312
123;704.7742309570312
124;701.9133911132812
125;699.14453125
126;696.4677734375
127;693.8821411132812
128;691.386962890625
129;688.980224609375
130;686.6594848632812
131;684.4140625
132;682.2564697265625
133;680.1759643554688
134;678.1621704101562
135;676.2203369140625
136;674.3453979492188
137;672.53564453125
138;670.792724609375
139;669.1028442382812
140;667.4706420898438
141;665.8899536132812
142;664.362548828125
143;662.88037109375
144;661.4376220703125
145;660.037109375
146;658.6748046875
147;657.3530883789062
148;656.0659790039062
149;654.806396484375
150;653.5761108398438
151;652.3799438476562
152;651.2105102539062
153;650.0626831054688
154;648.9415893554688
155;647.8387451171875
156;646.7568359375
157;645.6958618164062
158;644.6571655273438
159;643.6329956054688
160;642.6286010742188
161;641.636962890625
162;640.6638793945312
163;639.7050170898438
164;638.7568359375
165;637.82177734375
166;636.9020385742188
167;635.9939575195312
168;635.0968627929688
169;634.21044921875
170;633.3345336914062
171;632.46826171875
172;631.611572265625
173;630.7618408203125
174;629.9236450195312
175;629.0940551757812
176;628.2727661132812
177;627.4573364257812
178;626.6493530273438
179;625.8507690429688
180;625.0593872070312
181;624.2728271484375
182;623.4948120117188
183;622.7208862304688
184;621.954833984375
185;621.1946411132812
186;620.4401245117188
187;619.6911010742188
188;618.9474487304688
189;618.2091674804688
190;617.4762573242188
191;616.7466430664062
192;616.0218505859375
193;615.3036499023438
194;614.5901489257812
195;613.8810424804688
196;613.1747436523438
197;612.4742431640625
198;611.77783203125
199;611.0836791992188
200;610.3933715820312
201;609.7083129882812
202;609.025390625
203;608.3477172851562
204;607.6737670898438
205;607.0032958984375
206;606.3348388671875
207;605.6697387695312
208;605.0079956054688
209;604.3510131835938
210;603.6956176757812
211;603.0433959960938
212;602.3941040039062
213;601.7479248046875
214;601.1045532226562
215;600.4653930664062
216;599.8274536132812
217;599.1937255859375
218;598.562744140625
219;597.9342651367188
220;597.3071899414062
221;596.6840209960938
222;596.063232421875
223;595.44482421875
224;594.8275756835938
225;594.2137451171875
226;593.60107421875
227;592.9906616210938
228;592.3837280273438
229;591.779052734375
230;591.1766967773438
231;590.5763549804688
232;589.9769897460938
233;589.379638671875
234;588.7843627929688
235;588.1921997070312
236;587.60205078125
237;587.0138549804688
238;586.4275512695312
239;585.8421020507812
240;585.2595825195312
241;584.677978515625
242;584.0994262695312
243;583.5228271484375
244;582.9471435546875
245;582.3731079101562
246;581.8018798828125
247;581.2323608398438
248;580.6644897460938
249;580.098388671875
250;579.5340576171875
251;578.9712524414062
252;578.4089965820312
253;577.8485107421875
254;577.2905883789062
255;576.7330932617188
256;576.1781616210938
257;575.6246948242188
258;575.0726928710938
259;574.5211791992188
260;573.9719848632812
261;573.42431640625
262;572.8779907226562
263;572.3329467773438
264;571.7893676757812
265;571.2462768554688
266;570.705322265625
267;570.165771484375
268;569.6275024414062
269;569.0896606445312
270;568.5531005859375
271;568.0187377929688
272;567.4854736328125
273;566.9534912109375
274;566.4226684570312
275;565.8922729492188
276;565.3638916015625
277;564.8358764648438
278;564.3091430664062
279;563.7843627929688
280;563.2599487304688
281;562.7374267578125
282;562.2160034179688
283;561.6950073242188
284;561.1758422851562
285;560.656982421875
286;560.1392211914062
287;559.62255859375
288;559.1077270507812
289;558.593994140625
290;558.0813598632812
291;557.5690307617188
292;557.0578002929688
293;556.5484619140625
294;556.0401611328125
295;555.5328979492188
296;555.0266723632812
297;554.5214233398438
298;554.0171508789062
299;553.5138549804688
300;553.011474609375
301;552.5093383789062
302;552.0082397460938
303;551.5081176757812
304;551.0089111328125
305;550.5106811523438
306;550.0139770507812
307;549.5182495117188
308;549.0233764648438
309;548.52880859375
310;548.035888671875
311;547.5438232421875
312;547.0526123046875
313;546.5621948242188
314;546.07275390625
315;545.5840454101562
316;545.09619140625
317;544.6092529296875
318;544.1231079101562
319;543.6371459960938
320;543.1519775390625
321;542.6682739257812
322;542.184814453125
323;541.7026977539062
324;541.2207641601562
325;540.7403564453125
326;540.2600708007812
327;539.7805786132812
328;539.3023681640625
329;538.8250122070312
330;538.348388671875
331;537.8718872070312
332;537.3961791992188
333;536.9217529296875
334;536.4474487304688
335;535.9745483398438
336;535.5016479492188
337;535.0302124023438
338;534.5593872070312
339;534.0892333984375
340;533.6192016601562
341;533.1505126953125
342;532.6824340820312
343;532.2151489257812
344;531.7479248046875
345;531.2813720703125
346;530.8154907226562
347;530.3508911132812
348;529.8863525390625
349;529.4225463867188
350;528.9598999023438
351;528.497314453125
352;528.0359497070312
353;527.57470703125
354;527.1141967773438
355;526.6542358398438
356;526.1950073242188
357;525.7368774414062
358;525.2794189453125
359;524.822509765625
360;524.3663330078125
361;523.9102172851562
362;523.4552612304688
363;523.0009155273438
364;522.5468139648438
365;522.0931396484375
366;521.6401977539062
367;521.1882934570312
368;520.7366333007812
369;520.2859497070312
370;519.8359375
371;519.3860473632812
372;518.9366455078125
373;518.4884033203125
374;518.0402221679688
375;517.5931396484375
376;517.1466674804688
377;516.7002563476562
378;516.2548217773438
379;515.8099975585938
380;515.3657836914062
381;514.9221801757812
382;514.4785766601562
383;514.0355224609375
384;513.593017578125
385;513.151611328125
386;512.7107543945312
387;512.2699584960938
388;511.8297119140625
389;511.3900146484375
390;510.9513244628906
391;510.5126953125
392;510.0751037597656
393;509.6380310058594
394;509.2010498046875
395;508.7645568847656
396;508.3291015625
397;507.8941345214844
398;507.4592590332031
399;507.0254211425781
400;506.591552734375
401;506.15869140625
402;505.726318359375
403;505.2944641113281
404;504.8627624511719
405;504.4319763183594
406;504.0015563964844
407;503.5713195800781
408;503.1421203613281
409;502.7132873535156
410;502.2846374511719
411;501.8567810058594
412;501.4294738769531
413;501.0027770996094
414;500.576416015625
415;500.1506042480469
416;499.7252502441406
417;499.3004455566406
418;498.8760681152344
419;498.4517517089844
420;498.0284118652344
421;497.6051025390625
422;497.1822204589844
423;496.7603759765625
424;496.3384094238281
425;495.9170837402344
426;495.4960632324219
427;495.0756530761719
428;494.656005859375
429;494.2369079589844
430;493.8182067871094
431;493.399658203125
432;492.9814758300781
433;492.5638732910156
434;492.1470642089844
435;491.7302551269531
436;491.3143615722656
437;490.8985595703125
438;490.483154296875
439;490.068603515625
440;489.6541442871094
441;489.2400817871094
442;488.826904296875
443;488.4140930175781
444;488.0018005371094
445;487.5895080566406
446;487.1780700683594
447;486.7666931152344
448;486.3558044433594
449;485.9453125
450;485.5352478027344
451;485.1256103515625
452;484.7164306640625
453;484.3076171875
454;483.8993225097656
455;483.4914245605469
456;483.083984375
457;482.67724609375
458;482.2706604003906
459;481.8644714355469
460;481.458984375
461;481.0540466308594
462;480.6494140625
463;480.244873046875
464;479.8411560058594
465;479.4377746582031
466;479.0345153808594
467;478.6319885253906
468;478.2298889160156
469;477.8282165527344
470;477.4265441894531
471;477.0253601074219
472;476.62451171875
473;476.22412109375
474;475.8241271972656
475;475.4248352050781
476;475.0259704589844
477;474.627197265625
478;474.2291259765625
479;473.8314514160156
480;473.4342041015625
481;473.0369567871094
482;472.6402282714844
483;472.2441101074219
484;471.8480529785156
485;471.4524841308594
486;471.0575256347656
487;470.6630554199219
488;470.2689208984375
489;469.8749084472656
490;469.4815979003906
491;469.0882873535156
492;468.6954345703125
493;468.3029479980469
494;467.9112243652344
495;467.5198059082031
496;467.12841796875
497;466.737548828125
498;466.3472595214844
499;465.9573059082031
