;loss
0;868.9412231445312
1;868.6159057617188
2;868.1784057617188
3;867.7799682617188
4;867.3414916992188
5;866.9024658203125
6;866.4627685546875
7;866.0317993164062
8;865.5908813476562
9;865.1491088867188
10;864.7067260742188
11;864.2640380859375
12;863.8197021484375
13;863.3743286132812
14;862.927734375
15;862.4799194335938
16;862.0272216796875
17;861.5725708007812
18;861.11572265625
19;860.65673828125
20;860.2000732421875
21;859.7362060546875
22;859.26953125
23;858.7998657226562
24;858.3271484375
25;857.8565673828125
26;857.3768920898438
27;856.8989868164062
28;856.4111938476562
29;855.9249267578125
30;855.4340209960938
31;854.9324340820312
32;854.4256591796875
33;853.91943359375
34;853.4017333984375
35;852.8839111328125
36;852.3601684570312
37;851.8240356445312
38;851.287109375
39;850.7432861328125
40;850.1923828125
41;849.6282958984375
42;849.0563354492188
43;848.4765625
44;847.89453125
45;847.2980346679688
46;846.6986694335938
47;846.0845336914062
48;845.4610595703125
49;844.8340454101562
50;844.1912841796875
51;843.5383911132812
52;842.8809814453125
53;842.2127685546875
54;841.5277709960938
55;840.8313598632812
56;840.1290893554688
57;839.4089965820312
58;838.6763305664062
59;837.9368896484375
60;837.17822265625
61;836.4059448242188
62;835.6256103515625
63;834.8248901367188
64;834.0092163085938
65;833.1781616210938
66;832.3372192382812
67;831.4736938476562
68;830.5930786132812
69;829.7009887695312
70;828.7908935546875
71;827.8558959960938
72;826.9013671875
73;825.9268188476562
74;824.9313354492188
75;823.9141845703125
76;822.8811645507812
77;821.8184814453125
78;820.7314453125
79;819.6192626953125
80;818.4806518554688
81;817.3219604492188
82;816.1355590820312
83;814.9197998046875
84;813.6665649414062
85;812.3818359375
86;811.07177734375
87;809.72802734375
88;808.3490600585938
89;806.9337768554688
90;805.4733276367188
91;803.9736328125
92;802.4334106445312
93;800.8510131835938
94;799.2249755859375
95;797.5543823242188
96;795.8378295898438
97;794.0740966796875
98;792.2705078125
99;790.4082641601562
100;788.4949340820312
101;786.5377807617188
102;784.5181274414062
103;782.4529418945312
104;780.3223876953125
105;778.14453125
106;775.8985595703125
107;773.5940551757812
108;771.2403564453125
109;768.8264770507812
110;766.3414916992188
111;763.8063354492188
112;761.1988525390625
113;758.5302124023438
114;755.8001098632812
115;753.02099609375
116;750.1707153320312
117;747.2622680664062
118;744.2967529296875
119;741.2887573242188
120;738.2172241210938
121;735.0966796875
122;731.9308471679688
123;728.7235717773438
124;725.4911499023438
125;722.2142333984375
126;718.9105834960938
127;715.5864868164062
128;712.2492065429688
129;708.9049072265625
130;705.5736694335938
131;702.2382202148438
132;698.9299926757812
133;695.6339111328125
134;692.3804321289062
135;689.1653442382812
136;685.9952392578125
137;682.8654174804688
138;679.7935180664062
139;676.7839965820312
140;673.84130859375
141;670.9794311523438
142;668.1821899414062
143;665.4699096679688
144;662.8343505859375
145;660.2763671875
146;657.7883911132812
147;655.3775634765625
148;653.0502319335938
149;650.7899780273438
150;648.6089477539062
151;646.4976196289062
152;644.4536743164062
153;642.46826171875
154;640.5450439453125
155;638.6817016601562
156;636.8770751953125
157;635.1314086914062
158;633.4364013671875
159;631.7864379882812
160;630.1875610351562
161;628.6327514648438
162;627.1151733398438
163;625.640625
164;624.1997680664062
165;622.7941284179688
166;621.4263916015625
167;620.0904541015625
168;618.7830200195312
169;617.5034790039062
170;616.2511596679688
171;615.0245361328125
172;613.8257446289062
173;612.6498413085938
174;611.4931640625
175;610.3579711914062
176;609.2481079101562
177;608.15478515625
178;607.0799560546875
179;606.0225219726562
180;604.9852294921875
181;603.9613037109375
182;602.9533081054688
183;601.9617919921875
184;600.9851684570312
185;600.0227661132812
186;599.0738525390625
187;598.138671875
188;597.2152099609375
189;596.3033447265625
190;595.4049682617188
191;594.5174560546875
192;593.6395874023438
193;592.7755737304688
194;591.9197387695312
195;591.0731201171875
196;590.2354736328125
197;589.4086303710938
198;588.5877685546875
199;587.7750854492188
200;586.9722290039062
201;586.1752319335938
202;585.3856811523438
203;584.6043090820312
204;583.8270874023438
205;583.0572509765625
206;582.2938842773438
207;581.5344848632812
208;580.7813110351562
209;580.0311279296875
210;579.2852783203125
211;578.5452270507812
212;577.8077392578125
213;577.0756225585938
214;576.346923828125
215;575.6201782226562
216;574.8973388671875
217;574.1773681640625
218;573.46142578125
219;572.74658203125
220;572.0338745117188
221;571.3231811523438
222;570.6144409179688
223;569.9088745117188
224;569.2035522460938
225;568.4998168945312
226;567.7990112304688
227;567.0982055664062
228;566.3998413085938
229;565.7012939453125
230;565.0037231445312
231;564.3070068359375
232;563.6114501953125
233;562.9165649414062
234;562.2225341796875
235;561.5289916992188
236;560.8381958007812
237;560.1466064453125
238;559.45556640625
239;558.7650756835938
240;558.0753784179688
241;557.38623046875
242;556.6989135742188
243;556.0108032226562
244;555.3230590820312
245;554.6370239257812
246;553.9514770507812
247;553.2650146484375
248;552.5792236328125
249;551.8939208984375
250;551.2088623046875
251;550.5255126953125
252;549.84130859375
253;549.1575317382812
254;548.4744262695312
255;547.791748046875
256;547.109619140625
257;546.4281005859375
258;545.7471313476562
259;545.0667724609375
260;544.3871459960938
261;543.7081909179688
262;543.0299682617188
263;542.3527221679688
264;541.6762084960938
265;541.0016479492188
266;540.3267211914062
267;539.6527709960938
268;538.9798583984375
269;538.307861328125
270;537.6368408203125
271;536.9669189453125
272;536.2979736328125
273;535.6303100585938
274;534.9638671875
275;534.2996826171875
276;533.63671875
277;532.9739990234375
278;532.3126831054688
279;531.6527709960938
280;530.9952392578125
281;530.3391723632812
282;529.6846313476562
283;529.0313720703125
284;528.3798217773438
285;527.7299194335938
286;527.0806274414062
287;526.4329833984375
288;525.7869873046875
289;525.1427001953125
290;524.5009155273438
291;523.8599853515625
292;523.2218017578125
293;522.5844116210938
294;521.9488525390625
295;521.3151245117188
296;520.6832885742188
297;520.0533447265625
298;519.42529296875
299;518.7991943359375
300;518.1748657226562
301;517.5534057617188
302;516.9330444335938
303;516.3154296875
304;515.6989135742188
305;515.0852661132812
306;514.4727172851562
307;513.8629760742188
308;513.25439453125
309;512.6478271484375
310;512.0441284179688
311;511.44183349609375
312;510.8414611816406
313;510.2431640625
314;509.6469421386719
315;509.0527648925781
316;508.4605407714844
317;507.8704528808594
318;507.28326416015625
319;506.69915771484375
320;506.1162414550781
321;505.5355529785156
322;504.95721435546875
323;504.38134765625
324;503.80828857421875
325;503.2379455566406
326;502.6697692871094
327;502.10504150390625
328;501.54290771484375
329;500.9820861816406
330;500.42437744140625
331;499.8681640625
332;499.31378173828125
333;498.7621765136719
334;498.212646484375
335;497.6642150878906
336;497.11767578125
337;496.5736999511719
338;496.0314636230469
339;495.49041748046875
340;494.95147705078125
341;494.41455078125
342;493.87933349609375
343;493.34649658203125
344;492.8147277832031
345;492.28460693359375
346;491.7565002441406
347;491.2299499511719
348;490.7051086425781
349;490.1819763183594
350;489.6611328125
351;489.1418762207031
352;488.6241760253906
353;488.1072692871094
354;487.592529296875
355;487.0792541503906
356;486.5670471191406
357;486.0564880371094
358;485.5479431152344
359;485.0402526855469
360;484.53460693359375
361;484.0296325683594
362;483.5267028808594
363;483.0245666503906
364;482.5237731933594
365;482.02435302734375
366;481.52618408203125
367;481.0299377441406
368;480.5348815917969
369;480.0412292480469
370;479.5481262207031
371;479.0569152832031
372;478.56695556640625
373;478.07818603515625
374;477.59027099609375
375;477.1037292480469
376;476.618408203125
377;476.13421630859375
378;475.65130615234375
379;475.16949462890625
380;474.68896484375
381;474.20947265625
382;473.731689453125
383;473.2546081542969
384;472.7792663574219
385;472.3045349121094
386;471.8309020996094
387;471.35888671875
388;470.8880310058594
389;470.41796875
390;469.9490051269531
391;469.4816589355469
392;469.0149230957031
393;468.5491638183594
394;468.08502197265625
395;467.6218566894531
396;467.1598815917969
397;466.6988830566406
398;466.2390441894531
399;465.7801208496094
400;465.32177734375
401;464.8643493652344
402;464.4079284667969
403;463.9524230957031
404;463.4982604980469
405;463.0446472167969
406;462.591796875
407;462.13995361328125
408;461.6891174316406
409;461.2391662597656
410;460.79010009765625
411;460.3423767089844
412;459.8951110839844
413;459.44866943359375
414;459.0036315917969
415;458.55902099609375
416;458.1152648925781
417;457.67279052734375
418;457.23114013671875
419;456.789794921875
420;456.3493347167969
421;455.91009521484375
422;455.4716796875
423;455.03363037109375
424;454.59637451171875
425;454.1603088378906
426;453.7247009277344
427;453.2902526855469
428;452.8561096191406
429;452.4231872558594
430;451.990966796875
431;451.5592956542969
432;451.1282653808594
433;450.6980285644531
434;450.26898193359375
435;449.8406066894531
436;449.41253662109375
437;448.9856262207031
438;448.5594177246094
439;448.1339416503906
440;447.7091369628906
441;447.2846374511719
442;446.86126708984375
443;446.4384765625
444;446.01605224609375
445;445.59429931640625
446;445.173828125
447;444.75396728515625
448;444.33447265625
449;443.91595458984375
450;443.4981384277344
451;443.0810546875
452;442.66412353515625
453;442.248291015625
454;441.83319091796875
455;441.41827392578125
456;441.00439453125
457;440.59075927734375
458;440.1777648925781
459;439.7654113769531
460;439.35369873046875
461;438.94293212890625
462;438.5328063964844
463;438.1232604980469
464;437.71435546875
465;437.3056640625
466;436.89764404296875
467;436.4901428222656
468;436.0832824707031
469;435.6769714355469
470;435.2712707519531
471;434.8661804199219
472;434.461669921875
473;434.0577697753906
474;433.6543884277344
475;433.2516174316406
476;432.8493957519531
477;432.44769287109375
478;432.046630859375
479;431.646240234375
480;431.24639892578125
481;430.8475036621094
482;430.44879150390625
483;430.0506286621094
484;429.653076171875
485;429.256103515625
486;428.8595886230469
487;428.4640197753906
488;428.0685729980469
489;427.6740417480469
490;427.2800598144531
491;426.88623046875
492;426.4933166503906
493;426.1005859375
494;425.7083435058594
495;425.316650390625
496;424.9254455566406
497;424.53509521484375
498;424.1452331542969
499;423.75555419921875
