;loss
0;877.1427612304688
1;876.8782958984375
2;876.5208740234375
3;876.1607055664062
4;875.8197631835938
5;875.4695434570312
6;875.1116943359375
7;874.739501953125
8;874.364013671875
9;873.985107421875
10;873.6025390625
11;873.2163696289062
12;872.8263549804688
13;872.4324340820312
14;872.034423828125
15;871.6322631835938
16;871.22265625
17;870.8080444335938
18;870.3884887695312
19;869.9681396484375
20;869.5381469726562
21;869.1076049804688
22;868.6668090820312
23;868.2255249023438
24;867.7783813476562
25;867.320068359375
26;866.8609619140625
27;866.3955078125
28;865.9234008789062
29;865.4445190429688
30;864.9586181640625
31;864.4653930664062
32;863.9586181640625
33;863.4498291015625
34;862.9329833984375
35;862.4014282226562
36;861.8671875
37;861.3175659179688
38;860.7645874023438
39;860.2015380859375
40;859.6222534179688
41;859.0321655273438
42;858.4370727539062
43;857.8305053710938
44;857.212158203125
45;856.5753784179688
46;855.9320068359375
47;855.2754516601562
48;854.598876953125
49;853.9142456054688
50;853.2084350585938
51;852.4873046875
52;851.7567749023438
53;851.0029907226562
54;850.2388305664062
55;849.456787109375
56;848.65625
57;847.8296508789062
58;846.9829711914062
59;846.1220703125
60;845.232421875
61;844.3270874023438
62;843.3980712890625
63;842.4370727539062
64;841.4574584960938
65;840.4434204101562
66;839.4086303710938
67;838.3365478515625
68;837.2411499023438
69;836.1133422851562
70;834.9437255859375
71;833.7462768554688
72;832.5111694335938
73;831.228515625
74;829.9041137695312
75;828.5447387695312
76;827.1392822265625
77;825.6766967773438
78;824.162841796875
79;822.5951538085938
80;820.9801025390625
81;819.305419921875
82;817.5579833984375
83;815.7437744140625
84;813.859130859375
85;811.911376953125
86;809.8861694335938
87;807.7793579101562
88;805.5869140625
89;803.292236328125
90;800.903076171875
91;798.4285278320312
92;795.8527221679688
93;793.1582641601562
94;790.3568115234375
95;787.4615478515625
96;784.4583740234375
97;781.349365234375
98;778.1390380859375
99;774.8178100585938
100;771.4257202148438
101;767.958984375
102;764.432373046875
103;760.8628540039062
104;757.269775390625
105;753.6732788085938
106;750.0781860351562
107;746.521728515625
108;743.0375366210938
109;739.6114501953125
110;736.2866821289062
111;733.0444946289062
112;729.9077758789062
113;726.8937377929688
114;723.9909057617188
115;721.18896484375
116;718.5093994140625
117;715.9277954101562
118;713.4613037109375
119;711.0972900390625
120;708.8292236328125
121;706.6439819335938
122;704.55419921875
123;702.5459594726562
124;700.6141967773438
125;698.7554931640625
126;696.9660034179688
127;695.2394409179688
128;693.5673828125
129;691.958740234375
130;690.3988037109375
131;688.890625
132;687.4321899414062
133;686.0230102539062
134;684.656494140625
135;683.3234252929688
136;682.0255737304688
137;680.7642211914062
138;679.53271484375
139;678.3308715820312
140;677.1571655273438
141;676.0054931640625
142;674.87744140625
143;673.7709350585938
144;672.685546875
145;671.6250610351562
146;670.5831909179688
147;669.5592041015625
148;668.552490234375
149;667.5601806640625
150;666.5873413085938
151;665.6290893554688
152;664.6826782226562
153;663.7514038085938
154;662.8356323242188
155;661.9324340820312
156;661.0410766601562
157;660.1595458984375
158;659.2890625
159;658.430908203125
160;657.5824584960938
161;656.7431640625
162;655.9098510742188
163;655.0874633789062
164;654.2724609375
165;653.464599609375
166;652.664306640625
167;651.8710327148438
168;651.0820922851562
169;650.3015747070312
170;649.5272827148438
171;648.7569580078125
172;647.9944458007812
173;647.2373657226562
174;646.4833374023438
175;645.7343139648438
176;644.9920043945312
177;644.2525024414062
178;643.5173950195312
179;642.7867431640625
180;642.0620727539062
181;641.3397827148438
182;640.6215209960938
183;639.9088745117188
184;639.2001342773438
185;638.4949340820312
186;637.7935180664062
187;637.095947265625
188;636.4005737304688
189;635.7100830078125
190;635.0230102539062
191;634.3392333984375
192;633.6586303710938
193;632.9794921875
194;632.303466796875
195;631.632080078125
196;630.963623046875
197;630.298095703125
198;629.6354370117188
199;628.9757690429688
200;628.3173828125
201;627.6630859375
202;627.0100708007812
203;626.361083984375
204;625.714599609375
205;625.0708618164062
206;624.4282836914062
207;623.7896728515625
208;623.1535034179688
209;622.5196533203125
210;621.8881225585938
211;621.2591552734375
212;620.6323852539062
213;620.0078735351562
214;619.384521484375
215;618.7647094726562
216;618.1470336914062
217;617.5313110351562
218;616.9165649414062
219;616.3037109375
220;615.694091796875
221;615.085205078125
222;614.478271484375
223;613.8731689453125
224;613.2700805664062
225;612.6688232421875
226;612.0693969726562
227;611.472900390625
228;610.8771362304688
229;610.2830200195312
230;609.6918334960938
231;609.102294921875
232;608.513427734375
233;607.9273681640625
234;607.3417358398438
235;606.7578735351562
236;606.175537109375
237;605.594970703125
238;605.0170288085938
239;604.440673828125
240;603.8648681640625
241;603.2916259765625
242;602.7199096679688
243;602.1495971679688
244;601.5797729492188
245;601.0125122070312
246;600.4466552734375
247;599.8822631835938
248;599.3182983398438
249;598.755615234375
250;598.1953735351562
251;597.635498046875
252;597.078125
253;596.522216796875
254;595.9677124023438
255;595.4146118164062
256;594.8627319335938
257;594.3112182617188
258;593.7611694335938
259;593.2123413085938
260;592.665771484375
261;592.1204223632812
262;591.5763549804688
263;591.033447265625
264;590.4916381835938
265;589.9511108398438
266;589.410888671875
267;588.872802734375
268;588.3358764648438
269;587.7992553710938
270;587.263671875
271;586.729248046875
272;586.1967163085938
273;585.6644897460938
274;585.1333618164062
275;584.6041259765625
276;584.0751342773438
277;583.5480346679688
278;583.02197265625
279;582.4970092773438
280;581.972900390625
281;581.449951171875
282;580.9271850585938
283;580.4053344726562
284;579.884521484375
285;579.365478515625
286;578.847412109375
287;578.3295288085938
288;577.8125610351562
289;577.2974243164062
290;576.7831420898438
291;576.2698364257812
292;575.7573852539062
293;575.2451782226562
294;574.734619140625
295;574.2249755859375
296;573.7162475585938
297;573.2076416015625
298;572.7006225585938
299;572.1937866210938
300;571.6885375976562
301;571.1834716796875
302;570.679931640625
303;570.1766357421875
304;569.674072265625
305;569.173095703125
306;568.6729736328125
307;568.1736450195312
308;567.6751098632812
309;567.1767578125
310;566.6798706054688
311;566.1831665039062
312;565.6878662109375
313;565.1927490234375
314;564.6990356445312
315;564.2061157226562
316;563.71337890625
317;563.221435546875
318;562.730224609375
319;562.2396850585938
320;561.75
321;561.2619018554688
322;560.7745361328125
323;560.2872924804688
324;559.8008422851562
325;559.315185546875
326;558.8301391601562
327;558.3466796875
328;557.86376953125
329;557.381591796875
330;556.9002075195312
331;556.4188842773438
332;555.9389038085938
333;555.4595336914062
334;554.9804077148438
335;554.5018920898438
336;554.0240478515625
337;553.547607421875
338;553.0711059570312
339;552.5953369140625
340;552.120849609375
341;551.6470336914062
342;551.17333984375
343;550.7002563476562
344;550.227783203125
345;549.756591796875
346;549.2860717773438
347;548.816162109375
348;548.3463745117188
349;547.8771362304688
350;547.4086303710938
351;546.9413452148438
352;546.474609375
353;546.0084838867188
354;545.5430908203125
355;545.0782470703125
356;544.613525390625
357;544.1493530273438
358;543.685791015625
359;543.223388671875
360;542.7611083984375
361;542.2993774414062
362;541.8388061523438
363;541.3788452148438
364;540.9193725585938
365;540.4605712890625
366;540.0018920898438
367;539.544189453125
368;539.0866088867188
369;538.629638671875
370;538.173828125
371;537.7179565429688
372;537.2627563476562
373;536.8080444335938
374;536.3539428710938
375;535.9004516601562
376;535.4476318359375
377;534.9951782226562
378;534.5438842773438
379;534.0926513671875
380;533.6424560546875
381;533.1928100585938
382;532.7437133789062
383;532.2946166992188
384;531.8466186523438
385;531.398681640625
386;530.9517211914062
387;530.5053100585938
388;530.0589599609375
389;529.6135864257812
390;529.1687622070312
391;528.7239990234375
392;528.2802124023438
393;527.8365478515625
394;527.3933715820312
395;526.951171875
396;526.5094604492188
397;526.0678100585938
398;525.627197265625
399;525.1866455078125
400;524.7465209960938
401;524.3069458007812
402;523.868408203125
403;523.4298095703125
404;522.9917602539062
405;522.5546875
406;522.1176147460938
407;521.6810913085938
408;521.245361328125
409;520.8102416992188
410;520.3755493164062
411;519.9413452148438
412;519.5072631835938
413;519.0740966796875
414;518.641357421875
415;518.2091674804688
416;517.7769165039062
417;517.3451538085938
418;516.9144287109375
419;516.4840698242188
420;516.05419921875
421;515.6243896484375
422;515.195068359375
423;514.7661743164062
424;514.3382568359375
425;513.9108276367188
426;513.4833984375
427;513.056396484375
428;512.6303100585938
429;512.2042236328125
430;511.77911376953125
431;511.3544006347656
432;510.9301452636719
433;510.5063171386719
434;510.0829162597656
435;509.6600341796875
436;509.2371826171875
437;508.81475830078125
438;508.3928527832031
439;507.9713134765625
440;507.5502624511719
441;507.1296081542969
442;506.7098388671875
443;506.2901306152344
444;505.8711853027344
445;505.4522705078125
446;505.0342102050781
447;504.6162414550781
448;504.1990051269531
449;503.7818603515625
450;503.36553955078125
451;502.9496765136719
452;502.5337829589844
453;502.1187438964844
454;501.7040710449219
455;501.2895202636719
456;500.87567138671875
457;500.4619445800781
458;500.0489501953125
459;499.6360168457031
460;499.2235107421875
461;498.8117980957031
462;498.4004821777344
463;497.9894714355469
464;497.5789794921875
465;497.1688537597656
466;496.7587890625
467;496.3491516113281
468;495.9398498535156
469;495.5313720703125
470;495.12322998046875
471;494.71514892578125
472;494.3078308105469
473;493.90057373046875
474;493.4937438964844
475;493.0872802734375
476;492.68115234375
477;492.2758483886719
478;491.8708801269531
479;491.4662780761719
480;491.0617370605469
481;490.6575927734375
482;490.25390625
483;489.8504943847656
484;489.4475402832031
485;489.0449523925781
486;488.6431579589844
487;488.2416687011719
488;487.84014892578125
489;487.43914794921875
490;487.0384521484375
491;486.63848876953125
492;486.2384948730469
493;485.8389587402344
494;485.4398193359375
495;485.041015625
496;484.6428527832031
497;484.2450866699219
498;483.84747314453125
499;483.4501037597656
500;483.0531921386719
501;482.65692138671875
502;482.2607116699219
503;481.8652038574219
504;481.4697265625
505;481.0745849609375
506;480.6801452636719
507;480.2860412597656
508;479.8919982910156
509;479.4984130859375
510;479.1050720214844
511;478.71240234375
512;478.32012939453125
513;477.9278564453125
514;477.5360107421875
515;477.14453125
516;476.7533874511719
517;476.3625793457031
518;475.9723815917969
519;475.5826110839844
520;475.1928405761719
521;474.8037414550781
522;474.41473388671875
523;474.0260009765625
524;473.63800048828125
525;473.2502746582031
526;472.86260986328125
527;472.4755859375
528;472.0885925292969
529;471.7022705078125
530;471.3160095214844
531;470.9303894042969
532;470.5448303222656
533;470.1595764160156
534;469.7749938964844
535;469.3904113769531
536;469.0064392089844
537;468.62286376953125
538;468.2396240234375
539;467.8564147949219
540;467.4735107421875
541;467.09100341796875
542;466.7087707519531
543;466.3272399902344
544;465.9456787109375
545;465.5645446777344
546;465.18389892578125
547;464.8033447265625
548;464.4234619140625
549;464.0435791015625
550;463.6643371582031
551;463.2853698730469
552;462.9067687988281
553;462.52850341796875
554;462.1502685546875
555;461.77264404296875
556;461.3952941894531
557;461.0182800292969
558;460.6416320800781
559;460.2650146484375
560;459.8887023925781
561;459.51287841796875
562;459.1374816894531
563;458.7624206542969
564;458.38739013671875
565;458.0129699707031
566;457.6389465332031
567;457.26513671875
568;456.89141845703125
569;456.5183410644531
570;456.1455078125
571;455.7730407714844
572;455.40087890625
573;455.0287780761719
574;454.6569519042969
575;454.2857666015625
576;453.9148254394531
577;453.54425048828125
578;453.17401123046875
579;452.8040771484375
580;452.43438720703125
581;452.0648193359375
582;451.69580078125
583;451.3271179199219
584;450.9584655761719
585;450.5904235839844
586;450.22235107421875
587;449.85467529296875
588;449.4875183105469
589;449.12042236328125
590;448.7536315917969
591;448.38720703125
592;448.0210266113281
593;447.6551513671875
594;447.2898254394531
595;446.9248962402344
596;446.56024169921875
597;446.19561767578125
598;445.8313293457031
599;445.46759033203125
600;445.1039733886719
601;444.7406005859375
602;444.3778076171875
603;444.0152587890625
604;443.6531066894531
605;443.29119873046875
606;442.92938232421875
607;442.56787109375
608;442.2065734863281
609;441.8459167480469
610;441.4852600097656
611;441.1249694824219
612;440.7651672363281
613;440.40557861328125
614;440.0461120605469
615;439.6872253417969
616;439.3285827636719
617;438.97021484375
618;438.6119079589844
619;438.2541198730469
620;437.8964538574219
621;437.53924560546875
622;437.1823425292969
623;436.8257751464844
624;436.4693298339844
625;436.1133728027344
626;435.7577209472656
627;435.40216064453125
628;435.046875
629;434.6918640136719
630;434.33721923828125
631;433.9830017089844
632;433.6289367675781
633;433.2753601074219
634;432.9218444824219
635;432.5688171386719
636;432.2160949707031
637;431.8636779785156
638;431.5114440917969
639;431.1596374511719
640;430.8080749511719
641;430.45654296875
642;430.1054992675781
643;429.7546081542969
644;429.4042053222656
645;429.0539245605469
646;428.7041015625
647;428.3545227050781
648;428.0052795410156
649;427.6562805175781
650;427.3076171875
651;426.958984375
652;426.6108093261719
653;426.2630615234375
654;425.9154357910156
655;425.5679626464844
656;425.22088623046875
657;424.8739929199219
658;424.52734375
659;424.18115234375
660;423.8350830078125
661;423.4892578125
662;423.1439208984375
663;422.7988586425781
664;422.45391845703125
665;422.1091613769531
666;421.7647399902344
667;421.4207763671875
668;421.0771179199219
669;420.7334899902344
670;420.3901672363281
671;420.0471496582031
672;419.7045593261719
673;419.3622131347656
674;419.0201110839844
675;418.6783142089844
676;418.3367919921875
677;417.9955139160156
678;417.65447998046875
679;417.3135681152344
680;416.97283935546875
681;416.63262939453125
682;416.29248046875
683;415.9526062011719
684;415.6131591796875
685;415.2738342285156
686;414.9349365234375
687;414.5962219238281
688;414.2576904296875
689;413.9195556640625
690;413.5817565917969
691;413.24395751953125
692;412.9065246582031
693;412.5692443847656
694;412.2322998046875
695;411.89569091796875
696;411.5594482421875
697;411.2234191894531
698;410.88751220703125
699;410.5519714355469
700;410.2165832519531
701;409.88153076171875
702;409.5468444824219
703;409.2123107910156
704;408.8780517578125
705;408.5440368652344
706;408.21014404296875
707;407.8764953613281
708;407.54315185546875
709;407.2100830078125
710;406.8774108886719
711;406.5447998046875
712;406.2125244140625
713;405.88037109375
714;405.5484619140625
715;405.2168884277344
716;404.8856201171875
717;404.5545959472656
718;404.2239074707031
719;403.89337158203125
720;403.5631103515625
721;403.2331237792969
722;402.9033508300781
723;402.5736999511719
724;402.24444580078125
725;401.9154357910156
726;401.5864562988281
727;401.2580261230469
728;400.9295654296875
729;400.60137939453125
730;400.2735290527344
731;399.9460144042969
732;399.6187438964844
733;399.2914733886719
734;398.9644775390625
735;398.6378173828125
736;398.3114929199219
737;397.9853820800781
738;397.6595458984375
739;397.33380126953125
740;397.0084228515625
741;396.6833190917969
742;396.3583068847656
743;396.03369140625
744;395.7092590332031
745;395.3851623535156
746;395.06121826171875
747;394.7375183105469
748;394.4139709472656
749;394.0907897949219
750;393.7677917480469
751;393.4450988769531
752;393.1226501464844
753;392.8002014160156
754;392.47802734375
755;392.15625
756;391.83465576171875
757;391.51318359375
758;391.19207763671875
759;390.8711853027344
760;390.5504150390625
761;390.2301025390625
762;389.90997314453125
763;389.5899658203125
764;389.27020263671875
765;388.9507751464844
766;388.6315612792969
767;388.31268310546875
768;387.99383544921875
769;387.6753234863281
770;387.3571472167969
771;387.0390930175781
772;386.7212219238281
773;386.4035339355469
774;386.0860595703125
775;385.7689208984375
776;385.4518737792969
777;385.1352844238281
778;384.8188171386719
779;384.50262451171875
780;384.1866149902344
781;383.87091064453125
782;383.5553894042969
783;383.2401123046875
784;382.92498779296875
785;382.6102600097656
786;382.29571533203125
787;381.9813232421875
788;381.6672668457031
789;381.3532409667969
790;381.03955078125
791;380.7259826660156
792;380.4128723144531
793;380.09991455078125
794;379.7872009277344
795;379.4747314453125
796;379.1623840332031
797;378.8502197265625
798;378.5384521484375
799;378.2269287109375
800;377.9154357910156
801;377.60418701171875
802;377.2933349609375
803;376.9825439453125
804;376.6720886230469
805;376.3619079589844
806;376.05194091796875
807;375.7421875
808;375.4325866699219
809;375.1231384277344
810;374.8139953613281
811;374.50506591796875
812;374.19647216796875
813;373.88800048828125
814;373.5797119140625
815;373.27166748046875
816;372.9638977050781
817;372.65643310546875
818;372.34912109375
819;372.04205322265625
820;371.7352294921875
821;371.4284362792969
822;371.1219787597656
823;370.8157958984375
824;370.5098876953125
825;370.2039794921875
826;369.8984680175781
827;369.59320068359375
828;369.2881164550781
829;368.9833068847656
830;368.6786804199219
831;368.3741455078125
832;368.0698547363281
833;367.76580810546875
834;367.4620056152344
835;367.15838623046875
836;366.8550720214844
837;366.5518798828125
838;366.2489929199219
839;365.94635009765625
840;365.6437683105469
841;365.341552734375
842;365.0395812988281
843;364.73779296875
844;364.4361267089844
845;364.1347961425781
846;363.8336181640625
847;363.5326843261719
848;363.23193359375
849;362.93145751953125
850;362.6312255859375
851;362.33111572265625
852;362.0312194824219
853;361.7315368652344
854;361.4320068359375
855;361.1326904296875
856;360.8336181640625
857;360.53472900390625
858;360.2361145019531
859;359.93780517578125
860;359.6395568847656
861;359.34173583984375
862;359.0440368652344
863;358.7464294433594
864;358.44921875
865;358.15203857421875
866;357.855224609375
867;357.5585021972656
868;357.26202392578125
869;356.9658508300781
870;356.6698913574219
871;356.3739929199219
872;356.0783386230469
873;355.78302001953125
874;355.48779296875
875;355.1927795410156
876;354.89794921875
877;354.6033935546875
878;354.30902099609375
879;354.0148620605469
880;353.72088623046875
881;353.4272155761719
882;353.1336669921875
883;352.84039306640625
884;352.5472717285156
885;352.2543640136719
886;351.96173095703125
887;351.66925048828125
888;351.3769836425781
889;351.0850830078125
890;350.7931823730469
891;350.5016784667969
892;350.2103271484375
893;349.9191589355469
894;349.6281433105469
895;349.3374938964844
896;349.046875
897;348.7565612792969
898;348.4664611816406
899;348.17657470703125
900;347.88690185546875
901;347.5974426269531
902;347.3080749511719
903;347.0189514160156
904;346.7300109863281
905;346.4413757324219
906;346.1528015136719
907;345.86456298828125
908;345.5766296386719
909;345.2887878417969
910;345.0011291503906
911;344.7137145996094
912;344.42645263671875
913;344.1395263671875
914;343.8527526855469
915;343.56610107421875
916;343.2796630859375
917;342.993408203125
918;342.7073669433594
919;342.42156982421875
920;342.1360168457031
921;341.8505859375
922;341.5654602050781
923;341.2805480957031
924;340.9958190917969
925;340.7112121582031
926;340.4267883300781
927;340.1427001953125
928;339.8587646484375
929;339.5749206542969
930;339.2914733886719
931;339.008056640625
932;338.7249450683594
933;338.4419860839844
934;338.1591796875
935;337.8765563964844
936;337.5942687988281
937;337.3121337890625
938;337.03021240234375
939;336.7485046386719
940;336.467041015625
941;336.1856689453125
942;335.9045104980469
943;335.62353515625
944;335.34283447265625
945;335.06231689453125
946;334.7818603515625
947;334.5018310546875
948;334.2218322753906
949;333.9420471191406
950;333.6624755859375
951;333.3830871582031
952;333.10400390625
953;332.8250427246094
954;332.5462951660156
955;332.26776123046875
956;331.98944091796875
957;331.71124267578125
958;331.4333801269531
959;331.15570068359375
960;330.8781433105469
961;330.6007995605469
962;330.3236389160156
963;330.0466003417969
964;329.76983642578125
965;329.4933166503906
966;329.2170104980469
967;328.9408874511719
968;328.6649475097656
969;328.3891906738281
970;328.1136779785156
971;327.8383483886719
972;327.563232421875
973;327.2881774902344
974;327.0133972167969
975;326.7387390136719
976;326.4643249511719
977;326.1900634765625
978;325.9160461425781
979;325.6422119140625
980;325.36865234375
981;325.0953063964844
982;324.8219909667969
983;324.5489501953125
984;324.2761535644531
985;324.0035705566406
986;323.7311706542969
987;323.4588623046875
988;323.1868591308594
989;322.9150085449219
990;322.643310546875
991;322.3717956542969
992;322.1004333496094
993;321.829345703125
994;321.5584716796875
995;321.2877502441406
996;321.0173034667969
997;320.7469177246094
998;320.476806640625
999;320.20684814453125
1000;319.9371337890625
1001;319.6676330566406
1002;319.3983154296875
1003;319.12908935546875
1004;318.86016845703125
1005;318.5913391113281
1006;318.3228454589844
1007;318.0544738769531
1008;317.7862548828125
1009;317.5182800292969
1010;317.2504577636719
1011;316.9828796386719
1012;316.7154541015625
1013;316.4482421875
1014;316.18115234375
1015;315.9142761230469
1016;315.6476135253906
1017;315.38116455078125
1018;315.1148986816406
1019;314.8487548828125
1020;314.58282470703125
1021;314.3171691894531
1022;314.0516357421875
1023;313.78631591796875
1024;313.5211181640625
1025;313.25616455078125
1026;312.991455078125
1027;312.726806640625
1028;312.4623718261719
1029;312.1982116699219
1030;311.9342041015625
1031;311.67041015625
1032;311.4067077636719
1033;311.14324951171875
1034;310.8799133300781
1035;310.6168212890625
1036;310.3539733886719
1037;310.09124755859375
1038;309.8286437988281
1039;309.5662841796875
1040;309.3041687011719
1041;309.0421447753906
1042;308.7803955078125
1043;308.51873779296875
1044;308.25738525390625
1045;307.9961242675781
1046;307.73504638671875
1047;307.4742431640625
1048;307.2135314941406
1049;306.9530944824219
1050;306.6927795410156
1051;306.43267822265625
1052;306.1727600097656
1053;305.91302490234375
1054;305.65338134765625
1055;305.3940734863281
1056;305.1348876953125
1057;304.8758850097656
1058;304.61700439453125
1059;304.3584289550781
1060;304.0999450683594
1061;303.8417053222656
1062;303.5836181640625
1063;303.32574462890625
1064;303.0679626464844
1065;302.8104248046875
1066;302.5531005859375
1067;302.2959899902344
1068;302.0390319824219
1069;301.7821960449219
1070;301.52557373046875
1071;301.2691345214844
1072;301.0129089355469
1073;300.7568664550781
1074;300.5009460449219
1075;300.2452697753906
1076;299.9897766113281
1077;299.7344970703125
1078;299.47930908203125
1079;299.2242431640625
1080;298.9695129394531
1081;298.7149353027344
1082;298.4605712890625
1083;298.2063293457031
1084;297.9522399902344
1085;297.6983337402344
1086;297.4445495605469
1087;297.1910705566406
1088;296.9377136230469
1089;296.6845397949219
1090;296.4315490722656
1091;296.1787109375
1092;295.9261474609375
1093;295.6736145019531
1094;295.42138671875
1095;295.1693115234375
1096;294.91741943359375
1097;294.6656494140625
1098;294.4141845703125
1099;294.1628112792969
1100;293.9116516113281
1101;293.6606140136719
1102;293.40972900390625
1103;293.1591491699219
1104;292.9087219238281
1105;292.658447265625
1106;292.4083251953125
1107;292.1584167480469
1108;291.9087219238281
1109;291.6591491699219
1110;291.4097595214844
1111;291.1605224609375
1112;290.9114990234375
1113;290.6626892089844
1114;290.4139404296875
1115;290.1654968261719
1116;289.91717529296875
1117;289.6689758300781
1118;289.4210205078125
1119;289.1732177734375
1120;288.9256286621094
1121;288.6782531738281
1122;288.4310302734375
1123;288.1839599609375
1124;287.9371032714844
1125;287.6903991699219
1126;287.4438781738281
1127;287.1974792480469
1128;286.9512634277344
1129;286.70513916015625
1130;286.4593505859375
1131;286.2136535644531
1132;285.9681396484375
1133;285.7228698730469
1134;285.4776611328125
1135;285.2326965332031
1136;284.98785400390625
1137;284.7432861328125
1138;284.49884033203125
1139;284.2545471191406
1140;284.010498046875
1141;283.7665710449219
1142;283.5229187011719
1143;283.2793884277344
1144;283.03594970703125
1145;282.7926940917969
1146;282.5496826171875
1147;282.3067626953125
1148;282.0640563964844
1149;281.8215637207031
1150;281.57928466796875
1151;281.3370361328125
1152;281.0950622558594
1153;280.853271484375
1154;280.61163330078125
1155;280.37017822265625
1156;280.12890625
1157;279.8877258300781
1158;279.64678955078125
1159;279.406005859375
1160;279.1653747558594
1161;278.92486572265625
1162;278.6846618652344
1163;278.444580078125
1164;278.2047119140625
1165;277.9649353027344
1166;277.7253112792969
1167;277.4859619140625
1168;277.2467041015625
1169;277.00762939453125
1170;276.76873779296875
1171;276.52996826171875
1172;276.2913818359375
1173;276.0530090332031
1174;275.81475830078125
1175;275.57666015625
1176;275.3388366699219
1177;275.1011962890625
1178;274.86358642578125
1179;274.6261901855469
1180;274.3890380859375
1181;274.1519775390625
1182;273.9151611328125
1183;273.6784973144531
1184;273.4420471191406
1185;273.20574951171875
1186;272.9695129394531
1187;272.7335510253906
1188;272.4977722167969
1189;272.2620849609375
1190;272.0265808105469
1191;271.791259765625
1192;271.55609130859375
1193;271.3210754394531
1194;271.08624267578125
1195;270.8515319824219
1196;270.6170654296875
1197;270.3827209472656
1198;270.1485900878906
1199;269.91461181640625
1200;269.6807556152344
1201;269.4471435546875
1202;269.21368408203125
1203;268.9804382324219
1204;268.747314453125
1205;268.51434326171875
1206;268.28155517578125
1207;268.0489501953125
1208;267.8164367675781
1209;267.58416748046875
1210;267.3520202636719
1211;267.1200866699219
1212;266.8883056640625
1213;266.6567077636719
1214;266.4252014160156
1215;266.1938781738281
1216;265.96270751953125
1217;265.7317810058594
1218;265.5010070800781
1219;265.2703857421875
1220;265.0399169921875
1221;264.80963134765625
1222;264.5795593261719
1223;264.349609375
1224;264.1198425292969
1225;263.8902282714844
1226;263.6607971191406
1227;263.4314880371094
1228;263.20233154296875
1229;262.9733581542969
1230;262.7445373535156
1231;262.5158996582031
1232;262.28741455078125
1233;262.0591125488281
1234;261.8309326171875
1235;261.6029968261719
1236;261.3752136230469
1237;261.1475830078125
1238;260.9200439453125
1239;260.6927490234375
1240;260.46563720703125
1241;260.2386474609375
1242;260.0118408203125
1243;259.7851257324219
1244;259.5586242675781
1245;259.3323059082031
1246;259.1061706542969
1247;258.8801574707031
1248;258.6543273925781
1249;258.4285888671875
1250;258.2030944824219
1251;257.9776611328125
1252;257.75244140625
1253;257.5273742675781
1254;257.3025207519531
1255;257.07781982421875
1256;256.8532409667969
1257;256.6288757324219
1258;256.4046325683594
1259;256.1805419921875
1260;255.95668029785156
1261;255.73297119140625
1262;255.50938415527344
1263;255.28602600097656
1264;255.06272888183594
1265;254.8396453857422
1266;254.61671447753906
1267;254.39398193359375
1268;254.17137145996094
1269;253.94891357421875
1270;253.7266082763672
1271;253.50445556640625
1272;253.2825164794922
1273;253.06072998046875
1274;252.839111328125
1275;252.6176300048828
1276;252.39630126953125
1277;252.17515563964844
1278;251.95419311523438
1279;251.73338317871094
1280;251.5126953125
1281;251.29222106933594
1282;251.07186889648438
1283;250.85166931152344
1284;250.63165283203125
1285;250.41180419921875
1286;250.19212341308594
1287;249.97259521484375
1288;249.7532196044922
1289;249.53402709960938
1290;249.3148956298828
1291;249.09596252441406
1292;248.87728881835938
1293;248.65863037109375
1294;248.44017028808594
1295;248.22193908691406
1296;248.00379943847656
1297;247.7858428955078
1298;247.56800842285156
1299;247.350341796875
1300;247.13291931152344
1301;246.9155731201172
1302;246.69847106933594
1303;246.4813995361328
1304;246.26458740234375
1305;246.04786682128906
1306;245.83131408691406
1307;245.61497497558594
1308;245.39874267578125
1309;245.18267822265625
1310;244.966796875
1311;244.75106811523438
1312;244.53546142578125
1313;244.32005310058594
1314;244.10479736328125
1315;243.88966369628906
1316;243.67466735839844
1317;243.4599151611328
1318;243.24525451660156
1319;243.03076171875
1320;242.81639099121094
1321;242.60223388671875
1322;242.3882293701172
1323;242.17440795898438
1324;241.960693359375
1325;241.74716186523438
1326;241.53379821777344
1327;241.3206024169922
1328;241.1074676513672
1329;240.89451599121094
1330;240.68174743652344
1331;240.46913146972656
1332;240.25665283203125
1333;240.04434204101562
1334;239.83226013183594
1335;239.62025451660156
1336;239.40838623046875
1337;239.19671630859375
1338;238.9851531982422
1339;238.77383422851562
1340;238.5625457763672
1341;238.3515167236328
1342;238.14056396484375
1343;237.92987060546875
1344;237.71925354003906
1345;237.50880432128906
1346;237.29849243164062
1347;237.08836364746094
1348;236.87840270996094
1349;236.66854858398438
1350;236.45887756347656
1351;236.24937438964844
1352;236.0399932861328
1353;235.8307647705078
1354;235.62173461914062
1355;235.41282653808594
1356;235.20408630371094
1357;234.99549865722656
1358;234.78704833984375
1359;234.57876586914062
1360;234.3706512451172
1361;234.16268920898438
1362;233.9548797607422
1363;233.74722290039062
1364;233.53970336914062
1365;233.33233642578125
1366;233.12513732910156
1367;232.91806030273438
1368;232.7111358642578
1369;232.50437927246094
1370;232.29776000976562
1371;232.09130859375
1372;231.8849639892578
1373;231.67886352539062
1374;231.47288513183594
1375;231.2670440673828
1376;231.06134033203125
1377;230.85580444335938
1378;230.65045166015625
1379;230.44520568847656
1380;230.24009704589844
1381;230.03515625
1382;229.8303680419922
1383;229.62574768066406
1384;229.42129516601562
1385;229.2169952392578
1386;229.01283264160156
1387;228.8087921142578
1388;228.60491943359375
1389;228.40121459960938
1390;228.19764709472656
1391;227.9941864013672
1392;227.79090881347656
1393;227.58779907226562
1394;227.384765625
1395;227.18199157714844
1396;226.97933959960938
1397;226.77676391601562
1398;226.57444763183594
1399;226.37222290039062
1400;226.17015075683594
1401;225.96820068359375
1402;225.76644897460938
1403;225.56483459472656
1404;225.36329650878906
1405;225.16201782226562
1406;224.96087646484375
1407;224.7598114013672
1408;224.55889892578125
1409;224.358154296875
1410;224.15760803222656
1411;223.95712280273438
1412;223.7568359375
1413;223.5566864013672
1414;223.356689453125
1415;223.15687561035156
1416;222.95716857910156
1417;222.7576141357422
1418;222.55819702148438
1419;222.35897827148438
1420;222.15989685058594
1421;221.96095275878906
1422;221.76219177246094
1423;221.5635223388672
1424;221.36505126953125
1425;221.16668701171875
1426;220.96849060058594
1427;220.77041625976562
1428;220.572509765625
1429;220.3747100830078
1430;220.17713928222656
1431;219.97967529296875
1432;219.78231811523438
1433;219.58514404296875
1434;219.38804626464844
1435;219.19117736816406
1436;218.9944305419922
1437;218.79783630371094
1438;218.60140991210938
1439;218.4050750732422
1440;218.2089385986328
1441;218.012939453125
1442;217.81704711914062
1443;217.621337890625
1444;217.42579650878906
1445;217.23037719726562
1446;217.03515625
1447;216.84002685546875
1448;216.64503479003906
1449;216.4502410888672
1450;216.2555694580078
1451;216.0609893798828
1452;215.86659240722656
1453;215.67234802246094
1454;215.47825622558594
1455;215.28428649902344
1456;215.09043884277344
1457;214.8967742919922
1458;214.70321655273438
1459;214.50990295410156
1460;214.316650390625
1461;214.12353515625
1462;213.93060302734375
1463;213.73780822753906
1464;213.54518127441406
1465;213.35264587402344
1466;213.16030883789062
1467;212.96810913085938
1468;212.77603149414062
1469;212.58412170410156
1470;212.392333984375
1471;212.20069885253906
1472;212.00918579101562
1473;211.8178253173828
1474;211.62661743164062
1475;211.43553161621094
1476;211.2445831298828
1477;211.05381774902344
1478;210.86318969726562
1479;210.67274475097656
1480;210.48236083984375
1481;210.29214477539062
1482;210.1020965576172
1483;209.91220092773438
1484;209.7223663330078
1485;209.5327606201172
1486;209.34326171875
1487;209.15391540527344
1488;208.96470642089844
1489;208.77565002441406
1490;208.5867156982422
1491;208.39793395996094
1492;208.20928955078125
1493;208.0207977294922
1494;207.8324737548828
1495;207.64427185058594
1496;207.45620727539062
1497;207.26829528808594
1498;207.08050537109375
1499;206.89283752441406
1500;206.70533752441406
1501;206.51797485351562
1502;206.33074951171875
1503;206.14366149902344
1504;205.95677185058594
1505;205.76995849609375
1506;205.58326721191406
1507;205.3967742919922
1508;205.21038818359375
1509;205.02415466308594
1510;204.83804321289062
1511;204.652099609375
1512;204.46630859375
1513;204.28060913085938
1514;204.09512329101562
1515;203.9097137451172
1516;203.72445678710938
1517;203.53936767578125
1518;203.35440063476562
1519;203.16954040527344
1520;202.98486328125
1521;202.80035400390625
1522;202.61595153808594
1523;202.4316864013672
1524;202.24757385253906
1525;202.06356811523438
1526;201.87974548339844
1527;201.69602966308594
1528;201.512451171875
1529;201.32901000976562
1530;201.14573669433594
1531;200.9626007080078
1532;200.7795867919922
1533;200.5967254638672
1534;200.4140167236328
1535;200.2314453125
1536;200.04896545410156
1537;199.8666534423828
1538;199.6845245361328
1539;199.50244140625
1540;199.320556640625
1541;199.13877868652344
1542;198.95716857910156
1543;198.77572631835938
1544;198.59442138671875
1545;198.41322326660156
1546;198.23216247558594
1547;198.05125427246094
1548;197.87046813964844
1549;197.68983459472656
1550;197.5093231201172
1551;197.32894897460938
1552;197.14869689941406
1553;196.96859741210938
1554;196.78863525390625
1555;196.60882568359375
1556;196.42910766601562
1557;196.24960327148438
1558;196.07020568847656
1559;195.8909149169922
1560;195.71176147460938
1561;195.53277587890625
1562;195.35394287109375
1563;195.17520141601562
1564;194.9966278076172
1565;194.81813049316406
1566;194.6398468017578
1567;194.46168518066406
1568;194.2836456298828
1569;194.10577392578125
1570;193.9280242919922
1571;193.75038146972656
1572;193.57286071777344
1573;193.3955535888672
1574;193.2183074951172
1575;193.04124450683594
1576;192.86431884765625
1577;192.6875
1578;192.51083374023438
1579;192.3342742919922
1580;192.15789794921875
1581;191.9816436767578
1582;191.80548095703125
1583;191.62953186035156
1584;191.4536590576172
1585;191.27796936035156
1586;191.1023406982422
1587;190.92691040039062
1588;190.75157165527344
1589;190.576416015625
1590;190.4013671875
1591;190.22645568847656
1592;190.0517120361328
1593;189.87704467773438
1594;189.70254516601562
1595;189.52818298339844
1596;189.35394287109375
1597;189.17982482910156
1598;189.005859375
1599;188.8319854736328
1600;188.65826416015625
1601;188.48475646972656
1602;188.31129455566406
1603;188.13803100585938
1604;187.96484375
1605;187.79183959960938
1606;187.61891174316406
1607;187.44615173339844
1608;187.27354431152344
1609;187.10105895996094
1610;186.9287109375
1611;186.75645446777344
1612;186.58438110351562
1613;186.41241455078125
1614;186.24058532714844
1615;186.06893920898438
1616;185.89735412597656
1617;185.72596740722656
1618;185.55467224121094
1619;185.38352966308594
1620;185.21249389648438
1621;185.04156494140625
1622;184.87081909179688
1623;184.70021057128906
1624;184.5297088623047
1625;184.3593292236328
1626;184.18910217285156
1627;184.0189971923828
1628;183.84906005859375
1629;183.67919921875
1630;183.509521484375
1631;183.33995056152344
1632;183.17050170898438
1633;183.00120544433594
1634;182.83203125
1635;182.66299438476562
1636;182.49407958984375
1637;182.32530212402344
1638;182.15664672851562
1639;181.98817443847656
1640;181.81976318359375
1641;181.65155029296875
1642;181.4833984375
1643;181.31541442871094
1644;181.14756774902344
1645;180.97982788085938
1646;180.81224060058594
1647;180.64480590820312
1648;180.47747802734375
1649;180.31028747558594
1650;180.14321899414062
1651;179.97630310058594
1652;179.80950927734375
1653;179.642822265625
1654;179.4762725830078
1655;179.3098602294922
1656;179.14361572265625
1657;178.97743225097656
1658;178.81141662597656
1659;178.64552307128906
1660;178.4797821044922
1661;178.3141326904297
1662;178.14865112304688
1663;177.9832763671875
1664;177.81802368164062
1665;177.65292358398438
1666;177.48793029785156
1667;177.3230743408203
1668;177.15835571289062
1669;176.99378967285156
1670;176.82928466796875
1671;176.66497802734375
1672;176.5007781982422
1673;176.33668518066406
1674;176.17274475097656
1675;176.00892639160156
1676;175.84524536132812
1677;175.68167114257812
1678;175.51824951171875
1679;175.35494995117188
1680;175.19178771972656
1681;175.02870178222656
1682;174.86581420898438
1683;174.70301818847656
1684;174.54037475585938
1685;174.37782287597656
1686;174.21542358398438
1687;174.05316162109375
1688;173.89100646972656
1689;173.72898864746094
1690;173.5670928955078
1691;173.40536499023438
1692;173.2436981201172
1693;173.08221435546875
1694;172.9208526611328
1695;172.75958251953125
1696;172.59848022460938
1697;172.43746948242188
1698;172.27659606933594
1699;172.11582946777344
1700;171.9552001953125
1701;171.79473876953125
1702;171.63438415527344
1703;171.47413635253906
1704;171.3140411376953
1705;171.15406799316406
1706;170.99424743652344
1707;170.83453369140625
1708;170.67494201660156
1709;170.51548767089844
1710;170.3561248779297
1711;170.19692993164062
1712;170.037841796875
1713;169.87890625
1714;169.72007751464844
1715;169.5613555908203
1716;169.4027862548828
1717;169.24432373046875
1718;169.08599853515625
1719;168.9278106689453
1720;168.7697296142578
1721;168.6117706298828
1722;168.45396423339844
1723;168.29624938964844
1724;168.13868713378906
1725;167.9812469482422
1726;167.82391357421875
1727;167.66673278808594
1728;167.50965881347656
1729;167.3527069091797
1730;167.19589233398438
1731;167.03919982910156
1732;166.88265991210938
1733;166.72621154785156
1734;166.56993103027344
1735;166.4137420654297
1736;166.25767517089844
1737;166.1017303466797
1738;165.9459228515625
1739;165.79025268554688
1740;165.63465881347656
1741;165.47923278808594
1742;165.32391357421875
1743;165.168701171875
1744;165.01365661621094
1745;164.8587188720703
1746;164.70388793945312
1747;164.54922485351562
1748;164.39463806152344
1749;164.24017333984375
1750;164.0858917236328
1751;163.93170166015625
1752;163.77760314941406
1753;163.62367248535156
1754;163.46983337402344
1755;163.31617736816406
1756;163.16261291503906
1757;163.00917053222656
1758;162.85581970214844
1759;162.70265197753906
1760;162.54953002929688
1761;162.39659118652344
1762;162.24371337890625
1763;162.09104919433594
1764;161.93846130371094
1765;161.78598022460938
1766;161.63365173339844
1767;161.48143005371094
1768;161.329345703125
1769;161.17738342285156
1770;161.02557373046875
1771;160.8738250732422
1772;160.72222900390625
1773;160.5707550048828
1774;160.41943359375
1775;160.26817321777344
1776;160.1170654296875
1777;159.96609497070312
1778;159.81524658203125
1779;159.66448974609375
1780;159.5138702392578
1781;159.36337280273438
1782;159.21298217773438
1783;159.06275939941406
1784;158.91261291503906
1785;158.76263427734375
1786;158.6127166748047
1787;158.4629669189453
1788;158.3133087158203
1789;158.16378784179688
1790;158.01438903808594
1791;157.86509704589844
1792;157.71592712402344
1793;157.56690979003906
1794;157.41796875
1795;157.26919555664062
1796;157.1204833984375
1797;156.9719696044922
1798;156.82350158691406
1799;156.67518615722656
1800;156.5270233154297
1801;156.37896728515625
1802;156.23101806640625
1803;156.08319091796875
1804;155.93544006347656
1805;155.78785705566406
1806;155.64041137695312
1807;155.49305725097656
1808;155.34585571289062
1809;155.19873046875
1810;155.05174255371094
1811;154.9049072265625
1812;154.7581024169922
1813;154.61146545410156
1814;154.46498107910156
1815;154.31863403320312
1816;154.17236328125
1817;154.02622985839844
1818;153.8802032470703
1819;153.7342987060547
1820;153.58848571777344
1821;153.44284057617188
1822;153.29730224609375
1823;153.15187072753906
1824;153.0065460205078
1825;152.861328125
1826;152.71632385253906
1827;152.5713653564453
1828;152.42652893066406
1829;152.28182983398438
1830;152.13723754882812
1831;151.99273681640625
1832;151.84840393066406
1833;151.70411682128906
1834;151.56004333496094
1835;151.41603088378906
1836;151.27215576171875
1837;151.12840270996094
1838;150.98472595214844
1839;150.84120178222656
1840;150.69781494140625
1841;150.55455017089844
1842;150.41136169433594
1843;150.268310546875
1844;150.12535095214844
1845;149.9825897216797
1846;149.83987426757812
1847;149.6973114013672
1848;149.55487060546875
1849;149.41249084472656
1850;149.27024841308594
1851;149.1281280517578
1852;148.98614501953125
1853;148.84429931640625
1854;148.70249938964844
1855;148.56088256835938
1856;148.41932678222656
1857;148.27793884277344
1858;148.13665771484375
1859;147.9954833984375
1860;147.8544464111328
1861;147.7135009765625
1862;147.57269287109375
1863;147.43197631835938
1864;147.29141235351562
1865;147.1509552001953
1866;147.01060485839844
1867;146.870361328125
1868;146.73023986816406
1869;146.59027099609375
1870;146.45037841796875
1871;146.3106231689453
1872;146.17095947265625
1873;146.03143310546875
1874;145.89199829101562
1875;145.75270080566406
1876;145.61351013183594
1877;145.47442626953125
1878;145.3354949951172
1879;145.19662475585938
1880;145.05792236328125
1881;144.9193115234375
1882;144.78082275390625
1883;144.64244079589844
1884;144.5041961669922
1885;144.3660430908203
1886;144.22801208496094
1887;144.0901336669922
1888;143.95230102539062
1889;143.8146514892578
1890;143.6770477294922
1891;143.53961181640625
1892;143.4022979736328
1893;143.26507568359375
1894;143.12794494628906
1895;142.99095153808594
1896;142.85411071777344
1897;142.71731567382812
1898;142.58065795898438
1899;142.44415283203125
1900;142.30772399902344
1901;142.17144775390625
1902;142.03521728515625
1903;141.899169921875
1904;141.76319885253906
1905;141.6273651123047
1906;141.49163818359375
1907;141.35601806640625
1908;141.2205047607422
1909;141.08511352539062
1910;140.94984436035156
1911;140.81466674804688
1912;140.6796112060547
1913;140.54466247558594
1914;140.40988159179688
1915;140.27517700195312
1916;140.1405792236328
1917;140.00611877441406
1918;139.87176513671875
1919;139.73751831054688
1920;139.6033477783203
1921;139.46934509277344
1922;139.33546447753906
1923;139.2016143798828
1924;139.06797790527344
1925;138.9343719482422
1926;138.80091857910156
1927;138.66758728027344
1928;138.53433227539062
1929;138.40122985839844
1930;138.26821899414062
1931;138.13531494140625
1932;138.00254821777344
1933;137.869873046875
1934;137.7373046875
1935;137.60487365722656
1936;137.4725341796875
1937;137.34033203125
1938;137.20823669433594
1939;137.07623291015625
1940;136.94436645507812
1941;136.81260681152344
1942;136.68092346191406
1943;136.5493927001953
1944;136.41798400878906
1945;136.2866668701172
1946;136.15545654296875
1947;136.02432250976562
1948;135.8933563232422
1949;135.7624969482422
1950;135.63172912597656
1951;135.50108337402344
1952;135.37057495117188
1953;135.24014282226562
1954;135.10980224609375
1955;134.97962951660156
1956;134.84954833984375
1957;134.7195281982422
1958;134.58970642089844
1959;134.45989990234375
1960;134.3302764892578
1961;134.2007293701172
1962;134.07131958007812
1963;133.94200134277344
1964;133.8127899169922
1965;133.68370056152344
1966;133.55470275878906
1967;133.42587280273438
1968;133.2970733642578
1969;133.16844177246094
1970;133.03988647460938
1971;132.91148376464844
1972;132.7831573486328
1973;132.65496826171875
1974;132.52685546875
1975;132.3988800048828
1976;132.27098083496094
1977;132.14320373535156
1978;132.01556396484375
1979;131.88800048828125
1980;131.76055908203125
1981;131.63320922851562
1982;131.50601196289062
1983;131.37890625
1984;131.2519073486328
1985;131.125
1986;130.9982452392578
1987;130.87158203125
1988;130.74502563476562
1989;130.61854553222656
1990;130.49220275878906
1991;130.36595153808594
1992;130.23985290527344
1993;130.11378479003906
1994;129.98789978027344
1995;129.8621063232422
1996;129.73643493652344
1997;129.61085510253906
1998;129.4853515625
1999;129.35997009277344
