;loss
0;866.7028198242188
1;866.4284057617188
2;866.0597534179688
3;865.7245483398438
4;865.3786010742188
5;865.0101928710938
6;864.6417236328125
7;864.2808227539062
8;863.9119873046875
9;863.5428466796875
10;863.1732788085938
11;862.8032836914062
12;862.4325561523438
13;862.0610961914062
14;861.6885986328125
15;861.3150024414062
16;860.9403076171875
17;860.5640258789062
18;860.1862182617188
19;859.8067626953125
20;859.4252319335938
21;859.0415649414062
22;858.6557006835938
23;858.2626953125
24;857.8715209960938
25;857.4727783203125
26;857.0755004882812
27;856.6702270507812
28;856.2613525390625
29;855.8489379882812
30;855.4325561523438
31;855.0170288085938
32;854.59228515625
33;854.1680908203125
34;853.7342529296875
35;853.3004760742188
36;852.8617553710938
37;852.4127807617188
38;851.9630126953125
39;851.5027465820312
40;851.0361328125
41;850.5631713867188
42;850.0884399414062
43;849.6068725585938
44;849.1129760742188
45;848.6163940429688
46;848.1119995117188
47;847.5991821289062
48;847.0777587890625
49;846.5473022460938
50;846.0072631835938
51;845.4573364257812
52;844.8920288085938
53;844.3206787109375
54;843.7379150390625
55;843.1381225585938
56;842.5255126953125
57;841.9049682617188
58;841.2705688476562
59;840.6216430664062
60;839.9521484375
61;839.2664794921875
62;838.5638427734375
63;837.8430786132812
64;837.103515625
65;836.3496704101562
66;835.5750732421875
67;834.7786254882812
68;833.9594116210938
69;833.1102294921875
70;832.2413330078125
71;831.345703125
72;830.4155883789062
73;829.4616088867188
74;828.4762573242188
75;827.4577026367188
76;826.404296875
77;825.3139038085938
78;824.1773071289062
79;823.00634765625
80;821.7916870117188
81;820.5233764648438
82;819.2140502929688
83;817.8458862304688
84;816.431640625
85;814.9525756835938
86;813.4135131835938
87;811.8203125
88;810.1614990234375
89;808.4254150390625
90;806.6182250976562
91;804.74755859375
92;802.80224609375
93;800.7700805664062
94;798.6719970703125
95;796.4981689453125
96;794.25048828125
97;791.9204711914062
98;789.52294921875
99;787.0770263671875
100;784.5669555664062
101;782.0263671875
102;779.4541015625
103;776.8506469726562
104;774.2527465820312
105;771.6613159179688
106;769.0897827148438
107;766.5501098632812
108;764.0526123046875
109;761.6077270507812
110;759.2232666015625
111;756.9053344726562
112;754.6478881835938
113;752.4732666015625
114;750.3641967773438
115;748.3369750976562
116;746.3740844726562
117;744.48828125
118;742.6616821289062
119;740.9052734375
120;739.2012939453125
121;737.552734375
122;735.9553833007812
123;734.4108276367188
124;732.9039916992188
125;731.4428100585938
126;730.0180053710938
127;728.6270141601562
128;727.2623901367188
129;725.9268798828125
130;724.6231689453125
131;723.3444213867188
132;722.0848388671875
133;720.8473510742188
134;719.6350708007812
135;718.4381713867188
136;717.2600708007812
137;716.1036987304688
138;714.9603881835938
139;713.8369140625
140;712.7286987304688
141;711.6353149414062
142;710.5523071289062
143;709.486328125
144;708.4332885742188
145;707.392578125
146;706.3604736328125
147;705.3432006835938
148;704.3335571289062
149;703.3375854492188
150;702.3487548828125
151;701.3695678710938
152;700.3994750976562
153;699.4384765625
154;698.4887084960938
155;697.5469970703125
156;696.6129150390625
157;695.6863403320312
158;694.7670288085938
159;693.8544921875
160;692.9481201171875
161;692.0451049804688
162;691.1480102539062
163;690.2561645507812
164;689.369140625
165;688.4892578125
166;687.6112060546875
167;686.7369995117188
168;685.8694458007812
169;685.0031127929688
170;684.1421508789062
171;683.2838745117188
172;682.4281616210938
173;681.5750122070312
174;680.7242431640625
175;679.8751831054688
176;679.0255126953125
177;678.17919921875
178;677.3338623046875
179;676.4869995117188
180;675.6409301757812
181;674.7972412109375
182;673.9515991210938
183;673.1057739257812
184;672.2617797851562
185;671.4154663085938
186;670.5687255859375
187;669.7211303710938
188;668.8727416992188
189;668.0256958007812
190;667.1786499023438
191;666.3289794921875
192;665.4783935546875
193;664.6266479492188
194;663.7739868164062
195;662.9202270507812
196;662.0672607421875
197;661.2135009765625
198;660.3570556640625
199;659.5020141601562
200;658.646484375
201;657.7887573242188
202;656.9305419921875
203;656.0718383789062
204;655.2127685546875
205;654.3553466796875
206;653.4964599609375
207;652.6378173828125
208;651.7798461914062
209;650.92333984375
210;650.0682373046875
211;649.2161865234375
212;648.3636474609375
213;647.5149536132812
214;646.6663208007812
215;645.8192138671875
216;644.9763793945312
217;644.1338500976562
218;643.2935791015625
219;642.4575805664062
220;641.6244506835938
221;640.7951049804688
222;639.9690551757812
223;639.146484375
224;638.3274536132812
225;637.5109252929688
226;636.7001953125
227;635.8920288085938
228;635.0891723632812
229;634.2885131835938
230;633.4917602539062
231;632.6991577148438
232;631.9107666015625
233;631.1279907226562
234;630.3495483398438
235;629.57568359375
236;628.8046875
237;628.0380249023438
238;627.2755737304688
239;626.5177612304688
240;625.7659301757812
241;625.01708984375
242;624.2744140625
243;623.5345458984375
244;622.8002319335938
245;622.0701904296875
246;621.3445434570312
247;620.6234130859375
248;619.9063720703125
249;619.1934814453125
250;618.4832763671875
251;617.7781982421875
252;617.0758666992188
253;616.3773803710938
254;615.6827392578125
255;614.9918823242188
256;614.3059692382812
257;613.6235961914062
258;612.9440307617188
259;612.2681274414062
260;611.5960083007812
261;610.9282836914062
262;610.2630004882812
263;609.6010131835938
264;608.9423828125
265;608.287109375
266;607.6351928710938
267;606.9864501953125
268;606.3411254882812
269;605.6989135742188
270;605.0609741210938
271;604.4248657226562
272;603.7919311523438
273;603.1619262695312
274;602.5361328125
275;601.9124755859375
276;601.2915649414062
277;600.6744384765625
278;600.0590209960938
279;599.4471435546875
280;598.8369140625
281;598.2291259765625
282;597.6239624023438
283;597.0219116210938
284;596.4224853515625
285;595.8253173828125
286;595.23046875
287;594.6370239257812
288;594.0466918945312
289;593.4586181640625
290;592.8726196289062
291;592.2889404296875
292;591.7063598632812
293;591.1258544921875
294;590.5481567382812
295;589.9723510742188
296;589.3978881835938
297;588.8260498046875
298;588.2560424804688
299;587.6880493164062
300;587.1210327148438
301;586.5565185546875
302;585.9937744140625
303;585.4320678710938
304;584.8727416992188
305;584.3150024414062
306;583.7589111328125
307;583.204345703125
308;582.6513671875
309;582.10009765625
310;581.55029296875
311;581.0020751953125
312;580.4554443359375
313;579.9102172851562
314;579.3657836914062
315;578.8228759765625
316;578.2813720703125
317;577.7420043945312
318;577.2031860351562
319;576.6658325195312
320;576.1305541992188
321;575.5958251953125
322;575.0631713867188
323;574.5317993164062
324;574.0010375976562
325;573.4722290039062
326;572.9439697265625
327;572.4176025390625
328;571.8919067382812
329;571.3680419921875
330;570.8447875976562
331;570.3228149414062
332;569.8018798828125
333;569.2822265625
334;568.7643432617188
335;568.2470703125
336;567.7315063476562
337;567.2169799804688
338;566.70361328125
339;566.1912841796875
340;565.6793212890625
341;565.1691284179688
342;564.6592407226562
343;564.1511840820312
344;563.6434326171875
345;563.1372680664062
346;562.6316528320312
347;562.1268920898438
348;561.6236572265625
349;561.1215209960938
350;560.6196899414062
351;560.1188354492188
352;559.6196899414062
353;559.1209106445312
354;558.6229858398438
355;558.1265258789062
356;557.6310424804688
357;557.1359252929688
358;556.6416625976562
359;556.1488647460938
360;555.6569213867188
361;555.1653442382812
362;554.6746215820312
363;554.1851806640625
364;553.6967163085938
365;553.20849609375
366;552.7216796875
367;552.2357177734375
368;551.75048828125
369;551.2662353515625
370;550.78271484375
371;550.3001098632812
372;549.8176879882812
373;549.3359985351562
374;548.8551025390625
375;548.3750610351562
376;547.8958129882812
377;547.4177856445312
378;546.9404907226562
379;546.4635009765625
380;545.9872436523438
381;545.5117797851562
382;545.0375366210938
383;544.5640258789062
384;544.0911865234375
385;543.619140625
386;543.1477661132812
387;542.6770629882812
388;542.2070922851562
389;541.7373046875
390;541.2687377929688
391;540.8009033203125
392;540.333740234375
393;539.8672485351562
394;539.4014282226562
395;538.9357299804688
396;538.4708251953125
397;538.0065307617188
398;537.54345703125
399;537.0805053710938
400;536.6182250976562
401;536.1566162109375
402;535.6956787109375
403;535.2359008789062
404;534.7761840820312
405;534.3171997070312
406;533.8587646484375
407;533.4010620117188
408;532.9443969726562
409;532.4883422851562
410;532.0328979492188
411;531.57763671875
412;531.1229858398438
413;530.6689453125
414;530.2155151367188
415;529.7631225585938
416;529.3113403320312
417;528.8601684570312
418;528.4094848632812
419;527.9590454101562
420;527.5092163085938
421;527.0603637695312
422;526.6121215820312
423;526.1640014648438
424;525.7168579101562
425;525.2699584960938
426;524.8236083984375
427;524.3781127929688
428;523.9332885742188
429;523.4886474609375
430;523.0448608398438
431;522.6012573242188
432;522.15869140625
433;521.7161865234375
434;521.2742919921875
435;520.8329467773438
436;520.3924560546875
437;519.9525756835938
438;519.5132446289062
439;519.0744018554688
440;518.6358032226562
441;518.1980590820312
442;517.7608642578125
443;517.3238525390625
444;516.8877563476562
445;516.4518432617188
446;516.0167846679688
447;515.5818481445312
448;515.1478881835938
449;514.7139892578125
450;514.2810668945312
451;513.8485717773438
452;513.4166259765625
453;512.9852294921875
454;512.5542602539062
455;512.1238403320312
456;511.69390869140625
457;511.26446533203125
458;510.8351745605469
459;510.4067077636719
460;509.978759765625
461;509.5509338378906
462;509.12359619140625
463;508.6970520019531
464;508.2706604003906
465;507.8447265625
466;507.419677734375
467;506.99505615234375
468;506.57086181640625
469;506.14691162109375
470;505.72369384765625
471;505.3009338378906
472;504.8786315917969
473;504.45648193359375
474;504.03515625
475;503.6139221191406
476;503.1934509277344
477;502.7731628417969
478;502.3532409667969
479;501.9341735839844
480;501.51556396484375
481;501.09698486328125
482;500.6789855957031
483;500.2613830566406
484;499.8445129394531
485;499.4277648925781
486;499.0118103027344
487;498.59625244140625
488;498.18121337890625
489;497.7662658691406
490;497.35205078125
491;496.9382629394531
492;496.5249328613281
493;496.11199951171875
494;495.6995544433594
495;495.2875061035156
496;494.8758239746094
497;494.46435546875
498;494.0532531738281
499;493.64288330078125
500;493.232666015625
501;492.82281494140625
502;492.4137268066406
503;492.0047912597656
504;491.59619140625
505;491.1883239746094
506;490.7806091308594
507;490.3732604980469
508;489.9663391113281
509;489.56011962890625
510;489.15435791015625
511;488.7490234375
512;488.343994140625
513;487.9394226074219
514;487.53521728515625
515;487.1315002441406
516;486.7281188964844
517;486.3249206542969
518;485.92230224609375
519;485.5198059082031
520;485.1180114746094
521;484.71673583984375
522;484.3154296875
523;483.9148254394531
524;483.5146789550781
525;483.11480712890625
526;482.7151184082031
527;482.31610107421875
528;481.9170837402344
529;481.51861572265625
530;481.1203918457031
531;480.72265625
532;480.3255310058594
533;479.9284973144531
534;479.53192138671875
535;479.1356506347656
536;478.7397766113281
537;478.34429931640625
538;477.9494934082031
539;477.5550231933594
540;477.16094970703125
541;476.7672424316406
542;476.3739318847656
543;475.9806823730469
544;475.58782958984375
545;475.1953125
546;474.8031921386719
547;474.41168212890625
548;474.0202941894531
549;473.62933349609375
550;473.23870849609375
551;472.8486328125
552;472.4587707519531
553;472.06939697265625
554;471.6802062988281
555;471.29144287109375
556;470.9031677246094
557;470.5151062011719
558;470.12762451171875
559;469.7404479980469
560;469.3537292480469
561;468.967041015625
562;468.58099365234375
563;468.19500732421875
564;467.80963134765625
565;467.4246520996094
566;467.03997802734375
567;466.65570068359375
568;466.2717590332031
569;465.88812255859375
570;465.5046081542969
571;465.1214904785156
572;464.7389221191406
573;464.3567199707031
574;463.974609375
575;463.5928039550781
576;463.211669921875
577;462.8308410644531
578;462.4503479003906
579;462.0699768066406
580;461.6901550292969
581;461.3106994628906
582;460.9313049316406
583;460.5522766113281
584;460.1738586425781
585;459.79547119140625
586;459.4176940917969
587;459.0400085449219
588;458.66265869140625
589;458.28564453125
590;457.908935546875
591;457.53265380859375
592;457.1568908691406
593;456.7812194824219
594;456.40582275390625
595;456.03106689453125
596;455.6564636230469
597;455.2820129394531
598;454.90826416015625
599;454.5345153808594
600;454.1614074707031
601;453.7883605957031
602;453.4158630371094
603;453.0437316894531
604;452.671875
605;452.3000793457031
606;451.9289245605469
607;451.55804443359375
608;451.1872253417969
609;450.8170471191406
610;450.4468688964844
611;450.0772399902344
612;449.7080078125
613;449.3388366699219
614;448.9700012207031
615;448.6016540527344
616;448.233642578125
617;447.8659362792969
618;447.4983215332031
619;447.13128662109375
620;446.76458740234375
621;446.3981018066406
622;446.0317687988281
623;445.6657409667969
624;445.300048828125
625;444.93463134765625
626;444.5695495605469
627;444.2048034667969
628;443.8405456542969
629;443.4764099121094
630;443.11279296875
631;442.749267578125
632;442.3860778808594
633;442.0234069824219
634;441.6610412597656
635;441.29876708984375
636;440.93701171875
637;440.5753479003906
638;440.2140197753906
639;439.8531188964844
640;439.49261474609375
641;439.1323547363281
642;438.7724304199219
643;438.41259765625
644;438.05322265625
645;437.69403076171875
646;437.3352966308594
647;436.9768371582031
648;436.6184997558594
649;436.2604675292969
650;435.9027404785156
651;435.54547119140625
652;435.18853759765625
653;434.8316955566406
654;434.4751281738281
655;434.1188659667969
656;433.76312255859375
657;433.40740966796875
658;433.0520324707031
659;432.69720458984375
660;432.34234619140625
661;431.98785400390625
662;431.63385009765625
663;431.2799377441406
664;430.92633056640625
665;430.572998046875
666;430.2201232910156
667;429.8674011230469
668;429.5151062011719
669;429.1631164550781
670;428.8112487792969
671;428.4598083496094
672;428.1084899902344
673;427.7575988769531
674;427.4070739746094
675;427.0568542480469
676;426.70660400390625
677;426.35693359375
678;426.007568359375
679;425.658203125
680;425.3093566894531
681;424.9605407714844
682;424.6123046875
683;424.2641296386719
684;423.9161682128906
685;423.5685729980469
686;423.22125244140625
687;422.8741760253906
688;422.52740478515625
689;422.1809387207031
690;421.8348693847656
691;421.48907470703125
692;421.1435546875
693;420.79840087890625
694;420.45343017578125
695;420.1087341308594
696;419.7643737792969
697;419.4202575683594
698;419.076416015625
699;418.7326965332031
700;418.3892517089844
701;418.04608154296875
702;417.70318603515625
703;417.3605651855469
704;417.0182189941406
705;416.6763000488281
706;416.3346252441406
707;415.99322509765625
708;415.6521301269531
709;415.3111267089844
710;414.97039794921875
711;414.62994384765625
712;414.2897644042969
713;413.9498596191406
714;413.6103820800781
715;413.27117919921875
716;412.93206787109375
717;412.59320068359375
718;412.25482177734375
719;411.91668701171875
720;411.57861328125
721;411.2409973144531
722;410.9035339355469
723;410.5662536621094
724;410.22930908203125
725;409.892578125
726;409.5561218261719
727;409.2200012207031
728;408.8840637207031
729;408.5484313964844
730;408.2131652832031
731;407.8780822753906
732;407.54339599609375
733;407.2087707519531
734;406.87445068359375
735;406.54034423828125
736;406.20672607421875
737;405.8731994628906
738;405.53985595703125
739;405.2070007324219
740;404.8742370605469
741;404.5417175292969
742;404.2096252441406
743;403.8778381347656
744;403.5461120605469
745;403.2147521972656
746;402.883544921875
747;402.5525817871094
748;402.2220764160156
749;401.8917541503906
750;401.5617370605469
751;401.23193359375
752;400.90228271484375
753;400.5730285644531
754;400.2439880371094
755;399.91510009765625
756;399.5864562988281
757;399.2582092285156
758;398.93011474609375
759;398.6021423339844
760;398.27459716796875
761;397.94732666015625
762;397.6202087402344
763;397.2934875488281
764;396.9668273925781
765;396.6404724121094
766;396.3144226074219
767;395.9885559082031
768;395.66290283203125
769;395.3376770019531
770;395.0126037597656
771;394.6877136230469
772;394.36322021484375
773;394.0388488769531
774;393.71490478515625
775;393.3910827636719
776;393.06744384765625
777;392.7440490722656
778;392.4210510253906
779;392.0981750488281
780;391.77557373046875
781;391.45318603515625
782;391.1312561035156
783;390.809326171875
784;390.48773193359375
785;390.1662902832031
786;389.84527587890625
787;389.5245056152344
788;389.2040100097656
789;388.8837585449219
790;388.5635681152344
791;388.2438049316406
792;387.92425537109375
793;387.60491943359375
794;387.2858581542969
795;386.9669494628906
796;386.6482238769531
797;386.32989501953125
798;386.01177978515625
799;385.69384765625
800;385.37603759765625
801;385.05859375
802;384.7413635253906
803;384.4244689941406
804;384.107666015625
805;383.7912902832031
806;383.47509765625
807;383.1590881347656
808;382.84332275390625
809;382.5278015136719
810;382.21258544921875
811;381.8974609375
812;381.5826110839844
813;381.26812744140625
814;380.9538879394531
815;380.6398620605469
816;380.3259582519531
817;380.0122375488281
818;379.6988830566406
819;379.3856506347656
820;379.07281494140625
821;378.7601013183594
822;378.4476013183594
823;378.135498046875
824;377.8236389160156
825;377.5118713378906
826;377.200439453125
827;376.88922119140625
828;376.5782775878906
829;376.267578125
830;375.95709228515625
831;375.6466979980469
832;375.3366394042969
833;375.02691650390625
834;374.7172546386719
835;374.40789794921875
836;374.0988464355469
837;373.7898254394531
838;373.4811096191406
839;373.1725769042969
840;372.86444091796875
841;372.5564880371094
842;372.2488098144531
843;371.9411926269531
844;371.63385009765625
845;371.32684326171875
846;371.02008056640625
847;370.7135314941406
848;370.4070739746094
849;370.10101318359375
850;369.79498291015625
851;369.4892578125
852;369.1837463378906
853;368.87860107421875
854;368.5735778808594
855;368.2688903808594
856;367.9642639160156
857;367.65997314453125
858;367.3558044433594
859;367.0519714355469
860;366.7483825683594
861;366.44500732421875
862;366.1418762207031
863;365.8389587402344
864;365.5362854003906
865;365.2337341308594
866;364.93145751953125
867;364.62945556640625
868;364.32763671875
869;364.026123046875
870;363.7247619628906
871;363.4236145019531
872;363.12274169921875
873;362.8221130371094
874;362.5216369628906
875;362.221435546875
876;361.92132568359375
877;361.6215515136719
878;361.3219909667969
879;361.0226745605469
880;360.72344970703125
881;360.4244079589844
882;360.1257019042969
883;359.8272399902344
884;359.5290222167969
885;359.23101806640625
886;358.9331970214844
887;358.63555908203125
888;358.3382263183594
889;358.04107666015625
890;357.7441101074219
891;357.4474182128906
892;357.15093994140625
893;356.85467529296875
894;356.5585632324219
895;356.26275634765625
896;355.9670715332031
897;355.671630859375
898;355.37646484375
899;355.0815124511719
900;354.7867126464844
901;354.49212646484375
902;354.19781494140625
903;353.9037780761719
904;353.60980224609375
905;353.316162109375
906;353.02276611328125
907;352.72955322265625
908;352.43658447265625
909;352.1438293457031
910;351.8512878417969
911;351.5588684082031
912;351.2666320800781
913;350.9747619628906
914;350.6829528808594
915;350.3914489746094
916;350.1002502441406
917;349.80908203125
918;349.5181579589844
919;349.2274475097656
920;348.9370422363281
921;348.6467590332031
922;348.3567810058594
923;348.0669860839844
924;347.77740478515625
925;347.4880676269531
926;347.1988830566406
927;346.9098815917969
928;346.62109375
929;346.3325500488281
930;346.0442810058594
931;345.7561340332031
932;345.46826171875
933;345.1805114746094
934;344.8930969238281
935;344.60589599609375
936;344.3188781738281
937;344.0321350097656
938;343.745361328125
939;343.4590148925781
940;343.1728210449219
941;342.8868103027344
942;342.60107421875
943;342.3154602050781
944;342.030029296875
945;341.74481201171875
946;341.4599304199219
947;341.1751403808594
948;340.89056396484375
949;340.6062927246094
950;340.32208251953125
951;340.0382385253906
952;339.75457763671875
953;339.47113037109375
954;339.1877746582031
955;338.9046325683594
956;338.621826171875
957;338.3392028808594
958;338.05670166015625
959;337.7744140625
960;337.492431640625
961;337.2106018066406
962;336.9289245605469
963;336.6474609375
964;336.36627197265625
965;336.0852966308594
966;335.804443359375
967;335.52392578125
968;335.2434387207031
969;334.96331787109375
970;334.68328857421875
971;334.4035339355469
972;334.1239929199219
973;333.84466552734375
974;333.56549072265625
975;333.28662109375
976;333.00787353515625
977;332.7293395996094
978;332.4510192871094
979;332.1728515625
980;331.89495849609375
981;331.61724853515625
982;331.3396911621094
983;331.06231689453125
984;330.78521728515625
985;330.50836181640625
986;330.2316589355469
987;329.95513916015625
988;329.6787414550781
989;329.4026184082031
990;329.126708984375
991;328.8510437011719
992;328.5755310058594
993;328.30029296875
994;328.0251770019531
995;327.7502136230469
996;327.4754333496094
997;327.2008972167969
998;326.9265441894531
999;326.6523742675781
1000;326.37847900390625
1001;326.10479736328125
1002;325.8313293457031
1003;325.5579528808594
1004;325.2847595214844
1005;325.0118713378906
1006;324.7391052246094
1007;324.46661376953125
1008;324.1943359375
1009;323.9221496582031
1010;323.65020751953125
1011;323.3784484863281
1012;323.1068420410156
1013;322.8354187011719
1014;322.5643615722656
1015;322.29339599609375
1016;322.0226135253906
1017;321.7520446777344
1018;321.4817199707031
1019;321.2115783691406
1020;320.9414978027344
1021;320.6717224121094
1022;320.4021911621094
1023;320.1328125
1024;319.86358642578125
1025;319.59454345703125
1026;319.3258361816406
1027;319.0572814941406
1028;318.7888488769531
1029;318.5206604003906
1030;318.2527160644531
1031;317.98486328125
1032;317.71722412109375
1033;317.44976806640625
1034;317.1826171875
1035;316.91552734375
1036;316.6487731933594
1037;316.3821716308594
1038;316.11572265625
1039;315.8495178222656
1040;315.58349609375
1041;315.3176574707031
1042;315.052001953125
1043;314.7865905761719
1044;314.5213317871094
1045;314.25628662109375
1046;313.9913635253906
1047;313.7266540527344
1048;313.4621887207031
1049;313.19793701171875
1050;312.9338073730469
1051;312.669921875
1052;312.40618896484375
1053;312.14263916015625
1054;311.8792419433594
1055;311.6160583496094
1056;311.35302734375
1057;311.09027099609375
1058;310.82763671875
1059;310.5651550292969
1060;310.302978515625
1061;310.04095458984375
1062;309.77911376953125
1063;309.51751708984375
1064;309.2560729980469
1065;308.9947814941406
1066;308.7336120605469
1067;308.4728088378906
1068;308.2121276855469
1069;307.95166015625
1070;307.69134521484375
1071;307.4311828613281
1072;307.17120361328125
1073;306.9115295410156
1074;306.6520080566406
1075;306.39263916015625
1076;306.1333923339844
1077;305.87445068359375
1078;305.6155700683594
1079;305.35699462890625
1080;305.0986022949219
1081;304.84039306640625
1082;304.5823059082031
1083;304.3244934082031
1084;304.0667419433594
1085;303.8092956542969
1086;303.5519714355469
1087;303.294921875
1088;303.03802490234375
1089;302.7812805175781
1090;302.5246887207031
1091;302.2683410644531
1092;302.01220703125
1093;301.7561340332031
1094;301.5003967285156
1095;301.24468994140625
1096;300.9892883300781
1097;300.7340393066406
1098;300.47894287109375
1099;300.2240905761719
1100;299.9693298339844
1101;299.7148742675781
1102;299.46051025390625
1103;299.20635986328125
1104;298.9524230957031
1105;298.69866943359375
1106;298.4450378417969
1107;298.19171142578125
1108;297.9384765625
1109;297.6854553222656
1110;297.4326171875
1111;297.17999267578125
1112;296.927490234375
1113;296.6752014160156
1114;296.423095703125
1115;296.171142578125
1116;295.91943359375
1117;295.6678161621094
1118;295.4163513183594
1119;295.1651306152344
1120;294.9141540527344
1121;294.6632995605469
1122;294.41265869140625
1123;294.1622619628906
1124;293.9119567871094
1125;293.6618347167969
1126;293.411865234375
1127;293.162109375
1128;292.91259765625
1129;292.6632385253906
1130;292.4140625
1131;292.1650085449219
1132;291.91619873046875
1133;291.66754150390625
1134;291.4190979003906
1135;291.17071533203125
1136;290.92266845703125
1137;290.6746520996094
1138;290.42694091796875
1139;290.17938232421875
1140;289.93194580078125
1141;289.68475341796875
1142;289.4377136230469
1143;289.1908874511719
1144;288.9442443847656
1145;288.69769287109375
1146;288.45135498046875
1147;288.2052001953125
1148;287.95928955078125
1149;287.71356201171875
1150;287.4678649902344
1151;287.2225036621094
1152;286.9772644042969
1153;286.7322082519531
1154;286.48736572265625
1155;286.24267578125
1156;285.9981384277344
1157;285.7538146972656
1158;285.50970458984375
1159;285.26568603515625
1160;285.0218200683594
1161;284.77813720703125
1162;284.5346984863281
1163;284.29144287109375
1164;284.0483093261719
1165;283.80535888671875
1166;283.5625915527344
1167;283.32000732421875
1168;283.0775451660156
1169;282.8353576660156
1170;282.59332275390625
1171;282.35150146484375
1172;282.10980224609375
1173;281.8683166503906
1174;281.6269226074219
1175;281.3857727050781
1176;281.1448059082031
1177;280.9039611816406
1178;280.66326904296875
1179;280.4228515625
1180;280.1825866699219
1181;279.9424743652344
1182;279.7025451660156
1183;279.4627380371094
1184;279.2231750488281
1185;278.9837951660156
1186;278.74456787109375
1187;278.5055236816406
1188;278.2666015625
1189;278.02789306640625
1190;277.78936767578125
1191;277.551025390625
1192;277.31280517578125
1193;277.07476806640625
1194;276.83685302734375
1195;276.5991516113281
1196;276.3616027832031
1197;276.124267578125
1198;275.8871154785156
1199;275.650146484375
1200;275.4133605957031
1201;275.1767272949219
1202;274.94024658203125
1203;274.70391845703125
1204;274.46783447265625
1205;274.2318420410156
1206;273.99609375
1207;273.7605285644531
1208;273.52508544921875
1209;273.2898254394531
1210;273.0546875
1211;272.8197937011719
1212;272.58502197265625
1213;272.3504333496094
1214;272.1159973144531
1215;271.88177490234375
1216;271.6476745605469
1217;271.413818359375
1218;271.1800842285156
1219;270.9465637207031
1220;270.71319580078125
1221;270.4800109863281
1222;270.24700927734375
1223;270.01416015625
1224;269.7814636230469
1225;269.5489501953125
1226;269.31658935546875
1227;269.08441162109375
1228;268.8523864746094
1229;268.6205139160156
1230;268.3887634277344
1231;268.15728759765625
1232;267.92596435546875
1233;267.69476318359375
1234;267.4637145996094
1235;267.2328796386719
1236;267.0022277832031
1237;266.771728515625
1238;266.54144287109375
1239;266.3113098144531
1240;266.0813293457031
1241;265.8515319824219
1242;265.6218566894531
1243;265.39239501953125
1244;265.1631164550781
1245;264.9339904785156
1246;264.7050476074219
1247;264.47625732421875
1248;264.24761962890625
1249;264.0191650390625
1250;263.7908020019531
1251;263.5626525878906
1252;263.334716796875
1253;263.10687255859375
1254;262.8792419433594
1255;262.6517639160156
1256;262.4244384765625
1257;262.19732666015625
1258;261.9703674316406
1259;261.7435607910156
1260;261.51690673828125
1261;261.29046630859375
1262;261.0641784667969
1263;260.83807373046875
1264;260.612060546875
1265;260.38629150390625
1266;260.1606750488281
1267;259.9352111816406
1268;259.7099304199219
1269;259.4847717285156
1270;259.259765625
1271;259.03497314453125
1272;258.8103332519531
1273;258.5857849121094
1274;258.36151123046875
1275;258.1372985839844
1276;257.9132995605469
1277;257.689453125
1278;257.4657897949219
1279;257.2423095703125
1280;257.01898193359375
1281;256.7958068847656
1282;256.57281494140625
1283;256.3499450683594
1284;256.1273498535156
1285;255.90478515625
1286;255.68238830566406
1287;255.4602508544922
1288;255.23825073242188
1289;255.01638793945312
1290;254.79470825195312
1291;254.57322692871094
1292;254.35183715820312
1293;254.13059997558594
1294;253.90957641601562
1295;253.688720703125
1296;253.46798706054688
1297;253.24745178222656
1298;253.0270233154297
1299;252.80679321289062
1300;252.5867462158203
1301;252.36685180664062
1302;252.1470947265625
1303;251.9275665283203
1304;251.70811462402344
1305;251.4888458251953
1306;251.2696990966797
1307;251.05078125
1308;250.83200073242188
1309;250.61338806152344
1310;250.3949432373047
1311;250.1766815185547
1312;249.9585723876953
1313;249.7406005859375
1314;249.5228271484375
1315;249.30520629882812
1316;249.0877227783203
1317;248.8704071044922
1318;248.65328979492188
1319;248.43629455566406
1320;248.219482421875
1321;248.00282287597656
1322;247.7863311767578
1323;247.56993103027344
1324;247.35372924804688
1325;247.13766479492188
1326;246.9217987060547
1327;246.7061309814453
1328;246.4905548095703
1329;246.27516174316406
1330;246.05995178222656
1331;245.84483337402344
1332;245.62991333007812
1333;245.4151153564453
1334;245.20054626464844
1335;244.986083984375
1336;244.7718048095703
1337;244.5576934814453
1338;244.34376525878906
1339;244.1299591064453
1340;243.91627502441406
1341;243.70274353027344
1342;243.4894256591797
1343;243.27626037597656
1344;243.063232421875
1345;242.85037231445312
1346;242.6376190185547
1347;242.42507934570312
1348;242.2127227783203
1349;242.00045776367188
1350;241.7884063720703
1351;241.5764923095703
1352;241.3647003173828
1353;241.15310668945312
1354;240.94168090820312
1355;240.73036193847656
1356;240.51925659179688
1357;240.3083038330078
1358;240.09744262695312
1359;239.88681030273438
1360;239.67628479003906
1361;239.46592712402344
1362;239.25572204589844
1363;239.04568481445312
1364;238.83580017089844
1365;238.6260528564453
1366;238.41650390625
1367;238.20712280273438
1368;237.99783325195312
1369;237.78871154785156
1370;237.5797882080078
1371;237.37095642089844
1372;237.16232299804688
1373;236.953857421875
1374;236.7455291748047
1375;236.5374298095703
1376;236.3294219970703
1377;236.1215362548828
1378;235.9138641357422
1379;235.70632934570312
1380;235.49891662597656
1381;235.2917022705078
1382;235.0846710205078
1383;234.8777313232422
1384;234.6709747314453
1385;234.46435546875
1386;234.25791931152344
1387;234.05162048339844
1388;233.84544372558594
1389;233.63943481445312
1390;233.43356323242188
1391;233.22789001464844
1392;233.02235412597656
1393;232.81698608398438
1394;232.6117401123047
1395;232.40670776367188
1396;232.20176696777344
1397;231.9970245361328
1398;231.7923583984375
1399;231.58792114257812
1400;231.3836212158203
1401;231.17941284179688
1402;230.97537231445312
1403;230.77149963378906
1404;230.5678253173828
1405;230.3642578125
1406;230.16087341308594
1407;229.9575958251953
1408;229.75453186035156
1409;229.5515594482422
1410;229.3488006591797
1411;229.14613342285156
1412;228.9436798095703
1413;228.74134826660156
1414;228.53915405273438
1415;228.3370819091797
1416;228.1352081298828
1417;227.93348693847656
1418;227.73193359375
1419;227.53053283691406
1420;227.32923889160156
1421;227.1280975341797
1422;226.92713928222656
1423;226.72628784179688
1424;226.52560424804688
1425;226.32508850097656
1426;226.124755859375
1427;225.92453002929688
1428;225.7244110107422
1429;225.5245361328125
1430;225.32470703125
1431;225.1251220703125
1432;224.92567443847656
1433;224.726318359375
1434;224.5271759033203
1435;224.328125
1436;224.12925720214844
1437;223.93052673339844
1438;223.73193359375
1439;223.53353881835938
1440;223.3352813720703
1441;223.1371307373047
1442;222.939208984375
1443;222.74143981933594
1444;222.5437469482422
1445;222.34622192382812
1446;222.1488800048828
1447;221.95166015625
1448;221.75453186035156
1449;221.5576629638672
1450;221.3608856201172
1451;221.1642608642578
1452;220.96775817871094
1453;220.7714385986328
1454;220.57522583007812
1455;220.37918090820312
1456;220.18331909179688
1457;219.98757934570312
1458;219.7919921875
1459;219.5965576171875
1460;219.4012451171875
1461;219.2061004638672
1462;219.01113891601562
1463;218.81626892089844
1464;218.62155151367188
1465;218.427001953125
1466;218.2325897216797
1467;218.03831481933594
1468;217.84423828125
1469;217.6502685546875
1470;217.45643615722656
1471;217.26280212402344
1472;217.06922912597656
1473;216.8759002685547
1474;216.6826629638672
1475;216.48960876464844
1476;216.296630859375
1477;216.10389709472656
1478;215.91122436523438
1479;215.71871948242188
1480;215.5263671875
1481;215.3341522216797
1482;215.1421356201172
1483;214.95021057128906
1484;214.75843811035156
1485;214.5668487548828
1486;214.37535095214844
1487;214.1840057373047
1488;213.99282836914062
1489;213.8017578125
1490;213.6109161376953
1491;213.42013549804688
1492;213.2294921875
1493;213.0390167236328
1494;212.84872436523438
1495;212.65853881835938
1496;212.46852111816406
1497;212.27865600585938
1498;212.0889129638672
1499;211.8992919921875
1500;211.70985412597656
1501;211.5205841064453
1502;211.33140563964844
1503;211.14236450195312
1504;210.95352172851562
1505;210.76478576660156
1506;210.5762481689453
1507;210.38780212402344
1508;210.1995391845703
1509;210.01136779785156
1510;209.82334899902344
1511;209.635498046875
1512;209.44778442382812
1513;209.2602081298828
1514;209.07276916503906
1515;208.885498046875
1516;208.6983184814453
1517;208.51132202148438
1518;208.32444763183594
1519;208.13772583007812
1520;207.95115661621094
1521;207.76475524902344
1522;207.5784454345703
1523;207.39230346679688
1524;207.20632934570312
1525;207.0204315185547
1526;206.834716796875
1527;206.64915466308594
1528;206.46372985839844
1529;206.27845764160156
1530;206.09329223632812
1531;205.9082489013672
1532;205.723388671875
1533;205.53866577148438
1534;205.3540802001953
1535;205.1696014404297
1536;204.9852752685547
1537;204.80111694335938
1538;204.6171112060547
1539;204.43324279785156
1540;204.24949645996094
1541;204.06588745117188
1542;203.88243103027344
1543;203.69912719726562
1544;203.51597595214844
1545;203.33290100097656
1546;203.15003967285156
1547;202.96730041503906
1548;202.78466796875
1549;202.6022186279297
1550;202.41990661621094
1551;202.23770141601562
1552;202.05564880371094
1553;201.87374877929688
1554;201.69198608398438
1555;201.51036071777344
1556;201.3289031982422
1557;201.1475372314453
1558;200.96630859375
1559;200.7852325439453
1560;200.6043243408203
1561;200.4235382080078
1562;200.2428741455078
1563;200.06234741210938
1564;199.8820037841797
1565;199.70176696777344
1566;199.5216827392578
1567;199.34170532226562
1568;199.16189575195312
1569;198.9822540283203
1570;198.80270385742188
1571;198.62332153320312
1572;198.44407653808594
1573;198.26498413085938
1574;198.0860137939453
1575;197.9071502685547
1576;197.72848510742188
1577;197.5498809814453
1578;197.37144470214844
1579;197.19314575195312
1580;197.01498413085938
1581;196.83694458007812
1582;196.65904235839844
1583;196.48133850097656
1584;196.30374145507812
1585;196.1262664794922
1586;195.94894409179688
1587;195.77175903320312
1588;195.59471130371094
1589;195.41783142089844
1590;195.24105834960938
1591;195.06442260742188
1592;194.887939453125
1593;194.71156311035156
1594;194.5353546142578
1595;194.35926818847656
1596;194.18331909179688
1597;194.00753784179688
1598;193.8318634033203
1599;193.6563262939453
1600;193.4808807373047
1601;193.30564880371094
1602;193.13050842285156
1603;192.9555206298828
1604;192.78065490722656
1605;192.60595703125
1606;192.43136596679688
1607;192.25692749023438
1608;192.08261108398438
1609;191.908447265625
1610;191.73440551757812
1611;191.56051635742188
1612;191.38671875
1613;191.2130889892578
1614;191.03956604003906
1615;190.8662109375
1616;190.69296264648438
1617;190.51986694335938
1618;190.34689331054688
1619;190.17410278320312
1620;190.0013885498047
1621;189.82887268066406
1622;189.6564483642578
1623;189.48416137695312
1624;189.31199645996094
1625;189.13998413085938
1626;188.96810913085938
1627;188.79638671875
1628;188.62477111816406
1629;188.45327758789062
1630;188.2819061279297
1631;188.11073303222656
1632;187.9396209716797
1633;187.76869201660156
1634;187.59788513183594
1635;187.42721557617188
1636;187.25668334960938
1637;187.08628845214844
1638;186.91600036621094
1639;186.74586486816406
1640;186.57583618164062
1641;186.40599060058594
1642;186.23623657226562
1643;186.06661987304688
1644;185.89718627929688
1645;185.72781372070312
1646;185.55862426757812
1647;185.38954162597656
1648;185.2206268310547
1649;185.0518341064453
1650;184.88316345214844
1651;184.71461486816406
1652;184.5462188720703
1653;184.37789916992188
1654;184.20974731445312
1655;184.041748046875
1656;183.8739013671875
1657;183.70614624023438
1658;183.53854370117188
1659;183.37106323242188
1660;183.20372009277344
1661;183.0364990234375
1662;182.86940002441406
1663;182.70248413085938
1664;182.53565979003906
1665;182.36898803710938
1666;182.20242309570312
1667;182.03599548339844
1668;181.86972045898438
1669;181.70358276367188
1670;181.53756713867188
1671;181.37167358398438
1672;181.2058868408203
1673;181.04025268554688
1674;180.874755859375
1675;180.7093505859375
1676;180.54409790039062
1677;180.3790283203125
1678;180.21401977539062
1679;180.04917907714844
1680;179.88442993164062
1681;179.71986389160156
1682;179.555419921875
1683;179.39112854003906
1684;179.22691345214844
1685;179.06285095214844
1686;178.89889526367188
1687;178.73509216308594
1688;178.5714111328125
1689;178.4078826904297
1690;178.2444610595703
1691;178.08116149902344
1692;177.91799926757812
1693;177.75498962402344
1694;177.59205627441406
1695;177.42930603027344
1696;177.2666778564453
1697;177.10414123535156
1698;176.94175720214844
1699;176.77952575683594
1700;176.61741638183594
1701;176.45541381835938
1702;176.2935791015625
1703;176.13185119628906
1704;175.97021484375
1705;175.8087615966797
1706;175.64743041992188
1707;175.48622131347656
1708;175.3251495361328
1709;175.16416931152344
1710;175.00332641601562
1711;174.84263610839844
1712;174.6820526123047
1713;174.5216522216797
1714;174.361328125
1715;174.20115661621094
1716;174.04112243652344
1717;173.88119506835938
1718;173.7213897705078
1719;173.5616912841797
1720;173.4021759033203
1721;173.24278259277344
1722;173.08349609375
1723;172.92434692382812
1724;172.76528930664062
1725;172.6063690185547
1726;172.44760131835938
1727;172.28895568847656
1728;172.1304168701172
1729;171.97201538085938
1730;171.8137664794922
1731;171.65565490722656
1732;171.4976348876953
1733;171.3397216796875
1734;171.18197631835938
1735;171.02432250976562
1736;170.86680603027344
1737;170.7094268798828
1738;170.5522003173828
1739;170.39505004882812
1740;170.238037109375
1741;170.08119201660156
1742;169.92442321777344
1743;169.76780700683594
1744;169.611328125
1745;169.45494079589844
1746;169.29872131347656
1747;169.142578125
1748;168.986572265625
1749;168.83070373535156
1750;168.6749725341797
1751;168.51937866210938
1752;168.3638916015625
1753;168.20852661132812
1754;168.0532989501953
1755;167.89820861816406
1756;167.74319458007812
1757;167.58837890625
1758;167.43362426757812
1759;167.2790069580078
1760;167.12454223632812
1761;166.97019958496094
1762;166.81593322753906
1763;166.66184997558594
1764;166.5078887939453
1765;166.35400390625
1766;166.2002410888672
1767;166.04664611816406
1768;165.89317321777344
1769;165.7397918701172
1770;165.5865936279297
1771;165.4334716796875
1772;165.28050231933594
1773;165.1276397705078
1774;164.9749298095703
1775;164.8223114013672
1776;164.66981506347656
1777;164.51747131347656
1778;164.365234375
1779;164.2130889892578
1780;164.0611114501953
1781;163.9092254638672
1782;163.7574920654297
1783;163.60586547851562
1784;163.454345703125
1785;163.30300903320312
1786;163.15174865722656
1787;163.00062561035156
1788;162.84962463378906
1789;162.69873046875
1790;162.54798889160156
1791;162.3973388671875
1792;162.246826171875
1793;162.096435546875
1794;161.94618225097656
1795;161.79603576660156
1796;161.64599609375
1797;161.49610900878906
1798;161.34634399414062
1799;161.1967010498047
1800;161.0471954345703
1801;160.8977508544922
1802;160.7484588623047
1803;160.5992889404297
1804;160.4502716064453
1805;160.3013153076172
1806;160.15249633789062
1807;160.00387573242188
1808;159.85533142089844
1809;159.70689392089844
1810;159.55857849121094
1811;159.41038513183594
1812;159.26231384277344
1813;159.11436462402344
1814;158.96656799316406
1815;158.81887817382812
1816;158.67127990722656
1817;158.52383422851562
1818;158.37649536132812
1819;158.22927856445312
1820;158.08216857910156
1821;157.9351806640625
1822;157.78836059570312
1823;157.64163208007812
1824;157.4950408935547
1825;157.3485565185547
1826;157.20216369628906
1827;157.05592346191406
1828;156.90980529785156
1829;156.76380920410156
1830;156.617919921875
1831;156.47213745117188
1832;156.3265380859375
1833;156.1809844970703
1834;156.03553771972656
1835;155.8903045654297
1836;155.74514770507812
1837;155.60009765625
1838;155.45516967773438
1839;155.3103790283203
1840;155.16567993164062
1841;155.02113342285156
1842;154.8766632080078
1843;154.73231506347656
1844;154.58811950683594
1845;154.4440460205078
1846;154.300048828125
1847;154.15621948242188
1848;154.0125274658203
1849;153.86888122558594
1850;153.72537231445312
1851;153.58203125
1852;153.4387664794922
1853;153.295654296875
1854;153.15261840820312
1855;153.00973510742188
1856;152.86697387695312
1857;152.7243194580078
1858;152.581787109375
1859;152.4393310546875
1860;152.2970428466797
1861;152.15489196777344
1862;152.01283264160156
1863;151.87088012695312
1864;151.72903442382812
1865;151.5873565673828
1866;151.44577026367188
1867;151.3042755126953
1868;151.16294860839844
1869;151.02171325683594
1870;150.88059997558594
1871;150.7395782470703
1872;150.59872436523438
1873;150.45797729492188
1874;150.3173370361328
1875;150.1768035888672
1876;150.03639221191406
1877;149.8961181640625
1878;149.7559356689453
1879;149.61582946777344
1880;149.4759063720703
1881;149.33607482910156
1882;149.19638061523438
1883;149.05679321289062
1884;148.9173126220703
1885;148.77796936035156
1886;148.6387176513672
1887;148.49960327148438
1888;148.360595703125
1889;148.22171020507812
1890;148.0829620361328
1891;147.9442901611328
1892;147.80575561523438
1893;147.66734313964844
1894;147.52902221679688
1895;147.39083862304688
1896;147.25279235839844
1897;147.11483764648438
1898;146.9770050048828
1899;146.8392791748047
1900;146.70167541503906
1901;146.5641632080078
1902;146.42678833007812
1903;146.28955078125
1904;146.15237426757812
1905;146.01536560058594
1906;145.87847900390625
1907;145.7416534423828
1908;145.60496520996094
1909;145.46841430664062
1910;145.3319549560547
1911;145.1956024169922
1912;145.0594024658203
1913;144.92330932617188
1914;144.7873077392578
1915;144.6514129638672
1916;144.5156707763672
1917;144.38003540039062
1918;144.24449157714844
1919;144.1090850830078
1920;143.97378540039062
1921;143.838623046875
1922;143.7035369873047
1923;143.56858825683594
1924;143.43373107910156
1925;143.2990264892578
1926;143.16439819335938
1927;143.02987670898438
1928;142.89549255371094
1929;142.76124572753906
1930;142.62705993652344
1931;142.49301147460938
1932;142.3590850830078
1933;142.22525024414062
1934;142.09156799316406
1935;141.95797729492188
1936;141.82452392578125
1937;141.69114685058594
1938;141.55792236328125
1939;141.42477416992188
1940;141.29176330566406
1941;141.15882873535156
1942;141.0260467529297
1943;140.8933563232422
1944;140.7607879638672
1945;140.6283416748047
1946;140.49600219726562
1947;140.36380004882812
1948;140.23167419433594
1949;140.0996856689453
1950;139.96778869628906
1951;139.8359832763672
1952;139.70437622070312
1953;139.5728302001953
1954;139.44139099121094
1955;139.31007385253906
1956;139.17886352539062
1957;139.0477752685547
1958;138.91676330566406
1959;138.78590393066406
1960;138.6551513671875
1961;138.5244598388672
1962;138.39395141601562
1963;138.2635040283203
1964;138.13320922851562
1965;138.00302124023438
1966;137.87294006347656
1967;137.74295043945312
1968;137.6131134033203
1969;137.4833526611328
1970;137.3536834716797
1971;137.2241668701172
1972;137.0947265625
1973;136.9654083251953
1974;136.83621215820312
1975;136.7071533203125
1976;136.5782012939453
1977;136.4493408203125
1978;136.32054138183594
1979;136.19190979003906
1980;136.0634002685547
1981;135.93496704101562
1982;135.80665588378906
1983;135.67845153808594
1984;135.5503692626953
1985;135.42237854003906
1986;135.2945098876953
1987;135.16677856445312
1988;135.0391387939453
1989;134.91162109375
1990;134.7841796875
1991;134.65687561035156
1992;134.5296630859375
1993;134.40255737304688
1994;134.27561950683594
1995;134.1487274169922
1996;134.0219268798828
1997;133.8953094482422
1998;133.76876831054688
1999;133.64234924316406
2000;133.5159912109375
2001;133.38978576660156
2002;133.26370239257812
2003;133.13771057128906
2004;133.01182556152344
2005;132.8860321044922
2006;132.76039123535156
2007;132.63479614257812
2008;132.50936889648438
2009;132.38401794433594
2010;132.2587890625
2011;132.13369750976562
2012;132.00868225097656
2013;131.8837890625
2014;131.75900268554688
2015;131.63430786132812
2016;131.50975036621094
2017;131.3852996826172
2018;131.26095581054688
2019;131.13668823242188
2020;131.01258850097656
2021;130.88856506347656
2022;130.76461791992188
2023;130.6407928466797
2024;130.51710510253906
2025;130.3935546875
2026;130.27005004882812
2027;130.1466827392578
2028;130.0233917236328
2029;129.90025329589844
2030;129.7771759033203
2031;129.65426635742188
2032;129.53140258789062
2033;129.40870666503906
2034;129.2860565185547
2035;129.16354370117188
2036;129.04115295410156
2037;128.91885375976562
2038;128.79666137695312
2039;128.674560546875
2040;128.55259704589844
2041;128.4307098388672
2042;128.30897521972656
2043;128.18727111816406
2044;128.0657196044922
2045;127.94429016113281
2046;127.82292938232422
2047;127.70172882080078
2048;127.58061218261719
2049;127.4596176147461
2050;127.33870697021484
2051;127.21791076660156
2052;127.09723663330078
2053;126.97662353515625
2054;126.85614013671875
2055;126.73577880859375
2056;126.61552429199219
2057;126.49534606933594
2058;126.37530517578125
2059;126.25533294677734
2060;126.135498046875
2061;126.01575469970703
2062;125.8961410522461
2063;125.77662658691406
2064;125.6572036743164
2065;125.53789520263672
2066;125.41866302490234
2067;125.29957580566406
2068;125.18058776855469
2069;125.0616683959961
2070;124.94288635253906
2071;124.82420349121094
2072;124.7056655883789
2073;124.58717346191406
2074;124.46881103515625
2075;124.35057830810547
2076;124.23242950439453
2077;124.1143569946289
2078;123.99642181396484
2079;123.87859344482422
2080;123.7608642578125
2081;123.64323425292969
2082;123.52574157714844
2083;123.4083251953125
2084;123.29100799560547
2085;123.17381286621094
2086;123.05668640136719
2087;122.93973541259766
2088;122.8227767944336
2089;122.70601654052734
2090;122.58934020996094
2091;122.47276306152344
2092;122.35626983642578
2093;122.23990631103516
2094;122.12366485595703
2095;122.00749206542969
2096;121.89141082763672
2097;121.77549743652344
2098;121.65965270996094
2099;121.54387664794922
2100;121.4282455444336
2101;121.3127212524414
2102;121.1972885131836
2103;121.08196258544922
2104;120.96672821044922
2105;120.85161590576172
2106;120.73661804199219
2107;120.62169647216797
2108;120.50688934326172
2109;120.39215850830078
2110;120.2775650024414
2111;120.16307830810547
2112;120.0486831665039
2113;119.93436431884766
2114;119.8201904296875
2115;119.70609283447266
2116;119.59210205078125
2117;119.47820281982422
2118;119.36444091796875
2119;119.25074005126953
2120;119.13719177246094
2121;119.02372741699219
2122;118.91033172607422
2123;118.79706573486328
2124;118.68390655517578
2125;118.57084655761719
2126;118.4578857421875
2127;118.34504699707031
2128;118.23228454589844
2129;118.11961364746094
2130;118.00708770751953
2131;117.8946304321289
2132;117.78227996826172
2133;117.6700439453125
2134;117.55792236328125
2135;117.44588470458984
2136;117.33393096923828
2137;117.22208404541016
2138;117.1103515625
2139;116.99870300292969
2140;116.88719177246094
2141;116.77574920654297
2142;116.66442108154297
2143;116.55322265625
2144;116.44207763671875
2145;116.33104705810547
2146;116.2201156616211
2147;116.10929107666016
2148;115.99858856201172
2149;115.88798522949219
2150;115.77745819091797
2151;115.6670150756836
2152;115.55672454833984
2153;115.44648742675781
2154;115.33637237548828
2155;115.22635650634766
2156;115.11643981933594
2157;115.00664520263672
2158;114.89693450927734
2159;114.78730010986328
2160;114.67777252197266
2161;114.568359375
2162;114.45906066894531
2163;114.3498306274414
2164;114.24073791503906
2165;114.1317367553711
2166;114.0228042602539
2167;113.91399383544922
2168;113.8052749633789
2169;113.69667053222656
2170;113.5881576538086
2171;113.47977447509766
2172;113.37145233154297
2173;113.2632064819336
2174;113.1551284790039
2175;113.04706573486328
2176;112.93916320800781
2177;112.83135223388672
2178;112.72364044189453
2179;112.61602020263672
2180;112.50849151611328
2181;112.40107727050781
2182;112.29374694824219
2183;112.18650817871094
2184;112.07941436767578
2185;111.9723892211914
2186;111.865478515625
2187;111.7586669921875
2188;111.65190124511719
2189;111.54528045654297
2190;111.43877410888672
2191;111.33232879638672
2192;111.2259750366211
2193;111.11976623535156
2194;111.01363372802734
2195;110.9075927734375
2196;110.8016586303711
2197;110.69580078125
2198;110.5900650024414
2199;110.48442840576172
2200;110.37890625
2201;110.2734375
2202;110.16810607910156
2203;110.06285095214844
2204;109.95769500732422
2205;109.85260772705078
2206;109.7476806640625
2207;109.64280700683594
2208;109.53804779052734
2209;109.43340301513672
2210;109.32881164550781
2211;109.22434997558594
2212;109.11995697021484
2213;109.01569366455078
2214;108.9115219116211
2215;108.80745697021484
2216;108.70347595214844
2217;108.59960174560547
2218;108.49578857421875
2219;108.39210510253906
2220;108.28850555419922
2221;108.18500518798828
2222;108.08161926269531
2223;107.97828674316406
2224;107.8750991821289
2225;107.77198028564453
2226;107.66898345947266
2227;107.56607818603516
2228;107.46321868896484
2229;107.36052703857422
2230;107.25788879394531
2231;107.15534973144531
2232;107.05294036865234
2233;106.95059967041016
2234;106.84835052490234
2235;106.74620819091797
2236;106.64414978027344
2237;106.54216003417969
2238;106.44034576416016
2239;106.33855438232422
2240;106.2369155883789
2241;106.13531494140625
2242;106.03385925292969
2243;105.93245697021484
2244;105.83116912841797
2245;105.72999572753906
2246;105.62890625
2247;105.52790069580078
2248;105.42701721191406
2249;105.32621002197266
2250;105.22547912597656
2251;105.12487030029297
2252;105.02436828613281
2253;104.92391204833984
2254;104.8235855102539
2255;104.7233657836914
2256;104.62320709228516
2257;104.52315521240234
2258;104.42320251464844
2259;104.32337951660156
2260;104.22359466552734
2261;104.12395477294922
2262;104.02436065673828
2263;103.9249038696289
2264;103.82551574707031
2265;103.72623443603516
2266;103.62702178955078
2267;103.5279541015625
2268;103.428955078125
2269;103.33002471923828
2270;103.231201171875
2271;103.13249969482422
2272;103.03385925292969
2273;102.93534088134766
2274;102.83686828613281
2275;102.738525390625
2276;102.64027404785156
2277;102.54212951660156
2278;102.4440689086914
2279;102.34607696533203
2280;102.24820709228516
2281;102.15043640136719
2282;102.05272674560547
2283;101.95514678955078
2284;101.85762786865234
2285;101.7602310180664
2286;101.66291809082031
2287;101.56568908691406
2288;101.46855926513672
2289;101.37152099609375
2290;101.27457427978516
2291;101.17769622802734
2292;101.08098602294922
2293;100.98429107666016
2294;100.88774108886719
2295;100.791259765625
2296;100.69486236572266
2297;100.59857177734375
2298;100.50238037109375
2299;100.40625762939453
2300;100.31024932861328
2301;100.21430969238281
2302;100.11851501464844
2303;100.02276611328125
2304;99.92713165283203
2305;99.83155822753906
2306;99.7361068725586
2307;99.64075469970703
2308;99.54547119140625
2309;99.45026397705078
2310;99.35518646240234
2311;99.26017761230469
2312;99.16526794433594
2313;99.0704345703125
2314;98.97571563720703
2315;98.88106536865234
2316;98.78655242919922
2317;98.69208526611328
2318;98.59772491455078
2319;98.50345611572266
2320;98.4092788696289
2321;98.315185546875
2322;98.22119140625
2323;98.12731170654297
2324;98.03349304199219
2325;97.93978118896484
2326;97.84614562988281
2327;97.75261688232422
2328;97.65912628173828
2329;97.56578063964844
2330;97.47251892089844
2331;97.37934875488281
2332;97.2862777709961
2333;97.19327545166016
2334;97.10039520263672
2335;97.00756072998047
2336;96.91486358642578
2337;96.82221221923828
2338;96.72969055175781
2339;96.63724517822266
2340;96.54488372802734
2341;96.45262145996094
2342;96.3604507446289
2343;96.26835632324219
2344;96.17633819580078
2345;96.08441925048828
2346;95.99262237548828
2347;95.90087890625
2348;95.80925750732422
2349;95.71772003173828
2350;95.6262435913086
2351;95.53485870361328
2352;95.44358825683594
2353;95.3524169921875
2354;95.26131439208984
2355;95.17030334472656
2356;95.07936096191406
2357;94.9885482788086
2358;94.89778900146484
2359;94.8071517944336
2360;94.71659851074219
2361;94.62613677978516
2362;94.53575897216797
2363;94.4454345703125
2364;94.35526275634766
2365;94.26512145996094
2366;94.17506408691406
2367;94.08515167236328
2368;93.99527740478516
2369;93.905517578125
2370;93.81586456298828
2371;93.72623443603516
2372;93.63675689697266
2373;93.54734802246094
2374;93.45801544189453
2375;93.36881256103516
2376;93.27967071533203
2377;93.19060516357422
2378;93.1016616821289
2379;93.01274871826172
2380;92.92396545410156
2381;92.83528137207031
2382;92.74664306640625
2383;92.65813446044922
2384;92.56968688964844
2385;92.48136138916016
2386;92.39310455322266
2387;92.30491638183594
2388;92.21683502197266
2389;92.12883758544922
2390;92.04094696044922
2391;91.95308685302734
2392;91.8653564453125
2393;91.7777099609375
2394;91.69014739990234
2395;91.60267639160156
2396;91.51530456542969
2397;91.42798614501953
2398;91.34080505371094
2399;91.253662109375
2400;91.16663360595703
2401;91.07965850830078
2402;90.99280548095703
2403;90.90604400634766
2404;90.81935119628906
2405;90.73274993896484
2406;90.64623260498047
2407;90.559814453125
2408;90.4734878540039
2409;90.38722229003906
2410;90.30106353759766
2411;90.2149658203125
2412;90.12897491455078
2413;90.04307556152344
2414;89.95726013183594
2415;89.87152099609375
2416;89.785888671875
2417;89.70030975341797
2418;89.61481475830078
2419;89.5294418334961
2420;89.44412994384766
2421;89.3589096069336
2422;89.2737808227539
2423;89.188720703125
2424;89.10376739501953
2425;89.0188980102539
2426;88.9341049194336
2427;88.84940338134766
2428;88.76476287841797
2429;88.68022918701172
2430;88.59578704833984
2431;88.51142120361328
2432;88.4271469116211
2433;88.34296417236328
2434;88.25883483886719
2435;88.17481994628906
2436;88.09088134765625
2437;88.00701141357422
2438;87.92328643798828
2439;87.839599609375
2440;87.7559814453125
2441;87.6724853515625
2442;87.58905792236328
2443;87.50572204589844
2444;87.42247009277344
2445;87.33928680419922
2446;87.25617980957031
2447;87.1731948852539
2448;87.09029388427734
2449;87.0074462890625
2450;86.92469024658203
2451;86.84203338623047
2452;86.75943756103516
2453;86.67695617675781
2454;86.59453582763672
2455;86.51219177246094
2456;86.4299545288086
2457;86.3477783203125
2458;86.26570892333984
2459;86.1837387084961
2460;86.10182189941406
2461;86.01998138427734
2462;85.93824768066406
2463;85.85658264160156
2464;85.7750244140625
2465;85.69355773925781
2466;85.6121597290039
2467;85.53083038330078
2468;85.4495849609375
2469;85.36842346191406
2470;85.28734588623047
2471;85.20638275146484
2472;85.12547302246094
2473;85.04463958740234
2474;84.96391296386719
2475;84.88324737548828
2476;84.80268859863281
2477;84.72220611572266
2478;84.64180755615234
2479;84.56148529052734
2480;84.4812240600586
2481;84.40105438232422
2482;84.32099914550781
2483;84.24100494384766
2484;84.16109466552734
2485;84.08129119873047
2486;84.00154113769531
2487;83.92186737060547
2488;83.84228515625
2489;83.7628173828125
2490;83.68339538574219
2491;83.60405731201172
2492;83.52479553222656
2493;83.44563293457031
2494;83.36656951904297
2495;83.28754425048828
2496;83.20863342285156
2497;83.12979888916016
2498;83.05104064941406
2499;82.97235107421875
2500;82.89374542236328
2501;82.81523895263672
2502;82.73683166503906
2503;82.65848541259766
2504;82.58020782470703
2505;82.50199890136719
2506;82.42390441894531
2507;82.34588623046875
2508;82.26795196533203
2509;82.19010162353516
2510;82.11231231689453
2511;82.03460693359375
2512;81.95701599121094
2513;81.87945556640625
2514;81.80201721191406
2515;81.72462463378906
2516;81.64734649658203
2517;81.57013702392578
2518;81.49300384521484
2519;81.41596984863281
2520;81.33899688720703
2521;81.2621078491211
2522;81.18529510498047
2523;81.10858154296875
2524;81.03191375732422
2525;80.95536804199219
2526;80.87886810302734
2527;80.80247497558594
2528;80.72615814208984
2529;80.64990234375
2530;80.57373809814453
2531;80.4976577758789
2532;80.4216537475586
2533;80.34574127197266
2534;80.2698974609375
2535;80.19413757324219
2536;80.11845397949219
2537;80.04285430908203
2538;79.96733856201172
2539;79.8918685913086
2540;79.81652069091797
2541;79.74124908447266
2542;79.6660385131836
2543;79.59089660644531
2544;79.51586151123047
2545;79.44087219238281
2546;79.36600494384766
2547;79.29119873046875
2548;79.21648406982422
2549;79.14183807373047
2550;79.0672607421875
2551;78.9927749633789
2552;78.91834259033203
2553;78.84400177001953
2554;78.769775390625
2555;78.69557189941406
2556;78.62149810791016
2557;78.5474853515625
2558;78.47356414794922
2559;78.39969635009766
2560;78.32588958740234
2561;78.252197265625
2562;78.17857360839844
2563;78.10501861572266
2564;78.03156280517578
2565;77.95816802978516
2566;77.88487243652344
2567;77.8116455078125
2568;77.73847198486328
2569;77.6654052734375
2570;77.5924072265625
2571;77.5195083618164
2572;77.4466781616211
2573;77.37390899658203
2574;77.30120849609375
2575;77.22862243652344
2576;77.15607452392578
2577;77.08363342285156
2578;77.01126861572266
2579;76.93896484375
2580;76.86676025390625
2581;76.79461669921875
2582;76.72254943847656
2583;76.65058898925781
2584;76.57866668701172
2585;76.5068359375
2586;76.4350814819336
2587;76.36341857910156
2588;76.29181671142578
2589;76.22032165527344
2590;76.14886474609375
2591;76.07749938964844
2592;76.0062026977539
2593;75.93498992919922
2594;75.86383819580078
2595;75.79279327392578
2596;75.7218246459961
2597;75.6509017944336
2598;75.58009338378906
2599;75.50934600830078
2600;75.43865966796875
2601;75.3680648803711
2602;75.29754638671875
2603;75.22710418701172
2604;75.15673828125
2605;75.08643341064453
2606;75.0162353515625
2607;74.94609832763672
2608;74.87601470947266
2609;74.8060302734375
2610;74.73612976074219
2611;74.66629791259766
2612;74.59654998779297
2613;74.52686309814453
2614;74.4572525024414
2615;74.38774871826172
2616;74.3182601928711
2617;74.2489013671875
2618;74.1795883178711
2619;74.11036682128906
2620;74.04122161865234
2621;73.97215270996094
2622;73.90313720703125
2623;73.8342056274414
2624;73.76536560058594
2625;73.69658660888672
2626;73.62788391113281
2627;73.55925750732422
2628;73.49071502685547
2629;73.4222412109375
2630;73.35384368896484
2631;73.2855224609375
2632;73.21726989746094
2633;73.14910125732422
2634;73.08100891113281
2635;73.01298522949219
2636;72.9450454711914
2637;72.87715148925781
2638;72.8093490600586
2639;72.74163055419922
2640;72.67400360107422
2641;72.60640716552734
2642;72.53890228271484
2643;72.47149658203125
2644;72.40412902832031
2645;72.33683776855469
2646;72.26964569091797
2647;72.20252990722656
2648;72.13545989990234
2649;72.06848907470703
2650;72.00157928466797
2651;71.93474578857422
2652;71.86798858642578
2653;71.80131530761719
2654;71.73470306396484
2655;71.66817474365234
2656;71.6017074584961
2657;71.53532409667969
2658;71.46900939941406
2659;71.40278625488281
2660;71.33658599853516
2661;71.27051544189453
2662;71.2044906616211
2663;71.13854217529297
2664;71.07266235351562
2665;71.00687408447266
2666;70.94112396240234
2667;70.87548065185547
2668;70.80989837646484
2669;70.74440002441406
2670;70.67896270751953
2671;70.61359405517578
2672;70.54830169677734
2673;70.48307800292969
2674;70.4179458618164
2675;70.3528823852539
2676;70.28787994384766
2677;70.22294616699219
2678;70.15808868408203
2679;70.09331512451172
2680;70.02860260009766
2681;69.96397399902344
2682;69.89942932128906
2683;69.83494567871094
2684;69.77051544189453
2685;69.7061767578125
2686;69.64189147949219
2687;69.57769012451172
2688;69.5135726928711
2689;69.44953155517578
2690;69.38555145263672
2691;69.32162475585938
2692;69.2577896118164
2693;69.1939926147461
2694;69.13032531738281
2695;69.06669616699219
2696;69.0031509399414
2697;68.9396743774414
2698;68.8762435913086
2699;68.81291198730469
2700;68.74964141845703
2701;68.68644714355469
2702;68.62332916259766
2703;68.56029510498047
2704;68.49730682373047
2705;68.43440246582031
2706;68.37155151367188
2707;68.30879211425781
2708;68.24609375
2709;68.18347930908203
2710;68.12092590332031
2711;68.0584487915039
2712;67.99602508544922
2713;67.93370819091797
2714;67.87140655517578
2715;67.80921173095703
2716;67.74708557128906
2717;67.68504333496094
2718;67.6230697631836
2719;67.56114196777344
2720;67.49930572509766
2721;67.43753814697266
2722;67.37581634521484
2723;67.31420135498047
2724;67.25263214111328
2725;67.19113159179688
2726;67.12969970703125
2727;67.06835174560547
2728;67.00708770751953
2729;66.94588470458984
2730;66.8847427368164
2731;66.82366180419922
2732;66.76265716552734
2733;66.70171356201172
2734;66.64086151123047
2735;66.58008575439453
2736;66.51934051513672
2737;66.45870208740234
2738;66.39811706542969
2739;66.33761596679688
2740;66.27715301513672
2741;66.21678161621094
2742;66.1564712524414
2743;66.09625244140625
2744;66.03607177734375
2745;65.97599029541016
2746;65.91596221923828
2747;65.85598754882812
2748;65.79609680175781
2749;65.73628997802734
2750;65.6765365600586
2751;65.61687469482422
2752;65.5572509765625
2753;65.49769592285156
2754;65.43822479248047
2755;65.37882232666016
2756;65.31949615478516
2757;65.26023864746094
2758;65.20103454589844
2759;65.14189910888672
2760;65.08282470703125
2761;65.0238265991211
2762;64.96492004394531
2763;64.90604400634766
2764;64.84725189208984
2765;64.78854370117188
2766;64.72990417480469
2767;64.67131805419922
2768;64.61279296875
2769;64.55435180664062
2770;64.49596405029297
2771;64.4376449584961
2772;64.37939453125
2773;64.32123565673828
2774;64.26312255859375
2775;64.20509338378906
2776;64.14712524414062
2777;64.08921813964844
2778;64.03138732910156
2779;63.97361373901367
2780;63.91591262817383
2781;63.858272552490234
2782;63.800716400146484
2783;63.74321746826172
2784;63.685794830322266
2785;63.628414154052734
2786;63.57112503051758
2787;63.51389694213867
2788;63.45673751831055
2789;63.399635314941406
2790;63.342613220214844
2791;63.28565216064453
2792;63.228759765625
2793;63.17192840576172
2794;63.115177154541016
2795;63.058494567871094
2796;63.001869201660156
2797;62.945308685302734
2798;62.88881301879883
2799;62.83238983154297
2800;62.77603530883789
2801;62.719730377197266
2802;62.663509368896484
2803;62.60734176635742
2804;62.55126953125
2805;62.495243072509766
2806;62.439266204833984
2807;62.38336944580078
2808;62.32754898071289
2809;62.27177810668945
2810;62.21609878540039
2811;62.160457611083984
2812;62.10491180419922
2813;62.04940414428711
2814;61.993961334228516
2815;61.938602447509766
2816;61.8833122253418
2817;61.82805633544922
2818;61.77289962768555
2819;61.71780776977539
2820;61.662757873535156
2821;61.60779571533203
2822;61.552886962890625
2823;61.4980583190918
2824;61.443260192871094
2825;61.38855743408203
2826;61.333919525146484
2827;61.279335021972656
2828;61.224815368652344
2829;61.17037582397461
2830;61.115989685058594
2831;61.06166458129883
2832;61.007423400878906
2833;60.95322036743164
2834;60.899105072021484
2835;60.84504318237305
2836;60.79106903076172
2837;60.73712921142578
2838;60.68326950073242
2839;60.62948226928711
2840;60.57573318481445
2841;60.52206802368164
2842;60.46845626831055
2843;60.41493606567383
2844;60.36145782470703
2845;60.30803298950195
2846;60.25468063354492
2847;60.2014274597168
2848;60.14820098876953
2849;60.09503173828125
2850;60.04195785522461
2851;59.98891830444336
2852;59.935970306396484
2853;59.88306427001953
2854;59.83022689819336
2855;59.77745819091797
2856;59.72473907470703
2857;59.67212677001953
2858;59.61953353881836
2859;59.5670166015625
2860;59.51457977294922
2861;59.46217727661133
2862;59.40985107421875
2863;59.35760498046875
2864;59.30539321899414
2865;59.253265380859375
2866;59.201210021972656
2867;59.14918899536133
2868;59.09724807739258
2869;59.04537582397461
2870;58.99355697631836
2871;58.941802978515625
2872;58.89010238647461
2873;58.83848190307617
2874;58.78691482543945
2875;58.73541259765625
2876;58.68396759033203
2877;58.63259506225586
2878;58.58127975463867
2879;58.53003692626953
2880;58.47885513305664
2881;58.42771530151367
2882;58.37666702270508
2883;58.325660705566406
2884;58.274723052978516
2885;58.22385787963867
2886;58.17304229736328
2887;58.12230682373047
2888;58.07160186767578
2889;58.02099609375
2890;57.97041702270508
2891;57.919921875
2892;57.86949920654297
2893;57.81911849975586
2894;57.768798828125
2895;57.718544006347656
2896;57.66834259033203
2897;57.61822509765625
2898;57.568153381347656
2899;57.51815414428711
2900;57.46820831298828
2901;57.418331146240234
2902;57.36850357055664
2903;57.31874465942383
2904;57.26905059814453
2905;57.21940231323242
2906;57.16983413696289
2907;57.120338439941406
2908;57.07088088989258
2909;57.02149200439453
2910;56.9721794128418
2911;56.92290496826172
2912;56.873687744140625
2913;56.82454299926758
2914;56.775474548339844
2915;56.7264518737793
2916;56.67748260498047
2917;56.628597259521484
2918;56.57973861694336
2919;56.53097152709961
2920;56.482242584228516
2921;56.43357467651367
2922;56.38499069213867
2923;56.33646011352539
2924;56.288002014160156
2925;56.23957443237305
2926;56.19121551513672
2927;56.142921447753906
2928;56.09468460083008
2929;56.04651641845703
2930;55.99840545654297
2931;55.95035171508789
2932;55.90236282348633
2933;55.854434967041016
2934;55.80656051635742
2935;55.75875473022461
2936;55.71099090576172
2937;55.66331100463867
2938;55.61567306518555
2939;55.5681037902832
2940;55.520591735839844
2941;55.47313690185547
2942;55.425743103027344
2943;55.37842559814453
2944;55.331146240234375
2945;55.28392791748047
2946;55.23678207397461
2947;55.189674377441406
2948;55.14264678955078
2949;55.09567642211914
2950;55.048763275146484
2951;55.00191116333008
2952;54.95510482788086
2953;54.908355712890625
2954;54.861698150634766
2955;54.8150634765625
2956;54.76851272583008
2957;54.7220344543457
2958;54.67556381225586
2959;54.62918472290039
2960;54.582862854003906
2961;54.53659439086914
2962;54.490394592285156
2963;54.44424057006836
2964;54.39815139770508
2965;54.35213088989258
2966;54.306156158447266
2967;54.26022720336914
2968;54.21437454223633
2969;54.168575286865234
2970;54.122840881347656
2971;54.07716751098633
2972;54.03154754638672
2973;53.98598098754883
2974;53.94049835205078
2975;53.89503860473633
2976;53.849647521972656
2977;53.8043212890625
2978;53.759056091308594
2979;53.713844299316406
2980;53.66867446899414
2981;53.62357711791992
2982;53.57854461669922
2983;53.533565521240234
2984;53.48865509033203
2985;53.443756103515625
2986;53.39895248413086
2987;53.35421371459961
2988;53.309513092041016
2989;53.2648811340332
2990;53.22029495239258
2991;53.17578125
2992;53.131309509277344
2993;53.086910247802734
2994;53.04254913330078
2995;52.99826431274414
2996;52.95403289794922
2997;52.909854888916016
2998;52.86573028564453
2999;52.82167434692383
