;loss
0;863.9097900390625
1;863.6326293945312
2;863.3546752929688
3;863.0760498046875
4;862.8137817382812
5;862.5453491210938
6;862.2637939453125
7;861.9869384765625
8;861.7026977539062
9;861.4169921875
10;861.1312255859375
11;860.8428344726562
12;860.5524291992188
13;860.2603149414062
14;859.9649658203125
15;859.6690673828125
16;859.3690795898438
17;859.0667114257812
18;858.7645874023438
19;858.4603881835938
20;858.1536254882812
21;857.8411254882812
22;857.529296875
23;857.2111206054688
24;856.8899536132812
25;856.5655517578125
26;856.2379760742188
27;855.9067993164062
28;855.5721435546875
29;855.2374877929688
30;854.8991088867188
31;854.5524291992188
32;854.2014770507812
33;853.8460083007812
34;853.4900512695312
35;853.1292114257812
36;852.7635498046875
37;852.3927001953125
38;852.0125122070312
39;851.630859375
40;851.2393798828125
41;850.84619140625
42;850.4468383789062
43;850.0413818359375
44;849.6292724609375
45;849.2064208984375
46;848.7766723632812
47;848.3440551757812
48;847.8998413085938
49;847.4482421875
50;846.9928588867188
51;846.5296020507812
52;846.0580444335938
53;845.5779418945312
54;845.0889892578125
55;844.5868530273438
56;844.07958984375
57;843.55859375
58;843.0321044921875
59;842.4954223632812
60;841.9439697265625
61;841.3861694335938
62;840.8175048828125
63;840.2376098632812
64;839.6417236328125
65;839.0382080078125
66;838.4227294921875
67;837.7946166992188
68;837.1493530273438
69;836.4955444335938
70;835.828125
71;835.14697265625
72;834.4472045898438
73;833.7374267578125
74;833.0128173828125
75;832.2734375
76;831.5137939453125
77;830.7385864257812
78;829.9468383789062
79;829.1387329101562
80;828.3136596679688
81;827.4712524414062
82;826.6109008789062
83;825.7321166992188
84;824.83984375
85;823.9235229492188
86;822.9927368164062
87;822.0366821289062
88;821.0601196289062
89;820.0679321289062
90;819.0488891601562
91;818.0076904296875
92;816.943359375
93;815.861328125
94;814.7495727539062
95;813.6132202148438
96;812.4515991210938
97;811.2640991210938
98;810.0501098632812
99;808.8087768554688
100;807.5393676757812
101;806.2411499023438
102;804.9132080078125
103;803.5552978515625
104;802.1729736328125
105;800.7526245117188
106;799.3065795898438
107;797.82080078125
108;796.3076782226562
109;794.7532348632812
110;793.1629028320312
111;791.5429077148438
112;789.8851928710938
113;788.1819458007812
114;786.439453125
115;784.6593017578125
116;782.8463745117188
117;780.9850463867188
118;779.08984375
119;777.1461791992188
120;775.1614990234375
121;773.1417236328125
122;771.0736694335938
123;768.9724731445312
124;766.8284912109375
125;764.6446533203125
126;762.4190673828125
127;760.1539916992188
128;757.8681640625
129;755.5540161132812
130;753.2061767578125
131;750.8323364257812
132;748.4215698242188
133;745.9949951171875
134;743.5382080078125
135;741.0632934570312
136;738.5767822265625
137;736.0903930664062
138;733.6025390625
139;731.1364135742188
140;728.6813354492188
141;726.2417602539062
142;723.82421875
143;721.4396362304688
144;719.0859375
145;716.7694091796875
146;714.4974365234375
147;712.2720336914062
148;710.1008911132812
149;707.9884033203125
150;705.9264526367188
151;703.9271850585938
152;701.9793090820312
153;700.0905151367188
154;698.2572021484375
155;696.4940185546875
156;694.7880859375
157;693.1334228515625
158;691.5335693359375
159;689.97900390625
160;688.4798583984375
161;687.0271606445312
162;685.6139526367188
163;684.2430419921875
164;682.9110717773438
165;681.61279296875
166;680.3525390625
167;679.1265869140625
168;677.9312744140625
169;676.7615966796875
170;675.6204223632812
171;674.5054931640625
172;673.4143676757812
173;672.3455810546875
174;671.298828125
175;670.2718505859375
176;669.2662963867188
177;668.2826538085938
178;667.3197021484375
179;666.3759765625
180;665.4483642578125
181;664.5361328125
182;663.6340942382812
183;662.7442016601562
184;661.8661499023438
185;660.9998168945312
186;660.1461791992188
187;659.3010864257812
188;658.46533203125
189;657.6380004882812
190;656.8200073242188
191;656.0072021484375
192;655.203125
193;654.4037475585938
194;653.6107788085938
195;652.8239135742188
196;652.0452270507812
197;651.2721557617188
198;650.5030517578125
199;649.7410888671875
200;648.9827270507812
201;648.2314453125
202;647.4852905273438
203;646.7426147460938
204;646.0062255859375
205;645.2743530273438
206;644.5451049804688
207;643.8201293945312
208;643.1007080078125
209;642.3851928710938
210;641.6721801757812
211;640.9642944335938
212;640.2584838867188
213;639.5580444335938
214;638.8596801757812
215;638.1661987304688
216;637.4762573242188
217;636.7898559570312
218;636.1068725585938
219;635.42578125
220;634.7491455078125
221;634.0756225585938
222;633.4052734375
223;632.7369995117188
224;632.0718383789062
225;631.4109497070312
226;630.7514038085938
227;630.0948486328125
228;629.4409790039062
229;628.7897338867188
230;628.1425170898438
231;627.49658203125
232;626.8546142578125
233;626.2138671875
234;625.5769653320312
235;624.9412841796875
236;624.3079833984375
237;623.6769409179688
238;623.0496826171875
239;622.4234008789062
240;621.7998657226562
241;621.1784057617188
242;620.5603637695312
243;619.943359375
244;619.3284912109375
245;618.716796875
246;618.1071166992188
247;617.4995727539062
248;616.8939208984375
249;616.2891845703125
250;615.6875
251;615.0866088867188
252;614.4887084960938
253;613.8926391601562
254;613.2973022460938
255;612.7037963867188
256;612.1119995117188
257;611.52197265625
258;610.9346923828125
259;610.3480834960938
260;609.7630004882812
261;609.1796875
262;608.5989990234375
263;608.0188598632812
264;607.4413452148438
265;606.8646850585938
266;606.2896118164062
267;605.7172241210938
268;605.146484375
269;604.5762939453125
270;604.0076293945312
271;603.4405517578125
272;602.8758544921875
273;602.3125610351562
274;601.7498779296875
275;601.1884765625
276;600.6294555664062
277;600.07177734375
278;599.5154418945312
279;598.9595947265625
280;598.4049682617188
281;597.8516845703125
282;597.3005981445312
283;596.7506713867188
284;596.2021484375
285;595.6539916992188
286;595.1071166992188
287;594.5616455078125
288;594.01806640625
289;593.4749145507812
290;592.9329223632812
291;592.3929443359375
292;591.8540649414062
293;591.31640625
294;590.7798461914062
295;590.2444458007812
296;589.7101440429688
297;589.1768798828125
298;588.6439819335938
299;588.1129150390625
300;587.5830078125
301;587.0532836914062
302;586.525390625
303;585.9979248046875
304;585.4715576171875
305;584.9468383789062
306;584.4225463867188
307;583.8999633789062
308;583.37841796875
309;582.8571166992188
310;582.3367919921875
311;581.8182373046875
312;581.300537109375
313;580.7838745117188
314;580.2681884765625
315;579.7533569335938
316;579.2388305664062
317;578.7252197265625
318;578.2132568359375
319;577.7020874023438
320;577.1912231445312
321;576.6812744140625
322;576.1721801757812
323;575.6640014648438
324;575.1573486328125
325;574.6514892578125
326;574.1466674804688
327;573.6427001953125
328;573.138916015625
329;572.6366577148438
330;572.1346435546875
331;571.6339721679688
332;571.1342163085938
333;570.6353149414062
334;570.1372680664062
335;569.6393432617188
336;569.1422729492188
337;568.6466674804688
338;568.1519165039062
339;567.6573486328125
340;567.1641235351562
341;566.6710815429688
342;566.1788940429688
343;565.6874389648438
344;565.1973266601562
345;564.7074584960938
346;564.2188720703125
347;563.7311401367188
348;563.2440185546875
349;562.7577514648438
350;562.2721557617188
351;561.7872924804688
352;561.3026123046875
353;560.8191528320312
354;560.3365478515625
355;559.8540649414062
356;559.3722534179688
357;558.8912353515625
358;558.4114379882812
359;557.9322509765625
360;557.4532470703125
361;556.9755859375
362;556.4979858398438
363;556.0216674804688
364;555.5454711914062
365;555.0699462890625
366;554.595703125
367;554.1215209960938
368;553.6485595703125
369;553.17626953125
370;552.70458984375
371;552.2335815429688
372;551.7632446289062
373;551.2930297851562
374;550.8239135742188
375;550.3555297851562
376;549.8877563476562
377;549.420654296875
378;548.9541625976562
379;548.4877319335938
380;548.0225219726562
381;547.557373046875
382;547.0933227539062
383;546.62939453125
384;546.1666259765625
385;545.7039794921875
386;545.2423095703125
387;544.7809448242188
388;544.320556640625
389;543.8607788085938
390;543.401123046875
391;542.9425659179688
392;542.4845581054688
393;542.0272216796875
394;541.56982421875
395;541.1135864257812
396;540.657470703125
397;540.2018432617188
398;539.7469482421875
399;539.29248046875
400;538.8386840820312
401;538.3858032226562
402;537.93310546875
403;537.4813842773438
404;537.0302734375
405;536.5796508789062
406;536.1297607421875
407;535.6798095703125
408;535.2308349609375
409;534.7825317382812
410;534.3343505859375
411;533.8870849609375
412;533.43994140625
413;532.9933471679688
414;532.5473022460938
415;532.101806640625
416;531.6568603515625
417;531.2128295898438
418;530.7693481445312
419;530.325927734375
420;529.8831176757812
421;529.4407348632812
422;528.9992065429688
423;528.5579223632812
424;528.1175537109375
425;527.6773071289062
426;527.2379760742188
427;526.7987060546875
428;526.3599853515625
429;525.9221801757812
430;525.48486328125
431;525.0479736328125
432;524.6112670898438
433;524.175048828125
434;523.7396850585938
435;523.3048095703125
436;522.8704223632812
437;522.4364624023438
438;522.0031127929688
439;521.5697631835938
440;521.1373291015625
441;520.7049560546875
442;520.2734985351562
443;519.8424072265625
444;519.4119262695312
445;518.9818725585938
446;518.5518798828125
447;518.1227416992188
448;517.6941528320312
449;517.2659912109375
450;516.8381958007812
451;516.4109497070312
452;515.9841918945312
453;515.5574340820312
454;515.1311645507812
455;514.7056884765625
456;514.2807006835938
457;513.856201171875
458;513.43212890625
459;513.0084228515625
460;512.5848999023438
461;512.1618041992188
462;511.73919677734375
463;511.31695556640625
464;510.8952331542969
465;510.473876953125
466;510.0533752441406
467;509.63287353515625
468;509.2129211425781
469;508.793701171875
470;508.37493896484375
471;507.95654296875
472;507.5382995605469
473;507.120849609375
474;506.70343017578125
475;506.2864074707031
476;505.8699035644531
477;505.4537658691406
478;505.03802490234375
479;504.62310791015625
480;504.2085876464844
481;503.79443359375
482;503.38037109375
483;502.9670715332031
484;502.5542297363281
485;502.1418151855469
486;501.72943115234375
487;501.31744384765625
488;500.9062805175781
489;500.4953918457031
490;500.0846862792969
491;499.67437744140625
492;499.2644348144531
493;498.855224609375
494;498.4460754394531
495;498.03765869140625
496;497.6296691894531
497;497.22210693359375
498;496.81494140625
499;496.40814208984375
500;496.0017395019531
501;495.5957336425781
502;495.19012451171875
503;494.78460693359375
504;494.3794250488281
505;493.9747619628906
506;493.5704040527344
507;493.1667785644531
508;492.7635192871094
509;492.3603515625
510;491.9578552246094
511;491.5554504394531
512;491.15380859375
513;490.7522277832031
514;490.35125732421875
515;489.9506530761719
516;489.550537109375
517;489.1507263183594
518;488.7511291503906
519;488.35205078125
520;487.9533996582031
521;487.55511474609375
522;487.1572265625
523;486.7594299316406
524;486.3623046875
525;485.9655456542969
526;485.5691833496094
527;485.17315673828125
528;484.77728271484375
529;484.3816833496094
530;483.98675537109375
531;483.5922546386719
532;483.1980285644531
533;482.80426025390625
534;482.4107971191406
535;482.0177307128906
536;481.624755859375
537;481.2320861816406
538;480.8400573730469
539;480.4484558105469
540;480.0569152832031
541;479.666015625
542;479.275146484375
543;478.88470458984375
544;478.49462890625
545;478.1051330566406
546;477.71575927734375
547;477.3269348144531
548;476.9385681152344
549;476.550537109375
550;476.16278076171875
551;475.7754211425781
552;475.3883972167969
553;475.00146484375
554;474.61517333984375
555;474.22894287109375
556;473.8430480957031
557;473.4574890136719
558;473.0722961425781
559;472.6877136230469
560;472.3034362792969
561;471.9195251464844
562;471.53570556640625
563;471.1525573730469
564;470.7696838378906
565;470.3870544433594
566;470.0049133300781
567;469.6230163574219
568;469.2414855957031
569;468.86029052734375
570;468.4792175292969
571;468.0986328125
572;467.71826171875
573;467.3381042480469
574;466.9586486816406
575;466.57940673828125
576;466.2005310058594
577;465.8218078613281
578;465.4435729980469
579;465.06549072265625
580;464.6877136230469
581;464.31048583984375
582;463.9333801269531
583;463.5566101074219
584;463.18011474609375
585;462.8039855957031
586;462.4284362792969
587;462.05316162109375
588;461.6780090332031
589;461.3033752441406
590;460.92913818359375
591;460.5549011230469
592;460.1809997558594
593;459.8077087402344
594;459.4347229003906
595;459.06201171875
596;458.6896667480469
597;458.3175964355469
598;457.9456481933594
599;457.5740051269531
600;457.2027893066406
601;456.8317565917969
602;456.4611511230469
603;456.0910339355469
604;455.7209777832031
605;455.3515319824219
606;454.98236083984375
607;454.6135559082031
608;454.24481201171875
609;453.8765563964844
610;453.5086364746094
611;453.1408386230469
612;452.77337646484375
613;452.4060974121094
614;452.0392761230469
615;451.67291259765625
616;451.306640625
617;450.94091796875
618;450.5752258300781
619;450.2098693847656
620;449.8450012207031
621;449.4804992675781
622;449.1159973144531
623;448.7521057128906
624;448.38824462890625
625;448.0246887207031
626;447.6615295410156
627;447.29852294921875
628;446.9359436035156
629;446.57373046875
630;446.211669921875
631;445.8499450683594
632;445.48870849609375
633;445.12750244140625
634;444.7669372558594
635;444.4065246582031
636;444.04644775390625
637;443.6867370605469
638;443.3269958496094
639;442.9676818847656
640;442.6085510253906
641;442.24993896484375
642;441.8914489746094
643;441.5334777832031
644;441.175537109375
645;440.8180847167969
646;440.46099853515625
647;440.1039733886719
648;439.7473449707031
649;439.39093017578125
650;439.0349426269531
651;438.67926025390625
652;438.32373046875
653;437.9685974121094
654;437.6135559082031
655;437.2590637207031
656;436.90460205078125
657;436.55047607421875
658;436.19677734375
659;435.84320068359375
660;435.4900207519531
661;435.1369934082031
662;434.78448486328125
663;434.4322814941406
664;434.0802307128906
665;433.728515625
666;433.3771057128906
667;433.0257263183594
668;432.6746520996094
669;432.323974609375
670;431.9736022949219
671;431.6235656738281
672;431.2738342285156
673;430.9241638183594
674;430.574951171875
675;430.2260437011719
676;429.87738037109375
677;429.5290222167969
678;429.1809387207031
679;428.83294677734375
680;428.4851989746094
681;428.13775634765625
682;427.7906188964844
683;427.4438781738281
684;427.0972595214844
685;426.75103759765625
686;426.4049987792969
687;426.0592346191406
688;425.713623046875
689;425.3685607910156
690;425.0237121582031
691;424.6791687011719
692;424.3349304199219
693;423.99072265625
694;423.6470031738281
695;423.30352783203125
696;422.9601745605469
697;422.61724853515625
698;422.27459716796875
699;421.93206787109375
700;421.58990478515625
701;421.248046875
702;420.90631103515625
703;420.56500244140625
704;420.2239685058594
705;419.883056640625
706;419.54254150390625
707;419.20233154296875
708;418.8621520996094
709;418.52227783203125
710;418.1827087402344
711;417.84332275390625
712;417.50421142578125
713;417.1654357910156
714;416.8270568847656
715;416.48883056640625
716;416.15093994140625
717;415.81341552734375
718;415.47601318359375
719;415.13873291015625
720;414.8017578125
721;414.4651794433594
722;414.1288757324219
723;413.7928771972656
724;413.45703125
725;413.121337890625
726;412.785888671875
727;412.4508361816406
728;412.1159362792969
729;411.78125
730;411.4469909667969
731;411.1130065917969
732;410.779052734375
733;410.4454040527344
734;410.1120300292969
735;409.7790222167969
736;409.4463195800781
737;409.11383056640625
738;408.7814636230469
739;408.4493103027344
740;408.11761474609375
741;407.7861328125
742;407.4548034667969
743;407.1238098144531
744;406.7930603027344
745;406.4626159667969
746;406.1324157714844
747;405.8022766113281
748;405.47259521484375
749;405.14312744140625
750;404.8139343261719
751;404.48492431640625
752;404.15625
753;403.8277893066406
754;403.49957275390625
755;403.17144775390625
756;402.84356689453125
757;402.5161437988281
758;402.1887512207031
759;401.86175537109375
760;401.5350036621094
761;401.20843505859375
762;400.8821716308594
763;400.55615234375
764;400.2304382324219
765;399.9049377441406
766;399.57952880859375
767;399.2544860839844
768;398.9297180175781
769;398.60504150390625
770;398.28076171875
771;397.956787109375
772;397.6328125
773;397.30914306640625
774;396.98583984375
775;396.66259765625
776;396.3396301269531
777;396.01702880859375
778;395.69476318359375
779;395.37249755859375
780;395.0506896972656
781;394.72900390625
782;394.4076843261719
783;394.08642578125
784;393.7655334472656
785;393.44488525390625
786;393.12445068359375
787;392.80426025390625
788;392.48419189453125
789;392.16448974609375
790;391.8450622558594
791;391.52587890625
792;391.2068786621094
793;390.8881530761719
794;390.56964111328125
795;390.2512512207031
796;389.9331970214844
797;389.61529541015625
798;389.2976379394531
799;388.98028564453125
800;388.6632385253906
801;388.34637451171875
802;388.02978515625
803;387.7134094238281
804;387.3971252441406
805;387.08123779296875
806;386.7654113769531
807;386.4499816894531
808;386.134765625
809;385.81964111328125
810;385.5049133300781
811;385.1903991699219
812;384.8761291503906
813;384.56207275390625
814;384.2481994628906
815;383.9344177246094
816;383.6210021972656
817;383.307861328125
818;382.9949645996094
819;382.6823425292969
820;382.36981201171875
821;382.0576171875
822;381.74560546875
823;381.4338684082031
824;381.1224060058594
825;380.81109619140625
826;380.5000305175781
827;380.1892395019531
828;379.8786315917969
829;379.5681457519531
830;379.2580261230469
831;378.9480895996094
832;378.6383361816406
833;378.328857421875
834;378.0196838378906
835;377.71063232421875
836;377.40185546875
837;377.0932922363281
838;376.78497314453125
839;376.47686767578125
840;376.1689147949219
841;375.86126708984375
842;375.5538635253906
843;375.2466735839844
844;374.9396057128906
845;374.63275146484375
846;374.3262023925781
847;374.0199279785156
848;373.7138671875
849;373.40789794921875
850;373.1022033691406
851;372.7967224121094
852;372.4915466308594
853;372.1864929199219
854;371.88177490234375
855;371.5771484375
856;371.2727355957031
857;370.9687194824219
858;370.6648254394531
859;370.36126708984375
860;370.0578308105469
861;369.754638671875
862;369.45172119140625
863;369.14898681640625
864;368.8464660644531
865;368.5440979003906
866;368.2419128417969
867;367.94000244140625
868;367.6383972167969
869;367.3369445800781
870;367.0357360839844
871;366.73480224609375
872;366.43402099609375
873;366.13336181640625
874;365.83294677734375
875;365.5327453613281
876;365.23284912109375
877;364.93316650390625
878;364.6336364746094
879;364.33428955078125
880;364.0351867675781
881;363.73638916015625
882;363.4377136230469
883;363.13934326171875
884;362.8411560058594
885;362.5432434082031
886;362.24542236328125
887;361.94793701171875
888;361.6505432128906
889;361.3533630371094
890;361.056396484375
891;360.7597961425781
892;360.4633483886719
893;360.1671447753906
894;359.87103271484375
895;359.57525634765625
896;359.2796936035156
897;358.98419189453125
898;358.68896484375
899;358.39398193359375
900;358.09912109375
901;357.80462646484375
902;357.51025390625
903;357.216064453125
904;356.9222106933594
905;356.62841796875
906;356.33489990234375
907;356.0416564941406
908;355.74847412109375
909;355.4555969238281
910;355.16290283203125
911;354.87054443359375
912;354.578369140625
913;354.28631591796875
914;353.9944763183594
915;353.70294189453125
916;353.4115905761719
917;353.1205139160156
918;352.82952880859375
919;352.538818359375
920;352.2483215332031
921;351.95806884765625
922;351.66790771484375
923;351.3779602050781
924;351.0882873535156
925;350.7987976074219
926;350.5094299316406
927;350.2203674316406
928;349.93145751953125
929;349.64288330078125
930;349.3544921875
931;349.06634521484375
932;348.7782897949219
933;348.4905090332031
934;348.20281982421875
935;347.91546630859375
936;347.6282653808594
937;347.34130859375
938;347.0544738769531
939;346.76800537109375
940;346.4815368652344
941;346.1954040527344
942;345.9093933105469
943;345.62359619140625
944;345.3381042480469
945;345.05279541015625
946;344.7676086425781
947;344.4826965332031
948;344.197998046875
949;343.9135437011719
950;343.6292419433594
951;343.3451843261719
952;343.0613098144531
953;342.77764892578125
954;342.4941711425781
955;342.2109375
956;341.9277648925781
957;341.64495849609375
958;341.3621520996094
959;341.07977294921875
960;340.7975158691406
961;340.51544189453125
962;340.233642578125
963;339.951904296875
964;339.67041015625
965;339.38909912109375
966;339.1080627441406
967;338.8271484375
968;338.54638671875
969;338.2659606933594
970;337.98577880859375
971;337.7057189941406
972;337.4259338378906
973;337.1462097167969
974;336.86669921875
975;336.58740234375
976;336.3083801269531
977;336.0295715332031
978;335.75091552734375
979;335.472412109375
980;335.1941833496094
981;334.91619873046875
982;334.63824462890625
983;334.3606262207031
984;334.0832214355469
985;333.8059387207031
986;333.5289611816406
987;333.2521057128906
988;332.9754333496094
989;332.6989440917969
990;332.42266845703125
991;332.1465148925781
992;331.87060546875
993;331.594970703125
994;331.31939697265625
995;331.0441589355469
996;330.76904296875
997;330.4941711425781
998;330.21954345703125
999;329.94500732421875
1000;329.67071533203125
1001;329.39666748046875
1002;329.1227722167969
1003;328.84912109375
1004;328.5755920410156
1005;328.3022766113281
1006;328.0290832519531
1007;327.7561950683594
1008;327.4834289550781
1009;327.2109375
1010;326.93853759765625
1011;326.6663513183594
1012;326.3944396972656
1013;326.1227111816406
1014;325.8511657714844
1015;325.5798034667969
1016;325.3086853027344
1017;325.0377502441406
1018;324.7668762207031
1019;324.4963073730469
1020;324.2257995605469
1021;323.95556640625
1022;323.68560791015625
1023;323.4158020019531
1024;323.1462097167969
1025;322.8767395019531
1026;322.6074523925781
1027;322.33837890625
1028;322.0694885253906
1029;321.8008117675781
1030;321.5323181152344
1031;321.26397705078125
1032;320.995849609375
1033;320.72796630859375
1034;320.4601745605469
1035;320.19268798828125
1036;319.9253845214844
1037;319.65826416015625
1038;319.3913879394531
1039;319.1246643066406
1040;318.8581237792969
1041;318.59173583984375
1042;318.3255920410156
1043;318.0595703125
1044;317.793701171875
1045;317.52813720703125
1046;317.2627258300781
1047;316.9974670410156
1048;316.732421875
1049;316.4674987792969
1050;316.2028503417969
1051;315.93841552734375
1052;315.6741027832031
1053;315.40997314453125
1054;315.1461486816406
1055;314.8823547363281
1056;314.6188049316406
1057;314.35546875
1058;314.0923767089844
1059;313.82940673828125
1060;313.5666198730469
1061;313.3039855957031
1062;313.0416564941406
1063;312.7794494628906
1064;312.5174255371094
1065;312.2555847167969
1066;311.9939880371094
1067;311.7325134277344
1068;311.4712829589844
1069;311.210205078125
1070;310.9493713378906
1071;310.68865966796875
1072;310.42816162109375
1073;310.1678161621094
1074;309.90771484375
1075;309.64776611328125
1076;309.387939453125
1077;309.12835693359375
1078;308.8689270019531
1079;308.6097106933594
1080;308.35064697265625
1081;308.0918273925781
1082;307.8330993652344
1083;307.5745544433594
1084;307.3163146972656
1085;307.0581970214844
1086;306.80029296875
1087;306.5425109863281
1088;306.2848815917969
1089;306.0274963378906
1090;305.770263671875
1091;305.51318359375
1092;305.25634765625
1093;304.9996643066406
1094;304.7431945800781
1095;304.4869079589844
1096;304.2308044433594
1097;303.9748840332031
1098;303.7191467285156
1099;303.4636535644531
1100;303.2082824707031
1101;302.953125
1102;302.6980895996094
1103;302.4432678222656
1104;302.18865966796875
1105;301.93414306640625
1106;301.6799011230469
1107;301.42584228515625
1108;301.17193603515625
1109;300.9182434082031
1110;300.66473388671875
1111;300.4113464355469
1112;300.15814208984375
1113;299.90521240234375
1114;299.65234375
1115;299.39971923828125
1116;299.147216796875
1117;298.8949890136719
1118;298.6428527832031
1119;298.3908996582031
1120;298.13916015625
1121;297.8875427246094
1122;297.6361999511719
1123;297.3849792480469
1124;297.13397216796875
1125;296.8831481933594
1126;296.63250732421875
1127;296.3819885253906
1128;296.1316223144531
1129;295.88153076171875
1130;295.6315612792969
1131;295.38177490234375
1132;295.1322326660156
1133;294.88275146484375
1134;294.6335754394531
1135;294.3844909667969
1136;294.1357116699219
1137;293.8869934082031
1138;293.63848876953125
1139;293.39019775390625
1140;293.14202880859375
1141;292.89404296875
1142;292.6462707519531
1143;292.398681640625
1144;292.1512145996094
1145;291.90399169921875
1146;291.6569519042969
1147;291.4100036621094
1148;291.1633605957031
1149;290.9167785644531
1150;290.6704406738281
1151;290.4241943359375
1152;290.1781921386719
1153;289.9323425292969
1154;289.68670654296875
1155;289.4411926269531
1156;289.19586181640625
1157;288.95074462890625
1158;288.70574951171875
1159;288.4609680175781
1160;288.21630859375
1161;287.971923828125
1162;287.7275695800781
1163;287.48345947265625
1164;287.2395324707031
1165;286.99578857421875
1166;286.752197265625
1167;286.5087890625
1168;286.2655944824219
1169;286.0224914550781
1170;285.7796325683594
1171;285.5368957519531
1172;285.2944030761719
1173;285.05206298828125
1174;284.8099060058594
1175;284.56793212890625
1176;284.3261413574219
1177;284.0845031738281
1178;283.8430480957031
1179;283.60174560546875
1180;283.3605651855469
1181;283.11956787109375
1182;282.8787536621094
1183;282.6381530761719
1184;282.3976745605469
1185;282.1573791503906
1186;281.9173278808594
1187;281.6773986816406
1188;281.43768310546875
1189;281.1981201171875
1190;280.9587097167969
1191;280.7195129394531
1192;280.4804382324219
1193;280.2416076660156
1194;280.00286865234375
1195;279.76434326171875
1196;279.52593994140625
1197;279.28765869140625
1198;279.0497131347656
1199;278.81182861328125
1200;278.5741271972656
1201;278.3365173339844
1202;278.0992126464844
1203;277.8620300292969
1204;277.62506103515625
1205;277.38824462890625
1206;277.151611328125
1207;276.9150695800781
1208;276.67877197265625
1209;276.4425964355469
1210;276.2065734863281
1211;275.9707336425781
1212;275.7351379394531
1213;275.4996337890625
1214;275.2643127441406
1215;275.0291442871094
1216;274.7942199707031
1217;274.5594177246094
1218;274.3248291015625
1219;274.0903625488281
1220;273.8561096191406
1221;273.62200927734375
1222;273.3880310058594
1223;273.1542053222656
1224;272.9206237792969
1225;272.68719482421875
1226;272.45391845703125
1227;272.2208557128906
1228;271.98785400390625
1229;271.7550964355469
1230;271.5224609375
1231;271.2900085449219
1232;271.0577697753906
1233;270.82562255859375
1234;270.5936584472656
1235;270.3618469238281
1236;270.1302185058594
1237;269.8987731933594
1238;269.6675109863281
1239;269.4364013671875
1240;269.2054138183594
1241;268.9746398925781
1242;268.7440490722656
1243;268.51361083984375
1244;268.2833557128906
1245;268.05322265625
1246;267.8232727050781
1247;267.593505859375
1248;267.36383056640625
1249;267.1344299316406
1250;266.90509033203125
1251;266.6759948730469
1252;266.447021484375
1253;266.21820068359375
1254;265.98956298828125
1255;265.7610778808594
1256;265.53277587890625
1257;265.30462646484375
1258;265.0766906738281
1259;264.8489074707031
1260;264.6212463378906
1261;264.393798828125
1262;264.1664733886719
1263;263.9393005371094
1264;263.7123718261719
1265;263.485595703125
1266;263.25897216796875
1267;263.032470703125
1268;262.8061218261719
1269;262.5799560546875
1270;262.3539733886719
1271;262.1282043457031
1272;261.90252685546875
1273;261.6770324707031
1274;261.45166015625
1275;261.22650146484375
1276;261.00152587890625
1277;260.7767028808594
1278;260.552001953125
1279;260.3274841308594
1280;260.1031188964844
1281;259.87896728515625
1282;259.65496826171875
1283;259.4311218261719
1284;259.20745849609375
1285;258.9839172363281
1286;258.76055908203125
1287;258.5373229980469
1288;258.31427001953125
1289;258.0914306640625
1290;257.8686828613281
1291;257.6460876464844
1292;257.4236755371094
1293;257.201416015625
1294;256.9793395996094
1295;256.7574768066406
1296;256.5356750488281
1297;256.3140563964844
1298;256.0925598144531
1299;255.87130737304688
1300;255.65017700195312
1301;255.42916870117188
1302;255.20838928222656
1303;254.98776245117188
1304;254.7672576904297
1305;254.54696655273438
1306;254.3268280029297
1307;254.1068572998047
1308;253.8870086669922
1309;253.66737365722656
1310;253.4478302001953
1311;253.2284698486328
1312;253.0092315673828
1313;252.7902069091797
1314;252.5713653564453
1315;252.35264587402344
1316;252.134033203125
1317;251.91566467285156
1318;251.6974334716797
1319;251.47938537597656
1320;251.26145935058594
1321;251.04368591308594
1322;250.82606506347656
1323;250.608642578125
1324;250.391357421875
1325;250.17420959472656
1326;249.95729064941406
1327;249.74049377441406
1328;249.52381896972656
1329;249.3072967529297
1330;249.09095764160156
1331;248.874755859375
1332;248.65878295898438
1333;248.44290161132812
1334;248.22718811035156
1335;248.01168823242188
1336;247.79629516601562
1337;247.58106994628906
1338;247.36599731445312
1339;247.15109252929688
1340;246.93630981445312
1341;246.7217559814453
1342;246.50729370117188
1343;246.29299926757812
1344;246.078857421875
1345;245.86488342285156
1346;245.65109252929688
1347;245.4374542236328
1348;245.22390747070312
1349;245.01060485839844
1350;244.7974395751953
1351;244.58436584472656
1352;244.3715057373047
1353;244.1587677001953
1354;243.9462127685547
1355;243.73379516601562
1356;243.52157592773438
1357;243.30947875976562
1358;243.0975799560547
1359;242.8857421875
1360;242.6741485595703
1361;242.462646484375
1362;242.25132751464844
1363;242.04017639160156
1364;241.8291473388672
1365;241.61830139160156
1366;241.40757751464844
1367;241.19703674316406
1368;240.98667907714844
1369;240.77645874023438
1370;240.5663299560547
1371;240.35641479492188
1372;240.1466522216797
1373;239.93704223632812
1374;239.72756958007812
1375;239.51828002929688
1376;239.30911254882812
1377;239.10011291503906
1378;238.89126586914062
1379;238.6825714111328
1380;238.47402954101562
1381;238.26564025878906
1382;238.0574493408203
1383;237.84933471679688
1384;237.64138793945312
1385;237.43359375
1386;237.22598266601562
1387;237.0184783935547
1388;236.8112030029297
1389;236.6040496826172
1390;236.39706420898438
1391;236.19021606445312
1392;235.9835205078125
1393;235.7769775390625
1394;235.57058715820312
1395;235.36434936523438
1396;235.1582794189453
1397;234.9522705078125
1398;234.74647521972656
1399;234.5408172607422
1400;234.33534240722656
1401;234.1300048828125
1402;233.92483520507812
1403;233.71983337402344
1404;233.5149688720703
1405;233.3102264404297
1406;233.10568237304688
1407;232.90122985839844
1408;232.69699096679688
1409;232.49281311035156
1410;232.288818359375
1411;232.08497619628906
1412;231.88134765625
1413;231.6778106689453
1414;231.47439575195312
1415;231.2711639404297
1416;231.068115234375
1417;230.8651885986328
1418;230.6624298095703
1419;230.45982360839844
1420;230.25735473632812
1421;230.05506896972656
1422;229.8528594970703
1423;229.65087890625
1424;229.448974609375
1425;229.2472381591797
1426;229.04568481445312
1427;228.84425354003906
1428;228.6429901123047
1429;228.44187927246094
1430;228.2408905029297
1431;228.0400390625
1432;227.83937072753906
1433;227.6388397216797
1434;227.43844604492188
1435;227.23817443847656
1436;227.0381317138672
1437;226.83816528320312
1438;226.6383819580078
1439;226.43875122070312
1440;226.23924255371094
1441;226.03993225097656
1442;225.84071350097656
1443;225.6416778564453
1444;225.4427947998047
1445;225.2440185546875
1446;225.04542541503906
1447;224.84703063964844
1448;224.64871215820312
1449;224.45057678222656
1450;224.25257873535156
1451;224.0547332763672
1452;223.8570556640625
1453;223.65945434570312
1454;223.46205139160156
1455;223.2648468017578
1456;223.0677032470703
1457;222.87074279785156
1458;222.67391967773438
1459;222.4772186279297
1460;222.2806854248047
1461;222.08432006835938
1462;221.88807678222656
1463;221.6920166015625
1464;221.4960479736328
1465;221.3002471923828
1466;221.1046142578125
1467;220.9091033935547
1468;220.71376037597656
1469;220.5185546875
1470;220.323486328125
1471;220.1285400390625
1472;219.9337921142578
1473;219.73915100097656
1474;219.544677734375
1475;219.350341796875
1476;219.1561737060547
1477;218.96212768554688
1478;218.7682342529297
1479;218.574462890625
1480;218.380859375
1481;218.18740844726562
1482;217.9940643310547
1483;217.80093383789062
1484;217.60791015625
1485;217.41500854492188
1486;217.22225952148438
1487;217.0296630859375
1488;216.83726501464844
1489;216.64491271972656
1490;216.45274353027344
1491;216.26071166992188
1492;216.06884765625
1493;215.8771209716797
1494;215.68551635742188
1495;215.49403381347656
1496;215.30274963378906
1497;215.1116180419922
1498;214.9206085205078
1499;214.729736328125
1500;214.53903198242188
1501;214.3484649658203
1502;214.15805053710938
1503;213.96774291992188
1504;213.77760314941406
1505;213.58761596679688
1506;213.397705078125
1507;213.20799255371094
1508;213.0184326171875
1509;212.8290252685547
1510;212.63975524902344
1511;212.4506072998047
1512;212.2615966796875
1513;212.07272338867188
1514;211.88400268554688
1515;211.6953887939453
1516;211.5069122314453
1517;211.3186798095703
1518;211.13050842285156
1519;210.94248962402344
1520;210.75462341308594
1521;210.56690979003906
1522;210.37930297851562
1523;210.19186401367188
1524;210.0045623779297
1525;209.8173828125
1526;209.63037109375
1527;209.44349670410156
1528;209.2567596435547
1529;209.0701904296875
1530;208.8837127685547
1531;208.69741821289062
1532;208.51124572753906
1533;208.32522583007812
1534;208.13937377929688
1535;207.95361328125
1536;207.76797485351562
1537;207.58255004882812
1538;207.39723205566406
1539;207.21202087402344
1540;207.02696228027344
1541;206.84207153320312
1542;206.65731811523438
1543;206.4727020263672
1544;206.2882080078125
1545;206.1038818359375
1546;205.919677734375
1547;205.73562622070312
1548;205.5517120361328
1549;205.367919921875
1550;205.18429565429688
1551;205.0008087158203
1552;204.81748962402344
1553;204.63424682617188
1554;204.45114135742188
1555;204.26820373535156
1556;204.08543395996094
1557;203.9027862548828
1558;203.7202606201172
1559;203.53787231445312
1560;203.3556671142578
1561;203.1735382080078
1562;202.9915771484375
1563;202.80970764160156
1564;202.62803649902344
1565;202.4464569091797
1566;202.26504516601562
1567;202.08377075195312
1568;201.9026641845703
1569;201.7216033935547
1570;201.540771484375
1571;201.3600311279297
1572;201.17942810058594
1573;200.99900817871094
1574;200.8186798095703
1575;200.63853454589844
1576;200.45851135253906
1577;200.27859497070312
1578;200.098876953125
1579;199.9192657470703
1580;199.73976135253906
1581;199.56044006347656
1582;199.38121032714844
1583;199.20213317871094
1584;199.023193359375
1585;198.84439086914062
1586;198.66575622558594
1587;198.48719787597656
1588;198.308837890625
1589;198.130615234375
1590;197.95249938964844
1591;197.77455139160156
1592;197.59671020507812
1593;197.4189910888672
1594;197.24147033691406
1595;197.06399536132812
1596;196.88671875
1597;196.7095489501953
1598;196.5325164794922
1599;196.35562133789062
1600;196.1789093017578
1601;196.00230407714844
1602;195.82582092285156
1603;195.64944458007812
1604;195.4732666015625
1605;195.2971649169922
1606;195.12124633789062
1607;194.9454345703125
1608;194.769775390625
1609;194.59425354003906
1610;194.41885375976562
1611;194.24362182617188
1612;194.06849670410156
1613;193.89352416992188
1614;193.71865844726562
1615;193.54391479492188
1616;193.3693389892578
1617;193.1948699951172
1618;193.02059936523438
1619;192.84640502929688
1620;192.67236328125
1621;192.49844360351562
1622;192.3246612548828
1623;192.1510467529297
1624;191.9775390625
1625;191.80418395996094
1626;191.6309356689453
1627;191.4578399658203
1628;191.2848663330078
1629;191.1119842529297
1630;190.9392852783203
1631;190.76673889160156
1632;190.5942840576172
1633;190.42198181152344
1634;190.2498321533203
1635;190.07777404785156
1636;189.9058837890625
1637;189.73410034179688
1638;189.56248474121094
1639;189.39097595214844
1640;189.2196044921875
1641;189.04835510253906
1642;188.8772735595703
1643;188.70631408691406
1644;188.5354766845703
1645;188.36476135253906
1646;188.19419860839844
1647;188.0237579345703
1648;187.8534393310547
1649;187.68325805664062
1650;187.51321411132812
1651;187.34329223632812
1652;187.1735076904297
1653;187.00387573242188
1654;186.83436584472656
1655;186.66500854492188
1656;186.49575805664062
1657;186.32664489746094
1658;186.1576385498047
1659;185.98880004882812
1660;185.8201446533203
1661;185.65151977539062
1662;185.4830780029297
1663;185.3147430419922
1664;185.14659118652344
1665;184.978515625
1666;184.81057739257812
1667;184.6427459716797
1668;184.47509765625
1669;184.30758666992188
1670;184.14015197753906
1671;183.97288513183594
1672;183.8057403564453
1673;183.6387481689453
1674;183.4718475341797
1675;183.3050994873047
1676;183.13853454589844
1677;182.97203063964844
1678;182.8056640625
1679;182.639404296875
1680;182.4733428955078
1681;182.307373046875
1682;182.14149475097656
1683;181.97579956054688
1684;181.8102264404297
1685;181.64479064941406
1686;181.4794921875
1687;181.31431579589844
1688;181.1492462158203
1689;180.9843292236328
1690;180.8195037841797
1691;180.6548309326172
1692;180.49032592773438
1693;180.32591247558594
1694;180.16162109375
1695;179.9974822998047
1696;179.8334503173828
1697;179.66952514648438
1698;179.50576782226562
1699;179.34213256835938
1700;179.1786346435547
1701;179.01527404785156
1702;178.85202026367188
1703;178.6888885498047
1704;178.52590942382812
1705;178.36306762695312
1706;178.2003173828125
1707;178.03773498535156
1708;177.875244140625
1709;177.71290588378906
1710;177.5507049560547
1711;177.3885955810547
1712;177.2266387939453
1713;177.06480407714844
1714;176.9031219482422
1715;176.74156188964844
1716;176.58010864257812
1717;176.4187774658203
1718;176.25759887695312
1719;176.09652709960938
1720;175.93557739257812
1721;175.77476501464844
1722;175.61410522460938
1723;175.4535369873047
1724;175.29312133789062
1725;175.1328125
1726;174.97265625
1727;174.8126220703125
1728;174.65269470214844
1729;174.49288940429688
1730;174.333251953125
1731;174.17367553710938
1732;174.0142822265625
1733;173.85501098632812
1734;173.6958770751953
1735;173.536865234375
1736;173.3779296875
1737;173.21913146972656
1738;173.0604705810547
1739;172.90196228027344
1740;172.74354553222656
1741;172.5852813720703
1742;172.42715454101562
1743;172.2691192626953
1744;172.1112518310547
1745;171.95347595214844
1746;171.7958221435547
1747;171.6383056640625
1748;171.4808807373047
1749;171.32362365722656
1750;171.16650390625
1751;171.00949096679688
1752;170.8525848388672
1753;170.69583129882812
1754;170.53919982910156
1755;170.38270568847656
1756;170.22630310058594
1757;170.07003784179688
1758;169.91392517089844
1759;169.75790405273438
1760;169.6019744873047
1761;169.4462127685547
1762;169.2905731201172
1763;169.1350860595703
1764;168.9796600341797
1765;168.8243865966797
1766;168.6692352294922
1767;168.51425170898438
1768;168.35934448242188
1769;168.20458984375
1770;168.04994201660156
1771;167.89541625976562
1772;167.74099731445312
1773;167.58677673339844
1774;167.43260192871094
1775;167.278564453125
1776;167.1247100830078
1777;166.97093200683594
1778;166.8172607421875
1779;166.6637420654297
1780;166.51036071777344
1781;166.35707092285156
1782;166.2039031982422
1783;166.05087280273438
1784;165.89796447753906
1785;165.7451629638672
1786;165.59249877929688
1787;165.43997192382812
1788;165.2875518798828
1789;165.13525390625
1790;164.98312377929688
1791;164.83103942871094
1792;164.6791229248047
1793;164.52734375
1794;164.37570190429688
1795;164.22410583496094
1796;164.07266235351562
1797;163.92135620117188
1798;163.77015686035156
1799;163.6190643310547
1800;163.46815490722656
1801;163.3173065185547
1802;163.16664123535156
1803;163.01602172851562
1804;162.8655548095703
1805;162.7152557373047
1806;162.56504821777344
1807;162.41494750976562
1808;162.26499938964844
1809;162.11514282226562
1810;161.96543884277344
1811;161.81582641601562
1812;161.66635131835938
1813;161.5169677734375
1814;161.3677520751953
1815;161.21864318847656
1816;161.0696563720703
1817;160.92076110839844
1818;160.77200317382812
1819;160.62339782714844
1820;160.47488403320312
1821;160.32644653320312
1822;160.17819213867188
1823;160.03004455566406
1824;159.88204956054688
1825;159.73411560058594
1826;159.58631896972656
1827;159.43869018554688
1828;159.29112243652344
1829;159.1436767578125
1830;158.99636840820312
1831;158.8491973876953
1832;158.70213317871094
1833;158.55519104003906
1834;158.40834045410156
1835;158.2616424560547
1836;158.1150665283203
1837;157.96859741210938
1838;157.82228088378906
1839;157.676025390625
1840;157.5299530029297
1841;157.3839111328125
1842;157.2380828857422
1843;157.0923614501953
1844;156.9467315673828
1845;156.8012237548828
1846;156.6558380126953
1847;156.5105438232422
1848;156.36538696289062
1849;156.2203369140625
1850;156.075439453125
1851;155.93064880371094
1852;155.78599548339844
1853;155.64138793945312
1854;155.4969940185547
1855;155.3526611328125
1856;155.20849609375
1857;155.0644073486328
1858;154.92041015625
1859;154.7765655517578
1860;154.63282775878906
1861;154.48924255371094
1862;154.3457794189453
1863;154.20236206054688
1864;154.0591583251953
1865;153.916015625
1866;153.77297973632812
1867;153.63009643554688
1868;153.48728942871094
1869;153.34463500976562
1870;153.2020721435547
1871;153.05967712402344
1872;152.91737365722656
1873;152.77517700195312
1874;152.63308715820312
1875;152.4911346435547
1876;152.3493194580078
1877;152.2075958251953
1878;152.0659942626953
1879;151.9244842529297
1880;151.7831268310547
1881;151.64187622070312
1882;151.50074768066406
1883;151.35972595214844
1884;151.2188262939453
1885;151.0780487060547
1886;150.9373779296875
1887;150.79685974121094
1888;150.65638732910156
1889;150.51611328125
1890;150.3759002685547
1891;150.23583984375
1892;150.09585571289062
1893;149.95602416992188
1894;149.8162841796875
1895;149.67666625976562
1896;149.53720092773438
1897;149.39779663085938
1898;149.258544921875
1899;149.119384765625
1900;148.98036193847656
1901;148.84144592285156
1902;148.70266723632812
1903;148.56394958496094
1904;148.4253692626953
1905;148.2869415283203
1906;148.14859008789062
1907;148.01036071777344
1908;147.8722381591797
1909;147.7342529296875
1910;147.5963592529297
1911;147.45860290527344
1912;147.3209686279297
1913;147.18344116210938
1914;147.0460205078125
1915;146.90869140625
1916;146.7715301513672
1917;146.63442993164062
1918;146.4974822998047
1919;146.36061096191406
1920;146.22389221191406
1921;146.0872802734375
1922;145.9508056640625
1923;145.81436157226562
1924;145.67811584472656
1925;145.54196166992188
1926;145.40591430664062
1927;145.26998901367188
1928;145.13417053222656
1929;144.9984588623047
1930;144.8628692626953
1931;144.72743225097656
1932;144.59205627441406
1933;144.45681762695312
1934;144.32167053222656
1935;144.18667602539062
1936;144.05177307128906
1937;143.9169921875
1938;143.7823028564453
1939;143.64773559570312
1940;143.51329040527344
1941;143.3789520263672
1942;143.24472045898438
1943;143.1106414794922
1944;142.9766387939453
1945;142.84275817871094
1946;142.70896911621094
1947;142.5753173828125
1948;142.44178771972656
1949;142.30836486816406
1950;142.17503356933594
1951;142.04183959960938
1952;141.9087371826172
1953;141.77577209472656
1954;141.64292907714844
1955;141.51014709472656
1956;141.37753295898438
1957;141.24497985839844
1958;141.11257934570312
1959;140.9802703857422
1960;140.8480987548828
1961;140.7160186767578
1962;140.5840301513672
1963;140.45216369628906
1964;140.32041931152344
1965;140.1887969970703
1966;140.05728149414062
1967;139.92587280273438
1968;139.7946014404297
1969;139.6634521484375
1970;139.53233337402344
1971;139.40138244628906
1972;139.27052307128906
1973;139.13975524902344
1974;139.0091552734375
1975;138.87863159179688
1976;138.74826049804688
1977;138.6179656982422
1978;138.48776245117188
1979;138.3577117919922
1980;138.22775268554688
1981;138.09791564941406
1982;137.96817016601562
1983;137.8385467529297
1984;137.7090301513672
1985;137.5796356201172
1986;137.45034790039062
1987;137.32115173339844
1988;137.19210815429688
1989;137.06314086914062
1990;136.93429565429688
1991;136.80557250976562
1992;136.6769561767578
1993;136.5484161376953
1994;136.4199981689453
1995;136.2917022705078
1996;136.16351318359375
1997;136.03543090820312
1998;135.90750122070312
1999;135.77964782714844
2000;135.65187072753906
2001;135.52426147460938
2002;135.39671325683594
2003;135.269287109375
2004;135.14199829101562
2005;135.0147705078125
2006;134.88768005371094
2007;134.7606964111328
2008;134.63381958007812
2009;134.50709533691406
2010;134.3804168701172
2011;134.25387573242188
2012;134.12747192382812
2013;134.0010986328125
2014;133.87489318847656
2015;133.74876403808594
2016;133.62277221679688
2017;133.4969024658203
2018;133.37110900878906
2019;133.2454071044922
2020;133.11984252929688
2021;132.994384765625
2022;132.8690643310547
2023;132.7438201904297
2024;132.61868286132812
2025;132.49366760253906
2026;132.36875915527344
2027;132.24392700195312
2028;132.11923217773438
2029;131.99464416503906
2030;131.8701629638672
2031;131.7457733154297
2032;131.62149047851562
2033;131.49737548828125
2034;131.37330627441406
2035;131.24937438964844
2036;131.1255340576172
2037;131.0018310546875
2038;130.87818908691406
2039;130.75466918945312
2040;130.6312713623047
2041;130.5079803466797
2042;130.38478088378906
2043;130.26168823242188
2044;130.1387481689453
2045;130.015869140625
2046;129.89309692382812
2047;129.77047729492188
2048;129.64791870117188
2049;129.5254669189453
2050;129.4031524658203
2051;129.28094482421875
2052;129.1588134765625
2053;129.0367889404297
2054;128.91488647460938
2055;128.7930908203125
2056;128.67135620117188
2057;128.54981994628906
2058;128.42831420898438
2059;128.3069610595703
2060;128.18568420410156
2061;128.06451416015625
2062;127.94347381591797
2063;127.82252502441406
2064;127.70169830322266
2065;127.58094787597656
2066;127.46031188964844
2067;127.33979034423828
2068;127.21937561035156
2069;127.0990219116211
2070;126.97884368896484
2071;126.85874938964844
2072;126.73872375488281
2073;126.61884307861328
2074;126.49906158447266
2075;126.37940216064453
2076;126.25982666015625
2077;126.14033508300781
2078;126.02103424072266
2079;125.90174865722656
2080;125.78257751464844
2081;125.66355895996094
2082;125.54461669921875
2083;125.42578125
2084;125.30706024169922
2085;125.18843078613281
2086;125.06990814208984
2087;124.95149230957031
2088;124.83316802978516
2089;124.7149658203125
2090;124.59686279296875
2091;124.4788818359375
2092;124.36094665527344
2093;124.24317932128906
2094;124.12552642822266
2095;124.00789642333984
2096;123.89043426513672
2097;123.7730712890625
2098;123.65577697753906
2099;123.53861999511719
2100;123.4216079711914
2101;123.30463409423828
2102;123.18775939941406
2103;123.07102966308594
2104;122.95438385009766
2105;122.83783721923828
2106;122.72142028808594
2107;122.60509490966797
2108;122.48887634277344
2109;122.37274169921875
2110;122.2567138671875
2111;122.14080047607422
2112;122.02496337890625
2113;121.90926361083984
2114;121.79363250732422
2115;121.67813873291016
2116;121.562744140625
2117;121.44744110107422
2118;121.33222198486328
2119;121.21715545654297
2120;121.10215759277344
2121;120.98725891113281
2122;120.87247467041016
2123;120.75779724121094
2124;120.64323425292969
2125;120.52873992919922
2126;120.41436767578125
2127;120.3000717163086
2128;120.18590545654297
2129;120.07183837890625
2130;119.95790100097656
2131;119.84403991699219
2132;119.73027038574219
2133;119.61659240722656
2134;119.5030288696289
2135;119.38959503173828
2136;119.27622985839844
2137;119.16295623779297
2138;119.04981231689453
2139;118.93678283691406
2140;118.8238525390625
2141;118.71100616455078
2142;118.59822845458984
2143;118.4856185913086
2144;118.37308502197266
2145;118.2606201171875
2146;118.14827728271484
2147;118.03607940673828
2148;117.92391204833984
2149;117.81188201904297
2150;117.69995880126953
2151;117.58808898925781
2152;117.47635650634766
2153;117.36475372314453
2154;117.25322723388672
2155;117.14179229736328
2156;117.03047943115234
2157;116.91925811767578
2158;116.80810546875
2159;116.6971206665039
2160;116.58617401123047
2161;116.475341796875
2162;116.3646240234375
2163;116.2540283203125
2164;116.14350128173828
2165;116.03306579589844
2166;115.9227523803711
2167;115.8125228881836
2168;115.70238494873047
2169;115.59236907958984
2170;115.48243713378906
2171;115.37263488769531
2172;115.26292419433594
2173;115.15326690673828
2174;115.04375457763672
2175;114.934326171875
2176;114.82500457763672
2177;114.71578216552734
2178;114.60669708251953
2179;114.4976577758789
2180;114.38871002197266
2181;114.27991485595703
2182;114.17118072509766
2183;114.06256103515625
2184;113.95404052734375
2185;113.84561920166016
2186;113.73728942871094
2187;113.6290512084961
2188;113.52091979980469
2189;113.41287994384766
2190;113.304931640625
2191;113.19713592529297
2192;113.0893783569336
2193;112.98175811767578
2194;112.87422180175781
2195;112.76676940917969
2196;112.65943908691406
2197;112.55217742919922
2198;112.44505310058594
2199;112.33800506591797
2200;112.2310791015625
2201;112.12421417236328
2202;112.0174560546875
2203;111.91083526611328
2204;111.80424499511719
2205;111.6977767944336
2206;111.59144592285156
2207;111.4852066040039
2208;111.37903594970703
2209;111.2729721069336
2210;111.16700744628906
2211;111.06111907958984
2212;110.95536041259766
2213;110.84967803955078
2214;110.74409484863281
2215;110.63863372802734
2216;110.53325653076172
2217;110.42797088623047
2218;110.32279205322266
2219;110.21770477294922
2220;110.11268615722656
2221;110.00780487060547
2222;109.90302276611328
2223;109.79833221435547
2224;109.69371032714844
2225;109.5892333984375
2226;109.48479461669922
2227;109.38050842285156
2228;109.27629089355469
2229;109.17217254638672
2230;109.06816864013672
2231;108.96424102783203
2232;108.86041259765625
2233;108.75666046142578
2234;108.65302276611328
2235;108.54950714111328
2236;108.446044921875
2237;108.34271240234375
2238;108.23948669433594
2239;108.13630676269531
2240;108.03324127197266
2241;107.9302978515625
2242;107.8274154663086
2243;107.72467803955078
2244;107.62200164794922
2245;107.5194091796875
2246;107.41693878173828
2247;107.31453704833984
2248;107.2122573852539
2249;107.11004638671875
2250;107.00794219970703
2251;106.90595245361328
2252;106.8040542602539
2253;106.70221710205078
2254;106.60050964355469
2255;106.49891662597656
2256;106.3973617553711
2257;106.2959213256836
2258;106.19459533691406
2259;106.09336853027344
2260;105.99220275878906
2261;105.89116668701172
2262;105.79019927978516
2263;105.68933868408203
2264;105.58858489990234
2265;105.48789978027344
2266;105.38734436035156
2267;105.286865234375
2268;105.18645477294922
2269;105.086181640625
2270;104.98601531982422
2271;104.88587951660156
2272;104.78588104248047
2273;104.68598175048828
2274;104.58614349365234
2275;104.48643493652344
2276;104.38677978515625
2277;104.2872543334961
2278;104.18779754638672
2279;104.08843231201172
2280;103.98918914794922
2281;103.89002990722656
2282;103.79093170166016
2283;103.69197845458984
2284;103.59310150146484
2285;103.49431610107422
2286;103.39561462402344
2287;103.2969970703125
2288;103.19850158691406
2289;103.10008239746094
2290;103.00177764892578
2291;102.90351867675781
2292;102.80541229248047
2293;102.70733642578125
2294;102.60938262939453
2295;102.51154327392578
2296;102.41378021240234
2297;102.31612396240234
2298;102.21857452392578
2299;102.12108612060547
2300;102.02369689941406
2301;101.92640686035156
2302;101.8292236328125
2303;101.73207092285156
2304;101.63506317138672
2305;101.53813171386719
2306;101.44129943847656
2307;101.34456634521484
2308;101.24790954589844
2309;101.1513442993164
2310;101.05489349365234
2311;100.95851135253906
2312;100.86225128173828
2313;100.76602935791016
2314;100.66996002197266
2315;100.57396697998047
2316;100.47804260253906
2317;100.3822250366211
2318;100.2865219116211
2319;100.19087219238281
2320;100.09532928466797
2321;99.99986267089844
2322;99.9045181274414
2323;99.80924224853516
2324;99.71405029296875
2325;99.6189956665039
2326;99.52398681640625
2327;99.42909240722656
2328;99.33428192138672
2329;99.23955535888672
2330;99.1449203491211
2331;99.05036926269531
2332;98.95594787597656
2333;98.86157989501953
2334;98.767333984375
2335;98.67314147949219
2336;98.57906341552734
2337;98.48506927490234
2338;98.39116668701172
2339;98.29734802246094
2340;98.2036361694336
2341;98.10999298095703
2342;98.01649475097656
2343;97.92302703857422
2344;97.82967376708984
2345;97.73639678955078
2346;97.64322662353516
2347;97.55013275146484
2348;97.45710754394531
2349;97.36421203613281
2350;97.27141571044922
2351;97.17869567871094
2352;97.08605194091797
2353;96.99348449707031
2354;96.90106201171875
2355;96.80867767333984
2356;96.71642303466797
2357;96.62422943115234
2358;96.53214263916016
2359;96.44011688232422
2360;96.34819793701172
2361;96.25640106201172
2362;96.1646499633789
2363;96.07300567626953
2364;95.98143005371094
2365;95.88997650146484
2366;95.79859161376953
2367;95.70731353759766
2368;95.61610412597656
2369;95.52500915527344
2370;95.43397521972656
2371;95.3430404663086
2372;95.25221252441406
2373;95.16144561767578
2374;95.07078552246094
2375;94.98018646240234
2376;94.88969421386719
2377;94.79930877685547
2378;94.70899963378906
2379;94.61878204345703
2380;94.52862548828125
2381;94.43858337402344
2382;94.3486328125
2383;94.2587661743164
2384;94.16898345947266
2385;94.07927703857422
2386;93.98969268798828
2387;93.90015411376953
2388;93.81073760986328
2389;93.7214126586914
2390;93.63214111328125
2391;93.54296112060547
2392;93.45389556884766
2393;93.36493682861328
2394;93.27603912353516
2395;93.18719482421875
2396;93.09844970703125
2397;93.00983428955078
2398;92.9212646484375
2399;92.83280944824219
2400;92.74444580078125
2401;92.6561508178711
2402;92.56794738769531
2403;92.4798355102539
2404;92.3918228149414
2405;92.3038558959961
2406;92.21602630615234
2407;92.12824249267578
2408;92.04060363769531
2409;91.95298767089844
2410;91.86548614501953
2411;91.77808380126953
2412;91.69074249267578
2413;91.60350799560547
2414;91.516357421875
2415;91.42928314208984
2416;91.34230041503906
2417;91.25540924072266
2418;91.1685791015625
2419;91.08187103271484
2420;90.99524688720703
2421;90.9086685180664
2422;90.82221221923828
2423;90.7358169555664
2424;90.64954376220703
2425;90.56333923339844
2426;90.47724151611328
2427;90.39118957519531
2428;90.30524444580078
2429;90.21939849853516
2430;90.13362121582031
2431;90.04792785644531
2432;89.96233367919922
2433;89.87681579589844
2434;89.7913818359375
2435;89.7060317993164
2436;89.62077331542969
2437;89.5356216430664
2438;89.45052337646484
2439;89.36548614501953
2440;89.28059387207031
2441;89.19578552246094
2442;89.11100769042969
2443;89.0263442993164
2444;88.94176483154297
2445;88.85726165771484
2446;88.77287292480469
2447;88.6885757446289
2448;88.60430908203125
2449;88.52014923095703
2450;88.43610382080078
2451;88.35213470458984
2452;88.26822662353516
2453;88.18441009521484
2454;88.1006851196289
2455;88.01704406738281
2456;87.93348693847656
2457;87.8499984741211
2458;87.76663970947266
2459;87.68331146240234
2460;87.60010528564453
2461;87.51695251464844
2462;87.43391418457031
2463;87.3509521484375
2464;87.26802825927734
2465;87.18522644042969
2466;87.10252380371094
2467;87.01991271972656
2468;86.9373550415039
2469;86.85487365722656
2470;86.77252197265625
2471;86.69020080566406
2472;86.60799407958984
2473;86.52587890625
2474;86.44380950927734
2475;86.3618392944336
2476;86.27997589111328
2477;86.19817352294922
2478;86.1164779663086
2479;86.03483581542969
2480;85.95326232910156
2481;85.87181854248047
2482;85.79044342041016
2483;85.70915985107422
2484;85.62794494628906
2485;85.54680633544922
2486;85.46576690673828
2487;85.3847885131836
2488;85.30391693115234
2489;85.22309875488281
2490;85.14241027832031
2491;85.061767578125
2492;84.98121643066406
2493;84.90074157714844
2494;84.82035827636719
2495;84.74006652832031
2496;84.65984344482422
2497;84.57970428466797
2498;84.49964904785156
2499;84.41966247558594
2500;84.33979034423828
2501;84.25995635986328
2502;84.18024444580078
2503;84.10059356689453
2504;84.0210189819336
2505;83.94156646728516
2506;83.86217498779297
2507;83.78285217285156
2508;83.70360565185547
2509;83.62445831298828
2510;83.54537200927734
2511;83.46639251708984
2512;83.38748931884766
2513;83.30866241455078
2514;83.22992706298828
2515;83.1512451171875
2516;83.07268524169922
2517;82.99417877197266
2518;82.915771484375
2519;82.83740234375
2520;82.7591781616211
2521;82.68098449707031
2522;82.6029052734375
2523;82.52488708496094
2524;82.44696807861328
2525;82.36910247802734
2526;82.29132843017578
2527;82.21366119384766
2528;82.13603973388672
2529;82.05853271484375
2530;81.98108673095703
2531;81.90369415283203
2532;81.826416015625
2533;81.74921417236328
2534;81.67210388183594
2535;81.59504699707031
2536;81.51807403564453
2537;81.4411849975586
2538;81.3643798828125
2539;81.28767395019531
2540;81.21102142333984
2541;81.13446807861328
2542;81.05797576904297
2543;80.9815902709961
2544;80.90525817871094
2545;80.82902526855469
2546;80.75286102294922
2547;80.67679595947266
2548;80.60078430175781
2549;80.52485656738281
2550;80.44901275634766
2551;80.37323760986328
2552;80.2975845336914
2553;80.2219467163086
2554;80.14643096923828
2555;80.07097625732422
2556;79.99560546875
2557;79.92032623291016
2558;79.8451156616211
2559;79.76998138427734
2560;79.6949462890625
2561;79.61995697021484
2562;79.54508209228516
2563;79.47026062011719
2564;79.39554595947266
2565;79.32086944580078
2566;79.24629974365234
2567;79.17181396484375
2568;79.09739685058594
2569;79.0230484008789
2570;78.94878387451172
2571;78.87459564208984
2572;78.8005142211914
2573;78.72648620605469
2574;78.65254974365234
2575;78.57865905761719
2576;78.50486755371094
2577;78.4311752319336
2578;78.3575439453125
2579;78.28399658203125
2580;78.21051025390625
2581;78.1371078491211
2582;78.06378173828125
2583;77.99055480957031
2584;77.91737365722656
2585;77.84431457519531
2586;77.77130126953125
2587;77.69834899902344
2588;77.62549591064453
2589;77.55272674560547
2590;77.48003387451172
2591;77.40743255615234
2592;77.33487701416016
2593;77.26240539550781
2594;77.19002532958984
2595;77.1176986694336
2596;77.04547882080078
2597;76.97332763671875
2598;76.9012451171875
2599;76.82923889160156
2600;76.75732421875
2601;76.68547058105469
2602;76.61370086669922
2603;76.54203033447266
2604;76.47039031982422
2605;76.39887237548828
2606;76.32737731933594
2607;76.2560043334961
2608;76.18470764160156
2609;76.11348724365234
2610;76.04231262207031
2611;75.97122955322266
2612;75.90025329589844
2613;75.8293228149414
2614;75.75846099853516
2615;75.68769073486328
2616;75.61701202392578
2617;75.54637145996094
2618;75.47581481933594
2619;75.40535736083984
2620;75.33497619628906
2621;75.26465606689453
2622;75.19441986083984
2623;75.12425231933594
2624;75.05414581298828
2625;74.9841537475586
2626;74.91423034667969
2627;74.84435272216797
2628;74.77457427978516
2629;74.7048568725586
2630;74.63523864746094
2631;74.565673828125
2632;74.49620819091797
2633;74.42680358886719
2634;74.35746002197266
2635;74.28820037841797
2636;74.21903228759766
2637;74.14991760253906
2638;74.08087921142578
2639;74.01192474365234
2640;73.94304656982422
2641;73.87425231933594
2642;73.80553436279297
2643;73.73687744140625
2644;73.66828155517578
2645;73.59978485107422
2646;73.5313720703125
2647;73.4629898071289
2648;73.39471435546875
2649;73.32649993896484
2650;73.25836944580078
2651;73.19031524658203
2652;73.12234497070312
2653;73.054443359375
2654;72.98658752441406
2655;72.91883087158203
2656;72.85115051269531
2657;72.78353118896484
2658;72.71599578857422
2659;72.64855194091797
2660;72.5811538696289
2661;72.51383972167969
2662;72.44660186767578
2663;72.37943267822266
2664;72.31233978271484
2665;72.2453384399414
2666;72.17839050292969
2667;72.11151123046875
2668;72.04472351074219
2669;71.9780044555664
2670;71.91133880615234
2671;71.84476470947266
2672;71.77826690673828
2673;71.71185302734375
2674;71.6454849243164
2675;71.57921600341797
2676;71.51297760009766
2677;71.44685363769531
2678;71.38079833984375
2679;71.31481170654297
2680;71.24889373779297
2681;71.18303680419922
2682;71.11726379394531
2683;71.05158996582031
2684;70.98595428466797
2685;70.92040252685547
2686;70.85491943359375
2687;70.78951263427734
2688;70.72419738769531
2689;70.65892791748047
2690;70.59374237060547
2691;70.52861785888672
2692;70.46356964111328
2693;70.39862823486328
2694;70.33370971679688
2695;70.26887512207031
2696;70.2041244506836
2697;70.13945770263672
2698;70.0748519897461
2699;70.01030731201172
2700;69.94585418701172
2701;69.88146209716797
2702;69.81713104248047
2703;69.75287628173828
2704;69.68871307373047
2705;69.62458801269531
2706;69.5605697631836
2707;69.49662017822266
2708;69.43273162841797
2709;69.36890411376953
2710;69.30516815185547
2711;69.24149322509766
2712;69.17786407470703
2713;69.11433410644531
2714;69.05088806152344
2715;68.98748779296875
2716;68.9241714477539
2717;68.86093139648438
2718;68.79776763916016
2719;68.73466491699219
2720;68.671630859375
2721;68.6086654663086
2722;68.54576873779297
2723;68.4829330444336
2724;68.42021179199219
2725;68.35752868652344
2726;68.29491424560547
2727;68.2323989868164
2728;68.169921875
2729;68.10752868652344
2730;68.04521942138672
2731;67.98294830322266
2732;67.92076873779297
2733;67.85865783691406
2734;67.7966079711914
2735;67.73464965820312
2736;67.6727294921875
2737;67.61090850830078
2738;67.54915618896484
2739;67.48747253417969
2740;67.42583465576172
2741;67.36427307128906
2742;67.30280303955078
2743;67.24140167236328
2744;67.18004608154297
2745;67.1187744140625
2746;67.05757904052734
2747;66.9964370727539
2748;66.93537139892578
2749;66.87438201904297
2750;66.8134536743164
2751;66.75261688232422
2752;66.69183349609375
2753;66.63111114501953
2754;66.57048797607422
2755;66.50989532470703
2756;66.44940185546875
2757;66.38896942138672
2758;66.32860565185547
2759;66.268310546875
2760;66.20807647705078
2761;66.1479263305664
2762;66.08782196044922
2763;66.02781677246094
2764;65.96784210205078
2765;65.90797424316406
2766;65.84815979003906
2767;65.78841400146484
2768;65.7287368774414
2769;65.66912078857422
2770;65.60960388183594
2771;65.55012512207031
2772;65.49072265625
2773;65.43138885498047
2774;65.37211608886719
2775;65.31292724609375
2776;65.2538070678711
2777;65.19473266601562
2778;65.13573455810547
2779;65.0768051147461
2780;65.01795196533203
2781;64.95918273925781
2782;64.90045928955078
2783;64.84181213378906
2784;64.78321838378906
2785;64.7247085571289
2786;64.66624450683594
2787;64.60785675048828
2788;64.54955291748047
2789;64.4913101196289
2790;64.43317413330078
2791;64.37505340576172
2792;64.3169937133789
2793;64.259033203125
2794;64.20110321044922
2795;64.1432876586914
2796;64.08550262451172
2797;64.02782440185547
2798;63.970191955566406
2799;63.91261672973633
2800;63.85509490966797
2801;63.79765701293945
2802;63.740299224853516
2803;63.68299102783203
2804;63.62576675415039
2805;63.568603515625
2806;63.511497497558594
2807;63.45446014404297
2808;63.39748764038086
2809;63.340579986572266
2810;63.283775329589844
2811;63.22700881958008
2812;63.170291900634766
2813;63.11368942260742
2814;63.0571174621582
2815;63.00060272216797
2816;62.94417953491211
2817;62.88779830932617
2818;62.83150863647461
2819;62.7752685546875
2820;62.719112396240234
2821;62.663002014160156
2822;62.606956481933594
2823;62.55099105834961
2824;62.49509811401367
2825;62.43925094604492
2826;62.38348388671875
2827;62.327781677246094
2828;62.27213668823242
2829;62.2165641784668
2830;62.16106414794922
2831;62.10560989379883
2832;62.05023956298828
2833;61.99491500854492
2834;61.93968963623047
2835;61.88451385498047
2836;61.82939529418945
2837;61.774349212646484
2838;61.719356536865234
2839;61.664432525634766
2840;61.60956573486328
2841;61.5548095703125
2842;61.50006103515625
2843;61.445404052734375
2844;61.39082717895508
2845;61.33626937866211
2846;61.28182601928711
2847;61.2274169921875
2848;61.173095703125
2849;61.11882400512695
2850;61.06460952758789
2851;61.01049041748047
2852;60.95640182495117
2853;60.90238571166992
2854;60.84846878051758
2855;60.79458999633789
2856;60.740779876708984
2857;60.6870231628418
2858;60.633323669433594
2859;60.57969284057617
2860;60.526145935058594
2861;60.4726448059082
2862;60.41922378540039
2863;60.36585235595703
2864;60.31256103515625
2865;60.25931167602539
2866;60.20614242553711
2867;60.153038024902344
2868;60.09999465942383
2869;60.0470085144043
2870;59.99408721923828
2871;59.94124984741211
2872;59.88843536376953
2873;59.835716247558594
2874;59.78305435180664
2875;59.73044967651367
2876;59.67791748046875
2877;59.62543869018555
2878;59.57303237915039
2879;59.520713806152344
2880;59.46841049194336
2881;59.41619110107422
2882;59.36404037475586
2883;59.31194305419922
2884;59.259910583496094
2885;59.20794677734375
2886;59.156044006347656
2887;59.10420608520508
2888;59.052425384521484
2889;59.00069808959961
2890;58.94906234741211
2891;58.8974609375
2892;58.84593963623047
2893;58.79448699951172
2894;58.74308395385742
2895;58.69173812866211
2896;58.64046859741211
2897;58.5892448425293
2898;58.53810501098633
2899;58.48700714111328
2900;58.43599319458008
2901;58.385009765625
2902;58.33412551879883
2903;58.28329086303711
2904;58.23250198364258
2905;58.18179702758789
2906;58.131134033203125
2907;58.08055877685547
2908;58.03002166748047
2909;57.97956085205078
2910;57.92914962768555
2911;57.878814697265625
2912;57.82853317260742
2913;57.7783088684082
2914;57.7281608581543
2915;57.678062438964844
2916;57.62802505493164
2917;57.578041076660156
2918;57.52814865112305
2919;57.478275299072266
2920;57.42849349975586
2921;57.37877655029297
2922;57.32910919189453
2923;57.27951431274414
2924;57.22996139526367
2925;57.180477142333984
2926;57.13106155395508
2927;57.081695556640625
2928;57.03239059448242
2929;56.983154296875
2930;56.9339714050293
2931;56.88486099243164
2932;56.83580780029297
2933;56.78682327270508
2934;56.73788070678711
2935;56.689002990722656
2936;56.64019775390625
2937;56.5914306640625
2938;56.54275894165039
2939;56.494117736816406
2940;56.44556427001953
2941;56.39704513549805
2942;56.348602294921875
2943;56.30020523071289
2944;56.25188446044922
2945;56.20361328125
2946;56.155399322509766
2947;56.10725021362305
2948;56.05916976928711
2949;56.01115036010742
2950;55.96317672729492
2951;55.915283203125
2952;55.86742401123047
2953;55.819637298583984
2954;55.77190017700195
2955;55.72421646118164
2956;55.6766242980957
2957;55.629085540771484
2958;55.58160400390625
2959;55.534156799316406
2960;55.48679733276367
2961;55.439483642578125
2962;55.39223098754883
2963;55.34502410888672
2964;55.297889709472656
2965;55.25083541870117
2966;55.203819274902344
2967;55.1568717956543
2968;55.10997772216797
2969;55.06312942504883
2970;55.01633834838867
2971;54.969635009765625
2972;54.9229736328125
2973;54.87637710571289
2974;54.82982635498047
2975;54.78335189819336
2976;54.7369270324707
2977;54.690574645996094
2978;54.644256591796875
2979;54.59801483154297
2980;54.55181884765625
2981;54.50568771362305
2982;54.45961380004883
2983;54.41360092163086
2984;54.367652893066406
2985;54.32175064086914
2986;54.27591323852539
2987;54.23012924194336
2988;54.18441390991211
2989;54.138736724853516
2990;54.0931396484375
2991;54.04759979248047
2992;54.002105712890625
2993;53.9566650390625
2994;53.91129684448242
2995;53.865966796875
2996;53.820716857910156
2997;53.7755126953125
2998;53.73038101196289
2999;53.685298919677734
