;loss
0;888.9725952148438
1;888.684814453125
2;888.298095703125
3;887.911376953125
4;887.5244750976562
5;887.1376342773438
6;886.7506103515625
7;886.3714599609375
8;885.9840087890625
9;885.5996704101562
10;885.211669921875
11;884.8236694335938
12;884.4342041015625
13;884.0445556640625
14;883.6544799804688
15;883.2611694335938
16;882.8696899414062
17;882.4773559570312
18;882.0806274414062
19;881.6826171875
20;881.2875366210938
21;880.8871459960938
22;880.4853515625
23;880.08203125
24;879.6773681640625
25;879.2710571289062
26;878.8630981445312
27;878.4533081054688
28;878.0415649414062
29;877.6326293945312
30;877.2166137695312
31;876.8032836914062
32;876.382568359375
33;875.9591674804688
34;875.5330200195312
35;875.1041259765625
36;874.672119140625
37;874.237060546875
38;873.798583984375
39;873.361328125
40;872.920654296875
41;872.4714965820312
42;872.0230712890625
43;871.566162109375
44;871.1051025390625
45;870.6443481445312
46;870.1746215820312
47;869.7050170898438
48;869.2261352539062
49;868.7425537109375
50;868.25390625
51;867.7647094726562
52;867.2659912109375
53;866.76171875
54;866.252197265625
55;865.7367553710938
56;865.2157592773438
57;864.6886596679688
58;864.1554565429688
59;863.6203002929688
60;863.0744018554688
61;862.5220336914062
62;861.962890625
63;861.396728515625
64;860.827880859375
65;860.2515869140625
66;859.6638793945312
67;859.0726318359375
68;858.4692993164062
69;857.8578491210938
70;857.2423706054688
71;856.6183471679688
72;855.9813842773438
73;855.3355712890625
74;854.6802368164062
75;854.015625
76;853.3412475585938
77;852.6611328125
78;851.9667358398438
79;851.265869140625
80;850.5542602539062
81;849.8270874023438
82;849.0928344726562
83;848.3467407226562
84;847.588623046875
85;846.818115234375
86;846.0303344726562
87;845.233642578125
88;844.423583984375
89;843.5949096679688
90;842.751953125
91;841.8941040039062
92;841.0208740234375
93;840.1318359375
94;839.2265014648438
95;838.3041381835938
96;837.3687744140625
97;836.4154663085938
98;835.4431762695312
99;834.447021484375
100;833.4306640625
101;832.398193359375
102;831.3442993164062
103;830.2681274414062
104;829.1638793945312
105;828.0355224609375
106;826.882080078125
107;825.7078247070312
108;824.5064086914062
109;823.2713012695312
110;822.007080078125
111;820.7123413085938
112;819.385986328125
113;818.0322875976562
114;816.6388549804688
115;815.215576171875
116;813.7494506835938
117;812.244873046875
118;810.7059936523438
119;809.1251831054688
120;807.4951171875
121;805.8267211914062
122;804.1048583984375
123;802.334716796875
124;800.5137329101562
125;798.6475219726562
126;796.7271118164062
127;794.7433471679688
128;792.7093505859375
129;790.6079711914062
130;788.444091796875
131;786.2236328125
132;783.936767578125
133;781.5822143554688
134;779.157470703125
135;776.6603393554688
136;774.088623046875
137;771.4413452148438
138;768.7066650390625
139;765.9017944335938
140;763.0072631835938
141;760.0314331054688
142;756.9736328125
143;753.8432006835938
144;750.6309204101562
145;747.3275146484375
146;743.9552612304688
147;740.5060424804688
148;736.9713134765625
149;733.3653564453125
150;729.6920166015625
151;725.9679565429688
152;722.1765747070312
153;718.3372192382812
154;714.4692993164062
155;710.55859375
156;706.6259155273438
157;702.684814453125
158;698.7590942382812
159;694.8455200195312
160;690.944580078125
161;687.0765380859375
162;683.251708984375
163;679.4939575195312
164;675.8080444335938
165;672.1900024414062
166;668.6636352539062
167;665.2288818359375
168;661.8779907226562
169;658.631591796875
170;655.50390625
171;652.4708251953125
172;649.545166015625
173;646.7313842773438
174;644.0314331054688
175;641.427001953125
176;638.9351806640625
177;636.5545043945312
178;634.279052734375
179;632.0972290039062
180;630.0126953125
181;628.0123291015625
182;626.0834350585938
183;624.228515625
184;622.4476318359375
185;620.7290649414062
186;619.0753784179688
187;617.4808959960938
188;615.9414672851562
189;614.455810546875
190;613.0199584960938
191;611.632568359375
192;610.288818359375
193;608.9898681640625
194;607.7318115234375
195;606.5093383789062
196;605.3162231445312
197;604.1554565429688
198;603.0210571289062
199;601.9129028320312
200;600.8291625976562
201;599.7710571289062
202;598.7318725585938
203;597.7134399414062
204;596.7139892578125
205;595.732177734375
206;594.7666625976562
207;593.8163452148438
208;592.8828125
209;591.9605712890625
210;591.0509033203125
211;590.1532592773438
212;589.2669677734375
213;588.3916625976562
214;587.5267944335938
215;586.6718139648438
216;585.8280639648438
217;584.9915161132812
218;584.1636962890625
219;583.3442993164062
220;582.5349731445312
221;581.7319946289062
222;580.9380493164062
223;580.149658203125
224;579.3679809570312
225;578.5944213867188
226;577.82568359375
227;577.0631103515625
228;576.3079223632812
229;575.5570678710938
230;574.8118896484375
231;574.073486328125
232;573.3403930664062
233;572.6123046875
234;571.8890991210938
235;571.170654296875
236;570.4554443359375
237;569.7447509765625
238;569.0399169921875
239;568.3392944335938
240;567.6429443359375
241;566.9506225585938
242;566.2622680664062
243;565.5765991210938
244;564.8948974609375
245;564.217041015625
246;563.5429077148438
247;562.8724975585938
248;562.2056274414062
249;561.5433959960938
250;560.884521484375
251;560.2277221679688
252;559.57421875
253;558.9252319335938
254;558.2781982421875
255;557.6353149414062
256;556.9942626953125
257;556.3573608398438
258;555.7221069335938
259;555.0896606445312
260;554.4611206054688
261;553.8341064453125
262;553.2097778320312
263;552.5883178710938
264;551.970458984375
265;551.3550415039062
266;550.7412109375
267;550.1298217773438
268;549.5206909179688
269;548.9140625
270;548.3106689453125
271;547.708740234375
272;547.10986328125
273;546.512451171875
274;545.9182739257812
275;545.325439453125
276;544.73486328125
277;544.1464233398438
278;543.5599975585938
279;542.9756469726562
280;542.3934936523438
281;541.8145751953125
282;541.2377319335938
283;540.6620483398438
284;540.08837890625
285;539.5166015625
286;538.9465942382812
287;538.3785400390625
288;537.812255859375
289;537.2485961914062
290;536.6867065429688
291;536.1265258789062
292;535.5680541992188
293;535.0111694335938
294;534.4560546875
295;533.9025268554688
296;533.3497314453125
297;532.798583984375
298;532.249755859375
299;531.7017211914062
300;531.1552124023438
301;530.611083984375
302;530.0675659179688
303;529.5255737304688
304;528.9850463867188
305;528.4467163085938
306;527.9097900390625
307;527.3736572265625
308;526.8388061523438
309;526.3062133789062
310;525.7748413085938
311;525.2449340820312
312;524.715576171875
313;524.188232421875
314;523.6622924804688
315;523.1376342773438
316;522.6141967773438
317;522.092041015625
318;521.5711669921875
319;521.0516357421875
320;520.5333862304688
321;520.0156860351562
322;519.499267578125
323;518.9848022460938
324;518.4708251953125
325;517.9581909179688
326;517.4473876953125
327;516.9371948242188
328;516.42822265625
329;515.9203491210938
330;515.4142456054688
331;514.9093627929688
332;514.405517578125
333;513.9021606445312
334;513.3998413085938
335;512.8985595703125
336;512.3984375
337;511.8999938964844
338;511.4019775390625
339;510.9049987792969
340;510.4096374511719
341;509.9152526855469
342;509.4219055175781
343;508.92901611328125
344;508.43768310546875
345;507.9472961425781
346;507.4579772949219
347;506.96954345703125
348;506.48223876953125
349;505.99578857421875
350;505.5103759765625
351;505.0252990722656
352;504.5411376953125
353;504.0585021972656
354;503.5767822265625
355;503.0959777832031
356;502.6155090332031
357;502.1364440917969
358;501.65838623046875
359;501.18048095703125
360;500.70361328125
361;500.2281494140625
362;499.7535400390625
363;499.27978515625
364;498.80694580078125
365;498.3349304199219
366;497.86309814453125
367;497.3923645019531
368;496.9228820800781
369;496.45379638671875
370;495.98553466796875
371;495.5180358886719
372;495.0513916015625
373;494.5860290527344
374;494.1214599609375
375;493.6577453613281
376;493.1947937011719
377;492.7325439453125
378;492.27117919921875
379;491.810546875
380;491.35076904296875
381;490.8917236328125
382;490.4335632324219
383;489.9760437011719
384;489.5188293457031
385;489.0628662109375
386;488.60711669921875
387;488.1520690917969
388;487.6978454589844
389;487.2442626953125
390;486.7914733886719
391;486.3398132324219
392;485.8883972167969
393;485.4378662109375
394;484.9879150390625
395;484.5387878417969
396;484.09033203125
397;483.6426086425781
398;483.1956787109375
399;482.7498779296875
400;482.3042907714844
401;481.85986328125
402;481.4156494140625
403;480.9721984863281
404;480.5293884277344
405;480.08721923828125
406;479.6458740234375
407;479.20556640625
408;478.7655944824219
409;478.32666015625
410;477.88800048828125
411;477.4499816894531
412;477.0126647949219
413;476.5764465332031
414;476.1407470703125
415;475.70574951171875
416;475.2708740234375
417;474.8371887207031
418;474.40411376953125
419;473.9717102050781
420;473.5399169921875
421;473.1083679199219
422;472.6773681640625
423;472.2475280761719
424;471.8177795410156
425;471.38916015625
426;470.9605712890625
427;470.53271484375
428;470.1053466796875
429;469.6786193847656
430;469.2525329589844
431;468.82733154296875
432;468.4022521972656
433;467.9778137207031
434;467.5539245605469
435;467.1305847167969
436;466.70831298828125
437;466.2865905761719
438;465.8653259277344
439;465.4443054199219
440;465.02423095703125
441;464.6047668457031
442;464.1854248046875
443;463.7670593261719
444;463.3492126464844
445;462.9316101074219
446;462.5147705078125
447;462.0986328125
448;461.6829833984375
449;461.26788330078125
450;460.85333251953125
451;460.4394226074219
452;460.02587890625
453;459.61297607421875
454;459.2001953125
455;458.78790283203125
456;458.3765869140625
457;457.9653625488281
458;457.5547790527344
459;457.1446228027344
460;456.7352294921875
461;456.3261413574219
462;455.9174499511719
463;455.5093078613281
464;455.1016540527344
465;454.6944274902344
466;454.2876892089844
467;453.8818664550781
468;453.4764709472656
469;453.0716552734375
470;452.6669921875
471;452.2630920410156
472;451.8592834472656
473;451.4564208984375
474;451.0535888671875
475;450.65167236328125
476;450.25018310546875
477;449.84881591796875
478;449.4478759765625
479;449.0478210449219
480;448.6479187011719
481;448.2486572265625
482;447.8496398925781
483;447.4511413574219
484;447.0532531738281
485;446.6560363769531
486;446.25909423828125
487;445.8623962402344
488;445.4660949707031
489;445.0703125
490;444.67498779296875
491;444.2803955078125
492;443.88623046875
493;443.4922180175781
494;443.0986633300781
495;442.70587158203125
496;442.3132019042969
497;441.9212951660156
498;441.5295104980469
499;441.1384582519531
500;440.74786376953125
501;440.3576965332031
502;439.9676513671875
503;439.5783996582031
504;439.1891784667969
505;438.8007507324219
506;438.4127197265625
507;438.0248107910156
508;437.6373291015625
509;437.2502746582031
510;436.86395263671875
511;436.4779968261719
512;436.0924987792969
513;435.7074279785156
514;435.32244873046875
515;434.9379577636719
516;434.55401611328125
517;434.1703796386719
518;433.7873229980469
519;433.4043884277344
520;433.02215576171875
521;432.64031982421875
522;432.2586669921875
523;431.87762451171875
524;431.4970703125
525;431.1166076660156
526;430.7368469238281
527;430.3571472167969
528;429.9779052734375
529;429.59930419921875
530;429.22088623046875
531;428.8427734375
532;428.4650573730469
533;428.0877990722656
534;427.71124267578125
535;427.3346862792969
536;426.9586181640625
537;426.5830078125
538;426.2079162597656
539;425.8330078125
540;425.4587097167969
541;425.0845642089844
542;424.71112060546875
543;424.33770751953125
544;423.9647216796875
545;423.5920715332031
546;423.2198181152344
547;422.8482360839844
548;422.4770202636719
549;422.10614013671875
550;421.7353515625
551;421.365234375
552;420.9952087402344
553;420.6258544921875
554;420.2565612792969
555;419.8876953125
556;419.5194396972656
557;419.1514892578125
558;418.7839660644531
559;418.4167785644531
560;418.0496826171875
561;417.6832275390625
562;417.3168640136719
563;416.951171875
564;416.58575439453125
565;416.220703125
566;415.8558654785156
567;415.4913024902344
568;415.1270751953125
569;414.76348876953125
570;414.4000244140625
571;414.037109375
572;413.6743469238281
573;413.3119201660156
574;412.94989013671875
575;412.5881652832031
576;412.2270202636719
577;411.8659362792969
578;411.5054931640625
579;411.14520263671875
580;410.7852478027344
581;410.42559814453125
582;410.0662841796875
583;409.7075500488281
584;409.3489990234375
585;408.9909362792969
586;408.6330261230469
587;408.2756042480469
588;407.9184265136719
589;407.5615234375
590;407.2049865722656
591;406.8487548828125
592;406.4931335449219
593;406.1375732421875
594;405.7823181152344
595;405.4274597167969
596;405.0731506347656
597;404.7189636230469
598;404.3651123046875
599;404.0118103027344
600;403.6585998535156
601;403.3057556152344
602;402.9531555175781
603;402.6010437011719
604;402.24932861328125
605;401.8978271484375
606;401.5466003417969
607;401.1958923339844
608;400.8453369140625
609;400.4950866699219
610;400.1451416015625
611;399.7958068847656
612;399.4465026855469
613;399.0975646972656
614;398.7489318847656
615;398.4008483886719
616;398.0528259277344
617;397.70538330078125
618;397.3582763671875
619;397.01123046875
620;396.6645202636719
621;396.3183898925781
622;395.9725646972656
623;395.6269836425781
624;395.28173828125
625;394.9366149902344
626;394.5918273925781
627;394.2473449707031
628;393.9033508300781
629;393.5596923828125
630;393.21630859375
631;392.8733215332031
632;392.5303649902344
633;392.1879577636719
634;391.8458251953125
635;391.5038757324219
636;391.1623840332031
637;390.82098388671875
638;390.4800109863281
639;390.1393737792969
640;389.7990417480469
641;389.4591064453125
642;389.1192626953125
643;388.7797546386719
644;388.4405212402344
645;388.1015625
646;387.7629699707031
647;387.42462158203125
648;387.0867919921875
649;386.7490539550781
650;386.4118347167969
651;386.07489013671875
652;385.73809814453125
653;385.4015808105469
654;385.0653991699219
655;384.7294921875
656;384.3939208984375
657;384.0585021972656
658;383.7235412597656
659;383.3887939453125
660;383.05438232421875
661;382.7202453613281
662;382.3864440917969
663;382.0528564453125
664;381.7196350097656
665;381.3868408203125
666;381.05419921875
667;380.72198486328125
668;380.3899230957031
669;380.0583190917969
670;379.7270202636719
671;379.39599609375
672;379.0650329589844
673;378.7344055175781
674;378.4042663574219
675;378.0741882324219
676;377.74444580078125
677;377.4150085449219
678;377.0859680175781
679;376.7572326660156
680;376.4286193847656
681;376.1004638671875
682;375.7723693847656
683;375.44464111328125
684;375.11737060546875
685;374.7901611328125
686;374.4632873535156
687;374.1366271972656
688;373.8102722167969
689;373.484375
690;373.1587829589844
691;372.8333740234375
692;372.5083923339844
693;372.18341064453125
694;371.8589172363281
695;371.5345764160156
696;371.2106628417969
697;370.8869934082031
698;370.5635986328125
699;370.2405090332031
700;369.9176940917969
701;369.5949401855469
702;369.2726745605469
703;368.9505615234375
704;368.6286315917969
705;368.3071594238281
706;367.98583984375
707;367.664794921875
708;367.3441467285156
709;367.0236511230469
710;366.70343017578125
711;366.3834533691406
712;366.0638122558594
713;365.7443542480469
714;365.42523193359375
715;365.1063232421875
716;364.7878723144531
717;364.4695129394531
718;364.15142822265625
719;363.8336486816406
720;363.51611328125
721;363.1988220214844
722;362.8819885253906
723;362.5652770996094
724;362.2488098144531
725;361.9325866699219
726;361.61669921875
727;361.3009948730469
728;360.9857482910156
729;360.6706237792969
730;360.3557434082031
731;360.0411376953125
732;359.7268371582031
733;359.4128723144531
734;359.0990905761719
735;358.7856750488281
736;358.4724426269531
737;358.1595153808594
738;357.8468933105469
739;357.5343933105469
740;357.2222900390625
741;356.9104919433594
742;356.5987548828125
743;356.28741455078125
744;355.9761962890625
745;355.6652526855469
746;355.3547668457031
747;355.0443420410156
748;354.73419189453125
749;354.4242858886719
750;354.1146240234375
751;353.8053894042969
752;353.49627685546875
753;353.1873779296875
754;352.8787841796875
755;352.5704345703125
756;352.2623291015625
757;351.9544677734375
758;351.6468505859375
759;351.3396301269531
760;351.03253173828125
761;350.725830078125
762;350.4193115234375
763;350.11297607421875
764;349.8068542480469
765;349.5011901855469
766;349.1955871582031
767;348.89044189453125
768;348.58538818359375
769;348.2806701660156
770;347.9761657714844
771;347.6718444824219
772;347.3677673339844
773;347.0640563964844
774;346.7605285644531
775;346.45721435546875
776;346.1541748046875
777;345.8514404296875
778;345.54901123046875
779;345.2467956542969
780;344.94476318359375
781;344.6429443359375
782;344.3413391113281
783;344.0400390625
784;343.7389831542969
785;343.43829345703125
786;343.1376647949219
787;342.83734130859375
788;342.5372009277344
789;342.23748779296875
790;341.9380187988281
791;341.6386413574219
792;341.3394775390625
793;341.0407409667969
794;340.74224853515625
795;340.4438781738281
796;340.14569091796875
797;339.8479309082031
798;339.5502624511719
799;339.2528381347656
800;338.95562744140625
801;338.65869140625
802;338.3620300292969
803;338.065673828125
804;337.7695007324219
805;337.4734802246094
806;337.1777648925781
807;336.88226318359375
808;336.58709716796875
809;336.2921142578125
810;335.9974365234375
811;335.7029113769531
812;335.4085693359375
813;335.1146240234375
814;334.8209228515625
815;334.52734375
816;334.2341003417969
817;333.94097900390625
818;333.6481018066406
819;333.3554382324219
820;333.0632019042969
821;332.7711181640625
822;332.4792175292969
823;332.1875305175781
824;331.8960266113281
825;331.6048278808594
826;331.3139343261719
827;331.0233154296875
828;330.7328796386719
829;330.4425964355469
830;330.1524658203125
831;329.8628234863281
832;329.5732116699219
833;329.28387451171875
834;328.99468994140625
835;328.705810546875
836;328.4171447753906
837;328.12872314453125
838;327.8405456542969
839;327.55255126953125
840;327.2648620605469
841;326.977294921875
842;326.69000244140625
843;326.40313720703125
844;326.1163330078125
845;325.8297119140625
846;325.54345703125
847;325.2572937011719
848;324.9714050292969
849;324.6857604980469
850;324.40032958984375
851;324.1150817871094
852;323.83026123046875
853;323.5455322265625
854;323.2610168457031
855;322.976806640625
856;322.6927490234375
857;322.4089660644531
858;322.12542724609375
859;321.84197998046875
860;321.5588073730469
861;321.2759094238281
862;320.9931945800781
863;320.7106628417969
864;320.42840576171875
865;320.1464538574219
866;319.8647155761719
867;319.583251953125
868;319.3019714355469
869;319.02081298828125
870;318.73992919921875
871;318.4591979980469
872;318.1788024902344
873;317.8985595703125
874;317.6185302734375
875;317.3387451171875
876;317.05914306640625
877;316.7797546386719
878;316.50067138671875
879;316.2218017578125
880;315.943115234375
881;315.66461181640625
882;315.3863525390625
883;315.1083068847656
884;314.8305969238281
885;314.5531005859375
886;314.2758483886719
887;313.998779296875
888;313.7218017578125
889;313.4450988769531
890;313.168701171875
891;312.89251708984375
892;312.61651611328125
893;312.3406982421875
894;312.0650634765625
895;311.7896728515625
896;311.5144348144531
897;311.2395935058594
898;310.9649353027344
899;310.6903991699219
900;310.4160461425781
901;310.1420593261719
902;309.8681640625
903;309.594482421875
904;309.3210144042969
905;309.0478210449219
906;308.7747497558594
907;308.5019836425781
908;308.2293701171875
909;307.9570007324219
910;307.6847839355469
911;307.4129638671875
912;307.1412048339844
913;306.8697509765625
914;306.59857177734375
915;306.3274230957031
916;306.0565490722656
917;305.7859191894531
918;305.5154724121094
919;305.2452087402344
920;304.9751892089844
921;304.7053527832031
922;304.4357604980469
923;304.1663818359375
924;303.8971862792969
925;303.6283874511719
926;303.3595886230469
927;303.0910949707031
928;302.82275390625
929;302.5547180175781
930;302.2868957519531
931;302.0191955566406
932;301.7518005371094
933;301.484619140625
934;301.2174987792969
935;300.95074462890625
936;300.6842041015625
937;300.4177551269531
938;300.1515197753906
939;299.8855285644531
940;299.6196594238281
941;299.35406494140625
942;299.0887451171875
943;298.8235778808594
944;298.5585632324219
945;298.2938232421875
946;298.02923583984375
947;297.7649230957031
948;297.50079345703125
949;297.23687744140625
950;296.9731140136719
951;296.7095642089844
952;296.4462585449219
953;296.1831359863281
954;295.9202575683594
955;295.6575012207031
956;295.3950500488281
957;295.13275146484375
958;294.8707275390625
959;294.60888671875
960;294.34722900390625
961;294.0857849121094
962;293.82452392578125
963;293.5634460449219
964;293.30255126953125
965;293.0419921875
966;292.7815246582031
967;292.5212707519531
968;292.26123046875
969;292.00146484375
970;291.7418212890625
971;291.4823913574219
972;291.2231750488281
973;290.9641418457031
974;290.7053527832031
975;290.4468078613281
976;290.1884460449219
977;289.9302978515625
978;289.6722717285156
979;289.4144592285156
980;289.1568603515625
981;288.8995361328125
982;288.6424560546875
983;288.3853759765625
984;288.12860107421875
985;287.8719787597656
986;287.6155700683594
987;287.35943603515625
988;287.1033935546875
989;286.8476257324219
990;286.5921325683594
991;286.3367004394531
992;286.0815124511719
993;285.8264465332031
994;285.57171630859375
995;285.31707763671875
996;285.0627746582031
997;284.80859375
998;284.5545349121094
999;284.3007507324219
1000;284.047119140625
1001;283.7937316894531
1002;283.5405578613281
1003;283.2875061035156
1004;283.0347900390625
1005;282.7821350097656
1006;282.5296630859375
1007;282.2774658203125
1008;282.02545166015625
1009;281.7735595703125
1010;281.5220031738281
1011;281.2705078125
1012;281.0192565917969
1013;280.7681884765625
1014;280.5173034667969
1015;280.2666015625
1016;280.0161437988281
1017;279.7658386230469
1018;279.5158386230469
1019;279.2658996582031
1020;279.0162353515625
1021;278.7667236328125
1022;278.5173645019531
1023;278.2682189941406
1024;278.0194091796875
1025;277.7706604003906
1026;277.5220947265625
1027;277.2738342285156
1028;277.0257568359375
1029;276.7778015136719
1030;276.5299987792969
1031;276.2825012207031
1032;276.0351867675781
1033;275.7879943847656
1034;275.5410461425781
1035;275.2943420410156
1036;275.04779052734375
1037;274.8013610839844
1038;274.5551452636719
1039;274.3091125488281
1040;274.06329345703125
1041;273.8175964355469
1042;273.5721740722656
1043;273.326904296875
1044;273.0818176269531
1045;272.83697509765625
1046;272.5922546386719
1047;272.3478088378906
1048;272.1035461425781
1049;271.859375
1050;271.61541748046875
1051;271.3716735839844
1052;271.12811279296875
1053;270.884765625
1054;270.6415710449219
1055;270.3985595703125
1056;270.1557312011719
1057;269.9132080078125
1058;269.6707763671875
1059;269.42852783203125
1060;269.1864929199219
1061;268.94464111328125
1062;268.7030029296875
1063;268.4615173339844
1064;268.2201843261719
1065;267.9791259765625
1066;267.7381896972656
1067;267.4974670410156
1068;267.2569580078125
1069;267.0166931152344
1070;266.7765808105469
1071;266.53656005859375
1072;266.2967529296875
1073;266.05712890625
1074;265.81768798828125
1075;265.5784912109375
1076;265.33941650390625
1077;265.1005859375
1078;264.8619079589844
1079;264.6234130859375
1080;264.38507080078125
1081;264.14697265625
1082;263.9090576171875
1083;263.6712646484375
1084;263.4336853027344
1085;263.19635009765625
1086;262.9591979980469
1087;262.7221984863281
1088;262.4853515625
1089;262.248779296875
1090;262.01239013671875
1091;261.776123046875
1092;261.5400695800781
1093;261.3042297363281
1094;261.0685729980469
1095;260.8330383300781
1096;260.59765625
1097;260.3625183105469
1098;260.12750244140625
1099;259.8927307128906
1100;259.6581726074219
1101;259.4237976074219
1102;259.18951416015625
1103;258.9554138183594
1104;258.7215576171875
1105;258.4878845214844
1106;258.2543640136719
1107;258.0210266113281
1108;257.7879638671875
1109;257.5550231933594
1110;257.32220458984375
1111;257.089599609375
1112;256.8572082519531
1113;256.625
1114;256.3929443359375
1115;256.16107177734375
1116;255.92933654785156
1117;255.6977996826172
1118;255.46644592285156
1119;255.23526000976562
1120;255.00425720214844
1121;254.7734375
1122;254.54278564453125
1123;254.3123016357422
1124;254.08203125
1125;253.85191345214844
1126;253.62196350097656
1127;253.39222717285156
1128;253.16273498535156
1129;252.933349609375
1130;252.70423889160156
1131;252.47523498535156
1132;252.24635314941406
1133;252.01766967773438
1134;251.78916931152344
1135;251.56080627441406
1136;251.33267211914062
1137;251.10475158691406
1138;250.8769989013672
1139;250.64935302734375
1140;250.42189025878906
1141;250.19464111328125
1142;249.96754455566406
1143;249.7406768798828
1144;249.51400756835938
1145;249.28744506835938
1146;249.06105041503906
1147;248.8349151611328
1148;248.60888671875
1149;248.38304138183594
1150;248.15745544433594
1151;247.9319305419922
1152;247.70660400390625
1153;247.4814453125
1154;247.25648498535156
1155;247.03167724609375
1156;246.80706787109375
1157;246.58262634277344
1158;246.3583526611328
1159;246.13427734375
1160;245.9103546142578
1161;245.68661499023438
1162;245.46307373046875
1163;245.23968505859375
1164;245.01654052734375
1165;244.79347229003906
1166;244.57061767578125
1167;244.347900390625
1168;244.12539672851562
1169;243.903076171875
1170;243.680908203125
1171;243.45889282226562
1172;243.23704528808594
1173;243.0154266357422
1174;242.79393005371094
1175;242.57257080078125
1176;242.35147094726562
1177;242.13059997558594
1178;241.90985107421875
1179;241.689208984375
1180;241.46875
1181;241.24847412109375
1182;241.0283660888672
1183;240.80848693847656
1184;240.58876037597656
1185;240.36920166015625
1186;240.14981079101562
1187;239.93060302734375
1188;239.71151733398438
1189;239.4926300048828
1190;239.2738800048828
1191;239.05532836914062
1192;238.83692932128906
1193;238.6186981201172
1194;238.40072631835938
1195;238.18280029296875
1196;237.965087890625
1197;237.74761962890625
1198;237.5302276611328
1199;237.3130340576172
1200;237.09605407714844
1201;236.8791961669922
1202;236.66250610351562
1203;236.44598388671875
1204;236.22962951660156
1205;236.01351928710938
1206;235.79750061035156
1207;235.58164978027344
1208;235.36595153808594
1209;235.15045166015625
1210;234.93516540527344
1211;234.71998596191406
1212;234.50502014160156
1213;234.29017639160156
1214;234.07553100585938
1215;233.86106872558594
1216;233.646728515625
1217;233.4326171875
1218;233.21861267089844
1219;233.00479125976562
1220;232.79112243652344
1221;232.5776824951172
1222;232.36439514160156
1223;232.15127563476562
1224;231.9382781982422
1225;231.72549438476562
1226;231.51287841796875
1227;231.30038452148438
1228;231.08802795410156
1229;230.87586975097656
1230;230.66392517089844
1231;230.4521026611328
1232;230.240478515625
1233;230.02899169921875
1234;229.8176727294922
1235;229.60658264160156
1236;229.39564514160156
1237;229.18482971191406
1238;228.97418212890625
1239;228.76373291015625
1240;228.55337524414062
1241;228.3433074951172
1242;228.13328552246094
1243;227.92344665527344
1244;227.71377563476562
1245;227.50433349609375
1246;227.29501342773438
1247;227.08587646484375
1248;226.87686157226562
1249;226.66806030273438
1250;226.45936584472656
1251;226.25086975097656
1252;226.04257202148438
1253;225.83436584472656
1254;225.62631225585938
1255;225.41845703125
1256;225.2107391357422
1257;225.00323486328125
1258;224.7958526611328
1259;224.5886688232422
1260;224.38165283203125
1261;224.1747589111328
1262;223.9680633544922
1263;223.76153564453125
1264;223.55516052246094
1265;223.34889221191406
1266;223.14283752441406
1267;222.93692016601562
1268;222.7311553955078
1269;222.5255889892578
1270;222.32015991210938
1271;222.11492919921875
1272;221.90982055664062
1273;221.70494079589844
1274;221.50015258789062
1275;221.29559326171875
1276;221.0911102294922
1277;220.88685607910156
1278;220.68270874023438
1279;220.47877502441406
1280;220.27496337890625
1281;220.07130432128906
1282;219.8678741455078
1283;219.66455078125
1284;219.46142578125
1285;219.25843811035156
1286;219.0556182861328
1287;218.85292053222656
1288;218.650390625
1289;218.44805908203125
1290;218.245849609375
1291;218.04380798339844
1292;217.84194946289062
1293;217.64019775390625
1294;217.438720703125
1295;217.23731994628906
1296;217.0360870361328
1297;216.8350067138672
1298;216.6340789794922
1299;216.43333435058594
1300;216.23272705078125
1301;216.03231811523438
1302;215.83204650878906
1303;215.63192749023438
1304;215.43194580078125
1305;215.232177734375
1306;215.03253173828125
1307;214.83306884765625
1308;214.6337890625
1309;214.43455505371094
1310;214.23558044433594
1311;214.03671264648438
1312;213.83799743652344
1313;213.63941955566406
1314;213.44105529785156
1315;213.24278259277344
1316;213.0447235107422
1317;212.84677124023438
1318;212.64901733398438
1319;212.45140075683594
1320;212.2539520263672
1321;212.05662536621094
1322;211.85951232910156
1323;211.66250610351562
1324;211.46572875976562
1325;211.26904296875
1326;211.07252502441406
1327;210.87620544433594
1328;210.6799774169922
1329;210.4839324951172
1330;210.2880401611328
1331;210.09228515625
1332;209.8967742919922
1333;209.70132446289062
1334;209.5060577392578
1335;209.31094360351562
1336;209.11602783203125
1337;208.92129516601562
1338;208.72665405273438
1339;208.53221130371094
1340;208.3378448486328
1341;208.14364624023438
1342;207.94964599609375
1343;207.75575256347656
1344;207.56207275390625
1345;207.36849975585938
1346;207.1750946044922
1347;206.98184204101562
1348;206.78875732421875
1349;206.59580993652344
1350;206.40306091308594
1351;206.21044921875
1352;206.01792907714844
1353;205.82566833496094
1354;205.6334991455078
1355;205.44146728515625
1356;205.24961853027344
1357;205.05787658691406
1358;204.86631774902344
1359;204.67489624023438
1360;204.483642578125
1361;204.29257202148438
1362;204.10157775878906
1363;203.91082763671875
1364;203.72021484375
1365;203.5297393798828
1366;203.33937072753906
1367;203.14918518066406
1368;202.95913696289062
1369;202.7692413330078
1370;202.57952880859375
1371;202.38998413085938
1372;202.20053100585938
1373;202.0112762451172
1374;201.82215881347656
1375;201.63319396972656
1376;201.44439697265625
1377;201.25570678710938
1378;201.06719970703125
1379;200.87889099121094
1380;200.6906280517578
1381;200.50253295898438
1382;200.31463623046875
1383;200.1269073486328
1384;199.93927001953125
1385;199.75180053710938
1386;199.56446838378906
1387;199.37730407714844
1388;199.19029235839844
1389;199.00343322753906
1390;198.8166961669922
1391;198.63011169433594
1392;198.44369506835938
1393;198.25743103027344
1394;198.07135009765625
1395;197.88536071777344
1396;197.69955444335938
1397;197.5138702392578
1398;197.32838439941406
1399;197.14297485351562
1400;196.957763671875
1401;196.772705078125
1402;196.58775329589844
1403;196.40296936035156
1404;196.21832275390625
1405;196.03384399414062
1406;195.84950256347656
1407;195.66534423828125
1408;195.48133850097656
1409;195.29745483398438
1410;195.11370849609375
1411;194.9301300048828
1412;194.74671936035156
1413;194.56341552734375
1414;194.38026428222656
1415;194.197265625
1416;194.01441955566406
1417;193.8317413330078
1418;193.649169921875
1419;193.46678161621094
1420;193.28448486328125
1421;193.10240173339844
1422;192.92041015625
1423;192.73863220214844
1424;192.55694580078125
1425;192.3754425048828
1426;192.1940460205078
1427;192.01283264160156
1428;191.8317413330078
1429;191.65081787109375
1430;191.4700164794922
1431;191.28939819335938
1432;191.1089324951172
1433;190.92857360839844
1434;190.74838256835938
1435;190.5683135986328
1436;190.388427734375
1437;190.20864868164062
1438;190.029052734375
1439;189.84954833984375
1440;189.67022705078125
1441;189.4910125732422
1442;189.3119659423828
1443;189.133056640625
1444;188.95433044433594
1445;188.77572631835938
1446;188.59722900390625
1447;188.41893005371094
1448;188.24073791503906
1449;188.062744140625
1450;187.88482666015625
1451;187.70709228515625
1452;187.52947998046875
1453;187.3520050048828
1454;187.17471313476562
1455;186.99755859375
1456;186.82057189941406
1457;186.64369201660156
1458;186.46694946289062
1459;186.29039001464844
1460;186.1139373779297
1461;185.9376220703125
1462;185.761474609375
1463;185.58546447753906
1464;185.4095916748047
1465;185.23382568359375
1466;185.05828857421875
1467;184.88282775878906
1468;184.70751953125
1469;184.53236389160156
1470;184.3573760986328
1471;184.18251037597656
1472;184.0077667236328
1473;183.83322143554688
1474;183.65875244140625
1475;183.48443603515625
1476;183.31031799316406
1477;183.13629150390625
1478;182.96241760253906
1479;182.78868103027344
1480;182.61509704589844
1481;182.44163513183594
1482;182.26837158203125
1483;182.09519958496094
1484;181.92218017578125
1485;181.74928283691406
1486;181.57659912109375
1487;181.40399169921875
1488;181.23155212402344
1489;181.05923461914062
1490;180.88702392578125
1491;180.71499633789062
1492;180.54310607910156
1493;180.3713836669922
1494;180.19976806640625
1495;180.02833557128906
1496;179.85699462890625
1497;179.68580627441406
1498;179.51478576660156
1499;179.34390258789062
1500;179.1731414794922
1501;179.00253295898438
1502;178.83201599121094
1503;178.6616668701172
1504;178.49148559570312
1505;178.3214111328125
1506;178.15147399902344
1507;177.981689453125
1508;177.81202697753906
1509;177.64256286621094
1510;177.47317504882812
1511;177.30393981933594
1512;177.13485717773438
1513;176.96592712402344
1514;176.797119140625
1515;176.62847900390625
1516;176.45994567871094
1517;176.29153442382812
1518;176.12327575683594
1519;175.9551239013672
1520;175.78720092773438
1521;175.61936950683594
1522;175.45167541503906
1523;175.28411865234375
1524;175.11668395996094
1525;174.94937133789062
1526;174.78221130371094
1527;174.61521911621094
1528;174.44834899902344
1529;174.28160095214844
1530;174.11497497558594
1531;173.9485321044922
1532;173.78221130371094
1533;173.6160430908203
1534;173.4499969482422
1535;173.2841033935547
1536;173.11830139160156
1537;172.95265197753906
1538;172.7871551513672
1539;172.62179565429688
1540;172.45657348632812
1541;172.29148864746094
1542;172.12652587890625
1543;171.96168518066406
1544;171.79702758789062
1545;171.63247680664062
1546;171.4681396484375
1547;171.30384826660156
1548;171.13970947265625
1549;170.97569274902344
1550;170.8118438720703
1551;170.6481475830078
1552;170.4845733642578
1553;170.32113647460938
1554;170.1578369140625
1555;169.99464416503906
1556;169.83160400390625
1557;169.66871643066406
1558;169.50595092773438
1559;169.34329223632812
1560;169.1807861328125
1561;169.01841735839844
1562;168.856201171875
1563;168.69410705566406
1564;168.5321502685547
1565;168.3703155517578
1566;168.20863342285156
1567;168.04710388183594
1568;167.88563537597656
1569;167.72433471679688
1570;167.563232421875
1571;167.40220642089844
1572;167.24134826660156
1573;167.08059692382812
1574;166.91993713378906
1575;166.75946044921875
1576;166.59910583496094
1577;166.43885803222656
1578;166.27877807617188
1579;166.11883544921875
1580;165.9590606689453
1581;165.7993621826172
1582;165.63978576660156
1583;165.48040771484375
1584;165.32115173339844
1585;165.16197204589844
1586;165.00294494628906
1587;164.84405517578125
1588;164.68528747558594
1589;164.5266876220703
1590;164.36817932128906
1591;164.20985412597656
1592;164.05165100097656
1593;163.89356994628906
1594;163.73558044433594
1595;163.57777404785156
1596;163.4201202392578
1597;163.2625274658203
1598;163.10513305664062
1599;162.94784545898438
1600;162.7906494140625
1601;162.63365173339844
1602;162.4767608642578
1603;162.31997680664062
1604;162.16334533691406
1605;162.0068359375
1606;161.8505096435547
1607;161.69422912597656
1608;161.5381317138672
1609;161.3821563720703
1610;161.22628784179688
1611;161.070556640625
1612;160.9149932861328
1613;160.7595672607422
1614;160.604248046875
1615;160.4490509033203
1616;160.29396057128906
1617;160.13905334472656
1618;159.98422241210938
1619;159.82955932617188
1620;159.675048828125
1621;159.52064514160156
1622;159.36634826660156
1623;159.21217346191406
1624;159.05813598632812
1625;158.90428161621094
1626;158.75054931640625
1627;158.59689331054688
1628;158.44337463378906
1629;158.29005432128906
1630;158.13677978515625
1631;157.98370361328125
1632;157.83071899414062
1633;157.67787170410156
1634;157.52517700195312
1635;157.37261962890625
1636;157.22015380859375
1637;157.06781005859375
1638;156.91558837890625
1639;156.76356506347656
1640;156.6116180419922
1641;156.45982360839844
1642;156.30810546875
1643;156.1565704345703
1644;156.0051727294922
1645;155.85386657714844
1646;155.70269775390625
1647;155.55169677734375
1648;155.40077209472656
1649;155.24998474121094
1650;155.099365234375
1651;154.94879150390625
1652;154.79840087890625
1653;154.64813232421875
1654;154.4980010986328
1655;154.3480224609375
1656;154.19810485839844
1657;154.04835510253906
1658;153.89874267578125
1659;153.749267578125
1660;153.59988403320312
1661;153.45065307617188
1662;153.30154418945312
1663;153.15257263183594
1664;153.0036163330078
1665;152.8549041748047
1666;152.706298828125
1667;152.5578155517578
1668;152.40945434570312
1669;152.26119995117188
1670;152.11309814453125
1671;151.96511840820312
1672;151.81724548339844
1673;151.6695098876953
1674;151.52194213867188
1675;151.3744659423828
1676;151.22711181640625
1677;151.0799102783203
1678;150.93280029296875
1679;150.7858428955078
1680;150.63897705078125
1681;150.4922637939453
1682;150.34568786621094
1683;150.19923400878906
1684;150.05291748046875
1685;149.90667724609375
1686;149.76060485839844
1687;149.6146240234375
1688;149.46881103515625
1689;149.32310485839844
1690;149.17752075195312
1691;149.0320281982422
1692;148.88670349121094
1693;148.7415008544922
1694;148.59645080566406
1695;148.45147705078125
1696;148.30661010742188
1697;148.16195678710938
1698;148.01734924316406
1699;147.87290954589844
1700;147.72857666015625
1701;147.58433532714844
1702;147.44024658203125
1703;147.29627990722656
1704;147.15245056152344
1705;147.00872802734375
1706;146.86512756347656
1707;146.72166442871094
1708;146.57830810546875
1709;146.43507385253906
1710;146.29197692871094
1711;146.1490020751953
1712;146.0061798095703
1713;145.8634490966797
1714;145.72085571289062
1715;145.57835388183594
1716;145.43601989746094
1717;145.2937774658203
1718;145.1516571044922
1719;145.00970458984375
1720;144.8678436279297
1721;144.72610473632812
1722;144.58448791503906
1723;144.44297790527344
1724;144.30162048339844
1725;144.16036987304688
1726;144.0192413330078
1727;143.87823486328125
1728;143.7373504638672
1729;143.5966033935547
1730;143.45599365234375
1731;143.31544494628906
1732;143.17507934570312
1733;143.03477478027344
1734;142.8946533203125
1735;142.75465393066406
1736;142.61476135253906
1737;142.47496032714844
1738;142.33531188964844
1739;142.19578552246094
1740;142.05633544921875
1741;141.9171142578125
1742;141.77789306640625
1743;141.63885498046875
1744;141.49990844726562
1745;141.36109924316406
1746;141.2224578857422
1747;141.08389282226562
1748;140.94541931152344
1749;140.80711364746094
1750;140.66888427734375
1751;140.53082275390625
1752;140.39283752441406
1753;140.2550048828125
1754;140.11729431152344
1755;139.9796905517578
1756;139.84222412109375
1757;139.70484924316406
1758;139.567626953125
1759;139.43052673339844
1760;139.29351806640625
1761;139.1566162109375
1762;139.01986694335938
1763;138.88323974609375
1764;138.7467041015625
1765;138.61029052734375
1766;138.47402954101562
1767;138.337890625
1768;138.20181274414062
1769;138.06588745117188
1770;137.93008422851562
1771;137.79440307617188
1772;137.6588592529297
1773;137.52342224121094
1774;137.3881072998047
1775;137.25286865234375
1776;137.11778259277344
1777;136.98284912109375
1778;136.84800720214844
1779;136.7132568359375
1780;136.57867431640625
1781;136.44419860839844
1782;136.309814453125
1783;136.17555236816406
1784;136.04141235351562
1785;135.90740966796875
1786;135.7735595703125
1787;135.63975524902344
1788;135.50611877441406
1789;135.37257385253906
1790;135.23916625976562
1791;135.10585021972656
1792;134.97267150878906
1793;134.83961486816406
1794;134.70664978027344
1795;134.57382202148438
1796;134.4410858154297
1797;134.3085174560547
1798;134.17601013183594
1799;134.04368591308594
1800;133.91139221191406
1801;133.779296875
1802;133.6472625732422
1803;133.515380859375
1804;133.3835906982422
1805;133.251953125
1806;133.1204071044922
1807;132.98895263671875
1808;132.85765075683594
1809;132.72647094726562
1810;132.59536743164062
1811;132.46441650390625
1812;132.33355712890625
1813;132.20286560058594
1814;132.07225036621094
1815;131.94175720214844
1816;131.81138610839844
1817;131.68113708496094
1818;131.55096435546875
1819;131.4209747314453
1820;131.29104614257812
1821;131.16128540039062
1822;131.03160095214844
1823;130.90203857421875
1824;130.77259826660156
1825;130.64324951171875
1826;130.51400756835938
1827;130.38491821289062
1828;130.25596618652344
1829;130.1270751953125
1830;129.998291015625
1831;129.86962890625
1832;129.74110412597656
1833;129.61268615722656
1834;129.48439025878906
1835;129.35621643066406
1836;129.22813415527344
1837;129.10018920898438
1838;128.97235107421875
1839;128.84461975097656
1840;128.71701049804688
1841;128.58949279785156
1842;128.46214294433594
1843;128.33485412597656
1844;128.20770263671875
1845;128.0806427001953
1846;127.9537353515625
1847;127.826904296875
1848;127.70020294189453
1849;127.5736312866211
1850;127.44719696044922
1851;127.32085418701172
1852;127.1946029663086
1853;127.06848907470703
1854;126.94245910644531
1855;126.81658172607422
1856;126.6907730102539
1857;126.56513214111328
1858;126.4395751953125
1859;126.31414031982422
1860;126.1888198852539
1861;126.0635986328125
1862;125.93850708007812
1863;125.81352996826172
1864;125.68862915039062
1865;125.56385040283203
1866;125.439208984375
1867;125.31470489501953
1868;125.19023895263672
1869;125.06592559814453
1870;124.9417495727539
1871;124.8176498413086
1872;124.69365692138672
1873;124.56979370117188
1874;124.4460678100586
1875;124.3224105834961
1876;124.19889831542969
1877;124.07548522949219
1878;123.95221710205078
1879;123.82902526855469
1880;123.70592498779297
1881;123.58295440673828
1882;123.4601058959961
1883;123.33740234375
1884;123.21477508544922
1885;123.09223175048828
1886;122.9698257446289
1887;122.8475341796875
1888;122.725341796875
1889;122.603271484375
1890;122.48131561279297
1891;122.35945129394531
1892;122.23767852783203
1893;122.1160888671875
1894;121.99458312988281
1895;121.87316131591797
1896;121.75186157226562
1897;121.63070678710938
1898;121.50959777832031
1899;121.38867950439453
1900;121.26781463623047
1901;121.14706420898438
1902;121.02644348144531
1903;120.90592956542969
1904;120.7855224609375
1905;120.66522979736328
1906;120.54503631591797
1907;120.42499542236328
1908;120.30500030517578
1909;120.18511199951172
1910;120.06538391113281
1911;119.94573211669922
1912;119.8261947631836
1913;119.706787109375
1914;119.58747100830078
1915;119.46826171875
1916;119.34917449951172
1917;119.23021697998047
1918;119.11132049560547
1919;118.9925537109375
1920;118.87390899658203
1921;118.7553482055664
1922;118.63691711425781
1923;118.51862335205078
1924;118.4004135131836
1925;118.28230285644531
1926;118.164306640625
1927;118.0464096069336
1928;117.92861938476562
1929;117.81098175048828
1930;117.69340515136719
1931;117.57593536376953
1932;117.4585952758789
1933;117.34135437011719
1934;117.22421264648438
1935;117.10717010498047
1936;116.9902572631836
1937;116.87345886230469
1938;116.75675964355469
1939;116.64018249511719
1940;116.5237045288086
1941;116.40734100341797
1942;116.29106140136719
1943;116.17491912841797
1944;116.058837890625
1945;115.94291687011719
1946;115.82707977294922
1947;115.71135711669922
1948;115.5957260131836
1949;115.4802017211914
1950;115.36483764648438
1951;115.24951171875
1952;115.13428497314453
1953;115.01925659179688
1954;114.90425109863281
1955;114.78938293457031
1956;114.67463684082031
1957;114.55998992919922
1958;114.44544219970703
1959;114.33100128173828
1960;114.2166748046875
1961;114.10248565673828
1962;113.98834991455078
1963;113.87431335449219
1964;113.76042175292969
1965;113.6466293334961
1966;113.53292846679688
1967;113.41934204101562
1968;113.3058853149414
1969;113.19249725341797
1970;113.07921600341797
1971;112.96603393554688
1972;112.8530044555664
1973;112.74003601074219
1974;112.627197265625
1975;112.51443481445312
1976;112.4018325805664
1977;112.28931427001953
1978;112.1769027709961
1979;112.0645523071289
1980;111.95238494873047
1981;111.84028625488281
1982;111.7282485961914
1983;111.61637878417969
1984;111.5046157836914
1985;111.3929214477539
1986;111.28132629394531
1987;111.16983032226562
1988;111.05846405029297
1989;110.94721221923828
1990;110.83605194091797
1991;110.7249984741211
1992;110.6140365600586
1993;110.50316619873047
1994;110.3924331665039
1995;110.28179168701172
1996;110.17127227783203
1997;110.06082153320312
1998;109.95050811767578
1999;109.84030151367188
