;loss
0;887.9131469726562
1;887.4872436523438
2;886.9129028320312
3;886.3367309570312
4;885.7940063476562
5;885.2136840820312
6;884.64892578125
7;884.0642700195312
8;883.485595703125
9;882.9014282226562
10;882.3095703125
11;881.7149047851562
12;881.1168823242188
13;880.5165405273438
14;879.9099731445312
15;879.2993774414062
16;878.6845703125
17;878.0656127929688
18;877.4480590820312
19;876.82666015625
20;876.1943359375
21;875.5575561523438
22;874.9157104492188
23;874.276123046875
24;873.6239624023438
25;872.973876953125
26;872.3103637695312
27;871.648681640625
28;870.9728393554688
29;870.2982788085938
30;869.616943359375
31;868.928466796875
32;868.2244262695312
33;867.5126342773438
34;866.8005981445312
35;866.080322265625
36;865.343017578125
37;864.6046752929688
38;863.8484497070312
39;863.09033203125
40;862.32177734375
41;861.5342407226562
42;860.7433471679688
43;859.9407348632812
44;859.125732421875
45;858.2980346679688
46;857.456787109375
47;856.6017456054688
48;855.7238159179688
49;854.8388061523438
50;853.9296875
51;853.0120239257812
52;852.06884765625
53;851.115966796875
54;850.1443481445312
55;849.144775390625
56;848.1331176757812
57;847.1005859375
58;846.0460815429688
59;844.96875
60;843.8677368164062
61;842.7421875
62;841.5822143554688
63;840.4044799804688
64;839.1991577148438
65;837.95654296875
66;836.6930541992188
67;835.3987426757812
68;834.0729370117188
69;832.70458984375
70;831.3017578125
71;829.8727416992188
72;828.4069213867188
73;826.9028930664062
74;825.359375
75;823.7747192382812
76;822.1373901367188
77;820.4658813476562
78;818.7484741210938
79;816.9835815429688
80;815.16943359375
81;813.2930297851562
82;811.3634643554688
83;809.390625
84;807.3616333007812
85;805.2625122070312
86;803.1150512695312
87;800.9060668945312
88;798.6336059570312
89;796.283203125
90;793.8781127929688
91;791.4044799804688
92;788.8473510742188
93;786.2175903320312
94;783.5142211914062
95;780.73681640625
96;777.8839721679688
97;774.9561157226562
98;771.9674682617188
99;768.8895874023438
100;765.7379760742188
101;762.5150756835938
102;759.2230834960938
103;755.8805541992188
104;752.4762573242188
105;749.0145874023438
106;745.5009155273438
107;741.9248046875
108;738.3092651367188
109;734.6618041992188
110;730.9898071289062
111;727.317626953125
112;723.6388549804688
113;719.9623413085938
114;716.2965698242188
115;712.6351928710938
116;709.002685546875
117;705.420654296875
118;701.8678588867188
119;698.3656616210938
120;694.9338989257812
121;691.5502319335938
122;688.233154296875
123;684.9983520507812
124;681.8239135742188
125;678.7350463867188
126;675.7100219726562
127;672.7616577148438
128;669.8900756835938
129;667.0947265625
130;664.3840942382812
131;661.747314453125
132;659.182861328125
133;656.6804809570312
134;654.2557983398438
135;651.8978881835938
136;649.6047973632812
137;647.37451171875
138;645.204833984375
139;643.0932006835938
140;641.0377807617188
141;639.0380249023438
142;637.0942993164062
143;635.2006225585938
144;633.3507080078125
145;631.5479125976562
146;629.7960815429688
147;628.0875854492188
148;626.433349609375
149;624.8197631835938
150;623.2462158203125
151;621.7182006835938
152;620.228515625
153;618.77490234375
154;617.3568725585938
155;615.9672241210938
156;614.6093139648438
157;613.2833251953125
158;611.9828491210938
159;610.7057495117188
160;609.4517211914062
161;608.2166137695312
162;607.006591796875
163;605.8153686523438
164;604.648681640625
165;603.5039672851562
166;602.3779907226562
167;601.26806640625
168;600.1741333007812
169;599.0953979492188
170;598.0310668945312
171;596.98046875
172;595.9402465820312
173;594.9127197265625
174;593.9002075195312
175;592.8970336914062
176;591.9082641601562
177;590.9306030273438
178;589.9612426757812
179;589.0049438476562
180;588.0562744140625
181;587.1174926757812
182;586.1906127929688
183;585.2705688476562
184;584.362060546875
185;583.4622802734375
186;582.5687255859375
187;581.6838989257812
188;580.8076171875
189;579.9413452148438
190;579.0807495117188
191;578.2296752929688
192;577.3839721679688
193;576.5473022460938
194;575.7156982421875
195;574.8931274414062
196;574.0756225585938
197;573.266357421875
198;572.4635620117188
199;571.6669311523438
200;570.8744506835938
201;570.0880737304688
202;569.30908203125
203;568.5358276367188
204;567.7662963867188
205;567.0023803710938
206;566.2437744140625
207;565.4920043945312
208;564.7455444335938
209;564.00244140625
210;563.2642822265625
211;562.531005859375
212;561.8038940429688
213;561.0814819335938
214;560.363525390625
215;559.6484375
216;558.9392700195312
217;558.2328491210938
218;557.5320434570312
219;556.8340454101562
220;556.1400756835938
221;555.4513549804688
222;554.7652587890625
223;554.0829467773438
224;553.4057006835938
225;552.73095703125
226;552.0618286132812
227;551.3949584960938
228;550.7317504882812
229;550.0731811523438
230;549.4179077148438
231;548.7647094726562
232;548.1161499023438
233;547.4694213867188
234;546.8258666992188
235;546.1865844726562
236;545.5491943359375
237;544.9147338867188
238;544.2833251953125
239;543.6559448242188
240;543.0314331054688
241;542.4086303710938
242;541.7888793945312
243;541.1734008789062
244;540.5596313476562
245;539.9486694335938
246;539.3402709960938
247;538.7355346679688
248;538.1323852539062
249;537.53271484375
250;536.9346313476562
251;536.3389282226562
252;535.74560546875
253;535.1547241210938
254;534.5662231445312
255;533.9800415039062
256;533.3960571289062
257;532.8154296875
258;532.2360229492188
259;531.6598510742188
260;531.0858154296875
261;530.513916015625
262;529.9441528320312
263;529.3765258789062
264;528.810791015625
265;528.2471313476562
266;527.6845092773438
267;527.1249389648438
268;526.5664672851562
269;526.010009765625
270;525.45654296875
271;524.9039916992188
272;524.3533325195312
273;523.8052368164062
274;523.2589111328125
275;522.71337890625
276;522.1704711914062
277;521.6283569335938
278;521.088134765625
279;520.5498046875
280;520.0140991210938
281;519.4801025390625
282;518.94775390625
283;518.4161987304688
284;517.8869018554688
285;517.3591918945312
286;516.8330688476562
287;516.3084106445312
288;515.7852172851562
289;515.2626342773438
290;514.7415771484375
291;514.22265625
292;513.7051391601562
293;513.1890869140625
294;512.673583984375
295;512.1600952148438
296;511.647216796875
297;511.1366882324219
298;510.626708984375
299;510.1179504394531
300;509.6112365722656
301;509.1051025390625
302;508.6002502441406
303;508.0965881347656
304;507.5941162109375
305;507.0928649902344
306;506.5928649902344
307;506.0946044921875
308;505.596923828125
309;505.1003112792969
310;504.6048889160156
311;504.1114196777344
312;503.6189880371094
313;503.127685546875
314;502.6368103027344
315;502.1470031738281
316;501.658935546875
317;501.1713562011719
318;500.6853942871094
319;500.1999206542969
320;499.7160339355469
321;499.2333068847656
322;498.7516174316406
323;498.27099609375
324;497.7907409667969
325;497.3121032714844
326;496.8338317871094
327;496.3565368652344
328;495.8807678222656
329;495.406005859375
330;494.9315490722656
331;494.4580993652344
332;493.986083984375
333;493.5150451660156
334;493.0443115234375
335;492.5751037597656
336;492.1067810058594
337;491.6393127441406
338;491.1722106933594
339;490.7065124511719
340;490.2416687011719
341;489.7777404785156
342;489.3140869140625
343;488.8519287109375
344;488.390625
345;487.9302673339844
346;487.469970703125
347;487.01123046875
348;486.5532531738281
349;486.0955505371094
350;485.63916015625
351;485.1830139160156
352;484.7283630371094
353;484.2738952636719
354;483.8202209472656
355;483.3673095703125
356;482.9151916503906
357;482.46435546875
358;482.0138244628906
359;481.5646057128906
360;481.1161193847656
361;480.6678466796875
362;480.2203674316406
363;479.773681640625
364;479.3282165527344
365;478.883544921875
366;478.4395446777344
367;477.996337890625
368;477.5538330078125
369;477.112060546875
370;476.6709899902344
371;476.2305908203125
372;475.7908630371094
373;475.3518981933594
374;474.9130859375
375;474.4750061035156
376;474.03759765625
377;473.601318359375
378;473.1652526855469
379;472.7298583984375
380;472.295166015625
381;471.8615417480469
382;471.4281311035156
383;470.9959411621094
384;470.5638427734375
385;470.1329040527344
386;469.7026062011719
387;469.2724609375
388;468.8434753417969
389;468.4150390625
390;467.98681640625
391;467.5597229003906
392;467.1328125
393;466.7069396972656
394;466.28125
395;465.8561706542969
396;465.4322204589844
397;465.0084228515625
398;464.585693359375
399;464.16357421875
400;463.74169921875
401;463.32080078125
402;462.9004821777344
403;462.4803466796875
404;462.0611572265625
405;461.6421813964844
406;461.2242126464844
407;460.806884765625
408;460.3901062011719
409;459.9734802246094
410;459.5579528808594
411;459.1429443359375
412;458.7281188964844
413;458.3138427734375
414;457.900146484375
415;457.4870300292969
416;457.0744323730469
417;456.6624450683594
418;456.2513732910156
419;455.8408508300781
420;455.4305419921875
421;455.0207214355469
422;454.6118469238281
423;454.2035217285156
424;453.7953796386719
425;453.3878173828125
426;452.9812927246094
427;452.574951171875
428;452.16943359375
429;451.7642517089844
430;451.3594970703125
431;450.9556579589844
432;450.5523681640625
433;450.1495666503906
434;449.747314453125
435;449.3455505371094
436;448.9443359375
437;448.5436706542969
438;448.1430969238281
439;447.7434387207031
440;447.3443298339844
441;446.9453125
442;446.5468444824219
443;446.1487731933594
444;445.7513122558594
445;445.3542785644531
446;444.9582214355469
447;444.562744140625
448;444.1673889160156
449;443.77294921875
450;443.378662109375
451;442.9848327636719
452;442.5914611816406
453;442.1986999511719
454;441.8063049316406
455;441.4147644042969
456;441.0237121582031
457;440.6328430175781
458;440.2428283691406
459;439.85302734375
460;439.4639587402344
461;439.0750427246094
462;438.6869201660156
463;438.29931640625
464;437.912109375
465;437.525390625
466;437.1388854980469
467;436.7527770996094
468;436.3675231933594
469;435.9822998046875
470;435.597900390625
471;435.2138977050781
472;434.830078125
473;434.4469299316406
474;434.0643005371094
475;433.6820983886719
476;433.3000183105469
477;432.9186706542969
478;432.5375061035156
479;432.1566467285156
480;431.7763671875
481;431.3967590332031
482;431.017578125
483;430.6388854980469
484;430.2603454589844
485;429.8824768066406
486;429.5048522949219
487;429.1275939941406
488;428.7510986328125
489;428.3750305175781
490;427.9993591308594
491;427.623779296875
492;427.2489318847656
493;426.8741760253906
494;426.4999084472656
495;426.1259460449219
496;425.7527160644531
497;425.3798522949219
498;425.0074157714844
499;424.6353759765625
500;424.2637634277344
501;423.8922119140625
502;423.5213317871094
503;423.1506652832031
504;422.7803039550781
505;422.4104309082031
506;422.0408630371094
507;421.6717529296875
508;421.3033142089844
509;420.9351806640625
510;420.5674743652344
511;420.2001647949219
512;419.8328857421875
513;419.4660949707031
514;419.0999450683594
515;418.7338562011719
516;418.3681640625
517;418.0030822753906
518;417.638427734375
519;417.2740783691406
520;416.909912109375
521;416.5463562011719
522;416.18310546875
523;415.820068359375
524;415.4575500488281
525;415.095458984375
526;414.7334899902344
527;414.3718566894531
528;414.0108337402344
529;413.650146484375
530;413.2898864746094
531;412.9297180175781
532;412.5699157714844
533;412.21044921875
534;411.851318359375
535;411.4925842285156
536;411.1341857910156
537;410.776123046875
538;410.41845703125
539;410.0613708496094
540;409.704345703125
541;409.3479309082031
542;408.9918518066406
543;408.6361389160156
544;408.2808532714844
545;407.9258728027344
546;407.5711975097656
547;407.2169494628906
548;406.8629455566406
549;406.5093688964844
550;406.1560974121094
551;405.8029479980469
552;405.4503479003906
553;405.0978698730469
554;404.7456970214844
555;404.3941345214844
556;404.0426940917969
557;403.6914978027344
558;403.3409118652344
559;402.99072265625
560;402.6405334472656
561;402.2909240722656
562;401.9414978027344
563;401.5923767089844
564;401.2434997558594
565;400.895263671875
566;400.5470275878906
567;400.1994323730469
568;399.8521423339844
569;399.5049133300781
570;399.1582946777344
571;398.8119201660156
572;398.4659729003906
573;398.1202697753906
574;397.77490234375
575;397.4298400878906
576;397.0851135253906
577;396.7405090332031
578;396.3963928222656
579;396.0527038574219
580;395.709228515625
581;395.3658447265625
582;395.0230407714844
583;394.6805725097656
584;394.338134765625
585;393.9960021972656
586;393.6545104980469
587;393.3130798339844
588;392.9718322753906
589;392.6312561035156
590;392.2907409667969
591;391.9505310058594
592;391.61083984375
593;391.271240234375
594;390.93212890625
595;390.5931396484375
596;390.2547302246094
597;389.9163513183594
598;389.5782775878906
599;389.2407531738281
600;388.9035339355469
601;388.5665588378906
602;388.2299499511719
603;387.8934020996094
604;387.557373046875
605;387.221435546875
606;386.885986328125
607;386.5506286621094
608;386.2158508300781
609;385.8813171386719
610;385.547119140625
611;385.2129211425781
612;384.8790588378906
613;384.5457763671875
614;384.2125244140625
615;383.8797912597656
616;383.5473327636719
617;383.2152404785156
618;382.8834228515625
619;382.5518493652344
620;382.2205505371094
621;381.8896179199219
622;381.5589294433594
623;381.2284240722656
624;380.898193359375
625;380.5682678222656
626;380.2388610839844
627;379.9095153808594
628;379.5804443359375
629;379.2516784667969
630;378.9232482910156
631;378.5950622558594
632;378.2671203613281
633;377.9397277832031
634;377.6124267578125
635;377.2856140136719
636;376.9588928222656
637;376.6325988769531
638;376.3064880371094
639;375.9808044433594
640;375.6554260253906
641;375.3301086425781
642;375.005126953125
643;374.6805725097656
644;374.3561706542969
645;374.0321960449219
646;373.70849609375
647;373.3851013183594
648;373.061767578125
649;372.73876953125
650;372.4162292480469
651;372.09375
652;371.7716979980469
653;371.4500427246094
654;371.1283874511719
655;370.8070373535156
656;370.4859924316406
657;370.1651916503906
658;369.8447265625
659;369.5246887207031
660;369.2049560546875
661;368.8852844238281
662;368.5658874511719
663;368.2469482421875
664;367.9283142089844
665;367.6097717285156
666;367.29150390625
667;366.9736633300781
668;366.6561584472656
669;366.3386535644531
670;366.0215148925781
671;365.7045593261719
672;365.387939453125
673;365.07177734375
674;364.7558288574219
675;364.4399719238281
676;364.1246032714844
677;363.8094787597656
678;363.49462890625
679;363.1799621582031
680;362.865478515625
681;362.5514221191406
682;362.2376708984375
683;361.9241638183594
684;361.61083984375
685;361.2978515625
686;360.985107421875
687;360.6725769042969
688;360.3603820800781
689;360.0483093261719
690;359.7364501953125
691;359.4248962402344
692;359.1137390136719
693;358.8028259277344
694;358.4920349121094
695;358.1815185546875
696;357.8712158203125
697;357.5613708496094
698;357.2518005371094
699;356.9424133300781
700;356.6333312988281
701;356.3243408203125
702;356.0158386230469
703;355.7073669433594
704;355.3991394042969
705;355.09130859375
706;354.7837829589844
707;354.4763488769531
708;354.1690979003906
709;353.8623962402344
710;353.5558776855469
711;353.2496032714844
712;352.9435729980469
713;352.6376953125
714;352.3321533203125
715;352.0267333984375
716;351.7217102050781
717;351.4169921875
718;351.1123352050781
719;350.8079528808594
720;350.5037841796875
721;350.2000427246094
722;349.8965759277344
723;349.5931396484375
724;349.2900085449219
725;348.9872741699219
726;348.6847839355469
727;348.3825378417969
728;348.0804138183594
729;347.7785339355469
730;347.4768371582031
731;347.1755676269531
732;346.8746032714844
733;346.5738525390625
734;346.2731628417969
735;345.9727478027344
736;345.6725769042969
737;345.3726501464844
738;345.072998046875
739;344.773681640625
740;344.4747009277344
741;344.1757507324219
742;343.8770446777344
743;343.5787353515625
744;343.280517578125
745;342.9825134277344
746;342.6848449707031
747;342.3873291015625
748;342.0902404785156
749;341.7932434082031
750;341.4966735839844
751;341.2001647949219
752;340.9038391113281
753;340.60784912109375
754;340.3121643066406
755;340.0167541503906
756;339.7216491699219
757;339.4266662597656
758;339.1319580078125
759;338.8373718261719
760;338.5431823730469
761;338.2491760253906
762;337.9554138183594
763;337.66192626953125
764;337.3685302734375
765;337.0753479003906
766;336.7824401855469
767;336.4898681640625
768;336.1976013183594
769;335.9053955078125
770;335.6133728027344
771;335.3218078613281
772;335.0302734375
773;334.739013671875
774;334.4480895996094
775;334.1574401855469
776;333.8669738769531
777;333.5768127441406
778;333.2868347167969
779;332.9971008300781
780;332.7074890136719
781;332.4180908203125
782;332.1290283203125
783;331.8402404785156
784;331.55169677734375
785;331.2632141113281
786;330.9749450683594
787;330.6871032714844
788;330.3992919921875
789;330.1119079589844
790;329.8247375488281
791;329.5377502441406
792;329.2509460449219
793;328.96441650390625
794;328.6780090332031
795;328.39202880859375
796;328.1061096191406
797;327.8204040527344
798;327.5349426269531
799;327.2497863769531
800;326.9648132324219
801;326.6801452636719
802;326.395751953125
803;326.1114196777344
804;325.8273620605469
805;325.5434875488281
806;325.260009765625
807;324.9765930175781
808;324.69342041015625
809;324.4104919433594
810;324.1278381347656
811;323.8453674316406
812;323.563232421875
813;323.2811584472656
814;322.9993591308594
815;322.7178649902344
816;322.4365234375
817;322.1553649902344
818;321.87445068359375
819;321.5938415527344
820;321.3134765625
821;321.0333251953125
822;320.75341796875
823;320.4737243652344
824;320.1942443847656
825;319.91497802734375
826;319.6358337402344
827;319.3570251464844
828;319.0784606933594
829;318.7999572753906
830;318.5216979980469
831;318.2436828613281
832;317.9658508300781
833;317.6883239746094
834;317.41107177734375
835;317.134033203125
836;316.8570861816406
837;316.58038330078125
838;316.3039245605469
839;316.0276184082031
840;315.7516784667969
841;315.4757995605469
842;315.2002868652344
843;314.9249572753906
844;314.6498107910156
845;314.3748474121094
846;314.1000671386719
847;313.8255615234375
848;313.5511779785156
849;313.2772216796875
850;313.0034484863281
851;312.7298278808594
852;312.4564208984375
853;312.1832580566406
854;311.9103698730469
855;311.6375427246094
856;311.3650817871094
857;311.0927734375
858;310.8207092285156
859;310.5488586425781
860;310.2771301269531
861;310.0057067871094
862;309.7344970703125
863;309.4635009765625
864;309.192626953125
865;308.9219665527344
866;308.6514892578125
867;308.3813781738281
868;308.1114196777344
869;307.8417053222656
870;307.5721740722656
871;307.3028259277344
872;307.0337219238281
873;306.7648010253906
874;306.49603271484375
875;306.2275695800781
876;305.9593505859375
877;305.6913146972656
878;305.4233703613281
879;305.1557922363281
880;304.888427734375
881;304.6212158203125
882;304.3541564941406
883;304.0873107910156
884;303.8206481933594
885;303.5542907714844
886;303.2881774902344
887;303.0222473144531
888;302.7565002441406
889;302.4909973144531
890;302.2256774902344
891;301.9606018066406
892;301.69561767578125
893;301.4308776855469
894;301.1664123535156
895;300.9021301269531
896;300.6380920410156
897;300.37420654296875
898;300.1105651855469
899;299.84716796875
900;299.583984375
901;299.32098388671875
902;299.0581970214844
903;298.7955627441406
904;298.5331726074219
905;298.27099609375
906;298.0089416503906
907;297.7471008300781
908;297.4855041503906
909;297.2240905761719
910;296.962890625
911;296.7019958496094
912;296.44122314453125
913;296.18072509765625
914;295.9204406738281
915;295.6603698730469
916;295.4004211425781
917;295.14080810546875
918;294.8812255859375
919;294.6219177246094
920;294.3628845214844
921;294.1039733886719
922;293.8453063964844
923;293.5869140625
924;293.3287048339844
925;293.0705871582031
926;292.8127136230469
927;292.5550842285156
928;292.2976989746094
929;292.0404357910156
930;291.7833557128906
931;291.5265808105469
932;291.2699890136719
933;291.0135192871094
934;290.7573547363281
935;290.5013732910156
936;290.2455139160156
937;289.989990234375
938;289.73455810546875
939;289.4792785644531
940;289.2243347167969
941;288.9695739746094
942;288.7149963378906
943;288.4606628417969
944;288.2064208984375
945;287.952392578125
946;287.6986389160156
947;287.44500732421875
948;287.1915283203125
949;286.9382629394531
950;286.6853332519531
951;286.4325256347656
952;286.17987060546875
953;285.9273986816406
954;285.6751403808594
955;285.4230651855469
956;285.17120361328125
957;284.9196472167969
958;284.6682434082031
959;284.4169921875
960;284.16595458984375
961;283.9150695800781
962;283.6644592285156
963;283.4140319824219
964;283.163818359375
965;282.9137878417969
966;282.6639099121094
967;282.4142150878906
968;282.16473388671875
969;281.9154052734375
970;281.666259765625
971;281.4173278808594
972;281.1686096191406
973;280.9200439453125
974;280.6716613769531
975;280.423583984375
976;280.1756896972656
977;279.92791748046875
978;279.6803283691406
979;279.4330139160156
980;279.1859130859375
981;278.9388732910156
982;278.6921081542969
983;278.4455261230469
984;278.1991882324219
985;277.9530029296875
986;277.70697021484375
987;277.461181640625
988;277.2155456542969
989;276.9701232910156
990;276.724853515625
991;276.4797668457031
992;276.2349548339844
993;275.990234375
994;275.7458190917969
995;275.50152587890625
996;275.2574462890625
997;275.0135498046875
998;274.769775390625
999;274.5262756347656
1000;274.2828063964844
1001;274.0397644042969
1002;273.7968444824219
1003;273.5540466308594
1004;273.3115234375
1005;273.0690612792969
1006;272.82684326171875
1007;272.5848083496094
1008;272.3429870605469
1009;272.101318359375
1010;271.8598937988281
1011;271.6185607910156
1012;271.37750244140625
1013;271.1366271972656
1014;270.8959045410156
1015;270.6553649902344
1016;270.4150390625
1017;270.17486572265625
1018;269.9348449707031
1019;269.69512939453125
1020;269.4555969238281
1021;269.2162170410156
1022;268.97698974609375
1023;268.73797607421875
1024;268.4991149902344
1025;268.2604064941406
1026;268.0218811035156
1027;267.7835998535156
1028;267.54541015625
1029;267.3075256347656
1030;267.0697937011719
1031;266.83221435546875
1032;266.59490966796875
1033;266.3576965332031
1034;266.1207580566406
1035;265.8840026855469
1036;265.6474304199219
1037;265.4109191894531
1038;265.1747131347656
1039;264.9386901855469
1040;264.7027893066406
1041;264.4671325683594
1042;264.2316589355469
1043;263.9963073730469
1044;263.76123046875
1045;263.5262451171875
1046;263.29150390625
1047;263.0568542480469
1048;262.8224182128906
1049;262.588134765625
1050;262.3540344238281
1051;262.1201477050781
1052;261.886474609375
1053;261.6529846191406
1054;261.4195861816406
1055;261.1864929199219
1056;260.95355224609375
1057;260.7207336425781
1058;260.4880676269531
1059;260.2556457519531
1060;260.0234680175781
1061;259.7914123535156
1062;259.5596008300781
1063;259.3278503417969
1064;259.09637451171875
1065;258.8650207519531
1066;258.6338195800781
1067;258.4028625488281
1068;258.172119140625
1069;257.9415283203125
1070;257.7111511230469
1071;257.4808044433594
1072;257.2507019042969
1073;257.0207824707031
1074;256.7911071777344
1075;256.5615539550781
1076;256.3322448730469
1077;256.10302734375
1078;255.8739776611328
1079;255.6452178955078
1080;255.4165802001953
1081;255.1880645751953
1082;254.95982360839844
1083;254.7317352294922
1084;254.50379943847656
1085;254.2760772705078
1086;254.04856872558594
1087;253.82115173339844
1088;253.5939483642578
1089;253.36692810058594
1090;253.1400909423828
1091;252.91339111328125
1092;252.6868133544922
1093;252.4604949951172
1094;252.23426818847656
1095;252.00823974609375
1096;251.7824249267578
1097;251.55677795410156
1098;251.3312530517578
1099;251.1060333251953
1100;250.880859375
1101;250.6559295654297
1102;250.43116760253906
1103;250.20660400390625
1104;249.9822235107422
1105;249.7580108642578
1106;249.53395080566406
1107;249.3101043701172
1108;249.08642578125
1109;248.86285400390625
1110;248.6394805908203
1111;248.416259765625
1112;248.19325256347656
1113;247.9703826904297
1114;247.7476806640625
1115;247.5251922607422
1116;247.30291748046875
1117;247.0807342529297
1118;246.8587646484375
1119;246.63694763183594
1120;246.41529846191406
1121;246.19390869140625
1122;245.9726104736328
1123;245.7515106201172
1124;245.5305633544922
1125;245.30975341796875
1126;245.08917236328125
1127;244.86875915527344
1128;244.6485137939453
1129;244.4284210205078
1130;244.2085418701172
1131;243.98878479003906
1132;243.769287109375
1133;243.5498809814453
1134;243.3306427001953
1135;243.1116180419922
1136;242.89271545410156
1137;242.6740264892578
1138;242.4554901123047
1139;242.2371368408203
1140;242.0189666748047
1141;241.8009490966797
1142;241.5830535888672
1143;241.3654022216797
1144;241.14794921875
1145;240.9306182861328
1146;240.71348571777344
1147;240.4965057373047
1148;240.2797088623047
1149;240.0630645751953
1150;239.8465576171875
1151;239.6302947998047
1152;239.4141387939453
1153;239.19810485839844
1154;238.9822998046875
1155;238.7666778564453
1156;238.55125427246094
1157;238.3359832763672
1158;238.120849609375
1159;237.9059295654297
1160;237.691162109375
1161;237.4765167236328
1162;237.26214599609375
1163;237.04786682128906
1164;236.83372497558594
1165;236.6197967529297
1166;236.4060516357422
1167;236.1924591064453
1168;235.9789581298828
1169;235.76568603515625
1170;235.5526123046875
1171;235.3396453857422
1172;235.1269073486328
1173;234.91432189941406
1174;234.7018585205078
1175;234.4896240234375
1176;234.2775115966797
1177;234.06556701660156
1178;233.8538360595703
1179;233.6422576904297
1180;233.4307861328125
1181;233.219482421875
1182;233.0083770751953
1183;232.7974853515625
1184;232.586669921875
1185;232.3760986328125
1186;232.16566467285156
1187;231.9553985595703
1188;231.74534606933594
1189;231.5353546142578
1190;231.32557678222656
1191;231.11598205566406
1192;230.9065704345703
1193;230.6973114013672
1194;230.4881591796875
1195;230.27915954589844
1196;230.07041931152344
1197;229.86175537109375
1198;229.6532745361328
1199;229.4449462890625
1200;229.23683166503906
1201;229.0288848876953
1202;228.82102966308594
1203;228.61338806152344
1204;228.40589904785156
1205;228.1986083984375
1206;227.991455078125
1207;227.784423828125
1208;227.57762145996094
1209;227.3709259033203
1210;227.1644287109375
1211;226.9580841064453
1212;226.75193786621094
1213;226.54595947265625
1214;226.34010314941406
1215;226.1344757080078
1216;225.92897033691406
1217;225.72361755371094
1218;225.51841735839844
1219;225.3134307861328
1220;225.10850524902344
1221;224.90380859375
1222;224.69921875
1223;224.4948272705078
1224;224.29058837890625
1225;224.0865478515625
1226;223.8826446533203
1227;223.6788787841797
1228;223.475341796875
1229;223.27186584472656
1230;223.0686492919922
1231;222.8655548095703
1232;222.66259765625
1233;222.45977783203125
1234;222.2571563720703
1235;222.0546875
1236;221.8524169921875
1237;221.6502685546875
1238;221.4482421875
1239;221.2463836669922
1240;221.0447235107422
1241;220.84320068359375
1242;220.64186096191406
1243;220.440673828125
1244;220.2397003173828
1245;220.03883361816406
1246;219.83811950683594
1247;219.6375732421875
1248;219.4371795654297
1249;219.23695373535156
1250;219.036865234375
1251;218.8369598388672
1252;218.63722229003906
1253;218.43760681152344
1254;218.23817443847656
1255;218.0389404296875
1256;217.83984375
1257;217.6409149169922
1258;217.44212341308594
1259;217.24351501464844
1260;217.0450439453125
1261;216.8467254638672
1262;216.64849853515625
1263;216.4504852294922
1264;216.2526092529297
1265;216.0548858642578
1266;215.8573760986328
1267;215.65997314453125
1268;215.4627685546875
1269;215.2657470703125
1270;215.06878662109375
1271;214.87205505371094
1272;214.6754608154297
1273;214.47900390625
1274;214.2826690673828
1275;214.0865020751953
1276;213.8905487060547
1277;213.69471740722656
1278;213.4990692138672
1279;213.30352783203125
1280;213.1082000732422
1281;212.9130401611328
1282;212.718017578125
1283;212.5231475830078
1284;212.3284454345703
1285;212.1338653564453
1286;211.93943786621094
1287;211.74522399902344
1288;211.55113220214844
1289;211.357177734375
1290;211.1634063720703
1291;210.9697265625
1292;210.7762908935547
1293;210.5829620361328
1294;210.3898162841797
1295;210.1967315673828
1296;210.00389099121094
1297;209.8112030029297
1298;209.6186981201172
1299;209.42626953125
1300;209.2340087890625
1301;209.0419158935547
1302;208.8499755859375
1303;208.6581573486328
1304;208.46653747558594
1305;208.2750701904297
1306;208.083740234375
1307;207.89259338378906
1308;207.70155334472656
1309;207.5106658935547
1310;207.31996154785156
1311;207.12945556640625
1312;206.9390106201172
1313;206.7487335205078
1314;206.5586395263672
1315;206.36871337890625
1316;206.1789093017578
1317;205.9892578125
1318;205.7997589111328
1319;205.6103973388672
1320;205.4211883544922
1321;205.23216247558594
1322;205.0432891845703
1323;204.85455322265625
1324;204.666015625
1325;204.4775390625
1326;204.28929138183594
1327;204.1011962890625
1328;203.91322326660156
1329;203.72544860839844
1330;203.5377655029297
1331;203.35023498535156
1332;203.162841796875
1333;202.9756317138672
1334;202.78855895996094
1335;202.60157775878906
1336;202.4148406982422
1337;202.22821044921875
1338;202.041748046875
1339;201.85540771484375
1340;201.66929626464844
1341;201.4832763671875
1342;201.2974090576172
1343;201.1116485595703
1344;200.92608642578125
1345;200.74066162109375
1346;200.555419921875
1347;200.37030029296875
1348;200.1853485107422
1349;200.0005645751953
1350;199.81585693359375
1351;199.63134765625
1352;199.44700622558594
1353;199.26275634765625
1354;199.0786590576172
1355;198.89471435546875
1356;198.7108917236328
1357;198.52732849121094
1358;198.3438262939453
1359;198.1604766845703
1360;197.977294921875
1361;197.7942657470703
1362;197.61138916015625
1363;197.4285888671875
1364;197.2460174560547
1365;197.0635986328125
1366;196.88128662109375
1367;196.69911193847656
1368;196.5171356201172
1369;196.33526611328125
1370;196.1535186767578
1371;195.97198486328125
1372;195.79052734375
1373;195.60926818847656
1374;195.4281463623047
1375;195.2471466064453
1376;195.0663604736328
1377;194.8856964111328
1378;194.7052001953125
1379;194.5248260498047
1380;194.3445587158203
1381;194.16444396972656
1382;193.98448181152344
1383;193.80470275878906
1384;193.6250457763672
1385;193.445556640625
1386;193.2661895751953
1387;193.0869598388672
1388;192.9079132080078
1389;192.7289581298828
1390;192.5502166748047
1391;192.37156677246094
1392;192.19305419921875
1393;192.0146942138672
1394;191.8365478515625
1395;191.6584930419922
1396;191.4805450439453
1397;191.3028106689453
1398;191.1251983642578
1399;190.94776916503906
1400;190.7704620361328
1401;190.59326171875
1402;190.416259765625
1403;190.2393341064453
1404;190.0625762939453
1405;189.88597106933594
1406;189.70953369140625
1407;189.5332489013672
1408;189.3570556640625
1409;189.1809844970703
1410;189.005126953125
1411;188.82936096191406
1412;188.6537628173828
1413;188.47833251953125
1414;188.30303955078125
1415;188.1278839111328
1416;187.9528350830078
1417;187.7779998779297
1418;187.603271484375
1419;187.4286651611328
1420;187.2541961669922
1421;187.07989501953125
1422;186.90574645996094
1423;186.731689453125
1424;186.55784606933594
1425;186.3840789794922
1426;186.2104949951172
1427;186.0370330810547
1428;185.8637237548828
1429;185.6905517578125
1430;185.51756286621094
1431;185.3446807861328
1432;185.1719512939453
1433;184.99937438964844
1434;184.82691955566406
1435;184.6546173095703
1436;184.4824676513672
1437;184.3104248046875
1438;184.13853454589844
1439;183.966796875
1440;183.795166015625
1441;183.6237030029297
1442;183.45237731933594
1443;183.28118896484375
1444;183.1101531982422
1445;182.93922424316406
1446;182.7684783935547
1447;182.59788513183594
1448;182.42738342285156
1449;182.2570343017578
1450;182.0868377685547
1451;181.91676330566406
1452;181.7468719482422
1453;181.5770721435547
1454;181.40745544433594
1455;181.2379608154297
1456;181.0685577392578
1457;180.8993377685547
1458;180.73028564453125
1459;180.5613555908203
1460;180.392578125
1461;180.2239227294922
1462;180.0554656982422
1463;179.88702392578125
1464;179.71881103515625
1465;179.55072021484375
1466;179.38279724121094
1467;179.21495056152344
1468;179.0472869873047
1469;178.87974548339844
1470;178.71229553222656
1471;178.54505920410156
1472;178.37794494628906
1473;178.2109832763672
1474;178.04417419433594
1475;177.87744140625
1476;177.71087646484375
1477;177.5443878173828
1478;177.3781280517578
1479;177.21197509765625
1480;177.0459442138672
1481;176.8800811767578
1482;176.71435546875
1483;176.54872131347656
1484;176.38323974609375
1485;176.2179412841797
1486;176.052734375
1487;175.8876953125
1488;175.72276306152344
1489;175.55799865722656
1490;175.393310546875
1491;175.2288055419922
1492;175.064453125
1493;174.90020751953125
1494;174.736083984375
1495;174.57212829589844
1496;174.4083251953125
1497;174.2446746826172
1498;174.08106994628906
1499;173.91766357421875
1500;173.75433349609375
1501;173.5912322998047
1502;173.42822265625
1503;173.2653350830078
1504;173.10260009765625
1505;172.94004821777344
1506;172.77757263183594
1507;172.615234375
1508;172.4530487060547
1509;172.2909698486328
1510;172.1290740966797
1511;171.96726989746094
1512;171.8056640625
1513;171.64414978027344
1514;171.4827423095703
1515;171.321533203125
1516;171.16041564941406
1517;170.99945068359375
1518;170.8385772705078
1519;170.6779022216797
1520;170.51734924316406
1521;170.3568878173828
1522;170.19659423828125
1523;170.0364227294922
1524;169.87640380859375
1525;169.71653747558594
1526;169.5567626953125
1527;169.3971405029297
1528;169.23765563964844
1529;169.07826232910156
1530;168.91903686523438
1531;168.75990295410156
1532;168.60098266601562
1533;168.44212341308594
1534;168.28347778320312
1535;168.12486267089844
1536;167.96644592285156
1537;167.8081512451172
1538;167.65000915527344
1539;167.49197387695312
1540;167.33409118652344
1541;167.17628479003906
1542;167.0186767578125
1543;166.86119079589844
1544;166.70384216308594
1545;166.54664611816406
1546;166.38955688476562
1547;166.2325897216797
1548;166.07577514648438
1549;165.9190673828125
1550;165.76251220703125
1551;165.60609436035156
1552;165.44976806640625
1553;165.29364013671875
1554;165.1376190185547
1555;164.981689453125
1556;164.82594299316406
1557;164.67031860351562
1558;164.51475524902344
1559;164.3594207763672
1560;164.2041778564453
1561;164.04905700683594
1562;163.8940887451172
1563;163.7392120361328
1564;163.58445739746094
1565;163.429931640625
1566;163.27545166015625
1567;163.12115478515625
1568;162.96693420410156
1569;162.81288146972656
1570;162.65892028808594
1571;162.50514221191406
1572;162.35150146484375
1573;162.1979522705078
1574;162.04454040527344
1575;161.89125061035156
1576;161.7380828857422
1577;161.58509826660156
1578;161.4322052001953
1579;161.27947998046875
1580;161.12686157226562
1581;160.97438049316406
1582;160.82196044921875
1583;160.66973876953125
1584;160.51763916015625
1585;160.36566162109375
1586;160.21383666992188
1587;160.0620880126953
1588;159.91049194335938
1589;159.759033203125
1590;159.607666015625
1591;159.4564666748047
1592;159.305419921875
1593;159.1544952392578
1594;159.00363159179688
1595;158.8529510498047
1596;158.7024383544922
1597;158.55198669433594
1598;158.4016571044922
1599;158.2515106201172
1600;158.1014862060547
1601;157.9515838623047
1602;157.8017578125
1603;157.65211486816406
1604;157.50257873535156
1605;157.3531494140625
1606;157.20387268066406
1607;157.0547332763672
1608;156.9056854248047
1609;156.7567901611328
1610;156.6080322265625
1611;156.4594268798828
1612;156.31089782714844
1613;156.16253662109375
1614;156.0143280029297
1615;155.86619567871094
1616;155.7181854248047
1617;155.57029724121094
1618;155.4225616455078
1619;155.27496337890625
1620;155.12745666503906
1621;154.9800567626953
1622;154.83287048339844
1623;154.6857452392578
1624;154.53875732421875
1625;154.391845703125
1626;154.2451171875
1627;154.0985565185547
1628;153.95205688476562
1629;153.80569458007812
1630;153.6594696044922
1631;153.51341247558594
1632;153.36741638183594
1633;153.2215576171875
1634;153.0758514404297
1635;152.93023681640625
1636;152.78477478027344
1637;152.63941955566406
1638;152.4942169189453
1639;152.34912109375
1640;152.20413208007812
1641;152.0592803955078
1642;151.91456604003906
1643;151.76998901367188
1644;151.6255340576172
1645;151.4811553955078
1646;151.3369598388672
1647;151.19285583496094
1648;151.0488739013672
1649;150.90505981445312
1650;150.76133728027344
1651;150.6177520751953
1652;150.4742889404297
1653;150.3309783935547
1654;150.18772888183594
1655;150.0446319580078
1656;149.90167236328125
1657;149.7587890625
1658;149.61610412597656
1659;149.47352600097656
1660;149.33106994628906
1661;149.188720703125
1662;149.0465087890625
1663;148.90440368652344
1664;148.7624053955078
1665;148.6205596923828
1666;148.47886657714844
1667;148.33724975585938
1668;148.19578552246094
1669;148.054443359375
1670;147.91319274902344
1671;147.77207946777344
1672;147.63108825683594
1673;147.49021911621094
1674;147.34945678710938
1675;147.20887756347656
1676;147.068359375
1677;146.927978515625
1678;146.78775024414062
1679;146.64759826660156
1680;146.5076141357422
1681;146.3677215576172
1682;146.22796630859375
1683;146.0883331298828
1684;145.9488067626953
1685;145.80943298339844
1686;145.67015075683594
1687;145.53099060058594
1688;145.39199829101562
1689;145.2530517578125
1690;145.1143035888672
1691;144.9756622314453
1692;144.83709716796875
1693;144.69871520996094
1694;144.56039428710938
1695;144.42222595214844
1696;144.2841796875
1697;144.1462860107422
1698;144.0084686279297
1699;143.87075805664062
1700;143.73321533203125
1701;143.59573364257812
1702;143.45843505859375
1703;143.3212432861328
1704;143.1841583251953
1705;143.0471954345703
1706;142.91038513183594
1707;142.77365112304688
1708;142.63706970214844
1709;142.50059509277344
1710;142.36422729492188
1711;142.22796630859375
1712;142.09185791015625
1713;141.9558563232422
1714;141.8200225830078
1715;141.68423461914062
1716;141.54859924316406
1717;141.41310119628906
1718;141.27772521972656
1719;141.14247131347656
1720;141.0072784423828
1721;140.8722686767578
1722;140.73731994628906
1723;140.60252380371094
1724;140.46786499023438
1725;140.33326721191406
1726;140.1988525390625
1727;140.0645294189453
1728;139.9303436279297
1729;139.79624938964844
1730;139.66233825683594
1731;139.52845764160156
1732;139.3946990966797
1733;139.2611083984375
1734;139.1276397705078
1735;138.99424743652344
1736;138.8610076904297
1737;138.7278594970703
1738;138.5948486328125
1739;138.46197509765625
1740;138.32919311523438
1741;138.19651794433594
1742;138.0640106201172
1743;137.9315643310547
1744;137.7992706298828
1745;137.6670379638672
1746;137.5349884033203
1747;137.40306091308594
1748;137.27122497558594
1749;137.13955688476562
1750;137.00794982910156
1751;136.87643432617188
1752;136.7450714111328
1753;136.6138458251953
1754;136.4827117919922
1755;136.35171508789062
1756;136.22080993652344
1757;136.0900421142578
1758;135.95941162109375
1759;135.828857421875
1760;135.69842529296875
1761;135.56809997558594
1762;135.43792724609375
1763;135.30784606933594
1764;135.1779022216797
1765;135.04806518554688
1766;134.91835021972656
1767;134.78872680664062
1768;134.6592559814453
1769;134.52989196777344
1770;134.40065002441406
1771;134.27151489257812
1772;134.14247131347656
1773;134.0135955810547
1774;133.8848114013672
1775;133.75611877441406
1776;133.62757873535156
1777;133.49913024902344
1778;133.3708038330078
1779;133.24258422851562
1780;133.1144561767578
1781;132.98646545410156
1782;132.8585968017578
1783;132.73086547851562
1784;132.60325622558594
1785;132.4757080078125
1786;132.3483123779297
1787;132.2210235595703
1788;132.0938720703125
1789;131.966796875
1790;131.83984375
1791;131.71304321289062
1792;131.58633422851562
1793;131.45974731445312
1794;131.33323669433594
1795;131.2068634033203
1796;131.0806427001953
1797;130.95448303222656
1798;130.82846069335938
1799;130.70252990722656
1800;130.57672119140625
1801;130.45106506347656
1802;130.3254852294922
1803;130.2000274658203
1804;130.07467651367188
1805;129.94944763183594
1806;129.8242950439453
1807;129.6993408203125
1808;129.5744171142578
1809;129.4496612548828
1810;129.32496643066406
1811;129.200439453125
1812;129.0760040283203
1813;128.9517059326172
1814;128.82748413085938
1815;128.70338439941406
1816;128.57940673828125
1817;128.4555206298828
1818;128.331787109375
1819;128.2081298828125
1820;128.08462524414062
1821;127.96117401123047
1822;127.83788299560547
1823;127.71471405029297
1824;127.59161376953125
1825;127.4686279296875
1826;127.34578704833984
1827;127.22303009033203
1828;127.10043334960938
1829;126.97789764404297
1830;126.85546875
1831;126.73319244384766
1832;126.61102294921875
1833;126.48892974853516
1834;126.36698150634766
1835;126.24514770507812
1836;126.1234130859375
1837;126.00182342529297
1838;125.88030242919922
1839;125.75890350341797
1840;125.63762664794922
1841;125.51642608642578
1842;125.39535522460938
1843;125.27437591552734
1844;125.1535415649414
1845;125.0328140258789
1846;124.91219329833984
1847;124.79168701171875
1848;124.67129516601562
1849;124.551025390625
1850;124.43081665039062
1851;124.31075286865234
1852;124.19082641601562
1853;124.07098388671875
1854;123.95123291015625
1855;123.83160400390625
1856;123.71210479736328
1857;123.59271240234375
1858;123.47342681884766
1859;123.3542251586914
1860;123.23517608642578
1861;123.1162109375
1862;122.99737548828125
1863;122.87863159179688
1864;122.760009765625
1865;122.64151000976562
1866;122.5230941772461
1867;122.40479278564453
1868;122.2865982055664
1869;122.16852569580078
1870;122.0505599975586
1871;121.93270111083984
1872;121.8149642944336
1873;121.69729614257812
1874;121.57977294921875
1875;121.46236419677734
1876;121.3450698852539
1877;121.22784423828125
1878;121.11078643798828
1879;120.9937973022461
1880;120.87692260742188
1881;120.7601318359375
1882;120.64349365234375
1883;120.52692413330078
1884;120.4104995727539
1885;120.29413604736328
1886;120.17791748046875
1887;120.06182098388672
1888;119.94580078125
1889;119.82991790771484
1890;119.714111328125
1891;119.59842681884766
1892;119.48290252685547
1893;119.36739349365234
1894;119.25203704833984
1895;119.13680267333984
1896;119.02164459228516
1897;118.9066390991211
1898;118.79170989990234
1899;118.67688751220703
1900;118.5621566772461
1901;118.44756317138672
1902;118.33304595947266
1903;118.21868896484375
1904;118.10437774658203
1905;117.990234375
1906;117.87615966796875
1907;117.7621841430664
1908;117.6483383178711
1909;117.53459930419922
1910;117.42095947265625
1911;117.30742645263672
1912;117.19400024414062
1913;117.0807113647461
1914;116.96746826171875
1915;116.8543701171875
1916;116.7413558959961
1917;116.62847900390625
1918;116.51568603515625
1919;116.40300750732422
1920;116.29043579101562
1921;116.177978515625
1922;116.06561279296875
1923;115.95333099365234
1924;115.8412094116211
1925;115.72915649414062
1926;115.61722564697266
1927;115.5053939819336
1928;115.39366912841797
1929;115.28205108642578
1930;115.1705551147461
1931;115.05913543701172
1932;114.94783782958984
1933;114.83663177490234
1934;114.72555541992188
1935;114.61456298828125
1936;114.50370025634766
1937;114.39288330078125
1938;114.2822265625
1939;114.17166137695312
1940;114.06121826171875
1941;113.95086669921875
1942;113.84061431884766
1943;113.73046875
1944;113.62042236328125
1945;113.51050567626953
1946;113.4006576538086
1947;113.29093170166016
1948;113.1812973022461
1949;113.07177734375
1950;112.96239471435547
1951;112.85306549072266
1952;112.74385833740234
1953;112.6347427368164
1954;112.5257339477539
1955;112.4168701171875
1956;112.30806732177734
1957;112.19940948486328
1958;112.0907974243164
1959;111.98233032226562
1960;111.87395477294922
1961;111.76569366455078
1962;111.65752410888672
1963;111.54946899414062
1964;111.4415054321289
1965;111.3336410522461
1966;111.22589111328125
1967;111.11823272705078
1968;111.01070404052734
1969;110.90325927734375
1970;110.7959213256836
1971;110.68866729736328
1972;110.58154296875
1973;110.4745101928711
1974;110.3675765991211
1975;110.26077270507812
1976;110.1540298461914
1977;110.04740142822266
1978;109.9408950805664
1979;109.8344955444336
1980;109.72815704345703
1981;109.6219482421875
1982;109.51583862304688
1983;109.40985107421875
1984;109.303955078125
1985;109.19817352294922
1986;109.09246826171875
1987;108.98684692382812
1988;108.88140106201172
1989;108.7759780883789
1990;108.67069244384766
1991;108.56551361083984
1992;108.46041870117188
1993;108.3554458618164
1994;108.25054931640625
1995;108.14575958251953
1996;108.04106903076172
1997;107.9365234375
1998;107.83203125
1999;107.72766876220703
2000;107.62337493896484
2001;107.51920318603516
2002;107.41515350341797
2003;107.3111801147461
2004;107.20731353759766
2005;107.10355377197266
2006;106.9998550415039
2007;106.8963394165039
2008;106.7928466796875
2009;106.68950653076172
2010;106.58621215820312
2011;106.4830551147461
2012;106.3800048828125
2013;106.27703857421875
2014;106.1741714477539
2015;106.0714111328125
2016;105.96874237060547
2017;105.86615753173828
2018;105.76371002197266
2019;105.66132354736328
2020;105.55907440185547
2021;105.4569091796875
2022;105.3548355102539
2023;105.25287628173828
2024;105.1510238647461
2025;105.04925537109375
2026;104.9476318359375
2027;104.8460464477539
2028;104.74454498291016
2029;104.64321899414062
2030;104.54193878173828
2031;104.44078826904297
2032;104.33971405029297
2033;104.23870849609375
2034;104.1378402709961
2035;104.03705596923828
2036;103.9364242553711
2037;103.8358383178711
2038;103.7353515625
2039;103.635009765625
2040;103.53472137451172
2041;103.43456268310547
2042;103.33448028564453
2043;103.23448944091797
2044;103.13459014892578
2045;103.03482818603516
2046;102.93514251708984
2047;102.83557891845703
2048;102.73607635498047
2049;102.63665771484375
2050;102.53738403320312
2051;102.43819427490234
2052;102.3390884399414
2053;102.2401123046875
2054;102.1412124633789
2055;102.04238891601562
2056;101.94368743896484
2057;101.8450698852539
2058;101.7466049194336
2059;101.6481704711914
2060;101.54985809326172
2061;101.4516372680664
2062;101.3535385131836
2063;101.25548553466797
2064;101.15755462646484
2065;101.05973052978516
2066;100.9620132446289
2067;100.86441040039062
2068;100.7668685913086
2069;100.6694107055664
2070;100.57208251953125
2071;100.4748306274414
2072;100.37769317626953
2073;100.28064727783203
2074;100.1836929321289
2075;100.08683013916016
2076;99.99007415771484
2077;99.89339447021484
2078;99.79682159423828
2079;99.7003402709961
2080;99.6039810180664
2081;99.5076904296875
2082;99.4115219116211
2083;99.3154296875
2084;99.21945190429688
2085;99.12352752685547
2086;99.0277099609375
2087;98.93204498291016
2088;98.83643341064453
2089;98.74091339111328
2090;98.64551544189453
2091;98.55017852783203
2092;98.45496368408203
2093;98.3598403930664
2094;98.2647933959961
2095;98.16985321044922
2096;98.07501220703125
2097;97.98026275634766
2098;97.88562774658203
2099;97.79105377197266
2100;97.69657135009766
2101;97.60223388671875
2102;97.50794219970703
2103;97.41378021240234
2104;97.3197021484375
2105;97.22571563720703
2106;97.1318130493164
2107;97.03801727294922
2108;96.9443130493164
2109;96.8507308959961
2110;96.7572021484375
2111;96.66378784179688
2112;96.5704574584961
2113;96.47723388671875
2114;96.38409423828125
2115;96.29102325439453
2116;96.19808959960938
2117;96.10525512695312
2118;96.01250457763672
2119;95.91983795166016
2120;95.82723999023438
2121;95.73477935791016
2122;95.64239501953125
2123;95.55008697509766
2124;95.4579086303711
2125;95.36581420898438
2126;95.27379608154297
2127;95.18187713623047
2128;95.09003448486328
2129;94.9983139038086
2130;94.90667724609375
2131;94.81513214111328
2132;94.72371673583984
2133;94.63232421875
2134;94.54106903076172
2135;94.44989776611328
2136;94.35881805419922
2137;94.2678451538086
2138;94.17694854736328
2139;94.0861587524414
2140;93.99545288085938
2141;93.90482330322266
2142;93.81430053710938
2143;93.723876953125
2144;93.6335220336914
2145;93.54327392578125
2146;93.45313262939453
2147;93.36306762695312
2148;93.27310180664062
2149;93.18326568603516
2150;93.09346771240234
2151;93.0037612915039
2152;92.9141616821289
2153;92.82466888427734
2154;92.7352523803711
2155;92.64592742919922
2156;92.55670166015625
2157;92.4675521850586
2158;92.3785171508789
2159;92.28955841064453
2160;92.20069122314453
2161;92.11193084716797
2162;92.02323150634766
2163;91.93465423583984
2164;91.84613800048828
2165;91.75772094726562
2166;91.66940307617188
2167;91.5811767578125
2168;91.49304962158203
2169;91.4050064086914
2170;91.31702423095703
2171;91.22917938232422
2172;91.14141082763672
2173;91.05374145507812
2174;90.96613311767578
2175;90.8786392211914
2176;90.79122924804688
2177;90.70391082763672
2178;90.6166763305664
2179;90.52957153320312
2180;90.4425048828125
2181;90.35556030273438
2182;90.26868438720703
2183;90.18193817138672
2184;90.09526824951172
2185;90.00863647460938
2186;89.922119140625
2187;89.83570098876953
2188;89.7493896484375
2189;89.66315460205078
2190;89.5770034790039
2191;89.490966796875
2192;89.40499877929688
2193;89.31912994384766
2194;89.23333740234375
2195;89.14763641357422
2196;89.06201171875
2197;88.97650909423828
2198;88.8910903930664
2199;88.80572509765625
2200;88.72046661376953
2201;88.63532257080078
2202;88.55022430419922
2203;88.46524047851562
2204;88.38036346435547
2205;88.29556274414062
2206;88.2108383178711
2207;88.1261978149414
2208;88.04166412353516
2209;87.95719146728516
2210;87.872802734375
2211;87.78854370117188
2212;87.704345703125
2213;87.6202621459961
2214;87.53624725341797
2215;87.45233154296875
2216;87.3685073852539
2217;87.28475189208984
2218;87.20108795166016
2219;87.11751556396484
2220;87.03404998779297
2221;86.95064544677734
2222;86.86734008789062
2223;86.78411102294922
2224;86.70098114013672
2225;86.6179428100586
2226;86.53498077392578
2227;86.45211791992188
2228;86.36932373046875
2229;86.28662872314453
2230;86.20404815673828
2231;86.12151336669922
2232;86.03909301757812
2233;85.95673370361328
2234;85.87445831298828
2235;85.79228973388672
2236;85.7102279663086
2237;85.62822723388672
2238;85.54632568359375
2239;85.46451568603516
2240;85.38275909423828
2241;85.30110931396484
2242;85.21955108642578
2243;85.13807678222656
2244;85.05669403076172
2245;84.97534942626953
2246;84.89415740966797
2247;84.81302642822266
2248;84.73198699951172
2249;84.65103912353516
2250;84.57015228271484
2251;84.48937225341797
2252;84.4086685180664
2253;84.32804107666016
2254;84.2475357055664
2255;84.1671142578125
2256;84.08673858642578
2257;84.00647735595703
2258;83.9262924194336
2259;83.84619903564453
2260;83.76618194580078
2261;83.686279296875
2262;83.6064224243164
2263;83.52668762207031
2264;83.44701385498047
2265;83.36742401123047
2266;83.28792572021484
2267;83.2085189819336
2268;83.12918853759766
2269;83.0499267578125
2270;82.97079467773438
2271;82.89170837402344
2272;82.81273651123047
2273;82.73383331298828
2274;82.65503692626953
2275;82.5762710571289
2276;82.49765014648438
2277;82.4190673828125
2278;82.34059143066406
2279;82.2621841430664
2280;82.18390655517578
2281;82.10565185546875
2282;82.02751922607422
2283;81.9494857788086
2284;81.87151336669922
2285;81.79363250732422
2286;81.71582794189453
2287;81.63809967041016
2288;81.56045532226562
2289;81.48290252685547
2290;81.40544891357422
2291;81.32804107666016
2292;81.25076293945312
2293;81.17356872558594
2294;81.09644317626953
2295;81.01939392089844
2296;80.94242858886719
2297;80.86553192138672
2298;80.78873443603516
2299;80.71204376220703
2300;80.63538360595703
2301;80.55884552001953
2302;80.48238372802734
2303;80.40601348876953
2304;80.3297119140625
2305;80.25349426269531
2306;80.1773452758789
2307;80.101318359375
2308;80.02535247802734
2309;79.94945526123047
2310;79.8736572265625
2311;79.79794311523438
2312;79.72232055664062
2313;79.64678192138672
2314;79.5713119506836
2315;79.49591827392578
2316;79.42061614990234
2317;79.34537506103516
2318;79.27027130126953
2319;79.19519805908203
2320;79.12024688720703
2321;79.04537200927734
2322;78.97054290771484
2323;78.89580535888672
2324;78.82115936279297
2325;78.74659729003906
2326;78.67211151123047
2327;78.59774017333984
2328;78.5234146118164
2329;78.44917297363281
2330;78.3750228881836
2331;78.30095672607422
2332;78.22698211669922
2333;78.15303802490234
2334;78.07921600341797
2335;78.00545501708984
2336;77.93181610107422
2337;77.85823059082031
2338;77.78471374511719
2339;77.71131134033203
2340;77.63799285888672
2341;77.56470489501953
2342;77.49152374267578
2343;77.41841888427734
2344;77.34541320800781
2345;77.27246856689453
2346;77.1996078491211
2347;77.1268539428711
2348;77.05416107177734
2349;76.98155975341797
2350;76.90899658203125
2351;76.83655548095703
2352;76.76417541503906
2353;76.69187927246094
2354;76.61968231201172
2355;76.54753875732422
2356;76.47550201416016
2357;76.40352630615234
2358;76.33162689208984
2359;76.25982666015625
2360;76.18810272216797
2361;76.11641693115234
2362;76.04486846923828
2363;75.9733657836914
2364;75.90196228027344
2365;75.83065032958984
2366;75.75940704345703
2367;75.68821716308594
2368;75.61713409423828
2369;75.54610443115234
2370;75.47516632080078
2371;75.4043197631836
2372;75.33356475830078
2373;75.26285552978516
2374;75.19225311279297
2375;75.1217041015625
2376;75.05126953125
2377;74.98087310791016
2378;74.91058349609375
2379;74.84033966064453
2380;74.77020263671875
2381;74.70014190673828
2382;74.63015747070312
2383;74.56024932861328
2384;74.49044036865234
2385;74.4206771850586
2386;74.35102081298828
2387;74.28142547607422
2388;74.2119140625
2389;74.14248657226562
2390;74.0731201171875
2391;74.00384521484375
2392;73.93464660644531
2393;73.86552429199219
2394;73.7964859008789
2395;73.7275390625
2396;73.65862274169922
2397;73.5898208618164
2398;73.52108764648438
2399;73.45243072509766
2400;73.38385009765625
2401;73.31533813476562
2402;73.24694061279297
2403;73.1785888671875
2404;73.11031341552734
2405;73.0421371459961
2406;72.9740219116211
2407;72.90599822998047
2408;72.8380355834961
2409;72.77014923095703
2410;72.70236206054688
2411;72.6346206665039
2412;72.56697845458984
2413;72.49940490722656
2414;72.43192291259766
2415;72.36449432373047
2416;72.29718780517578
2417;72.22989654541016
2418;72.16271209716797
2419;72.09563446044922
2420;72.02859497070312
2421;71.96163177490234
2422;71.89474487304688
2423;71.82793426513672
2424;71.76123046875
2425;71.69457244873047
2426;71.62801361083984
2427;71.56150817871094
2428;71.49508666992188
2429;71.42874908447266
2430;71.36248016357422
2431;71.2962875366211
2432;71.23014831542969
2433;71.16413116455078
2434;71.0981674194336
2435;71.03228759765625
2436;70.9664535522461
2437;70.90072631835938
2438;70.83507537841797
2439;70.76950073242188
2440;70.70398712158203
2441;70.63854217529297
2442;70.57315826416016
2443;70.50788116455078
2444;70.44268798828125
2445;70.37757110595703
2446;70.3124771118164
2447;70.24750518798828
2448;70.1826171875
2449;70.11778259277344
2450;70.05301666259766
2451;69.98833465576172
2452;69.92374420166016
2453;69.85919952392578
2454;69.79474639892578
2455;69.7303466796875
2456;69.66605377197266
2457;69.60181427001953
2458;69.53766632080078
2459;69.47357177734375
2460;69.40955352783203
2461;69.34563446044922
2462;69.2817611694336
2463;69.21797943115234
2464;69.1542739868164
2465;69.09061431884766
2466;69.02706146240234
2467;68.96356964111328
2468;68.90016174316406
2469;68.83682250976562
2470;68.7735366821289
2471;68.71036529541016
2472;68.6472396850586
2473;68.58419799804688
2474;68.52120971679688
2475;68.45832061767578
2476;68.3955078125
2477;68.33275604248047
2478;68.27008056640625
2479;68.20745849609375
2480;68.14492797851562
2481;68.08248901367188
2482;68.02008056640625
2483;67.9577865600586
2484;67.89552307128906
2485;67.83336639404297
2486;67.77127075195312
2487;67.70926666259766
2488;67.64730834960938
2489;67.58544921875
2490;67.5236587524414
2491;67.46190643310547
2492;67.40026092529297
2493;67.33867645263672
2494;67.27716064453125
2495;67.2157211303711
2496;67.15435028076172
2497;67.09305572509766
2498;67.0318374633789
2499;66.97071075439453
2500;66.90961456298828
2501;66.84862518310547
2502;66.78766632080078
2503;66.7268295288086
2504;66.6660385131836
2505;66.60533905029297
2506;66.54468536376953
2507;66.4841079711914
2508;66.42361450195312
2509;66.36317443847656
2510;66.30284118652344
2511;66.24256896972656
2512;66.18233489990234
2513;66.1221923828125
2514;66.06212615966797
2515;66.00212860107422
2516;65.94219970703125
2517;65.8823471069336
2518;65.82257843017578
2519;65.76287078857422
2520;65.70321655273438
2521;65.64363861083984
2522;65.58414459228516
2523;65.52472686767578
2524;65.46536254882812
2525;65.40608215332031
2526;65.34685516357422
2527;65.28771209716797
2528;65.22865295410156
2529;65.16963958740234
2530;65.1107177734375
2531;65.05184173583984
2532;64.99304962158203
2533;64.93434143066406
2534;64.87567901611328
2535;64.81710052490234
2536;64.75859832763672
2537;64.70015716552734
2538;64.64177703857422
2539;64.58348846435547
2540;64.52526092529297
2541;64.46709442138672
2542;64.40901184082031
2543;64.35099029541016
2544;64.29304504394531
2545;64.23517608642578
2546;64.17735290527344
2547;64.1196060180664
2548;64.06195831298828
2549;64.00436401367188
2550;63.94682693481445
2551;63.889373779296875
2552;63.83198928833008
2553;63.774658203125
2554;63.7174072265625
2555;63.66022872924805
2556;63.60311508178711
2557;63.54606628417969
2558;63.489078521728516
2559;63.43218994140625
2560;63.37534713745117
2561;63.31858825683594
2562;63.26190185546875
2563;63.20524978637695
2564;63.14870071411133
2565;63.092227935791016
2566;63.03580093383789
2567;62.97944641113281
2568;62.92314529418945
2569;62.8669319152832
2570;62.8107795715332
2571;62.75469970703125
2572;62.698699951171875
2573;62.64274597167969
2574;62.58689498901367
2575;62.53107833862305
2576;62.47536087036133
2577;62.41966247558594
2578;62.36408615112305
2579;62.30854797363281
2580;62.253082275390625
2581;62.19767379760742
2582;62.14235305786133
2583;62.08708190917969
2584;62.031890869140625
2585;61.97675704956055
2586;61.92170333862305
2587;61.86671829223633
2588;61.81180191040039
2589;61.7569465637207
2590;61.702152252197266
2591;61.64743423461914
2592;61.592777252197266
2593;61.53818130493164
2594;61.483673095703125
2595;61.429229736328125
2596;61.374820709228516
2597;61.320526123046875
2598;61.26627731323242
2599;61.21208572387695
2600;61.1579704284668
2601;61.10393142700195
2602;61.04994583129883
2603;60.99604415893555
2604;60.94218063354492
2605;60.88841247558594
2606;60.83469772338867
2607;60.78102111816406
2608;60.72745132446289
2609;60.673954010009766
2610;60.6204948425293
2611;60.567108154296875
2612;60.5137939453125
2613;60.460540771484375
2614;60.40736770629883
2615;60.354248046875
2616;60.30118942260742
2617;60.24820327758789
2618;60.19529342651367
2619;60.142425537109375
2620;60.08964157104492
2621;60.03693771362305
2622;59.9842643737793
2623;59.93168258666992
2624;59.8791618347168
2625;59.82668685913086
2626;59.7742805480957
2627;59.72198486328125
2628;59.66971206665039
2629;59.61751174926758
2630;59.565372467041016
2631;59.513309478759766
2632;59.46131896972656
2633;59.40937423706055
2634;59.35750198364258
2635;59.30569839477539
2636;59.253963470458984
2637;59.20228576660156
2638;59.15069580078125
2639;59.099117279052734
2640;59.04764938354492
2641;58.996219635009766
2642;58.94487380981445
2643;58.89358901977539
2644;58.84236526489258
2645;58.79122543334961
2646;58.74012756347656
2647;58.68910598754883
2648;58.638153076171875
2649;58.587249755859375
2650;58.53641891479492
2651;58.48564529418945
2652;58.4349250793457
2653;58.3842887878418
2654;58.33370590209961
2655;58.283172607421875
2656;58.23274230957031
2657;58.18235397338867
2658;58.13203811645508
2659;58.0817756652832
2660;58.031585693359375
2661;57.98146438598633
2662;57.931400299072266
2663;57.881412506103516
2664;57.83147048950195
2665;57.78158950805664
2666;57.731781005859375
2667;57.68202590942383
2668;57.63234329223633
2669;57.58271408081055
2670;57.53316116333008
2671;57.48365783691406
2672;57.43423080444336
2673;57.38486862182617
2674;57.3355598449707
2675;57.28633117675781
2676;57.23713684082031
2677;57.18803024291992
2678;57.13896560668945
2679;57.0899772644043
2680;57.041046142578125
2681;56.992183685302734
2682;56.94337463378906
2683;56.89463806152344
2684;56.84596252441406
2685;56.797332763671875
2686;56.74879455566406
2687;56.700313568115234
2688;56.651885986328125
2689;56.6035270690918
2690;56.55521774291992
2691;56.50697326660156
2692;56.45878219604492
2693;56.410675048828125
2694;56.36262130737305
2695;56.31463623046875
2696;56.266693115234375
2697;56.21882247924805
2698;56.171024322509766
2699;56.12327194213867
2700;56.07558822631836
2701;56.02796936035156
2702;55.98041915893555
2703;55.932918548583984
2704;55.8854866027832
2705;55.838104248046875
2706;55.790802001953125
2707;55.74354934692383
2708;55.69636917114258
2709;55.64923095703125
2710;55.6021614074707
2711;55.55516052246094
2712;55.508209228515625
2713;55.46133041381836
2714;55.41450119018555
2715;55.36773681640625
2716;55.3210334777832
2717;55.27439880371094
2718;55.22782897949219
2719;55.18130111694336
2720;55.13485336303711
2721;55.08845520019531
2722;55.0421257019043
2723;54.9958381652832
2724;54.94963073730469
2725;54.903472900390625
2726;54.85737228393555
2727;54.81135177612305
2728;54.765350341796875
2729;54.71945571899414
2730;54.6735954284668
2731;54.62782287597656
2732;54.58208084106445
2733;54.536407470703125
2734;54.49078369140625
2735;54.44525146484375
2736;54.39975357055664
2737;54.35432052612305
2738;54.30894088745117
2739;54.263641357421875
2740;54.2183723449707
2741;54.17319107055664
2742;54.128055572509766
2743;54.08298873901367
2744;54.0379638671875
2745;53.99300003051758
2746;53.94810485839844
2747;53.903263092041016
2748;53.85850143432617
2749;53.81377029418945
2750;53.76911544799805
2751;53.72453308105469
2752;53.67999267578125
2753;53.63551330566406
2754;53.591094970703125
2755;53.54672622680664
2756;53.50239944458008
2757;53.45817184448242
2758;53.41395568847656
2759;53.36983871459961
2760;53.32576370239258
2761;53.28175735473633
2762;53.23780822753906
2763;53.19392013549805
2764;53.150081634521484
2765;53.106292724609375
2766;53.062591552734375
2767;53.0189208984375
2768;52.97531509399414
2769;52.93178176879883
2770;52.888309478759766
2771;52.84488296508789
2772;52.801517486572266
2773;52.75820541381836
2774;52.71493911743164
2775;52.6717529296875
2776;52.628604888916016
2777;52.585540771484375
2778;52.542510986328125
2779;52.49955368041992
2780;52.45663833618164
2781;52.413787841796875
2782;52.37098693847656
2783;52.328250885009766
2784;52.28558349609375
2785;52.24296951293945
2786;52.20040512084961
2787;52.157901763916016
2788;52.1154670715332
2789;52.07307434082031
2790;52.0307502746582
2791;51.98847961425781
2792;51.94627380371094
2793;51.904109954833984
2794;51.862003326416016
2795;51.81996536254883
2796;51.777957916259766
2797;51.73603439331055
2798;51.69416809082031
2799;51.6523323059082
2800;51.61057662963867
2801;51.56888198852539
2802;51.5272102355957
2803;51.485626220703125
2804;51.4441032409668
2805;51.40262985229492
2806;51.361202239990234
2807;51.3198356628418
2808;51.27853775024414
2809;51.23727798461914
2810;51.196075439453125
2811;51.15494155883789
2812;51.113834381103516
2813;51.072818756103516
2814;51.0318489074707
2815;50.99093246459961
2816;50.9500617980957
2817;50.90925216674805
2818;50.868499755859375
2819;50.82781982421875
2820;50.78715896606445
2821;50.7465934753418
2822;50.7060661315918
2823;50.66558837890625
2824;50.62518310546875
2825;50.5848274230957
2826;50.54453659057617
2827;50.5042839050293
2828;50.46408462524414
2829;50.4239616394043
2830;50.383880615234375
2831;50.34383010864258
2832;50.303863525390625
2833;50.263946533203125
2834;50.22407913208008
2835;50.184268951416016
2836;50.144527435302734
2837;50.10482406616211
2838;50.065185546875
2839;50.02557373046875
2840;49.98604965209961
2841;49.94656753540039
2842;49.90714645385742
2843;49.86778259277344
2844;49.82845687866211
2845;49.789215087890625
2846;49.7500114440918
2847;49.71086120605469
2848;49.6717529296875
2849;49.63270950317383
2850;49.59373092651367
2851;49.55478286743164
2852;49.51590347290039
2853;49.477081298828125
2854;49.43830871582031
2855;49.39958190917969
2856;49.36092758178711
2857;49.32232666015625
2858;49.283756256103516
2859;49.2452507019043
2860;49.2067985534668
2861;49.168399810791016
2862;49.13007736206055
2863;49.09177780151367
2864;49.05354309082031
2865;49.01536178588867
2866;48.97724533081055
2867;48.939178466796875
2868;48.901153564453125
2869;48.86317443847656
2870;48.82526779174805
2871;48.78739929199219
2872;48.74958419799805
2873;48.71183395385742
2874;48.67413330078125
2875;48.636474609375
2876;48.598880767822266
2877;48.561336517333984
2878;48.523834228515625
2879;48.486392974853516
2880;48.44902038574219
2881;48.411685943603516
2882;48.37440872192383
2883;48.33718490600586
2884;48.300018310546875
2885;48.26289749145508
2886;48.225830078125
2887;48.18882369995117
2888;48.1518669128418
2889;48.11495590209961
2890;48.07809829711914
2891;48.04130172729492
2892;48.00453567504883
2893;47.96782302856445
2894;47.931182861328125
2895;47.89457702636719
2896;47.858028411865234
2897;47.8215217590332
2898;47.78508377075195
2899;47.748687744140625
2900;47.71235275268555
2901;47.67605209350586
2902;47.63981246948242
2903;47.6036262512207
2904;47.5675048828125
2905;47.53141784667969
2906;47.49538803100586
2907;47.45941162109375
2908;47.42348098754883
2909;47.38761520385742
2910;47.351802825927734
2911;47.3160400390625
2912;47.28031921386719
2913;47.24464797973633
2914;47.209041595458984
2915;47.1734619140625
2916;47.1379508972168
2917;47.10247802734375
2918;47.06706619262695
2919;47.031681060791016
2920;46.99637222290039
2921;46.961116790771484
2922;46.92588806152344
2923;46.890750885009766
2924;46.85563278198242
2925;46.82057571411133
2926;46.78556442260742
2927;46.7506103515625
2928;46.71568298339844
2929;46.68082809448242
2930;46.646026611328125
2931;46.61125564575195
2932;46.576568603515625
2933;46.54190444946289
2934;46.50730514526367
2935;46.472747802734375
2936;46.43824768066406
2937;46.40379333496094
2938;46.369384765625
2939;46.33502197265625
2940;46.30072021484375
2941;46.26645278930664
2942;46.23223876953125
2943;46.198089599609375
2944;46.163997650146484
2945;46.12991714477539
2946;46.09591293334961
2947;46.06195068359375
2948;46.028045654296875
2949;45.99418640136719
2950;45.960384368896484
2951;45.92661666870117
2952;45.89290237426758
2953;45.85923385620117
2954;45.82562255859375
2955;45.79207229614258
2956;45.7585563659668
2957;45.72507858276367
2958;45.69166946411133
2959;45.65830993652344
2960;45.6249885559082
2961;45.59172439575195
2962;45.55851364135742
2963;45.52531814575195
2964;45.4921989440918
2965;45.459136962890625
2966;45.42609786987305
2967;45.39312744140625
2968;45.36019515991211
2969;45.32731628417969
2970;45.29447937011719
2971;45.26169967651367
2972;45.22896194458008
2973;45.1962776184082
2974;45.163639068603516
2975;45.131046295166016
2976;45.0984992980957
2977;45.06601333618164
2978;45.033565521240234
2979;45.00117111206055
2980;44.96881103515625
2981;44.93650436401367
2982;44.904266357421875
2983;44.87205505371094
2984;44.83989334106445
2985;44.80777359008789
2986;44.77571487426758
2987;44.74369812011719
2988;44.711734771728516
2989;44.679813385009766
2990;44.64794921875
2991;44.616119384765625
2992;44.5843391418457
2993;44.55259704589844
2994;44.52090835571289
2995;44.489288330078125
2996;44.457698822021484
2997;44.426151275634766
2998;44.394649505615234
2999;44.36320495605469
