;loss
0;877.2753295898438
1;876.8401489257812
2;876.4036254882812
3;875.9654541015625
4;875.52587890625
5;875.0845336914062
6;874.6550903320312
7;874.2197265625
8;873.7796020507812
9;873.3351440429688
10;872.8870239257812
11;872.4342651367188
12;871.9786376953125
13;871.5208129882812
14;871.0602416992188
15;870.59375
16;870.126953125
17;869.6526489257812
18;869.1742553710938
19;868.6917114257812
20;868.2097778320312
21;867.7234497070312
22;867.2325439453125
23;866.7313232421875
24;866.2247314453125
25;865.7186889648438
26;865.2008666992188
27;864.6832885742188
28;864.1596069335938
29;863.6231079101562
30;863.0861206054688
31;862.5357666015625
32;861.9844970703125
33;861.4257202148438
34;860.85888671875
35;860.2772827148438
36;859.6870727539062
37;859.0944213867188
38;858.4925537109375
39;857.8809814453125
40;857.2593994140625
41;856.62744140625
42;855.9848022460938
43;855.3309326171875
44;854.6655883789062
45;853.9815063476562
46;853.2919311523438
47;852.5894165039062
48;851.8738403320312
49;851.1376953125
50;850.3872680664062
51;849.6220703125
52;848.8414306640625
53;848.044921875
54;847.23193359375
55;846.4017333984375
56;845.5537109375
57;844.6944580078125
58;843.8091430664062
59;842.9114379882812
60;841.9857788085938
61;841.0462036132812
62;840.0773315429688
63;839.0928955078125
64;838.0845336914062
65;837.0514526367188
66;835.9848022460938
67;834.8909912109375
68;833.7766723632812
69;832.6329345703125
70;831.45849609375
71;830.2518310546875
72;829.01123046875
73;827.7267456054688
74;826.4046020507812
75;825.0424194335938
76;823.6380615234375
77;822.189453125
78;820.7034301757812
79;819.1590576171875
80;817.5721435546875
81;815.9203491210938
82;814.2202758789062
83;812.4489135742188
84;810.6124877929688
85;808.7073364257812
86;806.7407836914062
87;804.69921875
88;802.5787963867188
89;800.3644409179688
90;798.0762939453125
91;795.6875610351562
92;793.22119140625
93;790.64990234375
94;787.9854125976562
95;785.2276611328125
96;782.3919677734375
97;779.46728515625
98;776.45703125
99;773.3522338867188
100;770.1895751953125
101;766.9479370117188
102;763.6522216796875
103;760.31396484375
104;756.9456787109375
105;753.5603637695312
106;750.1713256835938
107;746.7916870117188
108;743.4332885742188
109;740.1227416992188
110;736.8549194335938
111;733.6394653320312
112;730.4703369140625
113;727.3798217773438
114;724.3594360351562
115;721.4008178710938
116;718.5301513671875
117;715.7252807617188
118;712.9977416992188
119;710.3582763671875
120;707.78515625
121;705.2870483398438
122;702.8629760742188
123;700.5203247070312
124;698.248046875
125;696.0400390625
126;693.9077758789062
127;691.8534545898438
128;689.8606567382812
129;687.9492797851562
130;686.1166381835938
131;684.3497314453125
132;682.6508178710938
133;681.0214233398438
134;679.4434814453125
135;677.9068603515625
136;676.4188842773438
137;674.9714965820312
138;673.5653076171875
139;672.1890258789062
140;670.8455810546875
141;669.5353393554688
142;668.2501220703125
143;666.9945678710938
144;665.7647094726562
145;664.5592651367188
146;663.3776245117188
147;662.2169189453125
148;661.0760498046875
149;659.9540405273438
150;658.8466796875
151;657.7562866210938
152;656.6856079101562
153;655.6305541992188
154;654.5875244140625
155;653.5591430664062
156;652.5478515625
157;651.5471801757812
158;650.5623779296875
159;649.5899658203125
160;648.6297607421875
161;647.6784057617188
162;646.7383422851562
163;645.8117065429688
164;644.8956298828125
165;643.9896850585938
166;643.0910034179688
167;642.2019653320312
168;641.3243408203125
169;640.4534912109375
170;639.5911865234375
171;638.7373046875
172;637.8914794921875
173;637.0557861328125
174;636.2255249023438
175;635.4049072265625
176;634.5894165039062
177;633.7808837890625
178;632.9791870117188
179;632.1863403320312
180;631.3978271484375
181;630.6175537109375
182;629.8414916992188
183;629.0714111328125
184;628.30908203125
185;627.5503540039062
186;626.7974243164062
187;626.0516357421875
188;625.31103515625
189;624.5738525390625
190;623.8434448242188
191;623.1179809570312
192;622.3973388671875
193;621.6796264648438
194;620.9682006835938
195;620.2596435546875
196;619.5570678710938
197;618.8588256835938
198;618.1632080078125
199;617.4732666015625
200;616.7874145507812
201;616.1039428710938
202;615.4259033203125
203;614.7516479492188
204;614.0799560546875
205;613.4116821289062
206;612.7484741210938
207;612.0888061523438
208;611.43115234375
209;610.7767944335938
210;610.1258544921875
211;609.4796142578125
212;608.8364868164062
213;608.1952514648438
214;607.5584106445312
215;606.9232177734375
216;606.2911376953125
217;605.6619262695312
218;605.0369262695312
219;604.4146728515625
220;603.7940063476562
221;603.1773071289062
222;602.5633544921875
223;601.9520263671875
224;601.34326171875
225;600.7369995117188
226;600.1334228515625
227;599.5323486328125
228;598.9338989257812
229;598.337890625
230;597.7443237304688
231;597.1519165039062
232;596.56201171875
233;595.9742431640625
234;595.3898315429688
235;594.8076171875
236;594.2276000976562
237;593.6488037109375
238;593.0720825195312
239;592.4974975585938
240;591.9249267578125
241;591.3555908203125
242;590.7883911132812
243;590.2232055664062
244;589.6600341796875
245;589.0977172851562
246;588.5375366210938
247;587.9791870117188
248;587.4227905273438
249;586.8682250976562
250;586.3165283203125
251;585.7666015625
252;585.2186279296875
253;584.6715087890625
254;584.1271362304688
255;583.5845336914062
256;583.0426635742188
257;582.50341796875
258;581.9658813476562
259;581.4290161132812
260;580.8947143554688
261;580.3610229492188
262;579.8297729492188
263;579.2992553710938
264;578.7703247070312
265;578.2437133789062
266;577.7186889648438
267;577.1951904296875
268;576.6732177734375
269;576.1526489257812
270;575.6336059570312
271;575.1151123046875
272;574.5980834960938
273;574.0833740234375
274;573.5692749023438
275;573.0573120117188
276;572.5460815429688
277;572.036865234375
278;571.5291137695312
279;571.0217895507812
280;570.5158081054688
281;570.0119018554688
282;569.5084838867188
283;569.0064697265625
284;568.50634765625
285;568.0067138671875
286;567.5083618164062
287;567.0111694335938
288;566.5159912109375
289;566.0213012695312
290;565.5277709960938
291;565.0361938476562
292;564.5457763671875
293;564.0565795898438
294;563.5676879882812
295;563.0806274414062
296;562.5939331054688
297;562.1090698242188
298;561.62451171875
299;561.1409912109375
300;560.658447265625
301;560.1776733398438
302;559.6978759765625
303;559.2191162109375
304;558.7413330078125
305;558.2645874023438
306;557.7880249023438
307;557.3125
308;556.8378295898438
309;556.36474609375
310;555.892578125
311;555.420654296875
312;554.9502563476562
313;554.4801635742188
314;554.0115966796875
315;553.5438232421875
316;553.0763549804688
317;552.6102905273438
318;552.1451416015625
319;551.6807250976562
320;551.2166137695312
321;550.7532348632812
322;550.2913818359375
323;549.8302001953125
324;549.3692626953125
325;548.9096069335938
326;548.4501953125
327;547.9921264648438
328;547.5341186523438
329;547.0775756835938
330;546.6216430664062
331;546.1659545898438
332;545.7116088867188
333;545.2579345703125
334;544.8050537109375
335;544.3529052734375
336;543.9012451171875
337;543.4503784179688
338;543.0001220703125
339;542.5499877929688
340;542.1004638671875
341;541.6515502929688
342;541.2033081054688
343;540.7562255859375
344;540.3091430664062
345;539.8631591796875
346;539.4178466796875
347;538.9730834960938
348;538.5282592773438
349;538.0841064453125
350;537.6410522460938
351;537.198486328125
352;536.7559204101562
353;536.3145141601562
354;535.8735961914062
355;535.4332275390625
356;534.9932861328125
357;534.5534057617188
358;534.1139526367188
359;533.6755981445312
360;533.2371826171875
361;532.7992553710938
362;532.3617553710938
363;531.9251708984375
364;531.4890747070312
365;531.0533447265625
366;530.6175537109375
367;530.1821899414062
368;529.7471923828125
369;529.3130493164062
370;528.87939453125
371;528.4454956054688
372;528.0126342773438
373;527.5795288085938
374;527.1469116210938
375;526.7151489257812
376;526.2831420898438
377;525.85205078125
378;525.4212646484375
379;524.9908447265625
380;524.560302734375
381;524.1304931640625
382;523.7005615234375
383;523.2708740234375
384;522.841552734375
385;522.4124755859375
386;521.9837646484375
387;521.5556640625
388;521.1273803710938
389;520.6998291015625
390;520.2725830078125
391;519.8450927734375
392;519.4181518554688
393;518.9915771484375
394;518.5648193359375
395;518.1387329101562
396;517.7129516601562
397;517.2872924804688
398;516.8618774414062
399;516.4366455078125
400;516.01123046875
401;515.5863647460938
402;515.1617431640625
403;514.7368774414062
404;514.3125610351562
405;513.8880004882812
406;513.4635009765625
407;513.0391845703125
408;512.6150512695312
409;512.1909790039062
410;511.76702880859375
411;511.34320068359375
412;510.91998291015625
413;510.4964294433594
414;510.0735168457031
415;509.6502380371094
416;509.22705078125
417;508.8042907714844
418;508.38128662109375
419;507.95843505859375
420;507.5355529785156
421;507.11322021484375
422;506.69091796875
423;506.2687072753906
424;505.84619140625
425;505.4236755371094
426;505.0013122558594
427;504.57952880859375
428;504.15777587890625
429;503.7361145019531
430;503.3142395019531
431;502.8928527832031
432;502.4710388183594
433;502.0494079589844
434;501.6279296875
435;501.2064514160156
436;500.78515625
437;500.3639831542969
438;499.94281005859375
439;499.5222473144531
440;499.1013488769531
441;498.6804504394531
442;498.2600402832031
443;497.8392028808594
444;497.41888427734375
445;496.9981384277344
446;496.5774230957031
447;496.15716552734375
448;495.73687744140625
449;495.3166198730469
450;494.89599609375
451;494.4757995605469
452;494.0553283691406
453;493.63482666015625
454;493.21478271484375
455;492.79437255859375
456;492.3742980957031
457;491.954345703125
458;491.5340270996094
459;491.1141052246094
460;490.6939392089844
461;490.2741394042969
462;489.85443115234375
463;489.4347839355469
464;489.0148010253906
465;488.5952453613281
466;488.17584228515625
467;487.7561950683594
468;487.336669921875
469;486.91766357421875
470;486.4987487792969
471;486.0799255371094
472;485.6611633300781
473;485.24249267578125
474;484.82373046875
475;484.4050598144531
476;483.98687744140625
477;483.56878662109375
478;483.1505432128906
479;482.73284912109375
480;482.31488037109375
481;481.8974304199219
482;481.4798889160156
483;481.06243896484375
484;480.6455383300781
485;480.2287902832031
486;479.8122253417969
487;479.39581298828125
488;478.9796447753906
489;478.5633239746094
490;478.14752197265625
491;477.73162841796875
492;477.3162536621094
493;476.9010925292969
494;476.48614501953125
495;476.0711364746094
496;475.6564025878906
497;475.2419128417969
498;474.8279113769531
499;474.41412353515625
500;474.0003356933594
501;473.58685302734375
502;473.1739807128906
503;472.7612609863281
504;472.3485412597656
505;471.9364318847656
506;471.5242614746094
507;471.11273193359375
508;470.7014465332031
509;470.2904968261719
510;469.8798522949219
511;469.46917724609375
512;469.05914306640625
513;468.64947509765625
514;468.23980712890625
515;467.8307189941406
516;467.4219665527344
517;467.0135192871094
518;466.6051330566406
519;466.1971130371094
520;465.7897033691406
521;465.38238525390625
522;464.97576904296875
523;464.5691223144531
524;464.1628723144531
525;463.75726318359375
526;463.3517761230469
527;462.9466247558594
528;462.5421447753906
529;462.1380310058594
530;461.73394775390625
531;461.33056640625
532;460.92755126953125
533;460.52496337890625
534;460.12261962890625
535;459.72076416015625
536;459.31903076171875
537;458.9178771972656
538;458.5168151855469
539;458.116455078125
540;457.7164611816406
541;457.31689453125
542;456.9176330566406
543;456.5187683105469
544;456.1201477050781
545;455.72186279296875
546;455.32421875
547;454.92669677734375
548;454.5295715332031
549;454.1329040527344
550;453.73687744140625
551;453.3409729003906
552;452.94573974609375
553;452.55084228515625
554;452.15606689453125
555;451.7620544433594
556;451.3681640625
557;450.9748840332031
558;450.58203125
559;450.18951416015625
560;449.7974548339844
561;449.40576171875
562;449.01422119140625
563;448.6230773925781
564;448.2323913574219
565;447.8420104980469
566;447.4523620605469
567;447.06304931640625
568;446.6738586425781
569;446.28509521484375
570;445.89703369140625
571;445.50933837890625
572;445.12176513671875
573;444.7345886230469
574;444.34814453125
575;443.9617004394531
576;443.5759582519531
577;443.1906433105469
578;442.80572509765625
579;442.42095947265625
580;442.0368347167969
581;441.65283203125
582;441.26947021484375
583;440.88623046875
584;440.50347900390625
585;440.1213073730469
586;439.7394714355469
587;439.3578796386719
588;438.9768371582031
589;438.59600830078125
590;438.2155456542969
591;437.83544921875
592;437.4560546875
593;437.0769958496094
594;436.69830322265625
595;436.3200378417969
596;435.94189453125
597;435.5644226074219
598;435.1872863769531
599;434.8102722167969
600;434.4336853027344
601;434.0574645996094
602;433.6819152832031
603;433.30670166015625
604;432.931884765625
605;432.5574035644531
606;432.18310546875
607;431.8092346191406
608;431.43560791015625
609;431.0627136230469
610;430.68988037109375
611;430.3176574707031
612;429.9458312988281
613;429.5743713378906
614;429.20306396484375
615;428.83209228515625
616;428.46148681640625
617;428.091552734375
618;427.7218933105469
619;427.35247802734375
620;426.9836120605469
621;426.6148376464844
622;426.2464294433594
623;425.8786926269531
624;425.51104736328125
625;425.1440124511719
626;424.777099609375
627;424.4107971191406
628;424.0445861816406
629;423.6787414550781
630;423.3135070800781
631;422.94854736328125
632;422.5838317871094
633;422.2194519042969
634;421.85540771484375
635;421.491943359375
636;421.1286315917969
637;420.7658386230469
638;420.40338134765625
639;420.04132080078125
640;419.6794128417969
641;419.3180847167969
642;418.9568176269531
643;418.59613037109375
644;418.23583984375
645;417.8756408691406
646;417.5159606933594
647;417.1567077636719
648;416.7977600097656
649;416.4389953613281
650;416.0805358886719
651;415.7224426269531
652;415.36468505859375
653;415.00726318359375
654;414.650146484375
655;414.2936096191406
656;413.93719482421875
657;413.5811462402344
658;413.22564697265625
659;412.8702087402344
660;412.51519775390625
661;412.1606750488281
662;411.8064270019531
663;411.45263671875
664;411.09893798828125
665;410.74554443359375
666;410.3927307128906
667;410.03997802734375
668;409.687744140625
669;409.3359375
670;408.98419189453125
671;408.63299560546875
672;408.28192138671875
673;407.9311828613281
674;407.5809631347656
675;407.23089599609375
676;406.881103515625
677;406.5317077636719
678;406.18255615234375
679;405.8339538574219
680;405.48553466796875
681;405.13739013671875
682;404.78955078125
683;404.4422302246094
684;404.0950622558594
685;403.7481994628906
686;403.40167236328125
687;403.0554504394531
688;402.70953369140625
689;402.36419677734375
690;402.01904296875
691;401.6742858886719
692;401.3296203613281
693;400.9853210449219
694;400.6414489746094
695;400.2979431152344
696;399.9548034667969
697;399.6116638183594
698;399.2689514160156
699;398.92669677734375
700;398.58453369140625
701;398.2428894042969
702;397.9013671875
703;397.5602111816406
704;397.219482421875
705;396.8790588378906
706;396.53875732421875
707;396.19879150390625
708;395.8592834472656
709;395.5200500488281
710;395.18115234375
711;394.8424377441406
712;394.5041198730469
713;394.1659851074219
714;393.8282775878906
715;393.49072265625
716;393.1535339355469
717;392.8167419433594
718;392.4800720214844
719;392.14373779296875
720;391.8078308105469
721;391.47210693359375
722;391.1366882324219
723;390.801513671875
724;390.4666442871094
725;390.132080078125
726;389.7978515625
727;389.4640808105469
728;389.1304016113281
729;388.7971496582031
730;388.4640808105469
731;388.1314392089844
732;387.7989807128906
733;387.4667663574219
734;387.13482666015625
735;386.80322265625
736;386.4720153808594
737;386.1410217285156
738;385.8103942871094
739;385.4801330566406
740;385.1499328613281
741;384.82025146484375
742;384.49078369140625
743;384.1614685058594
744;383.83245849609375
745;383.50372314453125
746;383.17547607421875
747;382.847412109375
748;382.5195617675781
749;382.1921081542969
750;381.8647766113281
751;381.53778076171875
752;381.2110900878906
753;380.88458251953125
754;380.55853271484375
755;380.2328186035156
756;379.9071960449219
757;379.5820007324219
758;379.2571105957031
759;378.9322814941406
760;378.60797119140625
761;378.2839050292969
762;377.9599304199219
763;377.6364440917969
764;377.31304931640625
765;376.98992919921875
766;376.6671447753906
767;376.34454345703125
768;376.0224609375
769;375.70062255859375
770;375.37884521484375
771;375.057373046875
772;374.7361755371094
773;374.41546630859375
774;374.0950012207031
775;373.77459716796875
776;373.4547424316406
777;373.1348571777344
778;372.8154602050781
779;372.4961853027344
780;372.17730712890625
781;371.8586120605469
782;371.540283203125
783;371.22210693359375
784;370.904296875
785;370.586669921875
786;370.269287109375
787;369.9521484375
788;369.63543701171875
789;369.3190002441406
790;369.002685546875
791;368.686767578125
792;368.37109375
793;368.05560302734375
794;367.740478515625
795;367.4255065917969
796;367.11090087890625
797;366.79644775390625
798;366.4823913574219
799;366.1684265136719
800;365.85491943359375
801;365.5415344238281
802;365.22833251953125
803;364.91558837890625
804;364.6029968261719
805;364.2907409667969
806;363.9786682128906
807;363.6668395996094
808;363.355224609375
809;363.0439147949219
810;362.7329406738281
811;362.42218017578125
812;362.1116027832031
813;361.8014221191406
814;361.4915466308594
815;361.1817932128906
816;360.87237548828125
817;360.5630798339844
818;360.2541198730469
819;359.9453430175781
820;359.6369934082031
821;359.3288879394531
822;359.0209045410156
823;358.71331787109375
824;358.40582275390625
825;358.09869384765625
826;357.7917785644531
827;357.48504638671875
828;357.1786804199219
829;356.8725891113281
830;356.5667419433594
831;356.2611389160156
832;355.955810546875
833;355.6507263183594
834;355.34588623046875
835;355.0411682128906
836;354.7368469238281
837;354.4326171875
838;354.1287536621094
839;353.8250427246094
840;353.521728515625
841;353.2185974121094
842;352.9156799316406
843;352.6130676269531
844;352.31060791015625
845;352.00836181640625
846;351.7063903808594
847;351.40478515625
848;351.1033630371094
849;350.80230712890625
850;350.5014343261719
851;350.20074462890625
852;349.9002990722656
853;349.60003662109375
854;349.30010986328125
855;349.0003356933594
856;348.7008361816406
857;348.4016418457031
858;348.10272216796875
859;347.8039855957031
860;347.5055847167969
861;347.207275390625
862;346.9093322753906
863;346.6114196777344
864;346.3138732910156
865;346.01666259765625
866;345.71966552734375
867;345.42279052734375
868;345.12615966796875
869;344.8297424316406
870;344.53369140625
871;344.2379455566406
872;343.9422302246094
873;343.64691162109375
874;343.35174560546875
875;343.056884765625
876;342.7621765136719
877;342.4678039550781
878;342.1735534667969
879;341.8795471191406
880;341.5859069824219
881;341.29248046875
882;340.9991760253906
883;340.70611572265625
884;340.4133605957031
885;340.12078857421875
886;339.8283996582031
887;339.5364074707031
888;339.2445983886719
889;338.95306396484375
890;338.66162109375
891;338.3705749511719
892;338.07958984375
893;337.78887939453125
894;337.49847412109375
895;337.2082214355469
896;336.91827392578125
897;336.6285705566406
898;336.3390808105469
899;336.0498046875
900;335.76080322265625
901;335.4720153808594
902;335.1833801269531
903;334.8950500488281
904;334.6069641113281
905;334.3190612792969
906;334.03131103515625
907;333.74383544921875
908;333.45654296875
909;333.1695251464844
910;332.8827209472656
911;332.59625244140625
912;332.30987548828125
913;332.02386474609375
914;331.73797607421875
915;331.452392578125
916;331.16705322265625
917;330.8818359375
918;330.5969543457031
919;330.3121643066406
920;330.0276184082031
921;329.7434387207031
922;329.45941162109375
923;329.1755676269531
924;328.89190673828125
925;328.6086120605469
926;328.3254089355469
927;328.04241943359375
928;327.7597961425781
929;327.47735595703125
930;327.1951599121094
931;326.9132385253906
932;326.63134765625
933;326.3498229980469
934;326.06842041015625
935;325.7872619628906
936;325.50634765625
937;325.2257385253906
938;324.9453125
939;324.6650085449219
940;324.385009765625
941;324.1051940917969
942;323.82562255859375
943;323.54632568359375
944;323.26708984375
945;322.9881286621094
946;322.70947265625
947;322.4310607910156
948;322.15283203125
949;321.8747253417969
950;321.5969543457031
951;321.31927490234375
952;321.04193115234375
953;320.76470947265625
954;320.4877014160156
955;320.21099853515625
956;319.9344177246094
957;319.65814208984375
958;319.3820495605469
959;319.1061096191406
960;318.8304138183594
961;318.5550231933594
962;318.2798156738281
963;318.0048522949219
964;317.73004150390625
965;317.45550537109375
966;317.1811218261719
967;316.90692138671875
968;316.6330261230469
969;316.35931396484375
970;316.0858459472656
971;315.8125
972;315.53936767578125
973;315.2665100097656
974;314.99383544921875
975;314.7214660644531
976;314.44927978515625
977;314.1772766113281
978;313.9055480957031
979;313.6340026855469
980;313.3626403808594
981;313.0914611816406
982;312.82049560546875
983;312.54974365234375
984;312.2792663574219
985;312.00897216796875
986;311.7388000488281
987;311.4689636230469
988;311.19921875
989;310.9298400878906
990;310.66058349609375
991;310.3915710449219
992;310.1227722167969
993;309.8540344238281
994;309.5856018066406
995;309.3174133300781
996;309.0494689941406
997;308.7815856933594
998;308.5139465332031
999;308.24652099609375
