;loss
0;881.5415649414062
1;880.9913330078125
2;880.2528076171875
3;879.5150146484375
4;878.7778930664062
5;878.0413818359375
6;877.3053588867188
7;876.5855102539062
8;875.8507080078125
9;875.1165771484375
10;874.3828735351562
11;873.6495361328125
12;872.9166870117188
13;872.1818237304688
14;871.4495239257812
15;870.7173461914062
16;869.9796142578125
17;869.2411499023438
18;868.5016479492188
19;867.7686767578125
20;867.03515625
21;866.30078125
22;865.5655517578125
23;864.8292846679688
24;864.0919189453125
25;863.35302734375
26;862.61279296875
27;861.8709716796875
28;861.1273803710938
29;860.3729858398438
30;859.6165771484375
31;858.8579711914062
32;858.0971069335938
33;857.3424682617188
34;856.5853881835938
35;855.8168334960938
36;855.0538330078125
37;854.2879638671875
38;853.5104370117188
39;852.7379760742188
40;851.9537963867188
41;851.1743774414062
42;850.3911743164062
43;849.5960083007812
44;848.7969360351562
45;848.0016479492188
46;847.1942138671875
47;846.3824462890625
48;845.5662231445312
49;844.7528076171875
50;843.9344482421875
51;843.1112060546875
52;842.2827758789062
53;841.4418334960938
54;840.6025390625
55;839.7578735351562
56;838.9075317382812
57;838.0441284179688
58;837.1819458007812
59;836.3064575195312
60;835.4247436523438
61;834.5435180664062
62;833.6557006835938
63;832.7611694335938
64;831.8595581054688
65;830.9509887695312
66;830.03515625
67;829.1118774414062
68;828.1746826171875
69;827.2298583984375
70;826.2770385742188
71;825.31640625
72;824.3477783203125
73;823.3707275390625
74;822.3915405273438
75;821.3976440429688
76;820.4013061523438
77;819.3959350585938
78;818.3755493164062
79;817.3521118164062
80;816.31298828125
81;815.2705078125
82;814.2123413085938
83;813.150390625
84;812.0726318359375
85;810.9906616210938
86;809.892578125
87;808.7838134765625
88;807.6644897460938
89;806.5405883789062
90;805.4058227539062
91;804.2598266601562
92;803.1085815429688
93;801.9483032226562
94;800.7772827148438
95;799.5950927734375
96;798.4016723632812
97;797.1908569335938
98;795.9683227539062
99;794.7338256835938
100;793.4931640625
101;792.2342529296875
102;790.9627685546875
103;789.6845703125
104;788.3934326171875
105;787.0890502929688
106;785.7657470703125
107;784.4354858398438
108;783.0857543945312
109;781.7283935546875
110;780.3515625
111;778.9664306640625
112;777.5615234375
113;776.1425170898438
114;774.7091674804688
115;773.2614135742188
116;771.798828125
117;770.32763671875
118;768.8357543945312
119;767.3348388671875
120;765.8131103515625
121;764.2762451171875
122;762.7241821289062
123;761.1571044921875
124;759.5813598632812
125;757.9842529296875
126;756.3778686523438
127;754.7561645507812
128;753.1189575195312
129;751.4661254882812
130;749.7978515625
131;748.1144409179688
132;746.4158325195312
133;744.7022705078125
134;742.9739379882812
135;741.2308959960938
136;739.4808959960938
137;737.7237548828125
138;735.947265625
139;734.1636352539062
140;732.36083984375
141;730.5460815429688
142;728.724609375
143;726.8911743164062
144;725.0459594726562
145;723.1895141601562
146;721.3256225585938
147;719.4454345703125
148;717.5613403320312
149;715.6657104492188
150;713.7672729492188
151;711.8545532226562
152;709.9398193359375
153;708.0140991210938
154;706.0933227539062
155;704.1670532226562
156;702.2413330078125
157;700.3109741210938
158;698.3707885742188
159;696.4268798828125
160;694.4803466796875
161;692.5313720703125
162;690.5859985351562
163;688.6338500976562
164;686.6859741210938
165;684.7303466796875
166;682.7749633789062
167;680.82568359375
168;678.8829956054688
169;676.9383544921875
170;674.9962768554688
171;673.0631713867188
172;671.1342163085938
173;669.2138061523438
174;667.2993774414062
175;665.3989868164062
176;663.509765625
177;661.6300659179688
178;659.7630004882812
179;657.9039306640625
180;656.0486450195312
181;654.2015991210938
182;652.365234375
183;650.5433959960938
184;648.7311401367188
185;646.9290161132812
186;645.1368408203125
187;643.3564453125
188;641.5880126953125
189;639.8353881835938
190;638.0899658203125
191;636.3565063476562
192;634.6390991210938
193;632.9390258789062
194;631.2593383789062
195;629.5999145507812
196;627.9491577148438
197;626.3150024414062
198;624.6900634765625
199;623.0792236328125
200;621.4923095703125
201;619.9168701171875
202;618.3550415039062
203;616.8071899414062
204;615.2734375
205;613.7532348632812
206;612.2463989257812
207;610.7561645507812
208;609.2797241210938
209;607.8165893554688
210;606.3674926757812
211;604.9317016601562
212;603.5105590820312
213;602.1033935546875
214;600.7075805664062
215;599.3253784179688
216;597.9569091796875
217;596.6017456054688
218;595.2635498046875
219;593.9356689453125
220;592.6248168945312
221;591.3339233398438
222;590.0563354492188
223;588.7960205078125
224;587.5542602539062
225;586.3268432617188
226;585.1121215820312
227;583.9125366210938
228;582.7251586914062
229;581.5499267578125
230;580.3856201171875
231;579.23291015625
232;578.0946044921875
233;576.9686279296875
234;575.8548583984375
235;574.7540283203125
236;573.6638793945312
237;572.5856323242188
238;571.5177612304688
239;570.4622802734375
240;569.4201049804688
241;568.3853759765625
242;567.3610229492188
243;566.3504028320312
244;565.3483276367188
245;564.35791015625
246;563.3760986328125
247;562.400390625
248;561.4324340820312
249;560.4751586914062
250;559.5238037109375
251;558.5822143554688
252;557.6476440429688
253;556.7189331054688
254;555.7997436523438
255;554.8896484375
256;553.9850463867188
257;553.0869140625
258;552.1952514648438
259;551.3101806640625
260;550.4321899414062
261;549.5626220703125
262;548.7002563476562
263;547.8457641601562
264;546.9961547851562
265;546.15234375
266;545.3143920898438
267;544.4838256835938
268;543.65771484375
269;542.8383178710938
270;542.0230712890625
271;541.2144775390625
272;540.4138793945312
273;539.62109375
274;538.8336181640625
275;538.0523681640625
276;537.2760009765625
277;536.5032958984375
278;535.7369384765625
279;534.974365234375
280;534.2166137695312
281;533.4661254882812
282;532.7192993164062
283;531.9774780273438
284;531.2402954101562
285;530.5095825195312
286;529.7826538085938
287;529.0615844726562
288;528.3441772460938
289;527.6310424804688
290;526.9224853515625
291;526.2191772460938
292;525.5203857421875
293;524.8248901367188
294;524.1333618164062
295;523.4467163085938
296;522.7640380859375
297;522.0847778320312
298;521.4094848632812
299;520.7379150390625
300;520.0709228515625
301;519.4075317382812
302;518.7476806640625
303;518.0906372070312
304;517.4374389648438
305;516.7889404296875
306;516.1439208984375
307;515.5023803710938
308;514.8646240234375
309;514.2293090820312
310;513.59716796875
311;512.9682006835938
312;512.3433227539062
313;511.7206726074219
314;511.10125732421875
315;510.4850158691406
316;509.87255859375
317;509.26239013671875
318;508.6550598144531
319;508.05072021484375
320;507.4490661621094
321;506.85015869140625
322;506.2547912597656
323;505.66192626953125
324;505.07177734375
325;504.4836120605469
326;503.8987731933594
327;503.3165588378906
328;502.73675537109375
329;502.1593933105469
330;501.58367919921875
331;501.01104736328125
332;500.4408264160156
333;499.87213134765625
334;499.3058166503906
335;498.7416687011719
336;498.1797180175781
337;497.6207580566406
338;497.06396484375
339;496.50927734375
340;495.95599365234375
341;495.40545654296875
342;494.8569641113281
343;494.31048583984375
344;493.7658996582031
345;493.2233581542969
346;492.6820373535156
347;492.142578125
348;491.60498046875
349;491.06927490234375
350;490.53533935546875
351;490.0030822753906
352;489.4732971191406
353;488.94525146484375
354;488.41839599609375
355;487.89361572265625
356;487.3708801269531
357;486.8498229980469
358;486.33099365234375
359;485.8132629394531
360;485.2977600097656
361;484.783203125
362;484.2702941894531
363;483.7590026855469
364;483.24908447265625
365;482.7409362792969
366;482.2348937988281
367;481.7302551269531
368;481.2270812988281
369;480.7253723144531
370;480.22467041015625
371;479.7253112792969
372;479.2279357910156
373;478.7313537597656
374;478.2366638183594
375;477.7433776855469
376;477.25091552734375
377;476.759765625
378;476.27044677734375
379;475.7823791503906
380;475.29559326171875
381;474.80950927734375
382;474.3251647949219
383;473.8415222167969
384;473.3596496582031
385;472.87890625
386;472.3988342285156
387;471.919921875
388;471.4426574707031
389;470.966064453125
390;470.4910583496094
391;470.0172424316406
392;469.54443359375
393;469.0727233886719
394;468.6021423339844
395;468.1321105957031
396;467.6636047363281
397;467.19622802734375
398;466.7294006347656
399;466.2640075683594
400;465.79925537109375
401;465.33544921875
402;464.8727111816406
403;464.411376953125
404;463.95062255859375
405;463.49072265625
406;463.0318908691406
407;462.5744323730469
408;462.117431640625
409;461.6618347167969
410;461.2071838378906
411;460.75341796875
412;460.3005676269531
413;459.84820556640625
414;459.3967590332031
415;458.9461975097656
416;458.4964294433594
417;458.0476379394531
418;457.60009765625
419;457.1534729003906
420;456.7077331542969
421;456.26275634765625
422;455.8186340332031
423;455.3749694824219
424;454.9324645996094
425;454.490478515625
426;454.04931640625
427;453.6089172363281
428;453.1692810058594
429;452.73101806640625
430;452.2934265136719
431;451.8562316894531
432;451.4198303222656
433;450.9841613769531
434;450.54931640625
435;450.11517333984375
436;449.6818542480469
437;449.2496643066406
438;448.81781005859375
439;448.38665771484375
440;447.9566955566406
441;447.5274353027344
442;447.09857177734375
443;446.67034912109375
444;446.24285888671875
445;445.8160705566406
446;445.3903503417969
447;444.96539306640625
448;444.5407409667969
449;444.11676025390625
450;443.69384765625
451;443.2715759277344
452;442.8497009277344
453;442.4284362792969
454;442.0078125
455;441.5881042480469
456;441.1690368652344
457;440.75067138671875
458;440.33294677734375
459;439.91619873046875
460;439.4997863769531
461;439.0843200683594
462;438.6691589355469
463;438.2546081542969
464;437.84075927734375
465;437.4274597167969
466;437.01513671875
467;436.6031799316406
468;436.1918029785156
469;435.7810974121094
470;435.3709411621094
471;434.9617614746094
472;434.55316162109375
473;434.14483642578125
474;433.7374572753906
475;433.3303527832031
476;432.9237976074219
477;432.51812744140625
478;432.1131286621094
479;431.70831298828125
480;431.3041076660156
481;430.90045166015625
482;430.49774169921875
483;430.09521484375
484;429.6933288574219
485;429.2922668457031
486;428.8914489746094
487;428.4912109375
488;428.0918273925781
489;427.69268798828125
490;427.2944030761719
491;426.8963317871094
492;426.49884033203125
493;426.1018371582031
494;425.7054748535156
495;425.3095397949219
496;424.91412353515625
497;424.5193786621094
498;424.125
499;423.731201171875
500;423.33831787109375
501;422.9458312988281
502;422.5535583496094
503;422.161865234375
504;421.77069091796875
505;421.3800354003906
506;420.9901428222656
507;420.6007995605469
508;420.21160888671875
509;419.8229675292969
510;419.4347839355469
511;419.0471496582031
512;418.6599426269531
513;418.27349853515625
514;417.88763427734375
515;417.5019226074219
516;417.1167297363281
517;416.7322692871094
518;416.3483581542969
519;415.964599609375
520;415.5815734863281
521;415.1990661621094
522;414.8167419433594
523;414.43511962890625
524;414.05377197265625
525;413.6731262207031
526;413.292724609375
527;412.9129943847656
528;412.53375244140625
529;412.1549987792969
530;411.77642822265625
531;411.39862060546875
532;411.02093505859375
533;410.6440124511719
534;410.26727294921875
535;409.89129638671875
536;409.515625
537;409.1402893066406
538;408.7653503417969
539;408.39117431640625
540;408.0171203613281
541;407.6435546875
542;407.27044677734375
543;406.89794921875
544;406.5256652832031
545;406.1538391113281
546;405.7826843261719
547;405.4117126464844
548;405.04119873046875
549;404.6713562011719
550;404.30194091796875
551;403.9326477050781
552;403.5641174316406
553;403.1959533691406
554;402.8282165527344
555;402.4606628417969
556;402.0937805175781
557;401.72705078125
558;401.36077880859375
559;400.9951171875
560;400.629638671875
561;400.26458740234375
562;399.89996337890625
563;399.5356750488281
564;399.172119140625
565;398.80865478515625
566;398.44561767578125
567;398.0830383300781
568;397.72076416015625
569;397.3590393066406
570;396.9978332519531
571;396.63677978515625
572;396.2764587402344
573;395.9162902832031
574;395.5564880371094
575;395.1971740722656
576;394.8383483886719
577;394.47998046875
578;394.1218566894531
579;393.76422119140625
580;393.40704345703125
581;393.05023193359375
582;392.69384765625
583;392.3377990722656
584;391.9821472167969
585;391.6266784667969
586;391.27154541015625
587;390.9170227050781
588;390.56292724609375
589;390.2092590332031
590;389.8557434082031
591;389.5025939941406
592;389.1498718261719
593;388.7974548339844
594;388.4456481933594
595;388.09423828125
596;387.7430114746094
597;387.39208984375
598;387.04156494140625
599;386.69140625
600;386.3416442871094
601;385.9922790527344
602;385.6434020996094
603;385.2947692871094
604;384.9464416503906
605;384.5984802246094
606;384.25091552734375
607;383.90386962890625
608;383.5569763183594
609;383.2104797363281
610;382.8645324707031
611;382.5187683105469
612;382.17352294921875
613;381.82861328125
614;381.48388671875
615;381.13970947265625
616;380.7958984375
617;380.45245361328125
618;380.1093444824219
619;379.766357421875
620;379.42376708984375
621;379.0816955566406
622;378.73980712890625
623;378.3982238769531
624;378.0569763183594
625;377.71612548828125
626;377.3755798339844
627;377.035400390625
628;376.69580078125
629;376.3564453125
630;376.0173034667969
631;375.6784362792969
632;375.3401184082031
633;375.0019836425781
634;374.66436767578125
635;374.32708740234375
636;373.9899597167969
637;373.6531066894531
638;373.3166809082031
639;372.98052978515625
640;372.64495849609375
641;372.3094787597656
642;371.9743347167969
643;371.6394958496094
644;371.3050842285156
645;370.9708557128906
646;370.6370544433594
647;370.3037414550781
648;369.97076416015625
649;369.637939453125
650;369.3055725097656
651;368.9733581542969
652;368.64154052734375
653;368.3099670410156
654;367.97894287109375
655;367.64801025390625
656;367.3174743652344
657;366.9872131347656
658;366.65728759765625
659;366.32763671875
660;365.99835205078125
661;365.6695251464844
662;365.341064453125
663;365.01287841796875
664;364.6848449707031
665;364.3573303222656
666;364.0298767089844
667;363.70281982421875
668;363.3762512207031
669;363.0498962402344
670;362.7237854003906
671;362.39794921875
672;362.07257080078125
673;361.7475280761719
674;361.42279052734375
675;361.09814453125
676;360.7740783691406
677;360.4500427246094
678;360.1265563964844
679;359.8033752441406
680;359.48046875
681;359.15771484375
682;358.83538818359375
683;358.51324462890625
684;358.1914978027344
685;357.8699645996094
686;357.54876708984375
687;357.2279968261719
688;356.90728759765625
689;356.587158203125
690;356.2672424316406
691;355.9475402832031
692;355.62823486328125
693;355.30908203125
694;354.99041748046875
695;354.671875
696;354.3536071777344
697;354.03582763671875
698;353.7181701660156
699;353.40093994140625
700;353.0838928222656
701;352.76708984375
702;352.4507751464844
703;352.134765625
704;351.81884765625
705;351.5033874511719
706;351.18804931640625
707;350.873046875
708;350.5584411621094
709;350.2441711425781
710;349.93017578125
711;349.6163024902344
712;349.3027038574219
713;348.98944091796875
714;348.6765441894531
715;348.3639831542969
716;348.0517272949219
717;347.7395324707031
718;347.427734375
719;347.11614990234375
720;346.8048400878906
721;346.49383544921875
722;346.1832580566406
723;345.87298583984375
724;345.56280517578125
725;345.2530212402344
726;344.9436340332031
727;344.6343078613281
728;344.3254089355469
729;344.0168151855469
730;343.7084655761719
731;343.4004211425781
732;343.0926208496094
733;342.78497314453125
734;342.477783203125
735;342.17083740234375
736;341.86419677734375
737;341.5577697753906
738;341.2516784667969
739;340.9457092285156
740;340.64013671875
741;340.3348083496094
742;340.02978515625
743;339.7250671386719
744;339.4204406738281
745;339.11614990234375
746;338.8122253417969
747;338.5083923339844
748;338.2048645019531
749;337.90179443359375
750;337.5989074707031
751;337.29638671875
752;336.9939270019531
753;336.6918640136719
754;336.39013671875
755;336.0884704589844
756;335.7871398925781
757;335.4860534667969
758;335.1853332519531
759;334.884765625
760;334.58447265625
761;334.2844543457031
762;333.9847106933594
763;333.6852111816406
764;333.3859558105469
765;333.08709716796875
766;332.78839111328125
767;332.4899597167969
768;332.1919250488281
769;331.8940124511719
770;331.59637451171875
771;331.2989807128906
772;331.0018615722656
773;330.70501708984375
774;330.4084167480469
775;330.1121520996094
776;329.8161926269531
777;329.5203552246094
778;329.2248229980469
779;328.92962646484375
780;328.63470458984375
781;328.33990478515625
782;328.0453796386719
783;327.7511291503906
784;327.4570617675781
785;327.163330078125
786;326.8699645996094
787;326.57684326171875
788;326.283935546875
789;325.9912109375
790;325.69873046875
791;325.4066467285156
792;325.11468505859375
793;324.82305908203125
794;324.53173828125
795;324.2406311035156
796;323.94970703125
797;323.65911865234375
798;323.36865234375
799;323.07843017578125
800;322.78851318359375
801;322.4988098144531
802;322.2093811035156
803;321.9203186035156
804;321.6313171386719
805;321.3426208496094
806;321.0542907714844
807;320.76611328125
808;320.4781799316406
809;320.19049072265625
810;319.90301513671875
811;319.615966796875
812;319.3289489746094
813;319.0422668457031
814;318.75592041015625
815;318.4696960449219
816;318.1836853027344
817;317.8979797363281
818;317.6126403808594
819;317.3275451660156
820;317.04266357421875
821;316.75787353515625
822;316.4734191894531
823;316.1891784667969
824;315.9051208496094
825;315.6214904785156
826;315.33795166015625
827;315.0546875
828;314.7716369628906
829;314.48883056640625
830;314.2062683105469
831;313.9239807128906
832;313.6418762207031
833;313.3601989746094
834;313.07867431640625
835;312.7974548339844
836;312.5164489746094
837;312.2355651855469
838;311.9549255371094
839;311.6746520996094
840;311.3945007324219
841;311.1145935058594
842;310.83502197265625
843;310.55560302734375
844;310.2763977050781
845;309.99755859375
846;309.71881103515625
847;309.44036865234375
848;309.16204833984375
849;308.8841247558594
850;308.60638427734375
851;308.328857421875
852;308.0516662597656
853;307.7745666503906
854;307.49786376953125
855;307.22137451171875
856;306.9450988769531
857;306.66900634765625
858;306.3932800292969
859;306.11761474609375
860;305.84222412109375
861;305.5671081542969
862;305.2922668457031
863;305.01763916015625
864;304.7433166503906
865;304.4691467285156
866;304.1951599121094
867;303.9215393066406
868;303.6479797363281
869;303.374755859375
870;303.10162353515625
871;302.8288879394531
872;302.5563659667969
873;302.2840270996094
874;302.0119934082031
875;301.74017333984375
876;301.4684143066406
877;301.1969299316406
878;300.9256286621094
879;300.6547546386719
880;300.38397216796875
881;300.1133728027344
882;299.8430480957031
883;299.5729675292969
884;299.30316162109375
885;299.03350830078125
886;298.76409912109375
887;298.49493408203125
888;298.22601318359375
889;297.9573059082031
890;297.6887512207031
891;297.4204406738281
892;297.1523742675781
893;296.884521484375
894;296.6170349121094
895;296.349609375
896;296.0824279785156
897;295.8154602050781
898;295.548828125
899;295.28240966796875
900;295.01611328125
901;294.7501525878906
902;294.48431396484375
903;294.2186584472656
904;293.9533386230469
905;293.6882629394531
906;293.4233093261719
907;293.15863037109375
908;292.8941345214844
909;292.6298828125
910;292.36590576171875
911;292.1020812988281
912;291.8384094238281
913;291.5749816894531
914;291.311767578125
915;291.04888916015625
916;290.78619384765625
917;290.52374267578125
918;290.2614440917969
919;289.99932861328125
920;289.7373962402344
921;289.4757995605469
922;289.2143859863281
923;288.9532165527344
924;288.6923522949219
925;288.4316101074219
926;288.1709899902344
927;287.91070556640625
928;287.6506652832031
929;287.39080810546875
930;287.13116455078125
931;286.8717346191406
932;286.6125183105469
933;286.35345458984375
934;286.09466552734375
935;285.83599853515625
936;285.57769775390625
937;285.3194274902344
938;285.06146240234375
939;284.8037414550781
940;284.5461730957031
941;284.28887939453125
942;284.0317687988281
943;283.7749328613281
944;283.5182189941406
945;283.2616882324219
946;283.00537109375
947;282.7493591308594
948;282.49359130859375
949;282.2378845214844
950;281.9824523925781
951;281.7272644042969
952;281.47222900390625
953;281.2174987792969
954;280.9629211425781
955;280.7085876464844
956;280.4543762207031
957;280.2004699707031
958;279.9466857910156
959;279.693115234375
960;279.43975830078125
961;279.1866760253906
962;278.9338073730469
963;278.68115234375
964;278.4287109375
965;278.1764831542969
966;277.92437744140625
967;277.6724548339844
968;277.4207763671875
969;277.1692810058594
970;276.9179992675781
971;276.6669616699219
972;276.41607666015625
973;276.1654357910156
974;275.9150390625
975;275.664794921875
976;275.4148254394531
977;275.1650695800781
978;274.91546630859375
979;274.66607666015625
980;274.41693115234375
981;274.1679992675781
982;273.91925048828125
983;273.67071533203125
984;273.4223327636719
985;273.17413330078125
986;272.9262390136719
987;272.67840576171875
988;272.4308166503906
989;272.1834411621094
990;271.936279296875
991;271.68939208984375
992;271.4425964355469
993;271.196044921875
994;270.9496765136719
995;270.70361328125
996;270.45770263671875
997;270.2119140625
998;269.96636962890625
999;269.7209777832031
1000;269.475830078125
1001;269.23095703125
1002;268.9862976074219
1003;268.74169921875
1004;268.4973449707031
1005;268.2532043457031
1006;268.00927734375
1007;267.7654724121094
1008;267.5219421386719
1009;267.2786560058594
1010;267.0355224609375
1011;266.7926330566406
1012;266.5498352050781
1013;266.30731201171875
1014;266.06494140625
1015;265.8228454589844
1016;265.58087158203125
1017;265.33917236328125
1018;265.0976257324219
1019;264.85626220703125
1020;264.6150817871094
1021;264.3741149902344
1022;264.1334228515625
1023;263.892822265625
1024;263.6524353027344
1025;263.4122619628906
1026;263.1722717285156
1027;262.9324645996094
1028;262.6929016113281
1029;262.4534606933594
1030;262.2143249511719
1031;261.9753112792969
1032;261.73651123046875
1033;261.49786376953125
1034;261.25946044921875
1035;261.021240234375
1036;260.7832336425781
1037;260.5453796386719
1038;260.3077087402344
1039;260.0702819824219
1040;259.8330078125
1041;259.59600830078125
1042;259.3591613769531
1043;259.1224670410156
1044;258.88604736328125
1045;258.6497497558594
1046;258.4136657714844
1047;258.1778869628906
1048;257.9421691894531
1049;257.7066345214844
1050;257.4713439941406
1051;257.2362365722656
1052;257.0013732910156
1053;256.76666259765625
1054;256.5321350097656
1055;256.2978210449219
1056;256.06365966796875
1057;255.8296661376953
1058;255.595947265625
1059;255.36241149902344
1060;255.12899780273438
1061;254.89585876464844
1062;254.66281127929688
1063;254.43003845214844
1064;254.1974639892578
1065;253.965087890625
1066;253.73277282714844
1067;253.50071716308594
1068;253.2688446044922
1069;253.0372314453125
1070;252.80580139160156
1071;252.574462890625
1072;252.3433380126953
1073;252.1123809814453
1074;251.88162231445312
1075;251.6510467529297
1076;251.42066955566406
1077;251.1905059814453
1078;250.96047973632812
1079;250.73068237304688
1080;250.5010528564453
1081;250.2716522216797
1082;250.04244995117188
1083;249.81338500976562
1084;249.5845489501953
1085;249.3558807373047
1086;249.12742614746094
1087;248.899169921875
1088;248.6710662841797
1089;248.4431915283203
1090;248.21546936035156
1091;247.98793029785156
1092;247.7606201171875
1093;247.53341674804688
1094;247.3064727783203
1095;247.07962036132812
1096;246.85301208496094
1097;246.62657165527344
1098;246.40029907226562
1099;246.17420959472656
1100;245.9483184814453
1101;245.72264099121094
1102;245.4971466064453
1103;245.27183532714844
1104;245.0467071533203
1105;244.82174682617188
1106;244.59701538085938
1107;244.37242126464844
1108;244.14805603027344
1109;243.92385864257812
1110;243.6997833251953
1111;243.4759063720703
1112;243.25216674804688
1113;243.02867126464844
1114;242.80538940429688
1115;242.58218383789062
1116;242.3592071533203
1117;242.1363983154297
1118;241.91380310058594
1119;241.69143676757812
1120;241.46923828125
1121;241.24720764160156
1122;241.02537536621094
1123;240.80368041992188
1124;240.58213806152344
1125;240.36083984375
1126;240.1397247314453
1127;239.91873168945312
1128;239.69802856445312
1129;239.4773712158203
1130;239.25698852539062
1131;239.03677368164062
1132;238.81668090820312
1133;238.59683227539062
1134;238.37710571289062
1135;238.15757751464844
1136;237.93820190429688
1137;237.718994140625
1138;237.50003051757812
1139;237.2812042236328
1140;237.0625762939453
1141;236.84410095214844
1142;236.6257781982422
1143;236.40771484375
1144;236.1898651123047
1145;235.9720916748047
1146;235.75453186035156
1147;235.53720092773438
1148;235.32005310058594
1149;235.1029815673828
1150;234.8861083984375
1151;234.66943359375
1152;234.4529266357422
1153;234.23660278320312
1154;234.0205078125
1155;233.8045196533203
1156;233.58872985839844
1157;233.3731231689453
1158;233.15768432617188
1159;232.94247436523438
1160;232.7274169921875
1161;232.5124969482422
1162;232.2977752685547
1163;232.08322143554688
1164;231.86886596679688
1165;231.65464782714844
1166;231.4406280517578
1167;231.2267608642578
1168;231.0130615234375
1169;230.79959106445312
1170;230.58621215820312
1171;230.37307739257812
1172;230.16006469726562
1173;229.947265625
1174;229.73464965820312
1175;229.522216796875
1176;229.30995178222656
1177;229.09780883789062
1178;228.8859100341797
1179;228.6741180419922
1180;228.46250915527344
1181;228.2510986328125
1182;228.03990173339844
1183;227.828857421875
1184;227.6179656982422
1185;227.40721130371094
1186;227.19668579101562
1187;226.986328125
1188;226.776123046875
1189;226.56613159179688
1190;226.35623168945312
1191;226.14651489257812
1192;225.93701171875
1193;225.7277069091797
1194;225.51852416992188
1195;225.3094940185547
1196;225.1006622314453
1197;224.8920135498047
1198;224.6835174560547
1199;224.47518920898438
1200;224.26698303222656
1201;224.05899047851562
1202;223.85118103027344
1203;223.6435546875
1204;223.4361114501953
1205;223.228759765625
1206;223.0216522216797
1207;222.81466674804688
1208;222.60781860351562
1209;222.4012451171875
1210;222.1947479248047
1211;221.9884490966797
1212;221.7823028564453
1213;221.5763702392578
1214;221.37057495117188
1215;221.1649932861328
1216;220.9595489501953
1217;220.75430297851562
1218;220.5491943359375
1219;220.34423828125
1220;220.13943481445312
1221;219.93482971191406
1222;219.7304229736328
1223;219.52615356445312
1224;219.32203674316406
1225;219.1180877685547
1226;218.91429138183594
1227;218.71070861816406
1228;218.50730895996094
1229;218.3040313720703
1230;218.1008758544922
1231;217.89793395996094
1232;217.6951904296875
1233;217.4925537109375
1234;217.29014587402344
1235;217.08787536621094
1236;216.88577270507812
1237;216.68380737304688
1238;216.48202514648438
1239;216.2804718017578
1240;216.0789794921875
1241;215.87770080566406
1242;215.6765899658203
1243;215.4756317138672
1244;215.27487182617188
1245;215.07424926757812
1246;214.87380981445312
1247;214.6735076904297
1248;214.47341918945312
1249;214.27345275878906
1250;214.07362365722656
1251;213.87400817871094
1252;213.6745147705078
1253;213.47523498535156
1254;213.27609252929688
1255;213.0771484375
1256;212.87832641601562
1257;212.67965698242188
1258;212.4811553955078
1259;212.28282165527344
1260;212.08460998535156
1261;211.88661193847656
1262;211.68882751464844
1263;211.49118041992188
1264;211.29367065429688
1265;211.0963134765625
1266;210.899169921875
1267;210.7021484375
1268;210.5053253173828
1269;210.30859375
1270;210.11207580566406
1271;209.9156951904297
1272;209.71951293945312
1273;209.52345275878906
1274;209.3275909423828
1275;209.1318359375
1276;208.9363250732422
1277;208.74095153808594
1278;208.5457305908203
1279;208.3506622314453
1280;208.15573120117188
1281;207.9609832763672
1282;207.76638793945312
1283;207.57192993164062
1284;207.37770080566406
1285;207.18359375
1286;206.98960876464844
1287;206.79586791992188
1288;206.6022186279297
1289;206.40878295898438
1290;206.21548461914062
1291;206.02235412597656
1292;205.8294219970703
1293;205.63658142089844
1294;205.44393920898438
1295;205.2514190673828
1296;205.05909729003906
1297;204.86692810058594
1298;204.6749267578125
1299;204.48301696777344
1300;204.29127502441406
1301;204.09970092773438
1302;203.90829467773438
1303;203.717041015625
1304;203.52590942382812
1305;203.33499145507812
1306;203.14425659179688
1307;202.95364379882812
1308;202.76318359375
1309;202.5728759765625
1310;202.38272094726562
1311;202.19273376464844
1312;202.00289916992188
1313;201.81326293945312
1314;201.623779296875
1315;201.43443298339844
1316;201.24522399902344
1317;201.05618286132812
1318;200.86729431152344
1319;200.67857360839844
1320;200.49000549316406
1321;200.30154418945312
1322;200.1133270263672
1323;199.9252166748047
1324;199.7373046875
1325;199.549560546875
1326;199.36192321777344
1327;199.17445373535156
1328;198.9871368408203
1329;198.80001831054688
1330;198.61300659179688
1331;198.42616271972656
1332;198.23947143554688
1333;198.05294799804688
1334;197.8665771484375
1335;197.68032836914062
1336;197.49427795410156
1337;197.30831909179688
1338;197.12258911132812
1339;196.9369659423828
1340;196.75157165527344
1341;196.5662384033203
1342;196.38107299804688
1343;196.19607543945312
1344;196.01123046875
1345;195.8265380859375
1346;195.64199829101562
1347;195.45765686035156
1348;195.27342224121094
1349;195.08938598632812
1350;194.9054412841797
1351;194.72169494628906
1352;194.5380859375
1353;194.3546142578125
1354;194.17135620117188
1355;193.98817443847656
1356;193.80516052246094
1357;193.62234497070312
1358;193.4396514892578
1359;193.257080078125
1360;193.07469177246094
1361;192.89244079589844
1362;192.71035766601562
1363;192.52845764160156
1364;192.3466796875
1365;192.16506958007812
1366;191.98361206054688
1367;191.80227661132812
1368;191.62112426757812
1369;191.4401092529297
1370;191.25924682617188
1371;191.07850646972656
1372;190.89797973632812
1373;190.7175750732422
1374;190.53733825683594
1375;190.35726928710938
1376;190.1772918701172
1377;189.99752807617188
1378;189.81785583496094
1379;189.6383514404297
1380;189.4590301513672
1381;189.27981567382812
1382;189.10072326660156
1383;188.921875
1384;188.7430877685547
1385;188.56448364257812
1386;188.38601684570312
1387;188.20773315429688
1388;188.02955627441406
1389;187.85159301757812
1390;187.6737518310547
1391;187.4960174560547
1392;187.3184814453125
1393;187.1410675048828
1394;186.96376037597656
1395;186.7866973876953
1396;186.60972595214844
1397;186.4329071044922
1398;186.25624084472656
1399;186.07972717285156
1400;185.90335083007812
1401;185.72715759277344
1402;185.5511016845703
1403;185.37515258789062
1404;185.1993865966797
1405;185.02378845214844
1406;184.8483428955078
1407;184.6730194091797
1408;184.49781799316406
1409;184.3228302001953
1410;184.14791870117188
1411;183.97312927246094
1412;183.7985382080078
1413;183.62405395507812
1414;183.4497833251953
1415;183.27561950683594
1416;183.1016387939453
1417;182.9278106689453
1418;182.75405883789062
1419;182.58053588867188
1420;182.40708923339844
1421;182.2338409423828
1422;182.06069946289062
1423;181.88772583007812
1424;181.71487426757812
1425;181.5421600341797
1426;181.36962890625
1427;181.19725036621094
1428;181.02500915527344
1429;180.8528594970703
1430;180.68092346191406
1431;180.50914001464844
1432;180.3374786376953
1433;180.1659393310547
1434;179.9945526123047
1435;179.8233184814453
1436;179.65223693847656
1437;179.48129272460938
1438;179.3104705810547
1439;179.13980102539062
1440;178.96926879882812
1441;178.7989044189453
1442;178.62864685058594
1443;178.45858764648438
1444;178.2886505126953
1445;178.11886596679688
1446;177.94921875
1447;177.7797088623047
1448;177.61038208007812
1449;177.44117736816406
1450;177.2720947265625
1451;177.10317993164062
1452;176.93435668945312
1453;176.76571655273438
1454;176.59719848632812
1455;176.4288330078125
1456;176.26060485839844
1457;176.09254455566406
1458;175.92465209960938
1459;175.7568817138672
1460;175.58924865722656
1461;175.42176818847656
1462;175.25442504882812
1463;175.0872344970703
1464;174.920166015625
1465;174.7532196044922
1466;174.58644104003906
1467;174.41981506347656
1468;174.25332641601562
1469;174.08702087402344
1470;173.92079162597656
1471;173.7547149658203
1472;173.58877563476562
1473;173.42298889160156
1474;173.25735473632812
1475;173.09182739257812
1476;172.9264678955078
1477;172.76123046875
1478;172.59616088867188
1479;172.4312286376953
1480;172.26638793945312
1481;172.1017303466797
1482;171.93722534179688
1483;171.7728271484375
1484;171.6085662841797
1485;171.4444580078125
1486;171.28048706054688
1487;171.11668395996094
1488;170.9530029296875
1489;170.78945922851562
1490;170.62606811523438
1491;170.46278381347656
1492;170.29969787597656
1493;170.13673400878906
1494;169.973876953125
1495;169.81117248535156
1496;169.6486053466797
1497;169.48619079589844
1498;169.3239288330078
1499;169.16175842285156
