;loss
0;859.1061401367188
1;858.7646484375
2;858.3060913085938
3;857.8889770507812
4;857.4301147460938
5;856.9708251953125
6;856.5109252929688
7;856.0599975585938
8;855.5983276367188
9;855.1397705078125
10;854.6781616210938
11;854.2127685546875
12;853.7452392578125
13;853.2748413085938
14;852.8038330078125
15;852.3274536132812
16;851.8480834960938
17;851.3695068359375
18;850.8833618164062
19;850.3937377929688
20;849.9004516601562
21;849.4086303710938
22;848.9072875976562
23;848.4075317382812
24;847.9034423828125
25;847.3949584960938
26;846.8817138671875
27;846.357421875
28;845.8341064453125
29;845.3053588867188
30;844.7647705078125
31;844.2246704101562
32;843.6721801757812
33;843.1197509765625
34;842.5610961914062
35;841.9956665039062
36;841.4169921875
37;840.8311157226562
38;840.2378540039062
39;839.6435546875
40;839.0350341796875
41;838.4247436523438
42;837.8062133789062
43;837.1792602539062
44;836.5435180664062
45;835.8922729492188
46;835.2381591796875
47;834.5742797851562
48;833.8942260742188
49;833.2102661132812
50;832.5159912109375
51;831.8109741210938
52;831.0951538085938
53;830.3615112304688
54;829.6163330078125
55;828.8656616210938
56;828.1026000976562
57;827.3206176757812
58;826.5319213867188
59;825.7234497070312
60;824.9077758789062
61;824.0717163085938
62;823.2212524414062
63;822.3624877929688
64;821.4887084960938
65;820.5928955078125
66;819.681640625
67;818.7542724609375
68;817.8167114257812
69;816.8619995117188
70;815.8833618164062
71;814.88671875
72;813.8712158203125
73;812.8432006835938
74;811.7955932617188
75;810.7212524414062
76;809.6336669921875
77;808.5253295898438
78;807.3889770507812
79;806.2306518554688
80;805.0499267578125
81;803.8530883789062
82;802.6329345703125
83;801.3890380859375
84;800.1132202148438
85;798.8129272460938
86;797.4871826171875
87;796.1424560546875
88;794.7706298828125
89;793.3712158203125
90;791.9437866210938
91;790.4803466796875
92;788.9953002929688
93;787.4805908203125
94;785.9352416992188
95;784.3510131835938
96;782.734375
97;781.0928344726562
98;779.4092407226562
99;777.6912231445312
100;775.9378051757812
101;774.1483764648438
102;772.3221435546875
103;770.4662475585938
104;768.5630493164062
105;766.6292724609375
106;764.6552124023438
107;762.6400756835938
108;760.5829467773438
109;758.4827270507812
110;756.3387451171875
111;754.1412353515625
112;751.8983154296875
113;749.6095581054688
114;747.2745361328125
115;744.9030151367188
116;742.4752807617188
117;740.0101318359375
118;737.4872436523438
119;734.9273071289062
120;732.3206787109375
121;729.6675415039062
122;726.9577026367188
123;724.2022705078125
124;721.41357421875
125;718.5828247070312
126;715.7117309570312
127;712.8018798828125
128;709.8448486328125
129;706.8654174804688
130;703.8471069335938
131;700.8043212890625
132;697.7510986328125
133;694.6708374023438
134;691.5795288085938
135;688.4810791015625
136;685.3820190429688
137;682.2874145507812
138;679.2034912109375
139;676.1467895507812
140;673.1172485351562
141;670.1244506835938
142;667.1561279296875
143;664.2280883789062
144;661.3590087890625
145;658.5450439453125
146;655.7884521484375
147;653.0906982421875
148;650.4527587890625
149;647.8692626953125
150;645.3531494140625
151;642.9127807617188
152;640.5319213867188
153;638.2237548828125
154;635.9763793945312
155;633.79638671875
156;631.6853637695312
157;629.6405029296875
158;627.6599731445312
159;625.7391357421875
160;623.8821411132812
161;622.0765380859375
162;620.3252563476562
163;618.6257934570312
164;616.98193359375
165;615.3826904296875
166;613.8362426757812
167;612.3330688476562
168;610.8687133789062
169;609.4467163085938
170;608.0609130859375
171;606.7096557617188
172;605.3909912109375
173;604.1032104492188
174;602.8482055664062
175;601.6209716796875
176;600.4204711914062
177;599.2431640625
178;598.0906372070312
179;596.9650268554688
180;595.8617553710938
181;594.7792358398438
182;593.7164916992188
183;592.6729736328125
184;591.6458740234375
185;590.6358642578125
186;589.6421508789062
187;588.6639404296875
188;587.7031860351562
189;586.7542114257812
190;585.8193359375
191;584.9002685546875
192;583.9917602539062
193;583.0972900390625
194;582.2120971679688
195;581.3381958007812
196;580.4769897460938
197;579.6240234375
198;578.7805786132812
199;577.9465942382812
200;577.12353515625
201;576.3071899414062
202;575.5010375976562
203;574.7032470703125
204;573.9118041992188
205;573.1298217773438
206;572.3535766601562
207;571.5843505859375
208;570.8221435546875
209;570.0679931640625
210;569.3199462890625
211;568.5781860351562
212;567.8421020507812
213;567.1101684570312
214;566.3838500976562
215;565.6629028320312
216;564.9485473632812
217;564.2379760742188
218;563.5325317382812
219;562.8334350585938
220;562.1392822265625
221;561.4497680664062
222;560.7632446289062
223;560.0810546875
224;559.4044189453125
225;558.7318725585938
226;558.0633544921875
227;557.39892578125
228;556.737060546875
229;556.0806884765625
230;555.4281005859375
231;554.7778930664062
232;554.1310424804688
233;553.48779296875
234;552.8477172851562
235;552.2122192382812
236;551.579833984375
237;550.9496459960938
238;550.3235473632812
239;549.6992797851562
240;549.0791015625
241;548.4605712890625
242;547.8449096679688
243;547.2320556640625
244;546.6229248046875
245;546.0154418945312
246;545.4116821289062
247;544.8104858398438
248;544.2118530273438
249;543.6160278320312
250;543.0216064453125
251;542.4309692382812
252;541.8416137695312
253;541.2555541992188
254;540.6718139648438
255;540.08935546875
256;539.5100708007812
257;538.9319458007812
258;538.3568115234375
259;537.7838134765625
260;537.2130126953125
261;536.6433715820312
262;536.0767211914062
263;535.5120849609375
264;534.9495239257812
265;534.3887939453125
266;533.8300170898438
267;533.2730712890625
268;532.7169799804688
269;532.16357421875
270;531.6110229492188
271;531.0603637695312
272;530.5121459960938
273;529.96484375
274;529.4199829101562
275;528.8759155273438
276;528.3344116210938
277;527.79443359375
278;527.2560424804688
279;526.7183227539062
280;526.1830444335938
281;525.6492309570312
282;525.1162719726562
283;524.5847778320312
284;524.0554809570312
285;523.52685546875
286;523.0004272460938
287;522.4752807617188
288;521.9508056640625
289;521.427734375
290;520.90673828125
291;520.3871459960938
292;519.8687744140625
293;519.3518676757812
294;518.8361206054688
295;518.3216552734375
296;517.8077392578125
297;517.2950439453125
298;516.7843627929688
299;516.2742309570312
300;515.7659912109375
301;515.2581787109375
302;514.7515869140625
303;514.2461547851562
304;513.7418212890625
305;513.2386474609375
306;512.7373046875
307;512.236328125
308;511.7373046875
309;511.2393493652344
310;510.7418518066406
311;510.2462463378906
312;509.7517395019531
313;509.2582092285156
314;508.7657775878906
315;508.27447509765625
316;507.7841796875
317;507.294921875
318;506.80596923828125
319;506.318603515625
320;505.8316955566406
321;505.3464050292969
322;504.86138916015625
323;504.3780822753906
324;503.8957214355469
325;503.4137268066406
326;502.9333190917969
327;502.4538269042969
328;501.9746398925781
329;501.49700927734375
330;501.0197448730469
331;500.5439758300781
332;500.0691223144531
333;499.5951232910156
334;499.1220703125
335;498.64990234375
336;498.1780090332031
337;497.7070617675781
338;497.2369689941406
339;496.7682189941406
340;496.2998352050781
341;495.83221435546875
342;495.365478515625
343;494.8995666503906
344;494.4345703125
345;493.97027587890625
346;493.5074157714844
347;493.0447692871094
348;492.58355712890625
349;492.12261962890625
350;491.6629333496094
351;491.20361328125
352;490.7450256347656
353;490.2872619628906
354;489.8305358886719
355;489.3746643066406
356;488.9202575683594
357;488.4665832519531
358;488.0133361816406
359;487.5606384277344
360;487.10882568359375
361;486.65826416015625
362;486.2080078125
363;485.7590026855469
364;485.31024169921875
365;484.8623046875
366;484.4150085449219
367;483.9685363769531
368;483.52276611328125
369;483.07769775390625
370;482.63330078125
371;482.189697265625
372;481.747314453125
373;481.3055725097656
374;480.864013671875
375;480.42327880859375
376;479.9831237792969
377;479.5441589355469
378;479.1053161621094
379;478.6672668457031
380;478.23046875
381;477.79425048828125
382;477.3587951660156
383;476.9239196777344
384;476.4892578125
385;476.0556640625
386;475.6222839355469
387;475.189453125
388;474.75775146484375
389;474.32672119140625
390;473.8963317871094
391;473.4660949707031
392;473.0369567871094
393;472.6080627441406
394;472.18011474609375
395;471.75238037109375
396;471.3259582519531
397;470.9001770019531
398;470.474609375
399;470.0500793457031
400;469.6261291503906
401;469.2027893066406
402;468.7799987792969
403;468.3573913574219
404;467.93536376953125
405;467.5138854980469
406;467.09344482421875
407;466.6731262207031
408;466.25341796875
409;465.834716796875
410;465.41656494140625
411;464.9989929199219
412;464.58197021484375
413;464.1654357910156
414;463.74908447265625
415;463.33331298828125
416;462.91802978515625
417;462.50335693359375
418;462.089599609375
419;461.6764221191406
420;461.2637023925781
421;460.85113525390625
422;460.4391784667969
423;460.0281066894531
424;459.61749267578125
425;459.2074890136719
426;458.7975769042969
427;458.3885803222656
428;457.9797668457031
429;457.57135009765625
430;457.1639709472656
431;456.75732421875
432;456.3507385253906
433;455.94476318359375
434;455.5397033691406
435;455.13470458984375
436;454.7306823730469
437;454.3267517089844
438;453.92376708984375
439;453.5212707519531
440;453.1192932128906
441;452.7173767089844
442;452.3164367675781
443;451.9158630371094
444;451.51556396484375
445;451.11566162109375
446;450.71630859375
447;450.31732177734375
448;449.91888427734375
449;449.5212707519531
450;449.12408447265625
451;448.72747802734375
452;448.3312072753906
453;447.93511962890625
454;447.53985595703125
455;447.14501953125
456;446.7503356933594
457;446.3561096191406
458;445.9626770019531
459;445.5696716308594
460;445.1770935058594
461;444.78509521484375
462;444.3930969238281
463;444.001953125
464;443.6111755371094
465;443.2205505371094
466;442.8304138183594
467;442.4406433105469
468;442.0516662597656
469;441.6631164550781
470;441.2746887207031
471;440.8869934082031
472;440.49981689453125
473;440.11273193359375
474;439.72607421875
475;439.3401794433594
476;438.9547424316406
477;438.5696716308594
478;438.1847229003906
479;437.80023193359375
480;437.41644287109375
481;437.03271484375
482;436.64984130859375
483;436.2669372558594
484;435.8847961425781
485;435.5030212402344
486;435.1214294433594
487;434.740234375
488;434.35943603515625
489;433.97930908203125
490;433.5996398925781
491;433.22039794921875
492;432.8415222167969
493;432.4630432128906
494;432.0846862792969
495;431.7067565917969
496;431.32916259765625
497;430.95196533203125
498;430.5754699707031
499;430.1990661621094
500;429.8233337402344
501;429.4480285644531
502;429.0730895996094
503;428.6985168457031
504;428.3243713378906
505;427.9502868652344
506;427.57666015625
507;427.20361328125
508;426.8310241699219
509;426.4587707519531
510;426.08660888671875
511;425.7148132324219
512;425.3437194824219
513;424.9729919433594
514;424.6023864746094
515;424.2322082519531
516;423.8626403808594
517;423.4931640625
518;423.1243591308594
519;422.755615234375
520;422.3872375488281
521;422.0193176269531
522;421.6520080566406
523;421.2847595214844
524;420.91790771484375
525;420.5516662597656
526;420.1855773925781
527;419.8197937011719
528;419.4543762207031
529;419.0893859863281
530;418.7249450683594
531;418.36065673828125
532;417.9967346191406
533;417.63311767578125
534;417.2698669433594
535;416.9072265625
536;416.54498291015625
537;416.18304443359375
538;415.8215026855469
539;415.4600524902344
540;415.09918212890625
541;414.7384948730469
542;414.3780822753906
543;414.0182800292969
544;413.6585998535156
545;413.29925537109375
546;412.9404602050781
547;412.5818176269531
548;412.2237854003906
549;411.8658142089844
550;411.5084533691406
551;411.1511535644531
552;410.79449462890625
553;410.43792724609375
554;410.0818786621094
555;409.7262878417969
556;409.3709411621094
557;409.0160217285156
558;408.6613464355469
559;408.306884765625
560;407.9529113769531
561;407.59906005859375
562;407.24554443359375
563;406.8923645019531
564;406.5397644042969
565;406.1872253417969
566;405.8352966308594
567;405.4836730957031
568;405.1321716308594
569;404.7810363769531
570;404.43017578125
571;404.0796203613281
572;403.72967529296875
573;403.37982177734375
574;403.0304870605469
575;402.6813049316406
576;402.3323669433594
577;401.9838562011719
578;401.6355895996094
579;401.28765869140625
580;400.9400939941406
581;400.593017578125
582;400.24609375
583;399.899658203125
584;399.5535583496094
585;399.20758056640625
586;398.8619079589844
587;398.5165100097656
588;398.1716613769531
589;397.8271484375
590;397.4827575683594
591;397.13885498046875
592;396.7952575683594
593;396.45196533203125
594;396.1087951660156
595;395.76611328125
596;395.4236145019531
597;395.08154296875
598;394.7396545410156
599;394.39794921875
600;394.0566711425781
601;393.7156066894531
602;393.3751525878906
603;393.034912109375
604;392.6947937011719
605;392.3551940917969
606;392.01593017578125
607;391.67669677734375
608;391.3381042480469
609;390.9997253417969
610;390.66143798828125
611;390.3234558105469
612;389.9858093261719
613;389.6486511230469
614;389.3117370605469
615;388.9750061035156
616;388.63873291015625
617;388.3025817871094
618;387.96685791015625
619;387.63153076171875
620;387.2962341308594
621;386.9612121582031
622;386.6267395019531
623;386.29254150390625
624;385.95843505859375
625;385.6248474121094
626;385.2912902832031
627;384.9581604003906
628;384.6252136230469
629;384.29254150390625
630;383.96038818359375
631;383.6285095214844
632;383.2967834472656
633;382.96527099609375
634;382.63409423828125
635;382.30322265625
636;381.97259521484375
637;381.6423034667969
638;381.3122253417969
639;380.98248291015625
640;380.6530456542969
641;380.32403564453125
642;379.9953308105469
643;379.6667175292969
644;379.33837890625
645;379.01031494140625
646;378.6826171875
647;378.35528564453125
648;378.0283203125
649;377.70159912109375
650;377.375
651;377.0487976074219
652;376.7228088378906
653;376.3971862792969
654;376.07171630859375
655;375.7466125488281
656;375.4216613769531
657;375.09716796875
658;374.7728576660156
659;374.44891357421875
660;374.12506103515625
661;373.8017272949219
662;373.4786071777344
663;373.1556091308594
664;372.83306884765625
665;372.5107727050781
666;372.1887512207031
667;371.8669128417969
668;371.5453186035156
669;371.22393798828125
670;370.90289306640625
671;370.5822448730469
672;370.26171875
673;369.9414367675781
674;369.62164306640625
675;369.3019104003906
676;368.9826354980469
677;368.66363525390625
678;368.3447265625
679;368.0262145996094
680;367.7080383300781
681;367.3899230957031
682;367.07208251953125
683;366.7545471191406
684;366.437255859375
685;366.120361328125
686;365.8037109375
687;365.4873962402344
688;365.1711730957031
689;364.85540771484375
690;364.53985595703125
691;364.22442626953125
692;363.9093933105469
693;363.594482421875
694;363.27984619140625
695;362.9656066894531
696;362.6516418457031
697;362.3377380371094
698;362.02435302734375
699;361.71099853515625
700;361.39794921875
701;361.08514404296875
702;360.7726135253906
703;360.46044921875
704;360.14849853515625
705;359.83673095703125
706;359.525390625
707;359.214111328125
708;358.90325927734375
709;358.5926818847656
710;358.2823181152344
711;357.97210693359375
712;357.6623229980469
713;357.3525695800781
714;357.0432434082031
715;356.73406982421875
716;356.42523193359375
717;356.1167297363281
718;355.8082580566406
719;355.5002136230469
720;355.19244384765625
721;354.8848571777344
722;354.57757568359375
723;354.27056884765625
724;353.96380615234375
725;353.65728759765625
726;353.35101318359375
727;353.04498291015625
728;352.7392578125
729;352.4335632324219
730;352.1281433105469
731;351.8229675292969
732;351.5182189941406
733;351.2137145996094
734;350.9093933105469
735;350.60540771484375
736;350.3014831542969
737;349.997802734375
738;349.6945495605469
739;349.39154052734375
740;349.088623046875
741;348.7861022949219
742;348.48382568359375
743;348.1817932128906
744;347.87994384765625
745;347.57830810546875
746;347.27685546875
747;346.9757995605469
748;346.6750183105469
749;346.374267578125
750;346.0738220214844
751;345.77374267578125
752;345.4737854003906
753;345.1742248535156
754;344.87469482421875
755;344.57562255859375
756;344.2767028808594
757;343.9779968261719
758;343.6794738769531
759;343.3811950683594
760;343.0831604003906
761;342.7854919433594
762;342.4880676269531
763;342.1908264160156
764;341.89385986328125
765;341.59716796875
766;341.3006896972656
767;341.00445556640625
768;340.7084655761719
769;340.4127502441406
770;340.11724853515625
771;339.8218688964844
772;339.52685546875
773;339.23193359375
774;338.9372863769531
775;338.642822265625
776;338.3487854003906
777;338.05474853515625
778;337.76104736328125
779;337.4675598144531
780;337.17431640625
781;336.88128662109375
782;336.5886535644531
783;336.2961120605469
784;336.0038146972656
785;335.71185302734375
786;335.4201354980469
787;335.1285095214844
788;334.8371276855469
789;334.546142578125
790;334.25537109375
791;333.9646911621094
792;333.6742858886719
793;333.3840637207031
794;333.09423828125
795;332.80462646484375
796;332.5151672363281
797;332.22601318359375
798;331.93695068359375
799;331.64825439453125
800;331.3597106933594
801;331.07135009765625
802;330.7832336425781
803;330.495361328125
804;330.2078552246094
805;329.92041015625
806;329.63336181640625
807;329.3464050292969
808;329.05963134765625
809;328.77325439453125
810;328.4870910644531
811;328.2010803222656
812;327.91534423828125
813;327.6297302246094
814;327.34454345703125
815;327.05938720703125
816;326.77447509765625
817;326.4898986816406
818;326.20550537109375
819;325.9213562011719
820;325.6374816894531
821;325.3537902832031
822;325.07025146484375
823;324.7869567871094
824;324.5039367675781
825;324.22119140625
826;323.9385070800781
827;323.6562194824219
828;323.3739929199219
829;323.0920104980469
830;322.81036376953125
831;322.52899169921875
832;322.2476501464844
833;321.9665832519531
834;321.6858215332031
835;321.4052734375
836;321.1249694824219
837;320.84478759765625
838;320.5649108886719
839;320.28515625
840;320.0057067871094
841;319.72650146484375
842;319.4474182128906
843;319.16851806640625
844;318.8899841308594
845;318.611572265625
846;318.33343505859375
847;318.0555725097656
848;317.7778015136719
849;317.50030517578125
850;317.22296142578125
851;316.94598388671875
852;316.6691589355469
853;316.3924865722656
854;316.11614990234375
855;315.8398742675781
856;315.56396484375
857;315.2882995605469
858;315.01275634765625
859;314.73736572265625
860;314.46221923828125
861;314.1872863769531
862;313.9126281738281
863;313.63812255859375
864;313.36395263671875
865;313.08984375
866;312.81597900390625
867;312.5423278808594
868;312.2690124511719
869;311.9958801269531
870;311.72296142578125
871;311.4501953125
872;311.1776428222656
873;310.90533447265625
874;310.6332702636719
875;310.3614807128906
876;310.08984375
877;309.8183288574219
878;309.5471496582031
879;309.276123046875
880;309.0052185058594
881;308.7347106933594
882;308.46429443359375
883;308.19403076171875
884;307.92401123046875
885;307.654296875
886;307.3847961425781
887;307.115478515625
888;306.8464050292969
889;306.5774230957031
890;306.30877685546875
891;306.0403137207031
892;305.77197265625
893;305.50396728515625
894;305.2360534667969
895;304.96832275390625
896;304.7008361816406
897;304.4336242675781
898;304.1666564941406
899;303.8997497558594
900;303.63323974609375
901;303.3668518066406
902;303.1006774902344
903;302.83465576171875
904;302.56884765625
905;302.3033142089844
906;302.03802490234375
907;301.7727966308594
908;301.50787353515625
909;301.24310302734375
910;300.97857666015625
911;300.71429443359375
912;300.4502258300781
913;300.1863098144531
914;299.9226379394531
915;299.65911865234375
916;299.3958435058594
917;299.1328430175781
918;298.8699645996094
919;298.6072692871094
920;298.3448791503906
921;298.0826721191406
922;297.8205871582031
923;297.5587463378906
924;297.2970275878906
925;297.03558349609375
926;296.77435302734375
927;296.5133972167969
928;296.2525329589844
929;295.991943359375
930;295.7314453125
931;295.47119140625
932;295.211181640625
933;294.9513854980469
934;294.69171142578125
935;294.4322814941406
936;294.1730651855469
937;293.9140625
938;293.65521240234375
939;293.39666748046875
940;293.13818359375
941;292.8799743652344
942;292.62200927734375
943;292.3641662597656
944;292.1065979003906
945;291.8492126464844
946;291.592041015625
947;291.3349914550781
948;291.0780944824219
949;290.821533203125
950;290.565185546875
951;290.30902099609375
952;290.052978515625
953;289.797119140625
954;289.5415344238281
955;289.28607177734375
956;289.03082275390625
957;288.7758483886719
958;288.5210266113281
959;288.26641845703125
960;288.0120544433594
961;287.7578125
962;287.5038146972656
963;287.2500305175781
964;286.99639892578125
965;286.74298095703125
966;286.4897155761719
967;286.2367248535156
968;285.9839172363281
969;285.7312316894531
970;285.4787902832031
971;285.22650146484375
972;284.9743957519531
973;284.7225036621094
974;284.47076416015625
975;284.2192687988281
976;283.9680480957031
977;283.71697998046875
978;283.466064453125
979;283.21539306640625
980;282.9648742675781
981;282.7145080566406
982;282.46435546875
983;282.2143859863281
984;281.9646301269531
985;281.7150573730469
986;281.46575927734375
987;281.2166442871094
988;280.9676208496094
989;280.7189025878906
990;280.47027587890625
991;280.221923828125
992;279.97381591796875
993;279.725830078125
994;279.47802734375
995;279.2303771972656
996;278.9829406738281
997;278.7356872558594
998;278.4886169433594
999;278.24176025390625
1000;277.9950866699219
1001;277.74871826171875
1002;277.5024719238281
1003;277.2564392089844
1004;277.01055908203125
1005;276.76483154296875
1006;276.5193176269531
1007;276.2740783691406
1008;276.0289001464844
1009;275.78399658203125
1010;275.53936767578125
1011;275.2948303222656
1012;275.0504455566406
1013;274.8063049316406
1014;274.5624084472656
1015;274.3185729980469
1016;274.0749816894531
1017;273.8315734863281
1018;273.5883483886719
1019;273.3453063964844
1020;273.1025085449219
1021;272.85992431640625
1022;272.6175231933594
1023;272.375244140625
1024;272.1332092285156
1025;271.891357421875
1026;271.64971923828125
1027;271.40814208984375
1028;271.1667785644531
1029;270.92559814453125
1030;270.68463134765625
1031;270.4438171386719
1032;270.2032775878906
1033;269.9628601074219
1034;269.72259521484375
1035;269.4826354980469
1036;269.2427673339844
1037;269.0032043457031
1038;268.76373291015625
1039;268.5244140625
1040;268.2853698730469
1041;268.04644775390625
1042;267.80767822265625
1043;267.56915283203125
1044;267.3308410644531
1045;267.09271240234375
1046;266.854736328125
1047;266.616943359375
1048;266.37939453125
1049;266.14202880859375
1050;265.9047546386719
1051;265.66778564453125
1052;265.43096923828125
1053;265.1943054199219
1054;264.9577941894531
1055;264.721435546875
1056;264.4853820800781
1057;264.2494812011719
1058;264.0137634277344
1059;263.7782287597656
1060;263.5428771972656
1061;263.3077087402344
1062;263.0726623535156
1063;262.8377990722656
1064;262.6031799316406
1065;262.36865234375
1066;262.1344299316406
1067;261.9003601074219
1068;261.6664733886719
1069;261.43267822265625
1070;261.19915771484375
1071;260.9658203125
1072;260.732666015625
1073;260.4996643066406
1074;260.266845703125
1075;260.03424072265625
1076;259.80181884765625
1077;259.5694885253906
1078;259.3373718261719
1079;259.10546875
1080;258.8736877441406
1081;258.6420593261719
1082;258.41064453125
1083;258.1794128417969
1084;257.94842529296875
1085;257.71759033203125
1086;257.4869079589844
1087;257.2564392089844
1088;257.02618408203125
1089;256.79608154296875
1090;256.566162109375
1091;256.33642578125
1092;256.10675048828125
1093;255.87733459472656
1094;255.64810180664062
1095;255.41908264160156
1096;255.19021606445312
1097;254.96156311035156
1098;254.73304748535156
1099;254.5047607421875
1100;254.276611328125
1101;254.048583984375
1102;253.82077026367188
1103;253.5930938720703
1104;253.36569213867188
1105;253.138427734375
1106;252.91127014160156
1107;252.6843719482422
1108;252.45765686035156
1109;252.23104858398438
1110;252.00466918945312
1111;251.7784881591797
1112;251.5524139404297
1113;251.32656860351562
1114;251.10086059570312
1115;250.87538146972656
1116;250.6500244140625
1117;250.42483520507812
1118;250.1998291015625
1119;249.9750213623047
1120;249.75045776367188
1121;249.52598571777344
1122;249.3016815185547
1123;249.07760620117188
1124;248.85366821289062
1125;248.62989807128906
1126;248.40635681152344
1127;248.18289184570312
1128;247.95968627929688
1129;247.7366485595703
1130;247.51377868652344
1131;247.29112243652344
1132;247.0685272216797
1133;246.8461456298828
1134;246.62393188476562
1135;246.4019317626953
1136;246.18006896972656
1137;245.9584197998047
1138;245.7369842529297
1139;245.51565551757812
1140;245.2945098876953
1141;245.0735626220703
1142;244.85275268554688
1143;244.6321258544922
1144;244.41172790527344
1145;244.19143676757812
1146;243.97134399414062
1147;243.75143432617188
1148;243.5316619873047
1149;243.3120880126953
1150;243.09263610839844
1151;242.8734130859375
1152;242.65432739257812
1153;242.43544006347656
1154;242.21670532226562
1155;241.9981231689453
1156;241.7797393798828
1157;241.56149291992188
1158;241.34339904785156
1159;241.12547302246094
1160;240.90771484375
1161;240.69015502929688
1162;240.47276306152344
1163;240.25558471679688
1164;240.03854370117188
1165;239.8217010498047
1166;239.60498046875
1167;239.3885040283203
1168;239.17214965820312
1169;238.9559783935547
1170;238.74002075195312
1171;238.5240936279297
1172;238.3084259033203
1173;238.0929412841797
1174;237.87757873535156
1175;237.66246032714844
1176;237.44747924804688
1177;237.23265075683594
1178;237.01795959472656
1179;236.80348205566406
1180;236.589111328125
1181;236.37498474121094
1182;236.1609649658203
1183;235.94712829589844
1184;235.7334747314453
1185;235.52000427246094
1186;235.306640625
1187;235.09352111816406
1188;234.8805389404297
1189;234.66773986816406
1190;234.45510864257812
1191;234.24258422851562
1192;234.03028869628906
1193;233.818115234375
1194;233.6061553955078
1195;233.3943634033203
1196;233.18272399902344
1197;232.97122192382812
1198;232.75991821289062
1199;232.54872131347656
1200;232.3377227783203
1201;232.1268768310547
1202;231.9161834716797
1203;231.70567321777344
1204;231.495361328125
1205;231.28518676757812
1206;231.07518005371094
1207;230.8653106689453
1208;230.65565490722656
1209;230.4461669921875
1210;230.2368927001953
1211;230.02772521972656
1212;229.81869506835938
1213;229.60986328125
1214;229.40121459960938
1215;229.1926727294922
1216;228.9842987060547
1217;228.77613830566406
1218;228.56813049316406
1219;228.36021423339844
1220;228.1525421142578
1221;227.9449920654297
1222;227.7375946044922
1223;227.53041076660156
1224;227.32337951660156
1225;227.11648559570312
1226;226.90980529785156
1227;226.70326232910156
1228;226.49685668945312
1229;226.29066467285156
1230;226.08460998535156
1231;225.8787078857422
1232;225.67300415039062
1233;225.4674072265625
1234;225.2620086669922
1235;225.05677795410156
1236;224.85171508789062
1237;224.64675903320312
1238;224.44198608398438
1239;224.2373809814453
1240;224.03294372558594
1241;223.82864379882812
1242;223.62451171875
1243;223.4205780029297
1244;223.216796875
1245;223.01315307617188
1246;222.80967712402344
1247;222.6063690185547
1248;222.40318298339844
1249;222.20016479492188
1250;221.99734497070312
1251;221.79464721679688
1252;221.59217834472656
1253;221.38980102539062
1254;221.1876220703125
1255;220.98556518554688
1256;220.78370666503906
1257;220.5819549560547
1258;220.38046264648438
1259;220.1790313720703
1260;219.97775268554688
1261;219.7766876220703
1262;219.57579040527344
1263;219.375
1264;219.17442321777344
1265;218.9739532470703
1266;218.77369689941406
1267;218.5735321044922
1268;218.37353515625
1269;218.17372131347656
1270;217.97409057617188
1271;217.77462768554688
1272;217.57530212402344
1273;217.37608337402344
1274;217.17710876464844
1275;216.97824096679688
1276;216.779541015625
1277;216.5810089111328
1278;216.38258361816406
1279;216.1844024658203
1280;215.986328125
1281;215.7883758544922
1282;215.59060668945312
1283;215.39305114746094
1284;215.1956024169922
1285;214.998291015625
1286;214.80113220214844
1287;214.60414123535156
1288;214.40733337402344
1289;214.21070861816406
1290;214.01419067382812
1291;213.81784057617188
1292;213.6216583251953
1293;213.4255828857422
1294;213.229736328125
1295;213.03402709960938
1296;212.8384552001953
1297;212.64308166503906
1298;212.44776916503906
1299;212.25265502929688
1300;212.05772399902344
1301;211.86293029785156
1302;211.6683349609375
1303;211.47386169433594
1304;211.27951049804688
1305;211.08535766601562
1306;210.89132690429688
1307;210.6974334716797
1308;210.50369262695312
1309;210.31019592285156
1310;210.11680603027344
1311;209.923583984375
1312;209.73045349121094
1313;209.5375213623047
1314;209.34469604492188
1315;209.15206909179688
1316;208.9595947265625
1317;208.7672576904297
1318;208.57505798339844
1319;208.38304138183594
1320;208.19113159179688
1321;207.9994354248047
1322;207.80787658691406
1323;207.616455078125
1324;207.4252166748047
1325;207.23410034179688
1326;207.0431671142578
1327;206.8523712158203
1328;206.66175842285156
1329;206.4712677001953
1330;206.28091430664062
1331;206.09072875976562
1332;205.90066528320312
1333;205.7107696533203
1334;205.52101135253906
1335;205.33140563964844
1336;205.1419677734375
1337;204.95272827148438
1338;204.76356506347656
1339;204.57461547851562
1340;204.38577270507812
1341;204.1970977783203
1342;204.008544921875
1343;203.82017517089844
1344;203.63194274902344
1345;203.44386291503906
1346;203.25595092773438
1347;203.0681915283203
1348;202.8805694580078
1349;202.693115234375
1350;202.5057830810547
1351;202.31863403320312
1352;202.1316375732422
1353;201.94479370117188
1354;201.758056640625
1355;201.5714569091797
1356;201.38504028320312
1357;201.1987762451172
1358;201.0126495361328
1359;200.82667541503906
1360;200.64089965820312
1361;200.45521545410156
1362;200.26966857910156
1363;200.0843048095703
1364;199.8990936279297
1365;199.7140350341797
1366;199.5290985107422
1367;199.34434509277344
1368;199.1597137451172
1369;198.97520446777344
1370;198.7908935546875
1371;198.60670471191406
1372;198.42263793945312
1373;198.23875427246094
1374;198.05503845214844
1375;197.87144470214844
1376;197.68798828125
1377;197.5046844482422
1378;197.32156372070312
1379;197.1385498046875
1380;196.95570373535156
1381;196.77297973632812
1382;196.59046936035156
1383;196.40806579589844
1384;196.225830078125
1385;196.043701171875
1386;195.8617401123047
1387;195.67994689941406
1388;195.49826049804688
1389;195.3167266845703
1390;195.1353759765625
1391;194.9541473388672
1392;194.7730712890625
1393;194.59214782714844
1394;194.41136169433594
1395;194.230712890625
1396;194.05020141601562
1397;193.869873046875
1398;193.68968200683594
1399;193.5095977783203
1400;193.3296661376953
1401;193.14990234375
1402;192.97023010253906
1403;192.790771484375
1404;192.61143493652344
1405;192.43228149414062
1406;192.2532196044922
1407;192.0743408203125
1408;191.89561462402344
1409;191.71701049804688
1410;191.53854370117188
1411;191.36024475097656
1412;191.18209838867188
1413;191.00404357910156
1414;190.82615661621094
1415;190.6484375
1416;190.47084045410156
1417;190.2933807373047
1418;190.1160888671875
1419;189.93893432617188
1420;189.76194763183594
1421;189.5850372314453
1422;189.40834045410156
1423;189.2317657470703
1424;189.05528259277344
1425;188.87899780273438
1426;188.70285034179688
1427;188.52684020996094
1428;188.35098266601562
1429;188.17526245117188
1430;187.9997100830078
1431;187.82424926757812
1432;187.6490020751953
1433;187.47384643554688
1434;187.298828125
1435;187.12399291992188
1436;186.94923400878906
1437;186.77468872070312
1438;186.60023498535156
1439;186.42593383789062
1440;186.2517852783203
1441;186.07777404785156
1442;185.90391540527344
1443;185.7301483154297
1444;185.55661010742188
1445;185.3831787109375
1446;185.20986938476562
1447;185.0366973876953
1448;184.8636932373047
1449;184.69082641601562
1450;184.5181427001953
1451;184.3455352783203
1452;184.17306518554688
1453;184.0007781982422
1454;183.82861328125
1455;183.65658569335938
1456;183.48471069335938
1457;183.3129425048828
1458;183.141357421875
1459;182.96987915039062
1460;182.7985382080078
1461;182.62733459472656
1462;182.456298828125
1463;182.28538513183594
1464;182.11463928222656
1465;181.9440155029297
1466;181.7735137939453
1467;181.60316467285156
1468;181.43296813964844
1469;181.26290893554688
1470;181.093017578125
1471;180.92318725585938
1472;180.75355529785156
1473;180.58407592773438
1474;180.41470336914062
1475;180.2454833984375
1476;180.076416015625
1477;179.907470703125
1478;179.73866271972656
1479;179.56997680664062
1480;179.4014892578125
1481;179.2330780029297
1482;179.0648651123047
1483;178.89675903320312
1484;178.72877502441406
1485;178.56094360351562
1486;178.39320373535156
1487;178.2256317138672
1488;178.05824279785156
1489;177.89097595214844
1490;177.7238006591797
1491;177.5568084716797
1492;177.3899688720703
1493;177.22325134277344
1494;177.056640625
1495;176.8901824951172
1496;176.72389221191406
1497;176.55770874023438
1498;176.39163208007812
1499;176.22572326660156
