;loss
0;877.6920776367188
1;877.2702026367188
2;876.7053833007812
3;876.1430053710938
4;875.5833129882812
5;875.0262451171875
6;874.4716796875
7;873.9310913085938
8;873.3890991210938
9;872.84130859375
10;872.2955932617188
11;871.7525024414062
12;871.2095336914062
13;870.6685791015625
14;870.12890625
15;869.5867919921875
16;869.0447387695312
17;868.50732421875
18;867.9702758789062
19;867.4334106445312
20;866.8963623046875
21;866.3590087890625
22;865.8211669921875
23;865.2825927734375
24;864.7431030273438
25;864.2025756835938
26;863.6541748046875
27;863.1109008789062
28;862.5658569335938
29;862.0123901367188
30;861.4634399414062
31;860.9058837890625
32;860.3458862304688
33;859.7835083007812
34;859.21826171875
35;858.6565551757812
36;858.0916748046875
37;857.5235595703125
38;856.9458618164062
39;856.3707885742188
40;855.7919921875
41;855.2091674804688
42;854.6162109375
43;854.02490234375
44;853.4230346679688
45;852.8165283203125
46;852.2051391601562
47;851.5886840820312
48;850.9668579101562
49;850.3394775390625
50;849.7120361328125
51;849.0731201171875
52;848.4335327148438
53;847.7875366210938
54;847.1292114257812
55;846.4639892578125
56;845.7973022460938
57;845.123046875
58;844.4412841796875
59;843.7515258789062
60;843.0482177734375
61;842.3362426757812
62;841.62109375
63;840.8914794921875
64;840.1524658203125
65;839.4093017578125
66;838.65625
67;837.8928833007812
68;837.1135864257812
69;836.3231201171875
70;835.5266723632812
71;834.7128295898438
72;833.8868408203125
73;833.0538330078125
74;832.2078247070312
75;831.3482055664062
76;830.4749145507812
77;829.5873413085938
78;828.68505859375
79;827.767578125
80;826.8285522460938
81;825.8731079101562
82;824.9063720703125
83;823.9165649414062
84;822.9143676757812
85;821.8935546875
86;820.8477783203125
87;819.7819213867188
88;818.6954345703125
89;817.5875854492188
90;816.4634399414062
91;815.3106079101562
92;814.1341552734375
93;812.9393920898438
94;811.7132568359375
95;810.4610595703125
96;809.1883544921875
97;807.8878173828125
98;806.55859375
99;805.193359375
100;803.8045654296875
101;802.3778686523438
102;800.9188232421875
103;799.4331665039062
104;797.9066162109375
105;796.3449096679688
106;794.7470703125
107;793.1117553710938
108;791.4384155273438
109;789.7333984375
110;787.9885864257812
111;786.2030639648438
112;784.3758544921875
113;782.498046875
114;780.576171875
115;778.6177368164062
116;776.60595703125
117;774.5478515625
118;772.4423217773438
119;770.2886352539062
120;768.0952758789062
121;765.8446044921875
122;763.54443359375
123;761.2030029296875
124;758.802734375
125;756.3613891601562
126;753.8606567382812
127;751.3189086914062
128;748.7268676757812
129;746.0848388671875
130;743.3841552734375
131;740.6348876953125
132;737.8380737304688
133;734.9946899414062
134;732.1156616210938
135;729.1830444335938
136;726.2190551757812
137;723.205078125
138;720.1642456054688
139;717.0888061523438
140;713.9817504882812
141;710.8460083007812
142;707.6740112304688
143;704.4805297851562
144;701.2693481445312
145;698.0438232421875
146;694.8087768554688
147;691.5687255859375
148;688.3373413085938
149;685.1094970703125
150;681.8797607421875
151;678.6615600585938
152;675.4598388671875
153;672.2783813476562
154;669.1305541992188
155;666.0103149414062
156;662.9208984375
157;659.8655395507812
158;656.8470458984375
159;653.8735961914062
160;650.9388427734375
161;648.0591430664062
162;645.2177734375
163;642.4248046875
164;639.6821899414062
165;636.9967651367188
166;634.3645629882812
167;631.7823486328125
168;629.2553100585938
169;626.78173828125
170;624.3533935546875
171;621.9758911132812
172;619.6485595703125
173;617.3716430664062
174;615.1495971679688
175;612.9696044921875
176;610.8365478515625
177;608.75244140625
178;606.7252807617188
179;604.7410278320312
180;602.8059692382812
181;600.9124145507812
182;599.0625610351562
183;597.2604370117188
184;595.4951171875
185;593.771484375
186;592.0939331054688
187;590.4510498046875
188;588.8456420898438
189;587.2788696289062
190;585.7493286132812
191;584.2509155273438
192;582.7846069335938
193;581.3449096679688
194;579.9346313476562
195;578.55224609375
196;577.20068359375
197;575.8758544921875
198;574.5738525390625
199;573.2991333007812
200;572.0452270507812
201;570.81494140625
202;569.6102294921875
203;568.4244384765625
204;567.2590942382812
205;566.1135864257812
206;564.9874877929688
207;563.8801879882812
208;562.7911987304688
209;561.72216796875
210;560.6677856445312
211;559.6321411132812
212;558.61083984375
213;557.6051025390625
214;556.6143798828125
215;555.64013671875
216;554.6796264648438
217;553.7326049804688
218;552.7964477539062
219;551.8724975585938
220;550.9605712890625
221;550.0621337890625
222;549.1729125976562
223;548.29443359375
224;547.4264526367188
225;546.570068359375
226;545.7216796875
227;544.8843994140625
228;544.0562133789062
229;543.2366943359375
230;542.4239501953125
231;541.6195068359375
232;540.8230590820312
233;540.0343627929688
234;539.2544555664062
235;538.4818115234375
236;537.7166137695312
237;536.9583740234375
238;536.2054443359375
239;535.459716796875
240;534.7203369140625
241;533.9888305664062
242;533.2620239257812
243;532.541015625
244;531.8257446289062
245;531.1174926757812
246;530.4132690429688
247;529.7140502929688
248;529.0198974609375
249;528.3306274414062
250;527.6461181640625
251;526.9673461914062
252;526.2918090820312
253;525.6206665039062
254;524.9537353515625
255;524.2910766601562
256;523.6337280273438
257;522.9804077148438
258;522.3299560546875
259;521.6846313476562
260;521.0420532226562
261;520.4030151367188
262;519.7686157226562
263;519.1366577148438
264;518.5081787109375
265;517.8832397460938
266;517.2625732421875
267;516.6449584960938
268;516.0294799804688
269;515.4171142578125
270;514.8075561523438
271;514.2008666992188
272;513.5980834960938
273;512.9972534179688
274;512.4004516601562
275;511.80523681640625
276;511.2126770019531
277;510.62359619140625
278;510.0361328125
279;509.4510192871094
280;508.86920166015625
281;508.2889709472656
282;507.7110290527344
283;507.1354064941406
284;506.56207275390625
285;505.9909362792969
286;505.42279052734375
287;504.8567810058594
288;504.2922058105469
289;503.72991943359375
290;503.17047119140625
291;502.61322021484375
292;502.05712890625
293;501.5030822753906
294;500.9508361816406
295;500.40045166015625
296;499.85302734375
297;499.3074645996094
298;498.7638244628906
299;498.22137451171875
300;497.6808166503906
301;497.14288330078125
302;496.60595703125
303;496.07080078125
304;495.5373840332031
305;495.0065002441406
306;494.47637939453125
307;493.94793701171875
308;493.42181396484375
309;492.8971252441406
310;492.3739929199219
311;491.85198974609375
312;491.33148193359375
313;490.8125
314;490.2957458496094
315;489.7805480957031
316;489.2668151855469
317;488.75439453125
318;488.2434387207031
319;487.73382568359375
320;487.2249450683594
321;486.7181091308594
322;486.2125549316406
323;485.7082824707031
324;485.2047424316406
325;484.7029724121094
326;484.2018127441406
327;483.7019348144531
328;483.2038269042969
329;482.70703125
330;482.2114562988281
331;481.7170715332031
332;481.22320556640625
333;480.73046875
334;480.2388610839844
335;479.7484436035156
336;479.2591247558594
337;478.771484375
338;478.2850036621094
339;477.79962158203125
340;477.31536865234375
341;476.83221435546875
342;476.3494567871094
343;475.8678283691406
344;475.38714599609375
345;474.9080505371094
346;474.4299621582031
347;473.9529724121094
348;473.4763488769531
349;473.0008239746094
350;472.52679443359375
351;472.05377197265625
352;471.5818176269531
353;471.1101379394531
354;470.6399230957031
355;470.1708068847656
356;469.7019958496094
357;469.234130859375
358;468.7672424316406
359;468.3017578125
360;467.8371276855469
361;467.37286376953125
362;466.90948486328125
363;466.4470520019531
364;465.9853820800781
365;465.524658203125
366;465.0652770996094
367;464.6067810058594
368;464.1486511230469
369;463.69146728515625
370;463.2351379394531
371;462.7796325683594
372;462.32550048828125
373;461.8716735839844
374;461.418701171875
375;460.9666442871094
376;460.51556396484375
377;460.0652160644531
378;459.6163635253906
379;459.1683044433594
380;458.7205505371094
381;458.2736511230469
382;457.82806396484375
383;457.38275146484375
384;456.9382019042969
385;456.4944763183594
386;456.0515441894531
387;455.60980224609375
388;455.1683044433594
389;454.7276306152344
390;454.28759765625
391;453.848388671875
392;453.4098815917969
393;452.9720764160156
394;452.53509521484375
395;452.0992736816406
396;451.6636657714844
397;451.2287902832031
398;450.79473876953125
399;450.36181640625
400;449.9295959472656
401;449.49755859375
402;449.0661926269531
403;448.63555908203125
404;448.2060241699219
405;447.7767028808594
406;447.3484191894531
407;446.9204406738281
408;446.4930114746094
409;446.06634521484375
410;445.6402893066406
411;445.2152404785156
412;444.79083251953125
413;444.36669921875
414;443.9435119628906
415;443.5209655761719
416;443.09869384765625
417;442.67742919921875
418;442.2563781738281
419;441.8362731933594
420;441.41650390625
421;440.99725341796875
422;440.57861328125
423;440.16058349609375
424;439.7431640625
425;439.32666015625
426;438.910400390625
427;438.4951171875
428;438.0800476074219
429;437.6659240722656
430;437.251953125
431;436.8385925292969
432;436.42584228515625
433;436.01361083984375
434;435.60198974609375
435;435.19134521484375
436;434.7807922363281
437;434.3712463378906
438;433.96185302734375
439;433.552978515625
440;433.1447448730469
441;432.73699951171875
442;432.3302307128906
443;431.9235534667969
444;431.517822265625
445;431.11260986328125
446;430.7080078125
447;430.3034973144531
448;429.89996337890625
449;429.4969177246094
450;429.09442138671875
451;428.69207763671875
452;428.2902526855469
453;427.8890075683594
454;427.4882507324219
455;427.0880432128906
456;426.68829345703125
457;426.28912353515625
458;425.8904113769531
459;425.4922790527344
460;425.0949401855469
461;424.69818115234375
462;424.301513671875
463;423.90570068359375
464;423.51007080078125
465;423.1149597167969
466;422.7203674316406
467;422.3262634277344
468;421.9327087402344
469;421.5397033691406
470;421.1474914550781
471;420.7554626464844
472;420.3639221191406
473;419.97314453125
474;419.58258056640625
475;419.1925354003906
476;418.80291748046875
477;418.413818359375
478;418.02520751953125
479;417.6370544433594
480;417.24945068359375
481;416.86260986328125
482;416.4762268066406
483;416.09033203125
484;415.70458984375
485;415.3193054199219
486;414.9345397949219
487;414.5502624511719
488;414.1667785644531
489;413.7834167480469
490;413.4004821777344
491;413.01812744140625
492;412.63616943359375
493;412.2547302246094
494;411.8736877441406
495;411.4931335449219
496;411.11334228515625
497;410.7337341308594
498;410.3547058105469
499;409.97613525390625
500;409.5983581542969
501;409.2209777832031
502;408.84405517578125
503;408.4676818847656
504;408.09185791015625
505;407.716552734375
506;407.3417053222656
507;406.9670104980469
508;406.5929870605469
509;406.2195129394531
510;405.84619140625
511;405.4736022949219
512;405.10150146484375
513;404.7297668457031
514;404.3585510253906
515;403.9875183105469
516;403.61712646484375
517;403.24688720703125
518;402.877197265625
519;402.508056640625
520;402.13922119140625
521;401.770751953125
522;401.4026794433594
523;401.03509521484375
524;400.6681213378906
525;400.30133056640625
526;399.93524169921875
527;399.5695495605469
528;399.2039489746094
529;398.8390808105469
530;398.474365234375
531;398.1100769042969
532;397.7461853027344
533;397.38275146484375
534;397.01959228515625
535;396.6571960449219
536;396.295166015625
537;395.93328857421875
538;395.5718078613281
539;395.2107238769531
540;394.85003662109375
541;394.48974609375
542;394.1298828125
543;393.77032470703125
544;393.41143798828125
545;393.052734375
546;392.6946105957031
547;392.3369140625
548;391.9795837402344
549;391.6227111816406
550;391.2658386230469
551;390.9093933105469
552;390.55364990234375
553;390.1979675292969
554;389.8426818847656
555;389.4880065917969
556;389.13372802734375
557;388.7795715332031
558;388.4258117675781
559;388.07244873046875
560;387.71966552734375
561;387.36724853515625
562;387.0152282714844
563;386.6636047363281
564;386.31207275390625
565;385.96112060546875
566;385.6103820800781
567;385.25994873046875
568;384.91015625
569;384.56060791015625
570;384.2115783691406
571;383.8628234863281
572;383.51446533203125
573;383.16644287109375
574;382.818603515625
575;382.4710388183594
576;382.12408447265625
577;381.7775573730469
578;381.4311218261719
579;381.085205078125
580;380.739501953125
581;380.39410400390625
582;380.0492858886719
583;379.7046203613281
584;379.3605041503906
585;379.0167541503906
586;378.67333984375
587;378.33026123046875
588;377.9875183105469
589;377.64495849609375
590;377.3029479980469
591;376.9610900878906
592;376.6197204589844
593;376.278564453125
594;375.9377746582031
595;375.5972595214844
596;375.2571105957031
597;374.91729736328125
598;374.5778503417969
599;374.2389221191406
600;373.9001159667969
601;373.5618591308594
602;373.2239685058594
603;372.88641357421875
604;372.5489807128906
605;372.21185302734375
606;371.8752746582031
607;371.5388488769531
608;371.2027282714844
609;370.8671875
610;370.53173828125
611;370.1968078613281
612;369.86224365234375
613;369.52801513671875
614;369.1940612792969
615;368.8601989746094
616;368.52679443359375
617;368.1936340332031
618;367.8610534667969
619;367.5285339355469
620;367.19635009765625
621;366.864501953125
622;366.5329284667969
623;366.2017517089844
624;365.87109375
625;365.5404968261719
626;365.2102966308594
627;364.88037109375
628;364.55078125
629;364.22149658203125
630;363.89251708984375
631;363.5640563964844
632;363.23577880859375
633;362.9077453613281
634;362.5802307128906
635;362.2527770996094
636;361.92578125
637;361.59918212890625
638;361.2729187011719
639;360.9469909667969
640;360.621337890625
641;360.2960510253906
642;359.9707946777344
643;359.6460876464844
644;359.3215026855469
645;358.9974060058594
646;358.6734924316406
647;358.3498229980469
648;358.0265197753906
649;357.70361328125
650;357.3810729980469
651;357.058837890625
652;356.7369689941406
653;356.4150695800781
654;356.09375
655;355.772705078125
656;355.4519958496094
657;355.1315612792969
658;354.8114318847656
659;354.4916076660156
660;354.1720275878906
661;353.8526916503906
662;353.5335388183594
663;353.21490478515625
664;352.8963928222656
665;352.5783386230469
666;352.2604064941406
667;351.94281005859375
668;351.6254577636719
669;351.30841064453125
670;350.9918518066406
671;350.6754455566406
672;350.3592834472656
673;350.0434265136719
674;349.72802734375
675;349.4128112792969
676;349.0978088378906
677;348.7831115722656
678;348.4688415527344
679;348.15472412109375
680;347.8409118652344
681;347.52740478515625
682;347.2141418457031
683;346.9013366699219
684;346.5888671875
685;346.27642822265625
686;345.96435546875
687;345.6525573730469
688;345.3410339355469
689;345.0299377441406
690;344.7190246582031
691;344.4084777832031
692;344.0981140136719
693;343.78814697265625
694;343.4783020019531
695;343.16876220703125
696;342.8595275878906
697;342.5505676269531
698;342.24200439453125
699;341.9337463378906
700;341.6255798339844
701;341.31787109375
702;341.0104675292969
703;340.7033386230469
704;340.3964538574219
705;340.0898742675781
706;339.7835388183594
707;339.47747802734375
708;339.1717224121094
709;338.8660583496094
710;338.5607604980469
711;338.2556457519531
712;337.9509582519531
713;337.64654541015625
714;337.34228515625
715;337.0382995605469
716;336.7347106933594
717;336.4313049316406
718;336.1280822753906
719;335.8253479003906
720;335.5227355957031
721;335.2204895019531
722;334.91839599609375
723;334.6165466308594
724;334.3151550292969
725;334.0140075683594
726;333.7130432128906
727;333.4122619628906
728;333.11175537109375
729;332.8116760253906
730;332.51171875
731;332.2120666503906
732;331.91278076171875
733;331.61376953125
734;331.31500244140625
735;331.01654052734375
736;330.71832275390625
737;330.42022705078125
738;330.12237548828125
739;329.82501220703125
740;329.5277404785156
741;329.23065185546875
742;328.9338684082031
743;328.63739013671875
744;328.3410949707031
745;328.04522705078125
746;327.74951171875
747;327.45416259765625
748;327.15911865234375
749;326.8642883300781
750;326.5697326660156
751;326.2752990722656
752;325.9811096191406
753;325.68731689453125
754;325.393798828125
755;325.10052490234375
756;324.80755615234375
757;324.5148010253906
758;324.2223205566406
759;323.9300231933594
760;323.6380310058594
761;323.34619140625
762;323.0545959472656
763;322.7632141113281
764;322.4721374511719
765;322.1814270019531
766;321.89080810546875
767;321.6004333496094
768;321.31036376953125
769;321.02069091796875
770;320.7311096191406
771;320.44189453125
772;320.1529846191406
773;319.8641052246094
774;319.5755310058594
775;319.2872009277344
776;318.9991149902344
777;318.7112731933594
778;318.4236755371094
779;318.13653564453125
780;317.8495788574219
781;317.5627746582031
782;317.2761535644531
783;316.98980712890625
784;316.7037658691406
785;316.41790771484375
786;316.13232421875
787;315.84710693359375
788;315.5619812011719
789;315.2771301269531
790;314.9925231933594
791;314.70819091796875
792;314.4240417480469
793;314.1402893066406
794;313.8567810058594
795;313.57342529296875
796;313.2902526855469
797;313.0073547363281
798;312.724853515625
799;312.4424133300781
800;312.1602478027344
801;311.87835693359375
802;311.5967712402344
803;311.3154602050781
804;311.0343933105469
805;310.7535095214844
806;310.4728088378906
807;310.19232177734375
808;309.9120788574219
809;309.632080078125
810;309.35235595703125
811;309.07281494140625
812;308.79364013671875
813;308.5146179199219
814;308.2358703613281
815;307.9573669433594
816;307.67901611328125
817;307.40093994140625
818;307.1231994628906
819;306.845703125
820;306.56829833984375
821;306.2911682128906
822;306.0142517089844
823;305.737548828125
824;305.4611511230469
825;305.18505859375
826;304.9092102050781
827;304.6334533691406
828;304.35797119140625
829;304.08270263671875
830;303.8076477050781
831;303.53289794921875
832;303.2583312988281
833;302.9839782714844
834;302.70989990234375
835;302.4360046386719
836;302.1623840332031
837;301.8889465332031
838;301.6158142089844
839;301.3429870605469
840;301.0702819824219
841;300.7978210449219
842;300.5255432128906
843;300.253662109375
844;299.98187255859375
845;299.7103576660156
846;299.4391174316406
847;299.1681213378906
848;298.8972473144531
849;298.6266174316406
850;298.3561706542969
851;298.08612060546875
852;297.816162109375
853;297.5464172363281
854;297.2770690917969
855;297.00787353515625
856;296.7389221191406
857;296.47021484375
858;296.2016906738281
859;295.9333801269531
860;295.6653137207031
861;295.3974304199219
862;295.12969970703125
863;294.8622741699219
864;294.5950622558594
865;294.328125
866;294.0613098144531
867;293.7948913574219
868;293.5285339355469
869;293.2624206542969
870;292.99658203125
871;292.7310485839844
872;292.465576171875
873;292.2004699707031
874;291.9355773925781
875;291.6708068847656
876;291.40631103515625
877;291.14208984375
878;290.8780822753906
879;290.6142272949219
880;290.3506774902344
881;290.08734130859375
882;289.8241882324219
883;289.56121826171875
884;289.29852294921875
885;289.0359802246094
886;288.7737731933594
887;288.5116271972656
888;288.24981689453125
889;287.9881286621094
890;287.7266540527344
891;287.4654846191406
892;287.20452880859375
893;286.94378662109375
894;286.6831970214844
895;286.42279052734375
896;286.1627502441406
897;285.9028625488281
898;285.6430969238281
899;285.3836975097656
900;285.1243896484375
901;284.8653869628906
902;284.60662841796875
903;284.3480529785156
904;284.08966064453125
905;283.8315734863281
906;283.57366943359375
907;283.31591796875
908;283.058349609375
909;282.8009948730469
910;282.5438537597656
911;282.2868957519531
912;282.0302429199219
913;281.7738037109375
914;281.5175476074219
915;281.2614440917969
916;281.0055847167969
917;280.7499694824219
918;280.49456787109375
919;280.23944091796875
920;279.984375
921;279.7295837402344
922;279.4750671386719
923;279.220703125
924;278.9665222167969
925;278.7125549316406
926;278.4588928222656
927;278.20538330078125
928;277.95208740234375
929;277.69903564453125
930;277.4461975097656
931;277.1934814453125
932;276.9410095214844
933;276.68878173828125
934;276.43682861328125
935;276.1850280761719
936;275.9334411621094
937;275.68206787109375
938;275.4309387207031
939;275.17999267578125
940;274.92919921875
941;274.6786804199219
942;274.42828369140625
943;274.17816162109375
944;273.92822265625
945;273.6784362792969
946;273.4288635253906
947;273.1795349121094
948;272.93048095703125
949;272.68157958984375
950;272.4328918457031
951;272.1844482421875
952;271.9360656738281
953;271.6880187988281
954;271.4401550292969
955;271.1923828125
956;270.9449768066406
957;270.6976318359375
958;270.4505920410156
959;270.2037658691406
960;269.9571228027344
961;269.710693359375
962;269.4644470214844
963;269.2183532714844
964;268.9725646972656
965;268.7269287109375
966;268.48150634765625
967;268.23626708984375
968;267.9912414550781
969;267.7464294433594
970;267.5018005371094
971;267.2574157714844
972;267.0132141113281
973;266.7691955566406
974;266.525390625
975;266.2817077636719
976;266.0382995605469
977;265.7950134277344
978;265.5520324707031
979;265.3092346191406
980;265.066650390625
981;264.8242492675781
982;264.58203125
983;264.3399353027344
984;264.09808349609375
985;263.85638427734375
986;263.61492919921875
987;263.37371826171875
988;263.13262939453125
989;262.8918151855469
990;262.651123046875
991;262.4106140136719
992;262.1704406738281
993;261.9303894042969
994;261.69049072265625
995;261.45086669921875
996;261.2113952636719
997;260.9720458984375
998;260.7330627441406
999;260.494140625
1000;260.25543212890625
1001;260.01690673828125
1002;259.77862548828125
1003;259.54052734375
1004;259.3025817871094
1005;259.0649108886719
1006;258.8274230957031
1007;258.59014892578125
1008;258.3529968261719
1009;258.11602783203125
1010;257.8793029785156
1011;257.6427307128906
1012;257.4063720703125
1013;257.17022705078125
1014;256.9342956542969
1015;256.698486328125
1016;256.46295166015625
1017;256.2276306152344
1018;255.992431640625
1019;255.7574920654297
1020;255.522705078125
1021;255.28819274902344
1022;255.05380249023438
1023;254.8196563720703
1024;254.58566284179688
1025;254.351806640625
1026;254.11813354492188
1027;253.88465881347656
1028;253.65138244628906
1029;253.4183807373047
1030;253.1854705810547
1031;252.95277404785156
1032;252.72024536132812
1033;252.48800659179688
1034;252.25588989257812
1035;252.02394104003906
1036;251.79220581054688
1037;251.56069946289062
1038;251.32931518554688
1039;251.0982208251953
1040;250.86721801757812
1041;250.6364288330078
1042;250.40579223632812
1043;250.17538452148438
1044;249.94522094726562
1045;249.7152557373047
1046;249.48538208007812
1047;249.25575256347656
1048;249.02622985839844
1049;248.79702758789062
1050;248.56797790527344
1051;248.33908081054688
1052;248.1103515625
1053;247.88182067871094
1054;247.6534423828125
1055;247.42529296875
1056;247.1973419189453
1057;246.96951293945312
1058;246.74191284179688
1059;246.51451110839844
1060;246.287353515625
1061;246.06040954589844
1062;245.83351135253906
1063;245.60691833496094
1064;245.3804473876953
1065;245.15415954589844
1066;244.9280548095703
1067;244.70217895507812
1068;244.47642517089844
1069;244.2509307861328
1070;244.02560424804688
1071;243.8004913330078
1072;243.57546997070312
1073;243.35069274902344
1074;243.12612915039062
1075;242.9016876220703
1076;242.677490234375
1077;242.45338439941406
1078;242.22950744628906
1079;242.005859375
1080;241.7823944091797
1081;241.55911254882812
1082;241.3360137939453
1083;241.1130828857422
1084;240.89035034179688
1085;240.66773986816406
1086;240.4453125
1087;240.22311401367188
1088;240.00108337402344
1089;239.7792510986328
1090;239.55751037597656
1091;239.33607482910156
1092;239.1148223876953
1093;238.89366149902344
1094;238.67271423339844
1095;238.45191955566406
1096;238.23129272460938
1097;238.01087951660156
1098;237.79067993164062
1099;237.57069396972656
1100;237.35086059570312
1101;237.13121032714844
1102;236.91175842285156
1103;236.6924591064453
1104;236.473388671875
1105;236.25442504882812
1106;236.03567504882812
1107;235.81704711914062
1108;235.59860229492188
1109;235.3804473876953
1110;235.16238403320312
1111;234.94447326660156
1112;234.72677612304688
1113;234.5092315673828
1114;234.29188537597656
1115;234.07470703125
1116;233.85777282714844
1117;233.64097595214844
1118;233.42431640625
1119;233.20790100097656
1120;232.9916534423828
1121;232.77560424804688
1122;232.55970764160156
1123;232.343994140625
1124;232.12840270996094
1125;231.91297912597656
1126;231.69775390625
1127;231.48275756835938
1128;231.26792907714844
1129;231.05319213867188
1130;230.83872985839844
1131;230.62437438964844
1132;230.4102325439453
1133;230.19625854492188
1134;229.98245239257812
1135;229.76882934570312
1136;229.55538940429688
1137;229.34207153320312
1138;229.12899780273438
1139;228.916015625
1140;228.7032470703125
1141;228.49069213867188
1142;228.27822875976562
1143;228.0660400390625
1144;227.85397338867188
1145;227.64207458496094
1146;227.4303436279297
1147;227.2188262939453
1148;227.00746154785156
1149;226.79627990722656
1150;226.58523559570312
1151;226.3744659423828
1152;226.163818359375
1153;225.953369140625
1154;225.74302673339844
1155;225.5328826904297
1156;225.3228759765625
1157;225.1130828857422
1158;224.90345764160156
1159;224.69398498535156
1160;224.4847412109375
1161;224.27561950683594
1162;224.066650390625
1163;223.85787963867188
1164;223.6493377685547
1165;223.44094848632812
1166;223.23269653320312
1167;223.0246124267578
1168;222.81668090820312
1169;222.6089630126953
1170;222.40133666992188
1171;222.19393920898438
1172;221.98672485351562
1173;221.77967834472656
1174;221.5728302001953
1175;221.36611938476562
1176;221.15963745117188
1177;220.9532470703125
1178;220.74708557128906
1179;220.54104614257812
1180;220.33518981933594
1181;220.12954711914062
1182;219.92404174804688
1183;219.71873474121094
1184;219.5135498046875
1185;219.3085174560547
1186;219.1036834716797
1187;218.89903259277344
1188;218.69454956054688
1189;218.490234375
1190;218.28602600097656
1191;218.08203125
1192;217.87820434570312
1193;217.674560546875
1194;217.47105407714844
1195;217.26773071289062
1196;217.0645751953125
1197;216.86158752441406
1198;216.6587677001953
1199;216.45608520507812
1200;216.2535858154297
1201;216.05126953125
1202;215.84912109375
1203;215.6471405029297
1204;215.4453125
1205;215.24368286132812
1206;215.0421905517578
1207;214.84091186523438
1208;214.63975524902344
1209;214.43875122070312
1210;214.23793029785156
1211;214.03726196289062
1212;213.83677673339844
1213;213.63644409179688
1214;213.436279296875
1215;213.23631286621094
1216;213.03651428222656
1217;212.8368377685547
1218;212.6373748779297
1219;212.43809509277344
1220;212.2389373779297
1221;212.04000854492188
1222;211.8411865234375
1223;211.64254760742188
1224;211.44407653808594
1225;211.24571228027344
1226;211.04759216308594
1227;210.8495635986328
1228;210.65174865722656
1229;210.45407104492188
1230;210.2565460205078
1231;210.05917358398438
1232;209.86203002929688
1233;209.66502380371094
1234;209.4682159423828
1235;209.271484375
1236;209.07493591308594
1237;208.87855529785156
1238;208.682373046875
1239;208.48629760742188
1240;208.29042053222656
1241;208.09469604492188
1242;207.8991241455078
1243;207.70372009277344
1244;207.5084686279297
1245;207.31338500976562
1246;207.1184539794922
1247;206.9237060546875
1248;206.7291259765625
1249;206.53469848632812
1250;206.34042358398438
1251;206.1463165283203
1252;205.95236206054688
1253;205.7586212158203
1254;205.56503295898438
1255;205.37155151367188
1256;205.17825317382812
1257;204.98509216308594
1258;204.79209899902344
1259;204.59927368164062
1260;204.4066619873047
1261;204.2141571044922
1262;204.02183532714844
1263;203.82968139648438
1264;203.63766479492188
1265;203.44580078125
1266;203.2540740966797
1267;203.0625762939453
1268;202.87123107910156
1269;202.6800537109375
1270;202.48899841308594
1271;202.29811096191406
1272;202.1073760986328
1273;201.9168243408203
1274;201.7263946533203
1275;201.5361328125
1276;201.34603881835938
1277;201.1560821533203
1278;200.96633911132812
1279;200.77671813964844
1280;200.5872344970703
1281;200.39791870117188
1282;200.2087860107422
1283;200.019775390625
1284;199.83096313476562
1285;199.6422576904297
1286;199.45375061035156
1287;199.26539611816406
1288;199.07716369628906
1289;198.88912963867188
1290;198.7012481689453
1291;198.5135498046875
1292;198.3259735107422
1293;198.13856506347656
1294;197.9513397216797
1295;197.7642364501953
1296;197.57725524902344
1297;197.39051818847656
1298;197.20387268066406
1299;197.0174102783203
1300;196.83108520507812
1301;196.64491271972656
1302;196.45889282226562
1303;196.2730712890625
1304;196.08737182617188
1305;195.90188598632812
1306;195.71646118164062
1307;195.53123474121094
1308;195.34616088867188
1309;195.1612091064453
1310;194.97640991210938
1311;194.7918243408203
1312;194.6073455810547
1313;194.42300415039062
1314;194.23890686035156
1315;194.0548858642578
1316;193.8710479736328
1317;193.68734741210938
1318;193.5037841796875
1319;193.32041931152344
1320;193.13717651367188
1321;192.95411682128906
1322;192.77120971679688
1323;192.5884552001953
1324;192.4058380126953
1325;192.22337341308594
1326;192.0410919189453
1327;191.85891723632812
1328;191.67691040039062
1329;191.4950714111328
1330;191.3134002685547
1331;191.13192749023438
1332;190.9504852294922
1333;190.769287109375
1334;190.58816528320312
1335;190.40731811523438
1336;190.2265625
1337;190.04591369628906
1338;189.86546325683594
1339;189.68516540527344
1340;189.50498962402344
1341;189.3249969482422
1342;189.14512634277344
1343;188.96542358398438
1344;188.78585815429688
1345;188.60647583007812
1346;188.42723083496094
1347;188.2481231689453
1348;188.06919860839844
1349;187.890380859375
1350;187.71177673339844
1351;187.5332794189453
1352;187.35496520996094
1353;187.1767578125
1354;186.99874877929688
1355;186.82080078125
1356;186.64306640625
1357;186.46546936035156
1358;186.28799438476562
1359;186.11068725585938
1360;185.9335174560547
1361;185.7565460205078
1362;185.57969665527344
1363;185.4029998779297
1364;185.22645568847656
1365;185.050048828125
1366;184.87376403808594
1367;184.6976776123047
1368;184.52171325683594
1369;184.345947265625
1370;184.17027282714844
1371;183.99476623535156
1372;183.8194122314453
1373;183.64419555664062
1374;183.4691925048828
1375;183.2942657470703
1376;183.11949157714844
1377;182.94493103027344
1378;182.77047729492188
1379;182.59617614746094
1380;182.4219970703125
1381;182.2479705810547
1382;182.07408142089844
1383;181.90036010742188
1384;181.72677612304688
1385;181.55331420898438
1386;181.38002014160156
1387;181.2069091796875
1388;181.03392028808594
1389;180.86105346679688
1390;180.68838500976562
1391;180.5157928466797
1392;180.34336853027344
1393;180.17112731933594
1394;179.99900817871094
1395;179.82704162597656
1396;179.65525817871094
1397;179.4835662841797
1398;179.31204223632812
1399;179.14065551757812
1400;178.9694366455078
1401;178.79830932617188
1402;178.6273956298828
1403;178.4566192626953
1404;178.28591918945312
1405;178.1154327392578
1406;177.94505310058594
1407;177.77487182617188
1408;177.60484313964844
1409;177.43490600585938
1410;177.26510620117188
1411;177.095458984375
1412;176.92599487304688
1413;176.75662231445312
1414;176.58743286132812
1415;176.4183807373047
1416;176.2494659423828
1417;176.08067321777344
1418;175.9120635986328
1419;175.7436065673828
1420;175.57522583007812
1421;175.4070587158203
1422;175.239013671875
1423;175.0711212158203
1424;174.9033660888672
1425;174.73574829101562
1426;174.56825256347656
1427;174.40098571777344
1428;174.23377990722656
1429;174.0667266845703
1430;173.8998260498047
1431;173.7330780029297
1432;173.5664825439453
1433;173.4000244140625
1434;173.2337188720703
1435;173.0675048828125
1436;172.90147399902344
1437;172.73558044433594
1438;172.56982421875
1439;172.4042205810547
1440;172.23873901367188
1441;172.07339477539062
1442;171.908203125
1443;171.7431640625
1444;171.5782470703125
1445;171.41346740722656
1446;171.24888610839844
1447;171.08436584472656
1448;170.9200439453125
1449;170.75584411621094
1450;170.591796875
1451;170.42787170410156
1452;170.26414489746094
1453;170.10049438476562
1454;169.93701171875
1455;169.77365112304688
1456;169.6104278564453
1457;169.44735717773438
1458;169.284423828125
1459;169.1216583251953
1460;168.95901489257812
1461;168.79652404785156
1462;168.63414001464844
1463;168.47190856933594
1464;168.30984497070312
1465;168.1479034423828
1466;167.98609924316406
1467;167.8244171142578
1468;167.6628875732422
1469;167.5015411376953
1470;167.34030151367188
1471;167.17919921875
1472;167.0182342529297
1473;166.857421875
1474;166.6967010498047
1475;166.53614807128906
1476;166.375732421875
1477;166.2154541015625
1478;166.05531311035156
1479;165.89535522460938
1480;165.73548889160156
1481;165.5757598876953
1482;165.4161834716797
1483;165.25674438476562
1484;165.09744262695312
1485;164.93826293945312
1486;164.7792510986328
1487;164.620361328125
1488;164.4615936279297
1489;164.302978515625
1490;164.1444854736328
1491;163.9861297607422
1492;163.8279571533203
1493;163.6698455810547
1494;163.51194763183594
1495;163.35415649414062
1496;163.19651794433594
1497;163.03903198242188
1498;162.8816680908203
1499;162.7244415283203
1500;162.5673370361328
1501;162.41036987304688
1502;162.25352478027344
1503;162.0968475341797
1504;161.9403076171875
1505;161.7838897705078
1506;161.62759399414062
1507;161.47145080566406
1508;161.3154296875
1509;161.15953063964844
1510;161.0037841796875
1511;160.8482208251953
1512;160.69273376464844
1513;160.5373992919922
1514;160.38223266601562
1515;160.2271728515625
1516;160.072265625
1517;159.91744995117188
1518;159.7628173828125
1519;159.6082763671875
1520;159.4539031982422
1521;159.2996368408203
1522;159.1455535888672
1523;158.99154663085938
1524;158.83773803710938
1525;158.68406677246094
1526;158.5304412841797
1527;158.37698364257812
1528;158.2236785888672
1529;158.07052612304688
1530;157.91748046875
1531;157.7646026611328
1532;157.61181640625
1533;157.4591522216797
1534;157.3066864013672
1535;157.15432739257812
1536;157.00209045410156
1537;156.84999084472656
1538;156.6980438232422
1539;156.5462188720703
1540;156.39453125
1541;156.24295043945312
1542;156.09153747558594
1543;155.9402618408203
1544;155.78909301757812
1545;155.63804626464844
1546;155.4871826171875
1547;155.33644104003906
1548;155.18582153320312
1549;155.03529357910156
1550;154.88491821289062
1551;154.7346649169922
1552;154.58457946777344
1553;154.4346160888672
1554;154.2847900390625
1555;154.1350555419922
1556;153.9855194091797
1557;153.8360595703125
1558;153.68675231933594
1559;153.53758239746094
1560;153.38853454589844
1561;153.23960876464844
1562;153.0908203125
1563;152.94216918945312
1564;152.7936248779297
1565;152.645263671875
1566;152.4970245361328
1567;152.348876953125
1568;152.2008819580078
1569;152.05300903320312
1570;151.90528869628906
1571;151.75767517089844
1572;151.61019897460938
1573;151.4628448486328
1574;151.31564331054688
1575;151.1685333251953
1576;151.02159118652344
1577;150.87478637695312
1578;150.7280731201172
1579;150.58155822753906
1580;150.43508911132812
1581;150.28880310058594
1582;150.1426239013672
1583;149.99658203125
1584;149.85067749023438
1585;149.70486450195312
1586;149.55921936035156
1587;149.41368103027344
1588;149.26832580566406
1589;149.123046875
1590;148.97793579101562
1591;148.83290100097656
1592;148.6880340576172
1593;148.5432891845703
1594;148.398681640625
1595;148.25416564941406
1596;148.1098175048828
1597;147.965576171875
1598;147.8214874267578
1599;147.67750549316406
1600;147.53366088867188
1601;147.389892578125
1602;147.246337890625
1603;147.1028594970703
1604;146.95956420898438
1605;146.8163299560547
1606;146.6732635498047
1607;146.5303192138672
1608;146.38748168945312
1609;146.2447967529297
1610;146.10220336914062
1611;145.9597930908203
1612;145.81747436523438
1613;145.67527770996094
1614;145.5332794189453
1615;145.39132690429688
1616;145.24949645996094
1617;145.10784912109375
1618;144.96629333496094
1619;144.8249053955078
1620;144.68360900878906
1621;144.5424041748047
1622;144.40139770507812
1623;144.26046752929688
1624;144.1196746826172
1625;143.97903442382812
1626;143.8384552001953
1627;143.69802856445312
1628;143.5577392578125
1629;143.41758728027344
1630;143.27757263183594
1631;143.13766479492188
1632;142.99789428710938
1633;142.85824584960938
1634;142.7187042236328
1635;142.57933044433594
1636;142.44003295898438
1637;142.3008575439453
1638;142.16183471679688
1639;142.02293395996094
1640;141.88417053222656
1641;141.7455291748047
1642;141.6070098876953
1643;141.46859741210938
1644;141.33033752441406
1645;141.1921844482422
1646;141.05418395996094
1647;140.91629028320312
1648;140.77847290039062
1649;140.64088439941406
1650;140.50331115722656
1651;140.36598205566406
1652;140.2287139892578
1653;140.09153747558594
1654;139.9545135498047
1655;139.81759643554688
1656;139.6808319091797
1657;139.54415893554688
1658;139.40762329101562
1659;139.271240234375
1660;139.1349639892578
1661;138.99879455566406
1662;138.8627471923828
1663;138.72682189941406
1664;138.59100341796875
1665;138.45538330078125
1666;138.31980895996094
1667;138.18441772460938
1668;138.04908752441406
1669;137.91390991210938
1670;137.7788543701172
1671;137.64390563964844
1672;137.50909423828125
1673;137.3743896484375
1674;137.23983764648438
1675;137.1053924560547
1676;136.97108459472656
1677;136.83689880371094
1678;136.7028350830078
1679;136.56890869140625
1680;136.43505859375
1681;136.30136108398438
1682;136.1677703857422
1683;136.03428649902344
1684;135.9009552001953
1685;135.76779174804688
1686;135.63465881347656
1687;135.5016632080078
1688;135.3688507080078
1689;135.23609924316406
1690;135.10350036621094
1691;134.9710235595703
1692;134.83865356445312
1693;134.70640563964844
1694;134.5742645263672
1695;134.4422607421875
1696;134.31036376953125
1697;134.17861938476562
1698;134.04698181152344
1699;133.9154815673828
1700;133.7840576171875
1701;133.6527862548828
1702;133.52162170410156
1703;133.3905792236328
1704;133.25965881347656
1705;133.12887573242188
1706;132.99819946289062
1707;132.8675994873047
1708;132.73715209960938
1709;132.6068572998047
1710;132.47665405273438
1711;132.34657287597656
1712;132.2166290283203
1713;132.08676147460938
1714;131.95704650878906
1715;131.8274383544922
1716;131.69801330566406
1717;131.56866455078125
1718;131.4394073486328
1719;131.3102569580078
1720;131.18125915527344
1721;131.05235290527344
1722;130.92361450195312
1723;130.7949676513672
1724;130.6664581298828
1725;130.5380401611328
1726;130.40975952148438
1727;130.28158569335938
1728;130.15353393554688
1729;130.0255889892578
1730;129.8977813720703
1731;129.77005004882812
1732;129.6425018310547
1733;129.5150146484375
1734;129.38768005371094
1735;129.26046752929688
1736;129.1333465576172
1737;129.00637817382812
1738;128.87948608398438
1739;128.75271606445312
1740;128.62611389160156
1741;128.4995880126953
1742;128.37318420410156
1743;128.24688720703125
1744;128.12074279785156
1745;127.99468994140625
1746;127.8687744140625
1747;127.74297332763672
1748;127.61725616455078
1749;127.4916763305664
1750;127.3662109375
1751;127.24088287353516
1752;127.1156234741211
1753;126.99053192138672
1754;126.86556243896484
1755;126.74065399169922
1756;126.61589813232422
1757;126.49126434326172
1758;126.36670684814453
1759;126.24230194091797
1760;126.11798095703125
1761;125.99382019042969
1762;125.86974334716797
1763;125.7458267211914
1764;125.62195587158203
1765;125.49823760986328
1766;125.37467193603516
1767;125.25113677978516
1768;125.12779235839844
1769;125.00453186035156
1770;124.88140869140625
1771;124.75838470458984
1772;124.6354751586914
1773;124.5126953125
1774;124.38999938964844
1775;124.2674560546875
1776;124.14501953125
1777;124.02265930175781
1778;123.90044403076172
1779;123.77832794189453
1780;123.65632629394531
1781;123.53449249267578
1782;123.41270446777344
1783;123.29105377197266
1784;123.1695556640625
1785;123.048095703125
1786;122.92681884765625
1787;122.8056411743164
1788;122.6845474243164
1789;122.56354522705078
1790;122.44273376464844
1791;122.32202911376953
1792;122.20140075683594
1793;122.08087921142578
1794;121.9604721069336
1795;121.8402099609375
1796;121.72005462646484
1797;121.5999755859375
1798;121.48006439208984
1799;121.36024475097656
1800;121.24054718017578
1801;121.1209487915039
1802;121.00144958496094
1803;120.88206481933594
1804;120.76283264160156
1805;120.64368438720703
1806;120.52465057373047
1807;120.40571594238281
1808;120.28691864013672
1809;120.16822052001953
1810;120.04966735839844
1811;119.9311752319336
1812;119.81281280517578
1813;119.69454193115234
1814;119.57643127441406
1815;119.45843505859375
1816;119.34049987792969
1817;119.22272491455078
1818;119.10505676269531
1819;118.98749542236328
1820;118.87001037597656
1821;118.75267028808594
1822;118.63541412353516
1823;118.51832580566406
1824;118.40131378173828
1825;118.28440856933594
1826;118.16764068603516
1827;118.05094146728516
1828;117.93437957763672
1829;117.81793975830078
1830;117.70155334472656
1831;117.58533477783203
1832;117.46920013427734
1833;117.35318756103516
1834;117.23731994628906
1835;117.12152862548828
1836;117.0058364868164
1837;116.89027404785156
1838;116.77479553222656
1839;116.65946197509766
1840;116.54424285888672
1841;116.42911529541016
1842;116.3141098022461
1843;116.19921875
1844;116.08441925048828
1845;115.96971130371094
1846;115.85514831542969
1847;115.74066925048828
1848;115.6263427734375
1849;115.5120620727539
1850;115.3979263305664
1851;115.28392028808594
1852;115.17000579833984
1853;115.05619812011719
1854;114.94252014160156
1855;114.82893371582031
1856;114.71541595458984
1857;114.6020736694336
1858;114.48881530761719
1859;114.37567901611328
1860;114.26263427734375
1861;114.14970397949219
1862;114.03688049316406
1863;113.92414093017578
1864;113.81153869628906
1865;113.69905090332031
1866;113.58668518066406
1867;113.4743881225586
1868;113.36219024658203
1869;113.2501449584961
1870;113.13818359375
1871;113.02632904052734
1872;112.91460418701172
1873;112.8030014038086
1874;112.69147491455078
1875;112.58006286621094
1876;112.46876525878906
1877;112.35759735107422
1878;112.24647521972656
1879;112.135498046875
1880;112.02461242675781
1881;111.91385650634766
1882;111.80321502685547
1883;111.6926498413086
1884;111.58220672607422
1885;111.47186279296875
1886;111.36162567138672
1887;111.25150299072266
1888;111.1414794921875
1889;111.03157806396484
1890;110.92179870605469
1891;110.81208038330078
1892;110.7025146484375
1893;110.593017578125
1894;110.48365783691406
1895;110.3743896484375
1896;110.26522064208984
1897;110.15614318847656
1898;110.04718780517578
1899;109.93836975097656
1900;109.82960510253906
1901;109.72100067138672
1902;109.61248779296875
1903;109.50404357910156
1904;109.3957290649414
1905;109.2874984741211
1906;109.17942810058594
1907;109.07144927978516
1908;108.96355438232422
1909;108.8557357788086
1910;108.74808502197266
1911;108.6405029296875
1912;108.53304290771484
1913;108.42569732666016
1914;108.3184585571289
1915;108.21128845214844
1916;108.10424041748047
1917;107.99730682373047
1918;107.89045715332031
1919;107.78374481201172
1920;107.67711639404297
1921;107.57061004638672
1922;107.46417999267578
1923;107.35787200927734
1924;107.25169372558594
1925;107.14557647705078
1926;107.03958892822266
1927;106.9336929321289
1928;106.82788848876953
1929;106.72223663330078
1930;106.61663055419922
1931;106.51114654541016
1932;106.40577697753906
1933;106.30052185058594
1934;106.19536590576172
1935;106.09031677246094
1936;105.98533630371094
1937;105.8804931640625
1938;105.7757339477539
1939;105.67107391357422
1940;105.56657409667969
1941;105.46212005615234
1942;105.35779571533203
1943;105.2535629272461
1944;105.14945220947266
1945;105.0454330444336
1946;104.94151306152344
1947;104.83769989013672
1948;104.73395538330078
1949;104.63035583496094
1950;104.52685546875
1951;104.42344665527344
1952;104.32017517089844
1953;104.21697998046875
1954;104.11384582519531
1955;104.01087951660156
1956;103.90797424316406
1957;103.80521392822266
1958;103.70249938964844
1959;103.5999526977539
1960;103.4974365234375
1961;103.39505767822266
1962;103.29278564453125
1963;103.19062805175781
1964;103.0885238647461
1965;102.98655700683594
1966;102.88469696044922
1967;102.7829360961914
1968;102.68125915527344
1969;102.57966613769531
1970;102.47823333740234
1971;102.37686920166016
1972;102.27562713623047
1973;102.1744384765625
1974;102.07340240478516
1975;101.9724349975586
1976;101.87159729003906
1977;101.77083587646484
1978;101.67020416259766
1979;101.56963348388672
1980;101.46916961669922
1981;101.36883544921875
1982;101.26856994628906
1983;101.16844177246094
1984;101.06836700439453
1985;100.96844482421875
1986;100.86859893798828
1987;100.76884460449219
1988;100.669189453125
1989;100.56963348388672
1990;100.47021484375
1991;100.37085723876953
1992;100.2715835571289
1993;100.17247009277344
1994;100.07343292236328
1995;99.97447967529297
1996;99.87562561035156
1997;99.77689361572266
1998;99.67826080322266
1999;99.57972717285156
2000;99.48128509521484
2001;99.3829345703125
2002;99.28470611572266
2003;99.18656158447266
2004;99.08850860595703
2005;98.99056243896484
2006;98.89273834228516
2007;98.79497528076172
2008;98.69733428955078
2009;98.59978485107422
2010;98.50232696533203
2011;98.40496826171875
2012;98.30773162841797
2013;98.2105712890625
2014;98.113525390625
2015;98.0165786743164
2016;97.91973876953125
2017;97.82298278808594
2018;97.72633361816406
2019;97.6297607421875
2020;97.53327941894531
2021;97.43689727783203
2022;97.34064483642578
2023;97.24446105957031
2024;97.14839935302734
2025;97.05242919921875
2026;96.95655822753906
2027;96.86078643798828
2028;96.7651138305664
2029;96.66954040527344
2030;96.57404327392578
2031;96.4786376953125
2032;96.38336944580078
2033;96.28816986083984
2034;96.19309997558594
2035;96.09809112548828
2036;96.003173828125
2037;95.90837097167969
2038;95.81365203857422
2039;95.71903991699219
2040;95.62454986572266
2041;95.53014373779297
2042;95.43580627441406
2043;95.34159851074219
2044;95.24748992919922
2045;95.1534423828125
2046;95.05952453613281
2047;94.96570587158203
2048;94.87196350097656
2049;94.77831268310547
2050;94.68476104736328
2051;94.59135437011719
2052;94.49798583984375
2053;94.40473175048828
2054;94.31157684326172
2055;94.218505859375
2056;94.12554168701172
2057;94.0326919555664
2058;93.93990325927734
2059;93.84722137451172
2060;93.754638671875
2061;93.6621322631836
2062;93.56977081298828
2063;93.47747039794922
2064;93.38529968261719
2065;93.29317474365234
2066;93.20116424560547
2067;93.10923767089844
2068;93.01741790771484
2069;92.92572021484375
2070;92.83409881591797
2071;92.7425537109375
2072;92.65110778808594
2073;92.55977630615234
2074;92.46854400634766
2075;92.37736511230469
2076;92.28630828857422
2077;92.19535827636719
2078;92.10447692871094
2079;92.0136947631836
2080;91.92301940917969
2081;91.83245086669922
2082;91.741943359375
2083;91.65156555175781
2084;91.56124114990234
2085;91.4710464477539
2086;91.38091278076172
2087;91.29090118408203
2088;91.20098114013672
2089;91.11115264892578
2090;91.02140045166016
2091;90.93174743652344
2092;90.84220123291016
2093;90.75273895263672
2094;90.66339111328125
2095;90.57410430908203
2096;90.48493194580078
2097;90.3958511352539
2098;90.30684661865234
2099;90.21794891357422
2100;90.12916564941406
2101;90.04045104980469
2102;89.9518051147461
2103;89.8633041381836
2104;89.77486419677734
2105;89.68653869628906
2106;89.59830474853516
2107;89.51013946533203
2108;89.42207336425781
2109;89.33411407470703
2110;89.24623107910156
2111;89.158447265625
2112;89.07076263427734
2113;88.983154296875
2114;88.89564514160156
2115;88.80826568603516
2116;88.72093963623047
2117;88.63371276855469
2118;88.54657745361328
2119;88.45951843261719
2120;88.37256622314453
2121;88.28569030761719
2122;88.1989517211914
2123;88.11224365234375
2124;88.02567291259766
2125;87.9391860961914
2126;87.8527603149414
2127;87.76646423339844
2128;87.68023681640625
2129;87.5941390991211
2130;87.50809478759766
2131;87.42213439941406
2132;87.3363037109375
2133;87.25053405761719
2134;87.16487121582031
2135;87.07929992675781
2136;86.99378967285156
2137;86.90837860107422
2138;86.82307434082031
2139;86.7378921508789
2140;86.65277099609375
2141;86.56771087646484
2142;86.4828109741211
2143;86.39793395996094
2144;86.31317901611328
2145;86.228515625
2146;86.1439208984375
2147;86.05941009521484
2148;85.97501373291016
2149;85.8907241821289
2150;85.8064956665039
2151;85.72235107421875
2152;85.63834381103516
2153;85.55436706542969
2154;85.47052764892578
2155;85.38676452636719
2156;85.3030776977539
2157;85.21949005126953
2158;85.13597869873047
2159;85.05256652832031
2160;84.96923065185547
2161;84.88602447509766
2162;84.80286407470703
2163;84.71983337402344
2164;84.63683319091797
2165;84.55397033691406
2166;84.47119140625
2167;84.38848876953125
2168;84.3058853149414
2169;84.2233657836914
2170;84.14093780517578
2171;84.05858612060547
2172;83.97633361816406
2173;83.89417266845703
2174;83.8121109008789
2175;83.7301254272461
2176;83.64823150634766
2177;83.56641387939453
2178;83.48469543457031
2179;83.4030532836914
2180;83.32149505615234
2181;83.24005126953125
2182;83.15867614746094
2183;83.07740783691406
2184;82.99620056152344
2185;82.91509246826172
2186;82.8340835571289
2187;82.75315856933594
2188;82.67230224609375
2189;82.5915756225586
2190;82.51090240478516
2191;82.4302978515625
2192;82.3498306274414
2193;82.2694320678711
2194;82.18910217285156
2195;82.10887145996094
2196;82.02873992919922
2197;81.94868469238281
2198;81.86871337890625
2199;81.78886413574219
2200;81.70905303955078
2201;81.62934875488281
2202;81.54973602294922
2203;81.47019958496094
2204;81.39076232910156
2205;81.31139373779297
2206;81.23210906982422
2207;81.15293884277344
2208;81.07386016845703
2209;80.9948501586914
2210;80.91590881347656
2211;80.83708953857422
2212;80.75831604003906
2213;80.67967224121094
2214;80.60108947753906
2215;80.52262115478516
2216;80.44420623779297
2217;80.3658676147461
2218;80.2876205444336
2219;80.20948028564453
2220;80.13143157958984
2221;80.05342864990234
2222;79.9755630493164
2223;79.89775848388672
2224;79.82000732421875
2225;79.74237823486328
2226;79.66484069824219
2227;79.58740234375
2228;79.51002502441406
2229;79.43272399902344
2230;79.35553741455078
2231;79.27840423583984
2232;79.20137023925781
2233;79.12442779541016
2234;79.04755401611328
2235;78.97075653076172
2236;78.89408874511719
2237;78.81745147705078
2238;78.74092864990234
2239;78.66446685791016
2240;78.58812713623047
2241;78.5118408203125
2242;78.4356689453125
2243;78.35955810546875
2244;78.28355407714844
2245;78.20762634277344
2246;78.13175201416016
2247;78.05599212646484
2248;77.98027801513672
2249;77.90470886230469
2250;77.82917022705078
2251;77.75374603271484
2252;77.67840576171875
2253;77.60311126708984
2254;77.52796173095703
2255;77.4528579711914
2256;77.37786865234375
2257;77.30293273925781
2258;77.22808837890625
2259;77.15333557128906
2260;77.07865142822266
2261;77.00406646728516
2262;76.92955780029297
2263;76.8551025390625
2264;76.78076171875
2265;76.70650482177734
2266;76.63233947753906
2267;76.5582504272461
2268;76.48423767089844
2269;76.41031646728516
2270;76.33644104003906
2271;76.2626953125
2272;76.18901824951172
2273;76.11542510986328
2274;76.04190826416016
2275;75.96846771240234
2276;75.89512634277344
2277;75.82186126708984
2278;75.7486801147461
2279;75.6755599975586
2280;75.60255432128906
2281;75.52962493896484
2282;75.45677947998047
2283;75.38397979736328
2284;75.3113021850586
2285;75.23869323730469
2286;75.16615295410156
2287;75.09369659423828
2288;75.02135467529297
2289;74.94905853271484
2290;74.87687683105469
2291;74.80474853515625
2292;74.73271179199219
2293;74.66075897216797
2294;74.5888671875
2295;74.51707458496094
2296;74.44536590576172
2297;74.37376403808594
2298;74.30219268798828
2299;74.23075103759766
2300;74.15936279296875
2301;74.08805847167969
2302;74.0168228149414
2303;73.94567108154297
2304;73.8746337890625
2305;73.80364227294922
2306;73.73273468017578
2307;73.66191101074219
2308;73.59117126464844
2309;73.52051544189453
2310;73.44994354248047
2311;73.3794174194336
2312;73.30900573730469
2313;73.23868560791016
2314;73.1684341430664
2315;73.0982437133789
2316;73.02813720703125
2317;72.95812225341797
2318;72.88816833496094
2319;72.81831359863281
2320;72.74855041503906
2321;72.6788558959961
2322;72.60923767089844
2323;72.53971099853516
2324;72.47024536132812
2325;72.40087890625
2326;72.33155822753906
2327;72.2623519897461
2328;72.19319152832031
2329;72.12413787841797
2330;72.05516052246094
2331;71.98625183105469
2332;71.91742706298828
2333;71.84867858886719
2334;71.7800064086914
2335;71.71144104003906
2336;71.64292907714844
2337;71.57451629638672
2338;71.50617980957031
2339;71.43790435791016
2340;71.36971282958984
2341;71.30159759521484
2342;71.23359680175781
2343;71.16563415527344
2344;71.0977554321289
2345;71.02997589111328
2346;70.96223449707031
2347;70.89459991455078
2348;70.8270492553711
2349;70.7595443725586
2350;70.69214630126953
2351;70.62481689453125
2352;70.55757141113281
2353;70.49039459228516
2354;70.42328643798828
2355;70.3563003540039
2356;70.28935241699219
2357;70.22247314453125
2358;70.15570068359375
2359;70.08899688720703
2360;70.02236938476562
2361;69.95581817626953
2362;69.88933563232422
2363;69.82295989990234
2364;69.75663757324219
2365;69.6904067993164
2366;69.62425231933594
2367;69.55815124511719
2368;69.49214935302734
2369;69.42620086669922
2370;69.36035919189453
2371;69.29457092285156
2372;69.22888946533203
2373;69.16326904296875
2374;69.09771728515625
2375;69.03223419189453
2376;68.96685028076172
2377;68.90154266357422
2378;68.83631134033203
2379;68.7711410522461
2380;68.7060546875
2381;68.64103698730469
2382;68.57612609863281
2383;68.51124572753906
2384;68.44647979736328
2385;68.38175964355469
2386;68.317138671875
2387;68.25260162353516
2388;68.18812561035156
2389;68.12371063232422
2390;68.05938720703125
2391;67.9951400756836
2392;67.93096160888672
2393;67.86688232421875
2394;67.80284118652344
2395;67.73890686035156
2396;67.67504119873047
2397;67.61124420166016
2398;67.54752349853516
2399;67.48387908935547
2400;67.42033386230469
2401;67.3568344116211
2402;67.29340362548828
2403;67.2300796508789
2404;67.16682434082031
2405;67.1036376953125
2406;67.04052734375
2407;66.97747802734375
2408;66.91451263427734
2409;66.85161590576172
2410;66.78878021240234
2411;66.7260513305664
2412;66.66337585449219
2413;66.60079193115234
2414;66.53828430175781
2415;66.47583770751953
2416;66.4134750366211
2417;66.35118103027344
2418;66.2889404296875
2419;66.22679138183594
2420;66.16472625732422
2421;66.10270690917969
2422;66.04078674316406
2423;65.97895050048828
2424;65.91717529296875
2425;65.85548400878906
2426;65.7938461303711
2427;65.73229217529297
2428;65.6707992553711
2429;65.6093978881836
2430;65.5480728149414
2431;65.48682403564453
2432;65.42562103271484
2433;65.36450958251953
2434;65.30348205566406
2435;65.24250793457031
2436;65.18160247802734
2437;65.12079620361328
2438;65.06004333496094
2439;64.9993667602539
2440;64.93876647949219
2441;64.87824249267578
2442;64.8177719116211
2443;64.75740051269531
2444;64.69709014892578
2445;64.6368637084961
2446;64.57670593261719
2447;64.51660919189453
2448;64.45658111572266
2449;64.39664459228516
2450;64.3367691040039
2451;64.2769546508789
2452;64.21723937988281
2453;64.15757751464844
2454;64.09799194335938
2455;64.03846740722656
2456;63.97904586791992
2457;63.91968536376953
2458;63.860389709472656
2459;63.8011474609375
2460;63.74201202392578
2461;63.68293380737305
2462;63.623939514160156
2463;63.56499099731445
2464;63.50613784790039
2465;63.44732666015625
2466;63.388614654541016
2467;63.329959869384766
2468;63.27138900756836
2469;63.21285629272461
2470;63.1544303894043
2471;63.096073150634766
2472;63.03778076171875
2473;62.97956085205078
2474;62.921424865722656
2475;62.863338470458984
2476;62.805320739746094
2477;62.74740219116211
2478;62.68954086303711
2479;62.63173294067383
2480;62.57400894165039
2481;62.51636505126953
2482;62.458778381347656
2483;62.40127182006836
2484;62.34383773803711
2485;62.28644943237305
2486;62.22916793823242
2487;62.17193603515625
2488;62.11476516723633
2489;62.05767822265625
2490;62.00065994262695
2491;61.9437141418457
2492;61.8868293762207
2493;61.83002853393555
2494;61.77328109741211
2495;61.71662521362305
2496;61.6600227355957
2497;61.60348892211914
2498;61.54703140258789
2499;61.49065399169922
2500;61.4343376159668
2501;61.37807846069336
2502;61.3218994140625
2503;61.26579666137695
2504;61.20974349975586
2505;61.15377426147461
2506;61.097877502441406
2507;61.04205322265625
2508;60.98627471923828
2509;60.93059158325195
2510;60.874977111816406
2511;60.819419860839844
2512;60.76392364501953
2513;60.708518981933594
2514;60.653160095214844
2515;60.597877502441406
2516;60.54268264770508
2517;60.48752975463867
2518;60.43244552612305
2519;60.37744903564453
2520;60.32250213623047
2521;60.26762008666992
2522;60.21283721923828
2523;60.15811538696289
2524;60.10344696044922
2525;60.048858642578125
2526;59.99434280395508
2527;59.93988037109375
2528;59.88549041748047
2529;59.8311653137207
2530;59.77692413330078
2531;59.722721099853516
2532;59.66861343383789
2533;59.614540100097656
2534;59.56057357788086
2535;59.506656646728516
2536;59.45281982421875
2537;59.39904022216797
2538;59.3453254699707
2539;59.29169464111328
2540;59.238121032714844
2541;59.184627532958984
2542;59.13117218017578
2543;59.077796936035156
2544;59.024505615234375
2545;58.971275329589844
2546;58.9181022644043
2547;58.86499786376953
2548;58.811973571777344
2549;58.759002685546875
2550;58.70609664916992
2551;58.65325927734375
2552;58.600502014160156
2553;58.54779052734375
2554;58.49515914916992
2555;58.44257354736328
2556;58.390071868896484
2557;58.3376350402832
2558;58.2852783203125
2559;58.232967376708984
2560;58.18073272705078
2561;58.12857437133789
2562;58.07646942138672
2563;58.02443313598633
2564;57.97246551513672
2565;57.92056655883789
2566;57.86872482299805
2567;57.81694793701172
2568;57.76525115966797
2569;57.713600158691406
2570;57.66202926635742
2571;57.61052703857422
2572;57.559078216552734
2573;57.5076904296875
2574;57.45638656616211
2575;57.40515899658203
2576;57.35398483276367
2577;57.30284881591797
2578;57.25181198120117
2579;57.200836181640625
2580;57.149925231933594
2581;57.09907913208008
2582;57.048274993896484
2583;56.99755859375
2584;56.94689178466797
2585;56.896297454833984
2586;56.84578323364258
2587;56.795318603515625
2588;56.74490737915039
2589;56.6945686340332
2590;56.64431381225586
2591;56.59409713745117
2592;56.543949127197266
2593;56.493892669677734
2594;56.44388198852539
2595;56.39392852783203
2596;56.344051361083984
2597;56.29425048828125
2598;56.2444953918457
2599;56.194820404052734
2600;56.145198822021484
2601;56.09563064575195
2602;56.046142578125
2603;55.99669647216797
2604;55.94735336303711
2605;55.89805221557617
2606;55.84879684448242
2607;55.79964065551758
2608;55.750526428222656
2609;55.70146942138672
2610;55.65249252319336
2611;55.60358428955078
2612;55.554725646972656
2613;55.505916595458984
2614;55.45720291137695
2615;55.40854263305664
2616;55.35993194580078
2617;55.311397552490234
2618;55.26293182373047
2619;55.21451187133789
2620;55.166168212890625
2621;55.11787796020508
2622;55.06966018676758
2623;55.0214958190918
2624;54.973384857177734
2625;54.92536163330078
2626;54.87739181518555
2627;54.82947540283203
2628;54.781639099121094
2629;54.73385238647461
2630;54.68613815307617
2631;54.63847732543945
2632;54.59088134765625
2633;54.54336166381836
2634;54.495880126953125
2635;54.44847869873047
2636;54.4011344909668
2637;54.35385513305664
2638;54.306636810302734
2639;54.25947189331055
2640;54.21239471435547
2641;54.16533660888672
2642;54.11837387084961
2643;54.07147216796875
2644;54.024620056152344
2645;53.97783279418945
2646;53.93109893798828
2647;53.884437561035156
2648;53.83784103393555
2649;53.791290283203125
2650;53.74481964111328
2651;53.69840621948242
2652;53.652042388916016
2653;53.60574722290039
2654;53.559532165527344
2655;53.513362884521484
2656;53.46725845336914
2657;53.42120361328125
2658;53.3752326965332
2659;53.32931137084961
2660;53.283451080322266
2661;53.23765182495117
2662;53.19191360473633
2663;53.14622116088867
2664;53.10060501098633
2665;53.05506134033203
2666;53.00956344604492
2667;52.964141845703125
2668;52.91875457763672
2669;52.873443603515625
2670;52.82819366455078
2671;52.78299331665039
2672;52.737857818603516
2673;52.69278335571289
2674;52.64774703979492
2675;52.602806091308594
2676;52.557899475097656
2677;52.5130729675293
2678;52.46830368041992
2679;52.42357635498047
2680;52.378929138183594
2681;52.33434295654297
2682;52.28980255126953
2683;52.245323181152344
2684;52.20093536376953
2685;52.15656280517578
2686;52.11227798461914
2687;52.06805419921875
2688;52.02386474609375
2689;51.97974395751953
2690;51.935707092285156
2691;51.89171600341797
2692;51.84777069091797
2693;51.80389404296875
2694;51.76008987426758
2695;51.71632766723633
2696;51.67262649536133
2697;51.628971099853516
2698;51.58538818359375
2699;51.5418701171875
2700;51.49840545654297
2701;51.45499038696289
2702;51.411643981933594
2703;51.36835479736328
2704;51.32513427734375
2705;51.2819709777832
2706;51.23885726928711
2707;51.195804595947266
2708;51.15281295776367
2709;51.10988235473633
2710;51.06698989868164
2711;51.02417755126953
2712;50.981422424316406
2713;50.93872833251953
2714;50.89609909057617
2715;50.853515625
2716;50.810997009277344
2717;50.76852035522461
2718;50.72611618041992
2719;50.683780670166016
2720;50.641483306884766
2721;50.599246978759766
2722;50.55706787109375
2723;50.514949798583984
2724;50.4728889465332
2725;50.43088150024414
2726;50.38892364501953
2727;50.3470458984375
2728;50.305198669433594
2729;50.263427734375
2730;50.221702575683594
2731;50.18004608154297
2732;50.13843536376953
2733;50.09688949584961
2734;50.055397033691406
2735;50.013954162597656
2736;49.97257614135742
2737;49.93125534057617
2738;49.889984130859375
2739;49.848793029785156
2740;49.80765914916992
2741;49.766563415527344
2742;49.72553253173828
2743;49.68456268310547
2744;49.64364242553711
2745;49.60276412963867
2746;49.56197738647461
2747;49.521217346191406
2748;49.48052978515625
2749;49.439903259277344
2750;49.3993034362793
2751;49.35879135131836
2752;49.318321228027344
2753;49.27791213989258
2754;49.23754119873047
2755;49.19725799560547
2756;49.15699005126953
2757;49.1168212890625
2758;49.076698303222656
2759;49.03662109375
2760;48.996604919433594
2761;48.95663070678711
2762;48.91671371459961
2763;48.87685775756836
2764;48.837074279785156
2765;48.797332763671875
2766;48.75763702392578
2767;48.718017578125
2768;48.67844009399414
2769;48.63892364501953
2770;48.59946060180664
2771;48.56005859375
2772;48.52069854736328
2773;48.48140335083008
2774;48.442169189453125
2775;48.402992248535156
2776;48.36386489868164
2777;48.32478713989258
2778;48.28575897216797
2779;48.246803283691406
2780;48.2078857421875
2781;48.16903305053711
2782;48.13024139404297
2783;48.09149932861328
2784;48.052799224853516
2785;48.01416015625
2786;47.97556686401367
2787;47.937049865722656
2788;47.89856719970703
2789;47.86013412475586
2790;47.82177734375
2791;47.7834587097168
2792;47.745201110839844
2793;47.707000732421875
2794;47.66885757446289
2795;47.63076400756836
2796;47.59272003173828
2797;47.55472946166992
2798;47.51679229736328
2799;47.478919982910156
2800;47.44109344482422
2801;47.40332794189453
2802;47.365604400634766
2803;47.32794952392578
2804;47.29032516479492
2805;47.25277328491211
2806;47.21527099609375
2807;47.17782974243164
2808;47.14043426513672
2809;47.10308837890625
2810;47.06580352783203
2811;47.0285758972168
2812;46.99139404296875
2813;46.95426559448242
2814;46.91718673706055
2815;46.88016891479492
2816;46.84320831298828
2817;46.80628204345703
2818;46.76942825317383
2819;46.73261260986328
2820;46.69585037231445
2821;46.659149169921875
2822;46.62249755859375
2823;46.58589553833008
2824;46.549339294433594
2825;46.51284408569336
2826;46.47639083862305
2827;46.44001007080078
2828;46.40367889404297
2829;46.36739730834961
2830;46.33115768432617
2831;46.29498291015625
2832;46.25885009765625
2833;46.2227668762207
2834;46.18674850463867
2835;46.150787353515625
2836;46.1148567199707
2837;46.07899856567383
2838;46.04317855834961
2839;46.00741195678711
2840;45.97170639038086
2841;45.93605422973633
2842;45.90044403076172
2843;45.864898681640625
2844;45.82938766479492
2845;45.793941497802734
2846;45.758541107177734
2847;45.72319793701172
2848;45.68789291381836
2849;45.65264892578125
2850;45.61745834350586
2851;45.58230972290039
2852;45.5472297668457
2853;45.512184143066406
2854;45.47719955444336
2855;45.4422607421875
2856;45.40737533569336
2857;45.37253189086914
2858;45.3377571105957
2859;45.30302047729492
2860;45.268333435058594
2861;45.23369216918945
2862;45.19912338256836
2863;45.164588928222656
2864;45.130104064941406
2865;45.09567642211914
2866;45.06128692626953
2867;45.02695083618164
2868;44.992679595947266
2869;44.958438873291016
2870;44.92426300048828
2871;44.89015579223633
2872;44.8560791015625
2873;44.82202911376953
2874;44.78806686401367
2875;44.75412368774414
2876;44.72024154663086
2877;44.68642807006836
2878;44.65263748168945
2879;44.61890411376953
2880;44.585235595703125
2881;44.55160903930664
2882;44.51801681518555
2883;44.484493255615234
2884;44.45101547241211
2885;44.4175910949707
2886;44.38420867919922
2887;44.35087203979492
2888;44.317588806152344
2889;44.28436279296875
2890;44.25117874145508
2891;44.21804428100586
2892;44.18497085571289
2893;44.151939392089844
2894;44.11894607543945
2895;44.086021423339844
2896;44.05311965942383
2897;44.02029037475586
2898;43.98749923706055
2899;43.95476531982422
2900;43.922080993652344
2901;43.88943862915039
2902;43.85684585571289
2903;43.824310302734375
2904;43.79181671142578
2905;43.759376525878906
2906;43.72697830200195
2907;43.694637298583984
2908;43.66233444213867
2909;43.63007354736328
2910;43.59787368774414
2911;43.565704345703125
2912;43.533607482910156
2913;43.501548767089844
2914;43.46952438354492
2915;43.43756103515625
2916;43.40564727783203
2917;43.373779296875
2918;43.341957092285156
2919;43.3101921081543
2920;43.27846145629883
2921;43.246795654296875
2922;43.21516799926758
2923;43.18358612060547
2924;43.152042388916016
2925;43.12055587768555
2926;43.089141845703125
2927;43.05774688720703
2928;43.026390075683594
2929;42.995113372802734
2930;42.9638557434082
2931;42.93265914916992
2932;42.90151596069336
2933;42.87041473388672
2934;42.839351654052734
2935;42.80834197998047
2936;42.77739334106445
2937;42.7464714050293
2938;42.71561050415039
2939;42.684776306152344
2940;42.65400314331055
2941;42.62328338623047
2942;42.59259796142578
2943;42.56196212768555
2944;42.53137969970703
2945;42.50084686279297
2946;42.47035598754883
2947;42.43990707397461
2948;42.40949249267578
2949;42.37914276123047
2950;42.34883499145508
2951;42.31858444213867
2952;42.28838348388672
2953;42.258209228515625
2954;42.22808074951172
2955;42.19800567626953
2956;42.1679801940918
2957;42.13799285888672
2958;42.10806655883789
2959;42.07816696166992
2960;42.04832077026367
2961;42.01852798461914
2962;41.988773345947266
2963;41.95905685424805
2964;41.92940902709961
2965;41.89979934692383
2966;41.87023162841797
2967;41.840702056884766
2968;41.811222076416016
2969;41.78178024291992
2970;41.75239944458008
2971;41.72304916381836
2972;41.69375228881836
2973;41.66450119018555
2974;41.63528823852539
2975;41.60613250732422
2976;41.57701873779297
2977;41.547943115234375
2978;41.518924713134766
2979;41.48994827270508
2980;41.46100616455078
2981;41.43212127685547
2982;41.40327835083008
2983;41.37448501586914
2984;41.34571075439453
2985;41.317012786865234
2986;41.28834915161133
2987;41.25971221923828
2988;41.23114013671875
2989;41.202606201171875
2990;41.17410659790039
2991;41.145660400390625
2992;41.11726760864258
2993;41.08891677856445
2994;41.06060791015625
2995;41.03234100341797
2996;41.00412368774414
2997;40.9759407043457
2998;40.94781494140625
2999;40.919734954833984
