;loss
0;860.1649169921875
1;859.5848999023438
2;858.8051147460938
3;858.0953979492188
4;857.3148803710938
5;856.5340576171875
6;855.7525024414062
7;854.970703125
8;854.1881103515625
9;853.4116821289062
10;852.6312866210938
11;851.8460083007812
12;851.0587158203125
13;850.27099609375
14;849.4777221679688
15;848.681640625
16;847.8828125
17;847.0811157226562
18;846.2766723632812
19;845.4773559570312
20;844.6753540039062
21;843.8707885742188
22;843.0634765625
23;842.2529296875
24;841.4393310546875
25;840.6127319335938
26;839.7823486328125
27;838.9481201171875
28;838.1094970703125
29;837.2766723632812
30;836.4393310546875
31;835.5875244140625
32;834.7308959960938
33;833.8788452148438
34;833.0215454101562
35;832.1587524414062
36;831.2901611328125
37;830.41552734375
38;829.5347290039062
39;828.6475830078125
40;827.7540283203125
41;826.853515625
42;825.9461059570312
43;825.0220336914062
44;824.0999145507812
45;823.1702270507812
46;822.2325439453125
47;821.2869873046875
48;820.3331298828125
49;819.3709716796875
50;818.3998413085938
51;817.419921875
52;816.4219970703125
53;815.4242553710938
54;814.408203125
55;813.3911743164062
56;812.35546875
57;811.3095703125
58;810.2616577148438
59;809.2030029296875
60;808.1250610351562
61;807.0359497070312
62;805.935546875
63;804.8232421875
64;803.6987915039062
65;802.5621337890625
66;801.4127807617188
67;800.2587280273438
68;799.0914306640625
69;797.9022827148438
70;796.7072143554688
71;795.4979858398438
72;794.2661743164062
73;793.01953125
74;791.7574462890625
75;790.47998046875
76;789.1946411132812
77;787.8849487304688
78;786.56689453125
79;785.2239990234375
80;783.8638916015625
81;782.4947509765625
82;781.1011962890625
83;779.6978759765625
84;778.2682495117188
85;776.8281860351562
86;775.3612670898438
87;773.8831176757812
88;772.3775024414062
89;770.8522338867188
90;769.3153076171875
91;767.7584228515625
92;766.1813354492188
93;764.5835571289062
94;762.9653930664062
95;761.3211669921875
96;759.6644897460938
97;757.9788818359375
98;756.2802734375
99;754.5523681640625
100;752.80322265625
101;751.033203125
102;749.2503051757812
103;747.4382934570312
104;745.6055908203125
105;743.7607421875
106;741.8872680664062
107;739.9933471679688
108;738.087890625
109;736.1544799804688
110;734.2134399414062
111;732.2474975585938
112;730.2628784179688
113;728.2604370117188
114;726.2488403320312
115;724.2115478515625
116;722.1577758789062
117;720.0891723632812
118;718.013671875
119;715.9237060546875
120;713.8294067382812
121;711.7335815429688
122;709.6323852539062
123;707.5234985351562
124;705.4048461914062
125;703.2689819335938
126;701.1245727539062
127;698.9723510742188
128;696.8209838867188
129;694.65673828125
130;692.4951782226562
131;690.3311767578125
132;688.1590576171875
133;685.99267578125
134;683.8275756835938
135;681.6651611328125
136;679.5059814453125
137;677.3514404296875
138;675.20068359375
139;673.05859375
140;670.9246215820312
141;668.791015625
142;666.6685180664062
143;664.5604248046875
144;662.4723510742188
145;660.3960571289062
146;658.33544921875
147;656.2837524414062
148;654.2542114257812
149;652.2421264648438
150;650.2448120117188
151;648.2660522460938
152;646.3124389648438
153;644.3740234375
154;642.46484375
155;640.5720825195312
156;638.7069702148438
157;636.8610229492188
158;635.0425415039062
159;633.2411499023438
160;631.4697265625
161;629.7207641601562
162;627.9967041015625
163;626.29833984375
164;624.6275634765625
165;622.9835815429688
166;621.3719482421875
167;619.7871704101562
168;618.2308959960938
169;616.7049560546875
170;615.2048950195312
171;613.7269897460938
172;612.2769165039062
173;610.8466796875
174;609.4412841796875
175;608.0587768554688
176;606.7011108398438
177;605.3672485351562
178;604.0571899414062
179;602.76904296875
180;601.5018920898438
181;600.2568359375
182;599.0353393554688
183;597.83203125
184;596.65087890625
185;595.4874267578125
186;594.3448486328125
187;593.2240600585938
188;592.1198120117188
189;591.03125
190;589.9602661132812
191;588.90625
192;587.8690185546875
193;586.84765625
194;585.84375
195;584.8516235351562
196;583.8727416992188
197;582.9074096679688
198;581.955078125
199;581.0150756835938
200;580.0872802734375
201;579.1722412109375
202;578.2677001953125
203;577.3717651367188
204;576.4874267578125
205;575.6118774414062
206;574.7447509765625
207;573.8845825195312
208;573.0335083007812
209;572.1919555664062
210;571.3582763671875
211;570.5316772460938
212;569.7101440429688
213;568.8956298828125
214;568.0878295898438
215;567.2861938476562
216;566.4928588867188
217;565.7058715820312
218;564.9252319335938
219;564.1505737304688
220;563.3800048828125
221;562.6160278320312
222;561.856689453125
223;561.1006469726562
224;560.3491821289062
225;559.6039428710938
226;558.8617553710938
227;558.1236572265625
228;557.3910522460938
229;556.6611328125
230;555.9366455078125
231;555.2147827148438
232;554.4977416992188
233;553.7855224609375
234;553.0784301757812
235;552.3751831054688
236;551.6754150390625
237;550.9791259765625
238;550.2861938476562
239;549.5953369140625
240;548.9090576171875
241;548.2247924804688
242;547.5437622070312
243;546.8670043945312
244;546.1932983398438
245;545.5215454101562
246;544.854248046875
247;544.1897583007812
248;543.5272827148438
249;542.86767578125
250;542.2109985351562
251;541.5584106445312
252;540.9075927734375
253;540.2596435546875
254;539.6148681640625
255;538.9741821289062
256;538.3351440429688
257;537.6989135742188
258;537.0668334960938
259;536.4379272460938
260;535.8106689453125
261;535.1859741210938
262;534.5648803710938
263;533.9451904296875
264;533.3291015625
265;532.7154541015625
266;532.1033325195312
267;531.4945678710938
268;530.8871459960938
269;530.2822265625
270;529.6795043945312
271;529.0790405273438
272;528.48095703125
273;527.8861083984375
274;527.2927856445312
275;526.70263671875
276;526.1138305664062
277;525.5272827148438
278;524.9429931640625
279;524.3618774414062
280;523.7821044921875
281;523.2044067382812
282;522.6289672851562
283;522.0565795898438
284;521.4854125976562
285;520.9171752929688
286;520.3501586914062
287;519.78515625
288;519.2221069335938
289;518.6610107421875
290;518.1018676757812
291;517.544677734375
292;516.9894409179688
293;516.4360961914062
294;515.8846435546875
295;515.3358764648438
296;514.7882080078125
297;514.2431640625
298;513.6997680664062
299;513.157470703125
300;512.6176147460938
301;512.0795288085938
302;511.54248046875
303;511.00714111328125
304;510.4735412597656
305;509.9416198730469
306;509.4112854003906
307;508.8825988769531
308;508.35552978515625
309;507.8299255371094
310;507.3059387207031
311;506.78350830078125
312;506.26324462890625
313;505.7445373535156
314;505.22650146484375
315;504.7099609375
316;504.19573974609375
317;503.6830139160156
318;503.1709899902344
319;502.6604309082031
320;502.15130615234375
321;501.64361572265625
322;501.1372375488281
323;500.63226318359375
324;500.1291809082031
325;499.6268005371094
326;499.1263732910156
327;498.62725830078125
328;498.1294250488281
329;497.6321716308594
330;497.13677978515625
331;496.6419372558594
332;496.1482849121094
333;495.6559143066406
334;495.1647033691406
335;494.6746520996094
336;494.1857604980469
337;493.6985778808594
338;493.2125549316406
339;492.7276306152344
340;492.2438049316406
341;491.7604675292969
342;491.27880859375
343;490.7975769042969
344;490.3175354003906
345;489.83843994140625
346;489.3610534667969
347;488.8840026855469
348;488.4081115722656
349;487.9337463378906
350;487.46038818359375
351;486.9873962402344
352;486.51556396484375
353;486.0450744628906
354;485.57568359375
355;485.10723876953125
356;484.63922119140625
357;484.17266845703125
358;483.7065124511719
359;483.24176025390625
360;482.7775573730469
361;482.3142395019531
362;481.8518371582031
363;481.3908996582031
364;480.9302673339844
365;480.47052001953125
366;480.01220703125
367;479.55474853515625
368;479.09759521484375
369;478.6418762207031
370;478.1869812011719
371;477.73291015625
372;477.2791442871094
373;476.82623291015625
374;476.37408447265625
375;475.9228515625
376;475.4723815917969
377;475.0232238769531
378;474.5747985839844
379;474.1272277832031
380;473.6803894042969
381;473.234375
382;472.78912353515625
383;472.3445739746094
384;471.9008483886719
385;471.45794677734375
386;471.015625
387;470.5736999511719
388;470.1324768066406
389;469.6925354003906
390;469.2531433105469
391;468.8141784667969
392;468.3758850097656
393;467.9382629394531
394;467.50140380859375
395;467.0652160644531
396;466.6302185058594
397;466.1959533691406
398;465.7618713378906
399;465.32891845703125
400;464.896240234375
401;464.4642639160156
402;464.0333557128906
403;463.6026916503906
404;463.1731262207031
405;462.7438049316406
406;462.3151550292969
407;461.8875427246094
408;461.460205078125
409;461.0335388183594
410;460.60748291015625
411;460.18206787109375
412;459.75775146484375
413;459.333984375
414;458.9109191894531
415;458.48797607421875
416;458.0657043457031
417;457.64410400390625
418;457.22344970703125
419;456.803466796875
420;456.3840026855469
421;455.96484375
422;455.5461730957031
423;455.1282043457031
424;454.7107849121094
425;454.2939758300781
426;453.8781433105469
427;453.46246337890625
428;453.0474548339844
429;452.63336181640625
430;452.2198791503906
431;451.8069152832031
432;451.3941345214844
433;450.9819641113281
434;450.57037353515625
435;450.15966796875
436;449.7495422363281
437;449.3396301269531
438;448.93023681640625
439;448.52142333984375
440;448.11309814453125
441;447.70538330078125
442;447.298583984375
443;446.8922424316406
444;446.48651123046875
445;446.0812683105469
446;445.67657470703125
447;445.27203369140625
448;444.8680725097656
449;444.464599609375
450;444.06201171875
451;443.659912109375
452;443.2580261230469
453;442.8566589355469
454;442.4562072753906
455;442.0558166503906
456;441.6559143066406
457;441.25689697265625
458;440.8583984375
459;440.4604187011719
460;440.06256103515625
461;439.66522216796875
462;439.2683410644531
463;438.87200927734375
464;438.47613525390625
465;438.08111572265625
466;437.6862487792969
467;437.29217529296875
468;436.8985900878906
469;436.5051574707031
470;436.1122131347656
471;435.7196960449219
472;435.3277282714844
473;434.9361877441406
474;434.5451965332031
475;434.1545715332031
476;433.76446533203125
477;433.3747863769531
478;432.98590087890625
479;432.5975036621094
480;432.2095642089844
481;431.8221130371094
482;431.4347839355469
483;431.0478820800781
484;430.6617736816406
485;430.2757873535156
486;429.89019775390625
487;429.5051574707031
488;429.120849609375
489;428.73663330078125
490;428.3532409667969
491;427.96990966796875
492;427.5870666503906
493;427.20458984375
494;426.82269287109375
495;426.4411315917969
496;426.05999755859375
497;425.6796569824219
498;425.29937744140625
499;424.91961669921875
500;424.5402526855469
501;424.16156005859375
502;423.7829895019531
503;423.4049377441406
504;423.0275573730469
505;422.65032958984375
506;422.2737731933594
507;421.89764404296875
508;421.5219421386719
509;421.1463928222656
510;420.7712097167969
511;420.3967590332031
512;420.022705078125
513;419.64910888671875
514;419.27587890625
515;418.9030456542969
516;418.53033447265625
517;418.1584167480469
518;417.7867736816406
519;417.4153137207031
520;417.04449462890625
521;416.67413330078125
522;416.30419921875
523;415.9342956542969
524;415.5651550292969
525;415.1962890625
526;414.82769775390625
527;414.45965576171875
528;414.0920104980469
529;413.72454833984375
530;413.357421875
531;412.99072265625
532;412.62445068359375
533;412.2585144042969
534;411.8929138183594
535;411.5280456542969
536;411.1632385253906
537;410.7991027832031
538;410.435302734375
539;410.0716857910156
540;409.70843505859375
541;409.3455505371094
542;408.9830017089844
543;408.62115478515625
544;408.2594299316406
545;407.8982849121094
546;407.53729248046875
547;407.1769104003906
548;406.816650390625
549;406.45672607421875
550;406.0975036621094
551;405.73870849609375
552;405.3800354003906
553;405.0217590332031
554;404.6637878417969
555;404.3061828613281
556;403.9489440917969
557;403.5923156738281
558;403.236083984375
559;402.88018798828125
560;402.5246276855469
561;402.1692199707031
562;401.81439208984375
563;401.4599304199219
564;401.10552978515625
565;400.7518005371094
566;400.3981628417969
567;400.044921875
568;399.69195556640625
569;399.3395690917969
570;398.98736572265625
571;398.6357116699219
572;398.2843933105469
573;397.9331970214844
574;397.58258056640625
575;397.23211669921875
576;396.8819274902344
577;396.5323791503906
578;396.1830749511719
579;395.83416748046875
580;395.4855651855469
581;395.1372985839844
582;394.7892761230469
583;394.4416809082031
584;394.09423828125
585;393.7473449707031
586;393.4007873535156
587;393.0543518066406
588;392.708251953125
589;392.3625183105469
590;392.0170593261719
591;391.6721496582031
592;391.3273620605469
593;390.98291015625
594;390.6388244628906
595;390.2952575683594
596;389.9518127441406
597;389.60888671875
598;389.26629638671875
599;388.923828125
600;388.58184814453125
601;388.240234375
602;387.89892578125
603;387.5577697753906
604;387.2171325683594
605;386.8768005371094
606;386.53662109375
607;386.1969299316406
608;385.8575744628906
609;385.518310546875
610;385.17950439453125
611;384.84112548828125
612;384.5030212402344
613;384.1650695800781
614;383.82763671875
615;383.4902648925781
616;383.15325927734375
617;382.81671142578125
618;382.4803161621094
619;382.1442565917969
620;381.8085021972656
621;381.4732360839844
622;381.1380920410156
623;380.80328369140625
624;380.4687194824219
625;380.1344909667969
626;379.8008117675781
627;379.4671936035156
628;379.1341247558594
629;378.8013000488281
630;378.46881103515625
631;378.136474609375
632;377.80462646484375
633;377.4728698730469
634;377.1416015625
635;376.81048583984375
636;376.4798278808594
637;376.1492614746094
638;375.8193054199219
639;375.48956298828125
640;375.15997314453125
641;374.8306579589844
642;374.50189208984375
643;374.1733703613281
644;373.8451843261719
645;373.5170593261719
646;373.189453125
647;372.8619079589844
648;372.53472900390625
649;372.2080078125
650;371.8813781738281
651;371.55523681640625
652;371.22943115234375
653;370.9037170410156
654;370.5784606933594
655;370.25335693359375
656;369.92852783203125
657;369.6040954589844
658;369.2800598144531
659;368.9560852050781
660;368.6324157714844
661;368.3090515136719
662;367.9859313964844
663;367.66314697265625
664;367.340576171875
665;367.01837158203125
666;366.6966247558594
667;366.3751525878906
668;366.053955078125
669;365.73284912109375
670;365.412109375
671;365.0915832519531
672;364.7713317871094
673;364.4513854980469
674;364.13189697265625
675;363.8125
676;363.4934387207031
677;363.1745910644531
678;362.8561096191406
679;362.5378112792969
680;362.22003173828125
681;361.90234375
682;361.5850524902344
683;361.2679138183594
684;360.95111083984375
685;360.6345520019531
686;360.3182067871094
687;360.002197265625
688;359.6864929199219
689;359.37103271484375
690;359.0558166503906
691;358.7409973144531
692;358.4265441894531
693;358.1123352050781
694;357.7981872558594
695;357.484375
696;357.17095947265625
697;356.85784912109375
698;356.54486083984375
699;356.23211669921875
700;355.91961669921875
701;355.607421875
702;355.29547119140625
703;354.9838562011719
704;354.6723937988281
705;354.3614807128906
706;354.05078125
707;353.7403259277344
708;353.43017578125
709;353.1201171875
710;352.81036376953125
711;352.5008239746094
712;352.1916198730469
713;351.88262939453125
714;351.5739440917969
715;351.2655334472656
716;350.95733642578125
717;350.6495666503906
718;350.3419494628906
719;350.03460693359375
720;349.7273864746094
721;349.4205627441406
722;349.11395263671875
723;348.8077697753906
724;348.50189208984375
725;348.1960144042969
726;347.8904724121094
727;347.5852966308594
728;347.2803649902344
729;346.9757995605469
730;346.6712341308594
731;346.3669738769531
732;346.06298828125
733;345.75927734375
734;345.45574951171875
735;345.15252685546875
736;344.84954833984375
737;344.5468444824219
738;344.2443542480469
739;343.9421691894531
740;343.6403503417969
741;343.33868408203125
742;343.0372619628906
743;342.7360534667969
744;342.4352111816406
745;342.1345520019531
746;341.8342590332031
747;341.5341796875
748;341.2342224121094
749;340.9345703125
750;340.6352844238281
751;340.3361511230469
752;340.0373840332031
753;339.7388000488281
754;339.44036865234375
755;339.1423645019531
756;338.84454345703125
757;338.546875
758;338.24957275390625
759;337.95257568359375
760;337.65576171875
761;337.3592224121094
762;337.0628967285156
763;336.766845703125
764;336.4710388183594
765;336.17535400390625
766;335.88006591796875
767;335.5848083496094
768;335.2900390625
769;334.9954528808594
770;334.7009582519531
771;334.4067687988281
772;334.11279296875
773;333.8191833496094
774;333.52581787109375
775;333.23260498046875
776;332.9396057128906
777;332.6468200683594
778;332.3544006347656
779;332.0620422363281
780;331.77001953125
781;331.4782409667969
782;331.1867370605469
783;330.89544677734375
784;330.6044616699219
785;330.31365966796875
786;330.0230407714844
787;329.73284912109375
788;329.44287109375
789;329.1529846191406
790;328.8634948730469
791;328.5741271972656
792;328.2849426269531
793;327.9961853027344
794;327.7076721191406
795;327.4193420410156
796;327.1311340332031
797;326.84332275390625
798;326.55560302734375
799;326.26812744140625
800;325.98101806640625
801;325.6941223144531
802;325.407470703125
803;325.1209411621094
804;324.83465576171875
805;324.5486145019531
806;324.26275634765625
807;323.9772644042969
808;323.69195556640625
809;323.406982421875
810;323.12213134765625
811;322.837646484375
812;322.55322265625
813;322.26904296875
814;321.9851989746094
815;321.70147705078125
816;321.4181213378906
817;321.1348571777344
818;320.8518371582031
819;320.56915283203125
820;320.28662109375
821;320.00439453125
822;319.7223205566406
823;319.4405212402344
824;319.1589050292969
825;318.87744140625
826;318.5963439941406
827;318.31536865234375
828;318.03472900390625
829;317.7542419433594
830;317.47406005859375
831;317.1941223144531
832;316.9143371582031
833;316.634765625
834;316.35540771484375
835;316.07623291015625
836;315.79742431640625
837;315.5187683105469
838;315.24029541015625
839;314.96209716796875
840;314.6841125488281
841;314.40631103515625
842;314.12890625
843;313.8515625
844;313.5745544433594
845;313.29779052734375
846;313.0211486816406
847;312.74468994140625
848;312.468505859375
849;312.192626953125
850;311.9169616699219
851;311.64141845703125
852;311.36614990234375
853;311.0910339355469
854;310.816162109375
855;310.5415344238281
856;310.2671203613281
857;309.992919921875
858;309.7189636230469
859;309.4451599121094
860;309.1717224121094
861;308.8984375
862;308.6253356933594
863;308.3525390625
864;308.0799255371094
865;307.8076477050781
866;307.5354309082031
867;307.2634582519531
868;306.99176025390625
869;306.7203063964844
870;306.4489440917969
871;306.17779541015625
872;305.9069519042969
873;305.6363220214844
874;305.3658752441406
875;305.0955505371094
876;304.82568359375
877;304.55584716796875
878;304.2862243652344
879;304.0168762207031
880;303.747802734375
881;303.4788513183594
882;303.2101745605469
883;302.9418029785156
884;302.6734924316406
885;302.4054870605469
886;302.1377258300781
887;301.87005615234375
888;301.6026916503906
889;301.33544921875
890;301.06854248046875
891;300.80181884765625
892;300.53533935546875
893;300.26898193359375
894;300.0027770996094
895;299.7369689941406
896;299.47119140625
897;299.2057189941406
898;298.94036865234375
899;298.67535400390625
900;298.41058349609375
901;298.14599609375
902;297.8816223144531
903;297.6174011230469
904;297.3533630371094
905;297.089599609375
906;296.8259582519531
907;296.5626525878906
908;296.2994689941406
909;296.0364685058594
910;295.773681640625
911;295.5111389160156
912;295.2487487792969
913;294.9866027832031
914;294.72479248046875
915;294.4630432128906
916;294.2015686035156
917;293.9402770996094
918;293.67919921875
919;293.4183044433594
920;293.15771484375
921;292.8973083496094
922;292.6371154785156
923;292.3770446777344
924;292.1172790527344
925;291.85772705078125
926;291.5983581542969
927;291.3391418457031
928;291.0802307128906
929;290.82135009765625
930;290.5627136230469
931;290.3043518066406
932;290.0461120605469
933;289.7881164550781
934;289.53033447265625
935;289.27276611328125
936;289.015380859375
937;288.7582092285156
938;288.50128173828125
939;288.2445373535156
940;287.9879455566406
941;287.7315979003906
942;287.4754943847656
943;287.2195739746094
944;286.9638366699219
945;286.7082824707031
946;286.45294189453125
947;286.1977844238281
948;285.94287109375
949;285.6882019042969
950;285.4337463378906
951;285.1794738769531
952;284.92535400390625
953;284.6714172363281
954;284.4178161621094
955;284.1642761230469
956;283.91094970703125
957;283.6579284667969
958;283.40509033203125
959;283.1524353027344
960;282.8999328613281
961;282.64764404296875
962;282.3955078125
963;282.14361572265625
964;281.8919982910156
965;281.6405029296875
966;281.38916015625
967;281.1380310058594
968;280.88714599609375
969;280.6365051269531
970;280.38604736328125
971;280.1357727050781
972;279.8857421875
973;279.6358337402344
974;279.3860778808594
975;279.13665771484375
976;278.88739013671875
977;278.6382141113281
978;278.3893127441406
979;278.14056396484375
980;277.89202880859375
981;277.64373779296875
982;277.3955993652344
983;277.14764404296875
984;276.8999328613281
985;276.65240478515625
986;276.405029296875
987;276.1578674316406
988;275.910888671875
989;275.66412353515625
990;275.4175720214844
991;275.1711730957031
992;274.92498779296875
993;274.6790771484375
994;274.43328857421875
995;274.1877136230469
996;273.9423828125
997;273.6971740722656
998;273.4521484375
999;273.2073059082031
