\begin{tikzpicture}
    \begin{axis}[
        legend entries={Good yield, Bad yield},
        legend pos=outer north east,
        xlabel={Weeks number},
        ylabel={Temperature [\SI{}{\degreeCelsius}]},
        xtick=data,
        xticklabel style={rotate=90},
        xticklabels from table={\wfbxticklabels}{0},
    ]
        \addplot[color=pastel-color-3, no marks, smooth] table[col sep=semicolon, x expr=\coordindex, y=air_temperature] {data/plots/winter-field-beans/by-W/mean-fn/resampled-weather-data-year-2008.csv};

        \addplot[color=pastel-color-4, no marks, smooth, dashed] table[col sep=semicolon, x expr=\coordindex, y=air_temperature] {data/plots/winter-field-beans/by-W/mean-fn/resampled-weather-data-year-2014.csv};

        \addplot[color=pastel-color-3, no marks, smooth] table[col sep=semicolon, x expr=\coordindex, y=air_temperature] {data/plots/winter-field-beans/by-W/mean-fn/resampled-weather-data-year-2005.csv};

        \addplot[color=pastel-color-4, no marks, smooth, dashed] table[col sep=semicolon, x expr=\coordindex, y=air_temperature] {data/plots/winter-field-beans/by-W/mean-fn/resampled-weather-data-year-2003.csv};

        \addplot[color=pastel-color-3, no marks, smooth] table[col sep=semicolon, x expr=\coordindex, y=air_temperature] {data/plots/winter-field-beans/by-W/mean-fn/resampled-weather-data-year-2007.csv};

        \addplot[color=pastel-color-4, no marks, smooth, dashed] table[col sep=semicolon, x expr=\coordindex, y=air_temperature] {data/plots/winter-field-beans/by-W/mean-fn/resampled-weather-data-year-2017.csv};
    \end{axis}
\end{tikzpicture}
