\begin{tikzpicture}
    \begin{axis}[
        boxplot={
            draw position={1/4 + floor(\plotnumofactualtype/3) + 1/4 * mod(\plotnumofactualtype, 3)},
            box extend=0.2,
            draw direction=y,
        },
        legend entries={Norma., Stand., Expect.},
        legend pos=outer north east,
        xlabel={Number of neurons},
        ylabel={Predictions},
        xtick={0, ..., 18},
        xticklabels={2, 4, 8, 16, 32, 64},
        x tick label as interval,
    ]
        \addplot[boxplot={average=auto}, fill, color=pastel-color-3, draw=black, area legend] table[y=predictions, col sep=semicolon] {data/plots/winter-field-beans/by-W/mean-fn/predictions-2-neurons-500-epochs-mean-squared-error-loss-function-adam-optimizer-minmax-scaler.csv};

        \addplot[boxplot={average=auto}, fill, color=pastel-color-4, draw=black, area legend] table[y=predictions, col sep=semicolon] {data/plots/winter-field-beans/by-W/mean-fn/predictions-2-neurons-500-epochs-mean-squared-error-loss-function-adam-optimizer-standard-scaler.csv};

        \addplot[boxplot={average=auto}, fill, color=lightgray, draw=black, area legend] table[y=yield, col sep=semicolon] {data/plots/winter-field-beans/crop-seasons.csv};

        \addplot[boxplot={average=auto}, fill, color=pastel-color-3, draw=black, area legend] table[y=predictions, col sep=semicolon] {data/plots/winter-field-beans/by-W/mean-fn/predictions-4-neurons-500-epochs-mean-squared-error-loss-function-adam-optimizer-minmax-scaler.csv};

        \addplot[boxplot={average=auto}, fill, color=pastel-color-4, draw=black, area legend] table[y=predictions, col sep=semicolon] {data/plots/winter-field-beans/by-W/mean-fn/predictions-4-neurons-500-epochs-mean-squared-error-loss-function-adam-optimizer-standard-scaler.csv};

        \addplot[boxplot={average=auto}, fill, color=lightgray, draw=black, area legend] table[y=yield, col sep=semicolon] {data/plots/winter-field-beans/crop-seasons.csv};

        \addplot[boxplot={average=auto}, fill, color=pastel-color-3, draw=black, area legend] table[y=predictions, col sep=semicolon] {data/plots/winter-field-beans/by-W/mean-fn/predictions-8-neurons-500-epochs-mean-squared-error-loss-function-adam-optimizer-minmax-scaler.csv};

        \addplot[boxplot={average=auto}, fill, color=pastel-color-4, draw=black, area legend] table[y=predictions, col sep=semicolon] {data/plots/winter-field-beans/by-W/mean-fn/predictions-8-neurons-500-epochs-mean-squared-error-loss-function-adam-optimizer-standard-scaler.csv};

        \addplot[boxplot={average=auto}, fill, color=lightgray, draw=black, area legend] table[y=yield, col sep=semicolon] {data/plots/winter-field-beans/crop-seasons.csv};

        \addplot[boxplot={average=auto}, fill, color=pastel-color-3, draw=black, area legend] table[y=predictions, col sep=semicolon] {data/plots/winter-field-beans/by-W/mean-fn/predictions-16-neurons-500-epochs-mean-squared-error-loss-function-adam-optimizer-minmax-scaler.csv};

        \addplot[boxplot={average=auto}, fill, color=pastel-color-4, draw=black, area legend] table[y=predictions, col sep=semicolon] {data/plots/winter-field-beans/by-W/mean-fn/predictions-16-neurons-500-epochs-mean-squared-error-loss-function-adam-optimizer-standard-scaler.csv};

        \addplot[boxplot={average=auto}, fill, color=lightgray, draw=black, area legend] table[y=yield, col sep=semicolon] {data/plots/winter-field-beans/crop-seasons.csv};

        \addplot[boxplot={average=auto}, fill, color=pastel-color-3, draw=black, area legend] table[y=predictions, col sep=semicolon] {data/plots/winter-field-beans/by-W/mean-fn/predictions-32-neurons-500-epochs-mean-squared-error-loss-function-adam-optimizer-minmax-scaler.csv};

        \addplot[boxplot={average=auto}, fill, color=pastel-color-4, draw=black, area legend] table[y=predictions, col sep=semicolon] {data/plots/winter-field-beans/by-W/mean-fn/predictions-32-neurons-500-epochs-mean-squared-error-loss-function-adam-optimizer-standard-scaler.csv};

        \addplot[boxplot={average=auto}, fill, color=lightgray, draw=black, area legend] table[y=yield, col sep=semicolon] {data/plots/winter-field-beans/crop-seasons.csv};

        \addplot[boxplot={average=auto}, fill, color=pastel-color-3, draw=black, area legend] table[y=predictions, col sep=semicolon] {data/plots/winter-field-beans/by-W/mean-fn/predictions-64-neurons-500-epochs-mean-squared-error-loss-function-adam-optimizer-minmax-scaler.csv};

        \addplot[boxplot={average=auto}, fill, color=pastel-color-4, draw=black, area legend] table[y=predictions, col sep=semicolon] {data/plots/winter-field-beans/by-W/mean-fn/predictions-64-neurons-500-epochs-mean-squared-error-loss-function-adam-optimizer-standard-scaler.csv};

        \addplot[boxplot={average=auto}, fill, color=lightgray, draw=black, area legend] table[y=yield, col sep=semicolon] {data/plots/winter-field-beans/crop-seasons.csv};
    \end{axis}
\end{tikzpicture}