\begin{tikzpicture}
    \begin{axis}[
        legend entries={Fold 1, Fold 2, Fold 3, Fold 4, Fold 5},
        xlabel={Epochs},
        ylabel={Loss},
        xmin=0,
        xmax=4500,
        ymin=0,
        ymax=1000,
    ]
        \addplot[red, no marks, smooth] table[x index=0, y=loss, col sep=semicolon]{data/training-progress/winter-field-beans/32-neurons-3000-epochs-mean-squared-error-loss-function-adam-optimizer-fold-0-weather-resampled-by-W-mean-fn-standard-scaler.csv};

        \addplot[green, no marks, smooth] table[x index=0, y=loss, col sep=semicolon]{data/training-progress/winter-field-beans/32-neurons-3000-epochs-mean-squared-error-loss-function-adam-optimizer-fold-1-weather-resampled-by-W-mean-fn-standard-scaler.csv};

        \addplot[pink, no marks, smooth] table[x index=0, y=loss, col sep=semicolon]{data/training-progress/winter-field-beans/32-neurons-3000-epochs-mean-squared-error-loss-function-adam-optimizer-fold-2-weather-resampled-by-W-mean-fn-standard-scaler.csv};

        \addplot[lightgray, no marks, smooth] table[x index=0, y=loss, col sep=semicolon]{data/training-progress/winter-field-beans/32-neurons-3000-epochs-mean-squared-error-loss-function-adam-optimizer-fold-3-weather-resampled-by-W-mean-fn-standard-scaler.csv};

        \addplot[violet, no marks, smooth] table[x index=0, y=loss, col sep=semicolon]{data/training-progress/winter-field-beans/32-neurons-3000-epochs-mean-squared-error-loss-function-adam-optimizer-fold-4-weather-resampled-by-W-mean-fn-standard-scaler.csv};
    \end{axis}
\end{tikzpicture}