\begin{tikzpicture}
    \begin{axis}[
        axis equal image,
        scatter,
        colormap/bluered,
        colorbar,
        point meta min=-1,
        point meta max=1,
        grid=minor,
        minor tick num=1,
        tickwidth=0pt,
        y dir=reverse,
        xtick={0, 1, 2, 3},
        xticklabels={Radiation, Temperature, Precipitation, Relative humidity},
        xticklabel style={rotate=90},
        xticklabel pos=right,
        ytick={0, 1, 2, 3},
        yticklabels={Radiation, Temperature, Precipitation, Relative humidity},
        enlargelimits={abs=0.5},
        scatter/@pre marker code/.append code={%
            \pgfplotstransformcoordinatex{sqrt(abs(\pgfplotspointmeta))}%
            \scope[mark size=\pgfplotsunitxlength*\pgfmathresult/2, fill=mapped color]
        },
        scatter/@post marker code/.append code={%
            \endscope%
        }
    ]
        \addplot[
            point meta=explicit,
            only marks,
            mark=square*,
        ] table [
            x expr={int(mod(\coordindex + 0.01, 4))},
            y expr={int((\coordindex + 0.01) / 4))},
            meta=value,
            col sep=semicolon,
        ] {data/plots/winter-wheat/by-W/mean-fn/scattered-weather-data-year-2013.csv};
    \end{axis}
\end{tikzpicture}
