;expectations;predictions
0;20.81;22.120699
1;26.73;22.132225
2;35.66;22.134676000000002
3;31.55;22.035349
4;33.55;22.035265
5;37.15;22.03527
6;28.05;21.96435
7;32.2;21.9622
8;27.6;21.96302
9;33.5;20.9492
10;27.55;20.950119
11;19.3;20.946839999999998
12;29.5;20.946823000000002
13;22.85;20.950073
