;epochs;neurons;scaler;r_value
0;4500;64;standard;0.6
1;4500;64;minmax;0.55
2;4500;32;standard;0.69
3;4500;32;minmax;0.62
4;4500;16;standard;0.6
5;4500;16;minmax;0.72
6;4500;8;standard;0.6
7;4500;8;minmax;-0.1
8;4500;4;standard;0.45
9;4500;4;minmax;-0.35
10;4500;2;standard;0.3
11;4500;2;minmax;0.27
12;3000;64;standard;0.6
13;3000;64;minmax;0.66
14;3000;32;standard;0.55
15;3000;32;minmax;0.65
16;3000;16;standard;0.63
17;3000;16;minmax;-0.05
18;3000;8;standard;0.15
19;3000;8;minmax;-0.4
20;3000;4;standard;0.23
21;3000;4;minmax;0.19
22;3000;2;standard;-0.32
23;3000;2;minmax;0.5
24;2000;64;standard;0.8
25;2000;64;minmax;0.75
26;2000;32;standard;0.64
27;2000;32;minmax;0.35
28;2000;16;standard;0.27
29;2000;16;minmax;-0.41
30;2000;8;standard;-0.2
31;2000;8;minmax;0.04
32;2000;4;standard;0.42
33;2000;4;minmax;-0.14
34;2000;2;standard;0.29
35;2000;2;minmax;-0.26
36;1500;64;standard;0.67
37;1500;64;minmax;0.69
38;1500;32;standard;0.59
39;1500;32;minmax;-0.25
40;1500;16;standard;-0.39
41;1500;16;minmax;-0.06
42;1500;8;standard;0.21
43;1500;8;minmax;-0.15
44;1500;4;standard;-0.33
45;1500;4;minmax;0.51
46;1500;2;standard;0.16
47;1500;2;minmax;-0.39
48;1000;64;standard;0.75
49;1000;64;minmax;-0.05
50;1000;32;standard;0.1
51;1000;32;minmax;-0.2
52;1000;16;standard;0.37
53;1000;16;minmax;0.05
54;1000;8;standard;0.27
55;1000;8;minmax;0.18
56;1000;4;standard;0.11
57;1000;4;minmax;-0.37
58;1000;2;standard;-0.12
59;1000;2;minmax;0.11
60;500;64;standard;-0.08
61;500;64;minmax;-0.14
62;500;32;standard;0.0
63;500;32;minmax;0.34
64;500;16;standard;-0.1
65;500;16;minmax;-0.16
66;500;8;standard;0.21
67;500;8;minmax;0.12
68;500;4;standard;-0.39
69;500;4;minmax;0.07
70;500;2;standard;-0.39
71;500;2;minmax;-0.19
