;expectations;predictions
0;20.81;19.732376000000002
1;26.73;30.438602000000003
2;35.66;32.755486
3;31.55;36.510406
4;33.55;24.745876000000003
5;37.15;27.293089000000002
6;28.05;29.230891999999997
7;32.2;32.803722
8;27.6;27.481327
9;33.5;33.199284000000006
10;27.55;25.980545000000003
11;19.3;19.332325
12;29.5;36.675076000000004
13;22.85;28.000709999999998
