;expectations;predictions
0;20.81;3.0059106
1;26.73;2.9761113999999997
2;35.66;2.9853525000000003
3;31.55;2.546992
4;33.55;2.499298
5;37.15;2.4738226
6;28.05;3.0643563
7;32.2;3.2382164
8;27.6;3.0512035
9;33.5;3.3845935
10;27.55;3.4129744
11;19.3;3.2073278
12;29.5;3.093976
13;22.85;3.0448122000000004
