;expectations;predictions
0;20.81;20.593510000000002
1;26.73;20.620720000000002
2;35.66;20.617887
3;31.55;20.871520999999998
4;33.55;20.867975
5;37.15;20.866718
6;28.05;20.655835999999997
7;32.2;20.655455
8;27.6;20.657401999999998
9;33.5;19.149221
10;27.55;19.14978
11;19.3;19.147026
12;29.5;19.962857999999997
13;22.85;19.960197
