;expectations;predictions
0;20.81;28.321303999999998
1;26.73;28.324579999999997
2;35.66;28.32583
3;31.55;27.773605
4;33.55;27.775764000000002
5;37.15;27.776264
6;28.05;27.657021999999998
7;32.2;27.656738
8;27.6;27.656470000000002
9;33.5;27.67949
10;27.55;27.680218
11;19.3;27.678732
12;29.5;28.250938
13;22.85;28.252026
