;expectations;predictions
0;20.81;24.835703
1;26.73;24.843325
2;35.66;24.84613
3;31.55;25.099447
4;33.55;25.099411
5;37.15;25.099066
6;28.05;24.102439999999998
7;32.2;24.102726
8;27.6;24.101651999999998
9;33.5;24.824351999999998
10;27.55;24.824924
11;19.3;24.82249
12;29.5;25.91777
13;22.85;25.910529999999998
