;radiation;air_temperature;precipitation;humidity
10;-0.062493455088698524;-0.21089564680230377;0.2786964359218205;-0.0249417419685789
11;-0.8330381471197162;-0.6511423293584344;0.7438292194796534;0.3879085650818146
12;-0.07397022725853476;-0.6645644744345803;-0.02619224987786395;-0.4890603577327321
01;-0.037605979527037064;-0.3991502601265161;0.4379515421628607;0.04101547961204215
02;0.32620222214749955;-0.31769856151544834;0.1738996373763182;-0.27541922099689836
03;0.6101817203629603;0.43500837121100966;0.25786383980796845;-0.5672373966517463
04;0.7196842110319583;0.22709600832169136;0.28936014538175325;-0.4740754660596296
05;0.24683274329056537;0.2604182888994226;0.5160223493768212;0.24083547649914577
06;0.4283129260196852;0.3109327157067078;-0.00013232340205732163;-0.13889237090797882
07;0.058064531624531124;0.27871223419899355;0.1764337973199248;-0.7390999839534325
08;-0.7837332229654095;-0.3947497843485256;0.4271947513082181;0.9999999999999998
