;;value
radiation;radiation;1.0
radiation;air_temperature;0.801005542954426
radiation;precipitation;-0.298731202446345
radiation;humidity;-0.7234130014114011
air_temperature;radiation;0.801005542954426
air_temperature;air_temperature;1.0
air_temperature;precipitation;0.04432735114370645
air_temperature;humidity;-0.3195971041400641
precipitation;radiation;-0.298731202446345
precipitation;air_temperature;0.04432735114370645
precipitation;precipitation;1.0
precipitation;humidity;0.7738719757165208
humidity;radiation;-0.7234130014114011
humidity;air_temperature;-0.3195971041400641
humidity;precipitation;0.7738719757165208
humidity;humidity;1.0
