;radiation;air_temperature;humidity
42;93.76190476190476;13.391071428571427;82.09761904761905
43;91.7797619047619;14.160714285714286;80.30714285714286
44;96.69047619047619;7.121428571428572;65.60416666666667
45;66.75595238095238;6.807738095238095;80.60238095238095
46;61.67857142857143;9.054166666666665;84.42380952380952
47;49.666666666666664;8.700595238095238;76.88095238095238
48;45.142857142857146;7.722619047619048;85.32202380952383
49;32.70238095238095;7.300595238095238;83.24404761904762
50;53.023809523809526;1.6363095238095238;84.13452380952381
51;31.916666666666668;1.5011904761904762;69.64047619047618
01;41.458333333333336;5.594047619047619;82.05952380952381
02;56.57738095238095;7.9660714285714285;79.06309523809524
03;39.24404761904762;8.01309523809524;79.90595238095239
04;56.63095238095238;-2.0023809523809524;80.44940476190476
05;79.99404761904762;1.075595238095238;81.85238095238095
06;56.529761904761905;5.4398809523809515;77.89107142857142
07;76.69047619047619;5.3875;77.53928571428571
08;99.06547619047619;6.741666666666666;75.40238095238095
09;82.88095238095238;8.6375;74.01904761904761
10;123.41071428571429;7.3202380952380945;68.67083333333333
11;179.04166666666666;8.314285714285713;66.70833333333333
12;108.2797619047619;2.8416666666666663;70.51726190476191
13;176.60119047619048;6.827976190476191;69.62619047619049
14;186.55357142857142;9.802380952380954;66.70238095238095
15;238.23809523809524;14.87202380952381;57.480357142857144
16;263.8452380952381;15.772023809523809;54.733928571428564
17;238.91666666666666;17.739285714285714;59.68095238095238
18;190.35119047619048;13.449404761904763;75.04702380952381
19;225.1845238095238;16.77857142857143;61.7095238095238
20;196.76785714285714;13.970833333333333;74.03511904761905
21;243.82738095238096;19.05654761904762;70.47797619047618
22;216.8154761904762;12.805357142857142;72.82440476190476
23;275.51785714285717;20.18809523809524;71.39047619047618
24;212.4345238095238;19.178571428571427;72.14226190476191
25;294.2857142857143;20.59702380952381;62.04107142857143
26;202.20238095238096;16.21607142857143;69.32321428571429
27;166.27380952380952;16.479166666666668;75.98392857142856
28;250.6904761904762;17.7202380952381;65.53214285714287
29;234.72619047619048;21.816666666666666;62.83511904761905
30;259.7857142857143;19.8952380952381;65.26607142857144
31;267.51190476190476;18.66547619047619;63.74285714285714
32;173.10119047619048;17.58154761904762;77.19166666666668
