;radiation;air_temperature;humidity
42;71.53571428571429;13.429761904761904;87.60833333333333
43;97.16071428571429;11.40595238095238;75.24702380952381
44;54.80357142857143;9.954166666666666;80.1547619047619
45;57.916666666666664;5.1625000000000005;73.98630952380952
46;30.571428571428573;4.070833333333334;82.89642857142856
47;56.44642857142857;1.3428571428571427;67.38690476190476
48;51.30952380952381;-0.07797619047619049;82.85833333333333
49;31.267857142857142;-1.5035714285714288;93.65416666666667
50;32.517857142857146;2.7517857142857145;91.13333333333333
51;33.75;5.232142857142857;81.1327380952381
01;51.482142857142854;6.372619047619047;80.49583333333332
02;26.958333333333332;3.7238095238095235;88.0047619047619
03;55.44642857142857;3.5845238095238097;79.19761904761906
04;59.523809523809526;1.9851190476190477;81.37857142857142
05;51.49404761904762;4.324404761904762;79.85178571428571
06;58.75;5.193452380952381;79.5702380952381
07;104.66071428571429;5.276190476190475;79.85059523809524
08;100.28571428571429;4.875595238095238;77.57261904761906
09;146.85119047619048;5.871428571428571;72.36190476190475
10;168.10119047619048;8.039880952380953;68.16785714285714
11;165.85119047619048;10.200595238095238;66.30238095238094
12;194.85714285714286;7.261309523809524;65.69047619047619
13;191.45238095238096;12.963095238095239;67.1827380952381
14;236.67857142857142;13.067261904761903;60.19761904761905
15;226.14880952380952;9.124404761904762;58.55119047619048
16;188.08333333333334;12.982142857142858;73.64761904761905
17;175.07142857142858;10.307738095238095;78.6452380952381
18;207.41071428571428;14.258928571428571;65.29166666666667
19;270.80357142857144;11.451190476190478;64.29166666666667
20;253.1904761904762;16.06547619047619;64.75714285714287
21;262.11309523809524;14.47142857142857;68.61845238095236
22;280.4166666666667;17.586309523809526;66.11607142857143
23;315.7261904761905;21.729166666666668;60.06488095238095
24;316.76190476190476;19.06607142857143;59.49702380952381
25;249.04761904761904;19.238095238095237;64.44464285714287
26;267.2857142857143;18.628571428571426;71.43988095238095
27;141.0952380952381;15.760714285714286;82.32916666666668
28;263.8511904761905;20.679761904761904;68.99285714285713
29;176.2797619047619;18.65297619047619;81.2077380952381
30;186.1547619047619;18.679761904761904;80.54523809523809
31;230.4345238095238;20.40297619047619;72.64166666666667
32;161.95876288659792;16.61958762886598;72.61134020618557
