;radiation;air_temperature;humidity
42;-0.08141192401740882;-0.0730368836083596;0.042077380505609996
43;-0.09542494266371257;0.3935928260477139;0.40057091339425277
44;-0.6739189080839599;-0.4162798742480059;0.6909950681067748
45;-0.029776996614179752;0.1945629751501973;0.43811031874995776
46;-0.2634288509992928;-0.5123564755203515;0.40539963358523823
47;-0.6166483101381953;0.23110744925378876;-0.44149558184624377
48;-0.16350993543434228;-0.3911309888433845;0.040753376582276554
49;0.5232802936546238;-0.5689414676807514;-1.2743719322071252
50;-0.2908456266116267;-0.3007521819205233;0.054460711317970374
51;-0.044094646100620846;-0.6255264598411511;-0.7369042219172
01;-0.14340429998529722;0.5421284304687631;2.0467750856009057
02;-0.4293003434539133;1.1121043410844567;-1.3453229659810897
03;0.5939546485664181;-1.7813928101176488;0.7345314324093536
04;0.2322055259036781;-0.0494598035415264;-0.7126827383785612
05;0.4742347283925599;1.033317598527788;-0.5077736605966755
06;-0.25276677159449645;-0.5944833044198203;0.13429035963664518
07;-0.4632666821291934;0.3941822530493849;-0.17030842531392631
08;1.0547087942736972;-1.5395312637653846;-0.7844125979897782
09;-0.020942702250205482;0.8217133049279602;0.7374909705909228
10;-0.3677649137462303;-0.005842205417884767;0.9869488862638112
11;1.2722152141315468;2.3862490430295664;-1.2373777049374948
12;-0.7001171603357452;-2.142122135140197;0.3344485998112718
13;0.9972858809078644;1.7465242705494932;-0.8314536785600016
14;-0.6716341767829322;-0.9430311380745048;0.640449271268902
15;0.4055404739416568;0.7189565309700123;-0.0012253360457863479
16;1.2582021954852423;0.7553045294063796;-0.3890027204152322
17;-0.7142824944021174;0.24348541628887638;0.1881851075747146
18;-1.7466764116265612;-1.2927578257325303;1.5668626046841547
19;4.0506007916014575;1.331764137040451;-1.8961085980880792
20;-0.7270769896878733;0.9415634619343632;-0.6946139789542348
21;0.3050122966964318;-0.5532234143028623;-0.017580678628150763
22;-2.440777780878816;0.15428546336935792;1.938206763887509
23;2.275364570702833;1.3354277611586198;-1.7925298917236605
24;-0.94702045626682;-0.899344126391784;0.9444301255402148
25;0.10121426464474909;0.43170910548909514;-0.4040340590742595
26;0.799428150238854;0.37217697832034097;-1.2397920650329874
27;-2.455857007465599;-0.8707280925362166;2.180265834106476
28;1.0199808784980748;0.09318153086281374;-0.012284662934815149
29;-0.17752295408064622;1.065736083619685;0.5764297874465125
30;1.0053585981714956;-0.2651900861530497;-1.6512457548549937
31;-1.1869172428747414;0.3531188385996502;1.2259705357174826
32;-1.0937275175233014;-0.658625157243022;0.562109597345087
