;;value
radiation;radiation;1.0
radiation;air_temperature;0.3143602502988739
radiation;humidity;-0.6578670183925951
air_temperature;radiation;0.3143602502988739
air_temperature;air_temperature;1.0
air_temperature;humidity;-0.2354866035748124
humidity;radiation;-0.6578670183925951
humidity;air_temperature;-0.2354866035748124
humidity;humidity;1.0
