;radiation;air_temperature;humidity
42;0.0;0.0;0.0
43;16.50595238095238;-2.167261904761906;5.06488095238096
44;-35.839285714285715;-3.4875000000000007;6.920238095238091
45;-10.863095238095234;1.3583333333333343;3.7571428571428527
46;-10.410714285714285;-1.5857142857142854;-0.017857142857138797
47;3.7857142857142847;1.0458333333333325;-2.0238095238095184
48;-15.214285714285715;-2.95297619047619;-8.462500000000006
49;-5.285714285714285;-1.1994047619047614;8.32976190476191
50;3.6845238095238066;2.8648809523809526;-1.875
51;-3.136904761904759;1.2142857142857126;7.367857142857133
01;10.744047619047617;-10.65892857142857;-20.258333333333326
02;18.779761904761905;4.083928571428571;12.54285714285713
03;-3.7261904761904745;2.6636904761904763;0.5214285714285722
04;21.392857142857146;-3.041666666666666;-11.015476190476178
05;-0.9523809523809561;0.43988095238095215;5.723809523809521
06;-32.51190476190476;-1.1202380952380953;-8.11666666666666
07;79.73214285714286;-1.3970238095238097;3.5071428571428385
08;-11.333333333333329;6.8726190476190485;-6.367857142857119
09;38.72619047619047;0.8119047619047617;0.8220238095237988
10;23.321428571428584;1.6601190476190482;-13.301190476190477
11;28.678571428571416;-1.2839285714285733;1.3226190476190425
12;-1.0773809523809348;4.750000000000003;4.921428571428578
13;19.363095238095212;-2.266071428571429;-5.340476190476188
14;-31.190476190476176;-3.151190476190477;6.826190476190476
15;62.70238095238096;7.194047619047618;-7.386309523809537
16;-29.589285714285722;0.8226190476190496;7.550595238095248
17;-3.1190476190476204;0.8023809523809504;-0.7083333333333428
18;28.910714285714278;3.4208333333333307;1.8797619047619065
19;-11.196428571428555;-3.8874999999999957;-7.282738095238088
20;-36.446428571428584;0.46488095238095184;13.067261904761892
21;38.35714285714286;3.9571428571428555;-1.149404761904762
22;47.690476190476176;3.7952380952380977;-6.556547619047613
23;5.458333333333371;2.1166666666666636;-2.167857142857123
24;36.113095238095184;-0.9529761904761926;-7.613095238095262
25;-20.13095238095235;2.1630952380952415;-5.330357142857132
26;-50.053571428571445;-6.385119047619046;13.819642857142853
27;57.57738095238096;4.145833333333329;-10.713095238095235
28;-15.666666666666686;1.6803571428571438;-5.713095238095235
29;-98.03571428571428;-1.826785714285709;14.857142857142854
30;95.3154761904762;-1.12916666666667;-3.5214285714285793
31;-14.660714285714278;5.529761904761909;-12.902976190476188
32;-38.5068114874816;-0.25552896416298765;-6.037131811487484
