;radiation;air_temperature;precipitation;humidity
10;92.07352941176471;13.562745098039217;0.12720588235294117;81.17401960784314
11;64.70972222222223;7.669166666666667;0.08305555555555556;77.9973611111111
12;38.26881720430107;3.357795698924731;0.06948924731182796;80.39637096774194
01;53.20295698924731;4.276478494623656;0.11169354838709676;80.9864247311828
02;74.6860119047619;5.608035714285714;0.15327380952380953;77.22202380952382
03;140.6491935483871;6.712365591397849;0.10645161290322581;69.09543010752687
04;229.45555555555555;14.323472222222223;0.03208333333333334;60.57583333333333
05;212.69489247311827;15.293279569892475;0.1625;70.052688172043
06;246.09166666666667;18.58638888888889;0.23708333333333337;69.32555555555555
07;231.30913978494624;18.88198924731183;0.17755376344086024;66.92674731182795
08;209.59643916913947;18.789910979228488;0.22314540059347177;71.88961424332344
