;radiation;air_temperature;precipitation;humidity
10;-0.062493455088698524;-0.10876060747889083;0.0803623973836225;-0.0249417419685789
11;-0.1437020363610264;-0.7316487140606421;-1.0;-0.4099993969264564
12;-0.3928772150621826;-0.4274263360060652;0.16746054408682015;0.2632396034394841
01;0.24807399472564218;-0.2711880279722889;0.03261756613436131;-0.1488241816292425
02;0.25919142295807335;-0.1880146356213919;0.0451738366901735;-0.42059378494556204
03;0.5849777215679789;0.5395919095645214;0.0828003713523717;-0.23003108620716098
04;0.12890521046993658;0.28311469423207897;0.4117746599146511;-0.22015384587447598
05;0.5425935622090817;0.390893339974472;-0.10663161525294668;-0.16151316727889284
06;0.5741052085484947;0.43350111259665336;-0.01969130270263915;-0.37313967328070313
07;-0.4390922147979842;-0.07117661371232012;0.1504276084207614;0.06244036228998251
08;-0.41713725576111454;-0.31993279413354553;0.19083810827117037;0.032843085009262585
