;radiation;air_temperature;precipitation;humidity
10;-0.342260019176944;-0.25998689758161275;0.016436582767952127;0.22299991652586348
11;-1.0702562207834867;-0.5871368610588895;0.8331276207867027;1.0476089148128007
12;-0.7546502754798943;-2.000362146713981;0.0126810305371329;0.5863292869411386
01;-0.011826081274246721;0.39210421447211874;-0.8658537159652578;-0.565291664359124
02;0.6089214762537261;-0.09189429886083396;-0.4033427236758358;0.17805750203302168
03;1.285043464414196;0.9386841948059358;0.055371155945605995;-1.5455632675998932
04;2.2745531670995516;1.4510875864130253;0.02072108601719617;-1.0814416557399822
05;0.22359833908046672;0.6292957485006757;0.15972941365933507;0.6336774892711002
06;-1.1297480977677807;0.19641727945885595;0.7077755638496701;1.1203789918063467
07;-0.06245475989439779;-0.26487162078230136;0.4723923606504626;-0.09092852032805096
08;-0.667072471656834;0.24188908541785498;-0.4966914231446396;0.48320911355418306
