;;value
radiation;radiation;1.0
radiation;air_temperature;0.709985566527421
radiation;precipitation;-0.07151105983175217
radiation;humidity;-0.5883074959360596
air_temperature;radiation;0.709985566527421
air_temperature;air_temperature;1.0
air_temperature;precipitation;0.3433475228661039
air_temperature;humidity;-0.14215672403208693
precipitation;radiation;-0.07151105983175217
precipitation;air_temperature;0.3433475228661039
precipitation;precipitation;1.0
precipitation;humidity;0.01240301690778447
humidity;radiation;-0.5883074959360596
humidity;air_temperature;-0.14215672403208693
humidity;precipitation;0.01240301690778447
humidity;humidity;1.0
