;;value
radiation;radiation;1.0
radiation;air_temperature;0.7809859592720958
radiation;precipitation;-0.13546663828102423
radiation;humidity;-0.6452132011306445
air_temperature;radiation;0.7809859592720958
air_temperature;air_temperature;1.0
air_temperature;precipitation;0.09701490406956009
air_temperature;humidity;-0.2979144757772223
precipitation;radiation;-0.13546663828102423
precipitation;air_temperature;0.09701490406956009
precipitation;precipitation;1.0
precipitation;humidity;0.09131082462034862
humidity;radiation;-0.6452132011306445
humidity;air_temperature;-0.2979144757772223
humidity;precipitation;0.09131082462034862
humidity;humidity;1.0
