;radiation;air_temperature;precipitation;humidity
10;0.0;0.0;0.0;0.0
11;-36.66748366013071;-3.6717320261437916;-0.018545751633986945;-2.0865114379084986
12;-19.46818996415771;-4.824820788530466;-0.12334229390681001;8.460784050179214
01;6.782258064516128;-2.5012096774193546;0.03387096774193548;-9.299462365591395
02;46.33870967741935;5.9522705453149;0.04011616743471583;-2.8561827956989134
03;64.92204301075269;3.9441004224270353;0.0042386712749616084;-5.1866935483870975
04;85.7307347670251;1.7342428315412182;-0.029605734767025105;-11.472612007168465
05;10.942652329749109;4.573687275985664;0.06629928315412187;10.410649641577066
06;40.57540322580644;5.825201612903227;-0.008382616487455183;-5.5256496415770755
07;-25.64798387096772;0.4960349462365592;-0.05196684587813622;-2.4903449820788524
08;-19.226731757123275;-0.43840017867968584;0.0659328036756964;3.121945295300094
