;epochs;neurons;scaler;r_value
0;4500;64;standard;0.42
1;4500;64;minmax;0.43
2;4500;32;standard;0.46
3;4500;32;minmax;0.6
4;4500;16;standard;0.47
5;4500;16;minmax;0.33
6;4500;8;standard;0.02
7;4500;8;minmax;-0.23
8;4500;4;standard;0.07
9;4500;4;minmax;0.42
10;4500;2;standard;-0.12
11;4500;2;minmax;0.22
12;3000;64;standard;0.64
13;3000;64;minmax;0.32
14;3000;32;standard;0.62
15;3000;32;minmax;-0.34
16;3000;16;standard;-0.34
17;3000;16;minmax;-0.26
18;3000;8;standard;-0.04
19;3000;8;minmax;-0.21
20;3000;4;standard;0.12
21;3000;4;minmax;-0.19
22;3000;2;standard;-0.02
23;3000;2;minmax;0.46
24;2000;64;standard;0.26
25;2000;64;minmax;-0.06
26;2000;32;standard;-0.24
27;2000;32;minmax;-0.29
28;2000;16;standard;-0.14
29;2000;16;minmax;0.26
30;2000;8;standard;0.09
31;2000;8;minmax;0.16
32;2000;4;standard;-0.06
33;2000;4;minmax;-0.32
34;2000;2;standard;0.03
35;2000;2;minmax;0.18
36;1500;64;standard;0.11
37;1500;64;minmax;-0.24
38;1500;32;standard;-0.22
39;1500;32;minmax;-0.31
40;1500;16;standard;-0.23
41;1500;16;minmax;-0.11
42;1500;8;standard;-0.33
43;1500;8;minmax;-0.14
44;1500;4;standard;-0.25
45;1500;4;minmax;-0.18
46;1500;2;standard;0.07
47;1500;2;minmax;-0.19
48;1000;64;standard;-0.23
49;1000;64;minmax;-0.28
50;1000;32;standard;-0.26
51;1000;32;minmax;0.44
52;1000;16;standard;0.4
53;1000;16;minmax;0.17
54;1000;8;standard;-0.33
55;1000;8;minmax;-0.36
56;1000;4;standard;-0.32
57;1000;4;minmax;0.21
58;1000;2;standard;0.23
59;1000;2;minmax;-0.12
60;500;64;standard;-0.26
61;500;64;minmax;-0.52
62;500;32;standard;0.51
63;500;32;minmax;-0.06
64;500;16;standard;-0.08
65;500;16;minmax;-0.2
66;500;8;standard;-0.41
67;500;8;minmax;0.02
68;500;4;standard;0.29
69;500;4;minmax;-0.1
70;500;2;standard;0.03
71;500;2;minmax;0.06
