;expectations;predictions
0;20.81;28.752091999999998
1;26.73;28.754337
2;35.66;28.752209000000004
3;31.55;28.422558000000002
4;33.55;28.423871999999996
5;37.15;28.423640000000002
6;28.05;28.266844
7;32.2;28.267101
8;27.6;28.266485
9;33.5;28.445665
10;27.55;28.441912
11;19.3;28.44568
12;29.5;28.692137
13;22.85;28.693021999999996
