;expectations;predictions
0;20.81;15.802598999999999
1;26.73;15.807678
2;35.66;15.807169
3;31.55;17.163636999999998
4;33.55;17.164984
5;37.15;17.163738000000002
6;28.05;14.941135999999998
7;32.2;14.944373
8;27.6;14.943378
9;33.5;16.957
10;27.55;16.958607
11;19.3;16.961582
12;29.5;16.684265
13;22.85;16.689022
