;expectations;predictions
0;20.81;25.06551
1;26.73;34.663895000000004
2;35.66;22.994532
3;31.55;31.659746000000002
4;33.55;33.829624
5;37.15;37.151825
6;28.05;28.044615000000004
7;32.2;32.204193
8;27.6;27.661471999999996
9;33.5;32.32436
10;27.55;27.430628000000002
11;19.3;18.532476000000003
12;29.5;37.146606
13;22.85;36.287743
