;expectations;predictions
0;20.81;6.431115
1;26.73;6.471661599999999
2;35.66;6.4498787
3;31.55;5.604051
4;33.55;5.606774
5;37.15;5.606154
6;28.05;7.053885
7;32.2;7.055741
8;27.6;7.0521894
9;33.5;6.311837000000001
10;27.55;6.2939057
11;19.3;6.326766
12;29.5;5.7074637
13;22.85;5.7148449999999995
