;epochs;neurons;scaler;r_value;mape
0;500;2;minmax;0.06;91.53
1;500;2;standard;0.03;89.56
2;500;4;minmax;-0.1;81.02
3;500;4;standard;0.29;82.13
4;500;8;minmax;0.02;69.85
5;500;8;standard;-0.41;70.37
6;500;16;minmax;-0.2;48.95
7;500;16;standard;-0.08;49.63
8;500;32;minmax;-0.06;25.0
9;500;32;standard;0.51;25.41
10;500;64;minmax;-0.52;16.01
11;500;64;standard;-0.26;15.91
12;1000;2;minmax;-0.12;85.77
13;1000;2;standard;0.23;84.49
14;1000;4;minmax;0.21;72.78
15;1000;4;standard;-0.32;70.69
16;1000;8;minmax;-0.36;55.53
17;1000;8;standard;-0.33;55.81
18;1000;16;minmax;0.17;28.99
19;1000;16;standard;0.4;28.54
20;1000;32;minmax;0.44;15.36
21;1000;32;standard;-0.26;15.8
22;1000;64;minmax;-0.28;16.32
23;1000;64;standard;-0.23;16.29
24;1500;2;minmax;-0.19;77.56
25;1500;2;standard;0.07;77.78
26;1500;4;minmax;-0.18;66.23
27;1500;4;standard;-0.25;63.05
28;1500;8;minmax;-0.14;40.27
29;1500;8;standard;-0.33;42.32
30;1500;16;minmax;-0.11;19.68
31;1500;16;standard;-0.23;19.99
32;1500;32;minmax;-0.31;16.24
33;1500;32;standard;-0.22;16.23
34;1500;64;minmax;-0.24;16.35
35;1500;64;standard;0.11;16.33
36;2000;2;minmax;0.18;71.79
37;2000;2;standard;0.03;71.87
38;2000;4;minmax;-0.32;53.02
39;2000;4;standard;-0.06;58.17
40;2000;8;minmax;0.16;32.17
41;2000;8;standard;0.09;29.7
42;2000;16;minmax;0.26;15.81
43;2000;16;standard;-0.14;15.85
44;2000;32;minmax;-0.29;16.33
45;2000;32;standard;-0.24;17.23
46;2000;64;minmax;-0.06;16.62
47;2000;64;standard;0.26;16.41
48;3000;2;minmax;0.46;62.97
49;3000;2;standard;-0.02;63.73
50;3000;4;minmax;-0.19;41.35
51;3000;4;standard;0.12;41.81
52;3000;8;minmax;-0.21;20.15
53;3000;8;standard;-0.04;19.98
54;3000;16;minmax;-0.26;16.26
55;3000;16;standard;-0.34;16.27
56;3000;32;minmax;-0.34;18.87
57;3000;32;standard;0.62;8.74
58;3000;64;minmax;0.32;17.6
59;3000;64;standard;0.64;11.01
60;4500;2;minmax;0.22;47.89
61;4500;2;standard;-0.12;49.25
62;4500;4;minmax;0.42;24.76
63;4500;4;standard;0.07;25.26
64;4500;8;minmax;-0.23;15.94
65;4500;8;standard;0.02;15.73
66;4500;16;minmax;0.33;15.73
67;4500;16;standard;0.47;12.02
68;4500;32;minmax;0.6;26.02
69;4500;32;standard;0.46;12.41
70;4500;64;minmax;0.43;16.53
71;4500;64;standard;0.42;12.84
