;expectations;predictions
0;20.81;24.419956
1;26.73;24.422894
2;35.66;24.419617000000002
3;31.55;24.106602
4;33.55;24.110948999999998
5;37.15;24.110704000000002
6;28.05;24.97539
7;32.2;24.974729999999997
8;27.6;24.972147
9;33.5;24.636035999999997
10;27.55;24.630367
11;19.3;24.636301
12;29.5;23.909525
13;22.85;23.908745
