;expectations;predictions
0;20.81;24.742006
1;26.73;34.520653
2;35.66;22.797705
3;31.55;30.417938
4;33.55;33.261542999999996
5;37.15;36.580436999999996
6;28.05;28.107597
7;32.2;32.5048
8;27.6;28.801643
9;33.5;33.124157000000004
10;27.55;27.000439
11;19.3;18.684048
12;29.5;36.340702
13;22.85;33.96365
