;expectations;predictions
0;20.81;24.954329
1;26.73;24.95685
2;35.66;24.95415
3;31.55;24.38935
4;33.55;24.391095999999997
5;37.15;24.390082999999997
6;28.05;24.44214
7;32.2;24.442509
8;27.6;24.441217
9;33.5;23.837128
10;27.55;23.835989
11;19.3;23.839851
12;29.5;24.864279
13;22.85;24.870499
