;expectations;predictions
0;20.81;25.297864999999998
1;26.73;25.30234
2;35.66;25.298868
3;31.55;23.96433
4;33.55;23.966782000000002
5;37.15;23.966867
6;28.05;24.767046
7;32.2;24.769955
8;27.6;24.77093
9;33.5;23.824026
10;27.55;23.820427
11;19.3;23.825321
12;29.5;25.168132999999997
13;22.85;25.175528
