;radiation;air_temperature;precipitation;humidity
42;-0.2162661737523106;0.05477999646580667;-0.01104681746449232;0.02387764233705325
43;-0.05711645101663593;-0.14549095835542208;-0.19516044187269857;-0.5392876028799606
44;-0.4793345656192238;-0.08888496200742182;0.19516044187269868;0.24746783094466496
45;-0.19693160813308697;-0.41939094068445537;-0.63387690689111;-0.2571490556060251
46;-0.3860998151571165;-0.05324851269364439;0.1341399263545503;0.42981112120513565
47;-0.055563770794824496;-0.21517346998880854;-0.15623356128353494;-0.6827161665604525
48;-0.24817005545286513;-0.08582199446309716;-0.018411362440820568;0.728735881547369
49;-0.34073937153419603;-0.08629322023914715;-0.0015781167806417137;0.5157218207210751
50;-0.2085027726432533;0.4758791305884433;0.40452393477117315;-0.09096825805751807
51;-0.2086136783733827;0.30022972256582436;0.18463966333508675;-0.43173651882686265
01;-0.10613678373382633;0.16763856982976966;-0.6307206733298263;-0.005138913370666482
02;-0.3685767097966729;-0.20733934146197797;0.34034718569174127;0.3659746986481546
03;-0.039334565619223716;0.04099664251634568;-0.27406628090478696;-0.3773643747203421
04;-0.19094269870609987;-0.1034929610649703;-0.0026301946344028868;0.12323900692871893
05;-0.2661367837338263;0.2862696589503446;0.3424513413992636;-0.04568073653238551
06;-0.17120147874306846;0.1407787005949226;-0.046817464492372354;0.011050697617659817
07;0.06887245841035117;0.06296754432467441;-0.2972119936875328;0.03665035050372212
08;-0.24343807763401115;0.015138128055604744;0.08469226722777494;-0.07990400130167662
09;0.07293900184842877;0.15332508688225238;-0.1525796381986159;-0.21351574893899797
10;-0.08428835489833647;0.26936443423455275;-0.09465865743526095;-0.1671977329120954
11;-0.23024029574861377;0.2685986923484714;0.2845870594423988;-0.06111103578256592
12;-0.03611829944547143;-0.23608411380102484;-0.2719621251972646;-0.003999945763446689
13;-0.23741219963031426;0.6190139600636155;-0.045765386638611204;0.09186316117747569
14;0.06462107208872436;0.0650880603168991;0.1657022619673856;-0.29435533077517545
15;-0.28166358595194085;-0.3353949461035518;-0.16254602840610197;-0.051131510081219064
16;-0.4526802218114603;0.4365317782882725;0.24250394529195168;0.7116513674390854
17;-0.2970794824399261;-0.20987218000824653;-0.02051551814834294;0.25156269067538106
18;-0.015415896487985414;0.44577958414325264;-0.13729615991583374;-0.5844937695760053
19;0.1774491682070241;-0.22306650173764492;-0.09521304576538658;-0.021681061951702142
20;-0.325656192236599;0.511397773458208;0.2845870594423988;0.04508413445241462
21;-0.16085027726432546;-0.1029628320669142;-0.26775381378221985;0.19979390109964495
22;-0.10258780036968573;0.36302055722448057;-0.00473435034192526;-0.09012759149028372
23;0.0030314232902031724;0.4647464216292631;-0.04681746449237239;-0.2518067551626416
24;-0.20983364140480604;-0.20875301879012786;-0.026827985270909988;-0.001993193312632858
25;-0.6368207024029576;0.0718030276256109;0.2856391372961599;0.24928475546094345
26;-0.10299445471349358;-0.005536902868587074;0.04892162019989488;0.34257162614744147
27;-1.0;-0.22901572716027546;-0.02156759600210407;0.5199793901099655
28;0.5461367837338262;0.541556223125405;-0.23303524460810096;-0.5837073395614981
29;-0.7601478743068394;-0.1457854744654534;0.48237769594950036;0.5803717915689285
30;-0.15493530499075792;0.057430641456087735;-0.41714886901630727;-0.006304999254247587
31;0.058743068391866826;0.22530482417388223;-0.15623356128353494;-0.33619883120228833
32;-0.6415500123863789;-0.3196143478532811;0.15979110289212956;0.022496008091870554
