;radiation;air_temperature;precipitation;humidity
42;0.0;0.0;0.0;0.0
43;-7.232142857142861;-0.9297619047619037;-0.027976190476190477;5.637500000000003
44;-63.67857142857143;-2.160119047619048;0.24345238095238095;1.0892857142857224
45;-11.55952380952381;1.0821428571428573;0.0601190476190476;3.6238095238095127
46;10.797619047619051;-2.40595238095238;-0.2107142857142857;1.7589285714285694
47;-24.208333333333336;1.916666666666666;-0.09285714285714286;-1.6654761904761841
48;-2.261904761904759;-2.956547619047619;0.03928571428571429;-4.992261904761904
49;18.803571428571423;-0.6380952380952394;-0.005357142857142859;-9.458333333333329
50;8.726190476190482;1.118452380952383;0.06071428571428572;13.034523809523805
51;9.083333333333329;-3.9351190476190485;0.01011904761904761;-7.294047619047618
01;-4.208333333333329;0.799404761904762;-0.07857142857142857;4.944642857142853
02;-3.0535714285714306;1.138095238095238;0.15833333333333335;-8.194642857142853
03;-13.05952380952381;-2.4202380952380955;-0.09821428571428573;3.967261904761898
04;5.267857142857146;-0.2779761904761908;0.08630952380952381;1.2821428571428584
05;10.220238095238095;-2.2095238095238092;-0.15773809523809523;-8.666071428571428
06;50.5;2.5880952380952387;0.037500000000000006;6.921428571428564
07;-22.64285714285714;0.8636904761904756;0.11488095238095239;0.10535714285714448
08;10.482142857142847;0.9386904761904762;-0.07261904761904764;-3.4416666666666487
09;70.3452380952381;2.1767857142857143;-0.041666666666666664;-13.070833333333347
10;4.25;0.41666666666666696;-0.052976190476190475;2.2089285714285793
11;-25.208333333333343;1.9488095238095235;0.044642857142857144;4.18511904761904
12;-5.220238095238102;-0.13273809523809632;0.08214285714285713;1.9303571428571473
13;-5.678571428571416;0.4511904761904777;-0.01488095238095237;-1.1374999999999886
14;129.19642857142858;1.5398809523809511;-0.11190476190476191;-22.473809523809535
15;-60.51785714285717;2.547619047619051;0.03273809523809524;16.491071428571423
16;55.20238095238096;1.297619047619044;0.023809523809523794;-3.0833333333333286
17;-88.05357142857142;-1.1702380952380942;0.5428571428571428;14.001785714285724
18;48.24404761904762;2.130357142857143;-0.49107142857142855;-0.8303571428571388
19;50.13690476190476;1.7589285714285676;-0.02023809523809522;-11.414880952380962
20;-17.821428571428584;-2.7017857142857107;-0.0761904761904762;-5.104166666666664
21;76.64285714285714;2.416666666666666;-0.010714285714285714;-0.7797619047619193
22;-7.458333333333314;5.303571428571431;0.17797619047619048;6.751785714285724
23;-77.4702380952381;-2.3559523809523846;-0.1351190476190476;7.277380952380952
24;30.660714285714306;-1.347023809523808;-0.004166666666666673;-4.546428571428578
25;62.74404761904759;2.0077380952380963;-0.03571428571428571;-11.214285714285715
26;-2.7857142857142776;6.629166666666663;-0.004166666666666667;-4.921428571428564
27;2.357142857142833;-2.195238095238089;0.0;-3.0797619047619023
28;-11.214285714285722;1.519642857142852;0.02619047619047619;2.5291666666666615
29;-33.434523809523796;-2.472023809523808;0.08988095238095238;9.847619047619048
30;-49.309523809523796;-4.387499999999999;-0.07023809523809524;1.7577380952380892
31;-0.625;4.775000000000002;0.0035714285714285796;1.4833333333333414
32;11.440082644628092;-1.2250836284927225;0.03406631247540337;8.420365997638719
