;fold_0;fold_1;fold_2;fold_3;fold_4
0;868.8668212890625;865.6620483398438;858.185546875;859.7833251953125;901.6918334960938
1;868.508544921875;865.4378051757812;857.7906494140625;859.4047241210938;901.1588745117188
2;868.0267333984375;865.1365356445312;857.2589111328125;859.0778198242188;900.6276245117188
3;867.5448608398438;864.8353271484375;856.7257080078125;858.6951293945312;900.1458129882812
4;867.0923461914062;864.5526123046875;856.2239379882812;858.31005859375;899.6179809570312
5;866.6099243164062;864.2642211914062;855.7108154296875;857.9225463867188;899.1143188476562
6;866.1417846679688;863.9630126953125;855.189453125;857.5327758789062;898.58984375
7;865.658935546875;863.6680908203125;854.6502685546875;857.1404418945312;898.0778198242188
8;865.1755981445312;863.3666381835938;854.1094360351562;856.7455444335938;897.5563354492188
9;864.6962890625;863.0677490234375;853.5667114257812;856.3515625;897.0359497070312
10;864.2122802734375;862.7659301757812;853.02197265625;855.9514770507812;896.5170288085938
11;863.7279663085938;862.4641723632812;852.4759521484375;855.5491333007812;895.9990234375
12;863.2425537109375;862.1612548828125;851.9270629882812;855.1432495117188;895.48193359375
13;862.7572021484375;861.8571166992188;851.3738403320312;854.7344360351562;894.965576171875
14;862.271240234375;861.5535888671875;850.8200073242188;854.3204345703125;894.4500122070312
15;861.781494140625;861.2494506835938;850.2598876953125;853.9055786132812;893.9349975585938
16;861.2905883789062;860.9422607421875;849.6962890625;853.4839477539062;893.4203491210938
17;860.8023681640625;860.6365356445312;849.1338500976562;853.0623168945312;892.9014282226562
18;860.3087768554688;860.3270263671875;848.5629272460938;852.6370239257812;892.38720703125
19;859.818603515625;860.0192260742188;847.9938354492188;852.2040405273438;891.8728637695312
20;859.3273315429688;859.7070922851562;847.4212036132812;851.7670288085938;891.3529663085938
21;858.829345703125;859.3935546875;846.8446655273438;851.3307495117188;890.8379516601562
22;858.3298950195312;859.0819091796875;846.2642211914062;850.8856201171875;890.3168334960938
23;857.8341674804688;858.7686767578125;845.6795654296875;850.4413452148438;889.8005981445312
24;857.3369140625;858.4539794921875;845.0905151367188;849.9927368164062;889.2775268554688
25;856.8319702148438;858.1373291015625;844.4898071289062;849.5400390625;888.7533569335938
26;856.3247680664062;857.8150634765625;843.8912963867188;849.0829467773438;888.23388671875
27;855.8154907226562;857.4945068359375;843.2806396484375;848.6156616210938;887.7130737304688
28;855.3037719726562;857.16796875;842.6717529296875;848.1491088867188;887.1907348632812
29;854.7957153320312;856.8427734375;842.0502319335938;847.6778564453125;886.6666870117188
30;854.2791137695312;856.5112915039062;841.4302368164062;847.2015991210938;886.140625
31;853.759765625;856.1771850585938;840.7969970703125;846.7145385742188;885.6126098632812
32;853.2374877929688;855.84423828125;840.1576538085938;846.2278442382812;885.076171875
33;852.712158203125;855.5045776367188;839.5118408203125;845.7357177734375;884.5432739257812
34;852.1898193359375;855.1657104492188;838.8670043945312;845.2378540039062;884.008056640625
35;851.6581420898438;854.8237915039062;838.2078857421875;844.7286376953125;883.4638671875
36;851.123046875;854.4786376953125;837.5418090820312;844.2134399414062;882.9166870117188
37;850.5843505859375;854.1298828125;836.8759155273438;843.6978759765625;882.37255859375
38;850.0477905273438;853.7776489257812;836.2025756835938;843.1759033203125;881.8190307617188
39;849.5072021484375;853.4176635742188;835.5143432617188;842.6475830078125;881.2621459960938
40;848.9569702148438;853.0538330078125;834.8257446289062;842.1070556640625;880.7073364257812
41;848.4081420898438;852.6900024414062;834.12890625;841.5596923828125;880.1428833007812
42;847.8492431640625;852.3180541992188;833.4163208007812;841.00537109375;879.574462890625
43;847.2914428710938;851.9419555664062;832.7025146484375;840.4496459960938;879.007568359375
44;846.7288818359375;851.5614624023438;831.9799194335938;839.8864135742188;878.430419921875
45;846.1614990234375;851.1802368164062;831.2482299804688;839.3101196289062;877.8486328125
46;845.5831909179688;850.7905883789062;830.5073852539062;838.7261962890625;877.2677612304688
47;844.9996337890625;850.3960571289062;829.7567749023438;838.1342163085938;876.681884765625
48;844.4159545898438;849.99658203125;828.9892578125;837.5398559570312;876.0851440429688
49;843.8265380859375;849.5919189453125;828.2188720703125;836.9371948242188;875.4830932617188
50;843.2256469726562;849.1821899414062;827.4309692382812;836.3262329101562;874.8809204101562
51;842.6187133789062;848.7706298828125;826.63232421875;835.7009887695312;874.2675170898438
52;842.0107421875;848.3499755859375;825.8298950195312;835.0668334960938;873.64794921875
53;841.396240234375;847.9235229492188;825.0089111328125;834.42919921875;873.022216796875
54;840.7749633789062;847.4913330078125;824.1764526367188;833.7766723632812;872.3954467773438
55;840.146728515625;847.0567626953125;823.3319702148438;833.1146240234375;871.7566528320312
56;839.5113525390625;846.6160888671875;822.482421875;832.4426879882812;871.111083984375
57;838.8632202148438;846.1690673828125;821.6204223632812;831.7661743164062;870.45849609375
58;838.2127075195312;845.7155151367188;820.7385864257812;831.0737915039062;869.8040161132812
59;837.5543212890625;845.2518310546875;819.8434448242188;830.3709716796875;869.14208984375
60;836.882568359375;844.7849731445312;818.9421997070312;829.6573486328125;868.47265625
61;836.2074584960938;844.3109741210938;818.0198364257812;828.9326171875;867.7951049804688
62;835.5185546875;843.826171875;817.0833740234375;828.1963500976562;867.1095581054688
63;834.8259887695312;843.3338623046875;816.1396484375;827.4483642578125;866.41552734375
64;834.1244506835938;842.8377075195312;815.18115234375;826.6943359375;865.7077026367188
65;833.4136352539062;842.3338623046875;814.2074584960938;825.9225463867188;864.9962768554688
66;832.693115234375;841.8221435546875;813.2110595703125;825.1438598632812;864.2756958007812
67;831.9628295898438;841.2984008789062;812.1982421875;824.3468627929688;863.5460815429688
68;831.2173461914062;840.7702026367188;811.17626953125;823.5368041992188;862.8068237304688
69;830.466796875;840.2335205078125;810.1298828125;822.7191772460938;862.057861328125
70;829.7056274414062;839.6880493164062;809.0662841796875;821.8878784179688;861.2936401367188
71;828.9336547851562;839.1300048828125;807.9920654296875;821.0425415039062;860.51904296875
72;828.1507568359375;838.5663452148438;806.8995361328125;820.17724609375;859.7338256835938
73;827.3565063476562;837.9894409179688;805.7885131835938;819.2971801757812;858.9428100585938
74;826.5509643554688;837.4030151367188;804.6508178710938;818.4078979492188;858.13525390625
75;825.7333984375;836.8104248046875;803.4931030273438;817.5032348632812;857.3162231445312
76;824.9037475585938;836.2037353515625;802.3148803710938;816.5828857421875;856.4906616210938
77;824.0618896484375;835.5905151367188;801.1157836914062;815.6401977539062;855.647705078125
78;823.2070922851562;834.962890625;799.8949584960938;814.6867065429688;854.7975463867188
79;822.3392333984375;834.3240966796875;798.6519775390625;813.7103881835938;853.9292602539062
80;821.4581909179688;833.6737060546875;797.3861083984375;812.7225341796875;853.052978515625
81;820.5634155273438;833.0157470703125;796.1043701171875;811.7169189453125;852.1578979492188
82;819.6547241210938;832.3461303710938;794.7982177734375;810.6930541992188;851.2537231445312
83;818.7265014648438;831.6605224609375;793.4677734375;809.6505126953125;850.3353881835938
84;817.7885131835938;830.9661865234375;792.1124877929688;808.5888671875;849.39697265625
85;816.830322265625;830.2590942382812;790.7236328125;807.5073852539062;848.443359375
86;815.8617553710938;829.5352783203125;789.3153076171875;806.3997192382812;847.4794311523438
87;814.8775634765625;828.8035888671875;787.8713989257812;805.2708129882812;846.49951171875
88;813.8767700195312;828.0581665039062;786.3988647460938;804.1266479492188;845.4977416992188
89;812.8594360351562;827.2947998046875;784.9051513671875;802.9541625976562;844.4841918945312
90;811.8193969726562;826.5171508789062;783.3809814453125;801.7600708007812;843.4479370117188
91;810.7617797851562;825.7291870117188;781.8261108398438;800.5440673828125;842.3933715820312
92;809.6860961914062;824.9225463867188;780.2354125976562;799.3111572265625;841.3203735351562
93;808.5916137695312;824.1051025390625;778.6129760742188;798.0479736328125;840.2337036132812
94;807.4781494140625;823.2678833007812;776.9608764648438;796.7606811523438;839.12158203125
95;806.3449096679688;822.4187622070312;775.2794189453125;795.4550170898438;837.9894409179688
96;805.197265625;821.5489501953125;773.5719604492188;794.1182861328125;836.8363647460938
97;804.0289306640625;820.6621704101562;771.8287963867188;792.7643432617188;835.6675415039062
98;802.8394165039062;819.76220703125;770.048828125;791.3839721679688;834.476806640625
99;801.6222534179688;818.8444213867188;768.2310180664062;789.9762573242188;833.2575073242188
100;800.382568359375;817.9083862304688;766.3743286132812;788.5337524414062;832.0206909179688
101;799.1196899414062;816.9539794921875;764.4702758789062;787.0623779296875;830.7537231445312
102;797.8388671875;815.9805297851562;762.5322875976562;785.56884765625;829.4618530273438
103;796.5335693359375;814.9873046875;760.5618286132812;784.0451049804688;828.1438598632812
104;795.2029418945312;813.9691772460938;758.5487670898438;782.4905395507812;826.7991333007812
105;793.8464965820312;812.9346923828125;756.4832153320312;780.8978881835938;825.4267578125
106;792.4573974609375;811.8740234375;754.3823852539062;779.2811279296875;824.0261840820312
107;791.047119140625;810.7955932617188;752.2376708984375;777.6310424804688;822.6028442382812
108;789.6024780273438;809.689453125;750.0489501953125;775.9473876953125;821.14306640625
109;788.1287231445312;808.5638427734375;747.8134765625;774.2221069335938;819.6522827148438
110;786.631591796875;807.4090576171875;745.5220947265625;772.4691772460938;818.129638671875
111;785.0968627929688;806.2289428710938;743.1969604492188;770.6727294921875;816.580322265625
112;783.5306396484375;805.0277709960938;740.8302001953125;768.8406982421875;814.9972534179688
113;781.938232421875;803.8002319335938;738.4149169921875;766.9733276367188;813.37255859375
114;780.3058471679688;802.5449829101562;735.9512939453125;765.0690307617188;811.7185668945312
115;778.6390991210938;801.2611694335938;733.4391479492188;763.1353149414062;810.020263671875
116;776.9447631835938;799.9478149414062;730.8687133789062;761.1641235351562;808.2907104492188
117;775.2103271484375;798.60400390625;728.2607421875;759.1484375;806.5220336914062
118;773.4393920898438;797.2285766601562;725.5955200195312;757.1004638671875;804.7127075195312
119;771.630859375;795.8148803710938;722.8861694335938;755.0264282226562;802.854248046875
120;769.7842407226562;794.3672485351562;720.1389770507812;752.9169921875;800.9523315429688
121;767.9064331054688;792.8847045898438;717.3628540039062;750.7652587890625;799.0131225585938
122;765.9892578125;791.3717651367188;714.5369873046875;748.5895385742188;797.0198364257812
123;764.0316772460938;789.8235473632812;711.6739501953125;746.3780517578125;794.98681640625
124;762.0263061523438;788.2315673828125;708.7889404296875;744.1444702148438;792.8967895507812
125;759.9799194335938;786.6065673828125;705.8804321289062;741.8828125;790.7643432617188
126;757.9003295898438;784.9409790039062;702.9390869140625;739.5873413085938;788.5715942382812
127;755.7724609375;783.2341918945312;699.9786987304688;737.2669067382812;786.333251953125
128;753.6109619140625;781.48681640625;697.01513671875;734.9341430664062;784.0392456054688
129;751.4083862304688;779.6954345703125;694.0509033203125;732.5814819335938;781.6792602539062
130;749.1659545898438;777.8594360351562;691.1102294921875;730.2111206054688;779.2691040039062
131;746.8739624023438;775.9776611328125;688.1788330078125;727.8275756835938;776.791015625
132;744.5497436523438;774.0422973632812;685.2682495117188;725.4346923828125;774.2607421875
133;742.1873168945312;772.0599365234375;682.37255859375;723.0347290039062;771.6672973632812
134;739.7776489257812;770.0422973632812;679.5051879882812;720.6340942382812;769.0084838867188
135;737.3385620117188;767.9771118164062;676.6920776367188;718.2421875;766.28466796875
136;734.8576049804688;765.8642578125;673.9417114257812;715.8475952148438;763.4844360351562
137;732.356201171875;763.7015991210938;671.2491455078125;713.4649658203125;760.6248168945312
138;729.8253784179688;761.4817504882812;668.62109375;711.0942993164062;757.685302734375
139;727.2684936523438;759.2122192382812;666.0620727539062;708.7550659179688;754.6847534179688
140;724.691650390625;756.8930053710938;663.5787963867188;706.4429321289062;751.6021118164062
141;722.0977172851562;754.5340576171875;661.15478515625;704.1534423828125;748.4575805664062
142;719.5044555664062;752.1296997070312;658.7992553710938;701.8914794921875;745.230224609375
143;716.9028930664062;749.6807250976562;656.5;699.6627807617188;741.94580078125
144;714.327392578125;747.1830444335938;654.2752685546875;697.4619750976562;738.5941772460938
145;711.7716674804688;744.64990234375;652.1082153320312;695.2887573242188;735.1803588867188
146;709.2570190429688;742.0856323242188;650.0062255859375;693.1502075195312;731.7033081054688
147;706.7831420898438;739.4948120117188;647.9564819335938;691.0447387695312;728.16650390625
148;704.349853515625;736.8931884765625;645.9730224609375;688.9794921875;724.563720703125
149;701.975830078125;734.28125;644.0393676757812;686.94775390625;720.9127807617188
150;699.66357421875;731.6683959960938;642.1654663085938;684.9569702148438;717.222900390625
151;697.4103393554688;729.0645751953125;640.3421630859375;683.0073852539062;713.51123046875
152;695.2302856445312;726.4819946289062;638.5676879882812;681.0960083007812;709.7656860351562
153;693.127197265625;723.92041015625;636.8363647460938;679.2236328125;706.0192260742188
154;691.104248046875;721.3989868164062;635.1522216796875;677.412109375;702.2709350585938
155;689.1541137695312;718.9375;633.5128784179688;675.6444091796875;698.521240234375
156;687.2777709960938;716.5337524414062;631.9215698242188;673.9177856445312;694.7949829101562
157;685.4779052734375;714.201171875;630.3734741210938;672.2399291992188;691.1046752929688
158;683.7363891601562;711.9387817382812;628.8629150390625;670.6082763671875;687.465087890625
159;682.0543212890625;709.7555541992188;627.3955078125;669.015625;683.8984375
160;680.4288940429688;707.6527709960938;625.9647216796875;667.4651489257812;680.3916015625
161;678.8563842773438;705.6278076171875;624.5706787109375;665.962890625;676.9750366210938
162;677.333251953125;703.6634521484375;623.2108764648438;664.49755859375;673.6378173828125
163;675.8598022460938;701.7650756835938;621.8897705078125;663.0765380859375;670.4002075195312
164;674.4279174804688;699.9395141601562;620.5989379882812;661.6910400390625;667.2732543945312
165;673.0394897460938;698.1806640625;619.3414916992188;660.3372192382812;664.2418212890625
166;671.68603515625;696.4827270507812;618.1103515625;659.0244750976562;661.3204956054688
167;670.3606567382812;694.8383178710938;616.9066772460938;657.7437133789062;658.51171875
168;669.0706787109375;693.2477416992188;615.7329711914062;656.4943237304688;655.8107299804688
169;667.81005859375;691.7141723632812;614.5809326171875;655.2743530273438;653.2140502929688
170;666.5835571289062;690.2313842773438;613.4526977539062;654.0780029296875;650.7164916992188
171;665.3862915039062;688.7904663085938;612.3497924804688;652.9048461914062;648.3226928710938
172;664.2152099609375;687.3952026367188;611.2657470703125;651.7549438476562;646.0236206054688
173;663.062744140625;686.0384521484375;610.2018432617188;650.6217651367188;643.8093872070312
174;661.9354248046875;684.7174072265625;609.1585083007812;649.5093994140625;641.686279296875
175;660.8299560546875;683.43310546875;608.13671875;648.412109375;639.6464233398438
176;659.7537231445312;682.1778564453125;607.1334228515625;647.3349609375;637.6898803710938
177;658.693603515625;680.9530029296875;606.1474609375;646.2741088867188;635.8080444335938
178;657.6544799804688;679.7569580078125;605.177734375;645.2283935546875;633.9960327148438
179;656.6338500976562;678.5874633789062;604.2236938476562;644.1947021484375;632.2460327148438
180;655.6257934570312;677.4446411132812;603.2852783203125;643.1787719726562;630.553955078125
181;654.63671875;676.3239135742188;602.3590698242188;642.17578125;628.9171752929688
182;653.660400390625;675.2239990234375;601.4490966796875;641.1864013671875;627.3333129882812
183;652.699951171875;674.1414794921875;600.5518798828125;640.2071533203125;625.7942504882812
184;651.755615234375;673.0821533203125;599.6665649414062;639.2420654296875;624.302490234375
185;650.823486328125;672.0404663085938;598.79052734375;638.28857421875;622.8579711914062
186;649.90087890625;671.0133666992188;597.92626953125;637.3468017578125;621.4537963867188
187;648.9926147460938;670.001953125;597.0743408203125;636.4161376953125;620.0848388671875
188;648.0936889648438;669.0076904296875;596.232421875;635.49609375;618.7529296875
189;647.2070922851562;668.0247192382812;595.3980102539062;634.5844116210938;617.4581909179688
190;646.3316040039062;667.0546875;594.5729370117188;633.6851196289062;616.192138671875
191;645.4663696289062;666.0994873046875;593.7565307617188;632.7963256835938;614.958984375
192;644.6098022460938;665.1558837890625;592.9506225585938;631.9153442382812;613.75146484375
193;643.7617797851562;664.22412109375;592.1510620117188;631.0435180664062;612.5736694335938
194;642.9254150390625;663.3013916015625;591.361328125;630.1818237304688;611.4226684570312
195;642.0947265625;662.38916015625;590.5791015625;629.3310546875;610.2927856445312
196;641.2725830078125;661.4872436523438;589.8026733398438;628.4893188476562;609.1865234375
197;640.4580688476562;660.5972900390625;589.0335693359375;627.6576538085938;608.105712890625
198;639.6483764648438;659.7149658203125;588.2716064453125;626.8319091796875;607.0458984375
199;638.8464965820312;658.84130859375;587.5164794921875;626.0138549804688;606.0034790039062
200;638.0519409179688;657.9760131835938;586.76953125;625.205078125;604.9815063476562
201;637.2613525390625;657.1210327148438;586.0286254882812;624.4017333984375;603.9743041992188
202;636.4769287109375;656.2736206054688;585.2920532226562;623.6069946289062;602.9857788085938
203;635.6997680664062;655.4318237304688;584.5629272460938;622.8193359375;602.0138549804688
204;634.927734375;654.5987548828125;583.8378295898438;622.0366821289062;601.0570678710938
205;634.16162109375;653.7708740234375;583.1197509765625;621.2623291015625;600.11474609375
206;633.4024658203125;652.9500122070312;582.4071044921875;620.4944458007812;599.1838989257812
207;632.6494750976562;652.1377563476562;581.6998291015625;619.7333374023438;598.2665405273438
208;631.9033203125;651.3318481445312;580.9974975585938;618.9767456054688;597.361328125
209;631.1620483398438;650.5317993164062;580.2987670898438;618.2276000976562;596.4675903320312
210;630.4237670898438;649.7359619140625;579.6046142578125;617.4838256835938;595.5869140625
211;629.692626953125;648.9458618164062;578.9165649414062;616.7456665039062;594.7168579101562
212;628.968505859375;648.1627807617188;578.2315063476562;616.0126953125;593.8573608398438
213;628.2496337890625;647.3851318359375;577.5509033203125;615.2850341796875;593.0059204101562
214;627.5370483398438;646.6109008789062;576.8759765625;614.5608520507812;592.1653442382812
215;626.8275756835938;645.84326171875;576.2036743164062;613.8432006835938;591.3344116210938
216;626.1229858398438;645.0802612304688;575.5366821289062;613.1287841796875;590.5126342773438
217;625.423095703125;644.3204956054688;574.8723754882812;612.4203491210938;589.6974487304688
218;624.7293090820312;643.5655517578125;574.2118530273438;611.7147827148438;588.8923950195312
219;624.0404052734375;642.8165283203125;573.5552978515625;611.0149536132812;588.095458984375
220;623.35400390625;642.0720825195312;572.9037475585938;610.3193969726562;587.3057250976562
221;622.671142578125;641.3316650390625;572.2557373046875;609.6280517578125;586.5216064453125
222;621.9922485351562;640.5940551757812;571.6099243164062;608.9405517578125;585.7461547851562
223;621.3168334960938;639.8604125976562;570.9674682617188;608.2557373046875;584.9773559570312
224;620.64453125;639.1309814453125;570.328369140625;607.5745849609375;584.2131958007812
225;619.9768676757812;638.4058227539062;569.69384765625;606.8972778320312;583.4569702148438
226;619.3121948242188;637.6845092773438;569.0625610351562;606.2235717773438;582.7067260742188
227;618.6504516601562;636.9684448242188;568.4344482421875;605.5535888671875;581.9622192382812
228;617.990478515625;636.2559814453125;567.8095092773438;604.88720703125;581.2230834960938
229;617.3334350585938;635.5458374023438;567.1875610351562;604.2241821289062;580.4891967773438
230;616.6793212890625;634.8405151367188;566.5673217773438;603.5645751953125;579.7590942382812
231;616.0293579101562;634.1373901367188;565.9498901367188;602.90966796875;579.0341186523438
232;615.382080078125;633.4376220703125;565.3353271484375;602.2579956054688;578.3153076171875
233;614.7376708984375;632.7426147460938;564.7235107421875;601.6085205078125;577.6011962890625
234;614.095947265625;632.0493774414062;564.1145629882812;600.9620361328125;576.8902587890625
235;613.4569702148438;631.3594360351562;563.5094604492188;600.3198852539062;576.183837890625
236;612.8203735351562;630.673828125;562.9058837890625;599.6795654296875;575.4830932617188
237;612.1853637695312;629.9912719726562;562.3059692382811;599.0432739257812;574.7864379882812
238;611.553955078125;629.3116455078125;561.7085571289061;598.40869140625;574.0941162109375
239;610.9251098632812;628.6348266601562;561.1136474609375;597.7781982421875;573.4060668945312
240;610.2988891601562;627.9595947265625;560.5210571289061;597.1505126953125;572.720947265625
241;609.6738891601562;627.2885131835938;559.9297485351561;596.5255737304688;572.0409545898438
242;609.0523681640625;626.6188354492188;559.341796875;595.9033203125;571.3646850585938
243;608.4320068359375;625.9518432617188;558.7562255859375;595.2826538085938;570.69091796875
244;607.8139038085938;625.2887573242188;558.1719970703125;594.6657104492188;570.0221557617188
245;607.197998046875;624.6270751953125;557.5900268554689;594.0501098632812;569.3556518554688
246;606.5853271484375;623.9678955078125;557.0103759765625;593.4381713867188;568.6925048828125
247;605.9736938476562;623.3125;556.4339599609375;592.8287963867188;568.0339965820312
248;605.3652954101562;622.6595458984375;555.8584594726561;592.2206420898438;567.3787841796875
249;604.7588500976562;622.0090942382812;555.2861328125;591.6159057617188;566.7269897460938
250;604.1536254882812;621.3598022460938;554.7159423828125;591.0123901367188;566.0784301757812
251;603.551513671875;620.7141723632812;554.1466674804689;590.4122314453125;565.4329223632812
252;602.9512329101562;620.07080078125;553.5794067382811;589.8143310546875;564.7904052734375
253;602.3529663085938;619.4285888671875;553.0150146484375;589.2177124023438;564.1509399414062
254;601.756591796875;618.7886352539062;552.4515380859375;588.6242065429688;563.5142211914062
255;601.1611328125;618.1510009765625;551.890869140625;588.0328979492188;562.8793334960939
256;600.5684814453125;617.5166015625;551.3311157226561;587.4427490234375;562.2470703125
257;599.977783203125;616.8843994140625;550.7741088867189;586.8547973632812;561.6187744140625
258;599.388916015625;616.2532958984375;550.2179565429689;586.2688598632812;560.9921875
259;598.8008422851562;615.6243286132812;549.6644897460939;585.6848754882812;560.3682250976561
260;598.215576171875;614.9984741210938;549.1117553710939;585.1029052734375;559.7479248046875
261;597.6310424804688;614.3746337890625;548.5608520507811;584.5238037109375;559.129150390625
262;597.0482788085938;613.7518920898438;548.0126342773439;583.9467163085938;558.5128784179689
263;596.4682006835938;613.1311645507812;547.4652099609375;583.3714599609375;557.8989868164061
264;595.8888549804688;612.5133056640625;546.9202880859375;582.7979736328125;557.2875366210939
265;595.3120727539062;611.896484375;546.3759765625;582.2264404296875;556.6785278320311
266;594.7359619140625;611.2816162109375;545.834228515625;581.6565551757812;556.0729370117189
267;594.1624145507812;610.6685791015625;545.293212890625;581.0884399414062;555.4696655273439
268;593.5894775390625;610.0585327148438;544.7545166015625;580.5210571289062;554.867919921875
269;593.0193481445312;609.4501953125;544.2173461914061;579.9564208984375;554.269287109375
270;592.4498291015625;608.8438110351562;543.681640625;579.3924560546875;553.671875
271;591.8827514648438;608.2391967773438;543.1465454101561;578.8311157226562;553.0775756835939
272;591.3171997070312;607.6363525390625;542.6138305664061;578.2713623046875;552.4844970703125
273;590.752197265625;607.0352783203125;542.0826416015625;577.7133178710938;551.8934936523439
274;590.188720703125;606.43603515625;541.5527954101561;577.1558837890625;551.3046264648439
275;589.6275634765625;605.8374633789062;541.0235595703125;576.6000366210938;550.7177124023439
276;589.0670166015625;605.24072265625;540.4956665039061;576.0457763671875;550.1327514648439
277;588.5078125;604.6456298828125;539.9691772460939;575.4939575195312;549.5498657226561
278;587.9500732421875;604.05224609375;539.4440307617189;574.9437255859375;548.9688110351561
279;587.3937377929688;603.4614868164062;538.9210205078125;574.3939819335938;548.3897094726561
280;586.8397827148438;602.8714599609375;538.3994140625;573.8466186523438;547.8132934570311
281;586.2862548828125;602.2838745117188;537.8790283203125;573.3007202148438;547.2388916015625
282;585.734130859375;601.6971435546875;537.3599243164061;572.7554931640625;546.6661987304689
283;585.1842041015625;601.11279296875;536.8412475585939;572.21240234375;546.0953979492189
284;584.634765625;600.5300903320312;536.3246459960939;571.6708374023438;545.5264282226561
285;584.0874633789062;599.9479370117188;535.8084716796875;571.1306762695312;544.9591064453125
286;583.5405883789062;599.3674926757812;535.2935180664061;570.5909423828125;544.3935546875
287;582.9949340820312;598.7893676757812;534.77978515625;570.0536499023438;543.829833984375
288;582.4513549804688;598.2127685546875;534.2680053710939;569.5167236328125;543.2677001953125
289;581.9090576171875;597.6367797851562;533.756591796875;568.9811401367188;542.7064819335939
290;581.3671875;597.0623779296875;533.2464599609375;568.4476928710938;542.1477661132811
291;580.8272094726562;596.490234375;532.7381591796875;567.9155883789062;541.5897827148439
292;580.2886352539062;595.9195556640625;532.2310180664061;567.3847045898438;541.0342407226561
293;579.7503662109375;595.3494873046875;531.7241821289061;566.8543090820312;540.4794921875
294;579.2140502929688;594.7808227539062;531.2193603515625;566.3251342773438;539.9263305664061
295;578.678955078125;594.2135009765625;530.715576171875;565.7972412109375;539.3748168945311
296;578.144287109375;593.6475830078125;530.2129516601561;565.2713012695312;538.82568359375
297;577.6113891601562;593.0838623046875;529.7107543945311;564.7465209960938;538.2781372070311
298;577.079833984375;592.521484375;529.2102661132811;564.2230224609375;537.731201171875
299;576.5485229492188;591.9595336914062;528.7109375;563.70068359375;537.1858520507811
300;576.0191040039062;591.39990234375;528.2118530273439;563.1795654296875;536.6419677734375
301;575.4907836914062;590.8414916992188;527.7146606445311;562.6588745117189;536.1002197265625
302;574.9635009765625;590.2843627929688;527.2183227539061;562.1400756835939;535.5592651367189
303;574.4373779296875;589.728515625;526.7232055664061;561.6217041015625;535.0195922851561
304;573.9122314453125;589.1731567382812;526.2283935546875;561.1044921875;534.4815063476561
305;573.3881225585938;588.619140625;525.7345581054689;560.5883178710939;533.9454956054689
306;572.8644409179688;588.0671997070312;525.2417602539061;560.0732421875;533.4109497070311
307;572.3417358398438;587.5155639648438;524.7508544921875;559.5599975585939;532.8770141601561
308;571.820068359375;586.9660034179688;524.2601928710939;559.0470581054689;532.3442993164061
309;571.2993774414062;586.4177856445312;523.7713623046875;558.5352783203125;531.813720703125
310;570.7797241210938;585.8699340820312;523.2835083007811;558.0244750976561;531.2844848632811
311;570.2619018554688;585.3240356445312;522.7958984375;557.5147705078125;530.7567749023439
312;569.7450561523438;584.778564453125;522.3099975585939;557.0060424804689;530.2296752929689
313;569.2290649414062;584.2343139648438;521.8243408203125;556.4991455078125;529.7039184570311
314;568.7135620117188;583.6920166015625;521.3396606445311;555.9931640625;529.1801147460939
315;568.1995849609375;583.1508178710938;520.8565673828125;555.4876098632811;528.656982421875
316;567.6865234375;582.6101684570312;520.3736572265625;554.9830322265625;528.1357421875
317;567.174560546875;582.0712280273438;519.8924560546875;554.4793701171875;527.6151123046875
318;566.6634521484375;581.5328369140625;519.4120483398439;553.9774169921875;527.0956420898439
319;566.1526489257812;580.9954833984375;518.9327392578125;553.4757080078125;526.5782470703125
320;565.642822265625;580.4600219726562;518.4542236328125;552.9757690429689;526.061279296875
321;565.1344604492188;579.9256591796875;517.9766845703125;552.4766235351561;525.5455932617189
322;564.6271362304688;579.3917236328125;517.4993896484375;551.9779052734375;525.0309448242189
323;564.1199340820312;578.8594970703125;517.0236206054689;551.4800415039061;524.5181884765625
324;563.614501953125;578.3276977539062;516.5480346679689;550.9832153320311;524.0059204101561
325;563.1098022460938;577.7970581054688;516.0739135742189;550.4871826171875;523.4948120117189
326;562.606201171875;577.26806640625;515.6007690429689;549.9921264648439;522.9849243164061
327;562.1027221679689;576.7401123046875;515.1277465820311;549.498046875;522.4767456054689
328;561.600830078125;576.2132568359375;514.6555786132811;549.0054931640625;521.9690551757811
329;561.09912109375;575.686767578125;514.1849365234375;548.5139770507811;521.463134765625
330;560.5990600585939;575.1612548828125;513.7150268554689;548.0226440429689;520.957763671875
331;560.0997924804689;574.6367797851562;513.2462158203125;547.5323486328125;520.4534912109375
332;559.6007690429689;574.1139526367188;512.7774658203125;547.0435180664061;519.950927734375
333;559.1026000976561;573.5922241210938;512.3101806640625;546.5554809570311;519.44873046875
334;558.605224609375;573.071533203125;511.8437194824219;546.0677490234375;518.9475708007811
335;558.1094360351561;572.5511474609375;511.3780822753906;545.5808715820311;518.4481201171875
336;557.61376953125;572.0323486328125;510.9131164550781;545.0955200195311;517.94970703125
337;557.1195678710939;571.5145874023438;510.4484558105469;544.6103515625;517.4522705078125
338;556.6261596679689;570.9977416992188;509.9851379394531;544.1267700195311;516.9558715820311
339;556.1336059570311;570.4812622070312;509.5220031738281;543.6439208984375;516.46044921875
340;555.641845703125;569.9656982421875;509.0596618652344;543.161376953125;515.9653930664061
341;555.1509399414061;569.4510498046875;508.5986633300781;542.6796264648439;515.471923828125
342;554.6607666015625;568.9379272460938;508.1378479003906;542.1993408203125;514.9794311523439
343;554.1714477539061;568.4252319335938;507.6782836914063;541.7191772460939;514.4879150390625
344;553.682861328125;567.9134521484375;507.2189025878906;541.2398681640625;513.9967651367189
345;553.194580078125;567.4031372070312;506.7608337402344;540.7620849609375;513.5065307617189
346;552.7075805664061;566.8937377929688;506.3034973144531;540.2849731445311;513.0178833007811
347;552.221435546875;566.3846435546875;505.8463439941406;539.80810546875;512.5301513671875
348;551.7354125976561;565.8765258789062;505.3904113769531;539.33203125;512.0433349609375
349;551.250732421875;565.3692016601562;504.9346618652344;538.8572998046875;511.5574645996094
350;550.766845703125;564.8634033203125;504.4801940917969;538.3831787109375;511.0724792480469
351;550.2837524414061;564.3578491210938;504.0263671875;537.9100341796875;510.58837890625
352;549.8013305664061;563.8538818359375;503.5728149414063;537.4369506835939;510.1052551269531
353;549.3197631835939;563.3506469726562;503.1198425292969;536.9652709960939;509.6229553222656
354;548.83837890625;562.8477783203125;502.6681213378906;536.4943237304689;509.1410217285156
355;548.3582153320311;562.3463134765625;502.2165222167969;536.0235595703125;508.6605224609375
356;547.8788452148439;561.845703125;501.765625;535.5540771484375;508.1803283691406
357;547.3995971679689;561.3460083007811;501.3159484863281;535.0847778320311;507.700927734375
358;546.9210815429689;560.8464965820311;500.8669738769531;534.6167602539061;507.2224426269531
359;546.4439086914061;560.3483276367189;500.4186096191406;534.1494140625;506.744873046875
360;545.9673461914061;559.8505859375;499.970947265625;533.6823120117189;506.2681579589844
361;545.4915161132811;559.354248046875;499.5234375;533.2164306640625;505.7928161621094
362;545.0164794921875;558.8580932617189;499.07708740234375;532.7514038085939;505.3177795410156
363;544.5420532226561;558.3628540039061;498.6314086914063;532.28662109375;504.8442077636719
364;544.06787109375;557.8683471679689;498.1859436035156;531.822509765625;504.3714294433594
365;543.594970703125;557.3746948242189;497.7415466308594;531.359619140625;503.8995056152344
366;543.1226196289061;556.8823852539061;497.29736328125;530.8968505859375;503.4278564453125
367;542.6510009765625;556.3902587890625;496.8543395996094;530.434814453125;502.95751953125
368;542.1796264648439;555.8989868164061;496.411865234375;529.9739990234375;502.4874572753906
369;541.7088623046875;555.4090576171875;495.9695739746094;529.5137939453125;502.0182189941406
370;541.2392578125;554.9198608398439;495.5278930664063;529.0537719726561;501.5498352050781
371;540.769775390625;554.4309692382811;495.08734130859375;528.5949096679689;501.0822448730469
372;540.3011474609375;553.9427490234375;494.64697265625;528.1368408203125;500.6158752441406
373;539.8335571289061;553.4559326171875;494.2071228027344;527.6793212890625;500.1499328613281
374;539.36669921875;552.9697875976561;493.76800537109375;527.2225341796875;499.6854248046875
375;538.9004516601561;552.4844360351561;493.3298645019531;526.7664184570311;499.2218322753906
376;538.4349365234375;551.9998168945311;492.8924255371094;526.3109741210939;498.7584228515625
377;537.969970703125;551.5154418945311;492.45550537109375;525.8555908203125;498.2958984375
378;537.5052490234375;551.0318603515625;492.0187683105469;525.4013671875;497.833984375
379;537.0415649414061;550.5494384765625;491.58306884765625;524.9478759765625;497.3734130859375
380;536.5785522460939;550.0672607421875;491.14752197265625;524.4945068359375;496.9131164550781
381;536.1161499023439;549.5863647460939;490.7130432128906;524.042236328125;496.4534912109375
382;535.6539306640625;549.1060791015625;490.2791442871094;523.5906982421875;495.9952087402344
383;535.1923217773439;548.6261596679689;489.8458557128906;523.1397094726561;495.537109375
384;534.7318115234375;548.1473999023439;489.41314697265625;522.6888427734375;495.0801696777344
385;534.2719116210939;547.6688232421875;488.9810180664063;522.2386474609375;494.6240234375
386;533.8126220703125;547.1915283203125;488.5491027832031;521.7890014648439;494.1680908203125
387;533.3534545898439;546.7149047851561;488.1181640625;521.3405151367189;493.7128601074219
388;532.8948974609375;546.2384643554689;487.68780517578125;520.8921508789061;493.25830078125
389;532.4369506835939;545.7632446289061;487.2580261230469;520.4443969726561;492.8050231933594
390;531.9796752929689;545.2886962890625;486.8288269042969;519.9976196289061;492.3519592285156
391;531.52294921875;544.8143920898439;486.4001770019531;519.5515747070311;491.8995666503906
392;531.0673828125;544.3411865234375;485.9716796875;519.1055908203125;491.4483642578125
393;530.6123657226561;543.8681640625;485.5436706542969;518.66015625;490.9974670410156
394;530.157958984375;543.3963623046875;485.1162109375;518.2158203125;490.5472412109375
395;529.7040405273439;542.9248046875;484.6897888183594;517.7720336914061;490.0981750488281
396;529.250244140625;542.4537963867189;484.2639465332031;517.3289184570311;489.6497497558594
397;528.797607421875;541.9840087890625;483.8386535644531;516.8858032226561;489.2016296386719
398;528.344970703125;541.514404296875;483.4134216308594;516.443359375;488.7540588378906
399;527.8934936523439;541.0454711914061;482.98876953125;516.0018920898439;488.3072814941406
400;527.4425048828125;540.57763671875;482.5646057128906;515.5606079101561;487.8614807128906
401;526.99169921875;540.1099853515625;482.14105224609375;515.1198120117189;487.416015625
402;526.54150390625;539.6430053710939;481.7184143066406;514.6796264648439;486.9716796875
403;526.0922241210939;539.1766967773439;481.2958984375;514.240478515625;486.5274963378906
404;525.6436157226561;538.7114868164061;480.8739318847656;513.8018188476561;486.083984375
405;525.195068359375;538.2464599609375;480.4529113769531;513.3637084960939;485.6411437988281
406;524.74755859375;537.7820434570311;480.0323791503906;512.9261474609375;485.1993103027344
407;524.3005981445311;537.3187866210939;479.6119689941406;512.4891357421875;484.7577209472656
408;523.853759765625;536.8561401367189;479.1924743652344;512.05224609375;484.3168029785156
409;523.407470703125;536.3941040039061;478.7731018066406;511.6158752441406;483.8769836425781
410;522.9617309570311;535.9322509765625;478.3542175292969;511.1804504394531;483.4373474121094
411;522.5165405273439;535.4714965820311;477.936279296875;510.74560546875;482.9983215332031
412;522.0718994140625;535.0109252929689;477.5188293457031;510.31085205078125;482.5600280761719
413;521.6278076171875;534.5509033203125;477.1015625;509.8766479492188;482.1222229003906
414;521.1846313476561;534.0916137695311;476.6851196289063;509.443359375;481.685546875
415;520.7420654296875;533.6328125;476.2692565917969;509.01068115234375;481.2494812011719
416;520.2999877929689;533.1751708984375;475.85345458984375;508.57843017578125;480.8135681152344
417;519.8580932617189;532.7180786132811;475.4382019042969;508.1463317871094;480.3787841796875
418;519.4170532226561;532.2611083984375;475.0234069824219;507.7151184082031;479.9446716308594
419;518.9765625;531.8052368164061;474.6090698242188;507.2845153808594;479.5111389160156
420;518.5366821289061;531.3499755859375;474.1953125;506.85394287109375;479.0777893066406
421;518.0968017578125;530.8948364257811;473.7820129394531;506.42431640625;478.6451110839844
422;517.657470703125;530.4403076171875;473.3695983886719;505.9947814941406;478.2134094238281
423;517.2191162109375;529.98681640625;472.957275390625;505.5661926269531;477.7823181152344
424;516.7808837890625;529.5333862304689;472.5454406738281;505.13812255859375;477.3518981933594
425;516.3435668945311;529.0806274414061;472.1344909667969;504.7101135253906;476.9216003417969
426;515.9063720703125;528.6283569335939;471.7239685058594;504.2826232910156;476.4923095703125
427;515.4700927734375;528.1767578125;471.3135681152344;503.8556213378906;476.0631408691406
428;515.0343017578125;527.7257690429689;470.9040832519531;503.4294738769531;475.6346740722656
429;514.5990600585939;527.2756958007811;470.49505615234375;503.0034790039063;475.2066955566406
430;514.1642456054689;526.826171875;470.08642578125;502.5783996582031;474.77978515625
431;513.7295532226561;526.3768310546875;469.6783752441406;502.1534118652344;474.3533630371094
432;513.2954711914061;525.9281005859375;469.2707214355469;501.7292785644531;473.9271240234375
433;512.8618774414061;525.4804077148439;468.8635559082031;501.3052062988281;473.5014953613281
434;512.4287719726561;525.0331420898439;468.4568176269531;500.8816833496094;473.0767517089844
435;511.9961242675781;524.5865478515625;468.05023193359375;500.458984375;472.6526794433594
436;511.5639953613281;524.1400756835939;467.6440734863281;500.0368957519531;472.2286682128906
437;511.1328125;523.6944580078125;467.23834228515625;499.61474609375;471.8053283691406
438;510.70166015625;523.2494506835939;466.8335571289063;499.1931457519531;471.3829040527344
439;510.2713928222656;522.8051147460939;466.42919921875;498.77239990234375;470.9606628417969
440;509.84161376953125;522.3607788085939;466.0252380371094;498.351806640625;470.5389709472656
441;509.4119873046875;521.9170532226561;465.6214294433594;497.93170166015625;470.1181945800781
442;508.9827880859375;521.4737548828125;465.2183227539063;497.5123596191406;469.697998046875
443;508.5541687011719;521.0314331054689;464.8154602050781;497.0935363769531;469.2779846191406
444;508.1263427734375;520.58935546875;464.4129333496094;496.67486572265625;468.85888671875
445;507.6989440917969;520.1476440429689;464.0112915039063;496.2569885253906;468.4403076171875
446;507.2720947265625;519.7069702148439;463.6100769042969;495.83917236328125;468.0223083496094
447;506.8453369140625;519.2667846679689;463.2089538574219;495.421875;467.6048583984375
448;506.4190673828125;518.8272094726561;462.8082580566406;495.0050659179688;467.1879577636719
449;505.9931945800781;518.3881225585939;462.4079895019531;494.5890197753906;466.7711486816406
450;505.5678405761719;517.9495239257811;462.008544921875;494.1734924316406;466.3553161621094
451;505.1429443359375;517.511474609375;461.6095886230469;493.7580261230469;465.9397277832031
452;504.7189331054688;517.0735473632811;461.210693359375;493.3434143066406;465.5250549316406
453;504.294921875;516.6361083984375;460.8126525878906;492.9288024902344;465.110595703125
454;503.8717956542969;516.19921875;460.4146118164063;492.51470947265625;464.6966857910156
455;503.4491271972656;515.7632446289061;460.0174865722656;492.10107421875;464.2835998535156
456;503.0264892578125;515.3277587890625;459.6203308105469;491.6882019042969;463.8712158203125
457;502.6043701171875;514.8924560546875;459.2236328125;491.27545166015625;463.4589538574219
458;502.1830749511719;514.4579467773439;458.8274230957031;490.8631896972656;463.0472717285156
459;501.7618408203125;514.0236206054689;458.431640625;490.4516906738281;462.6361083984375
460;501.3414306640625;513.5902099609375;458.03619384765625;490.0403137207031;462.225830078125
461;500.9214782714844;513.1569213867189;457.6413269042969;489.62969970703125;461.8160400390625
462;500.501953125;512.7244873046875;457.2467346191406;489.21917724609375;461.4064636230469
463;500.08251953125;512.2921142578125;456.85302734375;488.8094177246094;460.9974060058594
464;499.6639709472656;511.8606872558594;456.4596862792969;488.3997497558594;460.5892028808594
465;499.24542236328125;511.4294128417969;456.0667419433594;487.9909362792969;460.1811828613281
466;498.8276672363281;510.99853515625;455.67388916015625;487.58251953125;459.7736511230469
467;498.4104309082031;510.568603515625;455.2818298339844;487.1744689941406;459.366943359375
468;497.9932861328125;510.13909912109375;454.8901977539063;486.7666015625;458.9607849121094
469;497.5768737792969;509.7101135253906;454.4985961914063;486.3594055175781;458.5550842285156
470;497.1610107421875;509.2812805175781;454.1077575683594;485.95263671875;458.1495666503906
471;496.7451477050781;508.8528747558594;453.717041015625;485.54638671875;457.7445068359375
472;496.330078125;508.4249572753906;453.32666015625;485.1404724121094;457.3403015136719
473;495.9154357910156;507.9978332519531;452.9371032714844;484.7347106933594;456.9361877441406
474;495.5009460449219;507.5712585449219;452.54791259765625;484.3293762207031;456.5326843261719
475;495.0871887207031;507.1448059082031;452.15911865234375;483.92474365234375;456.1295471191406
476;494.6735229492188;506.71881103515625;451.7707214355469;483.5202331542969;455.7269592285156
477;494.26025390625;506.2932434082031;451.38275146484375;483.1160583496094;455.3251037597656
478;493.84747314453125;505.86822509765625;450.99517822265625;482.71240234375;454.9234924316406
479;493.4354248046875;505.4436340332031;450.6079711914063;482.3091430664063;454.5226135253906
480;493.0238037109375;505.0198059082031;450.2209167480469;481.9062805175781;454.1222229003906
481;492.6125183105469;504.59613037109375;449.834228515625;481.5038146972656;453.7223205566406
482;492.2014465332031;504.17291259765625;449.4479675292969;481.1021118164063;453.3229064941406
483;491.7907409667969;503.7502136230469;449.06201171875;480.7008361816406;452.9239807128906
484;491.3804931640625;503.3282165527344;448.67681884765625;480.2995910644531;452.5252380371094
485;490.9709777832031;502.90673828125;448.29205322265625;479.8987731933594;452.127197265625
486;490.5618896484375;502.4853820800781;447.90765380859375;479.4983825683594;451.7296447753906
487;490.1528625488281;502.0647888183594;447.5233459472656;479.09869384765625;451.332275390625
488;489.7445983886719;501.6443786621094;447.1398010253906;478.69915771484375;450.9356994628906
489;489.3367004394531;501.2243957519531;446.7565002441406;478.30023193359375;450.5391845703125
490;488.92919921875;500.80511474609375;446.37335205078125;477.9015197753906;450.1430969238281
491;488.5221862792969;500.3863220214844;445.9906311035156;477.50341796875;449.74755859375
492;488.11553955078125;499.9680480957031;445.60833740234375;477.1057434082031;449.3523864746094
493;487.7093505859375;499.5498046875;445.2263488769531;476.7081604003906;448.9576721191406
494;487.3031921386719;499.1320495605469;444.8447570800781;476.311279296875;448.5633850097656
495;486.8974609375;498.7149963378906;444.4638671875;475.9147644042969;448.1698913574219
496;486.4924621582031;498.2981872558594;444.08306884765625;475.518310546875;447.7764892578125
497;486.0878601074219;497.8820495605469;443.70263671875;475.1222839355469;447.3838806152344
498;485.68359375;497.4660339355469;443.3225402832031;474.72698974609375;446.9913635253906
499;485.2795104980469;497.0505065917969;442.9429321289063;474.3317260742188;446.5992431640625
500;484.8761596679688;496.63568115234375;442.5636291503906;473.9371948242188;446.2078857421875
501;484.4727478027344;496.2209777832031;442.1850280761719;473.542724609375;445.8170166015625
502;484.0699157714844;495.8069763183594;441.8067932128906;473.1485900878906;445.4264831542969
503;483.6677551269531;495.3932189941406;441.4286193847656;472.7549133300781;445.0361328125
504;483.26593017578125;494.97979736328125;441.0511169433594;472.3616027832031;444.646484375
505;482.8642578125;494.56683349609375;440.6736755371094;471.96868896484375;444.2569274902344
506;482.4632568359375;494.1545715332031;440.2967224121094;471.5764465332031;443.8678283691406
507;482.0626831054688;493.7428283691406;439.9200134277344;471.1845703125;443.4794921875
508;481.662109375;493.33148193359375;439.5440979003906;470.7927551269531;443.091552734375
509;481.2622985839844;492.9204711914063;439.1684265136719;470.40142822265625;442.7037048339844
510;480.8628234863281;492.5096130371094;438.7931823730469;470.0104064941406;442.316650390625
511;480.4637451171875;492.0994567871094;438.41796875;469.6197204589844;441.9296875
512;480.0648498535156;491.6897888183594;438.04345703125;469.2297668457031;441.54345703125
513;479.6662292480469;491.2802734375;437.6690979003906;468.8401184082031;441.1573486328125
514;479.26806640625;490.87109375;437.2953186035156;468.45068359375;440.7716369628906
515;478.8703002929688;490.462646484375;436.9216003417969;468.0614929199219;440.3863525390625
516;478.4731750488281;490.05462646484375;436.54827880859375;467.6727600097656;440.00146484375
517;478.0761413574219;489.6467590332031;436.1753540039063;467.28466796875;439.6170349121094
518;477.6798095703125;489.2392578125;435.8027648925781;466.8966369628906;439.2332458496094
519;477.2838134765625;488.8324890136719;435.4308166503906;466.5093078613281;438.849609375
520;476.8882751464844;488.4258117675781;435.0592346191406;466.1220397949219;438.4666748046875
521;476.4930419921875;488.01959228515625;434.6877136230469;465.7351379394531;438.0838317871094
522;476.0979309082031;487.614013671875;434.3165588378906;465.3489074707031;437.7014465332031
523;475.7033996582031;487.2085571289063;433.9460144042969;464.9627380371094;437.3196716308594
524;475.3092956542969;486.8035583496094;433.5758361816406;464.5772399902344;436.9381103515625
525;474.9155578613281;486.3989868164063;433.2060241699219;464.1920776367188;436.556884765625
526;474.52197265625;485.9950256347656;432.8364868164063;463.8073120117188;436.1763610839844
527;474.1286926269531;485.5915222167969;432.4674377441406;463.4225769042969;435.7962646484375
528;473.7358093261719;485.1881408691406;432.0986328125;463.0382385253906;435.41650390625
529;473.34356689453125;484.78509521484375;431.72998046875;462.6542663574219;435.0369567871094
530;472.9516296386719;484.3824768066406;431.3619079589844;462.27093505859375;434.65771484375
531;472.55987548828125;483.9802551269531;430.99420166015625;461.8879699707031;434.2789001464844
532;472.1686706542969;483.57843017578125;430.6268615722656;461.50537109375;433.9007263183594
533;471.7779235839844;483.1770324707031;430.25958251953125;461.12286376953125;433.522705078125
534;471.3874206542969;482.7763366699219;429.89263916015625;460.74072265625;433.1451110839844
535;470.9974365234375;482.3759765625;429.5260925292969;460.35888671875;432.7680969238281
536;470.60772705078125;481.97607421875;429.16009521484375;459.97747802734375;432.3912658691406
537;470.2183532714844;481.5765075683594;428.7944946289063;459.5963439941406;432.0150451660156
538;469.8293151855469;481.1773986816406;428.4289245605469;459.2159729003906;431.6392822265625
539;469.44073486328125;480.77862548828125;428.06396484375;458.8355407714844;431.2636413574219
540;469.05224609375;480.37994384765625;427.69915771484375;458.4557800292969;430.8885803222656
541;468.6639709472656;479.98193359375;427.3346252441406;458.0761413574219;430.513916015625
542;468.2764587402344;479.5841369628906;426.970703125;457.6971130371094;430.1394348144531
543;467.8890380859375;479.1868591308594;426.6071472167969;457.3183898925781;429.7655334472656
544;467.5021667480469;478.7900085449219;426.243896484375;456.9400024414063;429.391845703125
545;467.1153564453125;478.3935546875;425.8810119628906;456.56201171875;429.0187072753906
546;466.7289733886719;477.9972839355469;425.5181579589844;456.1843566894531;428.64599609375
547;466.3428955078125;477.6012878417969;425.15576171875;455.80706787109375;428.2733459472656
548;465.9574890136719;477.20599365234375;424.7937927246094;455.4300842285156;427.901123046875
549;465.5721740722656;476.81103515625;424.4322814941406;455.0534362792969;427.529296875
550;465.1873779296875;476.416259765625;424.07080078125;454.6769104003906;427.1580810546875
551;464.8027648925781;476.0221252441406;423.709716796875;454.3009948730469;426.7872314453125
552;464.4184875488281;475.6280822753906;423.3489685058594;453.92510986328125;426.4168395996094
553;464.0347595214844;475.2343444824219;422.98876953125;453.5496520996094;426.0464782714844
554;463.6513977050781;474.8410339355469;422.62896728515625;453.1744689941406;425.6767272949219
555;463.2681884765625;474.44818115234375;422.2694396972656;452.79986572265625;425.3071594238281
556;462.8854675292969;474.0559387207031;421.91021728515625;452.4256286621094;424.9379577636719
557;462.5029296875;473.66412353515625;421.5511169433594;452.051513671875;424.569091796875
558;462.1207275390625;473.2726135253906;421.19232177734375;451.677978515625;424.2005920410156
559;461.7388610839844;472.8811950683594;420.8341369628906;451.30450439453125;423.83251953125
560;461.3576049804688;472.490234375;420.4762878417969;450.931396484375;423.4649658203125
561;460.9766845703125;472.0998229980469;420.1186828613281;450.55859375;423.0978698730469
562;460.5957946777344;471.7095336914063;419.76123046875;450.1863708496094;422.7311096191406
563;460.2153625488281;471.3199768066406;419.4040832519531;449.8143005371094;422.3644714355469
564;459.83544921875;470.9306640625;419.04730224609375;449.4425354003906;421.9984130859375
565;459.4555969238281;470.54150390625;418.6907653808594;449.0710144042969;421.6324768066406
566;459.0763854980469;470.1529846191406;418.3346557617188;448.7001647949219;421.2669372558594
567;458.6972351074219;469.7648010253906;417.9790344238281;448.3296203613281;420.9019470214844
568;458.31866455078125;469.376953125;417.6237182617188;447.9591369628906;420.537109375
569;457.9402160644531;468.9892578125;417.2685546875;447.58929443359375;420.1726379394531
570;457.5622863769531;468.6021118164063;416.9136352539063;447.2196960449219;419.8087158203125
571;457.1845397949219;468.2153930664063;416.5592956542969;446.8504333496094;419.4449462890625
572;456.8073120117188;467.8287658691406;416.205078125;446.48150634765625;419.0815124511719
573;456.4303894042969;467.4425354003906;415.8511352539063;446.1129455566406;418.7184143066406
574;456.0535888671875;467.0566101074219;415.49755859375;445.7444152832031;418.3559875488281
575;455.6773681640625;466.6710510253906;415.144287109375;445.3762512207031;417.9935607910156
576;455.3014831542969;466.2860412597656;414.7912902832031;445.0083618164063;417.6317443847656
577;454.9259033203125;465.9012145996094;414.4386596679688;444.64111328125;417.2701416015625
578;454.5506896972656;465.5169372558594;414.0862731933594;444.2741088867188;416.9090576171875
579;454.1757507324219;465.1327819824219;413.7345275878906;443.9074096679688;416.5480651855469
580;453.8011474609375;464.7492370605469;413.3828125;443.5408630371094;416.1874084472656
581;453.4267272949219;464.36602783203125;413.0314025878906;443.1745910644531;415.8271484375
582;453.0527648925781;463.9831848144531;412.6803283691406;442.80889892578125;415.4674377441406
583;452.6789855957031;463.60064697265625;412.32952880859375;442.4435119628906;415.1081237792969
584;452.3056640625;463.2184753417969;411.9790649414063;442.0782775878906;414.7488708496094
585;451.9324951171875;462.83642578125;411.62890625;441.7134704589844;414.3899230957031
586;451.55987548828125;462.4547729492188;411.2790832519531;441.3488159179688;414.0316162109375
587;451.18731689453125;462.0733947753906;410.9295349121094;440.98443603515625;413.6735534667969
588;450.8153381347656;461.6925964355469;410.5805358886719;440.6203918457031;413.31591796875
589;450.44366455078125;461.31195068359375;410.2316589355469;440.2566833496094;412.9586486816406
590;450.0722961425781;460.93157958984375;409.88323974609375;439.8932800292969;412.6016540527344
591;449.7013549804688;460.5518493652344;409.5349426269531;439.5302429199219;412.2450256347656
592;449.33056640625;460.1725158691406;409.1871643066406;439.1676940917969;411.8885192871094
593;448.9601745605469;459.79339599609375;408.8394470214844;438.8054504394531;411.5323181152344
594;448.5899353027344;459.4147033691406;408.4920349121094;438.44329833984375;411.176513671875
595;448.22021484375;459.0361022949219;408.14495849609375;438.08148193359375;410.8211975097656
596;447.8507690429688;458.6578063964844;407.7981872558594;437.72021484375;410.4662780761719
597;447.4814453125;458.2798461914063;407.4517211914063;437.35919189453125;410.1114807128906
598;447.1126708984375;457.90228271484375;407.10552978515625;436.9983215332031;409.7571716308594
599;446.74395751953125;457.5250549316406;406.75970458984375;436.6379699707031;409.4032287597656
600;446.37579345703125;457.1482849121094;406.4143371582031;436.2779235839844;409.0496520996094
601;446.0077209472656;456.7720031738281;406.06927490234375;435.91796875;408.6961364746094
602;445.63995361328125;456.3957214355469;405.7243041992188;435.5583190917969;408.34326171875
603;445.2727355957031;456.0200805664063;405.379638671875;435.19921875;407.9906311035156
604;444.9057922363281;455.6447143554688;405.03546142578125;434.8403930664063;407.63818359375
605;444.5389404296875;455.2696838378906;404.691650390625;434.48187255859375;407.2862854003906
606;444.1727294921875;454.8949890136719;404.3478698730469;434.1236877441406;406.9346923828125
607;443.8067626953125;454.5206604003906;404.0044555664063;433.7658386230469;406.5834655761719
608;443.4408264160156;454.1466674804688;403.6612854003906;433.40802001953125;406.2325134277344
609;443.07550048828125;453.7730102539063;403.3186340332031;433.0505065917969;405.8818664550781
610;442.7104797363281;453.3993835449219;402.9762878417969;432.6935119628906;405.5315856933594
611;442.3454895019531;453.026123046875;402.63421630859375;432.3366394042969;405.1814270019531
612;441.9809875488281;452.6531677246094;402.2922668457031;431.9801940917969;404.8315734863281
613;441.61669921875;452.2808227539063;401.9508361816406;431.6238708496094;404.4820556640625
614;441.2528991699219;451.9088439941406;401.6094665527344;431.2681274414063;404.1330871582031
615;440.8893432617188;451.5370788574219;401.2684020996094;430.91241455078125;403.7844543457031
616;440.52618408203125;451.1656799316406;400.9277648925781;430.5570373535156;403.4359130859375
617;440.1632690429688;450.7946166992188;400.5875549316406;430.201904296875;403.087890625
618;439.8005065917969;450.423828125;400.2475280761719;429.8473205566406;402.740234375
619;439.4382019042969;450.0534362792969;399.90765380859375;429.4930114746094;402.392822265625
620;439.0762634277344;449.683349609375;399.5682067871094;429.1390075683594;402.0458068847656
621;438.7142639160156;449.31353759765625;399.2290954589844;428.7853088378906;401.6988830566406
622;438.3529357910156;448.9439086914063;398.8902893066406;428.43170166015625;401.3524169921875
623;437.9918823242188;448.5747680664063;398.5515441894531;428.07861328125;401.00634765625
624;437.6308288574219;448.2057800292969;398.21331787109375;427.7257385253906;400.660400390625
625;437.2703857421875;447.8372497558594;397.8753356933594;427.373046875;400.31494140625
626;436.90997314453125;447.4689636230469;397.5374450683594;427.02081298828125;399.9695739746094
627;436.5498962402344;447.10107421875;397.1999206542969;426.6686706542969;399.62451171875
628;436.1901245117188;446.7335815429688;396.86260986328125;426.31683349609375;399.280029296875
629;435.8308410644531;446.3664245605469;396.52581787109375;425.96527099609375;398.935791015625
630;435.4715881347656;445.999267578125;396.18927001953125;425.6139831542969;398.5916748046875
631;435.1129150390625;445.6324768066406;395.85284423828125;425.26300048828125;398.2481384277344
632;434.7545166015625;445.2660217285156;395.5167541503906;424.91253662109375;397.9046325683594
633;434.3964538574219;444.89990234375;395.1808776855469;424.5622253417969;397.5614929199219
634;434.0386657714844;444.5340881347656;394.8454895019531;424.2123107910156;397.2188415527344
635;433.6811218261719;444.1687316894531;394.5104064941406;423.8626403808594;396.8763122558594
636;433.3239440917969;443.80377197265625;394.1755676269531;423.5133361816406;396.5340881347656
637;432.9670715332031;443.43890380859375;393.8410339355469;423.1640625;396.1923828125
638;432.6103820800781;443.0744018554688;393.50677490234375;422.8151550292969;395.8509826660156
639;432.2541198730469;442.7102966308594;393.1726379394531;422.4665222167969;395.509765625
640;431.8980712890625;442.3464660644531;392.83868408203125;422.1183471679688;395.1688537597656
641;431.5423889160156;441.9828796386719;392.505126953125;421.77044677734375;394.8282165527344
642;431.1869812011719;441.61956787109375;392.1718444824219;421.4228515625;394.4879455566406
643;430.8318176269531;441.2566223144531;391.8388366699219;421.0753479003906;394.14794921875
644;430.4769592285156;440.89398193359375;391.5060729980469;420.7283020019531;393.8084411621094
645;430.1224365234375;440.53167724609375;391.173583984375;420.38134765625;393.46923828125
646;429.7679443359375;440.1696472167969;390.8413696289063;420.0346984863281;393.130126953125
647;429.4137878417969;439.8079528808594;390.5094909667969;419.68853759765625;392.7913513183594
648;429.05987548828125;439.446533203125;390.1780090332031;419.3424987792969;392.452880859375
649;428.7065124511719;439.0856628417969;389.8468627929688;418.9968566894531;392.1148681640625
650;428.3533935546875;438.72509765625;389.5159606933594;418.65130615234375;391.7771911621094
651;428.0005798339844;438.3648071289063;389.1851501464844;418.30609130859375;391.4398193359375
652;427.6478576660156;438.0046691894531;388.8548278808594;417.9612731933594;391.102783203125
653;427.2956237792969;437.64501953125;388.5246276855469;417.61663818359375;390.7657775878906
654;426.9436340332031;437.28546142578125;388.1947937011719;417.272216796875;390.4291687011719
655;426.5919799804688;436.9264221191406;387.8650817871094;416.9282836914063;390.0929870605469
656;426.2406005859375;436.56744384765625;387.53564453125;416.5846252441406;389.7569274902344
657;425.88946533203125;436.2088317871094;387.2065124511719;416.24102783203125;389.4212951660156
658;425.5385437011719;435.85052490234375;386.8776245117188;415.8980102539063;389.0860900878906
659;425.1877746582031;435.49267578125;386.5490417480469;415.5551452636719;388.7510986328125
660;424.8375244140625;435.1349487304688;386.2208557128906;415.2124633789063;388.4164123535156
661;424.4873352050781;434.7775268554688;385.89300537109375;414.8699645996094;388.0820007324219
662;424.1376953125;434.4205627441406;385.5652160644531;414.5279846191406;387.7478942871094
663;423.7882995605469;434.0639343261719;385.23773193359375;414.1860961914063;387.4140625
664;423.4391784667969;433.7075805664063;384.9106750488281;413.8444519042969;387.0804443359375
665;423.0903625488281;433.351318359375;384.58392333984375;413.5031433105469;386.7470397949219
666;422.7415771484375;432.9954528808594;384.2571716308594;413.1622009277344;386.4140930175781
667;422.3933410644531;432.63995361328125;383.9309387207031;412.8214721679688;386.0814514160156
668;422.0453796386719;432.2846374511719;383.60479736328125;412.4811401367188;385.7491149902344
669;421.6974487304688;431.9298400878906;383.2789001464844;412.140869140625;385.4168395996094
670;421.3498229980469;431.5750427246094;382.95343017578125;411.801025390625;385.0848693847656
671;421.0026550292969;431.22064208984375;382.6282653808594;411.4615783691406;384.7532958984375
672;420.6557922363281;430.86663818359375;382.3031921386719;411.1222839355469;384.422119140625
673;420.3092651367188;430.5129699707031;381.97845458984375;410.7833557128906;384.091064453125
674;419.962890625;430.15960693359375;381.6540222167969;410.4444274902344;383.7602844238281
675;419.6168212890625;429.8064880371094;381.3298034667969;410.1058044433594;383.429931640625
676;419.2711181640625;429.4537658691406;381.00592041015625;409.76751708984375;383.0997314453125
677;418.92559814453125;429.10107421875;380.6823425292969;409.4295959472656;382.7698669433594
678;418.5802612304688;428.7486877441406;380.35888671875;409.0919799804688;382.440185546875
679;418.2351379394531;428.3966369628906;380.035888671875;408.7544555664063;382.11083984375
680;417.8902587890625;428.0448303222656;379.712890625;408.41729736328125;381.7819519042969
681;417.54571533203125;427.69329833984375;379.3904113769531;408.08050537109375;381.4531555175781
682;417.2013854980469;427.34222412109375;379.06817626953125;407.7438049316406;381.1248474121094
683;416.8576049804688;426.9915466308594;378.74603271484375;407.4075012207031;380.7967834472656
684;416.5140686035156;426.6408996582031;378.42431640625;407.0712890625;380.4689025878906
685;416.1705932617188;426.2907409667969;378.1026916503906;406.7353515625;380.1412353515625
686;415.8273620605469;425.94085693359375;377.78131103515625;406.3997497558594;379.8138732910156
687;415.4845886230469;425.5910949707031;377.4602355957031;406.06451416015625;379.4869689941406
688;415.1419982910156;425.24163818359375;377.13958740234375;405.72955322265625;379.1603698730469
689;414.7995910644531;424.8926086425781;376.8190307617188;405.3948669433594;378.833984375
690;414.45751953125;424.5438537597656;376.4988708496094;405.06048583984375;378.5079345703125
691;414.1159057617188;424.19537353515625;376.178955078125;404.726318359375;378.1820373535156
692;413.77423095703125;423.8470764160156;375.859375;404.3924255371094;377.8564758300781
693;413.4331359863281;423.4992370605469;375.5398254394531;404.0588073730469;377.53125
694;413.09210205078125;423.1515808105469;375.2207336425781;403.7252807617188;377.2063293457031
695;412.7515563964844;422.8042907714844;374.9017028808594;403.3921508789063;376.8815002441406
696;412.4112548828125;422.4570617675781;374.5830993652344;403.0591430664063;376.5570983886719
697;412.0711975097656;422.1103515625;374.2648010253906;402.7265625;376.2328186035156
698;411.73126220703125;421.7638854980469;373.94671630859375;402.3941040039063;375.9090270996094
699;411.3917236328125;421.4176940917969;373.62872314453125;402.0619201660156;375.5852966308594
700;411.0523376464844;421.07159423828125;373.31103515625;401.72991943359375;375.2619934082031
701;410.71337890625;420.725830078125;372.99359130859375;401.3984069824219;374.93896484375
702;410.3746948242188;420.38031005859375;372.6765441894531;401.0671691894531;374.6160888671875
703;410.0362243652344;420.0352478027344;372.35980224609375;400.7361755371094;374.2936096191406
704;409.6981201171875;419.6903381347656;372.04327392578125;400.40521240234375;373.9714660644531
705;409.3600463867188;419.3456726074219;371.72698974609375;400.0746154785156;373.6495666503906
706;409.0221862792969;419.00140380859375;371.41094970703125;399.74420166015625;373.3279113769531
707;408.6848449707031;418.657470703125;371.09521484375;399.4142150878906;373.006591796875
708;408.3476257324219;418.3137512207031;370.7795715332031;399.0845336914063;372.6853332519531
709;408.0106201171875;417.9702453613281;370.4642028808594;398.7550964355469;372.3644104003906
710;407.673828125;417.6271057128906;370.1490173339844;398.4258728027344;372.0438537597656
711;407.3375854492188;417.28411865234375;369.8341674804688;398.0967712402344;371.7234191894531
712;407.0013427734375;416.9413757324219;369.51953125;397.7680969238281;371.4032287597656
713;406.6655578613281;416.5989074707031;369.2052917480469;397.43951416015625;371.0835876464844
714;406.32989501953125;416.2569274902344;368.891357421875;397.1112365722656;370.7639465332031
715;405.99444580078125;415.9150085449219;368.57745361328125;396.7832946777344;370.44482421875
716;405.6594543457031;415.57354736328125;368.2638549804688;396.45550537109375;370.1258850097656
717;405.3247985839844;415.2322082519531;367.9506530761719;396.1280822753906;369.8072509765625
718;404.990234375;414.8911743164063;367.6376953125;395.8009948730469;369.4888916015625
719;404.6558837890625;414.550537109375;367.3249816894531;395.47393798828125;369.170654296875
720;404.3218994140625;414.21002197265625;367.0124206542969;395.1473083496094;368.8526916503906
721;403.9882507324219;413.8699645996094;366.7001953125;394.82080078125;368.5350036621094
722;403.6546936035156;413.5299987792969;366.3882141113281;394.4945373535156;368.2176818847656
723;403.3213195800781;413.19036865234375;366.0765075683594;394.1684875488281;367.9005432128906
724;402.98828125;412.8509216308594;365.76507568359375;393.8429260253906;367.5837707519531
725;402.6556701660156;412.5119323730469;365.4538269042969;393.5175476074219;367.2672424316406
726;402.3232727050781;412.1730651855469;365.1429138183594;393.1923828125;366.950927734375
727;401.9911804199219;411.8344421386719;364.8321838378906;392.8675842285156;366.6349182128906
728;401.6593017578125;411.4963073730469;364.5215759277344;392.5428161621094;366.3193054199219
729;401.3276062011719;411.1582336425781;364.2113952636719;392.2183227539063;366.0038146972656
730;400.99609375;410.8204650878906;363.90142822265625;391.8940734863281;365.6885681152344
731;400.66485595703125;410.4831237792969;363.5915832519531;391.570068359375;365.3736572265625
732;400.3340148925781;410.1458435058594;363.2820739746094;391.2464904785156;365.0589294433594
733;400.00341796875;409.8088684082031;362.9727478027344;390.92315673828125;364.744384765625
734;399.6729431152344;409.4723815917969;362.6637878417969;390.6000671386719;364.4302978515625
735;399.3428649902344;409.13604736328125;362.3549499511719;390.2771911621094;364.1163330078125
736;399.0130615234375;408.800048828125;362.0462951660156;389.95458984375;363.8026123046875
737;398.6834716796875;408.4640808105469;361.7379455566406;389.63226318359375;363.4892883300781
738;398.3542175292969;408.1286926269531;361.4297790527344;389.3101196289063;363.1762390136719
739;398.0249938964844;407.7933044433594;361.1220703125;388.98828125;362.8634338378906
740;397.6961975097656;407.4583435058594;360.8145446777344;388.6665344238281;362.5509338378906
741;397.3675537109375;407.1237182617188;360.5071716308594;388.3451843261719;362.238525390625
742;397.0390625;406.78912353515625;360.1999816894531;388.0240783691406;361.9264221191406
743;396.7109069824219;406.45501708984375;359.8932800292969;387.7030944824219;361.6146240234375
744;396.3831787109375;406.12109375;359.5866394042969;387.3823547363281;361.3030090332031
745;396.05548095703125;405.78753662109375;359.2801818847656;387.0618591308594;360.9917907714844
746;395.7282104492188;405.4540100097656;358.97412109375;386.7417297363281;360.6807861328125
747;395.40118408203125;405.1207580566406;358.6683044433594;386.4217224121094;360.3701171875
748;395.0744018554688;404.7879333496094;358.36279296875;386.10198974609375;360.0596618652344
749;394.74786376953125;404.4553527832031;358.0573425292969;385.78253173828125;359.7494201660156
750;394.4216003417969;404.123046875;357.7522888183594;385.4634399414063;359.4393615722656
751;394.0954284667969;403.791015625;357.4474792480469;385.1443786621094;359.1295471191406
752;393.7696533203125;403.4591369628906;357.14288330078125;384.82562255859375;358.8199768066406
753;393.44415283203125;403.1275939941406;356.83837890625;384.5071716308594;358.5107116699219
754;393.1187744140625;402.79632568359375;356.5342712402344;384.1891174316406;358.20166015625
755;392.7938232421875;402.46514892578125;356.23040771484375;383.8711853027344;357.8929748535156
756;392.4690246582031;402.13427734375;355.9267883300781;383.5534973144531;357.5845642089844
757;392.14434814453125;401.80377197265625;355.6232604980469;383.2360534667969;357.2764892578125
758;391.8199157714844;401.4734191894531;355.32000732421875;382.9189147949219;356.9684143066406
759;391.4958801269531;401.14349365234375;355.0169372558594;382.60198974609375;356.66064453125
760;391.1719055175781;400.8137512207031;354.71417236328125;382.2852478027344;356.3531799316406
761;390.8484191894531;400.4842834472656;354.4115905761719;381.96868896484375;356.0458984375
762;390.5249938964844;400.1549377441406;354.1092224121094;381.65234375;355.739013671875
763;390.2017822265625;399.8260192871094;353.80712890625;381.33624267578125;355.4322509765625
764;389.8788146972656;399.4971618652344;353.50531005859375;381.0203552246094;355.1259765625
765;389.5562744140625;399.1687316894531;353.2038269042969;380.7047729492188;354.8197021484375
766;389.2339172363281;398.8404846191406;352.9024353027344;380.3893737792969;354.5138244628906
767;388.9118957519531;398.5124206542969;352.6014099121094;380.07421875;354.208251953125
768;388.5900573730469;398.1847229003906;352.3006896972656;379.7593383789063;353.9029235839844
769;388.26837158203125;397.8572082519531;352.0000915527344;379.44482421875;353.5978088378906
770;387.9470520019531;397.530029296875;351.6996765136719;379.1304016113281;353.29296875
771;387.6259460449219;397.203125;351.3996276855469;378.8163146972656;352.9882507324219
772;387.3049621582031;396.8764953613281;351.09979248046875;378.5025024414063;352.6839294433594
773;386.98419189453125;396.5499877929688;350.8002014160156;378.1888122558594;352.3798828125
774;386.6636962890625;396.2238464355469;350.5007019042969;377.8753356933594;352.0760192871094
775;386.3434753417969;395.89794921875;350.2014465332031;377.5621032714844;351.7723083496094
776;386.0236206054688;395.57232666015625;349.90240478515625;377.2491760253906;351.4688415527344
777;385.7038269042969;395.2469177246094;349.6037292480469;376.9365234375;351.1655578613281
778;385.3843994140625;394.92181396484375;349.30517578125;376.62408447265625;350.8625793457031
779;385.0653076171875;394.5969543457031;349.0068359375;376.31201171875;350.5600280761719
780;384.7462768554688;394.27227783203125;348.70892333984375;375.99993896484375;350.257568359375
781;384.4276428222656;393.9479370117188;348.41107177734375;375.6881408691406;349.9554748535156
782;384.1090698242188;393.6236877441406;348.1135559082031;375.3765258789063;349.6534729003906
783;383.7908935546875;393.2998046875;347.8161926269531;375.06524658203125;349.3518981933594
784;383.4729309082031;392.9761657714844;347.5191345214844;374.754150390625;349.0505065917969
785;383.1551513671875;392.65283203125;347.22235107421875;374.4433898925781;348.7494201660156
786;382.8374938964844;392.32952880859375;346.92572021484375;374.1328125;348.4485778808594
787;382.5202331542969;392.00665283203125;346.62921142578125;373.8225402832031;348.14794921875
788;382.2033081054688;391.6838684082031;346.3329772949219;373.5123901367188;347.8474426269531
789;381.8864135742188;391.3613586425781;346.0369567871094;373.2024230957031;347.5472717285156
790;381.5697937011719;391.0391540527344;345.7412109375;372.8929138183594;347.2474365234375
791;381.25341796875;390.7173461914063;345.44580078125;372.58349609375;346.94775390625
792;380.9373779296875;390.3956909179688;345.15045166015625;372.2742614746094;346.6482849121094
793;380.6216125488281;390.07427978515625;344.8554992675781;371.9653930664063;346.34912109375
794;380.3060607910156;389.75299072265625;344.5608215332031;371.6567993164063;346.05029296875
795;379.9907531738281;389.43194580078125;344.2663269042969;371.3483276367188;345.75146484375
796;379.6755065917969;389.1111755371094;343.9719543457031;371.0400085449219;345.4529724121094
797;379.36065673828125;388.7905883789063;343.67791748046875;370.7320861816406;345.15478515625
798;379.0460815429688;388.470458984375;343.38397216796875;370.4243774414063;344.8569030761719
799;378.7317199707031;388.1505432128906;343.0903015136719;370.1167907714844;344.5592041015625
800;378.4176025390625;387.8307189941406;342.79681396484375;369.8095703125;344.2616882324219
801;378.1035461425781;387.51116943359375;342.5035705566406;369.5024719238281;343.9644775390625
802;377.7898254394531;387.1919555664063;342.2106628417969;369.1955871582031;343.6675109863281
803;377.4762573242188;386.8728332519531;341.91790771484375;368.888916015625;343.3708190917969
804;377.1629638671875;386.5540466308594;341.6253356933594;368.5825805664063;343.07421875
805;376.8498840332031;386.2355651855469;341.3331604003906;368.2763977050781;342.77783203125
806;376.5370178222656;385.9172668457031;341.041015625;367.970458984375;342.4817810058594
807;376.2245788574219;385.5992736816406;340.749267578125;367.6647033691406;342.1858825683594
808;375.9122924804688;385.2815246582031;340.457763671875;367.35931396484375;341.890380859375
809;375.6003112792969;384.9640502929688;340.16644287109375;367.05419921875;341.5951232910156
810;375.2883605957031;384.6467590332031;339.8753356933594;366.7492370605469;341.2999267578125
811;374.9768371582031;384.3296508789063;339.58447265625;366.4444885253906;341.0050354003906
812;374.6654052734375;384.0128784179688;339.29388427734375;366.1399841308594;340.7103576660156
813;374.3541870117188;383.6962585449219;339.00347900390625;365.8357238769531;340.4159240722656
814;374.0432434082031;383.3798522949219;338.7132263183594;365.53155517578125;340.1218566894531
815;373.7326049804688;383.0636901855469;338.4231872558594;365.2276916503906;339.8280029296875
816;373.4222717285156;382.74786376953125;338.13336181640625;364.9240417480469;339.5342712402344
817;373.1119995117188;382.4321899414063;337.84381103515625;364.6205749511719;339.2408142089844
818;372.8019409179688;382.1167602539063;337.5544738769531;364.3173522949219;338.9475402832031
819;372.4921569824219;381.80169677734375;337.265380859375;364.01446533203125;338.6546630859375
820;372.1825866699219;381.4868469238281;336.9764099121094;363.71185302734375;338.36187744140625
821;371.87335205078125;381.1722106933594;336.6878356933594;363.40924072265625;338.0693664550781
822;371.5643310546875;380.8578796386719;336.39935302734375;363.1071166992188;337.777099609375
823;371.2556457519531;380.5437316894531;336.1111755371094;362.80511474609375;337.485107421875
824;370.9469604492188;380.2298278808594;335.8232421875;362.50335693359375;337.1933898925781
825;370.6385803222656;379.9162292480469;335.5354309082031;362.2018737792969;336.9019470214844
826;370.3304748535156;379.6026916503906;335.247802734375;361.90045166015625;336.610595703125
827;370.02252197265625;379.2893981933594;334.96051025390625;361.5993957519531;336.3196105957031
828;369.7149353027344;378.9764709472656;334.6734924316406;361.2985534667969;336.0287170410156
829;369.4074096679688;378.6637268066406;334.3866271972656;360.99786376953125;335.7381286621094
830;369.1002807617188;378.3511352539063;334.09991455078125;360.697509765625;335.4478454589844
831;368.7932434082031;378.038818359375;333.81341552734375;360.3973083496094;335.1578063964844
832;368.4863586425781;377.7267761230469;333.527099609375;360.0972595214844;334.86798095703125
833;368.1799621582031;377.4150390625;333.24102783203125;359.7975769042969;334.5782165527344
834;367.8737182617188;377.1034851074219;332.9553527832031;359.4979553222656;334.28887939453125
835;367.5677185058594;376.7922668457031;332.6698303222656;359.19854736328125;333.9996032714844
836;367.2618103027344;376.4811096191406;332.3844299316406;358.89947509765625;333.710693359375
837;366.9560852050781;376.1701354980469;332.099365234375;358.6005554199219;333.4220275878906
838;366.6506652832031;375.8595275878906;331.81451416015625;358.3019714355469;333.1335754394531
839;366.3455810546875;375.549072265625;331.52978515625;358.0035705566406;332.8452453613281
840;366.0406494140625;375.2388305664063;331.2453918457031;357.70538330078125;332.5571594238281
841;365.7360229492188;374.9289855957031;330.9610900878906;357.4073791503906;332.2693786621094
842;365.43157958984375;374.6193237304688;330.6769714355469;357.1095275878906;331.9817199707031
843;365.12738037109375;374.3098449707031;330.39312744140625;356.81201171875;331.6944885253906
844;364.8233947753906;374.0005798339844;330.1094665527344;356.5146484375;331.4072570800781
845;364.5195617675781;373.691650390625;329.8260803222656;356.21759033203125;331.1204528808594
846;364.21588134765625;373.3828125;329.54296875;355.9206237792969;330.8337097167969
847;363.9125671386719;373.0743713378906;329.2599792480469;355.6240234375;330.5472412109375
848;363.6094970703125;372.7660827636719;328.9773254394531;355.3275451660156;330.2610778808594
849;363.306640625;372.4580383300781;328.69476318359375;355.03125;329.97503662109375
850;363.00390625;372.150146484375;328.41253662109375;354.73529052734375;329.689208984375
851;362.701416015625;371.8425598144531;328.13055419921875;354.43951416015625;329.4036865234375
852;362.3991088867188;371.53515625;327.8486328125;354.14404296875;329.1183166503906
853;362.0971374511719;371.2280883789063;327.5669250488281;353.8487243652344;328.8332824707031
854;361.7952575683594;370.9211120605469;327.28558349609375;353.5535583496094;328.5484313964844
855;361.49365234375;370.61431884765625;327.0044250488281;353.2586364746094;328.2638854980469
856;361.1922302246094;370.3078308105469;326.72344970703125;352.9640197753906;327.9794006347656
857;360.8910217285156;370.0015258789063;326.4427795410156;352.6695861816406;327.6951599121094
858;360.5900573730469;369.6954956054688;326.16217041015625;352.375244140625;327.4112854003906
859;360.2894287109375;369.3898010253906;325.88189697265625;352.0811462402344;327.1276550292969
860;359.9889221191406;369.0841674804688;325.6018371582031;351.7873840332031;326.84423828125
861;359.6886291503906;368.7788696289063;325.3219909667969;351.49383544921875;326.5608825683594
862;359.3886413574219;368.4737854003906;325.04229736328125;351.200439453125;326.2778015136719
863;359.0887756347656;368.1689453125;324.76275634765625;350.90728759765625;325.9950866699219
864;358.7891845703125;367.8642883300781;324.4834289550781;350.6144104003906;325.7124938964844
865;358.48974609375;367.5599060058594;324.2044372558594;350.3216247558594;325.4301452636719
866;358.1905822753906;367.2558288574219;323.9256896972656;350.0291442871094;325.1480712890625
867;357.8916015625;366.9518432617188;323.6471252441406;349.73681640625;324.8660583496094
868;357.5929870605469;366.6481628417969;323.3688049316406;349.4447937011719;324.5844421386719
869;357.29449462890625;366.3447265625;323.090576171875;349.1529846191406;324.30291748046875
870;356.996337890625;366.0415344238281;322.8126525878906;348.8612976074219;324.0217590332031
871;356.6983642578125;365.7384643554688;322.5349426269531;348.56988525390625;323.7407531738281
872;356.4005126953125;365.4356994628906;322.2574768066406;348.2785949707031;323.45989990234375
873;356.10284423828125;365.133056640625;321.9801940917969;347.9876403808594;323.1793518066406
874;355.80548095703125;364.8307800292969;321.7030334472656;347.69683837890625;322.89898681640625
875;355.5084228515625;364.5286560058594;321.4261779785156;347.40625;322.6188049316406
876;355.2113952636719;364.2267150878906;321.1495056152344;347.1159362792969;322.3388671875
877;354.9147644042969;363.9249572753906;320.87298583984375;346.82586669921875;322.0592346191406
878;354.6182861328125;363.62347412109375;320.5966796875;346.535888671875;321.7796936035156
879;354.3219909667969;363.322265625;320.3205871582031;346.2461242675781;321.5003967285156
880;354.02593994140625;363.0213317871094;320.04473876953125;345.9565734863281;321.2214660644531
881;353.7300109863281;362.7205505371094;319.7691955566406;345.6673278808594;320.94256591796875
882;353.4343566894531;362.4200134277344;319.4938049316406;345.37835693359375;320.6640319824219
883;353.1390380859375;362.1196899414063;319.2186584472656;345.0895690917969;320.3856506347656
884;352.8438720703125;361.8196105957031;318.94366455078125;344.80084228515625;320.1075744628906
885;352.5489501953125;361.5197448730469;318.6689453125;344.512451171875;319.8296813964844
886;352.25421142578125;361.22015380859375;318.3942565917969;344.22430419921875;319.5519714355469
887;351.959716796875;360.9207458496094;318.1199645996094;343.9363098144531;319.2744140625
888;351.6653137207031;360.62158203125;317.84588623046875;343.64862060546875;318.9971618652344
889;351.3711853027344;360.3225402832031;317.5719299316406;343.3609924316406;318.72015380859375
890;351.07733154296875;360.0237731933594;317.29827880859375;343.07354736328125;318.443359375
891;350.7835693359375;359.725341796875;317.0248107910156;342.7864685058594;318.166748046875
892;350.4901428222656;359.4270324707031;316.75140380859375;342.4995422363281;317.8902893066406
893;350.19696044921875;359.12884521484375;316.4782409667969;342.212890625;317.6141052246094
894;349.9039611816406;358.83099365234375;316.2053527832031;341.9263000488281;317.3381042480469
895;349.6112060546875;358.533203125;315.9326171875;341.63995361328125;317.0623474121094
896;349.3186340332031;358.23583984375;315.66009521484375;341.3539123535156;316.7868957519531
897;349.0262756347656;357.9385681152344;315.3878479003906;341.0680847167969;316.5115661621094
898;348.73406982421875;357.6415100097656;315.11572265625;340.7824401855469;316.2364807128906
899;348.4420166015625;357.34466552734375;314.8439025878906;340.4969787597656;315.96160888671875
900;348.15020751953125;357.04815673828125;314.572265625;340.21173095703125;315.6869812011719
901;347.8586120605469;356.7517395019531;314.3008728027344;339.9267578125;315.4125671386719
902;347.5673522949219;356.45562744140625;314.0295715332031;339.6418762207031;315.1383361816406
903;347.276123046875;356.15972900390625;313.7584533691406;339.3572082519531;314.8642883300781
904;346.9852294921875;355.8641052246094;313.48773193359375;339.07281494140625;314.59051513671875
905;346.6945495605469;355.5685729980469;313.2170104980469;338.7886657714844;314.31689453125
906;346.4041442871094;355.2734069824219;312.9465637207031;338.504638671875;314.0436096191406
907;346.11383056640625;354.97845458984375;312.6764221191406;338.2209167480469;313.7704162597656
908;345.8237609863281;354.6836853027344;312.40631103515625;337.9373474121094;313.4974670410156
909;345.5339050292969;354.3891296386719;312.136474609375;337.6540222167969;313.2248229980469
910;345.2442626953125;354.0947265625;311.8667907714844;337.3709411621094;312.9523010253906
911;344.95489501953125;353.8006286621094;311.5974426269531;337.0879211425781;312.6799621582031
912;344.6656494140625;353.5066223144531;311.32818603515625;336.8052062988281;312.4078369140625
913;344.3766784667969;353.212890625;311.0592346191406;336.5226745605469;312.135986328125
914;344.08782958984375;352.91943359375;310.79046630859375;336.2403259277344;311.8642883300781
915;343.7992248535156;352.626220703125;310.5218200683594;335.9582824707031;311.59283447265625
916;343.5107727050781;352.33306884765625;310.2534484863281;335.67633056640625;311.3215637207031
917;343.2226257324219;352.0401916503906;309.98529052734375;335.39453125;311.0506286621094
918;342.9346923828125;351.7475891113281;309.71734619140625;335.1130676269531;310.7798156738281
919;342.64703369140625;351.4552307128906;309.4495544433594;334.8317565917969;310.5091857910156
920;342.3594970703125;351.1630859375;309.18206787109375;334.5506286621094;310.2388916015625
921;342.0721130371094;350.8711242675781;308.9147644042969;334.2697448730469;309.96875
922;341.78497314453125;350.57940673828125;308.6476745605469;333.9890441894531;309.6988220214844
923;341.4980163574219;350.2878112792969;308.3806457519531;333.7087097167969;309.4289855957031
924;341.2113952636719;349.9965515136719;308.1139221191406;333.4283142089844;309.1594543457031
925;340.9248962402344;349.7053527832031;307.8473815917969;333.14837646484375;308.8901672363281
926;340.6386413574219;349.4143981933594;307.5810241699219;332.8684387207031;308.6210632324219
927;340.3526611328125;349.123779296875;307.31488037109375;332.5888671875;308.3522644042969
928;340.0667724609375;348.833251953125;307.0490417480469;332.3094177246094;308.08355712890625
929;339.78106689453125;348.54302978515625;306.7832336425781;332.03021240234375;307.8151550292969
930;339.4956970214844;348.2529602050781;306.51776123046875;331.7511291503906;307.5469665527344
931;339.2104187011719;347.9631042480469;306.25238037109375;331.47235107421875;307.2789001464844
932;338.9254455566406;347.6733703613281;305.9873046875;331.19378662109375;307.0110168457031
933;338.64068603515625;347.3839416503906;305.72235107421875;330.9153137207031;306.7434387207031
934;338.3560791015625;347.09478759765625;305.4576721191406;330.63714599609375;306.47607421875
935;338.0716857910156;346.8058166503906;305.1932067871094;330.3591003417969;306.2088928222656
936;337.7875671386719;346.51702880859375;304.9288024902344;330.081298828125;305.94189453125
937;337.5035400390625;346.22845458984375;304.6647644042969;329.8037109375;305.6751708984375
938;337.2197570800781;345.94000244140625;304.4007873535156;329.5263366699219;305.4085998535156
939;336.9362487792969;345.65185546875;304.1371154785156;329.2490539550781;305.1421813964844
940;336.6528015136719;345.3638610839844;303.87359619140625;328.97216796875;304.8759460449219
941;336.36962890625;345.0761413574219;303.61029052734375;328.6954040527344;304.61004638671875
942;336.0867614746094;344.78857421875;303.34710693359375;328.4187316894531;304.3443603515625
943;335.803955078125;344.5012512207031;303.08416748046875;328.1423034667969;304.0788269042969
944;335.5213623046875;344.21429443359375;302.8213806152344;327.8661804199219;303.8135070800781
945;335.2389831542969;343.92742919921875;302.5588073730469;327.59014892578125;303.5484619140625
946;334.9568176269531;343.6408386230469;302.29656982421875;327.31439208984375;303.2835693359375
947;334.6748352050781;343.3543395996094;302.0343933105469;327.0388488769531;303.0189514160156
948;334.39306640625;343.0682067871094;301.77252197265625;326.76348876953125;302.7544250488281
949;334.1115417480469;342.78216552734375;301.5107727050781;326.48834228515625;302.4901428222656
950;333.8302917480469;342.496337890625;301.24920654296875;326.2134704589844;302.2260437011719
951;333.5491943359375;342.2107238769531;300.9879455566406;325.9387512207031;301.9622497558594
952;333.26824951171875;341.92529296875;300.7267761230469;325.6642150878906;301.6985168457031
953;332.9875793457031;341.64007568359375;300.4658203125;325.389892578125;301.4350280761719
954;332.70709228515625;341.35504150390625;300.2051086425781;325.1156921386719;301.1717529296875
955;332.4267883300781;341.07025146484375;299.9446105957031;324.8417663574219;300.90863037109375
956;332.14666748046875;340.7856750488281;299.68426513671875;324.5680847167969;300.6457214355469
957;331.8668212890625;340.5012512207031;299.4241638183594;324.2945251464844;300.383056640625
958;331.5871276855469;340.2171936035156;299.1641540527344;324.0212097167969;300.1205749511719
959;331.30767822265625;339.9333190917969;298.9045104980469;323.74810791015625;299.8583984375
960;331.02838134765625;339.6496276855469;298.64501953125;323.47515869140625;299.5963439941406
961;330.7493896484375;339.3660583496094;298.3857116699219;323.2024230957031;299.33447265625
962;330.47052001953125;339.0827331542969;298.12652587890625;322.92987060546875;299.0728454589844
963;330.1918640136719;338.79974365234375;297.8675231933594;322.6574401855469;298.8114318847656
964;329.9134521484375;338.5168762207031;297.6087951660156;322.38525390625;298.5502014160156
965;329.63525390625;338.2341003417969;297.35015869140625;322.11334228515625;298.2891540527344
966;329.3571472167969;337.9516906738281;297.09185791015625;321.8415832519531;298.0284118652344
967;329.0792236328125;337.66943359375;296.8337707519531;321.5699768066406;297.76776123046875
968;328.8016357421875;337.3874206542969;296.5758361816406;321.29864501953125;297.5073547363281
969;328.5242004394531;337.1056213378906;296.318115234375;321.0274963378906;297.24713134765625
970;328.2469177246094;336.82403564453125;296.06048583984375;320.75640869140625;296.98712158203125
971;327.9699401855469;336.5426330566406;295.80316162109375;320.4856262207031;296.7272644042969
972;327.6931457519531;336.2614440917969;295.5459899902344;320.2150573730469;296.4676513671875
973;327.41644287109375;335.98046875;295.2890625;319.9446716308594;296.2082214355469
974;327.1400146484375;335.69964599609375;295.03228759765625;319.6744689941406;295.9490051269531
975;326.86376953125;335.4189453125;294.775634765625;319.4044494628906;295.6900939941406
976;326.5876770019531;335.1385192871094;294.5191955566406;319.1346130371094;295.4313659667969
977;326.31182861328125;334.85833740234375;294.2630310058594;318.864990234375;295.1727600097656
978;326.0362243652344;334.5783386230469;294.007080078125;318.59564208984375;294.9144287109375
979;325.7608642578125;334.298583984375;293.751220703125;318.32647705078125;294.65631103515625
980;325.4855651855469;334.01904296875;293.4956359863281;318.0574645996094;294.3983459472656
981;325.2105712890625;333.7396545410156;293.240234375;317.7887268066406;294.1405029296875
982;324.9357604980469;333.4604797363281;292.9850158691406;317.52008056640625;293.8830261230469
983;324.6611022949219;333.18145751953125;292.73004150390625;317.2516174316406;293.6255798339844
984;324.3866882324219;332.90277099609375;292.4751281738281;316.9834289550781;293.3684387207031
985;324.1125183105469;332.6242370605469;292.22039794921875;316.71539306640625;293.1114501953125
986;323.8385009765625;332.3458557128906;291.9659729003906;316.4476013183594;292.8546447753906
987;323.564697265625;332.0677185058594;291.7117614746094;316.1800231933594;292.5980529785156
988;323.291015625;331.7898254394531;291.45770263671875;315.9126281738281;292.3416442871094
989;323.0176086425781;331.5120544433594;291.203857421875;315.6454772949219;292.08544921875
990;322.7443542480469;331.23443603515625;290.9501037597656;315.37847900390625;291.82952880859375
991;322.4713134765625;330.9571838378906;290.69659423828125;315.111572265625;291.5736999511719
992;322.1985168457031;330.6800842285156;290.4432678222656;314.8448791503906;291.3182067871094
993;321.9258117675781;330.4031066894531;290.1901550292969;314.5784606933594;291.0627746582031
994;321.6533203125;330.12640380859375;289.93719482421875;314.312255859375;290.8076477050781
995;321.381103515625;329.849853515625;289.6844787597656;314.0461730957031;290.5526428222656
996;321.10906982421875;329.57354736328125;289.4319763183594;313.7802429199219;290.2979431152344
997;320.8371276855469;329.2975158691406;289.1796569824219;313.5146484375;290.0433349609375
998;320.5655212402344;329.0215148925781;288.92755126953125;313.2491149902344;289.7889099121094
999;320.2940979003906;328.7457580566406;288.6755065917969;312.9838562011719;289.5347595214844
