;radiation;air_temperature;precipitation;humidity
42;51.535714285714285;12.318452380952381;0.24166666666666664;86.83154761904761
43;110.01190476190476;11.710714285714285;0.002380952380952381;81.23154761904763
44;84.38690476190476;11.173214285714286;0.1488095238095238;81.49107142857143
45;60.63690476190476;6.980952380952381;0.005952380952380952;88.19345238095238
46;66.20833333333333;4.129761904761905;0.0;71.63511904761906
47;66.80357142857143;-0.45654761904761915;0.008928571428571428;70.11071428571428
48;33.07738095238095;2.1732142857142858;0.25059523809523804;84.28988095238095
49;39.99404761904762;2.6958333333333333;0.02023809523809524;78.32619047619048
50;38.017857142857146;0.45952380952380956;0.042261904761904764;73.27797619047618
51;24.678571428571427;-0.6898809523809524;0.0011904761904761906;83.08452380952382
01;39.06547619047619;0.7875000000000001;0.03511904761904762;76.59107142857142
02;45.25595238095238;-2.4279761904761905;0.0017857142857142857;85.53928571428571
03;56.26190476190476;2.700595238095238;0.09047619047619047;82.99702380952381
04;54.541666666666664;-0.28273809523809523;0.0;72.94107142857142
05;50.86904761904762;-1.4255952380952381;0.002380952380952381;82.10952380952381
06;90.35714285714286;-0.07321428571428575;0.002976190476190476;73.875
07;57.44642857142857;4.376785714285715;0.4083333333333333;79.44642857142857
08;81.125;2.905357142857143;0.013095238095238096;75.82797619047619
09;93.61309523809524;1.4434523809523812;0.20595238095238097;71.16011904761905
10;97.95238095238095;2.670833333333333;0.18869047619047621;74.17440476190477
11;152.42857142857142;0.8404761904761906;0.0;66.31369047619049
12;122.85714285714286;9.519047619047619;0.15535714285714286;77.32380952380953
13;105.92857142857143;10.46607142857143;0.30297619047619045;73.31011904761905
14;177.74404761904762;7.5946428571428575;0.3470238095238095;66.68630952380951
15;130.6904761904762;8.197619047619046;0.26845238095238094;72.73988095238096
16;252.02380952380952;13.04404761904762;0.0;59.64107142857142
17;215.04166666666666;12.022619047619047;0.050595238095238096;67.43452380952381
18;203.58928571428572;14.792857142857141;0.11904761904761903;66.78630952380952
19;181.5595238095238;12.132738095238096;0.18571428571428572;77.48988095238094
20;189.64285714285714;16.60833333333333;0.23214285714285718;68.08333333333333
21;244.92261904761904;16.03452380952381;0.036309523809523805;61.276785714285715
22;273.5357142857143;11.627380952380951;0.01904761904761905;59.17023809523808
23;328.63690476190476;16.48035714285714;0.0017857142857142857;51.516666666666666
24;279.9702380952381;22.159523809523808;0.08095238095238096;54.97976190476191
25;239.85714285714286;22.43214285714286;0.16845238095238094;63.915476190476184
26;301.9940476190476;22.214880952380955;0.044642857142857144;63.688095238095244
27;228.67857142857142;21.495238095238093;0.2642857142857143;69.15892857142858
28;273.9761904761905;23.77261904761905;0.002380952380952381;63.74880952380952
29;299.3392857142857;25.551190476190474;0.0017857142857142857;53.968452380952385
30;244.50595238095238;24.467857142857145;0.011904761904761904;60.291666666666664
31;157.0;18.398214285714285;0.28511904761904766;69.45
32;188.3154761904762;16.823214285714286;0.17202380952380952;68.00654761904762
