;radiation;air_temperature;precipitation;humidity
42;81.08928571428571;7.394642857142858;0.12916666666666668;75.4375
43;84.9702380952381;6.862500000000001;0.013095238095238096;76.61309523809524
44;78.91666666666667;10.061904761904762;0.024404761904761908;81.7154761904762
45;64.86309523809524;9.529761904761905;0.17500000000000002;76.17619047619047
46;41.875;6.074404761904762;0.22380952380952382;82.33869047619048
47;36.23809523809524;1.8303571428571428;0.09404761904761905;80.32678571428572
48;46.74850299401198;-2.795209580838323;0.16785714285714287;88.57664670658683
49;47.11904761904762;3.5619047619047626;0.21726190476190477;84.10059523809524
50;51.898809523809526;-1.9571428571428573;0.011904761904761904;70.83809523809524
51;31.101190476190474;2.2529761904761907;0.25357142857142856;80.94285714285714
01;38.93452380952381;4.697619047619047;0.22976190476190478;76.64583333333333
02;50.25;5.895833333333334;0.03452380952380952;87.24642857142857
03;67.2202380952381;0.5571428571428572;0.0005952380952380953;71.38035714285714
04;64.24404761904762;-0.3375000000000001;0.0;76.28333333333333
05;77.77380952380952;0.2696428571428572;0.0;77.35595238095237
06;115.86904761904762;2.9809523809523815;0.0;71.58154761904763
07;77.52380952380952;4.2595238095238095;0.06904761904761905;83.13571428571429
08;77.9702380952381;4.132142857142857;0.027976190476190477;80.1452380952381
09;115.07738095238095;3.0470238095238096;0.0;71.48095238095239
10;137.58333333333334;6.470833333333333;0.002976190476190476;65.9327380952381
11;138.23809523809524;8.661904761904761;0.07023809523809524;71.6875
12;199.92261904761904;8.582142857142859;0.01130952380952381;58.37321428571429
13;178.70833333333334;11.973214285714286;0.0375;73.29642857142856
14;237.63095238095238;13.79940476190476;0.048809523809523817;63.89345238095238
15;255.28571428571428;10.742261904761904;0.0011904761904761906;51.898809523809526
16;267.3392857142857;14.495238095238093;0.011904761904761904;57.608333333333334
17;251.11904761904762;13.34047619047619;0.057738095238095234;66.4154761904762
18;267.2083333333333;14.441666666666666;0.036309523809523805;61.1875
19;226.4047619047619;16.239880952380954;0.058333333333333334;69.63035714285715
20;291.3392857142857;16.366666666666667;0.010714285714285713;64.1797619047619
21;311.6190476190476;17.979166666666668;0.0017857142857142859;55.56666666666667
22;201.8154761904762;16.33154761904762;0.11666666666666667;71.94702380952381
23;219.73809523809524;15.453571428571427;0.15178571428571427;70.4154761904762
24;225.2202380952381;17.74761904761905;0.11249999999999999;68.61369047619047
25;284.2142857142857;19.06547619047619;0.11011904761904762;63.71071428571428
26;319.70238095238096;20.2625;0.0017857142857142859;55.59464285714286
27;281.875;20.694642857142856;0.125;59.904761904761905
28;247.5952380952381;18.93035714285714;0.33095238095238094;64.75535714285714
29;184.1845238095238;14.882738095238096;0.13511904761904764;75.07321428571429
30;244.11309523809524;16.90892857142857;0.016666666666666666;72.86666666666667
31;235.9345238095238;20.63095238095238;0.12023809523809526;71.20119047619048
32;243.7797619047619;18.463095238095235;0.0625;63.93988095238096
