;;value
radiation;radiation;1.0
radiation;air_temperature;0.2335261503642969
radiation;precipitation;-0.4613923698147315
radiation;humidity;-0.655863671215217
air_temperature;radiation;0.2335261503642969
air_temperature;air_temperature;1.0
air_temperature;precipitation;-0.007329027796719549
air_temperature;humidity;-0.10366712468237313
precipitation;radiation;-0.4613923698147315
precipitation;air_temperature;-0.007329027796719549
precipitation;precipitation;1.0
precipitation;humidity;0.37742144683212
humidity;radiation;-0.655863671215217
humidity;air_temperature;-0.10366712468237313
humidity;precipitation;0.37742144683212
humidity;humidity;1.0
