;;value
radiation;radiation;1.0
radiation;air_temperature;0.35030575206089093
radiation;precipitation;-0.664848434042004
radiation;humidity;-0.7845916693085688
air_temperature;radiation;0.35030575206089093
air_temperature;air_temperature;1.0
air_temperature;precipitation;-0.1374948279329967
air_temperature;humidity;-0.2372806321351075
precipitation;radiation;-0.664848434042004
precipitation;air_temperature;-0.1374948279329967
precipitation;precipitation;1.0
precipitation;humidity;0.4758632742065468
humidity;radiation;-0.7845916693085688
humidity;air_temperature;-0.2372806321351075
humidity;precipitation;0.4758632742065468
humidity;humidity;1.0
