;;value
radiation;radiation;1.0
radiation;air_temperature;0.19026466056835878
radiation;precipitation;-0.5517477669203705
radiation;humidity;-0.7397571596733409
air_temperature;radiation;0.19026466056835878
air_temperature;air_temperature;1.0
air_temperature;precipitation;0.09207760072971129
air_temperature;humidity;0.12118005133531863
precipitation;radiation;-0.5517477669203705
precipitation;air_temperature;0.09207760072971129
precipitation;precipitation;1.0
precipitation;humidity;0.6626654353739266
humidity;radiation;-0.7397571596733409
humidity;air_temperature;0.12118005133531863
humidity;precipitation;0.6626654353739266
humidity;humidity;1.0
