;radiation;air_temperature;precipitation;humidity
42;0.0;0.0;0.0;0.0
43;-21.208333333333336;-1.5577380952380935;0.3077380952380953;-0.8652610441767195
44;-8.357142857142861;-1.0654761904761898;-0.5595238095238095;-0.8281913367756744
45;17.642857142857146;-7.140476190476191;-0.010119047619047621;-13.904166666666654
46;3.6785714285714306;-0.2154761904761906;0.0375;4.836309523809518
47;-9.18452380952381;2.7708333333333344;-0.03452380952380952;5.890476190476193
48;-36.333333333333336;-1.1261904761904766;0.1875;7.607142857142861
49;-10.982142857142858;-2.3898809523809526;-0.19464285714285715;-2.0541666666666742
50;13.797619047619047;0.44345238095238093;0.2166666666666667;-1.8470238095238045
51;10.55357142857143;-0.41726190476190483;-0.14226190476190478;-6.38928571428572
01;29.291666666666664;1.2089285714285714;-0.053571428571428575;3.045238095238105
02;-8.851190476190474;-1.598809523809524;3.469446951953614e-18;3.383928571428555
03;-34.45833333333333;0.717857142857143;0.21130952380952384;1.4684523809523853
04;54.69047619047619;-7.060119047619047;-0.22916666666666669;-13.367857142857147
05;1.4940476190476204;4.904761904761904;-0.0035714285714285718;5.897619047619045
06;-3.636904761904759;2.07202380952381;0.17797619047619045;0.8857142857143003
07;2.738095238095241;-2.810714285714286;-0.16488095238095235;-7.282142857142858
08;24.55952380952381;-1.2714285714285714;-0.0005952380952380949;-1.9910714285714306
09;23.660714285714278;-0.41607142857142865;0.06666666666666667;2.1785714285714306
10;22.91666666666667;4.058333333333333;-0.07916666666666668;-5.329166666666666
11;35.696428571428584;7.616071428571429;-0.0005952380952380953;-2.1339285714285694
12;-56.14880952380955;1.758928571428573;0.1357142857142857;15.17916666666666
13;38.36904761904762;-0.6196428571428587;-0.11666666666666665;-12.05714285714285
14;-19.47619047619048;-1.3101190476190467;0.20833333333333331;-7.139285714285727
15;-23.726190476190467;-1.826785714285716;-0.017857142857142877;11.660714285714285
16;26.95833333333333;1.7238095238095248;-0.030357142857142833;2.908928571428575
17;81.07142857142858;5.71845238095238;-0.08511904761904762;-10.9375
18;-69.20833333333334;-1.9767857142857128;0.019642857142857156;6.5523809523809575
19;69.08928571428572;-0.547619047619051;-0.045238095238095244;-5.818452380952387
20;-34.22619047619048;1.1178571428571438;0.03928571428571427;3.4952380952381006
21;89.2142857142857;5.309523809523808;0.03988095238095239;-5.716666666666669
22;-19.494047619047592;-1.3928571428571423;-0.13392857142857142;-4.683333333333337
23;29.0;-1.6726190476190474;-0.014285714285714287;-6.205952380952375
24;-50.02380952380952;3.9535714285714327;0.22559523809523813;16.93035714285714
25;53.20238095238096;4.094047619047615;-0.20595238095238097;-6.410119047619055
26;-35.33928571428572;-1.9202380952380942;0.04761904761904763;0.32678571428571956
27;-79.43452380952382;-5.99642857142857;0.03035714285714286;5.867261904761911
28;110.08333333333334;6.839880952380948;-0.09761904761904763;-12.07380952380953
29;-52.297619047619065;-2.9749999999999943;0.13392857142857145;4.779761904761905
30;0.285714285714306;3.402380952380952;0.024404761904761874;-1.8988095238095113
31;-49.20833333333334;-4.6345238095238095;0.04702380952380952;4.994642857142857
32;37.184523809523824;-0.46845238095238173;-0.15;-3.613095238095248
