;radiation;air_temperature;precipitation;humidity
42;0.0;0.0;0.0;0.0
43;11.94047619047619;-0.14880952380952372;-0.06904761904761905;-0.555952380952391
44;-45.74999999999999;-1.6136904761904765;0.2648809523809524;1.0202380952380992
45;-2.6607142857142847;0.49166666666666625;-0.14702380952380956;1.6886904761904873
46;-5.541666666666671;2.2303571428571427;-0.02499999999999998;4.755357142857122
47;4.327380952380956;-0.3351190476190471;0.13630952380952377;-18.58630952380952
48;-11.30357142857143;-5.137500000000001;-0.0357142857142857;12.376785714285703
49;8.773809523809526;0.5958333333333337;-0.01428571428571429;-5.517857142857125
50;-18.273809523809526;-7.3202380952380945;-0.15595238095238095;-9.388095238095246
51;8.625;5.4053571428571425;0.39761904761904765;15.507142857142881
01;3.327380952380956;-4.6535714285714285;-0.36011904761904767;-3.4696428571428726
02;-1.0535714285714306;2.551190476190476;0.05178571428571427;4.946428571428555
03;18.470238095238095;0.1119047619047619;-0.10416666666666666;0.8821428571428669
04;-4.845238095238095;-0.8428571428571427;0.0053571428571428555;-13.246428571428567
05;15.601190476190482;1.1172619047619048;0.16488095238095238;5.635714285714286
06;-10.654761904761912;-2.648809523809524;-0.13333333333333333;-7.736309523809524
07;31.68452380952381;3.8494047619047618;0.06607142857142859;3.7398809523809575
08;-6.261904761904759;5.263690476190477;0.09226190476190477;-0.11488095238095752
09;17.32142857142857;-4.288095238095239;-0.20773809523809525;-13.00416666666667
10;61.65476190476191;-3.5226190476190475;-0.0011904761904761906;-2.326190476190469
11;-10.11309523809524;9.551785714285714;0.03630952380952381;0.32976190476190226
12;0.1130952380952408;0.7904761904761912;0.1863095238095238;14.18333333333333
13;-4.779761904761926;-1.8636904761904773;-0.019047619047619063;-6.798809523809538
14;54.160714285714306;1.3535714285714295;-0.19999999999999998;-3.813690476190459
15;35.8452380952381;-0.776190476190477;-0.006547619047619049;-0.9505952380952323
16;1.244047619047592;5.164880952380953;-0.0005952380952380953;-6.441071428571433
17;-30.160714285714278;1.7589285714285694;0.17142857142857146;6.688690476190473
18;-54.86309523809524;-5.166666666666664;-0.04642857142857146;13.091071428571425
19;6.315476190476204;0.9547619047619023;0.0029761904761904656;-1.5958333333333456
20;108.1845238095238;2.1857142857142886;-0.12797619047619047;-13.061309523809506
21;-12.25;4.124999999999998;0.19642857142857142;1.7696428571428484
22;36.815476190476204;-0.8488095238095212;-0.1607142857142857;4.06785714285715
23;-72.83928571428572;2.6244047619047635;0.0017857142857142863;5.133333333333326
24;-75.20238095238096;-4.06666666666667;0.3714285714285714;7.227976190476184
25;195.83333333333337;2.3827380952380963;-0.40892857142857136;-18.599404761904744
26;-54.86309523809524;4.980357142857137;0.005357142857142857;5.754166666666656
27;36.42857142857139;1.2464285714285772;-0.004761904761904762;-10.482142857142847
28;-37.875;0.14940476190476204;0.0;-2.377976190476204
29;-35.958333333333314;-3.435714285714287;0.039880952380952385;5.600000000000016
30;22.017857142857167;-1.18809523809524;-0.04047619047619048;3.5440476190476105
31;-31.892857142857167;-1.6589285714285715;0.07313432835820896;7.044047619047632
32;-6.117241379310343;2.3590681444991795;0.05790015440041174;-4.436621510673248
