;radiation;air_temperature;precipitation;humidity
42;0.0;0.0;0.0;0.0
43;-40.1845238095238;0.1708333333333325;0.06190476190476191;11.420238095238105
44;16.410714285714285;-0.6398809523809526;-0.05416666666666667;0.9113095238095354
45;2.797619047619051;-0.08988095238095184;-0.007142857142857145;-6.782738095238116
46;-10.01190476190476;0.02559523809523867;0.1607142857142857;-6.589880952380952
47;-20.696428571428577;-6.363690476190477;-0.11428571428571427;1.0142857142857338
48;-7.220238095238095;1.8970238095238106;-0.03988095238095238;10.959523809523802
49;5.541666666666664;-1.2250000000000014;0.011904761904761906;-0.5261904761904788
50;-14.00595238095238;1.210119047619048;0.013095238095238097;6.083928571428572
51;17.31547619047619;1.3791666666666655;-0.01666666666666667;-8.486309523809538
01;-27.142857142857142;0.404761904761906;0.5005952380952381;-0.12321428571428328
02;22.351190476190478;-3.351785714285714;-0.4208333333333334;-9.844047619047615
03;16.339285714285715;-1.0898809523809525;-0.05892857142857142;6.154761904761912
04;7.952380952380956;4.815476190476191;0.1547619047619047;-1.1708333333333343
05;-3.44047619047619;-0.5351190476190482;-0.08154761904761902;1.2869047619047507
06;-24.86309523809524;-1.1148809523809522;0.18928571428571428;-3.381547619047609
07;37.58928571428571;-0.15595238095238084;-0.2982142857142857;-11.085119047619045
08;-4.732142857142861;0.5142857142857142;0.07797619047619048;9.11369047619047
09;-1.4464285714285694;-1.2684523809523816;0.12619047619047621;0.23452380952380736
10;87.48214285714288;-0.403571428571428;-0.2029761904761905;-8.652380952380952
11;16.541666666666657;1.6261904761904762;0.005952380952380952;-0.6946428571428527
12;5.476190476190482;2.432142857142858;0.0011904761904761897;-3.2124999999999915
13;-70.66666666666667;4.079166666666665;-0.0005952380952380949;5.593452380952371
14;24.589285714285708;-2.362499999999999;0.12261904761904763;3.4815476190476176
15;19.220238095238102;3.0738095238095227;0.10119047619047619;-5.444642857142853
16;40.97619047619048;-1.892261904761904;-0.08869047619047621;2.3934523809523824
17;10.63095238095238;-3.0910714285714276;-0.07976190476190474;-8.267857142857146
18;87.68452380952382;5.540476190476189;-0.06130952380952382;-2.422619047619058
19;-114.13095238095241;1.0577380952380953;0.21904761904761907;15.982142857142875
20;91.13690476190476;-0.9428571428571413;-0.13988095238095238;-10.079761904761924
21;-49.86309523809524;1.733928571428569;0.014880952380952397;10.038690476190496
22;-39.089285714285694;0.5190476190476208;0.018452380952380942;3.72499999999998
23;74.4345238095238;2.2202380952380967;0.15178571428571427;-4.814880952380946
24;-57.428571428571416;-2.1779761904761923;0.06488095238095243;1.5101190476190425
25;81.47619047619048;5.072619047619048;-0.2142857142857143;-8.00892857142857
26;25.61309523809524;0.07261904761904958;-0.030952380952380967;-5.642261904761902
27;32.625;1.7428571428571438;-0.08630952380952381;-1.782738095238095
28;-85.80357142857144;-4.425000000000001;0.22202380952380954;5.441071428571419
29;28.071428571428555;4.720238095238091;-0.1785714285714286;1.993452380952391
30;-15.291666666666629;-0.466666666666665;-0.01845238095238095;-2.1624999999999943
31;1.0416666666666288;-2.1982142857142826;0.04880952380952382;-3.4898809523809575
32;11.505952380952408;-0.7601190476190496;-0.05833333333333335;-0.07023809523810343
