;expectations;predictions
0;36.88;22.392336
1;27.64;22.396824
2;49.16;22.402803
3;31.08;22.358204
4;42.8;23.638622
5;39.19;23.638397
6;40.7;23.640766
7;36.1;23.638958
8;40.8;22.784004
9;39.9;22.781765
10;38.2;22.784270000000003
11;39.5;22.781567000000003
12;37.3;22.575945
13;24.9;22.569468
14;29.2;22.565483
15;31.6;24.01131
16;25.35;24.002382
17;34.8;24.010143
