;expectations;predictions
0;36.88;30.219041999999998
1;27.64;30.220304
2;49.16;30.220387
3;31.08;30.219099
4;42.8;31.529203000000003
5;39.19;31.528599
6;40.7;31.52801
7;36.1;31.52879
8;40.8;31.390273999999998
9;39.9;31.388668
10;38.2;31.390694
11;39.5;31.388168
12;37.3;30.784567
13;24.9;30.779628999999996
14;29.2;30.776545000000002
15;31.6;30.811602
16;25.35;30.808964000000003
17;34.8;30.811215999999998
