;expectations;predictions
0;36.88;35.610554
1;27.64;35.61143
2;49.16;35.610878
3;31.08;35.61116
4;42.8;35.735332
5;39.19;35.735170000000004
6;40.7;35.734276
7;36.1;35.734770000000005
8;40.8;35.778446
9;39.9;35.776497
10;38.2;35.77885
11;39.5;35.776554
12;37.3;35.770443
13;24.9;35.76768
14;29.2;35.764355
15;31.6;36.74309
16;25.35;36.74069
17;34.8;36.742886
