;expectations;predictions
0;36.88;10.207858
1;27.64;10.253836999999999
2;49.16;10.286652
3;31.08;10.104806
4;42.8;10.638864
5;39.19;10.638742
6;40.7;10.640155
7;36.1;10.638568
8;40.8;10.374908
9;39.9;10.370244
10;38.2;10.379945
11;39.5;10.371407000000001
12;37.3;11.783916
13;24.9;11.781517
14;29.2;11.760105000000001
15;31.6;11.947128
16;25.35;11.874578
17;34.8;11.939634
