;radiation;air_temperature;precipitation;humidity
10;-0.062493455088698524;-0.10876060747889083;0.0803623973836225;-0.0249417419685789
11;-0.6619832275080396;-0.10607260610008455;0.5936328730076683;0.39374919692958804
12;-0.19218069239157057;-0.6791005619988251;0.08601812119551838;-0.22054232739257615
01;0.046927854662138474;-0.39104690951995336;-0.34697357156637615;0.040609224429716095
02;0.23423137865511423;0.13943893600051646;0.3160848862580002;-0.3839993821232663
03;0.6477517414782338;0.2644732599183585;-0.11235028482819762;-0.6951654608364113
04;0.8181557040403117;0.4608955601086694;-0.049008996601978855;-0.2926932477737481
05;-0.2927969948649465;0.09891445158052525;0.41018316553967576;0.5733999184547176
06;0.44567939782012433;0.37229143959492716;-0.03417258623030761;-0.002071267933527885
07;0.33927571249465566;0.3580729684232569;-0.20240215862324007;-0.7419076586579549
08;-0.5928867096646769;-0.437058332467991;0.3513946146923195;0.515437398366732
