;;value
radiation;radiation;1.0
radiation;air_temperature;0.8010055429544258
radiation;precipitation;-0.2987312024463449
radiation;humidity;-0.7234130014114011
air_temperature;radiation;0.8010055429544258
air_temperature;air_temperature;1.0
air_temperature;precipitation;0.04432735114370647
air_temperature;humidity;-0.31959710414006415
precipitation;radiation;-0.2987312024463449
precipitation;air_temperature;0.04432735114370647
precipitation;precipitation;1.0
precipitation;humidity;0.7738719757165206
humidity;radiation;-0.7234130014114011
humidity;air_temperature;-0.31959710414006415
humidity;precipitation;0.7738719757165206
humidity;humidity;1.0
