;;value
radiation;radiation;1.0
radiation;air_temperature;0.7099855665274208
radiation;precipitation;-0.07151105983175221
radiation;humidity;-0.5883074959360599
air_temperature;radiation;0.7099855665274208
air_temperature;air_temperature;1.0
air_temperature;precipitation;0.34334752286610387
air_temperature;humidity;-0.142156724032087
precipitation;radiation;-0.07151105983175221
precipitation;air_temperature;0.34334752286610387
precipitation;precipitation;1.0
precipitation;humidity;0.012403016907784479
humidity;radiation;-0.5883074959360599
humidity;air_temperature;-0.142156724032087
humidity;precipitation;0.012403016907784479
humidity;humidity;1.0
