;;value
radiation;radiation;1.0
radiation;air_temperature;0.6756239434826673
radiation;precipitation;0.16450843745303043
radiation;humidity;-0.5422998783829974
air_temperature;radiation;0.6756239434826673
air_temperature;air_temperature;1.0
air_temperature;precipitation;0.4824737610045609
air_temperature;humidity;-0.1470051761011483
precipitation;radiation;0.16450843745303043
precipitation;air_temperature;0.4824737610045609
precipitation;precipitation;1.0
precipitation;humidity;-0.02077718073663842
humidity;radiation;-0.5422998783829974
humidity;air_temperature;-0.1470051761011483
humidity;precipitation;-0.02077718073663842
humidity;humidity;1.0
