;radiation;air_temperature;precipitation;humidity
10;0.0;0.0;0.0;0.0
11;-17.276797385620917;-6.961715686274511;-0.16973856209150326;-5.364983660130704
12;-0.7843189964157702;-0.9324731182795687;0.09143369175627242;-3.3025448028673736
01;6.236559139784944;-2.19233870967742;-0.1521505376344086;5.4094086021505206
02;33.90628476084539;3.595012977382276;0.09487393400074155;-4.540350389321475
03;64.98887652947718;2.2184278828327777;-0.04608361142009637;-8.62430014831294
04;31.631765232974914;3.652759856630823;0.03567652329749102;0.5316756272401477
05;55.03490143369177;5.756379928315415;-0.03930555555555555;-1.982213261648738
06;37.94148745519715;3.3112589605734755;-0.03874999999999999;-6.015008960573482
07;-45.18476702508963;-1.3331675627240145;0.13001344086021505;4.31124551971326
08;-9.42678918987906;1.958608133116364;-0.10631042404518043;2.612884879231693
