;radiation;air_temperature;precipitation;humidity
10;0.0;0.0;0.0;0.0
11;-7.574264705882349;-5.974975490196078;-0.36800653594771243;-6.11498152709359
12;-30.814650537634407;-3.0567607526881715;0.029668458781362005;4.576518817204288
01;28.966397849462368;-1.5580645161290327;-0.016263440860215056;-1.9673387096774206
02;30.00331221198156;-0.7602342549923192;-0.011986367127496164;-6.283227726574495
03;60.389160906298;6.219239631336405;0.000830453149001549;-3.2569604454685077
04;17.8516129032258;3.759014336917562;0.11288978494623655;-3.100103046594981
05;56.436021505376345;4.7928673835125455;-0.06369623655913978;-2.168848566308256
06;59.37508960573476;5.201577060931902;-0.03408154121863799;-5.52962365591398
07;-35.12508960573476;0.36051971326164534;0.023866487455197122;1.3876881720430205
08;-33.07736670814586;-2.0256425289556788;0.037631616732076184;0.9176629654446273
