;fold_0;fold_1;fold_2;fold_3;fold_4
0;1301.498291015625;1323.2481689453125;1322.337158203125;1326.1807861328125;1404.3370361328125
1;1301.3326416015625;1323.1048583984375;1322.1177978515625;1325.993896484375;1404.099609375
2;1301.141357421875;1322.939697265625;1321.8648681640625;1325.7430419921875;1403.8958740234375
3;1300.91796875;1322.7469482421875;1321.5703125;1325.4921875;1403.6585693359375
4;1300.7078857421875;1322.5657958984375;1321.2939453125;1325.2412109375;1403.42138671875
5;1300.483154296875;1322.3724365234375;1320.9993896484375;1324.9903564453125;1403.1842041015625
6;1300.2578125;1322.178955078125;1320.704833984375;1324.739501953125;1402.947265625
7;1300.0362548828125;1321.98486328125;1320.41064453125;1324.4884033203125;1402.710205078125
8;1299.8092041015625;1321.79052734375;1320.115966796875;1324.237548828125;1402.47314453125
9;1299.5814208984375;1321.59765625;1319.8245849609375;1323.988525390625;1402.236328125
10;1299.353759765625;1321.40283203125;1319.53173828125;1323.73876953125;1401.99951171875
11;1299.124267578125;1321.207763671875;1319.2379150390625;1323.48779296875;1401.7628173828125
12;1298.8934326171875;1321.011962890625;1318.9432373046875;1323.2366943359375;1401.525634765625
13;1298.6614990234375;1320.81591796875;1318.6494140625;1322.98486328125;1401.288330078125
14;1298.4278564453125;1320.61962890625;1318.3553466796875;1322.733642578125;1401.05029296875
15;1298.194091796875;1320.421875;1318.0614013671875;1322.4822998046875;1400.812255859375
16;1297.957275390625;1320.224853515625;1317.7652587890625;1322.231201171875;1400.5738525390625
17;1297.719482421875;1320.0274658203125;1317.468994140625;1321.977783203125;1400.335205078125
18;1297.4822998046875;1319.82958984375;1317.17236328125;1321.7265625;1400.098388671875
19;1297.2418212890625;1319.631591796875;1316.878662109375;1321.47509765625;1399.8594970703125
20;1297.002197265625;1319.4307861328125;1316.5850830078125;1321.2237548828125;1399.620361328125
21;1296.7589111328125;1319.2298583984375;1316.2913818359375;1320.969482421875;1399.380859375
22;1296.5169677734375;1319.028076171875;1315.9945068359375;1320.7152099609375;1399.1412353515625
23;1296.271240234375;1318.826171875;1315.697509765625;1320.460693359375;1398.9044189453125
24;1296.0238037109375;1318.62353515625;1315.404052734375;1320.2091064453125;1398.667236328125
25;1295.775146484375;1318.4205322265625;1315.1104736328125;1319.95751953125;1398.4271240234375
26;1295.525146484375;1318.219482421875;1314.8133544921875;1319.70556640625;1398.1895751953125
27;1295.2764892578125;1318.015625;1314.5198974609375;1319.45361328125;1397.9520263671875
28;1295.0264892578125;1317.8111572265625;1314.2261962890625;1319.20166015625;1397.71435546875
29;1294.775390625;1317.6063232421875;1313.92919921875;1318.9495849609375;1397.473388671875
30;1294.5194091796875;1317.4034423828125;1313.632080078125;1318.6973876953125;1397.2352294921875
31;1294.2623291015625;1317.1976318359375;1313.3348388671875;1318.445068359375;1396.996826171875
32;1294.003662109375;1316.993896484375;1313.0377197265625;1318.1927490234375;1396.7554931640625
33;1293.743408203125;1316.78955078125;1312.744140625;1317.940185546875;1396.5164794921875
34;1293.4844970703125;1316.5845947265625;1312.4500732421875;1317.687744140625;1396.2772216796875
35;1293.224365234375;1316.3792724609375;1312.15625;1317.4349365234375;1396.0377197265625
36;1292.9622802734375;1316.1734619140625;1311.8619384765625;1317.1822509765625;1395.7979736328125
37;1292.698974609375;1315.96728515625;1311.564453125;1316.9293212890625;1395.557861328125
38;1292.4337158203125;1315.76025390625;1311.2669677734375;1316.6734619140625;1395.3148193359375
39;1292.1640625;1315.552978515625;1310.96923828125;1316.42041015625;1395.07421875
40;1291.895751953125;1315.3450927734375;1310.67431640625;1316.16455078125;1394.8331298828125
41;1291.622802734375;1315.1365966796875;1310.376220703125;1315.908447265625;1394.58935546875
42;1291.3509521484375;1314.9276123046875;1310.0811767578125;1315.65478515625;1394.3450927734375
43;1291.0748291015625;1314.7181396484375;1309.78564453125;1315.401123046875;1394.1029052734375
44;1290.7967529296875;1314.5079345703125;1309.4898681640625;1315.14501953125;1393.8604736328125
45;1290.5169677734375;1314.29736328125;1309.19384765625;1314.8909912109375;1393.614990234375
46;1290.2381591796875;1314.0863037109375;1308.89453125;1314.63427734375;1393.37158203125
47;1289.954833984375;1313.8743896484375;1308.597900390625;1314.380126953125;1393.12548828125
48;1289.6697998046875;1313.662109375;1308.2979736328125;1314.1258544921875;1392.8814697265625
49;1289.3826904296875;1313.44921875;1307.9976806640625;1313.8714599609375;1392.63671875
50;1289.096435546875;1313.2357177734375;1307.6998291015625;1313.6142578125;1392.3917236328125
51;1288.8056640625;1313.01953125;1307.39892578125;1313.357177734375;1392.1463623046875
52;1288.5130615234375;1312.804931640625;1307.10009765625;1313.10205078125;1391.900146484375
53;1288.220947265625;1312.58935546875;1306.798095703125;1312.8446044921875;1391.6536865234375
54;1287.9246826171875;1312.3717041015625;1306.49560546875;1312.58935546875;1391.404541015625
55;1287.6287841796875;1312.1551513671875;1306.1953125;1312.331787109375;1391.156982421875
56;1287.3284912109375;1311.93603515625;1305.891845703125;1312.0760498046875;1390.9068603515625
57;1287.0263671875;1311.71826171875;1305.587890625;1311.8203125;1390.6583251953125
58;1286.724609375;1311.499755859375;1305.2835693359375;1311.5643310546875;1390.4071044921875
59;1286.4207763671875;1311.2806396484375;1304.9808349609375;1311.30615234375;1390.155517578125
60;1286.1124267578125;1311.0609130859375;1304.6751708984375;1311.0496826171875;1389.903076171875
61;1285.8023681640625;1310.8387451171875;1304.3687744140625;1310.791259765625;1389.652099609375
62;1285.489990234375;1310.61767578125;1304.0618896484375;1310.534423828125;1389.398681640625
63;1285.1756591796875;1310.394287109375;1303.7542724609375;1310.275634765625;1389.1446533203125
64;1284.8592529296875;1310.170166015625;1303.4459228515625;1310.0184326171875;1388.8917236328125
65;1284.540771484375;1309.947021484375;1303.13720703125;1309.76123046875;1388.638427734375
66;1284.222412109375;1309.72314453125;1302.8275146484375;1309.501708984375;1388.38427734375
67;1283.902099609375;1309.4970703125;1302.5194091796875;1309.2421875;1388.1292724609375
68;1283.577392578125;1309.27197265625;1302.2083740234375;1308.9842529296875;1387.871826171875
69;1283.2506103515625;1309.0457763671875;1301.898681640625;1308.72607421875;1387.6138916015625
70;1282.921630859375;1308.8192138671875;1301.5863037109375;1308.4677734375;1387.3551025390625
71;1282.5904541015625;1308.5902099609375;1301.27294921875;1308.20751953125;1387.0955810546875
72;1282.257080078125;1308.362060546875;1300.958740234375;1307.94873046875;1386.83544921875
73;1281.923828125;1308.1317138671875;1300.64599609375;1307.68798828125;1386.57421875
74;1281.586181640625;1307.900634765625;1300.3304443359375;1307.42724609375;1386.3140869140625
75;1281.2467041015625;1307.6702880859375;1300.01416015625;1307.166259765625;1386.0513916015625
76;1280.9046630859375;1307.439208984375;1299.69677734375;1306.9049072265625;1385.7879638671875
77;1280.562744140625;1307.207275390625;1299.378662109375;1306.6435546875;1385.5252685546875
78;1280.2186279296875;1306.974609375;1299.0599365234375;1306.3818359375;1385.260009765625
79;1279.870361328125;1306.7410888671875;1298.7423095703125;1306.1214599609375;1384.9940185546875
80;1279.519775390625;1306.5068359375;1298.4237060546875;1305.8609619140625;1384.72705078125
81;1279.1673583984375;1306.2718505859375;1298.1043701171875;1305.6002197265625;1384.460693359375
82;1278.8145751953125;1306.03466796875;1297.783935546875;1305.3377685546875;1384.193359375
83;1278.4576416015625;1305.7965087890625;1297.4627685546875;1305.0748291015625;1383.9237060546875
84;1278.100830078125;1305.5592041015625;1297.138916015625;1304.8134765625;1383.653076171875
85;1277.7396240234375;1305.32080078125;1296.8140869140625;1304.5516357421875;1383.3812255859375
86;1277.3782958984375;1305.081787109375;1296.490234375;1304.2882080078125;1383.108642578125
87;1277.0130615234375;1304.8419189453125;1296.1636962890625;1304.0260009765625;1382.8363037109375
88;1276.6456298828125;1304.60107421875;1295.8380126953125;1303.76220703125;1382.56298828125
89;1276.276123046875;1304.359619140625;1295.5113525390625;1303.497802734375;1382.288818359375
90;1275.9044189453125;1304.1171875;1295.18212890625;1303.2335205078125;1382.011962890625
91;1275.5325927734375;1303.873779296875;1294.85205078125;1302.97021484375;1381.735595703125
92;1275.158935546875;1303.6295166015625;1294.5208740234375;1302.705322265625;1381.4581298828125
93;1274.781005859375;1303.3846435546875;1294.1888427734375;1302.4415283203125;1381.177978515625
94;1274.4010009765625;1303.1373291015625;1293.8558349609375;1302.17626953125;1380.898193359375
95;1274.019287109375;1302.890625;1293.5235595703125;1301.9117431640625;1380.6173095703125
96;1273.6353759765625;1302.6417236328125;1293.1885986328125;1301.64697265625;1380.3353271484375
97;1273.2513427734375;1302.3919677734375;1292.8543701171875;1301.38232421875;1380.05078125
98;1272.863525390625;1302.14111328125;1292.5191650390625;1301.11572265625;1379.76513671875
99;1272.473876953125;1301.8892822265625;1292.1829833984375;1300.84912109375;1379.4793701171875
100;1272.082275390625;1301.6380615234375;1291.84423828125;1300.5833740234375;1379.19140625
101;1271.688720703125;1301.38427734375;1291.50439453125;1300.3173828125;1378.9019775390625
102;1271.2935791015625;1301.1298828125;1291.16552734375;1300.051025390625;1378.61279296875
103;1270.896484375;1300.87548828125;1290.82373046875;1299.7845458984375;1378.3223876953125
104;1270.4976806640625;1300.620361328125;1290.4810791015625;1299.517578125;1378.0294189453125
105;1270.0987548828125;1300.3641357421875;1290.137451171875;1299.2491455078125;1377.7364501953125
106;1269.696533203125;1300.10693359375;1289.792724609375;1298.9805908203125;1377.4422607421875
107;1269.2926025390625;1299.8487548828125;1289.4471435546875;1298.712890625;1377.14697265625
108;1268.8868408203125;1299.589599609375;1289.10205078125;1298.44384765625;1376.8489990234375
109;1268.4814453125;1299.3294677734375;1288.7542724609375;1298.1754150390625;1376.5496826171875
110;1268.072509765625;1299.068115234375;1288.4056396484375;1297.9068603515625;1376.25048828125
111;1267.662109375;1298.8048095703125;1288.0557861328125;1297.6380615234375;1375.949951171875
112;1267.250244140625;1298.5404052734375;1287.7064208984375;1297.36767578125;1375.648193359375
113;1266.8387451171875;1298.2750244140625;1287.3546142578125;1297.0970458984375;1375.3450927734375
114;1266.423828125;1298.008544921875;1287.001708984375;1296.8260498046875;1375.0406494140625
115;1266.0078125;1297.7410888671875;1286.6492919921875;1296.5560302734375;1374.73486328125
116;1265.5902099609375;1297.4735107421875;1286.295654296875;1296.28564453125;1374.4276123046875
117;1265.1732177734375;1297.2049560546875;1285.939697265625;1296.0137939453125;1374.1177978515625
118;1264.7530517578125;1296.935302734375;1285.5838623046875;1295.74169921875;1373.80810546875
119;1264.3333740234375;1296.66455078125;1285.2255859375;1295.47021484375;1373.495849609375
120;1263.912841796875;1296.3927001953125;1284.8660888671875;1295.1986083984375;1373.183349609375
121;1263.490966796875;1296.11865234375;1284.5057373046875;1294.926513671875;1372.8695068359375
122;1263.06640625;1295.843505859375;1284.1456298828125;1294.654296875;1372.55419921875
123;1262.642578125;1295.567138671875;1283.7828369140625;1294.38037109375;1372.23779296875
124;1262.2159423828125;1295.2896728515625;1283.419189453125;1294.1063232421875;1371.919677734375
125;1261.7884521484375;1295.01123046875;1283.05419921875;1293.8328857421875;1371.5992431640625
126;1261.3603515625;1294.731689453125;1282.689697265625;1293.55810546875;1371.27734375
127;1260.931396484375;1294.45068359375;1282.322509765625;1293.283935546875;1370.955322265625
128;1260.5030517578125;1294.169677734375;1281.9542236328125;1293.009521484375;1370.6317138671875
129;1260.072509765625;1293.8875732421875;1281.586181640625;1292.734619140625;1370.3070068359375
130;1259.6412353515625;1293.604248046875;1281.2156982421875;1292.45947265625;1369.980712890625
131;1259.2110595703125;1293.3197021484375;1280.843994140625;1292.183837890625;1369.6519775390625
132;1258.778564453125;1293.0330810546875;1280.472412109375;1291.906982421875;1369.3228759765625
133;1258.3472900390625;1292.7449951171875;1280.0999755859375;1291.6295166015625;1368.9913330078125
134;1257.913818359375;1292.4569091796875;1279.72607421875;1291.3519287109375;1368.6583251953125
135;1257.4815673828125;1292.1666259765625;1279.3497314453125;1291.07373046875;1368.324951171875
136;1257.0474853515625;1291.8759765625;1278.972412109375;1290.795166015625;1367.9903564453125
137;1256.6143798828125;1291.5831298828125;1278.5938720703125;1290.51708984375;1367.6544189453125
138;1256.181396484375;1291.2900390625;1278.21533203125;1290.23876953125;1367.31591796875
139;1255.7479248046875;1290.99560546875;1277.8345947265625;1289.9598388671875;1366.97705078125
140;1255.312744140625;1290.69921875;1277.453857421875;1289.6795654296875;1366.6356201171875
141;1254.879150390625;1290.4022216796875;1277.0706787109375;1289.39892578125;1366.2928466796875
142;1254.4453125;1290.1041259765625;1276.6864013671875;1289.11865234375;1365.9486083984375
143;1254.0115966796875;1289.8038330078125;1276.301025390625;1288.837890625;1365.60302734375
144;1253.5762939453125;1289.502197265625;1275.9141845703125;1288.5557861328125;1365.2559814453125
145;1253.1427001953125;1289.2000732421875;1275.5264892578125;1288.2730712890625;1364.9075927734375
146;1252.707763671875;1288.89697265625;1275.137451171875;1287.990966796875;1364.5577392578125
147;1252.2730712890625;1288.59130859375;1274.74853515625;1287.708251953125;1364.20751953125
148;1251.838623046875;1288.28466796875;1274.3582763671875;1287.4239501953125;1363.85595703125
149;1251.404296875;1287.9764404296875;1273.9656982421875;1287.1392822265625;1363.5028076171875
150;1250.9716796875;1287.66796875;1273.5731201171875;1286.85400390625;1363.1475830078125
151;1250.539306640625;1287.357177734375;1273.17822265625;1286.569091796875;1362.7906494140625
152;1250.107177734375;1287.044921875;1272.7821044921875;1286.2825927734375;1362.433349609375
153;1249.6756591796875;1286.7315673828125;1272.385009765625;1285.99560546875;1362.07470703125
154;1249.2445068359375;1286.4176025390625;1271.9864501953125;1285.7078857421875;1361.714599609375
155;1248.812744140625;1286.1014404296875;1271.5867919921875;1285.419677734375;1361.353271484375
156;1248.382568359375;1285.784912109375;1271.1871337890625;1285.131591796875;1360.990234375
157;1247.9530029296875;1285.4661865234375;1270.7850341796875;1284.8419189453125;1360.6260986328125
158;1247.522705078125;1285.14697265625;1270.3818359375;1284.552490234375;1360.26025390625
159;1247.0931396484375;1284.826171875;1269.9774169921875;1284.2615966796875;1359.8922119140625
160;1246.664306640625;1284.5042724609375;1269.5728759765625;1283.9698486328125;1359.522705078125
161;1246.236083984375;1284.1800537109375;1269.1661376953125;1283.6783447265625;1359.151611328125
162;1245.80859375;1283.855224609375;1268.758056640625;1283.3851318359375;1358.7794189453125
163;1245.3819580078125;1283.529052734375;1268.35009765625;1283.0911865234375;1358.4066162109375
164;1244.9561767578125;1283.20166015625;1267.94091796875;1282.79638671875;1358.0316162109375
165;1244.53125;1282.87255859375;1267.530517578125;1282.5008544921875;1357.6561279296875
166;1244.108154296875;1282.54150390625;1267.1187744140625;1282.2044677734375;1357.2784423828125
167;1243.684814453125;1282.208740234375;1266.704833984375;1281.907958984375;1356.899169921875
168;1243.262451171875;1281.875732421875;1266.2908935546875;1281.610595703125;1356.51953125
169;1242.842041015625;1281.5411376953125;1265.87451171875;1281.3115234375;1356.1378173828125
170;1242.422607421875;1281.205322265625;1265.45703125;1281.011474609375;1355.75439453125
171;1242.004150390625;1280.867919921875;1265.0384521484375;1280.710693359375;1355.3697509765625
172;1241.586669921875;1280.5291748046875;1264.61962890625;1280.409423828125;1354.9837646484375
173;1241.1690673828125;1280.18896484375;1264.1986083984375;1280.106689453125;1354.5963134765625
174;1240.7532958984375;1279.84765625;1263.7764892578125;1279.8026123046875;1354.2076416015625
175;1240.3377685546875;1279.504638671875;1263.35302734375;1279.4976806640625;1353.8184814453125
176;1239.9232177734375;1279.1602783203125;1262.9295654296875;1279.1925048828125;1353.4271240234375
177;1239.509765625;1278.813720703125;1262.5037841796875;1278.885498046875;1353.0355224609375
178;1239.0972900390625;1278.465576171875;1262.0782470703125;1278.578125;1352.6427001953125
179;1238.685791015625;1278.1162109375;1261.6512451171875;1278.26953125;1352.2474365234375
180;1238.2755126953125;1277.7662353515625;1261.22314453125;1277.9599609375;1351.851806640625
181;1237.8663330078125;1277.4146728515625;1260.7938232421875;1277.6490478515625;1351.453857421875
182;1237.458251953125;1277.0611572265625;1260.3624267578125;1277.3369140625;1351.0557861328125
183;1237.0513916015625;1276.70703125;1259.9298095703125;1277.02392578125;1350.6551513671875
184;1236.6455078125;1276.3504638671875;1259.495849609375;1276.7093505859375;1350.25341796875
185;1236.2418212890625;1275.99267578125;1259.060791015625;1276.3935546875;1349.850341796875
186;1235.8380126953125;1275.63427734375;1258.6258544921875;1276.0767822265625;1349.446044921875
187;1235.435546875;1275.2744140625;1258.1884765625;1275.758544921875;1349.0413818359375
188;1235.0343017578125;1274.91357421875;1257.7501220703125;1275.4390869140625;1348.6353759765625
189;1234.634033203125;1274.551513671875;1257.3104248046875;1275.118408203125;1348.227294921875
190;1234.235107421875;1274.1881103515625;1256.8707275390625;1274.79541015625;1347.8179931640625
191;1233.837158203125;1273.822509765625;1256.428955078125;1274.47119140625;1347.4073486328125
192;1233.4404296875;1273.45654296875;1255.9869384765625;1274.1453857421875;1346.99560546875
193;1233.0457763671875;1273.08837890625;1255.5430908203125;1273.818359375;1346.58251953125
194;1232.6514892578125;1272.7196044921875;1255.097900390625;1273.49072265625;1346.1693115234375
195;1232.2581787109375;1272.349853515625;1254.652587890625;1273.16162109375;1345.753662109375
196;1231.8662109375;1271.9779052734375;1254.205078125;1272.8311767578125;1345.3377685546875
197;1231.475341796875;1271.604248046875;1253.7574462890625;1272.4991455078125;1344.9197998046875
198;1231.085693359375;1271.23046875;1253.3077392578125;1272.1656494140625;1344.5015869140625
199;1230.6971435546875;1270.85546875;1252.85693359375;1271.8306884765625;1344.0811767578125
200;1230.3096923828125;1270.47802734375;1252.406005859375;1271.494384765625;1343.6595458984375
201;1229.923583984375;1270.0994873046875;1251.9530029296875;1271.1563720703125;1343.237548828125
202;1229.5384521484375;1269.720703125;1251.4989013671875;1270.81689453125;1342.8145751953125
203;1229.154541015625;1269.3394775390625;1251.0435791015625;1270.4759521484375;1342.390380859375
204;1228.772705078125;1268.958251953125;1250.58837890625;1270.13330078125;1341.965087890625
205;1228.3912353515625;1268.5745849609375;1250.1319580078125;1269.789306640625;1341.53759765625
206;1228.0107421875;1268.1898193359375;1249.6734619140625;1269.4429931640625;1341.10986328125
207;1227.6322021484375;1267.8038330078125;1249.21484375;1269.0950927734375;1340.68115234375
208;1227.254150390625;1267.41748046875;1248.7542724609375;1268.7462158203125;1340.2501220703125
209;1226.877197265625;1267.0291748046875;1248.29248046875;1268.39599609375;1339.8189697265625
210;1226.5020751953125;1266.6407470703125;1247.8297119140625;1268.043212890625;1339.38671875
211;1226.1273193359375;1266.2508544921875;1247.36572265625;1267.68896484375;1338.9532470703125
212;1225.75390625;1265.859130859375;1246.90087890625;1267.3328857421875;1338.5177001953125
213;1225.3822021484375;1265.46728515625;1246.434814453125;1266.97607421875;1338.0809326171875
214;1225.0108642578125;1265.0733642578125;1245.9677734375;1266.616943359375;1337.6431884765625
215;1224.6407470703125;1264.678466796875;1245.49951171875;1266.257080078125;1337.205078125
216;1224.271728515625;1264.282470703125;1245.03125;1265.894287109375;1336.765869140625
217;1223.904541015625;1263.8853759765625;1244.56103515625;1265.5308837890625;1336.3255615234375
218;1223.538330078125;1263.4881591796875;1244.0894775390625;1265.1650390625;1335.8841552734375
219;1223.1732177734375;1263.0889892578125;1243.616943359375;1264.797607421875;1335.440673828125
220;1222.8087158203125;1262.689697265625;1243.1434326171875;1264.428466796875;1334.99609375
221;1222.445556640625;1262.2884521484375;1242.6689453125;1264.0576171875;1334.550537109375
222;1222.0830078125;1261.88720703125;1242.1934814453125;1263.68505859375;1334.103759765625
223;1221.7215576171875;1261.4842529296875;1241.717529296875;1263.31103515625;1333.656005859375
224;1221.3609619140625;1261.0802001953125;1241.2408447265625;1262.93505859375;1333.207763671875
225;1221.0013427734375;1260.6759033203125;1240.76220703125;1262.558349609375;1332.7589111328125
226;1220.6431884765625;1260.27099609375;1240.2833251953125;1262.1796875;1332.30859375
227;1220.286376953125;1259.865234375;1239.803466796875;1261.79931640625;1331.8565673828125
228;1219.9307861328125;1259.45849609375;1239.3226318359375;1261.41748046875;1331.4034423828125
229;1219.5753173828125;1259.0509033203125;1238.840576171875;1261.03369140625;1330.948974609375
230;1219.2218017578125;1258.642333984375;1238.356689453125;1260.6480712890625;1330.4937744140625
231;1218.868408203125;1258.233154296875;1237.871826171875;1260.26025390625;1330.0372314453125
232;1218.5167236328125;1257.8233642578125;1237.3868408203125;1259.871337890625;1329.5797119140625
233;1218.166015625;1257.4117431640625;1236.89990234375;1259.4808349609375;1329.1212158203125
234;1217.8155517578125;1257.0003662109375;1236.412841796875;1259.0885009765625;1328.6614990234375
235;1217.4661865234375;1256.58740234375;1235.923828125;1258.69384765625;1328.20166015625
236;1217.1177978515625;1256.173583984375;1235.433837890625;1258.29736328125;1327.739990234375
237;1216.7708740234375;1255.760009765625;1234.94287109375;1257.89990234375;1327.2772216796875
238;1216.4244384765625;1255.344970703125;1234.45166015625;1257.500732421875;1326.813232421875
239;1216.078857421875;1254.93017578125;1233.95947265625;1257.10009765625;1326.3489990234375
240;1215.734130859375;1254.5147705078125;1233.4654541015625;1256.697509765625;1325.884033203125
241;1215.3905029296875;1254.0985107421875;1232.9705810546875;1256.29248046875;1325.41796875
242;1215.0477294921875;1253.6817626953125;1232.4744873046875;1255.885986328125;1324.9508056640625
243;1214.7061767578125;1253.2646484375;1231.9776611328125;1255.4776611328125;1324.4818115234375
244;1214.365234375;1252.8468017578125;1231.4796142578125;1255.067626953125;1324.01171875
245;1214.025146484375;1252.427734375;1230.980712890625;1254.65673828125;1323.5406494140625
246;1213.6861572265625;1252.00830078125;1230.4808349609375;1254.2431640625;1323.0692138671875
247;1213.34765625;1251.589111328125;1229.980712890625;1253.8287353515625;1322.59619140625
248;1213.0101318359375;1251.1695556640625;1229.479736328125;1253.41259765625;1322.1229248046875
249;1212.673583984375;1250.7489013671875;1228.9775390625;1252.994873046875;1321.64794921875
250;1212.337890625;1250.32861328125;1228.4747314453125;1252.575439453125;1321.171875
251;1212.0028076171875;1249.90771484375;1227.9698486328125;1252.1534423828125;1320.69482421875
252;1211.6689453125;1249.486572265625;1227.464111328125;1251.7305908203125;1320.2166748046875
253;1211.336181640625;1249.0643310546875;1226.9583740234375;1251.3060302734375;1319.73779296875
254;1211.00390625;1248.6417236328125;1226.4515380859375;1250.879150390625;1319.2576904296875
255;1210.6722412109375;1248.2196044921875;1225.94287109375;1250.4510498046875;1318.7767333984375
256;1210.342041015625;1247.796630859375;1225.433349609375;1250.0216064453125;1318.2947998046875
257;1210.0120849609375;1247.37353515625;1224.9237060546875;1249.59033203125;1317.8125
258;1209.6829833984375;1246.9505615234375;1224.4132080078125;1249.157470703125;1317.32861328125
259;1209.3546142578125;1246.52734375;1223.9017333984375;1248.72216796875;1316.843505859375
260;1209.027099609375;1246.104736328125;1223.388427734375;1248.285888671875;1316.3582763671875
261;1208.700927734375;1245.6810302734375;1222.8741455078125;1247.847412109375;1315.87158203125
262;1208.374755859375;1245.25732421875;1222.35888671875;1247.4078369140625;1315.3836669921875
263;1208.0496826171875;1244.83349609375;1221.8428955078125;1246.966552734375;1314.894775390625
264;1207.7249755859375;1244.409912109375;1221.32568359375;1246.52392578125;1314.40576171875
265;1207.4013671875;1243.98681640625;1220.8077392578125;1246.0794677734375;1313.9149169921875
266;1207.078369140625;1243.5628662109375;1220.288818359375;1245.63330078125;1313.42431640625
267;1206.756591796875;1243.139404296875;1219.7691650390625;1245.1856689453125;1312.9317626953125
268;1206.4349365234375;1242.71533203125;1219.24853515625;1244.735595703125;1312.438232421875
269;1206.1141357421875;1242.2913818359375;1218.727783203125;1244.2838134765625;1311.9437255859375
270;1205.794189453125;1241.8685302734375;1218.2052001953125;1243.8311767578125;1311.4486083984375
271;1205.4747314453125;1241.44580078125;1217.6826171875;1243.376220703125;1310.953125
272;1205.156005859375;1241.0233154296875;1217.159423828125;1242.919677734375;1310.4561767578125
273;1204.8385009765625;1240.60107421875;1216.6348876953125;1242.4615478515625;1309.9581298828125
274;1204.521240234375;1240.1785888671875;1216.10888671875;1242.0018310546875;1309.4593505859375
275;1204.2044677734375;1239.7557373046875;1215.582763671875;1241.54052734375;1308.9595947265625
276;1203.888916015625;1239.3328857421875;1215.0560302734375;1241.07763671875;1308.4591064453125
277;1203.57421875;1238.9102783203125;1214.5279541015625;1240.6129150390625;1307.95751953125
278;1203.259521484375;1238.48779296875;1213.9993896484375;1240.1468505859375;1307.4552001953125
279;1202.945556640625;1238.065673828125;1213.4697265625;1239.6795654296875;1306.9527587890625
280;1202.6326904296875;1237.6439208984375;1212.939453125;1239.2109375;1306.44873046875
281;1202.320068359375;1237.22216796875;1212.408203125;1238.7398681640625;1305.94482421875
282;1202.0084228515625;1236.801513671875;1211.876220703125;1238.2672119140625;1305.4390869140625
283;1201.697021484375;1236.3812255859375;1211.34326171875;1237.793212890625;1304.932373046875
284;1201.3863525390625;1235.9608154296875;1210.8094482421875;1237.3172607421875;1304.4251708984375
285;1201.0767822265625;1235.540771484375;1210.27490234375;1236.8399658203125;1303.9168701171875
286;1200.7672119140625;1235.120849609375;1209.7386474609375;1236.36181640625;1303.4085693359375
287;1200.458740234375;1234.7015380859375;1209.20166015625;1235.88134765625;1302.8988037109375
288;1200.150390625;1234.2830810546875;1208.6640625;1235.3990478515625;1302.390869140625
289;1199.8427734375;1233.86474609375;1208.12548828125;1234.9163818359375;1301.8828125
290;1199.5357666015625;1233.4466552734375;1207.5867919921875;1234.431640625;1301.375
291;1199.229248046875;1233.029052734375;1207.0474853515625;1233.9449462890625;1300.8668212890625
292;1198.9232177734375;1232.61181640625;1206.506591796875;1233.457275390625;1300.3580322265625
293;1198.6180419921875;1232.195068359375;1205.965576171875;1232.9681396484375;1299.848388671875
294;1198.3133544921875;1231.7786865234375;1205.4241943359375;1232.4771728515625;1299.3377685546875
295;1198.0091552734375;1231.3626708984375;1204.8809814453125;1231.98486328125;1298.8265380859375
296;1197.7060546875;1230.9468994140625;1204.337158203125;1231.490966796875;1298.3145751953125
297;1197.403076171875;1230.53173828125;1203.79345703125;1230.9954833984375;1297.8028564453125
298;1197.1011962890625;1230.1168212890625;1203.248779296875;1230.4984130859375;1297.29052734375
299;1196.7996826171875;1229.703125;1202.703125;1229.99951171875;1296.7767333984375
300;1196.498779296875;1229.2899169921875;1202.1612548828125;1229.498779296875;1296.262451171875
301;1196.1981201171875;1228.87646484375;1201.6190185546875;1228.9969482421875;1295.7476806640625
302;1195.898193359375;1228.4635009765625;1201.07666015625;1228.4935302734375;1295.2330322265625
303;1195.598876953125;1228.051025390625;1200.53271484375;1227.9886474609375;1294.717041015625
304;1195.3001708984375;1227.6390380859375;1199.988525390625;1227.4813232421875;1294.200439453125
305;1195.001953125;1227.228271484375;1199.44384765625;1226.97314453125;1293.6839599609375
306;1194.703857421875;1226.81787109375;1198.9036865234375;1226.462646484375;1293.1668701171875
307;1194.4066162109375;1226.407958984375;1198.363037109375;1225.9512939453125;1292.6485595703125
308;1194.109619140625;1225.998779296875;1197.8231201171875;1225.4383544921875;1292.129638671875
309;1193.8134765625;1225.5894775390625;1197.282958984375;1224.923095703125;1291.61083984375
310;1193.5174560546875;1225.1807861328125;1196.74267578125;1224.40673828125;1291.0914306640625
311;1193.222412109375;1224.7730712890625;1196.201904296875;1223.8887939453125;1290.5714111328125
312;1192.927734375;1224.3660888671875;1195.6600341796875;1223.3692626953125;1290.050048828125
313;1192.633056640625;1223.9595947265625;1195.11865234375;1222.8482666015625;1289.5289306640625
314;1192.3389892578125;1223.5537109375;1194.5760498046875;1222.3255615234375;1289.0064697265625
315;1192.0458984375;1223.14794921875;1194.033203125;1221.80126953125;1288.4835205078125
316;1191.7528076171875;1222.74365234375;1193.4901123046875;1221.2755126953125;1287.959716796875
317;1191.460205078125;1222.3399658203125;1192.9471435546875;1220.7471923828125;1287.4364013671875
318;1191.1680908203125;1221.9366455078125;1192.4031982421875;1220.2178955078125;1286.9114990234375
319;1190.8768310546875;1221.5335693359375;1191.8594970703125;1219.687255859375;1286.38623046875
320;1190.585693359375;1221.131591796875;1191.314697265625;1219.15478515625;1285.8612060546875
321;1190.2955322265625;1220.729736328125;1190.7701416015625;1218.6207275390625;1285.334716796875
322;1190.005126953125;1220.3289794921875;1190.2252197265625;1218.08447265625;1284.80859375
323;1189.7154541015625;1219.9288330078125;1189.6800537109375;1217.54638671875;1284.28173828125
324;1189.426025390625;1219.5296630859375;1189.13427734375;1217.0064697265625;1283.75390625
325;1189.1373291015625;1219.13134765625;1188.58837890625;1216.4659423828125;1283.2259521484375
326;1188.8489990234375;1218.7332763671875;1188.0418701171875;1215.9234619140625;1282.6973876953125
327;1188.561279296875;1218.33642578125;1187.4951171875;1215.378662109375;1282.1678466796875
328;1188.273681640625;1217.939697265625;1186.9478759765625;1214.8323974609375;1281.6375732421875
329;1187.987060546875;1217.5435791015625;1186.4005126953125;1214.2843017578125;1281.1068115234375
330;1187.700439453125;1217.148193359375;1185.8516845703125;1213.7342529296875;1280.5755615234375
331;1187.4141845703125;1216.7542724609375;1185.3026123046875;1213.1827392578125;1280.0445556640625
332;1187.1287841796875;1216.361083984375;1184.75341796875;1212.6298828125;1279.5130615234375
333;1186.8438720703125;1215.968505859375;1184.20361328125;1212.0755615234375;1278.9803466796875
334;1186.5589599609375;1215.5767822265625;1183.6544189453125;1211.5186767578125;1278.44775390625
335;1186.2745361328125;1215.185546875;1183.104736328125;1210.9599609375;1277.9141845703125
336;1185.990478515625;1214.79541015625;1182.5546875;1210.4000244140625;1277.3800048828125
337;1185.7071533203125;1214.40576171875;1182.00439453125;1209.838623046875;1276.845458984375
338;1185.424072265625;1214.0162353515625;1181.4539794921875;1209.275146484375;1276.3104248046875
339;1185.141357421875;1213.627685546875;1180.902587890625;1208.7100830078125;1275.7755126953125
340;1184.859130859375;1213.2403564453125;1180.3514404296875;1208.14306640625;1275.2401123046875
341;1184.5770263671875;1212.8531494140625;1179.79931640625;1207.57421875;1274.70361328125
342;1184.2955322265625;1212.466796875;1179.2476806640625;1207.0025634765625;1274.166748046875
343;1184.0142822265625;1212.0811767578125;1178.6961669921875;1206.429443359375;1273.62939453125
344;1183.7332763671875;1211.6966552734375;1178.14990234375;1205.85498046875;1273.091552734375
345;1183.453369140625;1211.3126220703125;1177.604736328125;1205.27880859375;1272.55419921875
346;1183.173583984375;1210.92919921875;1177.0589599609375;1204.6998291015625;1272.01611328125
347;1182.8941650390625;1210.546875;1176.5140380859375;1204.119873046875;1271.476806640625
348;1182.615234375;1210.16552734375;1175.96923828125;1203.537109375;1270.9378662109375
349;1182.3369140625;1209.7845458984375;1175.423583984375;1202.953369140625;1270.39794921875
350;1182.0587158203125;1209.40478515625;1174.8790283203125;1202.36669921875;1269.8582763671875
351;1181.7806396484375;1209.026123046875;1174.3343505859375;1201.7783203125;1269.3179931640625
352;1181.5030517578125;1208.64794921875;1173.78955078125;1201.18798828125;1268.7769775390625
353;1181.2261962890625;1208.2706298828125;1173.2451171875;1200.5955810546875;1268.2354736328125
354;1180.949462890625;1207.89404296875;1172.700439453125;1200.001220703125;1267.6934814453125
355;1180.6732177734375;1207.5177001953125;1172.15576171875;1199.4049072265625;1267.1512451171875
356;1180.397216796875;1207.142578125;1171.611328125;1198.8072509765625;1266.609375
357;1180.121337890625;1206.767822265625;1171.06689453125;1198.20703125;1266.0662841796875
358;1179.8458251953125;1206.393798828125;1170.5216064453125;1197.60546875;1265.52294921875
359;1179.5711669921875;1206.02099609375;1169.97705078125;1197.0018310546875;1264.979736328125
360;1179.296875;1205.649169921875;1169.431884765625;1196.3955078125;1264.4356689453125
361;1179.0223388671875;1205.2781982421875;1168.8873291015625;1195.787841796875;1263.8912353515625
362;1178.7484130859375;1204.90771484375;1168.3427734375;1195.17822265625;1263.3465576171875
363;1178.474853515625;1204.5377197265625;1167.7982177734375;1194.56591796875;1262.80517578125
364;1178.201416015625;1204.1685791015625;1167.253662109375;1193.9522705078125;1262.2635498046875
365;1177.9285888671875;1203.80029296875;1166.709228515625;1193.3359375;1261.7218017578125
366;1177.656005859375;1203.4324951171875;1166.1640625;1192.717529296875;1261.1798095703125
367;1177.384033203125;1203.0655517578125;1165.6190185546875;1192.09716796875;1260.6378173828125
368;1177.112548828125;1202.69970703125;1165.0745849609375;1191.4754638671875;1260.0958251953125
369;1176.8416748046875;1202.333984375;1164.5303955078125;1190.8516845703125;1259.553955078125
370;1176.5706787109375;1201.9691162109375;1163.9853515625;1190.2252197265625;1259.010986328125
371;1176.300048828125;1201.6046142578125;1163.4410400390625;1189.5968017578125;1258.468017578125
372;1176.029541015625;1201.241455078125;1162.8968505859375;1188.9671630859375;1257.9246826171875
373;1175.7598876953125;1200.87890625;1162.35205078125;1188.33544921875;1257.3812255859375
374;1175.490234375;1200.51708984375;1161.807861328125;1187.7017822265625;1256.8380126953125
375;1175.2213134765625;1200.156005859375;1161.26318359375;1187.0655517578125;1256.2940673828125
376;1174.9522705078125;1199.7960205078125;1160.71923828125;1186.4276123046875;1255.75048828125
377;1174.68359375;1199.4364013671875;1160.1748046875;1185.78759765625;1255.206787109375
378;1174.4151611328125;1199.07763671875;1159.63037109375;1185.14599609375;1254.6622314453125
379;1174.1470947265625;1198.7193603515625;1159.0867919921875;1184.5030517578125;1254.1171875
380;1173.8795166015625;1198.3616943359375;1158.543212890625;1183.8582763671875;1253.5721435546875
381;1173.6119384765625;1198.0048828125;1158.0;1183.211669921875;1253.0269775390625
382;1173.3448486328125;1197.64892578125;1157.4560546875;1182.562744140625;1252.483154296875
383;1173.0782470703125;1197.293701171875;1156.912353515625;1181.9119873046875;1251.941162109375
384;1172.8116455078125;1196.938720703125;1156.36865234375;1181.26025390625;1251.39892578125
385;1172.545654296875;1196.58447265625;1155.825927734375;1180.606201171875;1250.8568115234375
386;1172.279541015625;1196.2310791015625;1155.283447265625;1179.9505615234375;1250.314697265625
387;1172.013916015625;1195.8780517578125;1154.7490234375;1179.2938232421875;1249.773193359375
388;1171.7486572265625;1195.5257568359375;1154.217041015625;1178.6358642578125;1249.2308349609375
389;1171.483642578125;1195.174072265625;1153.6866455078125;1177.9754638671875;1248.6885986328125
390;1171.2191162109375;1194.8228759765625;1153.1563720703125;1177.313720703125;1248.1463623046875
391;1170.9549560546875;1194.4730224609375;1152.626953125;1176.6505126953125;1247.6038818359375
392;1170.690673828125;1194.1231689453125;1152.0982666015625;1175.9866943359375;1247.0614013671875
393;1170.427001953125;1193.7745361328125;1151.5703125;1175.321533203125;1246.51953125
394;1170.1636962890625;1193.4267578125;1151.04345703125;1174.6549072265625;1245.9776611328125
395;1169.9005126953125;1193.0794677734375;1150.5166015625;1173.9874267578125;1245.435546875
396;1169.6378173828125;1192.7330322265625;1149.990478515625;1173.318603515625;1244.8929443359375
397;1169.3753662109375;1192.386962890625;1149.4649658203125;1172.6488037109375;1244.3507080078125
398;1169.1131591796875;1192.04150390625;1148.9405517578125;1171.977783203125;1243.80859375
399;1168.8509521484375;1191.697021484375;1148.416015625;1171.30517578125;1243.2667236328125
400;1168.589111328125;1191.35302734375;1147.89208984375;1170.6322021484375;1242.7252197265625
401;1168.3275146484375;1191.010009765625;1147.3685302734375;1169.9583740234375;1242.1837158203125
402;1168.066162109375;1190.6676025390625;1146.8455810546875;1169.28369140625;1241.64208984375
403;1167.8052978515625;1190.32568359375;1146.322998046875;1168.607666015625;1241.0999755859375
404;1167.5445556640625;1189.984619140625;1145.801025390625;1167.931640625;1240.5582275390625
405;1167.283935546875;1189.644287109375;1145.280029296875;1167.25439453125;1240.015869140625
406;1167.0238037109375;1189.3046875;1144.75927734375;1166.5765380859375;1239.4737548828125
407;1166.7637939453125;1188.965576171875;1144.238525390625;1165.9007568359375;1238.9312744140625
408;1166.5042724609375;1188.6273193359375;1143.71875;1165.2255859375;1238.3892822265625
409;1166.244873046875;1188.289794921875;1143.198974609375;1164.5498046875;1237.8468017578125
410;1165.985595703125;1187.9530029296875;1142.6795654296875;1163.873779296875;1237.3043212890625
411;1165.7266845703125;1187.6171875;1142.1610107421875;1163.1978759765625;1236.7618408203125
412;1165.468017578125;1187.2816162109375;1141.64306640625;1162.52197265625;1236.21923828125
413;1165.2098388671875;1186.94677734375;1141.12548828125;1161.8466796875;1235.6768798828125
414;1164.951904296875;1186.612548828125;1140.6080322265625;1161.1708984375;1235.1343994140625
415;1164.694091796875;1186.279541015625;1140.0914306640625;1160.4959716796875;1234.5919189453125
416;1164.4366455078125;1185.947021484375;1139.5750732421875;1159.82080078125;1234.0494384765625
417;1164.1795654296875;1185.615234375;1139.05908203125;1159.145751953125;1233.5069580078125
418;1163.922607421875;1185.28369140625;1138.5430908203125;1158.47119140625;1232.964599609375
419;1163.665771484375;1184.9527587890625;1138.027587890625;1157.7974853515625;1232.422119140625
420;1163.4090576171875;1184.622314453125;1137.5123291015625;1157.1239013671875;1231.8800048828125
421;1163.1527099609375;1184.2923583984375;1136.9976806640625;1156.4515380859375;1231.337646484375
422;1162.8966064453125;1183.962890625;1136.48388671875;1155.779296875;1230.79541015625
423;1162.640625;1183.6339111328125;1135.97021484375;1155.10791015625;1230.2532958984375
424;1162.3851318359375;1183.3060302734375;1135.457275390625;1154.4371337890625;1229.7117919921875
425;1162.1298828125;1182.978515625;1134.9442138671875;1153.767333984375;1229.1737060546875
426;1161.874755859375;1182.6519775390625;1134.4322509765625;1153.0987548828125;1228.635498046875
427;1161.6197509765625;1182.325927734375;1133.921875;1152.43115234375;1228.0977783203125
428;1161.3651123046875;1182.00048828125;1133.4154052734375;1151.764892578125;1227.5604248046875
429;1161.1107177734375;1181.6754150390625;1132.9095458984375;1151.099609375;1227.0235595703125
430;1160.8568115234375;1181.350830078125;1132.404541015625;1150.4359130859375;1226.4869384765625
431;1160.60302734375;1181.026611328125;1131.9002685546875;1149.7734375;1225.9508056640625
432;1160.349365234375;1180.702880859375;1131.3970947265625;1149.112548828125;1225.4140625
433;1160.095947265625;1180.3795166015625;1130.89404296875;1148.4537353515625;1224.8780517578125
434;1159.8428955078125;1180.0570068359375;1130.392333984375;1147.7962646484375;1224.34228515625
435;1159.590087890625;1179.7349853515625;1129.8909912109375;1147.1402587890625;1223.806640625
436;1159.3375244140625;1179.4134521484375;1129.389892578125;1146.486083984375;1223.271240234375
437;1159.0849609375;1179.09228515625;1128.8892822265625;1145.83447265625;1222.736083984375
438;1158.8328857421875;1178.771728515625;1128.389892578125;1145.18408203125;1222.20166015625
439;1158.5809326171875;1178.4521484375;1127.890380859375;1144.5364990234375;1221.66748046875
440;1158.329345703125;1178.133056640625;1127.39208984375;1143.89013671875;1221.1339111328125
441;1158.0777587890625;1177.8140869140625;1126.8936767578125;1143.246337890625;1220.5997314453125
442;1157.826416015625;1177.495849609375;1126.3958740234375;1142.6043701171875;1220.066650390625
443;1157.575439453125;1177.1783447265625;1125.8985595703123;1141.96484375;1219.5338134765625
444;1157.324951171875;1176.8616943359375;1125.4017333984377;1141.32763671875;1219.00146484375
445;1157.074462890625;1176.545166015625;1124.9058837890623;1140.69287109375;1218.46875
446;1156.8243408203125;1176.2291259765625;1124.4100341796877;1140.061279296875;1217.9366455078125
447;1156.5740966796875;1175.913330078125;1123.9149169921877;1139.431396484375;1217.4051513671875
448;1156.3240966796875;1175.598388671875;1123.42041015625;1138.804931640625;1216.873779296875
449;1156.07421875;1175.28369140625;1122.926513671875;1138.1810302734375;1216.3426513671875
450;1155.8248291015625;1174.969482421875;1122.4326171875;1137.55908203125;1215.812255859375
451;1155.5753173828125;1174.65576171875;1121.9405517578123;1136.93994140625;1215.281982421875
452;1155.3262939453125;1174.342529296875;1121.4490966796877;1136.32373046875;1214.7523193359375
453;1155.0775146484375;1174.029296875;1120.9586181640623;1135.7108154296875;1214.2235107421875
454;1154.8291015625;1173.717041015625;1120.468994140625;1135.100830078125;1213.6947021484375
455;1154.5804443359375;1173.4051513671875;1119.9796142578123;1134.4935302734375;1213.1663818359375
456;1154.332275390625;1173.093505859375;1119.490966796875;1133.8887939453125;1212.6390380859375
457;1154.0841064453125;1172.7825927734375;1119.00244140625;1133.2869873046875;1212.1116943359375
458;1153.836181640625;1172.47216796875;1118.5142822265623;1132.6888427734375;1211.5853271484375
459;1153.5887451171875;1172.1622314453125;1118.02685546875;1132.093505859375;1211.058837890625
460;1153.341552734375;1171.8526611328125;1117.5401611328123;1131.5013427734375;1210.533203125
461;1153.0947265625;1171.54345703125;1117.0538330078123;1130.91162109375;1210.008056640625
462;1152.8480224609375;1171.234375;1116.568115234375;1130.3253173828125;1209.4835205078125
463;1152.6015625;1170.9259033203125;1116.08251953125;1129.742431640625;1208.9598388671875
464;1152.35546875;1170.6177978515625;1115.5975341796877;1129.1627197265625;1208.43701171875
465;1152.1092529296875;1170.31005859375;1115.1129150390623;1128.58642578125;1207.914306640625
466;1151.8631591796875;1170.0028076171875;1114.62939453125;1128.0130615234375;1207.392578125
467;1151.617431640625;1169.6962890625;1114.1461181640623;1127.44287109375;1206.8714599609375
468;1151.3717041015625;1169.3900146484375;1113.6634521484377;1126.87548828125;1206.35107421875
469;1151.126220703125;1169.083984375;1113.182861328125;1126.3118896484375;1205.8309326171875
470;1150.8812255859375;1168.778564453125;1112.704345703125;1125.75146484375;1205.3118896484375
471;1150.6363525390625;1168.4737548828125;1112.2266845703123;1125.1942138671877;1204.793212890625
472;1150.3914794921875;1168.16943359375;1111.7496337890623;1124.64013671875;1204.2755126953125
473;1150.1470947265625;1167.864990234375;1111.272705078125;1124.08935546875;1203.7581787109375
474;1149.9027099609375;1167.5615234375;1110.796875;1123.54150390625;1203.2425537109375
475;1149.6585693359375;1167.258056640625;1110.321533203125;1122.99658203125;1202.727783203125
476;1149.4144287109375;1166.955322265625;1109.8463134765623;1122.45556640625;1202.213134765625
477;1149.1707763671875;1166.6529541015625;1109.3720703125;1121.9173583984377;1201.69970703125
478;1148.9273681640625;1166.35107421875;1108.8980712890623;1121.382568359375;1201.1868896484375
479;1148.6839599609375;1166.0494384765625;1108.4249267578123;1120.851318359375;1200.67529296875
480;1148.440673828125;1165.748046875;1107.9521484375;1120.3228759765623;1200.1639404296875
481;1148.1976318359375;1165.4468994140625;1107.4793701171877;1119.7974853515623;1199.6536865234375
482;1147.9552001953125;1165.1463623046875;1107.00732421875;1119.275146484375;1199.14404296875
483;1147.7127685546875;1164.8460693359375;1106.53564453125;1118.75634765625;1198.6353759765625
484;1147.470458984375;1164.5460205078125;1106.0645751953123;1118.24072265625;1198.1275634765625
485;1147.228515625;1164.2462158203125;1105.5938720703123;1117.727783203125;1197.620849609375
486;1146.9869384765625;1163.94677734375;1105.12353515625;1117.218017578125;1197.114990234375
487;1146.7451171875;1163.64794921875;1104.6539306640623;1116.7115478515623;1196.6104736328125
488;1146.503662109375;1163.34912109375;1104.184814453125;1116.2078857421877;1196.10693359375
489;1146.2623291015625;1163.05126953125;1103.716064453125;1115.7076416015623;1195.6038818359375
490;1146.0211181640625;1162.753173828125;1103.24755859375;1115.2099609375;1195.1019287109375
491;1145.7802734375;1162.4554443359375;1102.779541015625;1114.7164306640623;1194.6009521484375
492;1145.53955078125;1162.1580810546875;1102.31201171875;1114.2254638671877;1194.100830078125
493;1145.2989501953125;1161.8612060546875;1101.8450927734377;1113.7379150390623;1193.60205078125
494;1145.0587158203125;1161.5648193359375;1101.3785400390623;1113.25341796875;1193.1041259765625
495;1144.8187255859375;1161.2684326171875;1100.91259765625;1112.7718505859377;1192.6072998046875
496;1144.5787353515625;1160.9725341796875;1100.4468994140623;1112.293212890625;1192.1116943359375
497;1144.3389892578125;1160.677001953125;1099.98193359375;1111.8170166015623;1191.6171875
498;1144.0994873046875;1160.3818359375;1099.5167236328123;1111.3438720703123;1191.1234130859375
499;1143.8602294921875;1160.086669921875;1099.0518798828123;1110.87353515625;1190.6307373046875
500;1143.6209716796875;1159.792236328125;1098.587890625;1110.40576171875;1190.1390380859375
501;1143.3819580078125;1159.497802734375;1098.1243896484377;1109.9410400390623;1189.6484375
502;1143.1429443359375;1159.2037353515625;1097.6611328125;1109.479248046875;1189.1590576171875
503;1142.904296875;1158.9102783203125;1097.198486328125;1109.019775390625;1188.670654296875
504;1142.6656494140625;1158.6168212890625;1096.735595703125;1108.563232421875;1188.18359375
505;1142.427490234375;1158.32373046875;1096.2735595703123;1108.10888671875;1187.697509765625
506;1142.1893310546875;1158.0308837890625;1095.81201171875;1107.6573486328123;1187.2125244140625
507;1141.9512939453125;1157.7384033203125;1095.3504638671877;1107.20849609375;1186.729248046875
508;1141.7132568359375;1157.4461669921875;1094.8896484375;1106.76220703125;1186.24658203125
509;1141.4757080078125;1157.154296875;1094.428955078125;1106.318115234375;1185.765625
510;1141.23828125;1156.86279296875;1093.9688720703123;1105.87646484375;1185.285400390625
511;1141.0010986328125;1156.5714111328125;1093.5089111328123;1105.4376220703123;1184.8067626953125
512;1140.7637939453125;1156.280517578125;1093.0494384765623;1105.0010986328123;1184.328857421875
513;1140.5267333984375;1155.9901123046875;1092.59033203125;1104.56689453125;1183.8526611328125
514;1140.2899169921875;1155.69970703125;1092.1314697265623;1104.13525390625;1183.3775634765625
515;1140.0531005859375;1155.4097900390625;1091.67333984375;1103.7056884765623;1182.9034423828125
516;1139.8167724609375;1155.120361328125;1091.2158203125;1103.278564453125;1182.4302978515625
517;1139.580322265625;1154.8311767578125;1090.75830078125;1102.8536376953123;1181.958740234375
518;1139.3441162109375;1154.5421142578125;1090.3013916015623;1102.430908203125;1181.488037109375
519;1139.1082763671875;1154.2535400390625;1089.8447265625;1102.0101318359377;1181.019287109375
520;1138.8724365234375;1153.965087890625;1089.388671875;1101.59130859375;1180.55126953125
521;1138.63671875;1153.6771240234375;1088.9327392578123;1101.17529296875;1180.08447265625
522;1138.4012451171875;1153.3892822265625;1088.4775390625;1100.7613525390623;1179.618896484375
523;1138.1656494140625;1153.101806640625;1088.0223388671877;1100.3494873046877;1179.1546630859375
524;1137.9305419921875;1152.81494140625;1087.567626953125;1099.939453125;1178.692138671875
525;1137.6951904296875;1152.5283203125;1087.1136474609377;1099.5316162109377;1178.23046875
526;1137.4603271484375;1152.241943359375;1086.65966796875;1099.1259765625;1177.770263671875
527;1137.2254638671875;1151.9556884765625;1086.2064208984377;1098.7220458984377;1177.311279296875
528;1136.9910888671875;1151.670166015625;1085.753662109375;1098.31982421875;1176.853759765625
529;1136.756591796875;1151.3843994140625;1085.30126953125;1097.9197998046877;1176.3978271484375
530;1136.5223388671875;1151.099365234375;1084.84912109375;1097.521484375;1175.943115234375
531;1136.288330078125;1150.814453125;1084.3970947265623;1097.1253662109377;1175.4898681640625
532;1136.054443359375;1150.52978515625;1083.946044921875;1096.731201171875;1175.0374755859375
533;1135.820556640625;1150.2457275390625;1083.4952392578123;1096.3387451171877;1174.586669921875
534;1135.5867919921875;1149.9615478515625;1083.044677734375;1095.9478759765623;1174.136962890625
535;1135.353515625;1149.67822265625;1082.5947265625;1095.55908203125;1173.689208984375
536;1135.1202392578125;1149.39501953125;1082.14501953125;1095.172119140625;1173.2427978515625
537;1134.886962890625;1149.11181640625;1081.69580078125;1094.78662109375;1172.797607421875
538;1134.654052734375;1148.8291015625;1081.2469482421877;1094.4027099609377;1172.3541259765625
539;1134.421142578125;1148.5467529296875;1080.79833984375;1094.0205078125;1171.912109375
540;1134.1884765625;1148.2646484375;1080.35009765625;1093.64013671875;1171.47119140625
541;1133.9556884765625;1147.98291015625;1079.9022216796877;1093.26171875;1171.031494140625
542;1133.7232666015625;1147.70166015625;1079.4552001953123;1092.8846435546877;1170.593505859375
543;1133.4908447265625;1147.42041015625;1079.00830078125;1092.50927734375;1170.15673828125
544;1133.2586669921875;1147.139404296875;1078.56201171875;1092.1356201171877;1169.72119140625
545;1133.026611328125;1146.85888671875;1078.1158447265623;1091.7633056640623;1169.286865234375
546;1132.794677734375;1146.57861328125;1077.6700439453123;1091.3924560546877;1168.85400390625
547;1132.5628662109375;1146.2987060546875;1077.2249755859377;1091.023193359375;1168.42236328125
548;1132.3311767578125;1146.018798828125;1076.7802734375;1090.6556396484377;1167.9925537109375
549;1132.099609375;1145.7396240234375;1076.3360595703123;1090.2890625;1167.5638427734375
550;1131.8681640625;1145.46044921875;1075.892333984375;1089.9241943359377;1167.136474609375
551;1131.636962890625;1145.1815185546875;1075.448974609375;1089.560546875;1166.71044921875
552;1131.406005859375;1144.903076171875;1075.005615234375;1089.19873046875;1166.285888671875
553;1131.175048828125;1144.6248779296875;1074.56396484375;1088.8380126953123;1165.8626708984375
554;1130.9443359375;1144.3468017578125;1074.123046875;1088.47900390625;1165.440673828125
555;1130.7137451171875;1144.0692138671875;1073.682373046875;1088.121337890625;1165.0203857421875
556;1130.4832763671875;1143.7918701171875;1073.2425537109377;1087.76513671875;1164.601318359375
557;1130.2530517578125;1143.5150146484375;1072.80517578125;1087.4102783203123;1164.18359375
558;1130.0228271484375;1143.238037109375;1072.3687744140623;1087.056640625;1163.767333984375
559;1129.7928466796875;1142.96142578125;1071.9327392578123;1086.7041015625;1163.352294921875
560;1129.562744140625;1142.685546875;1071.4971923828123;1086.3529052734377;1162.938720703125
561;1129.332763671875;1142.4095458984375;1071.0623779296877;1086.003173828125;1162.5264892578125
562;1129.1031494140625;1142.1341552734375;1070.6282958984377;1085.65478515625;1162.115478515625
563;1128.8734130859375;1141.85888671875;1070.19482421875;1085.3074951171877;1161.705810546875
564;1128.6439208984375;1141.5841064453125;1069.7618408203123;1084.96142578125;1161.297607421875
565;1128.41455078125;1141.3095703125;1069.3294677734377;1084.61669921875;1160.89111328125
566;1128.1854248046875;1141.03515625;1068.897705078125;1084.2734375;1160.4862060546875
567;1127.9564208984375;1140.76123046875;1068.46630859375;1083.93115234375;1160.082275390625
568;1127.7276611328125;1140.4876708984375;1068.03564453125;1083.58984375;1159.6796875
569;1127.4989013671875;1140.21435546875;1067.6053466796877;1083.249755859375;1159.278564453125
570;1127.2701416015625;1139.941162109375;1067.1754150390623;1082.910888671875;1158.87890625
571;1127.041748046875;1139.668212890625;1066.7462158203123;1082.573486328125;1158.4803466796875
572;1126.813232421875;1139.395751953125;1066.3175048828123;1082.237060546875;1158.0831298828125
573;1126.584716796875;1139.12353515625;1065.8895263671877;1081.9017333984377;1157.6873779296875
574;1126.3565673828125;1138.8511962890625;1065.4620361328123;1081.5675048828123;1157.292724609375
575;1126.12841796875;1138.5794677734375;1065.0350341796877;1081.234375;1156.8992919921875
576;1125.900390625;1138.307861328125;1064.608154296875;1080.9019775390623;1156.507568359375
577;1125.6727294921877;1138.03662109375;1064.18212890625;1080.5709228515623;1156.1171875
578;1125.445068359375;1137.765625;1063.7564697265623;1080.24072265625;1155.7276611328125
579;1125.217529296875;1137.4947509765625;1063.33154296875;1079.9117431640623;1155.339599609375
580;1124.990234375;1137.22412109375;1062.90673828125;1079.58349609375;1154.953125
581;1124.7628173828123;1136.9542236328125;1062.482666015625;1079.256591796875;1154.568359375
582;1124.5357666015623;1136.6842041015625;1062.05908203125;1078.9305419921877;1154.1846923828125
583;1124.3087158203123;1136.41455078125;1061.6358642578123;1078.6053466796877;1153.80224609375
584;1124.0816650390623;1136.145263671875;1061.213134765625;1078.2811279296877;1153.421142578125
585;1123.854736328125;1135.8763427734375;1060.7908935546877;1077.9580078125;1153.041259765625
586;1123.628173828125;1135.607666015625;1060.368896484375;1077.635498046875;1152.6627197265625
587;1123.4014892578123;1135.3392333984375;1059.9476318359377;1077.3143310546877;1152.285888671875
588;1123.1749267578123;1135.0709228515625;1059.52685546875;1076.9942626953123;1151.910400390625
589;1122.9486083984377;1134.802978515625;1059.1064453125;1076.67529296875;1151.5360107421875
590;1122.7225341796877;1134.5352783203125;1058.6866455078123;1076.357421875;1151.164306640625
591;1122.4964599609377;1134.2679443359375;1058.26708984375;1076.040283203125;1150.7938232421875
592;1122.2706298828123;1134.0006103515625;1057.84814453125;1075.72412109375;1150.424560546875
593;1122.0447998046877;1133.7337646484375;1057.4298095703123;1075.408935546875;1150.0565185546875
594;1121.819091796875;1133.46728515625;1057.01171875;1075.0948486328123;1149.6898193359375
595;1121.593505859375;1133.2008056640625;1056.59423828125;1074.78173828125;1149.32421875
596;1121.3680419921877;1132.9346923828125;1056.17724609375;1074.469482421875;1148.9598388671875
597;1121.1427001953123;1132.6689453125;1055.760986328125;1074.158203125;1148.5968017578125
598;1120.917236328125;1132.4031982421875;1055.3453369140623;1073.8477783203123;1148.23486328125
599;1120.692138671875;1132.13818359375;1054.930419921875;1073.5377197265623;1147.874267578125
600;1120.467041015625;1131.873046875;1054.5157470703123;1073.2288818359377;1147.5145263671875
601;1120.241943359375;1131.608154296875;1054.1014404296877;1072.9208984375;1147.15576171875
602;1120.017333984375;1131.343505859375;1053.6878662109377;1072.6136474609377;1146.7982177734375
603;1119.792724609375;1131.0794677734375;1053.2747802734377;1072.3070068359377;1146.4422607421875
604;1119.5679931640623;1130.815673828125;1052.8624267578123;1072.001220703125;1146.0877685546875
605;1119.3436279296877;1130.5518798828125;1052.4505615234377;1071.6962890625;1145.734375
606;1119.119140625;1130.2882080078125;1052.0400390625;1071.391845703125;1145.382080078125
607;1118.894775390625;1130.02490234375;1051.6300048828123;1071.0887451171877;1145.03076171875
608;1118.6705322265623;1129.7620849609375;1051.220947265625;1070.7864990234377;1144.680419921875
609;1118.4466552734377;1129.4993896484375;1050.812255859375;1070.4849853515623;1144.33154296875
610;1118.222900390625;1129.2369384765625;1050.4044189453123;1070.184326171875;1143.983642578125
611;1117.9993896484377;1128.974609375;1049.9967041015623;1069.88427734375;1143.63671875
612;1117.7760009765623;1128.712646484375;1049.590087890625;1069.5850830078123;1143.291748046875
613;1117.552490234375;1128.451171875;1049.18408203125;1069.2864990234377;1142.94775390625
614;1117.3292236328123;1128.189453125;1048.7783203125;1068.9884033203123;1142.60498046875
615;1117.106201171875;1127.9283447265625;1048.37353515625;1068.691162109375;1142.2630615234375
616;1116.88330078125;1127.66748046875;1047.9700927734377;1068.3946533203123;1141.922119140625
617;1116.6605224609377;1127.406982421875;1047.5670166015623;1068.0989990234377;1141.5823974609375
618;1116.437744140625;1127.1463623046875;1047.16455078125;1067.803955078125;1141.2435302734375
619;1116.2149658203123;1126.88623046875;1046.7626953125;1067.509521484375;1140.905517578125
620;1115.992431640625;1126.62646484375;1046.361572265625;1067.2158203125;1140.5692138671875
621;1115.7701416015623;1126.36669921875;1045.9609375;1066.9227294921877;1140.234130859375
622;1115.5478515625;1126.107421875;1045.560791015625;1066.6300048828123;1139.8997802734375
623;1115.3255615234377;1125.84814453125;1045.1611328125;1066.338134765625;1139.5665283203125
624;1115.103515625;1125.589111328125;1044.76220703125;1066.0469970703123;1139.2344970703125
625;1114.8814697265623;1125.330322265625;1044.3638916015623;1065.7562255859377;1138.903076171875
626;1114.6595458984377;1125.0716552734377;1043.96630859375;1065.4659423828123;1138.5726318359375
627;1114.4378662109377;1124.8133544921877;1043.56884765625;1065.176513671875;1138.2432861328125
628;1114.2164306640623;1124.555419921875;1043.17236328125;1064.8878173828123;1137.91455078125
629;1113.994873046875;1124.29736328125;1042.7762451171877;1064.5997314453123;1137.5870361328125
630;1113.7734375;1124.039794921875;1042.3809814453123;1064.3118896484377;1137.26025390625
631;1113.5521240234377;1123.782470703125;1041.986083984375;1064.0252685546877;1136.9346923828125
632;1113.3311767578123;1123.5252685546877;1041.5919189453123;1063.739013671875;1136.6097412109375
633;1113.1097412109377;1123.2684326171877;1041.1983642578123;1063.453369140625;1136.285888671875
634;1112.8887939453123;1123.01171875;1040.8052978515623;1063.168212890625;1135.9632568359375
635;1112.6678466796877;1122.7552490234377;1040.412841796875;1062.8839111328123;1135.6409912109375
636;1112.4468994140623;1122.4990234375;1040.021240234375;1062.5999755859377;1135.3199462890625
637;1112.2261962890623;1122.2430419921877;1039.6300048828123;1062.3167724609377;1134.9996337890625
638;1112.0054931640623;1121.9873046875;1039.2401123046877;1062.033935546875;1134.6807861328125
639;1111.7850341796877;1121.731689453125;1038.85107421875;1061.751708984375;1134.3626708984375
640;1111.5645751953123;1121.4764404296877;1038.462646484375;1061.4700927734377;1134.0455322265625
641;1111.3443603515623;1121.22119140625;1038.07470703125;1061.1890869140623;1133.7293701171875
642;1111.1240234375;1120.966552734375;1037.687744140625;1060.9085693359377;1133.4140625
643;1110.90380859375;1120.7120361328123;1037.30126953125;1060.6285400390623;1133.099365234375
644;1110.683837890625;1120.45751953125;1036.9154052734377;1060.3492431640623;1132.785400390625
645;1110.4637451171877;1120.203369140625;1036.530029296875;1060.070556640625;1132.472412109375
646;1110.243896484375;1119.94921875;1036.1455078125;1059.79248046875;1132.1602783203125
647;1110.024169921875;1119.6956787109377;1035.761474609375;1059.5146484375;1131.8492431640625
648;1109.804443359375;1119.442138671875;1035.3779296875;1059.2373046875;1131.538818359375
649;1109.5848388671877;1119.18896484375;1034.9949951171877;1058.960693359375;1131.2296142578125
650;1109.365478515625;1118.9359130859377;1034.61279296875;1058.6846923828123;1130.92138671875
651;1109.146240234375;1118.68310546875;1034.2315673828123;1058.4095458984377;1130.6138916015625
652;1108.9268798828123;1118.430419921875;1033.8507080078123;1058.134765625;1130.30712890625
653;1108.707763671875;1118.1781005859377;1033.47021484375;1057.860595703125;1130.0013427734375
654;1108.4888916015623;1117.92578125;1033.0906982421877;1057.5869140625;1129.696044921875
655;1108.269775390625;1117.673828125;1032.7120361328123;1057.3133544921877;1129.391845703125
656;1108.0509033203123;1117.422119140625;1032.3336181640623;1057.04052734375;1129.0880126953125
657;1107.832275390625;1117.17041015625;1031.9561767578123;1056.76806640625;1128.784912109375
658;1107.613525390625;1116.9190673828123;1031.5791015625;1056.49609375;1128.4825439453125
659;1107.3951416015623;1116.6680908203123;1031.2030029296877;1056.224609375;1128.180908203125
660;1107.1767578125;1116.4171142578123;1030.8275146484377;1055.9534912109377;1127.8797607421875
661;1106.9586181640623;1116.1663818359377;1030.45263671875;1055.6827392578123;1127.5794677734375
662;1106.740478515625;1115.9158935546877;1030.0784912109377;1055.41259765625;1127.2796630859375
663;1106.5225830078123;1115.66552734375;1029.7049560546877;1055.1429443359377;1126.98046875
664;1106.3048095703123;1115.41552734375;1029.3323974609377;1054.873779296875;1126.6820068359375
665;1106.0870361328123;1115.1656494140623;1028.96044921875;1054.60498046875;1126.3843994140625
666;1105.8692626953123;1114.9158935546877;1028.589111328125;1054.33642578125;1126.0870361328125
667;1105.6517333984377;1114.6666259765623;1028.21826171875;1054.0687255859377;1125.790283203125
668;1105.4342041015623;1114.41748046875;1027.84814453125;1053.8011474609377;1125.4942626953123
669;1105.2169189453123;1114.1683349609377;1027.4788818359377;1053.5341796875;1125.198974609375
670;1104.99951171875;1113.91943359375;1027.110107421875;1053.2674560546877;1124.9044189453123
671;1104.7823486328123;1113.6707763671877;1026.7421875;1053.0013427734377;1124.610595703125
672;1104.5653076171877;1113.42236328125;1026.375;1052.7353515625;1124.317138671875
673;1104.3485107421877;1113.1741943359377;1026.00830078125;1052.4700927734377;1124.0250244140623
674;1104.131591796875;1112.9261474609377;1025.642333984375;1052.2052001953123;1123.733642578125
675;1103.914794921875;1112.6783447265623;1025.27685546875;1051.9407958984377;1123.44287109375
676;1103.6981201171877;1112.4307861328123;1024.912109375;1051.676513671875;1123.1527099609377
677;1103.4814453125;1112.1832275390623;1024.548095703125;1051.4127197265623;1122.86328125
678;1103.264892578125;1111.9361572265623;1024.1845703125;1051.149169921875;1122.574462890625
679;1103.048583984375;1111.6890869140623;1023.8221435546876;1050.8863525390623;1122.2862548828123
680;1102.8321533203123;1111.442138671875;1023.4602661132812;1050.623779296875;1121.99853515625
681;1102.6158447265623;1111.1956787109377;1023.0991821289062;1050.36181640625;1121.71142578125
682;1102.3997802734377;1110.94921875;1022.7385864257812;1050.099853515625;1121.4254150390623
683;1102.1837158203123;1110.7030029296877;1022.3786010742188;1049.8382568359377;1121.14013671875
684;1101.9676513671877;1110.45703125;1022.0194091796876;1049.5771484375;1120.85595703125
685;1101.7518310546877;1110.211181640625;1021.6610107421876;1049.3162841796877;1120.5726318359377
686;1101.5361328125;1109.9654541015623;1021.3032836914062;1049.055908203125;1120.2899169921877
687;1101.3203125;1109.7200927734377;1020.9461669921876;1048.7960205078123;1120.0076904296877
688;1101.104736328125;1109.474853515625;1020.590087890625;1048.53662109375;1119.726318359375
689;1100.8892822265623;1109.2296142578123;1020.2342529296876;1048.277587890625;1119.4453125
690;1100.6737060546877;1108.98486328125;1019.8792114257812;1048.0186767578123;1119.164794921875
691;1100.4583740234377;1108.740234375;1019.5250854492188;1047.76025390625;1118.885009765625
692;1100.2430419921877;1108.495849609375;1019.171630859375;1047.502197265625;1118.6055908203123
693;1100.02783203125;1108.251708984375;1018.819091796875;1047.24462890625;1118.3267822265623
694;1099.812744140625;1108.007568359375;1018.4672241210938;1046.9876708984377;1118.04833984375
695;1099.597900390625;1107.7637939453123;1018.115966796875;1046.7308349609377;1117.770263671875
696;1099.3828125;1107.5201416015623;1017.765625;1046.474365234375;1117.492919921875
697;1099.168212890625;1107.27685546875;1017.416259765625;1046.2183837890623;1117.216064453125
698;1098.953369140625;1107.0335693359377;1017.0675048828124;1045.962646484375;1116.9393310546877
699;1098.738525390625;1106.79052734375;1016.7194213867188;1045.7071533203123;1116.663330078125
700;1098.524169921875;1106.547607421875;1016.3720703125;1045.451904296875;1116.387451171875
701;1098.3094482421877;1106.30517578125;1016.025634765625;1045.197021484375;1116.1121826171877
702;1098.094970703125;1106.0626220703123;1015.679443359375;1044.9427490234377;1115.8375244140623
703;1097.880615234375;1105.820068359375;1015.3342895507812;1044.6885986328123;1115.563232421875
704;1097.6663818359377;1105.5777587890623;1014.9896850585938;1044.4349365234377;1115.289306640625
705;1097.4521484375;1105.3358154296877;1014.6458129882812;1044.181640625;1115.0157470703123
706;1097.238037109375;1105.093994140625;1014.302734375;1043.9285888671877;1114.7427978515623
707;1097.0240478515623;1104.852294921875;1013.9603881835938;1043.67578125;1114.470458984375
708;1096.8099365234377;1104.61083984375;1013.6185913085938;1043.42333984375;1114.198486328125
709;1096.5960693359377;1104.3695068359377;1013.2780151367188;1043.171142578125;1113.9268798828123
710;1096.3822021484377;1104.12841796875;1012.9378051757812;1042.9193115234377;1113.655517578125
711;1096.16845703125;1103.887451171875;1012.5983276367188;1042.6676025390623;1113.3846435546877
712;1095.9549560546877;1103.6468505859377;1012.259521484375;1042.41650390625;1113.1143798828123
713;1095.7412109375;1103.4063720703123;1011.9215698242188;1042.16552734375;1112.84423828125
714;1095.5277099609377;1103.165771484375;1011.5841064453124;1041.9150390625;1112.57470703125
715;1095.3143310546877;1102.9256591796877;1011.2474975585938;1041.664794921875;1112.3055419921877
716;1095.1009521484377;1102.6856689453123;1010.9116821289062;1041.4149169921877;1112.0367431640623
717;1094.8876953125;1102.44580078125;1010.5765991210938;1041.1651611328123;1111.7681884765623
718;1094.674560546875;1102.2061767578123;1010.2421875;1040.9158935546877;1111.5001220703123
719;1094.4613037109377;1101.966796875;1009.9086303710938;1040.666748046875;1111.2322998046877
720;1094.248291015625;1101.7274169921877;1009.5757446289062;1040.41796875;1110.965087890625
721;1094.035400390625;1101.4881591796877;1009.2435913085938;1040.16943359375;1110.6981201171877
722;1093.822509765625;1101.2493896484377;1008.9122314453124;1039.9212646484377;1110.431396484375
723;1093.6097412109377;1101.010498046875;1008.5813598632812;1039.67333984375;1110.165283203125
724;1093.397216796875;1100.77197265625;1008.2514038085938;1039.425537109375;1109.8992919921877
725;1093.1846923828123;1100.533447265625;1007.9221801757812;1039.17822265625;1109.6339111328123
726;1092.97216796875;1100.295166015625;1007.5936279296876;1038.93115234375;1109.36865234375
727;1092.7596435546877;1100.05712890625;1007.265869140625;1038.6842041015623;1109.1038818359377
728;1092.5472412109377;1099.8192138671877;1006.9387817382812;1038.4376220703123;1108.8394775390623
729;1092.3348388671877;1099.5814208984377;1006.6124267578124;1038.1912841796877;1108.575439453125
730;1092.122802734375;1099.34375;1006.2868041992188;1037.9451904296877;1108.311767578125
731;1091.9105224609377;1099.106201171875;1005.9619140625;1037.6993408203123;1108.04833984375
732;1091.698486328125;1098.8690185546877;1005.6375732421876;1037.4537353515623;1107.78515625
733;1091.4864501953123;1098.6318359375;1005.3140258789062;1037.20849609375;1107.522216796875
734;1091.274658203125;1098.39501953125;1004.990966796875;1036.96337890625;1107.2598876953123
735;1091.0628662109377;1098.1580810546877;1004.668701171875;1036.718505859375;1106.9976806640623
736;1090.8511962890623;1097.92138671875;1004.3472290039062;1036.47412109375;1106.736083984375
737;1090.6392822265623;1097.68505859375;1004.0263671875;1036.2298583984377;1106.474609375
738;1090.427734375;1097.44873046875;1003.7061767578124;1035.98583984375;1106.21337890625
739;1090.2161865234377;1097.212646484375;1003.3868408203124;1035.7420654296877;1105.9527587890623
740;1090.0047607421877;1096.9765625;1003.0679321289062;1035.4986572265623;1105.692138671875
741;1089.7933349609377;1096.7408447265623;1002.7498779296876;1035.25537109375;1105.4320068359377
742;1089.58203125;1096.5052490234377;1002.4326171875;1035.01220703125;1105.1722412109377
743;1089.370849609375;1096.2696533203123;1002.1157836914062;1034.7694091796877;1104.9127197265623
744;1089.1595458984377;1096.0343017578123;1001.7998046875;1034.52685546875;1104.6536865234377
745;1088.948486328125;1095.79931640625;1001.4842529296876;1034.28466796875;1104.3946533203123
746;1088.7374267578123;1095.5640869140623;1001.169677734375;1034.04248046875;1104.1361083984377
747;1088.526611328125;1095.3294677734377;1000.8555908203124;1033.80078125;1103.8778076171877
748;1088.315673828125;1095.0946044921877;1000.542236328125;1033.5592041015623;1103.6197509765623
749;1088.105224609375;1094.8599853515623;1000.2293701171876;1033.31787109375;1103.362060546875
750;1087.8944091796877;1094.6256103515623;999.9172973632812;1033.07666015625;1103.104736328125
751;1087.683837890625;1094.391357421875;999.6058959960938;1032.8358154296877;1102.84765625
752;1087.473388671875;1094.1573486328123;999.2953491210938;1032.59521484375;1102.5906982421877
753;1087.262939453125;1093.92333984375;998.9853515625;1032.3546142578123;1102.334228515625
754;1087.052490234375;1093.689697265625;998.676025390625;1032.1143798828123;1102.078125
755;1086.8424072265623;1093.4561767578123;998.3674926757812;1031.87451171875;1101.8221435546877
756;1086.632080078125;1093.2227783203123;998.0596923828124;1031.6346435546877;1101.566650390625
757;1086.4219970703123;1092.9893798828123;997.7523803710938;1031.3951416015623;1101.311279296875
758;1086.2117919921877;1092.75634765625;997.4459838867188;1031.156005859375;1101.0562744140623
759;1086.0018310546877;1092.5233154296877;997.1399536132812;1030.9171142578123;1100.801513671875
760;1085.7919921875;1092.29052734375;996.834716796875;1030.6783447265623;1100.546875
761;1085.58203125;1092.0577392578123;996.530029296875;1030.43994140625;1100.292724609375
762;1085.372314453125;1091.8250732421877;996.2258911132812;1030.2017822265623;1100.038818359375
763;1085.1627197265623;1091.5927734375;995.9227294921876;1029.9637451171877;1099.7852783203123
764;1084.9530029296877;1091.3607177734377;995.6201171875;1029.72607421875;1099.531982421875
765;1084.7435302734377;1091.1282958984377;995.3178100585938;1029.48876953125;1099.2789306640623
766;1084.5340576171877;1090.896484375;995.0167236328124;1029.2513427734377;1099.0262451171877
767;1084.3248291015623;1090.66455078125;994.7159423828124;1029.01416015625;1098.77392578125
768;1084.115478515625;1090.4329833984377;994.416015625;1028.777099609375;1098.521728515625
769;1083.90625;1090.2015380859377;994.1165161132812;1028.54052734375;1098.269775390625
770;1083.697021484375;1089.97021484375;993.8176879882812;1028.3040771484377;1098.0181884765623
771;1083.488037109375;1089.7388916015623;993.5194091796876;1028.06787109375;1097.766845703125
772;1083.2789306640623;1089.508056640625;993.221923828125;1027.83154296875;1097.515625
773;1083.070068359375;1089.27685546875;992.9249267578124;1027.5955810546877;1097.264892578125
774;1082.861083984375;1089.046142578125;992.6283569335938;1027.3599853515623;1097.01416015625
775;1082.6522216796877;1088.815673828125;992.3325805664062;1027.12451171875;1096.7637939453123
776;1082.443603515625;1088.585205078125;992.0374145507812;1026.889404296875;1096.5137939453123
777;1082.2347412109377;1088.3548583984377;991.7428588867188;1026.6541748046877;1096.26416015625
778;1082.026123046875;1088.12451171875;991.448974609375;1026.4193115234377;1096.0147705078123
779;1081.817626953125;1087.8944091796877;991.1557006835938;1026.1845703125;1095.765625
780;1081.609130859375;1087.66455078125;990.86328125;1025.9500732421877;1095.5164794921877
781;1081.400634765625;1087.434814453125;990.571044921875;1025.7158203125;1095.2679443359377
782;1081.1922607421877;1087.2052001953123;990.279541015625;1025.4818115234377;1095.01953125
783;1080.984130859375;1086.9757080078123;989.9887084960938;1025.2479248046877;1094.7713623046877
784;1080.775634765625;1086.746337890625;989.6983642578124;1025.0142822265623;1094.523681640625
785;1080.5675048828123;1086.51708984375;989.4085083007812;1024.78076171875;1094.2760009765623
786;1080.359375;1086.2879638671877;989.1195678710938;1024.5474853515623;1094.0286865234377
787;1080.1514892578123;1086.0592041015623;988.8309326171876;1024.314208984375;1093.781494140625
788;1079.9434814453123;1085.8304443359377;988.5428466796876;1024.081298828125;1093.53466796875
789;1079.735595703125;1085.6016845703123;988.2554321289062;1023.8486328125;1093.2879638671877
790;1079.52783203125;1085.3731689453123;987.968505859375;1023.6160888671876;1093.04150390625
791;1079.3199462890623;1085.144775390625;987.6823120117188;1023.3836669921876;1092.79541015625
792;1079.1123046875;1084.91650390625;987.396728515625;1023.151611328125;1092.5494384765623
793;1078.9046630859377;1084.688232421875;987.1114501953124;1022.9194946289062;1092.3035888671877
794;1078.697021484375;1084.46044921875;986.8268432617188;1022.6876220703124;1092.0582275390623
795;1078.489501953125;1084.232666015625;986.542724609375;1022.4560546875;1091.81298828125
796;1078.2822265625;1084.005126953125;986.2592163085938;1022.224609375;1091.5679931640623
797;1078.0748291015623;1083.7774658203123;985.9764404296876;1021.9932861328124;1091.3231201171877
798;1077.8675537109377;1083.5501708984377;985.6939086914062;1021.7621459960938;1091.07861328125
799;1077.6602783203123;1083.32275390625;985.4122314453124;1021.53125;1090.8343505859377
800;1077.453125;1083.095703125;985.1307373046876;1021.300537109375;1090.5902099609377
801;1077.2459716796877;1082.86865234375;984.8502807617188;1021.0698852539062;1090.34619140625
802;1077.038818359375;1082.641845703125;984.5700073242188;1020.839599609375;1090.1024169921877
803;1076.8319091796877;1082.4150390625;984.2904663085938;1020.609375;1089.85888671875
804;1076.625;1082.1883544921877;984.011474609375;1020.3794555664062;1089.6156005859377
805;1076.4180908203123;1081.9619140625;983.7327270507812;1020.149658203125;1089.37255859375
806;1076.2113037109377;1081.735595703125;983.454833984375;1019.920166015625;1089.129638671875
807;1076.004638671875;1081.5093994140623;983.1774291992188;1019.6907348632812;1088.886962890625
808;1075.798095703125;1081.2833251953123;982.9002685546876;1019.4616088867188;1088.64453125
809;1075.5914306640623;1081.057373046875;982.6239013671876;1019.232421875;1088.4022216796877
810;1075.3848876953123;1080.83154296875;982.3479614257812;1019.0036010742188;1088.16015625
811;1075.178466796875;1080.605712890625;982.0725708007812;1018.7749633789062;1087.9183349609377
812;1074.9720458984377;1080.3800048828123;981.7977294921876;1018.5464477539062;1087.6767578125
813;1074.7657470703123;1080.1546630859377;981.5233154296876;1018.3182373046876;1087.4351806640623
814;1074.5595703125;1079.92919921875;981.2494506835938;1018.090087890625;1087.1939697265623
815;1074.3533935546877;1079.7039794921877;980.9760131835938;1017.8621826171876;1086.952880859375
816;1074.1473388671877;1079.47900390625;980.7030029296876;1017.6344604492188;1086.7120361328123
817;1073.9412841796877;1079.2540283203123;980.4305419921876;1017.4067993164062;1086.4715576171877
818;1073.7353515625;1079.029052734375;980.1587524414062;1017.1792602539062;1086.23095703125
819;1073.5294189453123;1078.804443359375;979.8872680664062;1016.9520263671876;1085.9908447265623
820;1073.3236083984377;1078.579833984375;979.6163330078124;1016.7249145507812;1085.750732421875
821;1073.117919921875;1078.35546875;979.3460083007812;1016.498046875;1085.510986328125
822;1072.9122314453123;1078.1309814453123;979.076171875;1016.271240234375;1085.2711181640623
823;1072.7066650390623;1077.90673828125;978.806884765625;1016.0444946289062;1085.03173828125
824;1072.5009765625;1077.6826171875;978.5379638671876;1015.818115234375;1084.7926025390623
825;1072.2955322265623;1077.45849609375;978.269775390625;1015.591796875;1084.5535888671877
826;1072.090087890625;1077.2347412109377;978.001953125;1015.3655395507812;1084.314697265625
827;1071.884765625;1077.0111083984377;977.734619140625;1015.1396484375;1084.0760498046877
828;1071.6795654296877;1076.787353515625;977.4676513671876;1014.9139404296876;1083.837646484375
829;1071.4744873046877;1076.5638427734377;977.2012939453124;1014.688232421875;1083.599365234375
830;1071.269287109375;1076.34033203125;976.9354248046876;1014.462646484375;1083.3612060546877
831;1071.0643310546877;1076.116943359375;976.6697998046876;1014.2374267578124;1083.1234130859377
832;1070.8592529296877;1075.893798828125;976.4048461914062;1014.0122680664062;1082.8858642578123
833;1070.6544189453123;1075.670654296875;976.1403198242188;1013.787109375;1082.6483154296877
834;1070.4495849609377;1075.44775390625;975.8760986328124;1013.5621948242188;1082.410888671875
835;1070.244873046875;1075.2249755859377;975.6123046875;1013.3374633789062;1082.173828125
836;1070.0400390625;1075.0023193359377;975.3490600585938;1013.1129760742188;1081.93701171875
837;1069.8353271484377;1074.77978515625;975.0863647460938;1012.888671875;1081.7000732421877
838;1069.6307373046877;1074.557373046875;974.823974609375;1012.6643676757812;1081.463623046875
839;1069.42626953125;1074.3349609375;974.5621948242188;1012.440185546875;1081.2271728515623
840;1069.2216796875;1074.11279296875;974.30078125;1012.2163696289062;1080.990966796875
841;1069.017333984375;1073.890869140625;974.039794921875;1011.9924926757812;1080.7547607421877
842;1068.81298828125;1073.668701171875;973.7791748046876;1011.768798828125;1080.5189208984377
843;1068.6085205078123;1073.4468994140623;973.5189819335938;1011.5452270507812;1080.2830810546877
844;1068.404541015625;1073.22509765625;973.2592163085938;1011.3218383789062;1080.0474853515623
845;1068.2003173828123;1073.0035400390623;973.0001220703124;1011.0986328125;1079.8121337890623
846;1067.99609375;1072.7821044921877;972.7418823242188;1010.8756713867188;1079.576904296875
847;1067.7921142578123;1072.560791015625;972.4842529296876;1010.6526489257812;1079.3419189453123
848;1067.588134765625;1072.33935546875;972.2269897460938;1010.4299926757812;1079.1070556640623
849;1067.3841552734377;1072.1181640625;971.9700317382812;1010.2074584960938;1078.872314453125
850;1067.1802978515623;1071.8970947265623;971.7137451171876;1009.9850463867188;1078.6378173828123
851;1066.9766845703123;1071.67626953125;971.4581298828124;1009.7628173828124;1078.4034423828123
852;1066.7728271484377;1071.455322265625;971.2030029296876;1009.540771484375;1078.169189453125
853;1066.5692138671877;1071.234619140625;970.9481201171876;1009.3189086914062;1077.9351806640623
854;1066.3653564453123;1071.01416015625;970.6936645507812;1009.0971069335938;1077.7012939453123
855;1066.161865234375;1070.79345703125;970.439697265625;1008.8756713867188;1077.467529296875
856;1065.9583740234377;1070.5731201171877;970.1860961914062;1008.6539916992188;1077.234130859375
857;1065.7550048828123;1070.352783203125;969.9329223632812;1008.4327392578124;1077.0008544921877
858;1065.5516357421877;1070.132568359375;969.6801147460938;1008.2116088867188;1076.7677001953123
859;1065.3482666015623;1069.9124755859377;969.427734375;1007.990478515625;1076.5347900390623
860;1065.1448974609377;1069.6925048828123;969.17578125;1007.7696533203124;1076.3018798828123
861;1064.9417724609377;1069.47265625;968.9241333007812;1007.549072265625;1076.069091796875
862;1064.7388916015623;1069.2529296875;968.6729736328124;1007.3284301757812;1075.8365478515623
863;1064.53564453125;1069.0333251953123;968.4221801757812;1007.1079711914062;1075.6041259765623
864;1064.332763671875;1068.8138427734377;968.1717529296876;1006.8875732421876;1075.3720703125
865;1064.129638671875;1068.5943603515623;967.9219970703124;1006.6675415039062;1075.1400146484377
866;1063.9268798828123;1068.3751220703123;967.6725463867188;1006.4475708007812;1074.9080810546877
867;1063.7239990234377;1068.156005859375;967.4235229492188;1006.2278442382812;1074.6763916015623
868;1063.521240234375;1067.9368896484377;967.1746826171876;1006.0081176757812;1074.44482421875
869;1063.3184814453123;1067.7176513671877;966.9263305664062;1005.7887573242188;1074.21337890625
870;1063.1158447265623;1067.4989013671877;966.678466796875;1005.5694580078124;1073.982177734375
871;1062.9132080078123;1067.280029296875;966.4309692382812;1005.3502807617188;1073.7510986328123
872;1062.7105712890623;1067.061279296875;966.183837890625;1005.1312866210938;1073.52001953125
873;1062.5079345703123;1066.8427734375;965.9368286132812;1004.912353515625;1073.289306640625
874;1062.3055419921877;1066.624267578125;965.6903076171876;1004.693603515625;1073.05859375
875;1062.1031494140623;1066.40576171875;965.4442138671876;1004.4750366210938;1072.828125
876;1061.90087890625;1066.1876220703123;965.198486328125;1004.2564086914062;1072.5977783203123
877;1061.698486328125;1065.969482421875;964.9530029296876;1004.0379638671876;1072.3675537109377
878;1061.496337890625;1065.7513427734377;964.7078857421876;1003.8197631835938;1072.137451171875
879;1061.2940673828123;1065.533447265625;964.463134765625;1003.6016845703124;1071.90771484375
880;1061.0919189453123;1065.3155517578123;964.218505859375;1003.3836669921876;1071.677978515625
881;1060.8897705078123;1065.0977783203123;963.974609375;1003.165771484375;1071.448486328125
882;1060.6878662109377;1064.880126953125;963.7310180664062;1002.9481201171876;1071.2188720703123
883;1060.4859619140623;1064.66259765625;963.4877319335938;1002.730712890625;1070.9896240234377
884;1060.2840576171877;1064.4449462890623;963.2446899414062;1002.5132446289062;1070.760498046875
885;1060.0821533203123;1064.2275390625;963.0020751953124;1002.296142578125;1070.5316162109377
886;1059.8804931640623;1064.0103759765623;962.759765625;1002.0789794921876;1070.302734375
887;1059.6787109375;1063.793212890625;962.5177001953124;1001.8619995117188;1070.073974609375
888;1059.4769287109377;1063.5760498046877;962.276123046875;1001.645263671875;1069.845458984375
889;1059.275390625;1063.359130859375;962.0347290039062;1001.4285888671876;1069.6170654296877
890;1059.0738525390623;1063.1422119140623;961.793701171875;1001.2120361328124;1069.388916015625
891;1058.872314453125;1062.9254150390623;961.552978515625;1000.9954223632812;1069.16064453125
892;1058.6710205078123;1062.7088623046877;961.3125;1000.7791748046876;1068.9327392578123
893;1058.4696044921877;1062.4925537109377;961.0725708007812;1000.5629272460938;1068.704833984375
894;1058.2684326171877;1062.2760009765623;960.832763671875;1000.3469848632812;1068.4771728515623
895;1058.067138671875;1062.0596923828123;960.5932006835938;1000.1309814453124;1068.249755859375
896;1057.8660888671877;1061.8433837890623;960.3540649414062;999.915283203125;1068.0223388671877
897;1057.6650390625;1061.62744140625;960.115234375;999.6995239257812;1067.795166015625
898;1057.4639892578123;1061.411376953125;959.8766479492188;999.4839477539062;1067.5679931640623
899;1057.262939453125;1061.1951904296877;959.6383666992188;999.2685546875;1067.34130859375
900;1057.06201171875;1060.9794921875;959.4002685546876;999.0530395507812;1067.1143798828123
901;1056.8612060546877;1060.763671875;959.1626586914062;998.8377685546876;1066.8878173828123
902;1056.660400390625;1060.548095703125;958.9253540039062;998.6226196289062;1066.661376953125
903;1056.459716796875;1060.33251953125;958.6881713867188;998.4077758789062;1066.434814453125
904;1056.2589111328123;1060.116943359375;958.4512939453124;998.1926879882812;1066.2086181640623
905;1056.058349609375;1059.901611328125;958.2147216796876;997.9780883789062;1065.9825439453123
906;1055.8577880859377;1059.6864013671877;957.978515625;997.7635498046876;1065.7564697265623
907;1055.6573486328123;1059.47119140625;957.7426147460938;997.549072265625;1065.53076171875
908;1055.456787109375;1059.2559814453123;957.5069580078124;997.3346557617188;1065.3050537109377
909;1055.2564697265623;1059.041015625;957.271484375;997.120361328125;1065.0794677734377
910;1055.055908203125;1058.826171875;957.036376953125;996.90625;1064.85400390625
911;1054.855712890625;1058.6112060546877;956.801513671875;996.6923828125;1064.6287841796877
912;1054.6553955078123;1058.396484375;956.5668334960938;996.4788208007812;1064.403564453125
913;1054.455322265625;1058.1820068359377;956.3325805664062;996.2650756835938;1064.178466796875
914;1054.2552490234377;1057.96728515625;956.0985107421876;996.051513671875;1063.95361328125
915;1054.0550537109377;1057.7529296875;955.8646850585938;995.838134765625;1063.72900390625
916;1053.8551025390623;1057.53857421875;955.631103515625;995.6248779296876;1063.5042724609377
917;1053.655029296875;1057.3243408203123;955.3978881835938;995.411865234375;1063.2796630859377
918;1053.4549560546877;1057.110107421875;955.1649169921876;995.1990966796876;1063.0552978515623
919;1053.255126953125;1056.8961181640623;954.9321899414062;994.9862060546876;1062.8309326171877
920;1053.0552978515623;1056.68212890625;954.6996459960938;994.773681640625;1062.6068115234377
921;1052.8553466796877;1056.4681396484377;954.4673461914062;994.5609741210938;1062.3829345703123
922;1052.65576171875;1056.25439453125;954.2353515625;994.3486328125;1062.1590576171877
923;1052.4561767578123;1056.040771484375;954.003662109375;994.1364135742188;1061.9354248046877
924;1052.2564697265623;1055.827392578125;953.7723388671876;993.9241333007812;1061.7120361328123
925;1052.056884765625;1055.6138916015623;953.5411376953124;993.7120361328124;1061.4884033203123
926;1051.857421875;1055.400390625;953.3102416992188;993.5001220703124;1061.2650146484377
927;1051.657958984375;1055.18701171875;953.0796508789062;993.2880859375;1061.041748046875
928;1051.4583740234377;1054.97412109375;952.8493041992188;993.076416015625;1060.8187255859377
929;1051.259033203125;1054.7608642578123;952.6192626953124;992.8646850585938;1060.5958251953123
930;1051.059814453125;1054.5478515625;952.389404296875;992.6531982421876;1060.373046875
931;1050.8604736328123;1054.3348388671877;952.1598510742188;992.4418334960938;1060.1502685546877
932;1050.6612548828123;1054.1219482421877;951.930419921875;992.2303466796876;1059.927734375
933;1050.4620361328123;1053.9091796875;951.701416015625;992.019287109375;1059.705322265625
934;1050.262939453125;1053.696533203125;951.47265625;991.808349609375;1059.4830322265623
935;1050.0638427734377;1053.48388671875;951.2440185546876;991.597412109375;1059.2608642578123
936;1049.864990234375;1053.271240234375;951.015625;991.3865966796876;1059.038818359375
937;1049.6661376953123;1053.0589599609377;950.7874145507812;991.1759033203124;1058.816650390625
938;1049.4674072265623;1052.8466796875;950.5595703125;990.9652709960938;1058.5948486328123
939;1049.2686767578123;1052.63427734375;950.3319091796876;990.7548828125;1058.3731689453123
940;1049.0699462890623;1052.42236328125;950.1044921875;990.5444946289062;1058.1517333984377
941;1048.871337890625;1052.210205078125;949.8772583007812;990.334228515625;1057.9300537109377
942;1048.6727294921877;1051.9981689453123;949.6502685546876;990.1241455078124;1057.708740234375
943;1048.4742431640623;1051.7862548828123;949.423583984375;989.9140625;1057.4874267578123
944;1048.2757568359377;1051.57470703125;949.197021484375;989.7041015625;1057.2662353515623
945;1048.077392578125;1051.3629150390623;948.9708251953124;989.494384765625;1057.0452880859377
946;1047.87890625;1051.151123046875;948.7446899414062;989.2847290039062;1056.824462890625
947;1047.6806640625;1050.939697265625;948.5189819335938;989.074951171875;1056.6036376953123
948;1047.4822998046877;1050.728271484375;948.2933959960938;988.8655395507812;1056.3829345703123
949;1047.2841796875;1050.516845703125;948.068115234375;988.65625;1056.1624755859377
950;1047.0859375;1050.3055419921877;947.843017578125;988.4469604492188;1055.9420166015623
951;1046.8878173828123;1050.0943603515623;947.6180419921876;988.2378540039062;1055.7215576171877
952;1046.689697265625;1049.88330078125;947.3934326171876;988.0286254882812;1055.50146484375
953;1046.4918212890623;1049.67236328125;947.1689453125;987.8197631835938;1055.2813720703123
954;1046.2938232421877;1049.46142578125;946.9447631835938;987.6109008789062;1055.061279296875
955;1046.0958251953123;1049.25048828125;946.720703125;987.402099609375;1054.8414306640623
956;1045.8980712890623;1049.03955078125;946.4970703125;987.193603515625;1054.621826171875
957;1045.7001953125;1048.8289794921877;946.2737426757812;986.985107421875;1054.402099609375
958;1045.5023193359377;1048.618408203125;946.05078125;986.7766723632812;1054.1824951171877
959;1045.3045654296877;1048.40771484375;945.827880859375;986.568359375;1053.963134765625
960;1045.1070556640623;1048.197509765625;945.605224609375;986.360107421875;1053.743896484375
961;1044.9093017578123;1047.987060546875;945.3826904296876;986.1520385742188;1053.5247802734377
962;1044.7117919921877;1047.77685546875;945.160400390625;985.944091796875;1053.3057861328123
963;1044.5142822265623;1047.5667724609377;944.9383544921876;985.736083984375;1053.0867919921877
964;1044.3167724609377;1047.356689453125;944.716552734375;985.528564453125;1052.8680419921877
965;1044.1192626953123;1047.1466064453123;944.4949951171876;985.3208618164062;1052.6492919921877
966;1043.9219970703123;1046.9368896484377;944.273681640625;985.1134033203124;1052.4307861328123
967;1043.7247314453123;1046.72705078125;944.052490234375;984.9058227539062;1052.21240234375
968;1043.52734375;1046.5172119140623;943.8314819335938;984.698486328125;1051.9940185546877
969;1043.3302001953123;1046.3074951171877;943.6106567382812;984.4912109375;1051.77587890625
970;1043.133056640625;1046.097900390625;943.3901977539062;984.2841796875;1051.5577392578123
971;1042.935791015625;1045.888427734375;943.1697998046876;984.076904296875;1051.339599609375
972;1042.7386474609377;1045.6790771484377;942.9497680664062;983.8699951171876;1051.1217041015623
973;1042.5416259765623;1045.4696044921877;942.729736328125;983.6632080078124;1050.9039306640623
974;1042.3446044921877;1045.26025390625;942.510009765625;983.456298828125;1050.686279296875
975;1042.147705078125;1045.0511474609377;942.2904663085938;983.2495727539062;1050.46875
976;1041.95068359375;1044.842041015625;942.071044921875;983.0428466796876;1050.2513427734377
977;1041.7537841796877;1044.6329345703123;941.851806640625;982.8363647460938;1050.0338134765623
978;1041.5570068359377;1044.4239501953123;941.6328125;982.6297607421876;1049.8165283203123
979;1041.3602294921877;1044.215087890625;941.413818359375;982.423583984375;1049.599365234375
980;1041.1634521484377;1044.00634765625;941.1953125;982.2174682617188;1049.38232421875
981;1040.9669189453123;1043.7974853515623;940.9768676757812;982.0111694335938;1049.1654052734377
982;1040.770263671875;1043.5889892578123;940.758544921875;981.8053588867188;1048.948486328125
983;1040.5736083984377;1043.38037109375;940.5404663085938;981.5991821289062;1048.7318115234377
984;1040.377197265625;1043.171875;940.3226928710938;981.393310546875;1048.5152587890623
985;1040.1805419921877;1042.96337890625;940.1051635742188;981.1876220703124;1048.2987060546877
986;1039.9842529296877;1042.7552490234377;939.8876953125;980.9818725585938;1048.082275390625
987;1039.7879638671877;1042.546875;939.6703491210938;980.7762451171876;1047.865966796875
988;1039.591796875;1042.3387451171877;939.4532470703124;980.5706176757812;1047.6497802734377
989;1039.3955078125;1042.130615234375;939.236572265625;980.365234375;1047.4337158203123
990;1039.1993408203123;1041.922607421875;939.0198364257812;980.1598510742188;1047.2176513671877
991;1039.0030517578123;1041.71484375;938.8034057617188;979.9546508789062;1047.001708984375
992;1038.806884765625;1041.5069580078123;938.587158203125;979.7493286132812;1046.7860107421877
993;1038.6109619140623;1041.2991943359377;938.3709716796876;979.5442504882812;1046.5703125
994;1038.4149169921877;1041.0914306640623;938.155029296875;979.3392944335938;1046.3548583984377
995;1038.218994140625;1040.8839111328123;937.9393310546876;979.1343383789062;1046.1392822265623
996;1038.023193359375;1040.67626953125;937.723876953125;978.9296875;1045.924072265625
997;1037.8272705078123;1040.46875;937.5084838867188;978.724853515625;1045.7086181640623
998;1037.6314697265623;1040.26123046875;937.293212890625;978.5202026367188;1045.4935302734377
999;1037.4356689453123;1040.05419921875;937.078125;978.3157348632812;1045.2784423828123
