;fold_0;fold_1;fold_2;fold_3;fold_4
0;1310.7894287109375;1326.466064453125;1323.876953125;1332.833740234375;1391.163818359375
1;1310.657470703125;1326.25341796875;1323.749755859375;1332.5037841796875;1391.02001953125
2;1310.505615234375;1326.0408935546875;1323.640625;1332.22119140625;1390.8538818359375
3;1310.3446044921875;1325.8291015625;1323.5135498046875;1331.89208984375;1390.6602783203125
4;1310.1785888671875;1325.6175537109375;1323.38623046875;1331.5634765625;1390.466552734375
5;1310.001708984375;1325.4066162109375;1323.2587890625;1331.2352294921875;1390.2808837890625
6;1309.830322265625;1325.2022705078125;1323.1314697265625;1330.9075927734375;1390.0926513671875
7;1309.653564453125;1324.9920654296875;1323.0037841796875;1330.5802001953125;1389.8984375
8;1309.4769287109375;1324.78515625;1322.876220703125;1330.2532958984375;1389.703857421875
9;1309.3006591796875;1324.57568359375;1322.7484130859375;1329.9296875;1389.510986328125
10;1309.1251220703125;1324.3675537109375;1322.620361328125;1329.6036376953125;1389.3170166015625
11;1308.9488525390625;1324.15869140625;1322.4923095703125;1329.278564453125;1389.1219482421875
12;1308.7724609375;1323.9501953125;1322.3641357421875;1328.953125;1388.926513671875
13;1308.595703125;1323.740966796875;1322.2352294921875;1328.627197265625;1388.73046875
14;1308.4188232421875;1323.53271484375;1322.10595703125;1328.3026123046875;1388.5338134765625
15;1308.242919921875;1323.3243408203125;1321.9764404296875;1327.9783935546875;1388.336669921875
16;1308.0670166015625;1323.114501953125;1321.8463134765625;1327.6546630859375;1388.1392822265625
17;1307.8909912109375;1322.904296875;1321.7156982421875;1327.331298828125;1387.941162109375
18;1307.7137451171875;1322.69384765625;1321.5860595703125;1327.008056640625;1387.74267578125
19;1307.5360107421875;1322.4830322265625;1321.45458984375;1326.6854248046875;1387.5438232421875
20;1307.3604736328125;1322.274169921875;1321.32275390625;1326.3629150390625;1387.3448486328125
21;1307.1846923828125;1322.06298828125;1321.191650390625;1326.0408935546875;1387.145263671875
22;1307.0069580078125;1321.851318359375;1321.06005859375;1325.71923828125;1386.9476318359375
23;1306.8314208984375;1321.6396484375;1320.9263916015625;1325.39404296875;1386.7476806640625
24;1306.6556396484375;1321.429931640625;1320.792236328125;1325.0731201171875;1386.5494384765625
25;1306.4801025390625;1321.217529296875;1320.6588134765625;1324.7523193359375;1386.351318359375
26;1306.3023681640625;1321.0048828125;1320.524658203125;1324.4317626953125;1386.1502685546875
27;1306.1243896484375;1320.79443359375;1320.38818359375;1324.1114501953125;1385.9512939453125
28;1305.9466552734375;1320.5811767578125;1320.2510986328125;1323.79150390625;1385.7520751953125
29;1305.768798828125;1320.3701171875;1320.11474609375;1323.4718017578125;1385.550537109375
30;1305.593017578125;1320.15625;1319.9757080078125;1323.152099609375;1385.3482666015625
31;1305.4151611328125;1319.94482421875;1319.837646484375;1322.828857421875;1385.145751953125
32;1305.2391357421875;1319.7303466796875;1319.69873046875;1322.509765625;1384.9429931640625
33;1305.061279296875;1319.5157470703125;1319.55712890625;1322.1907958984375;1384.742431640625
34;1304.883056640625;1319.3031005859375;1319.4146728515625;1321.87158203125;1384.5390625
35;1304.704833984375;1319.087646484375;1319.2713623046875;1321.552734375;1384.33544921875
36;1304.526611328125;1318.8719482421875;1319.127197265625;1321.2303466796875;1384.133544921875
37;1304.3502197265625;1318.6583251953125;1318.98193359375;1320.907958984375;1383.9315185546875
38;1304.1717529296875;1318.4443359375;1318.8355712890625;1320.5892333984375;1383.7291259765625
39;1303.9932861328125;1318.2298583984375;1318.68994140625;1320.2667236328125;1383.526611328125
40;1303.8145751953125;1318.0126953125;1318.54345703125;1319.9443359375;1383.323486328125
41;1303.6358642578125;1317.7952880859375;1318.39599609375;1319.625244140625;1383.117919921875
42;1303.458740234375;1317.577392578125;1318.2474365234375;1319.305908203125;1382.9140625
43;1303.2813720703125;1317.3612060546875;1318.09619140625;1318.986572265625;1382.7098388671875
44;1303.1021728515625;1317.1424560546875;1317.94384765625;1318.666748046875;1382.5032958984375
45;1302.9227294921875;1316.925537109375;1317.7923583984375;1318.346923828125;1382.29638671875
46;1302.7431640625;1316.7059326171875;1317.637939453125;1318.0234375;1382.0892333984375
47;1302.5650634765625;1316.48583984375;1317.48388671875;1317.6998291015625;1381.883544921875
48;1302.385009765625;1316.265380859375;1317.328857421875;1317.3787841796875;1381.67578125
49;1302.204833984375;1316.0445556640625;1317.1728515625;1317.054443359375;1381.46728515625
50;1302.0242919921875;1315.8231201171875;1317.015625;1316.729736328125;1381.2606201171875
51;1301.8436279296875;1315.6011962890625;1316.8572998046875;1316.4073486328125;1381.051513671875
52;1301.664306640625;1315.3787841796875;1316.696533203125;1316.0816650390625;1380.8421630859375
53;1301.4830322265625;1315.1578369140625;1316.53466796875;1315.75830078125;1380.63232421875
54;1301.302978515625;1314.9361572265625;1316.37158203125;1315.4345703125;1380.42236328125
55;1301.1212158203125;1314.7142333984375;1316.20849609375;1315.1099853515625;1380.2135009765625
56;1300.939208984375;1314.4913330078125;1316.04443359375;1314.7847900390625;1380.00439453125
57;1300.7567138671875;1314.26806640625;1315.87939453125;1314.4591064453125;1379.7930908203125
58;1300.5753173828125;1314.04248046875;1315.7130126953125;1314.1326904296875;1379.58154296875
59;1300.3936767578125;1313.8160400390625;1315.5455322265625;1313.802978515625;1379.369384765625
60;1300.210205078125;1313.58935546875;1315.3765869140625;1313.472412109375;1379.1585693359375
61;1300.0263671875;1313.363525390625;1315.206787109375;1313.14404296875;1378.94580078125
62;1299.842041015625;1313.1370849609375;1315.0357666015625;1312.8145751953125;1378.7325439453125
63;1299.6575927734375;1312.909912109375;1314.8636474609375;1312.48193359375;1378.5189208984375
64;1299.473876953125;1312.68212890625;1314.6888427734375;1312.15087890625;1378.304931640625
65;1299.289794921875;1312.4517822265625;1314.5128173828125;1311.8189697265625;1378.0919189453125
66;1299.1038818359375;1312.22265625;1314.3370361328125;1311.486328125;1377.8770751953125
67;1298.9188232421875;1311.99267578125;1314.15869140625;1311.152587890625;1377.6617431640625
68;1298.732177734375;1311.7603759765625;1313.980224609375;1310.818115234375;1377.4476318359375
69;1298.5447998046875;1311.52880859375;1313.8006591796875;1310.4803466796875;1377.2315673828125
70;1298.3568115234375;1311.296630859375;1313.6197509765625;1310.1416015625;1377.01513671875
71;1298.168701171875;1311.0621337890625;1313.4378662109375;1309.802001953125;1376.799560546875
72;1297.981201171875;1310.82666015625;1313.25439453125;1309.46142578125;1376.583740234375
73;1297.7918701171875;1310.592041015625;1313.06982421875;1309.1221923828125;1376.3673095703125
74;1297.601806640625;1310.3563232421875;1312.884033203125;1308.7796630859375;1376.1490478515625
75;1297.411376953125;1310.1185302734375;1312.69580078125;1308.4383544921875;1375.930419921875
76;1297.2215576171875;1309.88134765625;1312.507568359375;1308.095947265625;1375.71142578125
77;1297.0299072265625;1309.6417236328125;1312.31787109375;1307.7503662109375;1375.4932861328125
78;1296.8389892578125;1309.4027099609375;1312.1270751953125;1307.40576171875;1375.2747802734375
79;1296.6458740234375;1309.161376953125;1311.9349365234375;1307.0601806640625;1375.054443359375
80;1296.453857421875;1308.92041015625;1311.74072265625;1306.7135009765625;1374.8336181640625
81;1296.2596435546875;1308.6787109375;1311.544677734375;1306.3656005859375;1374.613525390625
82;1296.066162109375;1308.43603515625;1311.34765625;1306.0164794921875;1374.3919677734375
83;1295.871826171875;1308.1907958984375;1311.150390625;1305.6644287109375;1374.1697998046875
84;1295.6756591796875;1307.94482421875;1310.9508056640625;1305.3111572265625;1373.9486083984375
85;1295.478759765625;1307.697509765625;1310.749755859375;1304.956787109375;1373.726806640625
86;1295.2813720703125;1307.45068359375;1310.5477294921875;1304.60107421875;1373.504638671875
87;1295.084228515625;1307.20166015625;1310.3443603515625;1304.2462158203125;1373.28076171875
88;1294.886474609375;1306.9515380859375;1310.1407470703125;1303.88818359375;1373.0565185546875
89;1294.687744140625;1306.7001953125;1309.9345703125;1303.529052734375;1372.831787109375
90;1294.4873046875;1306.4490966796875;1309.728271484375;1303.1705322265625;1372.6077880859375
91;1294.287109375;1306.1968994140625;1309.5208740234375;1302.81103515625;1372.38330078125
92;1294.0860595703125;1305.9425048828125;1309.3109130859375;1302.448486328125;1372.1573486328125
93;1293.8843994140625;1305.6881103515625;1309.100830078125;1302.08447265625;1371.9307861328125
94;1293.6806640625;1305.43115234375;1308.88818359375;1301.7193603515625;1371.7049560546875
95;1293.4759521484375;1305.17333984375;1308.67431640625;1301.35498046875;1371.4783935546875
96;1293.2708740234375;1304.9154052734375;1308.458984375;1300.9892578125;1371.2503662109375
97;1293.0645751953125;1304.655029296875;1308.24267578125;1300.6224365234375;1371.0218505859375
98;1292.8575439453125;1304.3946533203125;1308.02587890625;1300.254150390625;1370.79296875
99;1292.649658203125;1304.1319580078125;1307.8079833984375;1299.8848876953125;1370.5645751953125
100;1292.4407958984375;1303.8677978515625;1307.5875244140625;1299.51416015625;1370.334716796875
101;1292.2310791015625;1303.603759765625;1307.3658447265625;1299.142333984375;1370.1043701171875
102;1292.020263671875;1303.33837890625;1307.14306640625;1298.7691650390625;1369.87451171875
103;1291.8096923828125;1303.0716552734375;1306.919677734375;1298.3948974609375;1369.6441650390625
104;1291.5980224609375;1302.80224609375;1306.6951904296875;1298.019287109375;1369.4122314453125
105;1291.384521484375;1302.5328369140625;1306.46923828125;1297.642578125;1369.179931640625
106;1291.1700439453125;1302.260986328125;1306.241943359375;1297.2645263671875;1368.947021484375
107;1290.9547119140625;1301.9874267578125;1306.0125732421875;1296.8853759765625;1368.7135009765625
108;1290.738037109375;1301.7125244140625;1305.78173828125;1296.5032958984375;1368.479736328125
109;1290.5216064453125;1301.436279296875;1305.55078125;1296.12158203125;1368.246337890625
110;1290.3040771484375;1301.1585693359375;1305.317626953125;1295.737060546875;1368.0113525390625
111;1290.085693359375;1300.87939453125;1305.083740234375;1295.3511962890625;1367.77685546875
112;1289.8651123046875;1300.5987548828125;1304.847900390625;1294.96435546875;1367.5406494140625
113;1289.6436767578125;1300.3173828125;1304.611572265625;1294.576171875;1367.30517578125
114;1289.4219970703125;1300.03369140625;1304.3731689453125;1294.1868896484375;1367.0689697265625
115;1289.199462890625;1299.748046875;1304.13330078125;1293.7979736328125;1366.832275390625
116;1288.9747314453125;1299.461181640625;1303.89208984375;1293.40771484375;1366.593994140625
117;1288.7491455078125;1299.17236328125;1303.6497802734375;1293.0150146484375;1366.35546875
118;1288.523193359375;1298.88330078125;1303.4068603515625;1292.620849609375;1366.116943359375
119;1288.2952880859375;1298.5911865234375;1303.1619873046875;1292.2257080078125;1365.8770751953125
120;1288.06640625;1298.29736328125;1302.916748046875;1291.8292236328125;1365.6365966796875
121;1287.8363037109375;1298.0029296875;1302.670166015625;1291.431884765625;1365.3956298828125
122;1287.605224609375;1297.70556640625;1302.42138671875;1291.03466796875;1365.1539306640625
123;1287.3729248046875;1297.4066162109375;1302.1722412109375;1290.6361083984375;1364.9127197265625
124;1287.1395263671875;1297.105712890625;1301.9208984375;1290.235107421875;1364.669921875
125;1286.9049072265625;1296.8028564453125;1301.668212890625;1289.832763671875;1364.4276123046875
126;1286.670166015625;1296.4981689453125;1301.414306640625;1289.429443359375;1364.18359375
127;1286.433349609375;1296.192626953125;1301.1593017578125;1289.0263671875;1363.9388427734375
128;1286.1953125;1295.8841552734375;1300.9036865234375;1288.6221923828125;1363.69482421875
129;1285.9561767578125;1295.573486328125;1300.64697265625;1288.2169189453125;1363.448974609375
130;1285.716796875;1295.261962890625;1300.3890380859375;1287.8104248046875;1363.203369140625
131;1285.476318359375;1294.948486328125;1300.1297607421875;1287.40283203125;1362.957275390625
132;1285.233642578125;1294.631591796875;1299.8692626953125;1286.9940185546875;1362.710693359375
133;1284.9906005859375;1294.31396484375;1299.6065673828125;1286.584228515625;1362.4632568359375
134;1284.7457275390625;1293.9940185546875;1299.3427734375;1286.1732177734375;1362.21533203125
135;1284.500244140625;1293.6708984375;1299.07763671875;1285.759765625;1361.9659423828125
136;1284.2529296875;1293.3465576171875;1298.8111572265625;1285.3465576171875;1361.715576171875
137;1284.0050048828125;1293.0198974609375;1298.54443359375;1284.9310302734375;1361.46484375
138;1283.7552490234375;1292.68994140625;1298.2763671875;1284.51416015625;1361.2135009765625
139;1283.5050048828125;1292.358642578125;1298.00634765625;1284.09765625;1360.96240234375
140;1283.253662109375;1292.0250244140625;1297.7349853515625;1283.68017578125;1360.71044921875
141;1283.0010986328125;1291.68896484375;1297.46240234375;1283.2615966796875;1360.45703125
142;1282.747314453125;1291.3507080078125;1297.189453125;1282.84033203125;1360.2037353515625
143;1282.4923095703125;1291.009521484375;1296.91455078125;1282.4197998046875;1359.948974609375
144;1282.2352294921875;1290.6649169921875;1296.63916015625;1281.998046875;1359.6937255859375
145;1281.976806640625;1290.3177490234375;1296.36279296875;1281.5751953125;1359.4383544921875
146;1281.7171630859375;1289.96923828125;1296.085205078125;1281.1513671875;1359.181640625
147;1281.4564208984375;1289.6165771484375;1295.805419921875;1280.72509765625;1358.9241943359375
148;1281.1953125;1289.262451171875;1295.524658203125;1280.2991943359375;1358.6661376953125
149;1280.931884765625;1288.9046630859375;1295.24267578125;1279.8721923828125;1358.4073486328125
150;1280.6673583984375;1288.5439453125;1294.96044921875;1279.44287109375;1358.148681640625
151;1280.4014892578125;1288.181640625;1294.6771240234375;1279.0125732421875;1357.8890380859375
152;1280.134521484375;1287.815185546875;1294.3919677734375;1278.58251953125;1357.628173828125
153;1279.8663330078125;1287.44580078125;1294.1053466796875;1278.151611328125;1357.3665771484375
154;1279.5968017578125;1287.0736083984375;1293.8177490234375;1277.71826171875;1357.1041259765625
155;1279.3260498046875;1286.6983642578125;1293.5289306640625;1277.2838134765625;1356.8409423828125
156;1279.054931640625;1286.321044921875;1293.2401123046875;1276.8487548828125;1356.5770263671875
157;1278.7816162109375;1285.939697265625;1292.9498291015625;1276.41259765625;1356.3125
158;1278.5072021484375;1285.55517578125;1292.6578369140625;1275.975341796875;1356.047119140625
159;1278.2314453125;1285.1673583984375;1292.365478515625;1275.53857421875;1355.78125
160;1277.9544677734375;1284.7762451171875;1292.072021484375;1275.0994873046875;1355.5142822265625
161;1277.6768798828125;1284.3819580078125;1291.77685546875;1274.6595458984375;1355.24755859375
162;1277.3975830078125;1283.985595703125;1291.481201171875;1274.2198486328125;1354.9791259765625
163;1277.117431640625;1283.58544921875;1291.18359375;1273.7779541015625;1354.7100830078125
164;1276.8353271484375;1283.1810302734375;1290.88525390625;1273.33642578125;1354.4400634765625
165;1276.5521240234375;1282.7740478515625;1290.58544921875;1272.894287109375;1354.1695556640625
166;1276.267578125;1282.3626708984375;1290.28466796875;1272.4508056640625;1353.8980712890625
167;1275.982421875;1281.9473876953125;1289.98291015625;1272.0067138671875;1353.625732421875
168;1275.6961669921875;1281.5286865234375;1289.679931640625;1271.5615234375;1353.3536376953125
169;1275.4078369140625;1281.10595703125;1289.376220703125;1271.1142578125;1353.0806884765625
170;1275.1181640625;1280.6800537109375;1289.0712890625;1270.66748046875;1352.8067626953125
171;1274.8272705078125;1280.2510986328125;1288.76513671875;1270.2197265625;1352.5321044921875
172;1274.5352783203125;1279.817138671875;1288.4583740234375;1269.7711181640625;1352.2567138671875
173;1274.2427978515625;1279.37939453125;1288.1502685546875;1269.320556640625;1351.9803466796875
174;1273.9481201171875;1278.93798828125;1287.84130859375;1268.869140625;1351.70263671875
175;1273.653076171875;1278.4932861328125;1287.531982421875;1268.4168701171875;1351.4246826171875
176;1273.355712890625;1278.04345703125;1287.2210693359375;1267.9637451171875;1351.1458740234375
177;1273.0574951171875;1277.5894775390625;1286.9088134765625;1267.5108642578125;1350.8656005859375
178;1272.7586669921875;1277.1328125;1286.5958251953125;1267.0572509765625;1350.585205078125
179;1272.458740234375;1276.6707763671875;1286.2825927734375;1266.6029052734375;1350.303955078125
180;1272.1573486328125;1276.20556640625;1285.96826171875;1266.1474609375;1350.021240234375
181;1271.8541259765625;1275.7359619140625;1285.652099609375;1265.69140625;1349.73828125
182;1271.549560546875;1275.2611083984375;1285.3350830078125;1265.234619140625;1349.4544677734375
183;1271.2445068359375;1274.78173828125;1285.01806640625;1264.77587890625;1349.169921875
184;1270.9375;1274.298095703125;1284.6988525390625;1264.3160400390625;1348.884521484375
185;1270.6300048828125;1273.809814453125;1284.37890625;1263.85693359375;1348.59814453125
186;1270.3211669921875;1273.3172607421875;1284.058837890625;1263.3958740234375;1348.3109130859375
187;1270.0113525390625;1272.8214111328125;1283.737548828125;1262.9339599609375;1348.02294921875
188;1269.69921875;1272.32080078125;1283.414794921875;1262.4725341796875;1347.7332763671875
189;1269.3861083984375;1271.8143310546875;1283.091796875;1262.00927734375;1347.4434814453125
190;1269.0716552734375;1271.3035888671875;1282.76708984375;1261.54541015625;1347.15234375
191;1268.7559814453125;1270.7891845703125;1282.44189453125;1261.08056640625;1346.8599853515625
192;1268.439697265625;1270.27001953125;1282.1160888671875;1260.615966796875;1346.56689453125
193;1268.1217041015625;1269.7451171875;1281.7891845703125;1260.14990234375;1346.27294921875
194;1267.8021240234375;1269.21533203125;1281.46142578125;1259.68408203125;1345.978759765625
195;1267.4822998046875;1268.6810302734375;1281.132568359375;1259.217529296875;1345.68359375
196;1267.1612548828125;1268.1429443359375;1280.802978515625;1258.7503662109375;1345.3875732421875
197;1266.838134765625;1267.60009765625;1280.4718017578125;1258.28125;1345.090576171875
198;1266.5145263671875;1267.05224609375;1280.1395263671875;1257.812744140625;1344.79296875
199;1266.1898193359375;1266.4998779296875;1279.806396484375;1257.34326171875;1344.4942626953125
200;1265.86328125;1265.9423828125;1279.472412109375;1256.87353515625;1344.194580078125
201;1265.5361328125;1265.378662109375;1279.13818359375;1256.40283203125;1343.89404296875
202;1265.20703125;1264.8101806640625;1278.80322265625;1255.9306640625;1343.5926513671875
203;1264.8778076171875;1264.238037109375;1278.4674072265625;1255.4588623046875;1343.290283203125
204;1264.5462646484375;1263.6595458984375;1278.1307373046875;1254.9854736328125;1342.9862060546875
205;1264.213623046875;1263.076171875;1277.7923583984375;1254.5123291015625;1342.681884765625
206;1263.8800048828125;1262.4891357421875;1277.4532470703125;1254.0386962890625;1342.3768310546875
207;1263.544921875;1261.8958740234375;1277.114013671875;1253.5635986328125;1342.070556640625
208;1263.208984375;1261.2977294921875;1276.77392578125;1253.0885009765625;1341.7635498046875
209;1262.872314453125;1260.6947021484375;1276.43212890625;1252.613037109375;1341.4554443359375
210;1262.5338134765625;1260.0865478515625;1276.0897216796875;1252.1358642578125;1341.1461181640625
211;1262.1942138671875;1259.4737548828125;1275.7471923828125;1251.658203125;1340.83544921875
212;1261.853515625;1258.857177734375;1275.4036865234375;1251.179931640625;1340.52392578125
213;1261.511474609375;1258.234619140625;1275.05859375;1250.7022705078125;1340.21142578125
214;1261.169189453125;1257.6083984375;1274.7135009765625;1250.2237548828125;1339.8980712890625
215;1260.8250732421875;1256.97607421875;1274.3668212890625;1249.743896484375;1339.5843505859375
216;1260.4803466796875;1256.3392333984375;1274.019287109375;1249.263427734375;1339.26953125
217;1260.1337890625;1255.69873046875;1273.671142578125;1248.7833251953125;1338.953857421875
218;1259.7861328125;1255.05224609375;1273.322021484375;1248.3018798828125;1338.63720703125
219;1259.4375;1254.4010009765625;1272.9730224609375;1247.81982421875;1338.3197021484375
220;1259.087646484375;1253.74658203125;1272.6231689453125;1247.3382568359375;1338.0010986328125
221;1258.736572265625;1253.0863037109375;1272.2724609375;1246.85595703125;1337.6810302734375
222;1258.384521484375;1252.4228515625;1271.9212646484375;1246.3734130859375;1337.3604736328125
223;1258.031982421875;1251.755126953125;1271.569091796875;1245.89013671875;1337.038330078125
224;1257.677734375;1251.082763671875;1271.2161865234375;1245.4063720703125;1336.715087890625
225;1257.3223876953125;1250.406005859375;1270.86181640625;1244.9222412109375;1336.390869140625
226;1256.9659423828125;1249.723876953125;1270.5074462890625;1244.4376220703125;1336.065673828125
227;1256.6082763671875;1249.0374755859375;1270.1524658203125;1243.95263671875;1335.7396240234375
228;1256.2503662109375;1248.34814453125;1269.796630859375;1243.4659423828125;1335.4129638671875
229;1255.891357421875;1247.653564453125;1269.4403076171875;1242.97998046875;1335.08544921875
230;1255.530517578125;1246.9552001953125;1269.083251953125;1242.4925537109375;1334.7562255859375
231;1255.1685791015625;1246.2528076171875;1268.7257080078125;1242.004638671875;1334.426025390625
232;1254.8065185546875;1245.546875;1268.3673095703125;1241.518798828125;1334.0948486328125
233;1254.4432373046875;1244.83837890625;1268.007568359375;1241.033203125;1333.762451171875
234;1254.078125;1244.1265869140625;1267.6470947265625;1240.54736328125;1333.42919921875
235;1253.7120361328125;1243.4114990234375;1267.2861328125;1240.0625;1333.094970703125
236;1253.344970703125;1242.69287109375;1266.9244384765625;1239.577392578125;1332.7596435546875
237;1252.9775390625;1241.9713134765625;1266.5621337890625;1239.0916748046875;1332.423828125
238;1252.6085205078125;1241.2467041015625;1266.2000732421875;1238.605224609375;1332.0870361328125
239;1252.2384033203125;1240.51904296875;1265.83740234375;1238.1185302734375;1331.749267578125
240;1251.8680419921875;1239.788818359375;1265.473388671875;1237.63134765625;1331.41015625
241;1251.4964599609375;1239.0545654296875;1265.10888671875;1237.1439208984375;1331.0703125
242;1251.123291015625;1238.31884765625;1264.74365234375;1236.6573486328125;1330.7291259765625
243;1250.7491455078125;1237.580810546875;1264.3779296875;1236.1702880859375;1330.38720703125
244;1250.3740234375;1236.8392333984375;1264.0118408203125;1235.68212890625;1330.044189453125
245;1249.998046875;1236.0966796875;1263.64501953125;1235.1944580078125;1329.69970703125
246;1249.62109375;1235.3524169921875;1263.27783203125;1234.7056884765625;1329.354736328125
247;1249.2431640625;1234.607666015625;1262.9107666015625;1234.217529296875;1329.00830078125
248;1248.8643798828125;1233.861083984375;1262.543212890625;1233.728515625;1328.6607666015625
249;1248.484375;1233.113037109375;1262.1744384765625;1233.2388916015625;1328.312255859375
250;1248.103759765625;1232.3624267578125;1261.8052978515625;1232.7490234375;1327.962646484375
251;1247.7227783203125;1231.61181640625;1261.4361572265625;1232.2589111328125;1327.6119384765625
252;1247.3402099609375;1230.85888671875;1261.066162109375;1231.768310546875;1327.2601318359375
253;1246.9569091796875;1230.106201171875;1260.6961669921875;1231.277587890625;1326.906494140625
254;1246.572509765625;1229.3515625;1260.32568359375;1230.78662109375;1326.5526123046875
255;1246.1873779296875;1228.597412109375;1259.954833984375;1230.29541015625;1326.197509765625
256;1245.8011474609375;1227.8436279296875;1259.5828857421875;1229.803955078125;1325.8409423828125
257;1245.4141845703125;1227.09130859375;1259.210693359375;1229.3121337890625;1325.4832763671875
258;1245.0262451171875;1226.3388671875;1258.837890625;1228.8199462890625;1325.124755859375
259;1244.638427734375;1225.586669921875;1258.465576171875;1228.3277587890625;1324.7645263671875
260;1244.248779296875;1224.8349609375;1258.0926513671875;1227.8353271484375;1324.4039306640625
261;1243.8583984375;1224.083740234375;1257.719482421875;1227.34326171875;1324.04150390625
262;1243.4671630859375;1223.3343505859375;1257.34521484375;1226.8504638671875;1323.6778564453125
263;1243.075927734375;1222.58447265625;1256.97119140625;1226.35791015625;1323.313720703125
264;1242.6829833984375;1221.8355712890625;1256.59619140625;1225.8653564453125;1322.9483642578125
265;1242.289306640625;1221.0889892578125;1256.2215576171875;1225.3724365234375;1322.581787109375
266;1241.8956298828125;1220.3424072265625;1255.8466796875;1224.87939453125;1322.214111328125
267;1241.5009765625;1219.59814453125;1255.4713134765625;1224.3861083984375;1321.84521484375
268;1241.1051025390625;1218.85400390625;1255.0958251953125;1223.892578125;1321.47509765625
269;1240.708251953125;1218.1116943359375;1254.7198486328125;1223.398681640625;1321.1038818359375
270;1240.310791015625;1217.3707275390625;1254.3431396484375;1222.90478515625;1320.7308349609375
271;1239.9130859375;1216.6317138671875;1253.9666748046875;1222.4097900390625;1320.3572998046875
272;1239.5140380859375;1215.8946533203125;1253.58984375;1221.91455078125;1319.982421875
273;1239.1141357421875;1215.16064453125;1253.2127685546875;1221.419189453125;1319.606201171875
274;1238.713623046875;1214.427734375;1252.8355712890625;1220.9244384765625;1319.22900390625
275;1238.3123779296875;1213.6968994140625;1252.4581298828125;1220.4285888671875;1318.8504638671875
276;1237.910400390625;1212.9686279296875;1252.0804443359375;1219.9324951171875;1318.4700927734375
277;1237.5076904296875;1212.24267578125;1251.7025146484375;1219.4365234375;1318.08837890625
278;1237.104248046875;1211.5194091796875;1251.3243408203125;1218.93994140625;1317.7059326171875
279;1236.7000732421875;1210.798583984375;1250.9453125;1218.4434814453125;1317.3223876953125
280;1236.2960205078125;1210.0819091796875;1250.5662841796875;1217.947509765625;1316.9373779296875
281;1235.890625;1209.367919921875;1250.1875;1217.451416015625;1316.5506591796875
282;1235.484375;1208.6568603515625;1249.80810546875;1216.954345703125;1316.1624755859375
283;1235.0775146484375;1207.94873046875;1249.428955078125;1216.4578857421875;1315.77294921875
284;1234.6702880859375;1207.243896484375;1249.0491943359375;1215.961181640625;1315.382080078125
285;1234.262939453125;1206.542236328125;1248.669677734375;1215.46435546875;1314.990478515625
286;1233.8548583984375;1205.8446044921875;1248.2901611328125;1214.9674072265625;1314.5970458984375
287;1233.4456787109375;1205.15576171875;1247.909912109375;1214.470458984375;1314.20263671875
288;1233.0364990234375;1204.470703125;1247.5296630859375;1213.972412109375;1313.806884765625
289;1232.626708984375;1203.78955078125;1247.1490478515625;1213.474365234375;1313.4097900390625
290;1232.2156982421875;1203.1119384765625;1246.76904296875;1212.977783203125;1313.01123046875
291;1231.8048095703125;1202.4384765625;1246.3890380859375;1212.490234375;1312.6112060546875
292;1231.3934326171875;1201.768798828125;1246.0087890625;1212.00341796875;1312.2095947265625
293;1230.9805908203125;1201.10205078125;1245.6280517578125;1211.5177001953125;1311.8067626953125
294;1230.5673828125;1200.4393310546875;1245.247802734375;1211.0325927734375;1311.40234375
295;1230.1536865234375;1199.785400390625;1244.86669921875;1210.5478515625;1310.9964599609375
296;1229.7393798828125;1199.136474609375;1244.486328125;1210.0633544921875;1310.589111328125
297;1229.3245849609375;1198.491943359375;1244.10595703125;1209.57861328125;1310.179931640625
298;1228.9093017578125;1197.8515625;1243.7252197265625;1209.0950927734375;1309.7694091796875
299;1228.494140625;1197.21533203125;1243.343994140625;1208.6116943359375;1309.356689453125
300;1228.078369140625;1196.5872802734375;1242.962890625;1208.12841796875;1308.942138671875
301;1227.6614990234375;1195.962890625;1242.58154296875;1207.6455078125;1308.5260009765625
302;1227.244873046875;1195.3428955078125;1242.20068359375;1207.1627197265625;1308.1085205078125
303;1226.8270263671875;1194.728271484375;1241.8194580078125;1206.6793212890625;1307.6890869140625
304;1226.4095458984375;1194.1170654296875;1241.438720703125;1206.1964111328125;1307.267822265625
305;1225.9913330078125;1193.5101318359375;1241.057373046875;1205.7132568359375;1306.8455810546875
306;1225.5728759765625;1192.9083251953125;1240.676025390625;1205.2303466796875;1306.421630859375
307;1225.1533203125;1192.3109130859375;1240.2945556640625;1204.748291015625;1305.995361328125
308;1224.7332763671875;1191.7198486328125;1239.9130859375;1204.2655029296875;1305.567138671875
309;1224.3128662109375;1191.1334228515625;1239.532470703125;1203.78271484375;1305.1378173828125
310;1223.8919677734375;1190.55126953125;1239.151123046875;1203.30029296875;1304.7066650390625
311;1223.470947265625;1189.9732666015625;1238.77001953125;1202.8177490234375;1304.27294921875
312;1223.0494384765625;1189.3995361328125;1238.3885498046875;1202.3350830078125;1303.8380126953125
313;1222.6275634765625;1188.8287353515625;1238.00732421875;1201.8524169921875;1303.401123046875
314;1222.2052001953125;1188.2623291015625;1237.6263427734375;1201.369873046875;1302.9617919921875
315;1221.782470703125;1187.70068359375;1237.2452392578125;1200.88818359375;1302.5206298828125
316;1221.3594970703125;1187.142822265625;1236.86474609375;1200.4056396484375;1302.0770263671875
317;1220.9366455078125;1186.58984375;1236.4837646484375;1199.9232177734375;1301.6317138671875
318;1220.512939453125;1186.0399169921875;1236.1029052734375;1199.4412841796875;1301.184326171875
319;1220.0889892578125;1185.4937744140625;1235.7220458984375;1198.9593505859375;1300.7347412109375
320;1219.6651611328125;1184.9522705078125;1235.34130859375;1198.4769287109375;1300.2830810546875
321;1219.2410888671875;1184.41455078125;1234.960693359375;1197.9942626953125;1299.829833984375
322;1218.8162841796875;1183.88037109375;1234.580078125;1197.5118408203125;1299.374267578125
323;1218.3909912109375;1183.3499755859375;1234.1995849609375;1197.029296875;1298.9166259765625
324;1217.965576171875;1182.822998046875;1233.8194580078125;1196.5467529296875;1298.45654296875
325;1217.5399169921875;1182.2994384765625;1233.439697265625;1196.064697265625;1297.9937744140625
326;1217.1138916015625;1181.779541015625;1233.0592041015625;1195.5821533203125;1297.5286865234375
327;1216.687744140625;1181.2630615234375;1232.679443359375;1195.099609375;1297.061767578125
328;1216.2613525390625;1180.7498779296875;1232.300048828125;1194.616943359375;1296.591796875
329;1215.8348388671875;1180.239990234375;1231.92041015625;1194.1343994140625;1296.1195068359375
330;1215.407958984375;1179.73388671875;1231.5411376953125;1193.65185546875;1295.64453125
331;1214.9810791015625;1179.23095703125;1231.161376953125;1193.169677734375;1295.167724609375
332;1214.554443359375;1178.7315673828125;1230.78173828125;1192.6876220703125;1294.68798828125
333;1214.126953125;1178.2347412109375;1230.402587890625;1192.205078125;1294.2054443359375
334;1213.7000732421875;1177.7421875;1230.0235595703125;1191.7222900390625;1293.7210693359375
335;1213.2723388671875;1177.2528076171875;1229.644287109375;1191.2401123046875;1293.2340087890625
336;1212.844482421875;1176.7667236328125;1229.2650146484375;1190.7574462890625;1292.7435302734375
337;1212.4163818359375;1176.282958984375;1228.8863525390625;1190.2747802734375;1292.2508544921875
338;1211.98828125;1175.802978515625;1228.50732421875;1189.79248046875;1291.7550048828125
339;1211.5628662109375;1175.32568359375;1228.12890625;1189.3096923828125;1291.2567138671875
340;1211.1375732421875;1174.85205078125;1227.7501220703125;1188.8275146484375;1290.7557373046875
341;1210.7158203125;1174.3812255859375;1227.3719482421875;1188.344482421875;1290.251708984375
342;1210.296630859375;1173.914306640625;1226.993408203125;1187.86181640625;1289.7442626953125
343;1209.877685546875;1173.4505615234375;1226.614990234375;1187.3787841796875;1289.234375
344;1209.4595947265625;1172.989501953125;1226.23681640625;1186.8958740234375;1288.7213134765625
345;1209.0413818359375;1172.5311279296875;1225.8587646484375;1186.4134521484375;1288.2054443359375
346;1208.6239013671875;1172.075439453125;1225.480712890625;1185.930419921875;1287.6861572265625
347;1208.206787109375;1171.62255859375;1225.103271484375;1185.4473876953125;1287.16357421875
348;1207.789306640625;1171.172119140625;1224.7257080078125;1184.96435546875;1286.637939453125
349;1207.3721923828125;1170.7239990234375;1224.34814453125;1184.4813232421875;1286.108642578125
350;1206.9552001953125;1170.278076171875;1223.97314453125;1183.9981689453125;1285.57666015625
351;1206.5390625;1169.834716796875;1223.599609375;1183.51513671875;1285.0406494140625
352;1206.1226806640625;1169.39404296875;1223.226318359375;1183.031982421875;1284.502197265625
353;1205.706787109375;1168.9561767578125;1222.853271484375;1182.548828125;1283.960205078125
354;1205.290771484375;1168.5198974609375;1222.481201171875;1182.065673828125;1283.4146728515625
355;1204.874755859375;1168.0865478515625;1222.10888671875;1181.58251953125;1282.8651123046875
356;1204.458984375;1167.6551513671875;1221.737060546875;1181.1024169921875;1282.3121337890625
357;1204.0438232421875;1167.2257080078125;1221.36572265625;1180.63330078125;1281.7562255859375
358;1203.6287841796875;1166.7982177734375;1220.9942626953125;1180.16552734375;1281.196044921875
359;1203.213623046875;1166.372802734375;1220.623046875;1179.6982421875;1280.632568359375
360;1202.7982177734375;1165.94970703125;1220.25244140625;1179.2318115234375;1280.0650634765625
361;1202.3836669921875;1165.5281982421875;1219.8817138671875;1178.76611328125;1279.4942626953125
362;1201.9688720703125;1165.10888671875;1219.51171875;1178.301025390625;1278.92041015625
363;1201.5546875;1164.6912841796875;1219.1416015625;1177.83642578125;1278.3428955078125
364;1201.1400146484375;1164.27587890625;1218.7716064453125;1177.3731689453125;1277.7615966796875
365;1200.7257080078125;1163.8621826171875;1218.402099609375;1176.90966796875;1277.1766357421875
366;1200.3114013671875;1163.4508056640625;1218.03271484375;1176.4466552734375;1276.5882568359375
367;1199.8978271484375;1163.0413818359375;1217.66357421875;1175.98388671875;1275.995361328125
368;1199.484375;1162.6337890625;1217.294677734375;1175.5216064453125;1275.398681640625
369;1199.0709228515625;1162.22802734375;1216.92578125;1175.0596923828125;1274.7984619140625
370;1198.6578369140625;1161.823486328125;1216.55712890625;1174.5985107421875;1274.1951904296875
371;1198.244384765625;1161.4215087890625;1216.1883544921875;1174.13720703125;1273.5882568359375
372;1197.831298828125;1161.0211181640625;1215.8201904296875;1173.6759033203125;1272.9776611328125
373;1197.4188232421875;1160.622314453125;1215.45166015625;1173.2149658203125;1272.363525390625
374;1197.005859375;1160.2252197265625;1215.0833740234375;1172.7542724609375;1271.7459716796875
375;1196.593505859375;1159.829833984375;1214.7154541015625;1172.2938232421875;1271.125244140625
376;1196.181396484375;1159.436279296875;1214.3480224609375;1171.8341064453125;1270.5003662109375
377;1195.769775390625;1159.044189453125;1213.9805908203125;1171.3739013671875;1269.8729248046875
378;1195.3580322265625;1158.653564453125;1213.61279296875;1170.913818359375;1269.241455078125
379;1194.9466552734375;1158.2645263671875;1213.24560546875;1170.4539794921875;1268.6072998046875
380;1194.5352783203125;1157.8765869140625;1212.8787841796875;1169.994384765625;1267.9700927734375
381;1194.1241455078125;1157.4901123046875;1212.5120849609375;1169.53515625;1267.328857421875
382;1193.7137451171875;1157.10546875;1212.145263671875;1169.076171875;1266.6849365234375
383;1193.302978515625;1156.721923828125;1211.7789306640625;1168.61669921875;1266.03857421875
384;1192.8927001953125;1156.340087890625;1211.4122314453125;1168.15771484375;1265.3887939453125
385;1192.4830322265625;1155.9598388671875;1211.0458984375;1167.6986083984375;1264.737548828125
386;1192.073486328125;1155.5810546875;1210.6796875;1167.2393798828125;1264.082763671875
387;1191.6640625;1155.2037353515625;1210.3133544921875;1166.7801513671875;1263.42578125
388;1191.2547607421875;1154.8277587890625;1209.9473876953125;1166.3211669921875;1262.766357421875
389;1190.845703125;1154.4534912109375;1209.58154296875;1165.8626708984375;1262.104736328125
390;1190.4371337890625;1154.0809326171875;1209.2158203125;1165.40380859375;1261.441162109375
391;1190.0291748046875;1153.7098388671875;1208.851318359375;1164.94482421875;1260.7755126953125
392;1189.62109375;1153.340087890625;1208.4879150390625;1164.4859619140625;1260.1090087890625
393;1189.2135009765625;1152.9715576171875;1208.124267578125;1164.0277099609375;1259.4400634765625
394;1188.806396484375;1152.60400390625;1207.7608642578125;1163.5689697265625;1258.769775390625
395;1188.3992919921875;1152.2376708984375;1207.3975830078125;1163.1102294921875;1258.0989990234375
396;1187.9925537109375;1151.87255859375;1207.03466796875;1162.6514892578125;1257.42626953125
397;1187.5909423828125;1151.50927734375;1206.671875;1162.19287109375;1256.7528076171875
398;1187.1900634765625;1151.146728515625;1206.3094482421875;1161.734375;1256.078857421875
399;1186.7900390625;1150.78564453125;1205.947265625;1161.2755126953125;1255.404541015625
400;1186.3902587890625;1150.4254150390625;1205.58544921875;1160.8170166015625;1254.73046875
401;1185.990966796875;1150.0662841796875;1205.22412109375;1160.35888671875;1254.056396484375
402;1185.5924072265625;1149.7086181640625;1204.863037109375;1159.9002685546875;1253.382568359375
403;1185.1942138671875;1149.3521728515625;1204.501953125;1159.441650390625;1252.708251953125
404;1184.797119140625;1148.99658203125;1204.14111328125;1158.98291015625;1252.03466796875
405;1184.400390625;1148.64208984375;1203.7806396484375;1158.52490234375;1251.362548828125
406;1184.00390625;1148.28857421875;1203.4200439453125;1158.066650390625;1250.6912841796875
407;1183.6077880859375;1147.9361572265625;1203.059814453125;1157.6082763671875;1250.0208740234375
408;1183.2122802734375;1147.5848388671875;1202.7000732421875;1157.150146484375;1249.3536376953125
409;1182.8172607421875;1147.23486328125;1202.34033203125;1156.6915283203125;1248.687255859375
410;1182.4229736328125;1146.885498046875;1201.98046875;1156.23291015625;1248.0235595703125
411;1182.029052734375;1146.537109375;1201.6209716796875;1155.7783203125;1247.3619384765625
412;1181.6356201171875;1146.1898193359375;1201.261962890625;1155.3258056640625;1246.70263671875
413;1181.242919921875;1145.84326171875;1200.903076171875;1154.8731689453125;1246.045654296875
414;1180.8502197265625;1145.497802734375;1200.5443115234375;1154.4207763671875;1245.3929443359375
415;1180.4581298828125;1145.153564453125;1200.185791015625;1153.96875;1244.7462158203125
416;1180.06640625;1144.81005859375;1199.827392578125;1153.51708984375;1244.1024169921875
417;1179.6756591796875;1144.4674072265625;1199.46923828125;1153.0653076171875;1243.462890625
418;1179.284912109375;1144.1258544921875;1199.1114501953125;1152.614501953125;1242.8275146484375
419;1178.8946533203125;1143.784912109375;1198.7537841796875;1152.163330078125;1242.1964111328125
420;1178.5050048828125;1143.44482421875;1198.396240234375;1151.712158203125;1241.5689697265625
421;1178.1156005859375;1143.10546875;1198.0394287109375;1151.26123046875;1240.9454345703125
422;1177.726806640625;1142.7674560546875;1197.6822509765625;1150.810302734375;1240.3250732421875
423;1177.3388671875;1142.43017578125;1197.32568359375;1150.3594970703125;1239.7095947265625
424;1176.9510498046875;1142.09375;1196.96923828125;1149.9093017578125;1239.0980224609375
425;1176.563720703125;1141.7579345703125;1196.61279296875;1149.46044921875;1238.4915771484375
426;1176.1771240234375;1141.4232177734375;1196.2572021484375;1149.020751953125;1237.890869140625
427;1175.791015625;1141.08935546875;1195.9014892578125;1148.5814208984375;1237.2950439453125
428;1175.4051513671875;1140.7559814453125;1195.5458984375;1148.1427001953125;1236.7056884765625
429;1175.020263671875;1140.4237060546875;1195.1907958984375;1147.7047119140625;1236.121337890625
430;1174.6356201171875;1140.09228515625;1194.8358154296875;1147.26708984375;1235.5418701171875
431;1174.2513427734375;1139.7613525390625;1194.48095703125;1146.83056640625;1234.9669189453125
432;1173.8680419921875;1139.43115234375;1194.1265869140625;1146.39404296875;1234.3975830078125
433;1173.484375;1139.1019287109375;1193.7728271484375;1145.957763671875;1233.83251953125
434;1173.101806640625;1138.7733154296875;1193.4188232421875;1145.521728515625;1233.274169921875
435;1172.7198486328125;1138.445556640625;1193.065185546875;1145.0858154296875;1232.7210693359375
436;1172.337890625;1138.119140625;1192.7117919921875;1144.6502685546875;1232.173095703125
437;1171.956298828125;1137.79296875;1192.3587646484375;1144.21533203125;1231.63037109375
438;1171.575927734375;1137.4678955078125;1192.005859375;1143.780029296875;1231.0926513671875
439;1171.1954345703125;1137.1436767578125;1191.6536865234375;1143.344970703125;1230.5628662109375
440;1170.815673828125;1136.81982421875;1191.3013916015625;1142.9100341796875;1230.038818359375
441;1170.436279296875;1136.4967041015625;1190.9498291015625;1142.4752197265625;1229.51953125
442;1170.057861328125;1136.174560546875;1190.5982666015625;1142.0404052734375;1229.00830078125
443;1169.679443359375;1135.8533935546875;1190.247314453125;1141.605712890625;1228.5020751953125
444;1169.3016357421875;1135.53271484375;1189.896240234375;1141.1708984375;1228.0001220703125
445;1168.92431640625;1135.2130126953125;1189.54541015625;1140.7362060546875;1227.50439453125
446;1168.5478515625;1134.8939208984375;1189.195068359375;1140.3013916015625;1227.0137939453125
447;1168.1719970703125;1134.57568359375;1188.8450927734375;1139.8665771484375;1226.52734375
448;1167.7962646484375;1134.25830078125;1188.49560546875;1139.4317626953125;1226.044921875
449;1167.421142578125;1133.94140625;1188.1461181640625;1138.996826171875;1225.566650390625
450;1167.0469970703125;1133.62548828125;1187.797119140625;1138.56201171875;1225.09228515625
451;1166.6727294921875;1133.31005859375;1187.4482421875;1138.127197265625;1224.6217041015625
452;1166.2991943359375;1132.9954833984375;1187.0997314453125;1137.6925048828125;1224.15576171875
453;1165.9261474609375;1132.681396484375;1186.751953125;1137.25732421875;1223.6929931640625
454;1165.5537109375;1132.3677978515625;1186.404296875;1136.8223876953125;1223.234375
455;1165.1817626953125;1132.054931640625;1186.0567626953125;1136.387451171875;1222.7791748046875
456;1164.810302734375;1131.742919921875;1185.7099609375;1135.9521484375;1222.3272705078125
457;1164.4398193359375;1131.431640625;1185.3631591796875;1135.5167236328125;1221.879150390625
458;1164.0694580078125;1131.1207275390625;1185.01708984375;1135.081298828125;1221.4349365234375
459;1163.69970703125;1130.8101806640625;1184.6712646484375;1134.64599609375;1220.99365234375
460;1163.3304443359375;1130.50048828125;1184.325439453125;1134.21044921875;1220.5560302734375
461;1162.9617919921875;1130.1912841796875;1183.980224609375;1133.774658203125;1220.121337890625
462;1162.59375;1129.8829345703125;1183.6353759765625;1133.338623046875;1219.689697265625
463;1162.2261962890625;1129.574951171875;1183.290771484375;1132.902587890625;1219.260986328125
464;1161.8592529296875;1129.267822265625;1182.947998046875;1132.466552734375;1218.8350830078125
465;1161.4930419921875;1128.961181640625;1182.60693359375;1132.0301513671875;1218.4124755859375
466;1161.127197265625;1128.6549072265625;1182.2666015625;1131.593505859375;1217.9932861328125
467;1160.7623291015625;1128.349609375;1181.9266357421875;1131.1573486328125;1217.5770263671875
468;1160.3975830078125;1128.044677734375;1181.587158203125;1130.720947265625;1217.16357421875
469;1160.0389404296875;1127.740478515625;1181.248046875;1130.2838134765625;1216.75341796875
470;1159.681640625;1127.4366455078125;1180.90966796875;1129.84716796875;1216.3458251953125
471;1159.324951171875;1127.133544921875;1180.571533203125;1129.4102783203125;1215.940673828125
472;1158.9693603515625;1126.8310546875;1180.2340087890625;1128.9730224609375;1215.5379638671875
473;1158.6146240234375;1126.529296875;1179.89697265625;1128.5352783203125;1215.1375732421875
474;1158.260498046875;1126.2281494140625;1179.5601806640625;1128.09765625;1214.7398681640625
475;1157.9071044921875;1125.927490234375;1179.22412109375;1127.65966796875;1214.3448486328125
476;1157.5548095703125;1125.6273193359377;1178.888427734375;1127.2213134765625;1213.951904296875
477;1157.2034912109375;1125.32763671875;1178.5535888671875;1126.783447265625;1213.5611572265625
478;1156.8524169921875;1125.029052734375;1178.2213134765625;1126.3447265625;1213.17236328125
479;1156.5025634765625;1124.730712890625;1177.889892578125;1125.9063720703125;1212.78564453125
480;1156.1529541015625;1124.4329833984377;1177.5587158203125;1125.4678955078123;1212.4012451171875
481;1155.8043212890625;1124.1357421875;1177.22802734375;1125.02880859375;1212.018798828125
482;1155.4560546875;1123.839111328125;1176.8978271484375;1124.58984375;1211.6383056640625
483;1155.1085205078125;1123.5430908203123;1176.568359375;1124.1505126953123;1211.2596435546875
484;1154.7618408203125;1123.24755859375;1176.239013671875;1123.711181640625;1210.8828125
485;1154.4158935546875;1122.95263671875;1175.91064453125;1123.2713623046877;1210.5078125
486;1154.0706787109375;1122.658203125;1175.5821533203125;1122.83154296875;1210.1343994140625
487;1153.7259521484375;1122.3641357421877;1175.25439453125;1122.3919677734377;1209.7625732421875
488;1153.382568359375;1122.0706787109377;1174.9268798828125;1121.95166015625;1209.392333984375
489;1153.0390625;1121.777587890625;1174.60009765625;1121.51123046875;1209.023681640625
490;1152.696533203125;1121.4849853515623;1174.27392578125;1121.0709228515623;1208.6568603515625
491;1152.3546142578125;1121.19287109375;1173.9481201171875;1120.630126953125;1208.2916259765625
492;1152.0130615234375;1120.9012451171877;1173.62255859375;1120.189453125;1207.927978515625
493;1151.6722412109375;1120.6102294921877;1173.2974853515625;1119.7486572265623;1207.56591796875
494;1151.33203125;1120.3197021484377;1172.973388671875;1119.3074951171877;1207.2049560546875
495;1150.9923095703125;1120.0291748046877;1172.64990234375;1118.8658447265623;1206.845703125
496;1150.6534423828125;1119.739501953125;1172.3265380859375;1118.4241943359377;1206.488037109375
497;1150.3148193359375;1119.4500732421877;1172.003662109375;1117.9820556640623;1206.1317138671875
498;1149.97705078125;1119.1611328125;1171.6815185546875;1117.5399169921877;1205.777099609375
499;1149.6396484375;1118.87255859375;1171.3594970703125;1117.0975341796877;1205.423583984375
