;fold_0;fold_1;fold_2;fold_3;fold_4
0;1308.297119140625;1327.2080078125;1319.53466796875;1312.20751953125;1394.6861572265625
1;1307.9793701171875;1327.024169921875;1319.1807861328125;1311.689697265625;1394.35400390625
2;1307.6121826171875;1326.7774658203125;1318.825927734375;1311.1715087890625;1394.069580078125
3;1307.2225341796875;1326.531005859375;1318.470458984375;1310.6527099609375;1393.768798828125
4;1306.7935791015625;1326.2847900390625;1318.114501953125;1310.1651611328125;1393.438720703125
5;1306.3822021484375;1326.0390625;1317.7728271484375;1309.64501953125;1393.1234130859375
6;1305.9520263671875;1325.8011474609375;1317.415283203125;1309.14013671875;1392.7947998046875
7;1305.530029296875;1325.55615234375;1317.056884765625;1308.61865234375;1392.47314453125
8;1305.104248046875;1325.314697265625;1316.6976318359375;1308.0963134765625;1392.145263671875
9;1304.6754150390625;1325.0703125;1316.3375244140625;1307.577880859375;1391.8177490234375
10;1304.2418212890625;1324.827392578125;1315.9766845703125;1307.0562744140625;1391.491943359375
11;1303.8072509765625;1324.583740234375;1315.6148681640625;1306.5322265625;1391.1651611328125
12;1303.371337890625;1324.34033203125;1315.2520751953125;1306.0057373046875;1390.8377685546875
13;1302.933349609375;1324.09716796875;1314.88818359375;1305.4769287109375;1390.5096435546875
14;1302.4952392578125;1323.8544921875;1314.5216064453125;1304.9464111328125;1390.182373046875
15;1302.0533447265625;1323.6119384765625;1314.1533203125;1304.4173583984375;1389.855224609375
16;1301.609375;1323.3677978515625;1313.783447265625;1303.8870849609375;1389.5255126953125
17;1301.1673583984375;1323.123779296875;1313.411865234375;1303.3555908203125;1389.197998046875
18;1300.7200927734375;1322.8818359375;1313.042236328125;1302.8226318359375;1388.87060546875
19;1300.2708740234375;1322.6402587890625;1312.671142578125;1302.288330078125;1388.5394287109375
20;1299.8245849609375;1322.398681640625;1312.29443359375;1301.7469482421875;1388.21142578125
21;1299.3721923828125;1322.1572265625;1311.9202880859375;1301.20947265625;1387.8829345703125
22;1298.917724609375;1321.9158935546875;1311.5400390625;1300.6641845703125;1387.553955078125
23;1298.461669921875;1321.671630859375;1311.15771484375;1300.1168212890625;1387.2208251953125
24;1298.0037841796875;1321.42724609375;1310.7738037109375;1299.5673828125;1386.890869140625
25;1297.544189453125;1321.1829833984375;1310.391845703125;1299.0157470703125;1386.5562744140625
26;1297.082763671875;1320.9383544921875;1310.00341796875;1298.4615478515625;1386.224853515625
27;1296.6195068359375;1320.693603515625;1309.61279296875;1297.91162109375;1385.8927001953125
28;1296.154541015625;1320.451416015625;1309.22412109375;1297.3525390625;1385.5557861328125
29;1295.6875;1320.208740234375;1308.8284912109375;1296.7906494140625;1385.2215576171875
30;1295.2242431640625;1319.9658203125;1308.43017578125;1296.22607421875;1384.8828125
31;1294.7532958984375;1319.7225341796875;1308.029296875;1295.65869140625;1384.546875
32;1294.2806396484375;1319.4786376953125;1307.6302490234375;1295.088134765625;1384.2098388671875
33;1293.805908203125;1319.2314453125;1307.2283935546875;1294.52099609375;1383.87158203125
34;1293.3345947265625;1318.986328125;1306.81884765625;1293.95068359375;1383.5281982421875
35;1292.861083984375;1318.7406005859375;1306.406005859375;1293.37060546875;1383.18359375
36;1292.380126953125;1318.4913330078125;1305.990234375;1292.793701171875;1382.8377685546875
37;1291.8970947265625;1318.2412109375;1305.5755615234375;1292.2069091796875;1382.4906005859375
38;1291.411865234375;1317.990478515625;1305.15283203125;1291.6165771484375;1382.1458740234375
39;1290.9241943359375;1317.7413330078125;1304.731201171875;1291.0225830078125;1381.7994384765625
40;1290.4344482421875;1317.4913330078125;1304.3013916015625;1290.4310302734375;1381.4517822265625
41;1289.9422607421875;1317.2376708984375;1303.86767578125;1289.8358154296875;1381.1026611328125
42;1289.447998046875;1316.98291015625;1303.4302978515625;1289.23681640625;1380.751708984375
43;1288.951171875;1316.7271728515625;1302.9932861328125;1288.633544921875;1380.399169921875
44;1288.451904296875;1316.472900390625;1302.5479736328125;1288.0201416015625;1380.0447998046875
45;1287.9500732421875;1316.2147216796875;1302.1024169921875;1287.4088134765625;1379.6888427734375
46;1287.445556640625;1315.957763671875;1301.6483154296875;1286.7930908203125;1379.3309326171875
47;1286.938720703125;1315.6998291015625;1301.1939697265625;1286.1732177734375;1378.97119140625
48;1286.4290771484375;1315.43798828125;1300.7308349609375;1285.542724609375;1378.6097412109375
49;1285.921630859375;1315.1744384765625;1300.262939453125;1284.9136962890625;1378.2427978515625
50;1285.4111328125;1314.912109375;1299.79443359375;1284.280029296875;1377.874267578125
51;1284.8980712890625;1314.648193359375;1299.3209228515625;1283.641845703125;1377.5067138671875
52;1284.377197265625;1314.3828125;1298.838134765625;1282.99853515625;1377.1339111328125
53;1283.853515625;1314.1156005859375;1298.3499755859375;1282.350341796875;1376.76220703125
54;1283.3314208984375;1313.8468017578125;1297.8564453125;1281.697265625;1376.3885498046875
55;1282.8018798828125;1313.5762939453125;1297.3572998046875;1281.033447265625;1376.0130615234375
56;1282.269287109375;1313.3040771484375;1296.8565673828125;1280.3642578125;1375.6348876953125
57;1281.7333984375;1313.02978515625;1296.35009765625;1279.6898193359375;1375.2547607421875
58;1281.1943359375;1312.753662109375;1295.83349609375;1279.0155029296875;1374.8724365234375
59;1280.65625;1312.475830078125;1295.3148193359375;1278.33544921875;1374.48779296875
60;1280.114990234375;1312.193603515625;1294.7855224609375;1277.64990234375;1374.1009521484375
61;1279.5660400390625;1311.9112548828125;1294.25;1276.95849609375;1373.7088623046875
62;1279.0135498046875;1311.6246337890625;1293.7117919921875;1276.2559814453125;1373.3172607421875
63;1278.4617919921875;1311.3360595703125;1293.1668701171875;1275.54736328125;1372.9205322265625
64;1277.9022216796875;1311.047119140625;1292.61083984375;1274.83251953125;1372.5213623046875
65;1277.339111328125;1310.7557373046875;1292.0474853515625;1274.11669921875;1372.1195068359375
66;1276.7723388671875;1310.4622802734375;1291.481201171875;1273.3946533203125;1371.718505859375
67;1276.2020263671875;1310.1639404296875;1290.9073486328125;1272.66064453125;1371.3148193359375
68;1275.6317138671875;1309.8631591796875;1290.3216552734375;1271.92041015625;1370.90576171875
69;1275.0538330078125;1309.559814453125;1289.72802734375;1271.17333984375;1370.494384765625
70;1274.4718017578125;1309.25341796875;1289.12646484375;1270.4193115234375;1370.0804443359375
71;1273.8858642578125;1308.94677734375;1288.5205078125;1269.6583251953125;1369.6666259765625
72;1273.2999267578125;1308.635009765625;1287.9024658203125;1268.8951416015625;1369.2476806640625
73;1272.7059326171875;1308.3203125;1287.2757568359375;1268.1201171875;1368.8260498046875
74;1272.1080322265625;1308.002685546875;1286.644287109375;1267.33740234375;1368.4046630859375
75;1271.509521484375;1307.68408203125;1286.0037841796875;1266.55224609375;1367.98046875
76;1270.9068603515625;1307.3602294921875;1285.350341796875;1265.7547607421875;1367.551025390625
77;1270.2998046875;1307.0333251953125;1284.6917724609375;1264.9542236328125;1367.118896484375
78;1269.6883544921875;1306.7032470703125;1284.019775390625;1264.14599609375;1366.6868896484375
79;1269.0689697265625;1306.36962890625;1283.33837890625;1263.3297119140625;1366.2518310546875
80;1268.445068359375;1306.0328369140625;1282.6510009765625;1262.50537109375;1365.8143310546875
81;1267.81640625;1305.69482421875;1281.953857421875;1261.6727294921875;1365.3739013671875
82;1267.1829833984375;1305.352783203125;1281.242431640625;1260.8319091796875;1364.9283447265625
83;1266.544921875;1305.00537109375;1280.5208740234375;1259.9775390625;1364.482421875
84;1265.90234375;1304.6563720703125;1279.7886962890625;1259.1195068359375;1364.03369140625
85;1265.2547607421875;1304.303466796875;1279.0457763671875;1258.24755859375;1363.58203125
86;1264.6024169921875;1303.9468994140625;1278.2923583984375;1257.3668212890625;1363.1251220703125
87;1263.948486328125;1303.58642578125;1277.527587890625;1256.476806640625;1362.6678466796875
88;1263.2899169921875;1303.2220458984375;1276.751953125;1255.5777587890625;1362.2049560546875
89;1262.6224365234375;1302.8515625;1275.96923828125;1254.669189453125;1361.7393798828125
90;1261.953369140625;1302.47705078125;1275.1708984375;1253.755615234375;1361.273193359375
91;1261.279052734375;1302.1002197265625;1274.36083984375;1252.8277587890625;1360.803955078125
92;1260.599609375;1301.7174072265625;1273.5433349609375;1251.8902587890625;1360.3294677734375
93;1259.9146728515625;1301.3323974609375;1272.70947265625;1250.9473876953125;1359.851806640625
94;1259.220703125;1300.94287109375;1271.8634033203125;1249.994384765625;1359.37109375
95;1258.5213623046875;1300.5467529296875;1271.00927734375;1249.0262451171875;1358.889892578125
96;1257.8197021484375;1300.146484375;1270.138427734375;1248.0474853515625;1358.403076171875
97;1257.1124267578125;1299.7415771484375;1269.2550048828125;1247.06298828125;1357.9156494140625
98;1256.3958740234375;1299.3316650390625;1268.3587646484375;1246.0631103515625;1357.422607421875
99;1255.673583984375;1298.919189453125;1267.44921875;1245.05224609375;1356.9266357421875
100;1254.9486083984375;1298.499755859375;1266.5308837890625;1244.0350341796875;1356.427490234375
101;1254.2177734375;1298.07568359375;1265.599609375;1243.00634765625;1355.927490234375
102;1253.480712890625;1297.648193359375;1264.65478515625;1241.9664306640625;1355.4219970703125
103;1252.734130859375;1297.2138671875;1263.69189453125;1240.9150390625;1354.913330078125
104;1251.9847412109375;1296.774169921875;1262.715576171875;1239.8516845703125;1354.403564453125
105;1251.2291259765625;1296.329345703125;1261.729736328125;1238.7716064453125;1353.890625
106;1250.4637451171875;1295.8809814453125;1260.7255859375;1237.6793212890625;1353.3746337890625
107;1249.695068359375;1295.4251708984375;1259.70751953125;1236.579833984375;1352.852783203125
108;1248.919921875;1294.9637451171875;1258.6795654296875;1235.4677734375;1352.32763671875
109;1248.134765625;1294.4986572265625;1257.6326904296875;1234.34326171875;1351.7991943359375
110;1247.3427734375;1294.0260009765625;1256.5760498046875;1233.2008056640625;1351.26953125
111;1246.5440673828125;1293.54736328125;1255.505126953125;1232.05029296875;1350.7364501953125
112;1245.7381591796875;1293.062744140625;1254.4149169921875;1230.881591796875;1350.1976318359375
113;1244.925537109375;1292.5718994140625;1253.310302734375;1229.7047119140625;1349.65771484375
114;1244.10546875;1292.0751953125;1252.195556640625;1228.50927734375;1349.1143798828125
115;1243.2781982421875;1291.5718994140625;1251.06591796875;1227.3001708984375;1348.5675048828125
116;1242.4434814453125;1291.0645751953125;1249.9169921875;1226.08203125;1348.0150146484375
117;1241.6015625;1290.548583984375;1248.7532958984375;1224.8450927734375;1347.4588623046875
118;1240.751953125;1290.0262451171875;1247.5791015625;1223.59375;1346.8990478515625
119;1239.894775390625;1289.4991455078125;1246.38525390625;1222.3282470703125;1346.3358154296875
120;1239.0299072265625;1288.9654541015625;1245.177001953125;1221.052978515625;1345.76904296875
121;1238.160400390625;1288.4224853515625;1243.95361328125;1219.7630615234375;1345.2005615234375
122;1237.2796630859375;1287.8726806640625;1242.7154541015625;1218.4530029296875;1344.6263427734375
123;1236.3909912109375;1287.31591796875;1241.4676513671875;1217.1279296875;1344.0484619140625
124;1235.4942626953125;1286.7537841796875;1240.204833984375;1215.7928466796875;1343.4691162109375
125;1234.5889892578125;1286.1845703125;1238.927490234375;1214.4373779296875;1342.88623046875
126;1233.6787109375;1285.605712890625;1237.6309814453125;1213.071533203125;1342.2972412109375
127;1232.760009765625;1285.021728515625;1236.3204345703125;1211.68505859375;1341.706787109375
128;1231.8326416015625;1284.4298095703125;1234.995849609375;1210.28759765625;1341.112548828125
129;1230.8931884765625;1283.828125;1233.6573486328125;1208.86962890625;1340.51220703125
130;1229.9444580078125;1283.220703125;1232.30517578125;1207.440185546875;1339.9080810546875
131;1228.9903564453125;1282.605224609375;1230.939453125;1205.98974609375;1339.2999267578125
132;1228.027099609375;1281.981689453125;1229.5609130859375;1204.52294921875;1338.6878662109375
133;1227.0543212890625;1281.349853515625;1228.1688232421875;1203.045166015625;1338.072021484375
134;1226.0721435546875;1280.70947265625;1226.7645263671875;1201.5458984375;1337.4522705078125
135;1225.0806884765625;1280.0584716796875;1225.347900390625;1200.0352783203125;1336.8306884765625
136;1224.0791015625;1279.39892578125;1223.924072265625;1198.5078125;1336.2049560546875
137;1223.064208984375;1278.7325439453125;1222.48876953125;1196.9642333984375;1335.5733642578125
138;1222.039306640625;1278.0550537109375;1221.0374755859375;1195.4036865234375;1334.9375
139;1221.004150390625;1277.3707275390625;1219.5755615234375;1193.8265380859375;1334.2979736328125
140;1219.962158203125;1276.67724609375;1218.10791015625;1192.2330322265625;1333.6541748046875
141;1218.9063720703125;1275.974365234375;1216.6307373046875;1190.61767578125;1333.006103515625
142;1217.83984375;1275.261962890625;1215.1444091796875;1188.985595703125;1332.3538818359375
143;1216.7626953125;1274.5401611328125;1213.6497802734375;1187.3370361328125;1331.6976318359375
144;1215.677978515625;1273.8082275390625;1212.1419677734375;1185.6717529296875;1331.0369873046875
145;1214.5821533203125;1273.0667724609375;1210.626953125;1183.989990234375;1330.372314453125
146;1213.4718017578125;1272.31298828125;1209.10498046875;1182.29736328125;1329.703125
147;1212.349853515625;1271.55126953125;1207.576416015625;1180.5830078125;1329.0299072265625
148;1211.2166748046875;1270.779296875;1206.0423583984375;1178.85791015625;1328.35205078125
149;1210.0751953125;1269.9970703125;1204.503173828125;1177.1116943359375;1327.6700439453125
150;1208.9219970703125;1269.20166015625;1202.9598388671875;1175.35498046875;1326.9837646484375
151;1207.7569580078125;1268.398193359375;1201.413330078125;1173.5831298828125;1326.2928466796875
152;1206.5799560546875;1267.58154296875;1199.8651123046875;1171.790771484375;1325.59765625
153;1205.390869140625;1266.754150390625;1198.3209228515625;1169.9835205078125;1324.9000244140625
154;1204.1859130859375;1265.918212890625;1196.7708740234375;1168.1669921875;1324.195556640625
155;1202.9686279296875;1265.068603515625;1195.220458984375;1166.33642578125;1323.4869384765625
156;1201.7388916015625;1264.21044921875;1193.67041015625;1164.49169921875;1322.7734375
157;1200.500244140625;1263.3409423828125;1192.121337890625;1162.6336669921875;1322.055419921875
158;1199.2452392578125;1262.460205078125;1190.57861328125;1160.762451171875;1321.3348388671875
159;1197.9813232421875;1261.56787109375;1189.037841796875;1158.8787841796875;1320.609619140625
160;1196.7044677734375;1260.6640625;1187.495849609375;1156.982666015625;1319.8795166015625
161;1195.4219970703125;1259.74853515625;1185.9580078125;1155.0751953125;1319.1427001953125
162;1194.1278076171875;1258.8184814453125;1184.42431640625;1153.156494140625;1318.4010009765625
163;1192.8253173828125;1257.8792724609375;1182.900634765625;1151.227294921875;1317.6544189453125
164;1191.5072021484375;1256.9278564453125;1181.3779296875;1149.2825927734375;1316.9029541015625
165;1190.1768798828125;1255.9644775390625;1179.86181640625;1147.333984375;1316.1466064453125
166;1188.8343505859375;1254.9892578125;1178.35302734375;1145.376953125;1315.387451171875
167;1187.4833984375;1254.0018310546875;1176.8516845703125;1143.41162109375;1314.6234130859375
168;1186.116455078125;1252.99951171875;1175.3629150390625;1141.43359375;1313.8541259765625
169;1184.7412109375;1251.988037109375;1173.8790283203125;1139.44873046875;1313.077880859375
170;1183.3499755859375;1250.9615478515625;1172.40478515625;1137.4637451171875;1312.29638671875
171;1181.9466552734375;1249.9227294921875;1170.9404296875;1135.4737548828125;1311.509521484375
172;1180.53125;1248.87158203125;1169.490234375;1133.479248046875;1310.719482421875
173;1179.113037109375;1247.8109130859375;1168.04736328125;1131.4813232421875;1309.9241943359375
174;1177.686279296875;1246.735107421875;1166.61572265625;1129.4808349609375;1309.121337890625
175;1176.2484130859375;1245.6470947265625;1165.19970703125;1127.4781494140625;1308.315185546875
176;1174.7999267578125;1244.5494384765625;1163.7940673828125;1125.474609375;1307.5015869140625
177;1173.343994140625;1243.43701171875;1162.4007568359375;1123.4705810546877;1306.684326171875
178;1171.8734130859375;1242.315185546875;1161.0238037109375;1121.4619140625;1305.859619140625
179;1170.3958740234375;1241.1785888671875;1159.6595458984375;1119.45458984375;1305.03125
180;1168.904052734375;1240.03271484375;1158.305419921875;1117.44921875;1304.1953125
181;1167.4053955078125;1238.8720703125;1156.9654541015625;1115.44677734375;1303.355712890625
182;1165.896728515625;1237.6995849609375;1155.64208984375;1113.4532470703123;1302.50830078125
183;1164.3739013671875;1236.51806640625;1154.3291015625;1111.459716796875;1301.656982421875
184;1162.841064453125;1235.322265625;1153.032958984375;1109.473876953125;1300.7979736328125
185;1161.2982177734375;1234.118408203125;1151.750732421875;1107.4940185546877;1299.932861328125
186;1159.7459716796875;1232.89990234375;1150.4822998046875;1105.5213623046877;1299.0633544921875
187;1158.1842041015625;1231.6737060546875;1149.227783203125;1103.56103515625;1298.1859130859375
188;1156.61328125;1230.436767578125;1147.98388671875;1101.6044921875;1297.30419921875
189;1155.0335693359375;1229.189208984375;1146.7545166015625;1099.661865234375;1296.413818359375
190;1153.4451904296875;1227.931396484375;1145.5386962890625;1097.72900390625;1295.5172119140625
191;1151.848388671875;1226.6639404296875;1144.3372802734375;1095.80224609375;1294.614013671875
192;1150.2435302734375;1225.3839111328125;1143.1495361328125;1093.8912353515623;1293.7044677734375
193;1148.642822265625;1224.0946044921875;1141.9757080078125;1091.98779296875;1292.790283203125
194;1147.0362548828125;1222.7965087890625;1140.81591796875;1090.10107421875;1291.8692626953125
195;1145.423583984375;1221.492919921875;1139.669677734375;1088.22265625;1290.94140625
196;1143.80517578125;1220.18115234375;1138.536865234375;1086.3580322265623;1290.00439453125
197;1142.184814453125;1218.858642578125;1137.4202880859375;1084.5076904296877;1289.062744140625
198;1140.56005859375;1217.52880859375;1136.3143310546875;1082.6719970703123;1288.1116943359375
199;1138.927490234375;1216.19189453125;1135.22412109375;1080.855224609375;1287.1536865234375
200;1137.2904052734375;1214.8486328125;1134.1470947265625;1079.0499267578123;1286.18798828125
201;1135.6529541015625;1213.4993896484375;1133.082763671875;1077.2607421875;1285.215087890625
202;1134.0184326171875;1212.144287109375;1132.0313720703125;1075.491943359375;1284.236572265625
203;1132.381103515625;1210.7872314453125;1130.992431640625;1073.739990234375;1283.250244140625
204;1130.7413330078125;1209.4254150390625;1129.9659423828125;1072.0052490234377;1282.2540283203125
205;1129.102783203125;1208.0594482421875;1128.95166015625;1070.2840576171877;1281.2496337890625
206;1127.458740234375;1206.68701171875;1127.9468994140625;1068.58447265625;1280.2391357421875
207;1125.81298828125;1205.3116455078125;1126.9544677734375;1066.90283203125;1279.220703125
208;1124.1658935546877;1203.93408203125;1125.9754638671875;1065.23583984375;1278.191650390625
209;1122.5179443359377;1202.5574951171875;1125.008056640625;1063.5906982421877;1277.1541748046875
210;1120.869384765625;1201.1796875;1124.052001953125;1061.9608154296877;1276.110107421875
211;1119.2208251953123;1199.8013916015625;1123.1048583984377;1060.3531494140623;1275.055419921875
212;1117.5721435546877;1198.4232177734375;1122.16845703125;1058.76123046875;1273.9940185546875
213;1115.9276123046877;1197.045654296875;1121.2447509765623;1057.191162109375;1272.9237060546875
214;1114.286376953125;1195.66943359375;1120.32958984375;1055.64013671875;1271.8416748046875
215;1112.6453857421877;1194.2919921875;1119.4246826171877;1054.1082763671877;1270.7503662109375
216;1111.0137939453123;1192.9197998046875;1118.53173828125;1052.591796875;1269.6495361328125
217;1109.3826904296877;1191.550537109375;1117.6466064453123;1051.097412109375;1268.5413818359375
218;1107.754150390625;1190.1849365234375;1116.77099609375;1049.621826171875;1267.4210205078125
219;1106.1287841796877;1188.8201904296875;1115.9051513671877;1048.1624755859377;1266.29296875
220;1104.507080078125;1187.460205078125;1115.050048828125;1046.721923828125;1265.1549072265625
221;1102.888916015625;1186.10498046875;1114.202392578125;1045.30322265625;1264.0064697265625
222;1101.275146484375;1184.755615234375;1113.3634033203123;1043.9007568359377;1262.84765625
223;1099.6689453125;1183.4151611328125;1112.5333251953123;1042.5169677734377;1261.67578125
224;1098.0645751953123;1182.078369140625;1111.7115478515623;1041.151611328125;1260.495849609375
225;1096.4654541015623;1180.7489013671875;1110.8997802734377;1039.8070068359377;1259.3021240234375
226;1094.871826171875;1179.42919921875;1110.0947265625;1038.4781494140623;1258.0997314453125
227;1093.2841796875;1178.117431640625;1109.2977294921877;1037.1695556640623;1256.8839111328125
228;1091.7027587890623;1176.811279296875;1108.5084228515623;1035.878662109375;1255.6563720703125
229;1090.1280517578123;1175.516357421875;1107.7269287109377;1034.60498046875;1254.417236328125
230;1088.560302734375;1174.2281494140625;1106.952880859375;1033.3486328125;1253.1658935546875
231;1087.0028076171877;1172.9490966796875;1106.18603515625;1032.10888671875;1251.9053955078125
232;1085.4501953125;1171.68212890625;1105.4263916015623;1030.886962890625;1250.630126953125
233;1083.905517578125;1170.4228515625;1104.6751708984377;1029.6812744140623;1249.342529296875
234;1082.3690185546877;1169.17626953125;1103.9306640625;1028.4898681640623;1248.0452880859375
235;1080.8411865234377;1167.93994140625;1103.19287109375;1027.316650390625;1246.7325439453125
236;1079.3221435546877;1166.71435546875;1102.46142578125;1026.1590576171877;1245.4097900390625
237;1077.815185546875;1165.4970703125;1101.735107421875;1025.01708984375;1244.07177734375
238;1076.317626953125;1164.29052734375;1101.014892578125;1023.890380859375;1242.7205810546875
239;1074.8271484375;1163.0955810546875;1100.3021240234377;1022.7786254882812;1241.358642578125
240;1073.3468017578123;1161.9117431640625;1099.593994140625;1021.681884765625;1239.9830322265625
241;1071.877197265625;1160.741455078125;1098.8922119140623;1020.599853515625;1238.59423828125
242;1070.423583984375;1159.58251953125;1098.197509765625;1019.5319213867188;1237.1890869140625
243;1068.979248046875;1158.434814453125;1097.5081787109377;1018.477783203125;1235.77294921875
244;1067.55224609375;1157.2962646484375;1096.8243408203123;1017.437255859375;1234.3402099609375
245;1066.13525390625;1156.1693115234375;1096.1446533203123;1016.4102783203124;1232.893798828125
246;1064.7301025390623;1155.055419921875;1095.470458984375;1015.39453125;1231.4329833984375
247;1063.337158203125;1153.953369140625;1094.802490234375;1014.3916015625;1229.96044921875
248;1061.95849609375;1152.8623046875;1094.1396484375;1013.4033203125;1228.4710693359375
249;1060.5889892578123;1151.78076171875;1093.48046875;1012.427490234375;1226.967529296875
250;1059.2314453125;1150.712646484375;1092.8272705078123;1011.4635620117188;1225.449462890625
251;1057.8865966796877;1149.6539306640625;1092.1785888671877;1010.509765625;1223.9168701171875
252;1056.554443359375;1148.6082763671875;1091.534423828125;1009.5693359375;1222.3697509765625
253;1055.236572265625;1147.5716552734375;1090.8953857421877;1008.6385498046876;1220.80810546875
254;1053.9283447265623;1146.5478515625;1090.26171875;1007.7188720703124;1219.234619140625
255;1052.632080078125;1145.5350341796875;1089.63134765625;1006.811767578125;1217.6444091796875
256;1051.3494873046877;1144.53271484375;1089.005126953125;1005.9135131835938;1216.0423583984375
257;1050.0799560546877;1143.5394287109375;1088.3839111328123;1005.0256958007812;1214.42626953125
258;1048.8238525390623;1142.5562744140625;1087.7667236328123;1004.149658203125;1212.796142578125
259;1047.5814208984377;1141.583740234375;1087.1553955078123;1003.2825317382812;1211.149169921875
260;1046.3497314453123;1140.623046875;1086.5478515625;1002.4259033203124;1209.4886474609375
261;1045.130615234375;1139.6705322265625;1085.9439697265623;1001.5811767578124;1207.817138671875
262;1043.9234619140623;1138.7298583984375;1085.343994140625;1000.7452392578124;1206.1292724609375
263;1042.727783203125;1137.7969970703125;1084.7474365234377;999.920166015625;1204.4283447265625
264;1041.5467529296877;1136.87548828125;1084.15478515625;999.1025390625;1202.71484375
265;1040.379638671875;1135.965576171875;1083.56591796875;998.2938232421876;1200.989013671875
266;1039.2247314453123;1135.065185546875;1082.98046875;997.4951171875;1199.2510986328125
267;1038.0811767578123;1134.17236328125;1082.3985595703123;996.7046508789062;1197.5015869140625
268;1036.9520263671877;1133.2900390625;1081.8189697265623;995.9224243164062;1195.74365234375
269;1035.8341064453123;1132.4149169921875;1081.2427978515623;995.1481323242188;1193.97509765625
270;1034.729736328125;1131.5496826171875;1080.670166015625;994.3814086914062;1192.1937255859375
271;1033.6370849609377;1130.6915283203125;1080.1007080078123;993.6209716796876;1190.40576171875
272;1032.5552978515623;1129.8427734375;1079.5347900390623;992.8692626953124;1188.60595703125
273;1031.4864501953123;1129.000732421875;1078.97265625;992.1234741210938;1186.8011474609375
274;1030.4283447265623;1128.16650390625;1078.4124755859377;991.385009765625;1184.98583984375
275;1029.3817138671877;1127.3414306640625;1077.8551025390623;990.6531982421876;1183.163818359375
276;1028.348876953125;1126.5224609375;1077.3004150390623;989.9296875;1181.336181640625
277;1027.325439453125;1125.712158203125;1076.74853515625;989.212890625;1179.50390625
278;1026.3157958984377;1124.90771484375;1076.1995849609377;988.5026245117188;1177.6678466796875
279;1025.316162109375;1124.1104736328123;1075.6531982421877;987.7987060546876;1175.831787109375
280;1024.327880859375;1123.3214111328123;1075.10986328125;987.1014404296876;1173.9910888671875
281;1023.3473510742188;1122.5377197265623;1074.5689697265623;986.4102783203124;1172.1497802734375
282;1022.3760375976562;1121.7608642578123;1074.03173828125;985.724609375;1170.30908203125
283;1021.41552734375;1120.991455078125;1073.49658203125;985.044677734375;1168.4700927734375
284;1020.4664916992188;1120.2294921875;1072.96435546875;984.3709716796876;1166.636474609375
285;1019.5292358398438;1119.472412109375;1072.43408203125;983.7026977539062;1164.8040771484375
286;1018.6055297851562;1118.72265625;1071.9063720703123;983.0413208007812;1162.9765625
287;1017.6912841796876;1117.9776611328123;1071.38037109375;982.385498046875;1161.1553955078125
288;1016.7841796875;1117.2384033203123;1070.85693359375;981.7346801757812;1159.341552734375
289;1015.8881225585938;1116.5048828125;1070.335693359375;981.089599609375;1157.5362548828125
290;1014.9990234375;1115.77685546875;1069.8172607421877;980.4495239257812;1155.743408203125
291;1014.1173095703124;1115.055419921875;1069.30029296875;979.814453125;1153.96142578125
292;1013.2449340820312;1114.33935546875;1068.7864990234377;979.1841430664062;1152.18896484375
293;1012.37890625;1113.62744140625;1068.274658203125;978.5599975585938;1150.429443359375
294;1011.5204467773438;1112.92138671875;1067.7646484375;977.9412841796876;1148.686767578125
295;1010.6693115234376;1112.22021484375;1067.255859375;977.326904296875;1146.956787109375
296;1009.8257446289062;1111.5244140625;1066.7496337890623;976.7171020507812;1145.242919921875
297;1008.9887084960938;1110.8330078125;1066.24462890625;976.113037109375;1143.54638671875
298;1008.1590576171876;1110.1463623046877;1065.7413330078123;975.5130004882812;1141.86767578125
299;1007.3347778320312;1109.46435546875;1065.2398681640623;974.918212890625;1140.2081298828125
300;1006.5164794921876;1108.7867431640623;1064.74072265625;974.3268432617188;1138.5682373046875
301;1005.7042236328124;1108.1136474609377;1064.2432861328123;973.7391357421876;1136.948486328125
302;1004.8992919921876;1107.4456787109377;1063.74755859375;973.15625;1135.3494873046875
303;1004.0985107421876;1106.781005859375;1063.2528076171877;972.5762939453124;1133.77783203125
304;1003.3040161132812;1106.1220703125;1062.7596435546877;972.0008544921876;1132.2291259765625
305;1002.5159912109376;1105.466796875;1062.2686767578123;971.4287109375;1130.7008056640625
306;1001.7351684570312;1104.81640625;1061.7794189453123;970.8603515625;1129.1949462890625
307;1000.9599609375;1104.1693115234377;1061.29150390625;970.2953491210938;1127.7137451171875
308;1000.1906127929688;1103.52685546875;1060.80517578125;969.7338256835938;1126.2535400390625
309;999.42626953125;1102.888427734375;1060.320556640625;969.1762084960938;1124.81787109375
310;998.6669921875;1102.2528076171877;1059.8365478515623;968.6212158203124;1123.409423828125
311;997.9126586914062;1101.62158203125;1059.354248046875;968.070068359375;1122.021728515625
312;997.1635131835938;1100.993896484375;1058.8741455078123;967.521484375;1120.658935546875
313;996.4191284179688;1100.369140625;1058.3951416015623;966.9766845703124;1119.3187255859377
314;995.6792602539062;1099.7474365234377;1057.9178466796877;966.4348754882812;1118.00244140625
315;994.9443969726562;1099.130615234375;1057.4410400390623;965.8960571289062;1116.712890625
316;994.2141723632812;1098.5172119140623;1056.9659423828123;965.3600463867188;1115.449462890625
317;993.48828125;1097.9068603515623;1056.49267578125;964.8267211914062;1114.2122802734377
318;992.7669677734376;1097.2999267578123;1056.0208740234377;964.2960205078124;1112.9979248046877
319;992.0498046875;1096.6949462890623;1055.5501708984377;963.768310546875;1111.804443359375
320;991.3380126953124;1096.0931396484377;1055.080810546875;963.243408203125;1110.639892578125
321;990.6304321289062;1095.494384765625;1054.61279296875;962.7202758789062;1109.5023193359377
322;989.9268798828124;1094.898681640625;1054.1458740234377;962.2003173828124;1108.3865966796877
323;989.2274169921876;1094.3055419921877;1053.68017578125;961.6821899414062;1107.29296875
324;988.5325927734376;1093.715576171875;1053.2158203125;961.1663208007812;1106.223388671875
325;987.8405151367188;1093.12939453125;1052.7525634765623;960.6531982421876;1105.173095703125
326;987.1522827148438;1092.54541015625;1052.2904052734377;960.1430053710938;1104.140380859375
327;986.4678955078124;1091.96435546875;1051.8294677734377;959.6350708007812;1103.12548828125
328;985.7877807617188;1091.3858642578123;1051.368896484375;959.128662109375;1102.1300048828123
329;985.1116943359376;1090.81005859375;1050.90966796875;958.624755859375;1101.15185546875
330;984.4381713867188;1090.23681640625;1050.45166015625;958.1229248046876;1100.19091796875
331;983.7681274414062;1089.6661376953123;1049.9945068359377;957.6234741210938;1099.24560546875
332;983.1014404296876;1089.09912109375;1049.5389404296877;957.1262817382812;1098.31396484375
333;982.4389038085938;1088.534423828125;1049.08447265625;956.631591796875;1097.3958740234377
334;981.77880859375;1087.971923828125;1048.6312255859377;956.1383666992188;1096.4927978515623
335;981.1220092773438;1087.4124755859377;1048.1790771484377;955.6477661132812;1095.601318359375
336;980.4694213867188;1086.8555908203123;1047.7283935546877;955.1585083007812;1094.7227783203123
337;979.8192749023438;1086.3013916015623;1047.2784423828123;954.6719970703124;1093.8560791015623
338;979.1727294921876;1085.7493896484377;1046.82958984375;954.187255859375;1093.00048828125
339;978.5298461914062;1085.1995849609377;1046.382080078125;953.7044067382812;1092.1575927734377
340;977.8892211914062;1084.6512451171877;1045.93505859375;953.223388671875;1091.325439453125
341;977.25146484375;1084.10595703125;1045.4896240234377;952.744384765625;1090.5029296875
342;976.6167602539062;1083.563232421875;1045.0445556640623;952.2670288085938;1089.6900634765623
343;975.9849243164062;1083.02197265625;1044.60107421875;951.7915649414062;1088.88720703125
344;975.3558959960938;1082.4840087890623;1044.157958984375;951.317138671875;1088.093017578125
345;974.7296142578124;1081.947998046875;1043.7164306640623;950.8442993164062;1087.308837890625
346;974.1060791015624;1081.4151611328123;1043.2752685546877;950.3737182617188;1086.533203125
347;973.4852905273438;1080.88427734375;1042.835205078125;949.904052734375;1085.7645263671877
348;972.8671875;1080.3565673828123;1042.3963623046877;949.4360961914062;1085.0047607421877
349;972.2517700195312;1079.8306884765623;1041.9580078125;948.9698486328124;1084.25244140625
350;971.6401977539062;1079.306884765625;1041.5206298828123;948.5054321289062;1083.50830078125
351;971.0308227539062;1078.7850341796877;1041.0845947265623;948.0428466796876;1082.7703857421877
352;970.4241333007812;1078.265380859375;1040.649169921875;947.5824584960938;1082.040283203125
353;969.8198852539062;1077.74755859375;1040.21533203125;947.123291015625;1081.31640625
354;969.2188720703124;1077.2310791015623;1039.7816162109377;946.665771484375;1080.600341796875
355;968.6203002929688;1076.71630859375;1039.348876953125;946.2099609375;1079.8907470703123
356;968.0235595703124;1076.2034912109377;1038.9171142578123;945.7555541992188;1079.1875
357;967.4295043945312;1075.692138671875;1038.486083984375;945.3018798828124;1078.490966796875
358;966.8386840820312;1075.182373046875;1038.0560302734377;944.8500366210938;1077.7994384765623
359;966.2504272460938;1074.67431640625;1037.6273193359377;944.3991088867188;1077.11376953125
360;965.6646118164062;1074.167724609375;1037.19873046875;943.9498901367188;1076.4342041015623
361;965.08203125;1073.66259765625;1036.7711181640623;943.5020751953124;1075.7591552734377
362;964.501953125;1073.1591796875;1036.344970703125;943.0559692382812;1075.0889892578123
363;963.9235229492188;1072.6575927734377;1035.9190673828123;942.6106567382812;1074.423828125
364;963.34814453125;1072.1573486328123;1035.494384765625;942.1678466796876;1073.763427734375
365;962.77490234375;1071.65869140625;1035.070068359375;941.7257080078124;1073.1075439453123
366;962.2033081054688;1071.1610107421877;1034.646728515625;941.2855834960938;1072.4564208984377
367;961.6338500976562;1070.6650390625;1034.22412109375;940.8468017578124;1071.809814453125
368;961.0673217773438;1070.1707763671877;1033.8026123046877;940.4093017578124;1071.1683349609377
369;960.5023193359376;1069.677734375;1033.3822021484377;939.9729614257812;1070.53076171875
370;959.939453125;1069.18603515625;1032.96240234375;939.5379638671876;1069.896484375
371;959.3786010742188;1068.6956787109377;1032.54345703125;939.1033935546876;1069.2669677734377
372;958.8199462890624;1068.20654296875;1032.1251220703123;938.670654296875;1068.6409912109377
373;958.2632446289062;1067.7191162109377;1031.707275390625;938.2388305664062;1068.0184326171877
374;957.7085571289062;1067.23291015625;1031.29052734375;937.8077392578124;1067.4000244140623
375;957.1558227539062;1066.74853515625;1030.874267578125;937.3782348632812;1066.7857666015623
376;956.6060180664062;1066.265380859375;1030.458984375;936.9497680664062;1066.176025390625
377;956.0578002929688;1065.78369140625;1030.0445556640623;936.522216796875;1065.5689697265623
378;955.5116577148438;1065.3028564453123;1029.6309814453123;936.0958251953124;1064.96630859375
379;954.9679565429688;1064.8232421875;1029.2181396484377;935.6703491210938;1064.366943359375
380;954.42626953125;1064.3448486328123;1028.8060302734377;935.245849609375;1063.7701416015623
381;953.8864135742188;1063.8677978515623;1028.3944091796877;934.8223876953124;1063.177001953125
382;953.3477783203124;1063.392578125;1027.9837646484377;934.3995361328124;1062.5875244140623
383;952.8109741210938;1062.91845703125;1027.5736083984377;933.9775390625;1062.0003662109377
384;952.2767944335938;1062.4456787109377;1027.1641845703123;933.556640625;1061.4163818359377
385;951.7437133789062;1061.9735107421877;1026.7552490234377;933.13671875;1060.8349609375
386;951.2130126953124;1061.5029296875;1026.3475341796877;932.7176513671876;1060.2564697265623
387;950.68408203125;1061.033203125;1025.9404296875;932.2994995117188;1059.6807861328123
388;950.1567993164062;1060.5645751953123;1025.5340576171877;931.8822631835938;1059.1083984375
389;949.6311645507812;1060.09765625;1025.1279296875;931.4658203125;1058.5386962890623
390;949.1078491210938;1059.631103515625;1024.72216796875;931.0503540039062;1057.970947265625
391;948.5858154296876;1059.165771484375;1024.3177490234377;930.6356201171876;1057.4056396484377
392;948.0662841796876;1058.7012939453123;1023.9133911132812;930.222412109375;1056.843017578125
393;947.5477294921876;1058.23828125;1023.509765625;929.8096923828124;1056.2840576171877
394;947.0316772460938;1057.776123046875;1023.1072998046876;929.3978881835938;1055.7275390625
395;946.5167236328124;1057.31494140625;1022.705322265625;928.9869995117188;1055.173583984375
396;946.0039672851562;1056.8544921875;1022.304443359375;928.577392578125;1054.621337890625
397;945.4923706054688;1056.3956298828123;1021.903564453125;928.168701171875;1054.0718994140623
398;944.9823608398438;1055.937255859375;1021.5032348632812;927.7608642578124;1053.52490234375
399;944.4740600585938;1055.4798583984377;1021.1041870117188;927.3533935546876;1052.9794921875
400;943.9673461914062;1055.02392578125;1020.7055053710938;926.9468383789062;1052.4366455078123
401;943.4620971679688;1054.568359375;1020.3070678710938;926.541015625;1051.895751953125
402;942.9583740234376;1054.11376953125;1019.9094848632812;926.1364135742188;1051.357666015625
403;942.4569702148438;1053.6605224609377;1019.5122680664062;925.732666015625;1050.8209228515623
404;941.9567260742188;1053.2076416015623;1019.115478515625;925.3297729492188;1050.287109375
405;941.4576416015624;1052.755615234375;1018.719482421875;924.9270629882812;1049.7557373046877
406;940.9600219726562;1052.3045654296877;1018.323974609375;924.5258178710938;1049.225830078125
407;940.4638671875;1051.8546142578123;1017.9291381835938;924.1248779296876;1048.6983642578123
408;939.9692993164062;1051.4052734375;1017.534912109375;923.7247314453124;1048.1729736328123
409;939.4761352539062;1050.95654296875;1017.1410522460938;923.3251953125;1047.6488037109377
410;938.98486328125;1050.5093994140623;1016.747802734375;922.926513671875;1047.12646484375
411;938.4948120117188;1050.06298828125;1016.3555908203124;922.5284423828124;1046.60595703125
412;938.0067138671876;1049.6170654296877;1015.9634399414062;922.131103515625;1046.08740234375
413;937.52001953125;1049.171875;1015.5717163085938;921.7344970703124;1045.5704345703123
414;937.0343627929688;1048.7274169921877;1015.1809692382812;921.3384399414062;1045.0552978515623
415;936.5501098632812;1048.28369140625;1014.7904663085938;920.943603515625;1044.5423583984377
416;936.0670776367188;1047.8414306640623;1014.4006958007812;920.5492553710938;1044.0308837890623
417;935.5860595703124;1047.3995361328123;1014.0114135742188;920.1553955078124;1043.521240234375
418;935.1058349609376;1046.9583740234377;1013.6227416992188;919.762451171875;1043.0133056640623
419;934.6268920898438;1046.518310546875;1013.2344970703124;919.3704223632812;1042.5064697265623
420;934.1495361328124;1046.0791015625;1012.8466796875;918.9786376953124;1042.0013427734377
421;933.6742553710938;1045.6405029296877;1012.4594116210938;918.587890625;1041.49755859375
422;933.19970703125;1045.2030029296877;1012.0723876953124;918.197509765625;1040.9954833984377
423;932.72705078125;1044.7655029296877;1011.6860961914062;917.8080444335938;1040.4954833984377
424;932.2554321289062;1044.3294677734377;1011.3001098632812;917.4188232421876;1039.9967041015623
425;931.7850952148438;1043.893798828125;1010.9143676757812;917.0305786132812;1039.499267578125
426;931.3162841796876;1043.4591064453123;1010.529052734375;916.6430053710938;1039.00341796875
427;930.8486328125;1043.02490234375;1010.144287109375;916.256103515625;1038.5086669921877
428;930.38232421875;1042.5914306640623;1009.760009765625;915.8698120117188;1038.0159912109377
429;929.9172973632812;1042.15869140625;1009.376220703125;915.4837036132812;1037.52490234375
430;929.4534301757812;1041.7265625;1008.9931640625;915.0982055664062;1037.0350341796877
431;928.9909057617188;1041.29541015625;1008.6106567382812;914.7131958007812;1036.547119140625
432;928.5297241210938;1040.86474609375;1008.228271484375;914.3289794921876;1036.06005859375
433;928.0697021484376;1040.4349365234377;1007.8468017578124;913.945556640625;1035.574462890625
434;927.6107788085938;1040.005615234375;1007.4652709960938;913.562744140625;1035.0904541015623
435;927.1536254882812;1039.5772705078123;1007.0842895507812;913.180419921875;1034.6080322265623
436;926.6973266601562;1039.14990234375;1006.7035522460938;912.798828125;1034.127197265625
437;926.2424926757812;1038.72314453125;1006.3236694335938;912.4178466796876;1033.6475830078123
438;925.7887573242188;1038.296875;1005.9437866210938;912.0369873046876;1033.168701171875
439;925.3362426757812;1037.87158203125;1005.5647583007812;911.6566772460938;1032.69140625
440;924.8843994140624;1037.44677734375;1005.185791015625;911.2770385742188;1032.2152099609377
441;924.4341430664062;1037.0223388671877;1004.8076171875;910.8978881835938;1031.7401123046877
442;923.9849243164062;1036.59912109375;1004.429931640625;910.519775390625;1031.2666015625
443;923.53662109375;1036.176025390625;1004.0520629882812;910.1419677734376;1030.794677734375
444;923.0897216796876;1035.75341796875;1003.6746826171876;909.7647705078124;1030.3240966796877
445;922.6436157226562;1035.33154296875;1003.2977294921876;909.3882446289062;1029.854248046875
446;922.1985473632812;1034.910400390625;1002.9212036132812;909.0117797851562;1029.3858642578123
447;921.7548828125;1034.48974609375;1002.5454711914062;908.6362915039062;1028.918212890625
448;921.3120727539062;1034.0697021484377;1002.1700439453124;908.260986328125;1028.4520263671877
449;920.8701171875;1033.650634765625;1001.7947998046876;907.8860473632812;1027.98681640625
450;920.4295654296876;1033.2318115234377;1001.420166015625;907.511962890625;1027.5225830078123
451;919.9898681640624;1032.8135986328123;1001.0460205078124;907.1383056640624;1027.0599365234377
452;919.5513916015624;1032.39599609375;1000.672119140625;906.7650756835938;1026.5982666015623
453;919.1138305664062;1031.9793701171877;1000.298583984375;906.3923950195312;1026.1378173828123
454;918.6770629882812;1031.56298828125;999.925537109375;906.0206298828124;1025.678466796875
455;918.2412109375;1031.1470947265623;999.552978515625;905.6489868164062;1025.2203369140623
456;917.8062133789062;1030.73193359375;999.1806640625;905.278076171875;1024.763427734375
457;917.3723754882812;1030.3173828125;998.808837890625;904.907470703125;1024.3074951171877
458;916.939453125;1029.903564453125;998.4371948242188;904.5377197265624;1023.852783203125
459;916.5079345703124;1029.490234375;998.0658569335938;904.1683959960938;1023.3992309570312
460;916.0770263671876;1029.0780029296877;997.695068359375;903.7996215820312;1022.9465942382812
461;915.64697265625;1028.6658935546877;997.3247680664062;903.431396484375;1022.4951782226562
462;915.2179565429688;1028.25439453125;996.9544067382812;903.0632934570312;1022.0446166992188
463;914.7897338867188;1027.843505859375;996.5848388671876;902.6961669921876;1021.5958862304688
464;914.3626098632812;1027.43310546875;996.2158203125;902.3291015625;1021.1484375
465;913.9365844726562;1027.0234375;995.8469848632812;901.9625854492188;1020.7017211914062
466;913.5111694335938;1026.6146240234377;995.478759765625;901.5965576171876;1020.2564086914062
467;913.0864868164062;1026.2061767578123;995.1106567382812;901.2312622070312;1019.8115844726562
468;912.6630859375;1025.798583984375;994.7431640625;900.8662109375;1019.3682250976562
469;912.240234375;1025.3916015625;994.3758544921876;900.5018310546875;1018.9257202148438
470;911.8184814453124;1024.9852294921877;994.0087890625;900.137939453125;1018.4837036132812
471;911.3977661132812;1024.5791015625;993.6419067382812;899.7745971679688;1018.0430297851562
472;910.9774780273438;1024.1737060546877;993.2755126953124;899.4112548828125;1017.602783203125
473;910.5579223632812;1023.7686767578124;992.9098510742188;899.0484619140625;1017.1634521484376
474;910.1392211914062;1023.3642578125;992.544189453125;898.6865234375;1016.724853515625
475;909.7213745117188;1022.9605102539062;992.1787109375;898.3252563476562;1016.2876586914062
476;909.3045043945312;1022.5573120117188;991.8141479492188;897.9642944335938;1015.8511962890624
477;908.8882446289062;1022.1546020507812;991.449462890625;897.6038818359375;1015.4154663085938
478;908.4729614257812;1021.7523803710938;991.0853881835938;897.2438354492188;1014.9806518554688
479;908.0582885742188;1021.3507080078124;990.7218017578124;896.884033203125;1014.5462646484376
480;907.64453125;1020.9490966796876;990.3579711914062;896.5248413085938;1014.1126098632812
481;907.2315063476562;1020.548095703125;989.9946899414062;896.166015625;1013.6798095703124
482;906.8197021484376;1020.1477661132812;989.632080078125;895.8076171875;1013.2477416992188
483;906.40869140625;1019.747802734375;989.26953125;895.4496459960938;1012.8167114257812
484;905.9979858398438;1019.3485107421876;988.9073486328124;895.0921020507812;1012.3861694335938
485;905.5881958007812;1018.9496459960938;988.5454711914062;894.7350463867188;1011.956787109375
486;905.1790161132812;1018.5514526367188;988.1840209960938;894.3782958984375;1011.528076171875
487;904.7706298828124;1018.1533203125;987.8229370117188;894.0223388671875;1011.0997924804688
488;904.3630981445312;1017.755615234375;987.4622192382812;893.6664428710938;1010.6727905273438
489;903.9561767578124;1017.3587036132812;987.1016845703124;893.311279296875;1010.2461547851562
490;903.5501098632812;1016.9623413085938;986.7413330078124;892.9564819335938;1009.8203125
491;903.1446533203124;1016.566162109375;986.3814086914062;892.6019897460938;1009.395263671875
492;902.7401123046876;1016.170654296875;986.021728515625;892.2479858398438;1008.9708251953124
493;902.3362426757812;1015.7759399414062;985.662353515625;891.89453125;1008.5470581054688
494;901.9334106445312;1015.3814086914062;985.3030395507812;891.541259765625;1008.1243286132812
495;901.5308837890624;1014.9874267578124;984.9442138671876;891.1885986328125;1007.7020874023438
496;901.1294555664062;1014.5941772460938;984.5856323242188;890.836181640625;1007.2804565429688
497;900.7286987304688;1014.201171875;984.227294921875;890.4840087890625;1006.8599243164062
498;900.3287963867188;1013.80859375;983.8692626953124;890.132080078125;1006.4396362304688
499;899.92919921875;1013.4166870117188;983.5118408203124;889.7807006835938;1006.0203857421876
500;899.5302734375;1013.0249633789062;983.1548461914062;889.4295654296875;1005.6014404296876
501;899.1323852539062;1012.6340942382812;982.7978515625;889.0792236328125;1005.1832275390624
502;898.7350463867188;1012.243408203125;982.4411010742188;888.7288208007812;1004.7659912109376
503;898.3381958007812;1011.8528442382812;982.084716796875;888.3788452148438;1004.3492431640624
504;897.9419555664062;1011.4634399414062;981.7288208007812;888.0291748046875;1003.9332275390624
505;897.5465698242188;1011.0739135742188;981.3729248046876;887.679931640625;1003.517822265625
506;897.1520385742188;1010.6848754882812;981.0171508789062;887.3311767578125;1003.1031494140624
507;896.7576904296875;1010.2963256835938;980.6618041992188;886.982666015625;1002.689208984375
508;896.3642578125;1009.908447265625;980.3067626953124;886.634521484375;1002.2756958007812
509;895.9716796875;1009.520751953125;979.9518432617188;886.2867431640625;1001.8629150390624
510;895.5795288085938;1009.1336669921876;979.5975341796876;885.9395141601562;1001.450927734375
511;895.1882934570312;1008.7469482421876;979.243408203125;885.5926513671875;1001.0392456054688
512;894.7975463867188;1008.3609008789062;978.8896484375;885.2462158203125;1000.6282958984376
513;894.40771484375;1007.9751586914062;978.5361328125;884.8997192382812;1000.2180786132812
514;894.0182495117188;1007.5895385742188;978.1829223632812;884.5536499023438;999.8086547851562
515;893.6295776367188;1007.2047729492188;977.830078125;884.208251953125;999.3993530273438
516;893.2412109375;1006.8201904296876;977.4772338867188;883.8629760742188;998.9907836914062
517;892.8538208007812;1006.4359741210938;977.1248779296876;883.5179443359375;998.5830078125
518;892.4669189453125;1006.0523071289062;976.7728881835938;883.1734619140625;998.1759643554688
519;892.0806274414062;1005.6689453125;976.4212036132812;882.8290405273438;997.769287109375
520;891.6948852539062;1005.285888671875;976.0696411132812;882.4849853515625;997.3630981445312
521;891.3098754882812;1004.9034423828124;975.718505859375;882.1412353515625;996.9578247070312
522;890.9253540039062;1004.5211791992188;975.3677368164062;881.798095703125;996.5527954101562
523;890.54150390625;1004.1392211914062;975.0170288085938;881.4551391601562;996.1485595703124
524;890.1580200195312;1003.758056640625;974.6665649414062;881.1124267578125;995.7446899414062
525;889.7753295898438;1003.3768310546876;974.3165283203124;880.7702026367188;995.3412475585938
526;889.3933715820312;1002.99609375;973.9666748046876;880.4281616210938;994.9385375976562
527;889.0118408203125;1002.6157836914062;973.6168823242188;880.0865478515625;994.5365600585938
528;888.6310424804688;1002.2357788085938;973.2672729492188;879.7454223632812;994.134765625
529;888.2506713867188;1001.8561401367188;972.918212890625;879.404541015625;993.7335205078124
530;887.8710327148438;1001.476806640625;972.569091796875;879.063720703125;993.3329467773438
531;887.4916381835938;1001.0979614257812;972.2203979492188;878.723388671875;992.9328002929688
532;887.11279296875;1000.7194213867188;971.8719482421876;878.3832397460938;992.533447265625
533;886.7344970703125;1000.3412475585938;971.5237426757812;878.0435791015625;992.1346435546876
534;886.3565673828125;999.9634399414062;971.17578125;877.7042846679688;991.736083984375
535;885.9796752929688;999.5860595703124;970.8284301757812;877.3650512695312;991.3380126953124
536;885.6030883789062;999.209228515625;970.481201171875;877.0262451171875;990.9404907226562
537;885.2273559570312;998.8324584960938;970.1340942382812;876.6876831054688;990.5433349609376
538;884.8522338867188;998.4561767578124;969.787353515625;876.3496704101562;990.1468505859376
539;884.4775390625;998.080078125;969.4409790039062;876.011962890625;989.7507934570312
540;884.1032104492188;997.7046508789062;969.0948486328124;875.674560546875;989.3552856445312
541;883.7295532226562;997.3294067382812;968.7489013671876;875.3375244140625;988.9601440429688
542;883.3564453125;996.954833984375;968.403076171875;875.0008544921875;988.565673828125
543;882.9839477539062;996.5803833007812;968.0577392578124;874.66455078125;988.171875
544;882.6121215820312;996.206298828125;967.7123413085938;874.3285522460938;987.7786865234376
545;882.2406005859375;995.832763671875;967.3673095703124;873.9928588867188;987.3859252929688
546;881.8698120117188;995.4595336914062;967.0224609375;873.657470703125;986.9933471679688
547;881.4995727539062;995.0867919921876;966.677734375;873.3224487304688;986.601318359375
548;881.1297607421875;994.7142944335938;966.3333129882812;872.9874267578125;986.2097778320312
549;880.7604370117188;994.3422241210938;965.9891357421876;872.6529541015625;985.8187255859376
550;880.3916015625;993.970458984375;965.6455078125;872.3187866210938;985.428466796875
551;880.0233154296875;993.5991821289062;965.302001953125;871.9849243164062;985.0382690429688
552;879.6553955078125;993.2278442382812;964.9586791992188;871.6512451171875;984.6485595703124
553;879.2879028320312;992.8571166992188;964.6156616210938;871.3180541992188;984.2592163085938
554;878.9210815429688;992.4866333007812;964.2730102539062;870.9846801757812;983.8704223632812
555;878.5548095703125;992.1165161132812;963.9302368164062;870.6517944335938;983.4822387695312
556;878.1891479492188;991.7466430664062;963.587646484375;870.3192138671875;983.0944213867188
557;877.8238525390625;991.3773803710938;963.2456665039062;869.9871826171875;982.70703125
558;877.4591064453125;991.0084838867188;962.9036254882812;869.6554565429688;982.3199462890624
559;877.0945434570312;990.6396484375;962.5620727539062;869.3237915039062;981.933349609375
560;876.7305908203125;990.2711791992188;962.2203979492188;868.99267578125;981.5475463867188
561;876.3670654296875;989.9031982421876;961.8790283203124;868.6615600585938;981.1619873046876
562;876.0040893554688;989.5352783203124;961.537841796875;868.3310546875;980.7771606445312
563;875.6414184570312;989.1680908203124;961.1969604492188;868.0006713867188;980.392578125
564;875.2791748046875;988.8010864257812;960.8563232421876;867.670654296875;980.0084838867188
565;874.9174194335938;988.4344482421876;960.515869140625;867.3408813476562;979.6245727539062
566;874.5560913085938;988.0679321289062;960.175537109375;867.0113525390625;979.2411499023438
567;874.1953125;987.7017211914062;959.8358154296876;866.68212890625;978.8580932617188
568;873.8349609375;987.3359375;959.49609375;866.3532104492188;978.4756469726562
569;873.4754638671875;986.970703125;959.1565551757812;866.0242919921875;978.09375
570;873.1162719726562;986.6053466796876;958.8175048828124;865.69580078125;977.712158203125
571;872.75732421875;986.240478515625;958.4786376953124;865.3675537109375;977.3308715820312
572;872.3989868164062;985.8758544921876;958.1397705078124;865.0396118164062;976.9500122070312
573;872.0410766601562;985.5115966796876;957.801025390625;864.7119750976562;976.5696411132812
574;871.68359375;985.1478881835938;957.4627685546876;864.3843383789062;976.1898193359376
575;871.3265991210938;984.784423828125;957.124755859375;864.056884765625;975.8101806640624
576;870.9700317382812;984.4210205078124;956.7868041992188;863.72998046875;975.4309692382812
577;870.6137084960938;984.0581665039062;956.4490966796876;863.4033203125;975.0523681640624
578;870.2578735351562;983.695556640625;956.111572265625;863.0768432617188;974.6739501953124
579;869.9025268554688;983.3330078125;955.7744140625;862.7506713867188;974.296142578125
580;869.5475463867188;982.970947265625;955.4375;862.4244995117188;973.9185180664062
581;869.19287109375;982.6090698242188;955.1007080078124;862.0985717773438;973.5415649414062
582;868.8387451171875;982.2476196289062;954.7640991210938;861.77294921875;973.1649169921876
583;868.4847412109375;981.8862915039062;954.4276123046876;861.4475708007812;972.7883911132812
584;868.1311645507812;981.5252685546876;954.0914916992188;861.122314453125;972.412353515625
585;867.7778930664062;981.164794921875;953.7554321289062;860.797607421875;972.0367431640624
586;867.4253540039062;980.8045654296876;953.4200439453124;860.4729614257812;971.6614379882812
587;867.0728759765625;980.4447631835938;953.084716796875;860.148681640625;971.2865600585938
588;866.7208862304688;980.0852661132812;952.7493286132812;859.8245239257812;970.912109375
589;866.3695068359375;979.7258911132812;952.414306640625;859.5005493164062;970.5379028320312
590;866.0182495117188;979.3666381835938;952.0794067382812;859.1769409179688;970.1640625
591;865.66748046875;979.0078125;951.7451171875;858.8534545898438;969.7906494140624
592;865.3172607421875;978.6492919921876;951.4108276367188;858.5304565429688;969.4176025390624
593;864.9672241210938;978.2914428710938;951.0767211914062;858.2073974609375;969.044921875
594;864.6174926757812;977.9334716796876;950.7430419921876;857.8848876953125;968.6727905273438
595;864.2681274414062;977.5758666992188;950.409423828125;857.5623168945312;968.3008422851562
596;863.9190673828125;977.21875;950.076171875;857.239990234375;967.9295043945312
597;863.5704956054688;976.8616333007812;949.7428588867188;856.918212890625;967.5584716796876
598;863.2222290039062;976.5048828125;949.4098510742188;856.5967407226562;967.1876831054688
599;862.8743896484375;976.1485595703124;949.0768432617188;856.2753295898438;966.8172607421876
600;862.5269775390625;975.7922973632812;948.7442626953124;855.954345703125;966.447265625
601;862.1801147460938;975.4364013671876;948.4118041992188;855.6333618164062;966.0778198242188
602;861.8333129882812;975.0807495117188;948.0794067382812;855.312744140625;965.7086181640624
603;861.4868774414062;974.7255859375;947.7476196289062;854.992431640625;965.3399047851562
604;861.1408081054688;974.3706665039062;947.4158935546876;854.6723022460938;964.9714965820312
605;860.79541015625;974.0159301757812;947.084228515625;854.3524780273438;964.6035766601562
606;860.4500122070312;973.6616821289062;946.7529296875;854.0328979492188;964.2359619140624
607;860.1052856445312;973.3073120117188;946.421630859375;853.7135620117188;963.8684692382812
608;859.7607421875;972.9534301757812;946.090576171875;853.3944091796875;963.5015869140624
609;859.4165649414062;972.5997314453124;945.7596435546876;853.0755004882812;963.135009765625
610;859.0726928710938;972.24609375;945.4291381835938;852.7567138671875;962.7687377929688
611;858.7294311523438;971.8928833007812;945.0986328125;852.438232421875;962.4026489257812
612;858.3862915039062;971.5400390625;944.7684326171876;852.1198120117188;962.0372314453124
613;858.0435180664062;971.1875;944.4384765625;851.8018798828125;961.6719970703124
614;857.7009887695312;970.8353881835938;944.1085205078124;851.484130859375;961.3070068359376
615;857.3588256835938;970.483154296875;943.7787475585938;851.1665649414062;960.9423828125
616;857.0169677734375;970.1314086914062;943.4495239257812;850.8493041992188;960.578125
617;856.6756591796875;969.780029296875;943.1204223632812;850.5320434570312;960.2142944335938
618;856.3343505859375;969.4290161132812;942.7915649414062;850.2150268554688;959.8506469726562
619;855.9935913085938;969.0780029296876;942.462646484375;849.8982543945312;959.4873657226562
620;855.6530151367188;968.727294921875;942.1340942382812;849.5818481445312;959.124755859375
621;855.3128051757812;968.3770751953124;941.8056640625;849.265625;958.7620849609376
622;854.9732055664062;968.027099609375;941.477294921875;848.9496459960938;958.4000854492188
623;854.6336669921875;967.6771850585938;941.149169921875;848.6339111328125;958.0384521484376
624;854.2943725585938;967.3274536132812;940.8212890625;848.318359375;957.6769409179688
625;853.9554443359375;966.9782104492188;940.4934692382812;848.0028076171875;957.3158569335938
626;853.6167602539062;966.6292114257812;940.166015625;847.6875610351562;956.955078125
627;853.2784423828125;966.2802734375;939.838623046875;847.3727416992188;956.5945434570312
628;852.9406127929688;965.931640625;939.511474609375;847.057861328125;956.2343139648438
629;852.60302734375;965.5833129882812;939.1844482421876;846.7432250976562;955.8744506835938
630;852.2659301757812;965.2352294921876;938.857666015625;846.428955078125;955.514892578125
631;851.9288330078125;964.8875732421876;938.53125;846.11474609375;955.1558837890624
632;851.5919799804688;964.5399169921876;938.2049560546876;845.8009643554688;954.797119140625
633;851.2555541992188;964.1928100585938;937.878662109375;845.487060546875;954.4387817382812
634;850.9196166992188;963.8458251953124;937.552978515625;845.1735229492188;954.0805053710938
635;850.5838623046875;963.4989013671876;937.2271118164062;844.860107421875;953.72265625
636;850.2485961914062;963.1522216796876;936.901611328125;844.547119140625;953.3651733398438
637;849.9133911132812;962.8059692382812;936.5762939453124;844.234130859375;953.008056640625
638;849.5786743164062;962.4598388671876;936.2510986328124;843.9215698242188;952.6510620117188
639;849.2442016601562;962.1138305664062;935.9259033203124;843.60888671875;952.2945556640624
640;848.91015625;961.7681274414062;935.6008911132812;843.296630859375;951.9380493164062
641;848.5762939453125;961.4227294921876;935.2760620117188;842.984619140625;951.5820922851562
642;848.24267578125;961.0775756835938;934.9514770507812;842.6727294921875;951.2265014648438
643;847.9094848632812;960.732666015625;934.6270751953124;842.3609619140625;950.8711547851562
644;847.5762939453125;960.3880004882812;934.3028564453124;842.04931640625;950.5160522460938
645;847.2435302734375;960.0435180664062;933.9788208007812;841.738037109375;950.1611938476562
646;846.9111328125;959.69921875;933.655029296875;841.427001953125;949.8065185546876
647;846.5791015625;959.355224609375;933.331298828125;841.1161499023438;949.4520874023438
648;846.2471923828125;959.011474609375;933.007568359375;840.8054809570312;949.0979614257812
649;845.9156494140625;958.6678466796876;932.6842651367188;840.4949951171875;948.744140625
650;845.5845336914062;958.3245239257812;932.3610229492188;840.184814453125;948.390625
651;845.2534790039062;957.9813232421876;932.0379638671876;839.8744506835938;948.0376586914062
652;844.9228515625;957.6387939453124;931.7151489257812;839.5646362304688;947.6846313476562
653;844.5924682617188;957.2962036132812;931.392333984375;839.2548828125;947.3319702148438
654;844.2623901367188;956.9539794921876;931.0697631835938;838.9453735351562;946.9796752929688
655;843.9326171875;956.6117553710938;930.7476196289062;838.635986328125;946.6278686523438
656;843.6032104492188;956.2700805664062;930.4252319335938;838.326904296875;946.2759399414062
657;843.2739868164062;955.9284057617188;930.1032104492188;838.0177001953125;945.9242553710938
658;842.9450073242188;955.5869140625;929.78125;837.708740234375;945.5730590820312
659;842.6163330078125;955.2456665039062;929.459716796875;837.4000244140625;945.2219848632812
660;842.2879028320312;954.9046020507812;929.1383666992188;837.0916137695312;944.8713989257812
661;841.9598388671875;954.5640258789062;928.817138671875;836.7832641601562;944.5209350585938
662;841.6322021484375;954.2236328125;928.49609375;836.4752197265625;944.1708374023438
663;841.3045654296875;953.8833618164062;928.1751098632812;836.1671752929688;943.8211059570312
664;840.9774169921875;953.5433959960938;927.854248046875;835.8592529296875;943.4713745117188
665;840.650390625;953.2034301757812;927.5337524414062;835.5518188476562;943.1220092773438
666;840.3236694335938;952.8637084960938;927.2133178710938;835.2445678710938;942.7727661132812
667;839.9971923828125;952.5242919921876;926.8932495117188;834.9375;942.4241333007812
668;839.6710205078125;952.1852416992188;926.5731201171876;834.6304321289062;942.0755004882812
669;839.3451538085938;951.8463745117188;926.253173828125;834.3237915039062;941.7272338867188
670;839.01953125;951.507568359375;925.93359375;834.01708984375;941.3794555664062
671;838.6942138671875;951.1690673828124;925.6139526367188;833.7108154296875;941.0319213867188
672;838.369140625;950.8309326171876;925.2944946289062;833.4047241210938;940.6847534179688
673;838.0442504882812;950.4928588867188;924.975341796875;833.0988159179688;940.337646484375
674;837.7195434570312;950.1549682617188;924.6561279296876;832.7930908203125;939.9909057617188
675;837.39501953125;949.8172607421876;924.337158203125;832.4874877929688;939.644287109375
676;837.0709228515625;949.4797973632812;924.018310546875;832.1821899414062;939.2980346679688
677;836.7470703125;949.142578125;923.699951171875;831.876708984375;938.9519653320312
678;836.42333984375;948.8057861328124;923.3815307617188;831.5715942382812;938.6063232421876
679;836.0999145507812;948.468994140625;923.063232421875;831.2666015625;938.2608032226562
680;835.77685546875;948.132568359375;922.7452392578124;830.9617309570312;937.9156494140624
681;835.4539794921875;947.7964477539062;922.4271850585938;830.6570434570312;937.5706787109376
682;835.1312255859375;947.460205078125;922.109375;830.352783203125;937.225830078125
683;834.8088989257812;947.1241455078124;921.7916870117188;830.048583984375;936.8812866210938
684;834.4867553710938;946.7883911132812;921.474365234375;829.7445678710938;936.5369873046876
685;834.1649169921875;946.4530029296876;921.156982421875;829.4408569335938;936.1929931640624
686;833.8431396484375;946.1176147460938;920.840087890625;829.1371459960938;935.849365234375
687;833.5216674804688;945.7827758789062;920.5230102539062;828.8336791992188;935.5056762695312
688;833.2005004882812;945.4476928710938;920.206298828125;828.5303955078125;935.1622924804688
689;832.8795776367188;945.113037109375;919.8897705078124;828.2271118164062;934.8193969726562
690;832.5589599609375;944.7784423828124;919.5732421875;827.9241333007812;934.4765625
691;832.23828125;944.444091796875;919.2568359375;827.621337890625;934.1342163085938
692;831.9179077148438;944.1100463867188;918.9405517578124;827.3187255859375;933.7920532226562
693;831.5977783203125;943.7760620117188;918.6246948242188;827.0162963867188;933.4501342773438
694;831.2778930664062;943.4422607421876;918.3087158203124;826.7139892578125;933.1084594726562
695;830.9583129882812;943.108642578125;917.9931640625;826.411865234375;932.7667846679688
696;830.6389770507812;942.775390625;917.677490234375;826.1099243164062;932.425537109375
697;830.3200073242188;942.4422607421876;917.3623046875;825.8081665039062;932.0844116210938
698;830.0011596679688;942.109375;917.0469970703124;825.50634765625;931.7435913085938
699;829.6826171875;941.7764892578124;916.7317504882812;825.2047729492188;931.4031372070312
700;829.3643798828125;941.4439086914062;916.416748046875;824.9034423828125;931.062744140625
701;829.0460205078125;941.1117553710938;916.1021118164062;824.602294921875;930.7227172851562
702;828.7282104492188;940.7794189453124;915.7874145507812;824.3012084960938;930.3828125
703;828.4105834960938;940.4475708007812;915.472900390625;824.0004272460938;930.0430908203124
704;828.0932006835938;940.1159057617188;915.158447265625;823.69970703125;929.7039184570312
705;827.77587890625;939.784423828125;914.8444213867188;823.399169921875;929.3646850585938
706;827.4586791992188;939.453125;914.5302734375;823.098876953125;929.025634765625
707;827.1419677734375;939.1220703125;914.2163696289062;822.798583984375;928.6871948242188
708;826.8253173828125;938.7908935546876;913.9026489257812;822.4987182617188;928.3486938476562
709;826.5090942382812;938.4602661132812;913.5891723632812;822.1989135742188;928.0103149414062
710;826.1929931640625;938.1297607421876;913.2758178710938;821.8991088867188;927.6724853515624
711;825.8773803710938;937.7993774414062;912.9625854492188;821.5996704101562;927.3348388671876
712;825.5620727539062;937.4690551757812;912.649658203125;821.3001098632812;926.9972534179688
713;825.2470703125;937.138916015625;912.336669921875;821.0010986328125;926.6600341796876
714;824.9322509765625;936.8088989257812;912.0237426757812;820.701904296875;926.3230590820312
715;824.6176147460938;936.479248046875;911.7109375;820.4029541015625;925.9861450195312
716;824.3032836914062;936.1497192382812;911.3984375;820.104248046875;925.6494750976562
717;823.9892578125;935.820556640625;911.0860595703124;819.8056030273438;925.3132934570312
718;823.6753540039062;935.491455078125;910.7738647460938;819.5071411132812;924.9772338867188
719;823.3616943359375;935.1625366210938;910.4617919921876;819.2088012695312;924.6412963867188
720;823.0482177734375;934.8338623046876;910.1498413085938;818.91064453125;924.3056030273438
721;822.7348022460938;934.5053100585938;909.8379516601562;818.612548828125;923.9700317382812
722;822.4216918945312;934.1768798828124;909.5262451171876;818.3148803710938;923.6348266601562
723;822.1087646484375;933.8486328125;909.2146606445312;818.017333984375;923.2997436523438
724;821.7962036132812;933.520751953125;908.9034423828124;817.7199096679688;922.9649047851562
725;821.48388671875;933.1929321289062;908.5923461914062;817.422607421875;922.6302490234376
726;821.1717529296875;932.8653564453124;908.2813720703124;817.12548828125;922.2958374023438
727;820.8598022460938;932.5377807617188;907.9705200195312;816.82861328125;921.961669921875
728;820.5481567382812;932.2105102539062;907.6598510742188;816.5316772460938;921.6277465820312
729;820.2366333007812;931.8831176757812;907.349365234375;816.2349853515625;921.2941284179688
730;819.92529296875;931.5563354492188;907.0388793945312;815.9385375976562;920.9605712890624
731;819.6141357421875;931.229736328125;906.7284545898438;815.6422119140625;920.6273193359376
732;819.3030395507812;930.9030151367188;906.4182739257812;815.3460083007812;920.2941284179688
733;818.9923706054688;930.5765991210938;906.1082763671876;815.0498657226562;919.9614868164062
734;818.6817626953125;930.2505493164062;905.79833984375;814.7540893554688;919.6287841796876
735;818.3712768554688;929.9244995117188;905.4885864257812;814.458251953125;919.2965087890624
736;818.0610961914062;929.5987548828124;905.1790771484376;814.1625366210938;918.9641723632812
737;817.7510986328125;929.2730102539062;904.8696899414062;813.8670043945312;918.6322631835938
738;817.4412841796875;928.947265625;904.560302734375;813.5716552734375;918.300537109375
739;817.1317749023438;928.6219482421876;904.2512817382812;813.2763671875;917.9690551757812
740;816.8223876953125;928.296630859375;903.942138671875;812.9813842773438;917.6376342773438
741;816.5131225585938;927.9718017578124;903.6332397460938;812.6866455078125;917.306396484375
742;816.2041015625;927.6470336914062;903.324462890625;812.3919067382812;916.9754638671876
743;815.8953857421875;927.322265625;903.0159301757812;812.097412109375;916.6446533203124
744;815.5867309570312;926.9977416992188;902.7075805664062;811.8031005859375;916.3140869140624
745;815.2783203125;926.6732788085938;902.3992919921876;811.5087890625;915.9835815429688
746;814.97021484375;926.3490600585938;902.0911254882812;811.214599609375;915.6535034179688
747;814.662109375;926.0252685546876;901.7830810546876;810.9205932617188;915.3236694335938
748;814.3544311523438;925.701416015625;901.4752197265624;810.6268920898438;914.9940185546876
749;814.0468139648438;925.3776245117188;901.16748046875;810.333251953125;914.6646118164062
750;813.7393188476562;925.0540161132812;900.8600463867188;810.0397338867188;914.3352661132812
751;813.4320068359375;924.7307739257812;900.552490234375;809.746337890625;914.0060424804688
752;813.1248779296875;924.4077758789062;900.2449951171875;809.4530029296875;913.6770629882812
753;812.81787109375;924.084716796875;899.9379272460938;809.1600341796875;913.3483276367188
754;812.5112915039062;923.7621459960938;899.6309204101562;808.8672485351562;913.019775390625
755;812.2046508789062;923.439453125;899.3240966796875;808.5742797851562;912.6915283203124
756;811.8983154296875;923.1170654296876;899.017333984375;808.2816772460938;912.3634033203124
757;811.5922241210938;922.794921875;898.7105102539062;807.9890747070312;912.0357055664062
758;811.2863159179688;922.472900390625;898.404052734375;807.6965942382812;911.7078857421876
759;810.98046875;922.1510620117188;898.0975952148438;807.404541015625;911.3803100585938
760;810.6749267578125;921.8292236328124;897.7913208007812;807.1124877929688;911.0529174804688
761;810.3696899414062;921.507568359375;897.485107421875;806.820556640625;910.7256469726562
762;810.0643920898438;921.1862182617188;897.1790771484375;806.5288696289062;910.398681640625
763;809.7592163085938;920.8649291992188;896.873291015625;806.2372436523438;910.0718994140624
764;809.4542846679688;920.5439453125;896.567626953125;805.9456787109375;909.7451782226562
765;809.1495361328125;920.2229614257812;896.2620239257812;805.6542358398438;909.4188232421876
766;808.8449096679688;919.902099609375;895.9567260742188;805.3630981445312;909.0925903320312
767;808.5405883789062;919.5816040039062;895.6514892578125;805.072021484375;908.7665405273438
768;808.2365112304688;919.2610473632812;895.3461303710938;804.7811889648438;908.4406127929688
769;807.9326171875;918.9408569335938;895.0411376953125;804.4902954101562;908.1150512695312
770;807.6287841796875;918.6207885742188;894.736328125;804.19970703125;907.7897338867188
771;807.3251342773438;918.30078125;894.431396484375;803.9092407226562;907.4644775390624
772;807.0216064453125;917.9811401367188;894.126708984375;803.6188354492188;907.1394653320312
773;806.7183227539062;917.6614379882812;893.8220825195312;803.3284912109375;906.814697265625
774;806.4151611328125;917.341796875;893.5176391601562;803.038330078125;906.4901123046876
775;806.1123657226562;917.0223388671876;893.21337890625;802.748291015625;906.165771484375
776;805.8096923828125;916.703125;892.9093627929688;802.4584350585938;905.8414306640624
777;805.5071411132812;916.384033203125;892.605224609375;802.1688842773438;905.5173950195312
778;805.2047729492188;916.0653076171876;892.301513671875;801.8792724609375;905.1934814453124
779;804.9026489257812;915.7466430664062;891.9977416992188;801.58984375;904.8696899414062
780;804.6007080078125;915.4281616210938;891.6940307617188;801.3004150390625;904.5462036132812
781;804.2988891601562;915.1099243164062;891.3907470703125;801.0112915039062;904.2227783203124
782;803.9970703125;914.791748046875;891.0873413085938;800.7222290039062;903.8995971679688
783;803.6956176757812;914.4737548828124;890.7842407226562;800.4334106445312;903.5767211914062
784;803.3941650390625;914.1558227539062;890.4810791015625;800.144775390625;903.2538452148438
785;803.0928955078125;913.8381958007812;890.1781005859375;799.856201171875;902.9310913085938
786;802.7919311523438;913.520751953125;889.8753662109375;799.5678100585938;902.6088256835938
787;802.4909057617188;913.203369140625;889.5726928710938;799.2794799804688;902.2865600585938
788;802.1903076171875;912.8861694335938;889.2702026367188;798.9913330078125;901.9644775390624
789;801.8897705078125;912.5692138671876;888.9676513671875;798.7031860351562;901.642578125
790;801.5894165039062;912.2522583007812;888.665283203125;798.415283203125;901.3209838867188
791;801.2891845703125;911.935546875;888.3629760742188;798.1275634765625;900.9996337890624
792;800.9891967773438;911.6190185546876;888.0608520507812;797.8400268554688;900.6784057617188
793;800.6892700195312;911.3026123046876;887.7589721679688;797.552490234375;900.357177734375
794;800.3895874023438;910.986328125;887.45703125;797.2650146484375;900.0361328125
795;800.0901489257812;910.6702270507812;887.1552734375;796.977783203125;899.7155151367188
796;799.7908325195312;910.354248046875;886.853759765625;796.6905517578125;899.3948974609375
797;799.4916381835938;910.0384521484376;886.5523071289062;796.4035034179688;899.074462890625
798;799.1925659179688;909.722900390625;886.2510375976562;796.1165161132812;898.754150390625
799;798.8936767578125;909.4074096679688;885.949951171875;795.8297729492188;898.4341430664062
800;798.5950317382812;909.092041015625;885.64892578125;795.5430908203125;898.1143798828125
801;798.2964477539062;908.7769165039062;885.3480834960938;795.256591796875;897.794677734375
802;797.998046875;908.4617919921876;885.0474243164062;794.970458984375;897.4751586914062
803;797.7000732421875;908.1470336914062;884.746826171875;794.6842041015625;897.1557006835938
804;797.4019165039062;907.8320922851562;884.4461669921875;794.398193359375;896.8366088867188
805;797.1041870117188;907.5176391601562;884.1456909179688;794.1121826171875;896.5177001953125
806;796.806640625;907.203125;883.8453979492188;793.826416015625;896.1990356445312
807;796.5090942382812;906.888916015625;883.545166015625;793.540771484375;895.8804321289062
808;796.2117309570312;906.5747680664062;883.2449340820312;793.2553100585938;895.5619506835938
809;795.9144897460938;906.2607421875;882.945068359375;792.969970703125;895.2437744140625
810;795.6175537109375;905.9468994140624;882.6450805664062;792.6845703125;894.925537109375
811;795.3206787109375;905.633056640625;882.3453369140625;792.3992919921875;894.6076049804688
812;795.0240478515625;905.3194580078124;882.045654296875;792.1143188476562;894.2898559570312
813;794.7274780273438;905.0059814453124;881.746337890625;791.8294067382812;893.9722290039062
814;794.43115234375;904.692626953125;881.4469604492188;791.544677734375;893.6548461914062
815;794.1348266601562;904.37939453125;881.147705078125;791.2598876953125;893.3375854492188
816;793.8388671875;904.06640625;880.8485717773438;790.9754638671875;893.0206909179688
817;793.54296875;903.7534790039062;880.549560546875;790.6911010742188;892.7036743164062
818;793.2473754882812;903.4408569335938;880.2506103515625;790.4067993164062;892.386962890625
819;792.9518432617188;903.128173828125;879.9517211914062;790.1226196289062;892.0703125
820;792.6563720703125;902.81591796875;879.6531982421875;789.8385620117188;891.75390625
821;792.3610229492188;902.5036010742188;879.354736328125;789.5546264648438;891.4376220703125
822;792.0661010742188;902.1913452148438;879.0562744140625;789.2709350585938;891.1216430664062
823;791.7713012695312;901.8792724609376;878.7579345703125;788.9873657226562;890.8058471679688
824;791.4764404296875;901.5675048828124;878.459716796875;788.7039184570312;890.490234375
825;791.1817626953125;901.2559204101562;878.161865234375;788.4205932617188;890.1746215820312
826;790.8873901367188;900.9442138671876;877.8638305664062;788.137451171875;889.859375
827;790.5932006835938;900.6327514648438;877.566162109375;787.8543701171875;889.544189453125
828;790.2990112304688;900.321533203125;877.2684326171875;787.5714721679688;889.2291259765625
829;790.0050659179688;900.0103759765625;876.9708862304688;787.2885131835938;888.914306640625
830;789.7112426757812;899.6993408203125;876.6734619140625;787.0057983398438;888.599609375
831;789.4176635742188;899.388427734375;876.3761596679688;786.7232666015625;888.28515625
832;789.1240234375;899.0776977539062;876.0789794921875;786.4407958984375;887.9708862304688
833;788.8307495117188;898.7672729492188;875.7819213867188;786.1585083007812;887.6565551757812
834;788.5375366210938;898.4567260742188;875.4849853515625;785.876220703125;887.3425903320312
835;788.2445678710938;898.1466064453125;875.1881103515625;785.5940551757812;887.0286254882812
836;787.9515991210938;897.8366088867188;874.8914794921875;785.3119506835938;886.7149658203125
837;787.6588745117188;897.526611328125;874.5947875976562;785.030029296875;886.4013671875
838;787.3663940429688;897.216796875;874.2984008789062;784.7483520507812;886.0880737304688
839;787.0740966796875;896.9070434570312;874.0020141601562;784.4666748046875;885.7748413085938
840;786.7816772460938;896.5974731445312;873.705810546875;784.1852416992188;885.4617309570312
841;786.4895629882812;896.2879638671875;873.4097290039062;783.9037475585938;885.1488647460938
842;786.1976318359375;895.978759765625;873.1138305664062;783.6224365234375;884.836181640625
843;785.9058227539062;895.6695556640625;872.818115234375;783.3414306640625;884.523681640625
844;785.6140747070312;895.3606567382812;872.5223388671875;783.060302734375;884.2113037109375
845;785.3225708007812;895.0516967773438;872.226806640625;782.779296875;883.8991088867188
846;785.0311889648438;894.7429809570312;871.9312133789062;782.4985961914062;883.5869750976562
847;784.7398681640625;894.434326171875;871.6358032226562;782.218017578125;883.2750244140625
848;784.4487915039062;894.1258544921875;871.340576171875;781.9375;882.9632568359375
849;784.1578979492188;893.817626953125;871.0454711914062;781.6570434570312;882.651611328125
850;783.8670654296875;893.509521484375;870.75048828125;781.376708984375;882.340087890625
851;783.5763549804688;893.2015991210938;870.4556274414062;781.0964965820312;882.0286865234375
852;783.2858276367188;892.893798828125;870.160888671875;780.81640625;881.717529296875
853;782.9954833984375;892.5859985351562;869.8660888671875;780.536376953125;881.406494140625
854;782.7052001953125;892.2782592773438;869.5716552734375;780.256591796875;881.095703125
855;782.4150390625;891.9708251953125;869.2771606445312;779.9768676757812;880.7850952148438
856;782.1253051757812;891.6635131835938;868.9828491210938;779.697265625;880.474609375
857;781.8353881835938;891.3563842773438;868.688720703125;779.4177856445312;880.164306640625
858;781.5457763671875;891.0491943359375;868.39453125;779.1385498046875;879.854248046875
859;781.2562866210938;890.742431640625;868.1005859375;778.8593139648438;879.5441284179688
860;780.9669189453125;890.4357299804688;867.8067016601562;778.580078125;879.2341918945312
861;780.677734375;890.1290283203125;867.512939453125;778.3010864257812;878.9243774414062
862;780.3887329101562;889.822509765625;867.21923828125;778.022216796875;878.6148681640625
863;780.1000366210938;889.5160522460938;866.9257202148438;777.743408203125;878.3053588867188
864;779.8112182617188;889.209716796875;866.6322631835938;777.46484375;877.99609375
865;779.5226440429688;888.90380859375;866.3389892578125;777.1864013671875;877.6871337890625
866;779.2342529296875;888.5977172851562;866.0458984375;776.9080200195312;877.3779907226562
867;778.9459838867188;888.2919311523438;865.7529907226562;776.6296997070312;877.0692749023438
868;778.6577758789062;887.9862670898438;865.4599609375;776.351806640625;876.7606201171875
869;778.3699340820312;887.6808471679688;865.1671752929688;776.07373046875;876.4520874023438
870;778.0821533203125;887.375244140625;864.8744506835938;775.7957763671875;876.1437377929688
871;777.79443359375;887.0699462890625;864.5819091796875;775.5181274414062;875.8356323242188
872;777.5068969726562;886.7647705078125;864.289306640625;775.2405395507812;875.5276489257812
873;777.2195434570312;886.459716796875;863.9968872070312;774.963134765625;875.2197265625
874;776.9321899414062;886.15478515625;863.7047729492188;774.685791015625;874.9119873046875
875;776.6450805664062;885.8501586914062;863.4126586914062;774.408447265625;874.6044311523438
876;776.3579711914062;885.5454711914062;863.1205444335938;774.13134765625;874.297119140625
877;776.0712890625;885.240966796875;862.8286743164062;773.854248046875;873.9896850585938
878;775.7846069335938;884.9365234375;862.5368041992188;773.5773315429688;873.6826782226562
879;775.498046875;884.6321411132812;862.2450561523438;773.3004760742188;873.3756713867188
880;775.2117919921875;884.3280029296875;861.9535522460938;773.0237426757812;873.0686645507812
881;774.9254150390625;884.0240478515625;861.6620483398438;772.7471313476562;872.761962890625
882;774.6392822265625;883.7202758789062;861.3707885742188;772.4705810546875;872.4554443359375
883;774.3532104492188;883.4165649414062;861.0794067382812;772.1942138671875;872.1491088867188
884;774.0675048828125;883.113037109375;860.7882690429688;771.91796875;871.8428344726562
885;773.7818603515625;882.8097534179688;860.4972534179688;771.6417846679688;871.5367431640625
886;773.4962158203125;882.5064697265625;860.206298828125;771.3656616210938;871.230712890625
887;773.2108154296875;882.203369140625;859.9156494140625;771.0897216796875;870.9248657226562
888;772.9253540039062;881.9002685546875;859.6248779296875;770.8139038085938;870.619140625
889;772.6403198242188;881.5973510742188;859.3343505859375;770.5382080078125;870.3135375976562
890;772.3554077148438;881.2945556640625;859.0439453125;770.2625732421875;870.0081176757812
891;772.0704956054688;880.9917602539062;858.753662109375;769.9872436523438;869.702880859375
892;771.7857666015625;880.689208984375;858.4631958007812;769.7119140625;869.3977661132812
893;771.5010375976562;880.38671875;858.1731567382812;769.4367065429688;869.0928344726562
894;771.2164916992188;880.0843505859375;857.8832397460938;769.1616821289062;868.7879638671875
895;770.93212890625;879.7821044921875;857.5933227539062;768.8865966796875;868.4833374023438
896;770.6478881835938;879.4801025390625;857.303466796875;768.61181640625;868.1787719726562
897;770.36376953125;879.1781616210938;857.013916015625;768.3370971679688;867.874267578125
898;770.0798950195312;878.87646484375;856.7243041992188;768.0624389648438;867.570068359375
899;769.7960815429688;878.5748901367188;856.4348754882812;767.7879028320312;867.2659912109375
900;769.5123901367188;878.2734375;856.1455078125;767.5134887695312;866.9619750976562
901;769.2288208007812;877.9721069335938;855.856201171875;767.2391357421875;866.6581420898438
902;768.9454345703125;877.6708374023438;855.5669555664062;766.9649047851562;866.3544311523438
903;768.6621704101562;877.3696899414062;855.27783203125;766.6907958984375;866.0508422851562
904;768.3790283203125;877.0687255859375;854.9889526367188;766.4168701171875;865.7474365234375
905;768.0960083007812;876.767822265625;854.7001342773438;766.14306640625;865.4441528320312
906;767.8131713867188;876.4671020507812;854.411376953125;765.8692016601562;865.1411743164062
907;767.5303955078125;876.1664428710938;854.122802734375;765.5955200195312;864.8380126953125
908;767.2477416992188;875.8657836914062;853.834228515625;765.3219604492188;864.5352172851562
909;766.96533203125;875.5654907226562;853.5457763671875;765.0485229492188;864.2325439453125
910;766.6829833984375;875.2653198242188;853.257568359375;764.775146484375;863.9299926757812
911;766.4008178710938;874.9651489257812;852.9694213867188;764.5018920898438;863.6276245117188
912;766.11865234375;874.6651611328125;852.6813354492188;764.2289428710938;863.3252563476562
913;765.8367919921875;874.3653564453125;852.393310546875;763.955810546875;863.0230712890625
914;765.5551147460938;874.0656127929688;852.1052856445312;763.682861328125;862.7210693359375
915;765.2733764648438;873.765869140625;851.817626953125;763.41015625;862.4192504882812
916;764.9918212890625;873.4664916992188;851.5298461914062;763.137451171875;862.117431640625
917;764.7103881835938;873.1671752929688;851.2421264648438;762.8648681640625;861.8157348632812
918;764.4291381835938;872.86767578125;850.9546508789062;762.5924072265625;861.5143432617188
919;764.14794921875;872.5685424804688;850.667236328125;762.3200073242188;861.2130737304688
920;763.8670043945312;872.26953125;850.3798217773438;762.0477294921875;860.911865234375
921;763.5860595703125;871.9705200195312;850.0927124023438;761.775634765625;860.6107788085938
922;763.3053588867188;871.6716918945312;849.8055419921875;761.503662109375;860.3098754882812
923;763.0247802734375;871.3731689453125;849.5186767578125;761.2317504882812;860.0090942382812
924;762.7442016601562;871.0746459960938;849.2317504882812;760.9599609375;859.7084350585938
925;762.4638671875;870.776123046875;848.9449462890625;760.688232421875;859.4080200195312
926;762.18359375;870.4778442382812;848.6582641601562;760.416748046875;859.107666015625
927;761.9036254882812;870.1798095703125;848.3716430664062;760.1452026367188;858.8074951171875
928;761.62353515625;869.8816528320312;848.0850219726562;759.873779296875;858.5074462890625
929;761.34375;869.583740234375;847.7987670898438;759.6026000976562;858.2073974609375
930;761.0640258789062;869.2859497070312;847.512451171875;759.331298828125;857.9076538085938
931;760.7843017578125;868.9882202148438;847.2262573242188;759.060302734375;857.6079711914062
932;760.5048828125;868.690673828125;846.940185546875;758.789306640625;857.308349609375
933;760.2254638671875;868.3932495117188;846.6542358398438;758.5184936523438;857.0089721679688
934;759.9462280273438;868.095947265625;846.368408203125;758.2476806640625;856.7096557617188
935;759.6671142578125;867.798828125;846.0825805664062;757.9769897460938;856.4104614257812
936;759.38818359375;867.5016479492188;845.7970581054688;757.7064819335938;856.1115112304688
937;759.109375;867.2047729492188;845.5115966796875;757.4360961914062;855.812744140625
938;758.8306274414062;866.9078979492188;845.2260131835938;757.1659545898438;855.5140991210938
939;758.5520629882812;866.611083984375;844.940673828125;756.895751953125;855.2156372070312
940;758.2734985351562;866.314453125;844.6553344726562;756.6256103515625;854.9172973632812
941;757.9951171875;866.0179443359375;844.3702392578125;756.3555908203125;854.6190795898438
942;757.7168579101562;865.7215576171875;844.085205078125;756.0856323242188;854.3209838867188
943;757.4387817382812;865.42529296875;843.8002319335938;755.8157958984375;854.0230712890625
944;757.1607055664062;865.129150390625;843.515380859375;755.5460205078125;853.7252197265625
945;756.8827514648438;864.833251953125;843.230712890625;755.2764282226562;853.4274291992188
946;756.60498046875;864.537353515625;842.946044921875;755.0068969726562;853.1298217773438
947;756.3274536132812;864.2416381835938;842.6616821289062;754.737548828125;852.832275390625
948;756.0499267578125;863.9459838867188;842.3772583007812;754.4684448242188;852.5349731445312
949;755.7725830078125;863.6504516601562;842.093017578125;754.19921875;852.2376708984375
950;755.4954223632812;863.35498046875;841.808837890625;753.9302368164062;851.9406127929688
951;755.21826171875;863.0597534179688;841.5247192382812;753.6612548828125;851.6436767578125
952;754.9412841796875;862.7645874023438;841.2406616210938;753.3924560546875;851.3468017578125
953;754.6644287109375;862.469482421875;840.9569091796875;753.1237182617188;851.0502319335938
954;754.3877563476562;862.174560546875;840.6731567382812;752.85498046875;850.7536010742188
955;754.1112060546875;861.8797607421875;840.389404296875;752.58642578125;850.45703125
956;753.8346557617188;861.5851440429688;840.1058959960938;752.318115234375;850.160888671875
957;753.5582885742188;861.2904052734375;839.8223876953125;752.0496215820312;849.8646850585938
958;753.2821044921875;860.9959716796875;839.5390625;751.781494140625;849.5687255859375
959;753.0059204101562;860.7015991210938;839.2557983398438;751.5133666992188;849.2728881835938
960;752.7299194335938;860.4073486328125;838.9725341796875;751.2454223632812;848.9772338867188
961;752.4541015625;860.1130981445312;838.6893920898438;750.9775390625;848.6815185546875
962;752.1782836914062;859.8190307617188;838.4063720703125;750.709716796875;848.385986328125
963;751.9027099609375;859.525146484375;838.1234741210938;750.44189453125;848.0906372070312
964;751.6273193359375;859.2313232421875;837.8406372070312;750.1742553710938;847.7953491210938
965;751.3518676757812;858.9376220703125;837.5579833984375;749.9066772460938;847.5001220703125
966;751.0765991210938;858.6441650390625;837.2753295898438;749.6392822265625;847.2052001953125
967;750.8013305664062;858.3506469726562;836.9927978515625;749.3720703125;846.9102172851562
968;750.5263061523438;858.057373046875;836.7102661132812;749.1047973632812;846.615478515625
969;750.2514038085938;857.7642211914062;836.427978515625;748.8375854492188;846.3209838867188
970;749.9765625;857.4710693359375;836.145751953125;748.570556640625;846.0265502929688
971;749.7017211914062;857.1781616210938;835.8635864257812;748.3037109375;845.7322998046875
972;749.4271850585938;856.88525390625;835.5816650390625;748.036865234375;845.4381103515625
973;749.1527709960938;856.592529296875;835.2996826171875;747.770263671875;845.1439819335938
974;748.8783569335938;856.2999267578125;835.017822265625;747.503662109375;844.8501586914062
975;748.6041259765625;856.0074462890625;834.736083984375;747.2371826171875;844.556396484375
976;748.3302001953125;855.715087890625;834.454345703125;746.970703125;844.2626342773438
977;748.05615234375;855.422607421875;834.1727294921875;746.704345703125;843.968994140625
978;747.7822265625;855.1305541992188;833.8912963867188;746.4381713867188;843.675537109375
979;747.5084838867188;854.83837890625;833.6099243164062;746.1719970703125;843.3821411132812
980;747.2349243164062;854.54638671875;833.3287353515625;745.906005859375;843.0889282226562
981;746.9614868164062;854.2545776367188;833.047607421875;745.64013671875;842.7958374023438
982;746.6881103515625;853.9627685546875;832.7666015625;745.3743286132812;842.5028686523438
983;746.4148559570312;853.671142578125;832.4856567382812;745.108642578125;842.2100830078125
984;746.1416015625;853.3795166015625;832.2047729492188;744.8430786132812;841.9172973632812
985;745.8685302734375;853.0880737304688;831.9240112304688;744.5775756835938;841.624755859375
986;745.5955810546875;852.7967529296875;831.643310546875;744.3121948242188;841.3321533203125
987;745.32275390625;852.505615234375;831.3626708984375;744.046875;841.0399780273438
988;745.0501098632812;852.2145385742188;831.0821533203125;743.7816162109375;840.7479248046875
989;744.7774658203125;851.923583984375;830.8017578125;743.5165405273438;840.4558715820312
990;744.5049438476562;851.6328125;830.521484375;743.25146484375;840.1639404296875
991;744.2326049804688;851.342041015625;830.2412719726562;742.986572265625;839.8721923828125
992;743.9603271484375;851.0513916015625;829.961181640625;742.7217407226562;839.5806274414062
993;743.6881713867188;850.7608642578125;829.68115234375;742.4569091796875;839.2889404296875
994;743.4161987304688;850.4705200195312;829.4011840820312;742.1922607421875;838.9974975585938
995;743.1444091796875;850.1802368164062;829.1213989257812;741.9277954101562;838.7061767578125
996;742.8726196289062;849.8899536132812;828.8417358398438;741.6633911132812;838.4151000976562
997;742.6008911132812;849.5999755859375;828.56201171875;741.3990478515625;838.1240234375
998;742.3292846679688;849.3099975585938;828.2825317382812;741.1348876953125;837.8331909179688
999;742.0579223632812;849.0202026367188;828.003173828125;740.8707885742188;837.5422973632812
