;2000;2001;2002;2003;2004;2005
1;Spring wheat;Clover;Winter wheat;Winter field beans;Winter wheat;Sun flowers
2;Sun flowers;Winter wheat;Clover;Winter wheat;Winter field beans;Winter wheat
3;Autumn rye;Sun flowers;Winter wheat;Clover;Winter wheat;Winter field beans
4;Spring field beans;Autumn rye;Sun flowers;Winter wheat;Clover;Winter wheat
5;Winter wheat;Spring field beans;Autumn rye;Sun flowers;Winter wheat;Clover
6;Clover;Winter wheat;Winter field beans;Winter wheat;Sun flowers;Winter wheat
