;2006;2007;2008;2009;2010;2011;2012;2013;2014;2015;2016;2017
1;28.9;-;31;39.9;31.5;38.7;31.6;100;64;34.1;-;-
2;55.3;33.5;116;102;39;28.8;60.6;24.9;54;67;-;26
3;29.8;42;46.4;107;114;39.5;30;41.9;29.2;70;62;34.8
4;47.8;33.8;52.2;44.3;120;72;41.6;26.8;31.2;33;80;18
5;-;36.1;38.2;44.1;38.2;99;80;-;19.3;40;25.3;73
6;-;122;40.8;27;52.4;42.9;80;80;31.4;28.9;38;35.2
