;radiation;air_temperature;humidity
10;89.85049019607843;11.360784313725492;74.46127450980393
11;43.27361111111111;7.753055555555557;86.89486111111111
12;20.811827956989248;5.648118279569892;85.01908602150539
01;41.04435483870968;1.6293010752688175;78.57137096774194
02;77.45535714285714;0.34776785714285713;73.09776785714286
03;164.7486559139785;8.15510752688172;62.142607526881726
04;202.41805555555555;10.921944444444444;60.08166666666667
05;224.40725806451613;15.9252688172043;65.32943548387097
06;289.1388888888889;24.06736111111111;56.50138888888889
07;258.46505376344084;22.47043010752688;55.196908602150536
08;264.1424332344214;26.940652818991097;44.338872403560835
