;radiation;air_temperature;humidity
10;-0.062493455088698524;-0.21089564680230377;-0.0249417419685789
11;-0.1437020363610264;-0.8911619654441594;-0.4099993969264564
12;-0.3928772150621826;-0.5589157161083707;0.2632396034394841
01;0.24807399472564218;-0.3882852970749644;-0.1488241816292425
02;0.25919142295807335;-0.29745027096731225;-0.42059378494556204
03;0.5849777215679789;0.4971807722060543;-0.23003108620716098
04;0.12890521046993658;0.21707779825913354;-0.22015384587447598
05;0.5425935622090817;0.3347846252039176;-0.16151316727889284
06;0.5741052085484947;0.3813172725942824;-0.37313967328070313
07;-0.4390922147979842;-0.16984955070689223;0.06244036228998251
08;-0.41713725576111454;-0.4415202557765303;0.032843085009262585
