;;value
radiation;radiation;1.0
radiation;air_temperature;0.5729977847831469
radiation;humidity;-0.5054101137837851
air_temperature;radiation;0.5729977847831469
air_temperature;air_temperature;1.0
air_temperature;humidity;0.04275377277429005
humidity;radiation;-0.5054101137837851
humidity;air_temperature;0.04275377277429005
humidity;humidity;1.0
