;expectations;predictions
0;36.88;11.883507
1;27.64;11.908545
2;49.16;11.866833999999999
3;31.08;11.887746
4;42.8;10.791914
5;39.19;10.7906275
6;40.7;10.791364
7;36.1;10.792475
8;40.8;9.9597645
9;39.9;9.959404
10;38.2;9.963412
11;39.5;9.958041
12;37.3;9.974985
13;24.9;9.972916
14;29.2;9.987761
15;31.6;9.831427
16;25.35;9.828985000000001
17;34.8;9.829544
