;expectations;predictions
0;36.88;5.4251437000000005
1;27.64;5.4673047
2;49.16;5.401122
3;31.08;5.4443173
4;42.8;5.2112703
5;39.19;5.210454
6;40.7;5.2160172
7;36.1;5.2156720000000005
8;40.8;6.174507599999999
9;39.9;6.0503163
10;38.2;6.062919
11;39.5;6.0710120000000005
12;37.3;5.132587
13;24.9;5.151398
14;29.2;5.1267586
15;31.6;5.430226
16;25.35;5.435338
17;34.8;5.543762
