;expectations;predictions
0;36.88;8.030834
1;27.64;8.023662
2;49.16;8.034873
3;31.08;8.0261
4;42.8;8.696675
5;39.19;8.688441000000001
6;40.7;8.687109
7;36.1;8.694791
8;40.8;7.8808026
9;39.9;7.871863
10;38.2;7.887245699999999
11;39.5;7.8737307
12;37.3;7.7867427
13;24.9;7.787438000000001
14;29.2;7.80947
15;31.6;7.434375999999999
16;25.35;7.4198895
17;34.8;7.4236803
