;expectations;predictions
0;36.88;36.140514
1;27.64;36.135
2;49.16;36.113820000000004
3;31.08;33.499973
4;42.8;32.35205
5;39.19;32.59427
6;40.7;34.034756
7;36.1;30.57978
8;40.8;38.983757000000004
9;39.9;39.05535
10;38.2;39.034909999999996
11;39.5;39.019344
12;37.3;33.04616
13;24.9;29.290539000000003
14;29.2;-10.992539
15;31.6;39.75298
16;25.35;39.740868
17;34.8;39.73819
