;expectations;predictions
0;36.88;34.814476
1;27.64;34.82351
2;49.16;34.808994
3;31.08;34.82055
4;42.8;34.649307
5;39.19;34.64873
6;40.7;34.64887
7;36.1;34.649483000000004
8;40.8;34.820564000000005
9;39.9;34.819992
10;38.2;34.820045
11;39.5;34.819786
12;37.3;34.939182
13;24.9;34.938175
14;29.2;34.939144
15;31.6;36.039516
16;25.35;36.038307
17;34.8;36.039078
