;expectations;predictions
0;36.88;38.152184000000005
1;27.64;39.208687
2;49.16;35.501537
3;31.08;28.394270000000002
4;42.8;20.209318
5;39.19;40.468967
6;40.7;40.46913
7;36.1;21.200552
8;40.8;41.734463
9;39.9;41.731018
10;38.2;41.74905
11;39.5;41.744690000000006
12;37.3;28.612984
13;24.9;21.62119
14;29.2;24.628273
15;31.6;29.110315000000003
16;25.35;40.656532
17;34.8;39.64839
