;expectations;predictions
0;36.88;2.7981403
1;27.64;3.0082188
2;49.16;3.3953772000000004
3;31.08;2.9087129000000003
4;42.8;2.7065923
5;39.19;2.686538
6;40.7;2.7112925
7;36.1;2.7511334
8;40.8;2.68591
9;39.9;2.4205017000000004
10;38.2;2.2605171000000004
11;39.5;2.625602
12;37.3;3.6056489999999997
13;24.9;3.7900176
14;29.2;3.7113737999999996
15;31.6;2.111402
16;25.35;2.1230697999999997
17;34.8;2.13615
