;radiation;air_temperature;precipitation;humidity
42;-0.2162661737523106;0.05477999646580667;-0.01104681746449232;0.02387764233705325
43;0.14691312384473193;-0.005360193202568274;-0.433982114676486;-0.23125110167997603
44;-0.3754158964879853;0.0015903869941685939;0.24776433456075758;0.03570121083103928
45;-0.36377079482439933;-0.36007539612416806;-0.2635455023671751;0.32922943417716366
46;-0.18166358595194093;-0.2273664369441009;-0.021567596002104103;-0.730498569510921
47;-0.2125693160813309;-0.3990693290923014;0.004734350341925354;-0.04557226342693703
48;-0.42573012939001864;0.31501443128939155;0.416096791162546;0.6698621035646978
49;-0.17330868761552684;0.10649702538728867;-0.4182009468700682;-0.2478203685373756
50;-0.2285397412199631;-0.1665194086116511;0.027880063124671284;-0.20611245949207482
51;-0.299112754158965;-0.058962125228250034;-0.08364018937401363;0.4706512454068427
01;-0.12691312384473202;0.20097779348530367;0.04892162019989484;-0.27195563449987137
02;-0.17781885397412206;-0.2634152088119221;-0.0699631772751183;0.431546690892327
03;-0.14791127541589655;0.5622901572716028;0.14571278274592325;-0.09194451600656221
04;-0.22695009242144185;-0.24044295222948703;-0.17096265123619142;-0.43425851852856245
05;-0.23907578558225515;-0.05831418978618133;-0.006838506049447606;0.44158045314639843
06;0.028983364140480555;0.18860811686399248;-0.009994739610731142;-0.35127659285975743
07;-0.42066543438077647;0.4951404841844851;0.7054182009468701;0.2777047090886903
08;-0.06920517560073944;-0.09082876833362794;-0.7096265123619148;-0.14097435966969896
09;-0.13870609981515716;-0.08988631678152798;0.3298264071541295;-0.18878388089653003
10;-0.18931608133086886;0.17623844024268123;-0.041557075223566484;0.16120459383601618
11;0.12207024029574848;-0.12634741120339282;-0.3445554971067859;-0.33424631530419874
12;-0.3999260628465804;0.9135889733168406;0.2635455023671752;0.5254844002115223
13;-0.32140480591497234;0.14849502267774065;0.2498684902682799;-0.15898089517430247
14;0.22975970425138625;-0.22936914649231332;0.0668069437138349;-0.2778945370232273
15;-0.5085027726432532;0.1144489603581314;-0.14992109416096785;0.29967051294219826
16;0.5373012939001847;0.5343700300406435;-0.4855339295107837;-0.5728871472929182
17;-0.44595194085027734;-0.046297932496907696;0.07837980010520784;0.37893723474935975
18;-0.2873937153419593;0.32891559168286494;0.10994213571804315;-0.00565416062155084
19;-0.35308687615526824;-0.20845850268009636;0.1067859021567597;0.5115184878849097
20;-0.16606284658040665;0.4976733227307531;0.07101525512887964;-0.40467247901723313
21;0.12706099815157107;-0.0020027095482118423;-0.35718043135192007;-0.28621984786646903
22;-0.03855822550831797;-0.3813394592684224;-0.041557075223566484;-0.07209393770931956
23;0.12595194085027722;0.5350179654827119;-0.0415570752235665;-0.32480915513009917
24;-0.5185212569316083;0.6167756376273783;0.12887953708574443;0.18165177421323134
25;-0.46539741219963027;0.08175767214466678;0.14360862703840085;0.43097720708871706
26;0.1696487985212567;0.03328032043352767;-0.22987901104681738;0.013518460766634412
27;-0.6716081330868762;-0.016433998939742497;0.3771699105733825;0.27312172038345245
28;0.06506469500924217;0.28014372386169556;-0.4739610731194108;-0.22260037152038625
29;-0.058743068391866965;0.23078282382046264;-0.012098895318253498;-0.42170275657279155
30;-0.5568207024029577;-0.05242386758555649;0.006838506049447711;0.31195509213434375
31;-0.7597412199630316;-0.5458561583318611;0.4718569174118886;0.4411194424482383
32;-0.021774491682070213;-0.10107792896271423;-0.2109416096791163;-0.041884177841656114
