;radiation;air_temperature;precipitation;humidity
42;-0.2162661737523106;0.05477999646580667;-0.01104681746449232;0.02387764233705325
43;-0.4658410351201479;0.07168522118159854;0.09836927932667024;0.5441688926251852
44;-0.11434380776340118;-0.008540967190905385;-0.10678590215675955;0.06539572344781837
45;-0.19889094269870616;0.04588560994286392;-0.023671751709626467;-0.2851351168119761
46;-0.2784473197781886;0.05731283501207521;0.2730142030510258;-0.27634879527057227
47;-0.34480591497227364;-0.5749543500029454;-0.21304576538663852;0.07008718525850605
48;-0.26110905730129397;0.2425045649997056;-0.08153603366649126;0.5231793467207222
49;-0.1818484288354899;-0.0664428344230431;0.00999473961073125;-9.491396726815648e-05
50;-0.3032532347504622;0.17453024680450024;0.012098895318253606;0.30105354503667764
51;-0.10872458410351209;0.19125876185427332;-0.04050499736980532;-0.3627476237610341
01;-0.38484288354898344;0.09483418743005254;0.8737506575486587;0.018264159130046
02;-0.07744916820702408;-0.2769040466513519;-0.7548658600736455;-0.42460441214356365
03;-0.11478743068391874;-0.05307180302762565;-0.11520252498684896;0.30428061992379807
04;-0.16687615526802224;0.5313070624963186;0.26249342451341395;-0.0294640072676979
05;-0.23763401109057308;0.0018259998821934798;-0.1551814834297737;0.08250735583246295
06;-0.3706839186691313;-0.05554573835188786;0.32351394003156236;-0.13018128567748163
07;0.01719038817005536;0.039347352300170814;-0.5381378221988427;-0.48114601835907267
08;-0.24565619223659899;0.10567238027920126;0.12677538137822206;0.4390855717210612
09;-0.22524953789279117;-0.07074276962949883;0.21199368753287753;0.03456224322382079
10;0.3270609981515712;0.01484361194557346;-0.3698053655970542;-0.3703136228661303
11;-0.1135304990757857;0.2157035989868646;-0.0005260389268805371;-0.007769386177814135
12;-0.18225508317929764;0.29545856158331874;-0.008942661756969965;-0.12247969519057306
13;-0.6551571164510168;0.4584437768745949;-0.012098895318253498;0.2787080853140971
14;-0.06354898336414058;-0.17900689167697467;0.20568122041031045;0.18249244078046406
15;-0.0968946395563771;0.3589562349060493;0.167806417674908;-0.22417323154940225
16;0.03822550831792976;-0.13247334629204213;-0.16780641767490792;0.13292023159008037
17;-0.15024029574861375;-0.251104435412617;-0.1520252498684902;-0.3527952163360495
18;0.3283179297597043;0.6030511868999233;-0.1194108364018937;-0.08649374245772964
19;-0.9251016635859522;0.15945102197090183;0.37611783271962135;0.7520033626662698
20;0.34975970425138625;-0.03852270719208328;-0.2582851130983692;-0.43534324958305703
21;-0.5259519408502773;0.22636508216999449;0.015255128879537169;0.4812273731881611
22;-0.4590388170055453;0.10614360605525139;0.021567596002104193;0.19358381581266618
23;0.24602587800369674;0.274489014549096;0.25723303524460817;-0.19548209515803122
24;-0.5729390018484288;-0.1607468928550394;0.1036296685954762;0.09267670946834614
25;0.2897597042513863;0.5567532544030159;-0.38979484481851656;-0.3409987661184251
26;-0.057190388170055506;0.0619661895505686;-0.06575486586007362;-0.23317649930170398
27;-0.013641404805915025;0.22724863050008845;-0.16359810625986318;-0.05734159536819816
28;-0.7491682070240298;-0.3831065559286094;0.38137822198842725;0.2717658065653344
29;-0.04192236598890958;0.5218825469753192;-0.3266701735928459;0.11469674987457859
30;-0.311238447319778;0.008599870412911728;-0.04366123093108885;-0.07464305568738003
31;-0.20979667282809641;-0.1627496024032512;0.07522356654392433;-0.13511681197543082
32;-0.14480591497227346;-0.020439418036166793;-0.11415044713308782;0.02067768572629506
