;radiation;air_temperature;precipitation;humidity
42;-0.2162661737523106;0.05477999646580667;-0.01104681746449232;0.02387764233705325
43;-0.3689094269870611;-0.30511868999234254;0.4266175697001578;0.19534650377622012
44;-0.136007393715342;0.3228485598162219;-0.5865334034718568;-0.04050114574717609
45;-0.19242144177449175;-0.14666902279554694;0.13413992635455027;-0.38916082493796683
46;-0.2723105360443624;-0.19379160040054197;-0.016307206733298194;0.20095998698322737
47;-0.134195933456562;-0.2594686929375037;-0.08574434508153597;-0.1685536467302128
48;-0.38750462107208883;0.21505566354479594;0.368753287743293;0.21996989871323763
49;-0.22003696857670985;-0.27709169044840176;-0.26144134665965274;0.27276301216498333
50;-0.18798521256931613;0.20676124337294663;-0.23093108890057862;0.048371616518017524
51;-0.267467652495379;0.06980031807739887;-0.01104681746449232;-0.44391262491356
01;-0.28513863216266183;-0.42763739176532967;-0.01104681746449232;0.27263359140893073
02;-0.10462107208872466;0.26683159568828413;0.057338243029984276;0.2787352035904597
03;-0.17977818853974128;0.41202803793367504;0.5644397685428724;-0.13245922089191994
04;-0.25316081330868767;-0.1932025681804795;-0.6138874276696477;-0.21297338341175034
05;-0.14354898336414051;0.2695411439005714;0.332982640715413;0.3071822754945699
06;0.10465804066543433;-0.10891205748954469;-0.3182535507627564;-0.6770213285243587
07;-0.24828096118299448;0.010602579961123855;-0.013150973172014682;0.36418489240823804
08;-0.047726432532347596;0.4469576485833776;-0.08048395581273009;-0.1208254803324689
09;-0.4099815157116452;0.08853154267538424;0.20042083114150455;0.21191577063361902
10;0.12850277264325327;0.2260705660599636;-0.08995265649658074;-0.3719678377242344
11;0.19541589648798513;0.07245096306767981;-0.14992109416096785;-0.7348917302816232
12;-0.7548613678373384;0.14160334570300986;0.15307732772225152;0.5805073829507397
13;0.13966728280961188;0.270895918006715;-0.17517096265123616;0.24245094981762988
14;-0.08491682070240306;0.45767803498851406;-0.008942661756969963;-0.3301785738498455
15;-0.2665804066543439;-0.07168522118159881;0.0941609679116255;0.2469254654174183
16;0.042957486136783685;0.15803734464275215;-0.11204629142556542;-0.21731230762972673
17;-0.3902772643253235;-0.1692289568239383;0.24776433456075758;0.5527925045084128
18;-0.12085027726432537;0.4275784885433235;-0.26144134665965274;-0.39851663028297896
19;-0.5263216266173754;0.16528244094951966;0.15833771699105742;0.4909357161258838
20;0.41349353049907567;0.4648053248512696;-0.17832719621251966;-0.6007376171170565
21;-0.16517560073937157;-0.17765211757083127;0.058390320883745434;-0.1914414719800406
22;-0.34547134935305013;-0.005890322200624312;0.4592319831667545;0.2611625605076547
23;-0.040887245841035175;0.09865578103498052;-0.3454654022776064;0.2745140345725261
24;-0.4360443622920518;0.1952712967761757;-0.059584571420447215;0.1373854650952755
25;-0.028687615526802213;-0.08764799434529097;-0.14676486059968433;0.1208254803324702
26;-0.3647319778188542;0.4413618424927847;-0.015255128879537037;0.12044582446339694
27;-0.2840295748613677;-0.2709548212287214;0.16780641767490798;-0.4248755949071871
28;-0.3650277264325325;0.3182541084997351;0.38979484481851673;0.29354178248430535
29;-0.046210720887245926;0.043117158508570314;-0.6075749605470805;-0.3106534148689506
30;-0.12207024029574856;0.05207044825351951;0.033140452393477175;0.1261135442231294
31;-0.3322735674676527;-0.02868586911704045;0.1635981062598633;0.2619761087985245
32;-0.15956768152029446;0.14934936279857483;-0.23356563096412933;0.1365164288009096
