;fold_0;fold_1;fold_2;fold_3;fold_4
0;1316.2281494140625;1320.0050048828125;1321.01025390625;1318.8350830078125;1403.2667236328125
1;1315.1834716796875;1319.5006103515625;1320.39111328125;1318.303955078125;1402.3580322265625
2;1314.150634765625;1318.9180908203125;1319.5556640625;1317.58740234375;1401.454345703125
3;1313.2213134765625;1318.2999267578125;1318.7919921875;1316.868408203125;1400.55517578125
4;1312.2108154296875;1317.619384765625;1317.9481201171875;1316.14599609375;1399.6602783203125
5;1311.2545166015625;1316.9666748046875;1317.135986328125;1315.45166015625;1398.7689208984375
6;1310.2960205078125;1316.30419921875;1316.3077392578125;1314.74462890625;1397.8804931640625
7;1309.339111328125;1315.634033203125;1315.44775390625;1314.02734375;1397.0128173828125
8;1308.3720703125;1314.95751953125;1314.5931396484375;1313.2911376953125;1396.1402587890625
9;1307.4149169921875;1314.275146484375;1313.7188720703125;1312.556884765625;1395.2554931640625
10;1306.4715576171875;1313.584716796875;1312.8406982421875;1311.811767578125;1394.374755859375
11;1305.533447265625;1312.8914794921875;1311.9498291015625;1311.062744140625;1393.4893798828125
12;1304.6021728515625;1312.1951904296875;1311.0484619140625;1310.30615234375;1392.5992431640625
13;1303.6778564453125;1311.4927978515625;1310.1351318359375;1309.5421142578125;1391.703857421875
14;1302.759765625;1310.7882080078125;1309.2091064453125;1308.77392578125;1390.802490234375
15;1301.8470458984375;1310.073974609375;1308.27001953125;1307.998779296875;1389.9000244140625
16;1300.9322509765625;1309.35302734375;1307.31689453125;1307.2099609375;1388.991455078125
17;1300.0279541015625;1308.62451171875;1306.3486328125;1306.4188232421875;1388.06689453125
18;1299.126708984375;1307.8946533203125;1305.37353515625;1305.61865234375;1387.1417236328125
19;1298.21875;1307.15625;1304.3822021484375;1304.8087158203125;1386.2064208984375
20;1297.311767578125;1306.4088134765625;1303.3626708984375;1303.979736328125;1385.2596435546875
21;1296.4053955078125;1305.6429443359375;1302.3231201171875;1303.148193359375;1384.30029296875
22;1295.4986572265625;1304.86572265625;1301.2740478515625;1302.3046875;1383.315673828125
23;1294.6011962890625;1304.0853271484375;1300.2027587890625;1301.4388427734375;1382.3258056640625
24;1293.7022705078125;1303.2828369140625;1299.0948486328125;1300.55908203125;1381.3179931640625
25;1292.8013916015625;1302.46630859375;1297.960693359375;1299.6748046875;1380.2784423828125
26;1291.88671875;1301.6446533203125;1296.7989501953125;1298.775146484375;1379.2164306640625
27;1290.9686279296875;1300.7969970703125;1295.621337890625;1297.84814453125;1378.130126953125
28;1290.046142578125;1299.9322509765625;1294.4132080078125;1296.90380859375;1377.0299072265625
29;1289.1295166015625;1299.0595703125;1293.1573486328125;1295.9403076171875;1375.9010009765625
30;1288.1959228515625;1298.15673828125;1291.88134765625;1294.9566650390625;1374.72705078125
31;1287.2559814453125;1297.24365234375;1290.552734375;1293.951904296875;1373.5184326171875
32;1286.30859375;1296.2977294921875;1289.2001953125;1292.9248046875;1372.2723388671875
33;1285.364013671875;1295.3387451171875;1287.7894287109375;1291.8736572265625;1370.9859619140625
34;1284.4105224609375;1294.3544921875;1286.349853515625;1290.79736328125;1369.671142578125
35;1283.447265625;1293.34375;1284.86279296875;1289.70654296875;1368.3096923828125
36;1282.4732666015625;1292.3040771484375;1283.307373046875;1288.5751953125;1366.8819580078125
37;1281.4766845703125;1291.234130859375;1281.71484375;1287.426025390625;1365.3995361328125
38;1280.4674072265625;1290.1319580078125;1280.0458984375;1286.2452392578125;1363.8582763671875
39;1279.4556884765625;1288.982666015625;1278.3328857421875;1285.017333984375;1362.2713623046875
40;1278.4295654296875;1287.8082275390625;1276.5533447265625;1283.7666015625;1360.61669921875
41;1277.3878173828125;1286.5946044921875;1274.7022705078125;1282.4776611328125;1358.8900146484375
42;1276.318359375;1285.32568359375;1272.7745361328125;1281.148193359375;1357.06640625
43;1275.2421875;1284.010986328125;1270.743408203125;1279.7760009765625;1355.1773681640625
44;1274.1468505859375;1282.647705078125;1268.6214599609375;1278.358154296875;1353.177734375
45;1273.031494140625;1281.246337890625;1266.42431640625;1276.89208984375;1351.0789794921875
46;1271.894775390625;1279.7891845703125;1264.123046875;1275.3743896484375;1348.89453125
47;1270.7239990234375;1278.27294921875;1261.7088623046875;1273.7867431640625;1346.573486328125
48;1269.5396728515625;1276.6783447265625;1259.17236328125;1272.140380859375;1344.1500244140625
49;1268.3177490234375;1275.0142822265625;1256.5028076171875;1270.447021484375;1341.5679931640625
50;1267.079833984375;1273.292236328125;1253.662353515625;1268.671142578125;1338.8375244140625
51;1265.8009033203125;1271.4747314453125;1250.661376953125;1266.8399658203125;1335.94482421875
52;1264.490478515625;1269.587646484375;1247.513427734375;1264.93212890625;1332.902587890625
53;1263.158447265625;1267.60888671875;1244.1759033203125;1262.942626953125;1329.668701171875
54;1261.779296875;1265.53125;1240.6298828125;1260.846435546875;1326.1929931640625
55;1260.3740234375;1263.3277587890625;1236.8199462890625;1258.673095703125;1322.48046875
56;1258.916748046875;1261.0069580078125;1232.78564453125;1256.3973388671875;1318.5401611328125
57;1257.416259765625;1258.5792236328125;1228.430419921875;1253.99072265625;1314.2762451171875
58;1255.870361328125;1255.9937744140625;1223.793212890625;1251.483642578125;1309.7254638671875
59;1254.2760009765625;1253.25830078125;1218.80224609375;1248.824951171875;1304.815673828125
60;1252.642578125;1250.358642578125;1213.3746337890625;1246.0228271484375;1299.4583740234375
61;1250.9549560546875;1247.3037109375;1207.5499267578125;1243.065673828125;1293.6385498046875
62;1249.195556640625;1244.030517578125;1201.2393798828125;1239.93994140625;1287.343994140625
63;1247.373291015625;1240.54345703125;1194.394287109375;1236.6297607421875;1280.406494140625
64;1245.498046875;1236.8485107421875;1186.9669189453125;1233.119873046875;1272.7908935546875
65;1243.552001953125;1232.869140625;1178.857177734375;1229.419921875;1264.40283203125
66;1241.515625;1228.6370849609375;1170.095458984375;1225.456298828125;1255.1412353515625
67;1239.3974609375;1224.0958251953125;1160.684326171875;1221.2340087890625;1244.899169921875
68;1237.2069091796875;1219.177490234375;1150.7347412109375;1216.7625732421875;1233.660400390625
69;1234.922119140625;1213.87939453125;1140.2655029296875;1211.9549560546875;1221.191650390625
70;1232.51953125;1208.2030029296875;1129.3350830078125;1206.8160400390625;1207.640869140625
71;1230.0069580078125;1202.0299072265625;1118.265380859375;1201.357421875;1192.9888916015625
72;1227.392822265625;1195.399658203125;1107.1070556640623;1195.5185546875;1177.31396484375
73;1224.650390625;1188.2291259765625;1096.1962890625;1189.2762451171875;1161.0369873046875
74;1221.768310546875;1180.425048828125;1085.6165771484377;1182.60986328125;1144.5921630859375
75;1218.7349853515625;1172.0504150390625;1075.4840087890623;1175.4576416015625;1128.44580078125
76;1215.5147705078125;1162.970947265625;1065.80615234375;1167.902099609375;1112.9989013671877
77;1212.1109619140625;1153.228759765625;1056.67431640625;1159.905517578125;1098.514892578125
78;1208.5279541015625;1142.8369140625;1048.13427734375;1151.433349609375;1085.102294921875
79;1204.7239990234375;1131.9066162109375;1040.1048583984377;1142.572998046875;1072.7525634765623
80;1200.677001953125;1120.3876953125;1032.5084228515623;1133.379638671875;1061.4659423828123
81;1196.3336181640625;1108.4635009765623;1025.3568115234377;1123.9801025390623;1051.016845703125
82;1191.7135009765625;1096.35546875;1018.6492919921876;1114.4024658203123;1041.433837890625
83;1186.725830078125;1084.093994140625;1012.3071899414062;1104.73779296875;1032.5758056640623
84;1181.3861083984375;1071.92626953125;1006.2954711914062;1095.020751953125;1024.3135986328123
85;1175.5855712890625;1060.016357421875;1000.5551147460938;1085.395263671875;1016.6251831054688
86;1169.2962646484375;1048.570068359375;995.0914916992188;1075.935791015625;1009.4837036132812
87;1162.4508056640625;1037.5675048828123;989.8818359375;1066.7567138671877;1002.7864379882812
88;1155.0120849609375;1027.145263671875;984.9307861328124;1057.8577880859377;996.468017578125
89;1146.853759765625;1017.3934326171876;980.169677734375;1049.27294921875;990.5470581054688
90;1137.8709716796875;1008.2664794921876;975.6102294921876;1041.0303955078123;984.9124145507812
91;1127.888916015625;999.7105102539062;971.2635498046876;1033.1041259765623;979.5658569335938
92;1116.8223876953123;991.7533569335938;967.0816040039062;1025.5843505859377;974.4735717773438
93;1104.6007080078123;984.3623046875;963.0667114257812;1018.3956298828124;969.634521484375
94;1090.982666015625;977.505615234375;959.21484375;1011.5841064453124;965.0071411132812
95;1076.0416259765623;971.1743774414062;955.5026245117188;1005.1258544921876;960.5585327148438
96;1059.75048828125;965.291748046875;951.9376220703124;999.033203125;956.3201904296876
97;1042.3118896484377;959.7925415039062;948.4732055664062;993.2600708007812;952.2568359375
98;1024.0382080078123;954.7007446289062;945.1334838867188;987.768798828125;948.3565063476562
99;1005.6824951171876;949.9546508789062;941.8930053710938;982.5715942382812;944.6439819335938
100;987.7928466796876;945.5170288085938;938.7315673828124;977.68359375;941.0613403320312
101;970.8370971679688;941.3333129882812;935.6748046875;973.0573120117188;937.6076049804688
102;955.3189086914062;937.4008178710938;932.690673828125;968.671630859375;934.2830200195312
103;941.3197631835938;933.6929321289062;929.802734375;964.5108642578124;931.0535278320312
104;928.77880859375;930.2036743164062;926.9924926757812;960.5335083007812;927.9403076171876
105;917.6485595703124;926.8900756835938;924.2454223632812;956.758056640625;924.925537109375
106;907.7715454101562;923.7137451171876;921.5703125;953.1329345703124;922.0053100585938
107;898.9552612304688;920.6743774414062;918.9774169921876;949.662109375;919.1550903320312
108;891.0718383789062;917.761474609375;916.4528198242188;946.343017578125;916.3860473632812
109;883.9136962890625;914.9708251953124;913.9921875;943.1491088867188;913.7042846679688
110;877.4378051757812;912.2664794921876;911.5903930664062;940.0694580078124;911.0914916992188
111;871.5106201171875;909.652587890625;909.2352905273438;937.095458984375;908.5582275390624
112;866.0902709960938;907.1198120117188;906.932373046875;934.2059326171876;906.0796508789062
113;861.1132202148438;904.6600952148438;904.6904907226562;931.4189453125;903.6583251953124
114;856.4827880859375;902.2771606445312;902.498291015625;928.7144165039062;901.291015625
115;852.1878051757812;899.955810546875;900.3441772460938;926.075439453125;898.9830932617188
116;848.1630859375;897.6817016601562;898.2399291992188;923.518310546875;896.712158203125
117;844.3617553710938;895.4597778320312;896.1668701171875;921.016845703125;894.4856567382812
118;840.7780151367188;893.2947387695312;894.130615234375;918.5863647460938;892.3005981445312
119;837.3732299804688;891.174560546875;892.1369018554688;916.2034301757812;890.1547241210938
120;834.1201171875;889.0880126953125;890.168212890625;913.8832397460938;888.0538940429688
121;831.0096435546875;887.049560546875;888.2307739257812;911.61328125;885.9886474609375
122;828.0365600585938;885.0477905273438;886.330078125;909.381591796875;883.948974609375
123;825.1646118164062;883.0735473632812;884.45751953125;907.194091796875;881.94921875
124;822.4025268554688;881.1395874023438;882.6050415039062;905.0487060546876;879.9725341796875
125;819.7215576171875;879.2291870117188;880.7861328125;902.9432373046876;878.0328369140625
126;817.1220703125;877.3551025390625;878.991943359375;900.874755859375;876.1138305664062
127;814.5977172851562;875.5084838867188;877.214599609375;898.8414916992188;874.2283935546875
128;812.1434326171875;873.681640625;875.460205078125;896.842041015625;872.361328125
129;809.7631225585938;871.8803100585938;873.7340087890625;894.8822631835938;870.5257568359375
130;807.4417114257812;870.103515625;872.0283813476562;892.9524536132812;868.7073974609375
131;805.1675415039062;868.3558959960938;870.3359985351562;891.051025390625;866.9119262695312
132;802.9529418945312;866.6244506835938;868.662109375;889.1704711914062;865.1381225585938
133;800.7855834960938;864.9195556640625;867.006591796875;887.316650390625;863.3919067382812
134;798.66259765625;863.22900390625;865.3682861328125;885.4882202148438;861.6600952148438
135;796.5740966796875;861.5637817382812;863.751708984375;883.689208984375;859.9474487304688
136;794.5313720703125;859.911865234375;862.1509399414062;881.9124145507812;858.2534790039062
137;792.51806640625;858.2781982421875;860.5601806640625;880.156982421875;856.5836181640625
138;790.5390625;856.6617431640625;858.989990234375;878.4224243164062;854.9259643554688
139;788.5985717773438;855.066650390625;857.4345092773438;876.701171875;853.2850341796875
140;786.68212890625;853.4876098632812;855.892822265625;875.0043334960938;851.6656494140625
141;784.8008422851562;851.918701171875;854.3594360351562;873.3196411132812;850.0564575195312
142;782.9464721679688;850.3695678710938;852.8441772460938;871.651611328125;848.467529296875
143;781.11181640625;848.8344116210938;851.3412475585938;869.9998779296875;846.8929443359375
144;779.3076171875;847.3075561523438;849.850830078125;868.3689575195312;845.3274536132812
145;777.5272827148438;845.7984008789062;848.36669921875;866.752685546875;843.775146484375
146;775.7640991210938;844.301513671875;846.898681640625;865.145751953125;842.240478515625
147;774.0221557617188;842.8161010742188;845.437255859375;863.5575561523438;840.7186279296875
148;772.3060302734375;841.337158203125;843.9861450195312;861.9776000976562;839.208740234375
149;770.6089477539062;839.873779296875;842.5452880859375;860.4152221679688;837.7105102539062
150;768.9254760742188;838.416259765625;841.1183471679688;858.8606567382812;836.2190551757812
151;767.2597045898438;836.97314453125;839.700927734375;857.318115234375;834.7386474609375
152;765.6165161132812;835.5397338867188;838.288330078125;855.7872924804688;833.2688598632812
153;763.9849853515625;834.1153564453125;836.8847045898438;854.2721557617188;831.8093872070312
154;762.3696899414062;832.7003173828125;835.4900512695312;852.767822265625;830.3597412109375
155;760.7747192382812;831.289794921875;834.1084594726562;851.2696533203125;828.9197998046875
156;759.1900634765625;829.8880615234375;832.731201171875;849.7859497070312;827.4934692382812
157;757.6245727539062;828.4945678710938;831.3659057617188;848.3078002929688;826.0718994140625
158;756.0728759765625;827.11328125;830.004638671875;846.8435668945312;824.6590576171875
159;754.5346069335938;825.739990234375;828.6552734375;845.3846435546875;823.2588500976562
160;753.0047607421875;824.3746337890625;827.3099365234375;843.9392700195312;821.8670654296875
161;751.4918212890625;823.012939453125;825.9764404296875;842.5028076171875;820.4795532226562
162;749.9909057617188;821.6626586914062;824.6502685546875;841.0711669921875;819.1002197265625
163;748.5016479492188;820.315673828125;823.3313598632812;839.6519165039062;817.7285766601562
164;747.02392578125;818.9757690429688;822.0160522460938;838.2371826171875;816.368408203125
165;745.55712890625;817.6463623046875;820.707763671875;836.8345336914062;815.015625
166;744.1011352539062;816.32373046875;819.4065551757812;835.4401245117188;813.6663818359375
167;742.6516723632812;815.0076293945312;818.1156005859375;834.0498046875;812.3240966796875
168;741.2160034179688;813.6944580078125;816.8276977539062;832.6718139648438;810.9925537109375
169;739.7904663085938;812.3912963867188;815.546630859375;831.3029174804688;809.6679077148438
170;738.3709716796875;811.0941162109375;814.272216796875;829.942626953125;808.3463745117188
171;736.9608154296875;809.8031005859375;813.0044555664062;828.5902709960938;807.0346069335938
172;735.5596923828125;808.5146484375;811.7467651367188;827.245361328125;805.729248046875
173;734.1672973632812;807.23193359375;810.4927368164062;825.9073486328125;804.4299926757812
174;732.7836303710938;805.958251953125;809.2489624023438;824.5757446289062;803.1333618164062
175;731.4119873046875;804.6901245117188;808.008544921875;823.2509155273438;801.8428344726562
176;730.0484008789062;803.427490234375;806.7750244140625;821.9288330078125;800.5579833984375
177;728.6929321289062;802.1669921875;805.547607421875;820.61279296875;799.2821655273438
178;727.3418579101562;800.9149169921875;804.3257446289062;819.3028564453125;798.0087280273438
179;725.9984130859375;799.6646728515625;803.1127319335938;818.0020751953125;796.7406616210938
180;724.6659545898438;798.4194946289062;801.9020385742188;816.7069702148438;795.4781494140625
181;723.3374633789062;797.1792602539062;800.6995239257812;815.4173583984375;794.2240600585938
182;722.0167236328125;795.9437866210938;799.502197265625;814.1334228515625;792.9751586914062
183;720.7066040039062;794.713134765625;798.3098754882812;812.854736328125;791.7313842773438
184;719.4032592773438;793.4869384765625;797.1226196289062;811.578369140625;790.4901123046875
185;718.1036376953125;792.2652587890625;795.940185546875;810.310302734375;789.2571411132812
186;716.8109130859375;791.0509643554688;794.7628173828125;809.04736328125;788.0294189453125
187;715.5245361328125;789.8381958007812;793.5902099609375;807.789306640625;786.8065185546875
188;714.24462890625;788.6296997070312;792.42236328125;806.5333862304688;785.5885620117188
189;712.9740600585938;787.4254150390625;791.25634765625;805.2852783203125;784.373291015625
190;711.70654296875;786.2280883789062;790.094970703125;804.0419921875;783.166259765625
191;710.4482421875;785.0318603515625;788.9379272460938;802.803466796875;781.9642333984375
192;709.19580078125;783.8397216796875;787.7854614257812;801.5665283203125;780.7645874023438
193;707.9462280273438;782.6544189453125;786.6399536132812;800.3369750976562;779.5702514648438
194;706.7053833007812;781.469970703125;785.4959106445312;799.112060546875;778.3809204101562
195;705.4676513671875;780.2921752929688;784.3561401367188;797.8916625976562;777.1962280273438
196;704.2361450195312;779.1179809570312;783.2205810546875;796.6757202148438;776.0186767578125
197;703.0106201171875;777.947509765625;782.0894775390625;795.4639892578125;774.845458984375
198;701.7907104492188;776.7804565429688;780.9631958007812;794.2537231445312;773.673828125
199;700.5792236328125;775.6170043945312;779.8413696289062;793.0504760742188;772.5065307617188
200;699.3705444335938;774.4544067382812;778.7234497070312;791.8485107421875;771.3432006835938
201;698.169921875;773.2952270507812;777.612060546875;790.6508178710938;770.1841430664062
202;696.9718017578125;772.14208984375;776.5047607421875;789.4571533203125;769.031494140625
203;695.7815551757812;770.9898071289062;775.3991088867188;788.27001953125;767.8804321289062
204;694.5936279296875;769.8408203125;774.2971801757812;787.084228515625;766.7332763671875
205;693.4131469726562;768.697509765625;773.19921875;785.9021606445312;765.5899658203125
206;692.2376098632812;767.5574951171875;772.1054077148438;784.7266845703125;764.4528198242188
207;691.0665893554688;766.4205932617188;771.0157470703125;783.5520629882812;763.3192749023438
208;689.8978881835938;765.2843627929688;769.9322509765625;782.3815307617188;762.1868286132812
209;688.7333984375;764.153564453125;768.850341796875;781.2169799804688;761.0602416992188
210;687.5735473632812;763.0234375;767.7742919921875;780.0560913085938;759.9371337890625
211;686.4204711914062;761.896240234375;766.7020263671875;778.8963623046875;758.8173217773438
212;685.2693481445312;760.7720336914062;765.6331787109375;777.7401123046875;757.700927734375
213;684.1224365234375;759.6531982421875;764.5677490234375;776.5875244140625;756.5853881835938
214;682.9821166992188;758.5369873046875;763.5035400390625;775.4383544921875;755.4755249023438
215;681.8436279296875;757.4215698242188;762.442626953125;774.292724609375;754.3663940429688
216;680.7090454101562;756.3087158203125;761.3851928710938;773.1528930664062;753.262939453125
217;679.5786743164062;755.2010498046875;760.3331298828125;772.016357421875;752.160400390625
218;678.4545288085938;754.0960083007812;759.2818603515625;770.8809814453125;751.0630493164062
219;677.33203125;752.9937744140625;758.233642578125;769.7488403320312;749.96875
220;676.2133178710938;751.8942260742188;757.190185546875;768.6199340820312;748.875244140625
221;675.1007080078125;750.7951049804688;756.1474609375;767.4942016601562;747.7846069335938
222;673.9895629882812;749.6985473632812;755.1096801757812;766.3739624023438;746.6992797851562
223;672.8843383789062;748.6044921875;754.07470703125;765.2545776367188;745.6167602539062
224;671.7827758789062;747.515380859375;753.042236328125;764.140380859375;744.5369873046875
225;670.6825561523438;746.426513671875;752.0103759765625;763.029541015625;743.4602661132812
226;669.5880737304688;745.3423461914062;750.9811401367188;761.921630859375;742.3841552734375
227;668.4970703125;744.258544921875;749.9544067382812;760.8145751953125;741.3130493164062
228;667.4096069335938;743.1771850585938;748.9302978515625;759.712646484375;740.2446899414062
229;666.3234252929688;742.100341796875;747.9105834960938;758.6114501953125;739.1788940429688
230;665.2409057617188;741.0259399414062;746.891357421875;757.513427734375;738.1138305664062
231;664.1640014648438;739.9539184570312;745.8765258789062;756.4203491210938;737.0513916015625
232;663.0904541015625;738.8842163085938;744.8621826171875;755.3280639648438;735.9934692382812
233;662.0181274414062;737.81689453125;743.85205078125;754.2406616210938;734.9383544921875
234;660.9493408203125;736.7518920898438;742.8442993164062;753.154052734375;733.8837280273438
235;659.8857421875;735.689208984375;741.8369140625;752.0703125;732.8336181640625
236;658.8253173828125;734.6287231445312;740.8335571289062;750.991455078125;731.7860717773438
237;657.7661743164062;733.568603515625;739.8306274414062;749.915283203125;730.7391967773438
238;656.7100830078125;732.5125732421875;738.8316040039062;748.8419189453125;729.6946411132812
239;655.6572265625;731.4569091796875;737.8347778320312;747.771240234375;728.6546630859375
240;654.6092529296875;730.4054565429688;736.8399658203125;746.7031860351562;727.616943359375
241;653.5643920898438;729.356201171875;735.8472900390625;745.6358642578125;726.579833984375
242;652.5205078125;728.3091430664062;734.8565063476562;744.571044921875;725.5451049804688
243;651.4797973632812;727.2643432617188;733.865966796875;743.510986328125;724.5126953125
244;650.4419555664062;726.2216186523438;732.8792114257812;742.4533081054688;723.482666015625
245;649.4090576171875;725.180908203125;731.8925170898438;741.396240234375;722.4568481445312
246;648.3770751953125;724.142578125;730.909423828125;740.3436279296875;721.4314575195312
247;647.3497924804688;723.106201171875;729.9281616210938;739.2916870117188;720.4083862304688
248;646.3235473632812;722.0719604492188;728.9468994140625;738.2421875;719.3876342773438
249;645.3001708984375;721.0397338867188;727.968994140625;737.1951293945312;718.3690185546875
250;644.28125;720.0093994140625;726.9928588867188;736.1524047851562;717.3544921875
251;643.2650756835938;718.9811401367188;726.0167236328125;735.1101684570312;716.3405151367188
252;642.2498779296875;717.9530639648438;725.0421752929688;734.0704345703125;715.3305053710938
253;641.2391357421875;716.9269409179688;724.0707397460938;733.0328979492188;714.3226318359375
254;640.2310791015625;715.9027709960938;723.09912109375;731.997802734375;713.3153686523438
255;639.2239379882812;714.8805541992188;722.130615234375;730.9649658203125;712.3101806640625
256;638.2195434570312;713.8602905273438;721.161865234375;729.9362182617188;711.3087158203125
257;637.2175903320312;712.8436279296875;720.1944580078125;728.9097900390625;710.3078002929688
258;636.2200317382812;711.828857421875;719.228271484375;727.8837890625;709.3091430664062
259;635.2249145507812;710.8142700195312;718.2633666992188;726.8618774414062;708.3124389648438
260;634.2305908203125;709.801513671875;717.3012084960938;725.8421020507812;707.3178100585938
261;633.2406005859375;708.7924194335938;716.340087890625;724.8245239257812;706.3270263671875
262;632.25146484375;707.7852172851562;715.3800048828125;723.8074951171875;705.3366088867188
263;631.2646484375;706.7781372070312;714.4193725585938;722.7926025390625;704.349853515625
264;630.2803955078125;705.7728271484375;713.4595336914062;721.781494140625;703.3651733398438
265;629.30029296875;704.7711181640625;712.50048828125;720.77099609375;702.3824462890625
266;628.3225708007812;703.76953125;711.543701171875;719.7642211914062;701.4000854492188
267;627.3472290039062;702.769775390625;710.5877075195312;718.7578735351562;700.419677734375
268;626.3741455078125;701.7718505859375;709.63232421875;717.7551879882812;699.4413452148438
269;625.4019775390625;700.77734375;708.6758422851562;716.754638671875;698.4666137695312
270;624.4320678710938;699.78466796875;707.7213745117188;715.7545166015625;697.4937744140625
271;623.4661254882812;698.7936401367188;706.7672119140625;714.758056640625;696.5227661132812
272;622.50244140625;697.804443359375;705.8135375976562;713.7637329101562;695.5523071289062
273;621.5394897460938;696.8154296875;704.85986328125;712.769775390625;694.5852661132812
274;620.5803833007812;695.8280639648438;703.9063720703125;711.7793579101562;693.6185302734375
275;619.6219482421875;694.8440551757812;702.951416015625;710.7894287109375;692.6553955078125
276;618.6671142578125;693.86181640625;701.9965209960938;709.802978515625;691.6939697265625
277;617.7147216796875;692.881103515625;701.0430908203125;708.818603515625;690.7344360351562
278;616.7630004882812;691.9022827148438;700.0878295898438;707.8345336914062;689.7753295898438
279;615.81494140625;690.9236450195312;699.134033203125;706.8524169921875;688.8179931640625
280;614.8676147460938;689.9481201171875;698.1784057617188;705.873779296875;687.8639526367188
281;613.9224243164062;688.9744262695312;697.2237548828125;704.8956298828125;686.9102783203125
282;612.9808959960938;688.0023193359375;696.2686767578125;703.9208374023438;685.9598999023438
283;612.0399780273438;687.031982421875;695.3131103515625;702.9479370117188;685.0098876953125
284;611.1026000976562;686.063232421875;694.3568725585938;701.9769287109375;684.0630493164062
285;610.1658935546875;685.09619140625;693.4000244140625;701.0078125;683.1179809570312
286;609.2327270507812;684.1293334960938;692.4410400390625;700.0390625;682.1732788085938
287;608.3016357421875;683.1641845703125;691.4830322265625;699.0720825195312;681.2303466796875
288;607.3711547851562;682.2007446289062;690.5227661132812;698.1071166992188;680.2890625
289;606.4441528320312;681.2388305664062;689.5619506835938;697.145263671875;679.3510131835938
290;605.5178833007812;680.2799682617188;688.6004638671875;696.1839599609375;678.414794921875
291;604.5936889648438;679.3214111328125;687.6382446289062;695.224365234375;677.480224609375
292;603.6715087890625;678.3657836914062;686.6754150390625;694.2667846679688;676.5472412109375
293;602.7526245117188;677.4105834960938;685.71337890625;693.310791015625;675.6160278320312
294;601.8358154296875;676.458251953125;684.75048828125;692.356689453125;674.6852416992188
295;600.9194946289062;675.507568359375;683.787109375;691.4057006835938;673.7574462890625
296;600.0050659179688;674.55859375;682.8231201171875;690.455078125;672.8298950195312
297;599.0940551757812;673.6097412109375;681.858642578125;689.5061645507812;671.9053344726562
298;598.1836547851562;672.6625366210938;680.892333984375;688.55908203125;670.9823608398438
299;597.2764282226562;671.7169189453125;679.9270629882812;687.61376953125;670.0597534179688
300;596.3699340820312;670.7742309570312;678.9613647460938;686.6701049804688;669.1387939453125
301;595.4652709960938;669.8318481445312;677.994140625;685.7281494140625;668.2207641601562
302;594.5636596679688;668.892333984375;677.026611328125;684.7879638671875;667.302978515625
303;593.6640014648438;667.9544677734375;676.05908203125;683.850830078125;666.3882446289062
304;592.7661743164062;667.0181884765625;675.0916137695312;682.9140625;665.4735717773438
305;591.8702392578125;666.0821533203125;674.1241455078125;681.9802856445312;664.5606689453125
306;590.9749145507812;665.147705078125;673.1583251953125;681.0469360351562;663.6505126953125
307;590.0825805664062;664.216064453125;672.1914672851562;680.1165161132812;662.7420654296875
308;589.1908569335938;663.2847900390625;671.2264404296875;679.1864624023438;661.8338623046875
309;588.3009033203125;662.35498046875;670.260498046875;678.2592163085938;660.9285278320312
310;587.4127807617188;661.427978515625;669.296630859375;677.333740234375;660.0234375
311;586.5265502929688;660.5014038085938;668.3333129882812;676.409912109375;659.1198120117188
312;585.6420288085938;659.5762939453125;667.3695068359375;675.487548828125;658.2190551757812
313;584.7604370117188;658.6539916992188;666.4065551757812;674.5668334960938;657.3199462890625
314;583.8805541992188;657.733154296875;665.4444580078125;673.6478271484375;656.4221801757812
315;583.0025024414062;656.8126831054688;664.484619140625;672.7290649414062;655.5248413085938
316;582.1260986328125;655.8948974609375;663.524658203125;671.8118896484375;654.6301879882812
317;581.2501831054688;654.9774780273438;662.5670776367188;670.8974609375;653.7371215820312
318;580.3761596679688;654.062744140625;661.6095581054688;669.984619140625;652.845458984375
319;579.5036010742188;653.1483154296875;660.6532592773438;669.0722045898438;651.955322265625
320;578.6340942382812;652.2354736328125;659.6983032226562;668.1613159179688;651.0654907226562
321;577.7662353515625;651.3240966796875;658.744873046875;667.2531127929688;650.1782836914062
322;576.89892578125;650.414306640625;657.7939453125;666.346435546875;649.2926025390625
323;576.0344848632812;649.507080078125;656.8445434570312;665.44140625;648.4071655273438
324;575.1716918945312;648.6002807617188;655.896728515625;664.537841796875;647.5231323242188
325;574.310546875;647.6961059570312;654.94921875;663.634521484375;646.640625
326;573.4500122070312;646.792236328125;654.004638671875;662.7328491210938;645.759521484375
327;572.5922241210938;645.8900146484375;653.0603637695312;661.833740234375;644.8798828125
328;571.7359619140625;644.9903564453125;652.1189575195312;660.9349365234375;644.0027465820312
329;570.88037109375;644.0909423828125;651.1793823242188;660.0388793945312;643.1271362304688
330;570.02734375;643.1930541992188;650.2401733398438;659.144287109375;642.2518310546875
331;569.1759643554688;642.2978515625;649.3038940429688;658.25;641.3778076171875
332;568.326171875;641.4028930664062;648.369384765625;657.357177734375;640.5053100585938
333;567.4779663085938;640.509521484375;647.4367065429688;656.4669189453125;639.6353149414062
334;566.6302490234375;639.6176147460938;646.5045166015625;655.5780639648438;638.7666015625
335;565.7841796875;638.7283325195312;645.5753784179688;654.690673828125;637.8982543945312
336;564.9396362304688;637.840576171875;644.6467895507812;653.8048095703125;637.03125
337;564.0977783203125;636.953125;643.719970703125;652.919189453125;636.1668090820312
338;563.2564086914062;636.0672607421875;642.796142578125;652.0359497070312;635.3035278320312
339;562.4175415039061;635.1840209960938;641.8741455078125;651.154296875;634.440673828125
340;561.5792236328125;634.3011474609375;640.9528198242188;650.27294921875;633.5791625976562
341;560.7424926757811;633.419921875;640.034423828125;649.3928833007812;632.7200317382812
342;559.9083862304689;632.540283203125;639.1167602539062;648.5143432617188;631.8622436523438
343;559.07470703125;631.662109375;638.201904296875;647.63818359375;631.005859375
344;558.2435913085939;630.7854614257812;637.2889404296875;646.7623901367188;630.149658203125
345;557.4129028320311;629.911376953125;636.376708984375;645.888916015625;629.294921875
346;556.5838012695311;629.038818359375;635.4662475585938;645.0159301757812;628.44140625
347;555.7562255859375;628.1666870117188;634.5587158203125;644.1452026367188;627.5892333984375
348;554.9310913085939;627.297119140625;633.65185546875;643.2748413085938;626.7394409179688
349;554.1064453125;626.4290771484375;632.7479248046875;642.4068603515625;625.8909301757812
350;553.2841796875;625.5623779296875;631.8446044921875;641.540283203125;625.0437622070312
351;552.4625244140625;624.6961059570312;630.9431762695312;640.675048828125;624.1969604492188
352;551.6431884765625;623.832275390625;630.0445556640625;639.81103515625;623.3513793945312
353;550.8244018554689;622.9699096679688;629.1477661132812;638.947509765625;622.507080078125
354;550.0079956054689;622.1088256835938;628.252685546875;638.085205078125;621.6640625
355;549.1930541992189;621.248291015625;627.359375;637.2252197265625;620.8233032226562
356;548.3786010742189;620.3889770507812;626.4667358398438;636.366455078125;619.9838256835938
357;547.5654907226561;619.5320434570312;625.575927734375;635.5090942382812;619.1447143554688
358;546.7548217773439;618.675537109375;624.686767578125;634.652099609375;618.3078002929688
359;545.9446411132811;617.8204956054688;623.80029296875;633.7964477539062;617.4721069335938
360;545.1358032226561;616.9675903320312;622.9146118164062;632.9429931640625;616.6377563476562
361;544.3292846679689;616.1151123046875;622.0316772460938;632.0908813476562;615.8046264648438
362;543.5242919921875;615.2650146484375;621.1504516601562;631.239990234375;614.9717407226562
363;542.7205200195311;614.416259765625;620.2698974609375;630.390380859375;614.1402587890625
364;541.9171752929689;613.5678100585938;619.3919677734375;629.5411376953125;613.310791015625
365;541.1153564453125;612.7216796875;618.5157470703125;628.693115234375;612.4825439453125
366;540.3148193359375;611.8768920898438;617.64013671875;627.846435546875;611.6555786132812
367;539.5165405273439;611.0333862304688;616.7672119140625;627.001953125;610.8289794921875
368;538.7196044921875;610.1903686523438;615.8949584960938;626.1587524414062;610.0044555664062
369;537.9231567382811;609.3485717773438;615.0244140625;625.3157348632812;609.1810913085938
370;537.1288452148439;608.508056640625;614.1554565429688;624.47412109375;608.3590698242188
371;536.3359375;607.6688842773438;613.2890014648438;623.6336669921875;607.5381469726562
372;535.54443359375;606.8308715820312;612.4241943359375;622.7946166992188;606.718505859375
373;534.7540893554689;605.9953002929688;611.56005859375;621.9566650390625;605.9000244140625
374;533.9652099609375;605.160888671875;610.697509765625;621.1199951171875;605.0828247070312
375;533.1766967773439;604.3278198242188;609.8366088867188;620.2845458984375;604.2666015625
376;532.3895263671875;603.4959106445312;608.9780883789062;619.4513549804688;603.4517211914062
377;531.6044921875;602.6654663085938;608.120361328125;618.6192016601562;602.637939453125
378;530.8198852539061;601.8352661132812;607.2640991210938;617.788330078125;601.825439453125
379;530.0374755859375;601.0072631835938;606.410400390625;616.9578247070312;601.0131225585938
380;529.2554931640625;600.1805419921875;605.5581665039062;616.1285400390625;600.2021484375
381;528.4756469726561;599.3551025390625;604.7074584960938;615.3004150390625;599.392333984375
382;527.6970825195311;598.5308837890625;603.857421875;614.473388671875;598.5834350585938
383;526.9188842773439;597.70703125;603.0098876953125;613.6478271484375;597.7760009765625
384;526.1420288085939;596.8853149414062;602.1637573242188;612.8241577148438;596.9696044921875
385;525.3672485351561;596.0639038085938;601.3181762695312;612.0017700195312;596.164306640625
386;524.5928955078125;595.2446899414062;600.4741821289062;611.1796264648438;595.3611450195312
387;523.8198852539061;594.4266967773438;599.6326293945312;610.3587036132812;594.5582275390625
388;523.0480346679689;593.6090698242188;598.79248046875;609.5390625;593.7565307617188
389;522.2774047851561;592.7935791015625;597.952880859375;608.7205200195312;592.9566650390625
390;521.5089111328125;591.9784545898438;597.1148071289062;607.9032592773438;592.1572265625
391;520.7416381835939;591.165283203125;596.279052734375;607.0879516601562;591.3588256835938
392;519.9755249023439;590.3526000976562;595.44384765625;606.273681640625;590.5624389648438
393;519.2098999023439;589.5411376953125;594.611083984375;605.4598999023438;589.7672119140625
394;518.4463500976561;588.7308959960938;593.7787475585938;604.6481323242188;588.9722900390625
395;517.6840209960939;587.922607421875;592.94873046875;603.836669921875;588.1792602539062
396;516.9219970703125;587.1148681640625;592.1201782226562;603.0262451171875;587.386474609375
397;516.1619873046875;586.3081665039062;591.2930908203125;602.218017578125;586.5949096679688
398;515.4025268554689;585.502685546875;590.46728515625;601.409912109375;585.804443359375
399;514.6448974609375;584.6992797851562;589.6429443359375;600.6038818359375;585.0150146484375
400;513.8886108398439;583.8970947265625;588.8191528320312;599.7981567382812;584.2275390625
401;513.1334228515625;583.095947265625;587.9976806640625;598.9935913085938;583.4403686523438
402;512.3794555664061;582.2960815429688;587.177490234375;598.1900634765625;582.654296875
403;511.6266784667969;581.49658203125;586.3587036132812;597.3885498046875;581.8701171875
404;510.8743591308594;580.698974609375;585.5404052734375;596.5874633789062;581.0869750976562
405;510.1231994628906;579.9019165039062;584.724365234375;595.7874145507812;580.3041381835938
406;509.3739318847656;579.106689453125;583.90966796875;594.9892578125;579.5224609375
407;508.6251525878906;578.312744140625;583.0963134765625;594.1914672851562;578.7425537109375
408;507.8775024414063;577.5191040039062;582.2843017578125;593.394775390625;577.9630126953125
409;507.131103515625;576.7265625;581.472900390625;592.6000366210938;577.185302734375
410;506.38580322265625;575.935302734375;580.6635131835938;591.806396484375;576.407958984375
411;505.6417846679688;575.1459350585938;579.8555297851562;591.0130004882812;575.6324462890625
412;504.8995056152344;574.3568725585938;579.048095703125;590.2215576171875;574.8577880859375
413;504.1577453613281;573.5697631835938;578.241943359375;589.4304809570312;574.0843505859375
414;503.41790771484375;572.7838745117188;577.437744140625;588.6412353515625;573.311279296875
415;502.6784362792969;571.998291015625;576.63427734375;587.8530883789062;572.5391845703125
416;501.9407653808594;571.2138671875;575.8328857421875;587.0653076171875;571.7688598632812
417;501.2043151855469;570.4306030273438;575.031982421875;586.2785034179688;570.9996337890625
418;500.4683227539063;569.6484985351562;574.2322998046875;585.4937133789062;570.230712890625
419;499.7333984375;568.867431640625;573.4347534179688;584.7097778320312;569.4628295898438
420;498.9996948242188;568.0882568359375;572.6376342773438;583.9270629882812;568.6967163085938
421;498.2677612304688;567.310302734375;571.8418579101562;583.144775390625;567.931640625
422;497.53619384765625;566.5333862304688;571.048095703125;582.3641357421875;567.167724609375
423;496.8065490722656;565.757568359375;570.2548217773438;581.5846557617188;566.4046630859375
424;496.0779724121094;564.982177734375;569.462890625;580.8063354492188;565.6419677734375
425;495.35052490234375;564.2085571289062;568.6728515625;580.0281982421875;564.8803100585938
426;494.6242065429688;563.4360961914062;567.8834228515625;579.251220703125;564.1204223632812
427;493.8988952636719;562.6641235351561;567.0958862304688;578.4760131835938;563.3607788085938
428;493.1748352050781;561.893798828125;566.3088989257812;577.7018432617188;562.6023559570311
429;492.4510192871094;561.1239624023439;565.523193359375;576.927978515625;561.8447265625
430;491.7291564941406;560.3551635742189;564.7393798828125;576.1558837890625;561.0889282226561
431;491.0076599121094;559.588134765625;563.9560546875;575.3842163085938;560.3341064453125
432;490.2872009277344;558.8215942382811;563.1739501953125;574.613525390625;559.5796508789061
433;489.5685729980469;558.056884765625;562.393798828125;573.8446655273438;558.8268432617189
434;488.8509216308594;557.2924194335939;561.6148681640625;573.0760498046875;558.0750732421875
435;488.1344909667969;556.52978515625;560.837158203125;572.3092041015625;557.3242797851561
436;487.4191284179688;555.7675170898439;560.0598754882811;571.5433959960938;556.5738525390625
437;486.7048034667969;555.007080078125;559.2846069335939;570.7779541015625;555.8244018554689
438;485.99151611328125;554.2470092773439;558.510498046875;570.0135498046875;555.0767211914061
439;485.27874755859375;553.4887084960939;557.73681640625;569.2501831054688;554.3299560546875
440;484.5669555664063;552.730712890625;556.965087890625;568.488525390625;553.5834350585939
441;483.8569641113281;551.973876953125;556.1937866210939;567.7272338867188;552.8380126953125
442;483.14794921875;551.2188110351561;555.4243774414061;566.967529296875;552.0936279296875
443;482.439453125;550.4647216796875;554.655517578125;566.2089233398438;551.3501586914061
444;481.7319641113281;549.7110595703125;553.888427734375;565.45068359375;550.6083374023439
445;481.0261535644531;548.958984375;553.12255859375;564.694091796875;549.867431640625
446;480.3213806152344;548.2081298828125;552.3577270507811;563.9385986328125;549.126953125
447;479.6177062988281;547.458251953125;551.593505859375;563.183349609375;548.3881225585939
448;478.91448974609375;546.7088623046875;550.8311157226561;562.4291381835939;547.6502685546875
449;478.2122497558594;545.9611206054689;550.0699462890625;561.6759033203125;546.9127197265625
450;477.5116882324219;545.2142944335939;549.3096923828125;560.923828125;546.1767578125
451;476.8121643066406;544.4686889648439;548.5506591796875;560.1732788085939;545.441162109375
452;476.11309814453125;543.723388671875;547.7928466796875;559.423095703125;544.7071533203125
453;475.4150085449219;542.9797973632811;547.0360717773439;558.6738891601561;543.97412109375
454;474.718017578125;542.2371826171875;546.2799072265625;557.9263916015625;543.2420654296875
455;474.0226135253906;541.4949951171875;545.5247192382811;557.1798706054689;542.5103149414061
456;473.3276977539063;540.7544555664061;544.770751953125;556.43359375;541.7801513671875
457;472.63372802734375;540.014404296875;544.0185546875;555.6884765625;541.0509643554689
458;471.9408264160156;539.2752685546875;543.2673950195311;554.9448852539061;540.3220825195311
459;471.2489318847656;538.537841796875;542.5174560546875;554.20166015625;539.5948486328125
460;470.55804443359375;537.80078125;541.7685546875;553.4600830078125;538.8684692382811
461;469.8688049316406;537.0653686523439;541.0201416015625;552.7194213867189;538.1430053710939
462;469.18048095703125;536.3309326171875;540.2727661132811;551.979736328125;537.4186401367189
463;468.49322509765625;535.5975341796875;539.526611328125;551.2411499023439;536.6951904296875
464;467.8064270019531;534.8651733398439;538.7821044921875;550.50341796875;535.9719848632811
465;467.1212463378906;534.1331787109375;538.0387573242189;549.7666625976561;535.2503662109375
466;466.43695068359375;533.4021606445311;537.2957153320311;549.031005859375;534.5291137695311
467;465.7531433105469;532.6728515625;536.553955078125;548.296142578125;533.8093872070311
468;465.0709533691406;531.9444580078125;535.8131103515625;547.5617065429689;533.090576171875
469;464.38916015625;531.2164306640625;535.0740966796875;546.828857421875;532.3721313476561
470;463.70892333984375;530.489990234375;534.3355712890625;546.0963134765625;531.6546020507811
471;463.0290832519531;529.7646484375;533.597900390625;545.3654174804689;530.9379272460939
472;462.3503112792969;529.040283203125;532.861572265625;544.634765625;530.222900390625
473;461.6724548339844;528.3168334960939;532.126708984375;543.9050903320311;529.5081787109375
474;460.9962463378906;527.5944213867189;531.3930053710939;543.1770629882811;528.794921875
475;460.3208923339844;526.8723754882811;530.660400390625;542.4493408203125;528.0827026367189
476;459.64654541015625;526.1519165039061;529.92822265625;541.7225341796875;527.3707275390625
477;458.97265625;525.4324951171875;529.1976318359375;540.997314453125;526.6597290039061
478;458.2998046875;524.71337890625;528.467529296875;540.2730102539061;525.9501342773439
479;457.62786865234375;523.995849609375;527.7390747070311;539.549072265625;525.240966796875
480;456.95745849609375;523.279296875;527.0110473632811;538.8261108398439;524.5326538085939
481;456.2874450683594;522.5636596679689;526.2847290039061;538.1046752929689;523.8258056640625
482;455.6189270019531;521.8489990234375;525.558837890625;537.383544921875;523.119384765625
483;454.9514465332031;521.1354370117189;524.8339233398439;536.6640014648439;522.4143676757811
484;454.2849426269531;520.422607421875;524.1107177734375;535.9453125;521.7103271484375
485;453.6188659667969;519.7103271484375;523.387939453125;535.2269897460939;521.0071411132811
486;452.9536743164063;518.9995727539061;522.666748046875;534.5096435546875;520.3043212890625
487;452.2900695800781;518.289306640625;521.9465942382811;533.7938232421875;519.6029052734375
488;451.6268615722656;517.5803833007811;521.2268676757811;533.0782470703125;518.9024658203125
489;450.9646301269531;516.8719482421875;520.5081787109375;532.3637084960939;518.2029418945311
490;450.3038635253906;516.1643676757811;519.7911376953125;531.6505737304689;517.5037231445311
491;449.64349365234375;515.4584350585939;519.074951171875;530.937744140625;516.8059692382811
492;448.9846496582031;514.7533569335939;518.359375;530.2265625;516.1085205078125
493;448.32623291015625;514.0493774414061;517.644775390625;529.5156860351561;515.4119873046875
494;447.66925048828125;513.34619140625;516.931640625;528.8062133789061;514.7168579101561
495;447.0132141113281;512.6434326171875;516.2196044921875;528.0972900390625;514.0220947265625
496;446.3581237792969;511.9421691894531;515.508056640625;527.3890380859375;513.3282470703125
497;445.7034606933594;511.2413330078125;514.7980346679689;526.682373046875;512.63525390625
498;445.0497741699219;510.5418701171875;514.0885009765625;525.9766235351561;511.9432678222656
499;444.3974609375;509.8434753417969;513.3800048828125;525.271240234375;511.251953125
500;443.7455749511719;509.14544677734375;512.6729736328125;524.566650390625;510.5616455078125
501;443.0946960449219;508.4483642578125;511.9664306640625;523.8636474609375;509.8722229003906
502;442.4452209472656;507.7521057128906;511.2613830566406;523.160888671875;509.18365478515625
503;441.796142578125;507.0567932128906;510.5567932128906;522.459228515625;508.4960021972656
504;441.1481018066406;506.3630065917969;509.8538513183594;521.7582397460939;507.8096618652344
505;440.5008239746094;505.6695861816406;509.15179443359375;521.058837890625;507.1237487792969
506;439.8545837402344;504.9771728515625;508.4507446289063;520.3596801757811;506.43927001953125
507;439.2097473144531;504.2861328125;507.7501525878906;519.6615600585939;505.7555236816406
508;438.5657653808594;503.5960388183594;507.0511169433594;518.9647216796875;505.0727233886719
509;437.9222106933594;502.9068603515625;506.3524169921875;518.268310546875;504.3902893066406
510;437.28009033203125;502.2185363769531;505.6554260253906;517.5728149414061;503.7087097167969
511;436.6388854980469;501.5306396484375;504.9593505859375;516.8787231445311;503.0279846191406
512;435.9981384277344;500.84368896484375;504.2642211914063;516.1849365234375;502.3481140136719
513;435.35870361328125;500.15765380859375;503.5694885253906;515.4920654296875;501.6691284179688
514;434.7197265625;499.4725341796875;502.8763427734375;514.800048828125;500.9915466308594
515;434.0821838378906;498.7887878417969;502.18365478515625;514.1089477539061;500.31475830078125
516;433.4450073242188;498.10540771484375;501.4925231933594;513.4187622070311;499.6387634277344
517;432.8088073730469;497.4230041503906;500.80224609375;512.7294921875;498.9632263183594
518;432.1734924316406;496.7414245605469;500.1124572753906;512.0415649414061;498.2886047363281
519;431.53900146484375;496.0608825683594;499.4237060546875;511.3544921875;497.6147155761719
520;430.9055480957031;495.3811340332031;498.73583984375;510.6683044433594;496.9417419433594
521;430.27288818359375;494.7023620605469;498.0489501953125;509.982421875;496.2700500488281
522;429.6416015625;494.0244140625;497.3634948730469;509.2975158691406;495.5987548828125
523;429.0107727050781;493.3473815917969;496.6785888671875;508.6134033203125;494.9288330078125
524;428.38079833984375;492.6712341308594;495.99505615234375;507.9306640625;494.25970458984375
525;427.7522277832031;491.9959716796875;495.3125;507.2483215332031;493.5909423828125
526;427.1245422363281;491.3221130371094;494.6309814453125;506.5672607421875;492.9235229492188
527;426.4972229003906;490.6486511230469;493.9504089355469;505.88720703125;492.25689697265625
528;425.8708190917969;489.97607421875;493.2707824707031;505.20794677734375;491.5912170410156
529;425.2458190917969;489.3049011230469;492.5920715332031;504.5290222167969;490.9262390136719
530;424.6211242675781;488.6345520019531;491.9143371582031;503.8515625;490.26171875
531;423.9973449707031;487.9651184082031;491.2375183105469;503.17431640625;489.59844970703125
532;423.37445068359375;487.2964477539063;490.56158447265625;502.49853515625;488.93560791015625
533;422.7524108886719;486.6282958984375;489.88616943359375;501.8235168457031;488.2735595703125
534;422.1316833496094;485.9614868164063;489.2121276855469;501.14935302734375;487.6128234863281
535;421.5118713378906;485.2951354980469;488.5390625;500.4761352539063;486.9524230957031
536;420.8928527832031;484.6296081542969;487.8668212890625;499.8035888671875;486.2933654785156
537;420.27471923828125;483.9653930664063;487.1950988769531;499.1320495605469;485.6351013183594
538;419.6570129394531;483.3020935058594;486.5247802734375;498.4612731933594;484.9772033691406
539;419.0401916503906;482.63909912109375;485.8553466796875;497.7913818359375;484.3200988769531
540;418.42462158203125;481.97698974609375;485.1867980957031;497.1218566894531;483.66387939453125
541;417.8095397949219;481.3162841796875;484.5191650390625;496.4536743164063;483.0084533691406
542;417.1953125;480.6564025878906;483.85247802734375;495.7862854003906;482.35382080078125
543;416.5819396972656;479.99700927734375;483.1866455078125;495.1192932128906;481.7000732421875
544;415.96978759765625;479.33837890625;482.5212707519531;494.45361328125;481.0471496582031
545;415.3581237792969;478.68060302734375;481.8567810058594;493.7882995605469;480.39544677734375
546;414.7472839355469;478.0237731933594;481.1936950683594;493.1242980957031;479.74456787109375
547;414.1376953125;477.36767578125;480.5315246582031;492.4610900878906;479.09454345703125
548;413.5285339355469;476.7125244140625;479.87017822265625;491.7987060546875;478.44482421875
549;412.9206237792969;476.05865478515625;479.2093200683594;491.1372680664063;477.79638671875
550;412.3132019042969;475.4051513671875;478.5496826171875;490.47650146484375;477.1483154296875
551;411.70697021484375;474.7525634765625;477.89056396484375;489.8166198730469;476.50103759765625
552;411.1012268066406;474.1007995605469;477.23236083984375;489.15716552734375;475.8550415039063
553;410.4962768554688;473.4503173828125;476.5754699707031;488.49853515625;475.2094421386719
554;409.8921508789063;472.8001708984375;475.91943359375;487.8406982421875;474.5650329589844
555;409.2889099121094;472.1514892578125;475.2643127441406;487.18402099609375;473.9210205078125
556;408.68646240234375;471.5034790039063;474.6100769042969;486.5283203125;473.2783203125
557;408.08489990234375;470.85589599609375;473.9562072753906;485.8734130859375;472.6358337402344
558;407.484130859375;470.2096862792969;473.3037109375;485.2193603515625;471.99420166015625
559;406.8845520019531;469.5642395019531;472.6520080566406;484.5659790039063;471.3533935546875
560;406.285888671875;468.9195861816406;472.0012512207031;483.91314697265625;470.7138671875
561;405.6876525878906;468.27587890625;471.3509216308594;483.2610778808594;470.0750427246094
562;405.0902404785156;467.6324768066406;470.7018737792969;482.6102294921875;469.4366455078125
563;404.4936218261719;466.9904479980469;470.0532836914063;481.9597473144531;468.7994079589844
564;403.8982238769531;466.3491821289063;469.4059143066406;481.310546875;468.1625671386719
565;403.3032836914063;465.7087707519531;468.7594909667969;480.66217041015625;467.5269470214844
566;402.7091369628906;465.0687255859375;468.1138916015625;480.0145263671875;466.8917236328125
567;402.1157836914063;464.4299011230469;467.46868896484375;479.3673400878906;466.2573547363281
568;401.5236511230469;463.79193115234375;466.8244323730469;478.7209167480469;465.6240234375
569;400.9324035644531;463.1548461914063;466.1813659667969;478.0758056640625;464.9916076660156
570;400.3418884277344;462.51849365234375;465.5391845703125;477.4314270019531;464.3599548339844
571;399.7518005371094;461.8830871582031;464.89788818359375;476.7878112792969;463.7286376953125
572;399.16259765625;461.24798583984375;464.2573852539063;476.1446533203125;463.09857177734375
573;398.5745544433594;460.61370849609375;463.6173095703125;475.5027160644531;462.4688720703125
574;397.9869689941406;459.9807434082031;462.9781494140625;474.8611755371094;461.83984375
575;397.4005432128906;459.3484802246094;462.3401184082031;474.2203674316406;461.2117919921875
576;396.81451416015625;458.7171325683594;461.70257568359375;473.5804138183594;460.5843811035156
577;396.2296752929688;458.0865478515625;461.06634521484375;472.9411926269531;459.9581909179688
578;395.6452941894531;457.4567565917969;460.4309387207031;472.3028564453125;459.3323669433594
579;395.0620727539063;456.8277893066406;459.79632568359375;471.6656799316406;458.7077331542969
580;394.47930908203125;456.1995849609375;459.16259765625;471.02923583984375;458.08349609375
581;393.8973693847656;455.572265625;458.529296875;470.3937072753906;457.4604187011719
582;393.3161926269531;454.94573974609375;457.8967590332031;469.75885009765625;456.8381652832031
583;392.7361145019531;454.3199768066406;457.2655029296875;469.1248474121094;456.21661376953125
584;392.1569213867188;453.6947021484375;456.6351013183594;468.4915771484375;455.5958251953125
585;391.5780334472656;453.0701904296875;456.0055236816406;467.8587341308594;454.9754943847656
586;391.00042724609375;452.4468383789063;455.3767395019531;467.22705078125;454.3563232421875
587;390.4235534667969;451.8240051269531;454.7488098144531;466.59619140625;453.7374267578125
588;389.8474426269531;451.2018432617188;454.1217041015625;465.9656982421875;453.1198120117188
589;389.2721862792969;450.5809020996094;453.4949951171875;465.33599853515625;452.5024719238281
590;388.697265625;449.9604187011719;452.869140625;464.70745849609375;451.8863830566406
591;388.1231994628906;449.3410949707031;452.2445068359375;464.0797119140625;451.2710876464844
592;387.55029296875;448.72216796875;451.6202392578125;463.4526977539063;450.6564331054688
593;386.9778137207031;448.10443115234375;450.9972229003906;462.8265380859375;450.0426330566406
594;386.4064025878906;447.4874572753906;450.3746337890625;462.2008056640625;449.4295959472656
595;385.83544921875;446.871337890625;449.7532958984375;461.5757446289063;448.8169555664063
596;385.2652893066406;446.2559814453125;449.1326599121094;460.9518127441406;448.20550537109375
597;384.6958618164063;445.6410217285156;448.5125427246094;460.3283386230469;447.5943908691406
598;384.1272888183594;445.02685546875;447.8935546875;459.7060546875;446.984375
599;383.559814453125;444.41351318359375;447.2750549316406;459.08447265625;446.3752136230469
600;382.9927368164063;443.8009033203125;446.6573486328125;458.46331787109375;445.7667236328125
601;382.42681884765625;443.1894226074219;446.0404052734375;457.8433227539063;445.1587219238281
602;381.8612976074219;442.5787658691406;445.4247131347656;457.2239990234375;444.5514221191406
603;381.2969055175781;441.9689025878906;444.8094177246094;456.6055908203125;443.9453125
604;380.7329406738281;441.3594665527344;444.1949462890625;455.9875183105469;443.33990478515625
605;380.1700744628906;440.7511291503906;443.5815734863281;455.37054443359375;442.7352600097656
606;379.6079711914063;440.1432189941406;442.9690856933594;454.7539978027344;442.1313781738281
607;379.0462951660156;439.5364685058594;442.35736083984375;454.1385498046875;441.5279235839844
608;378.4853210449219;438.9301452636719;441.7463684082031;453.5235595703125;440.9251403808594
609;377.925537109375;438.3249206542969;441.13623046875;452.9092712402344;440.3231201171875
610;377.366455078125;437.7205505371094;440.5265502929688;452.2960815429688;439.7221984863281
611;376.8081665039063;437.1169128417969;439.9176025390625;451.6837158203125;439.1216735839844
612;376.2507019042969;436.5140075683594;439.30950927734375;451.0716552734375;438.5219421386719
613;375.6935729980469;435.91192626953125;438.7025451660156;450.4604797363281;437.9229736328125
614;375.13751220703125;435.31060791015625;438.0963439941406;449.8503112792969;437.3246765136719
615;374.5822448730469;434.7096557617188;437.490966796875;449.240966796875;436.7272033691406
616;374.0274963378906;434.10986328125;436.8863525390625;448.6319580078125;436.13067626953125
617;373.4733581542969;433.5108642578125;436.2821960449219;448.0238037109375;435.53497314453125
618;372.91998291015625;432.9125671386719;435.6791687011719;447.4166564941406;434.9396362304688
619;372.3674621582031;432.31475830078125;435.0765380859375;446.8099365234375;434.34552001953125
620;371.8156127929688;431.7181091308594;434.47503662109375;446.2043151855469;433.751953125
621;371.2646179199219;431.1217956542969;433.87396240234375;445.5990905761719;433.15924072265625
622;370.7142639160156;430.5265808105469;433.27374267578125;444.9949951171875;432.56719970703125
623;370.1650085449219;429.9317932128906;432.6745300292969;444.3916015625;431.9759521484375
624;369.61651611328125;429.33782958984375;432.0762023925781;443.7886352539063;431.3853454589844
625;369.06878662109375;428.74456787109375;431.4783020019531;443.1867370605469;430.7952575683594
626;368.52142333984375;428.152099609375;430.881103515625;442.58526611328125;430.20611572265625
627;367.97509765625;427.5604248046875;430.2847595214844;441.9844970703125;429.6173706054688
628;367.42919921875;426.969482421875;429.6891174316406;441.384521484375;429.02978515625
629;366.8840637207031;426.3797302246094;429.0942687988281;440.78521728515625;428.44281005859375
630;366.3396911621094;425.7906494140625;428.5002136230469;440.1866760253906;427.8565979003906
631;365.79638671875;425.2023620605469;427.9068603515625;439.5888977050781;427.2711486816406
632;365.25341796875;424.6148376464844;427.3143310546875;438.9918518066406;426.6864318847656
633;364.7112731933594;424.0280456542969;426.7225036621094;438.39593505859375;426.1024169921875
634;364.16986083984375;423.44171142578125;426.1318359375;437.80029296875;425.5191345214844
635;363.6295471191406;422.8560791015625;425.5419616699219;437.2055358886719;424.93646240234375
636;363.0895385742188;422.2711791992188;424.9528198242188;436.6116943359375;424.35455322265625
637;362.5505676269531;421.6871337890625;424.3641052246094;436.0186462402344;423.7734680175781
638;362.0120544433594;421.1041259765625;423.7760925292969;435.4263305664063;423.1927490234375
639;361.474609375;420.5215759277344;423.1888732910156;434.83441162109375;422.6126403808594
640;360.9378967285156;419.9397277832031;422.6024169921875;434.24359130859375;422.03326416015625
641;360.40185546875;419.3589172363281;422.0171203613281;433.6534729003906;421.4546813964844
642;359.8666076660156;418.778564453125;421.4321899414063;433.0640563964844;420.8771362304688
643;359.33172607421875;418.1989440917969;420.8482971191406;432.47509765625;420.30023193359375
644;358.7978515625;417.62042236328125;420.26513671875;431.8871154785156;419.7240905761719
645;358.2644348144531;417.0423278808594;419.6825256347656;431.2995910644531;419.1485595703125
646;357.7320861816406;416.46490478515625;419.1006164550781;430.7127380371094;418.5738220214844
647;357.2001037597656;415.8885498046875;418.5194091796875;430.1269226074219;417.9994812011719
648;356.6691589355469;415.31298828125;417.9390258789063;429.5415649414063;417.4258728027344
649;356.138916015625;414.7381591796875;417.3596496582031;428.9572448730469;416.8529052734375
650;355.6093444824219;414.1636962890625;416.78070068359375;428.373291015625;416.2806701660156
651;355.08056640625;413.5899963378906;416.2024841308594;427.79010009765625;415.7094421386719
652;354.55218505859375;413.017333984375;415.6250915527344;427.20794677734375;415.1388549804688
653;354.02484130859375;412.4454040527344;415.0483703613281;426.6261291503906;414.5690612792969
654;353.49810791015625;411.8741760253906;414.472412109375;426.0453796386719;413.9996643066406
655;352.97216796875;411.3037109375;413.8971862792969;425.4650268554688;413.4309387207031
656;352.4469909667969;410.73370361328125;413.32269287109375;424.8853759765625;412.8628234863281
657;351.92242431640625;410.16436767578125;412.74896240234375;424.3067932128906;412.2955627441406
658;351.3982849121094;409.5960693359375;412.1762390136719;423.7286071777344;411.7291870117188
659;350.8749694824219;409.0284423828125;411.6043395996094;423.1510925292969;411.1636352539063
660;350.35223388671875;408.4613037109375;411.0330810546875;422.5746154785156;410.5986328125
661;349.8302917480469;407.8948974609375;410.46234130859375;421.9985656738281;410.0343627929688
662;349.3092956542969;407.3294677734375;409.892578125;421.4234924316406;409.4705810546875
663;348.78900146484375;406.76446533203125;409.3232727050781;420.8488464355469;408.9074096679688
664;348.2694396972656;406.2002258300781;408.7546691894531;420.27490234375;408.3449401855469
665;347.750244140625;405.63665771484375;408.1870727539063;419.7016906738281;407.7834777832031
666;347.2317810058594;405.0740661621094;407.6202697753906;419.1294555664063;407.22271728515625
667;346.7143249511719;404.5119323730469;407.0538330078125;418.55792236328125;406.6622924804688
668;346.1975402832031;403.9508056640625;406.4881591796875;417.9867858886719;406.10260009765625
669;345.68121337890625;403.39044189453125;405.92315673828125;417.4166870117188;405.5439453125
670;345.1658020019531;402.8306884765625;405.3592529296875;416.8469543457031;404.9858703613281
671;344.651123046875;402.27142333984375;404.7960815429688;416.27825927734375;404.4282836914063
672;344.13714599609375;401.7128601074219;404.2336120605469;415.7102355957031;403.8713684082031
673;343.6238098144531;401.1552429199219;403.6715087890625;415.142578125;403.31536865234375
674;343.1112365722656;400.598388671875;403.11016845703125;414.5760192871094;402.7601013183594
675;342.5993347167969;400.042236328125;402.5498352050781;414.0097351074219;402.20550537109375
676;342.0878601074219;399.4867858886719;401.9898986816406;413.4445495605469;401.6515197753906
677;341.57733154296875;398.9320068359375;401.4307556152344;412.8800048828125;401.0980224609375
678;341.06719970703125;398.3779602050781;400.87255859375;412.3161315917969;400.5454406738281
679;340.55780029296875;397.8246154785156;400.3150634765625;411.7530212402344;399.9936218261719
680;340.0493469238281;397.271728515625;399.7583312988281;411.1905517578125;399.4420776367188
681;339.5412902832031;396.7194519042969;399.2022705078125;410.6285400390625;398.8912658691406
682;339.0341796875;396.16796875;398.6466979980469;410.0674743652344;398.3414306640625
683;338.52783203125;395.6170959472656;398.091796875;409.50677490234375;397.79229736328125
684;338.0220642089844;395.0670166015625;397.5375671386719;408.9470520019531;397.2438049316406
685;337.5170593261719;394.517822265625;396.9840698242188;408.3878173828125;396.6959533691406
686;337.0127258300781;393.9693908691406;396.4316711425781;407.8291931152344;396.1485595703125
687;336.509033203125;393.4215698242188;395.8798522949219;407.2716064453125;395.6020812988281
688;336.0060729980469;392.874267578125;395.3287658691406;406.71466064453125;395.05596923828125
689;335.5037536621094;392.32757568359375;394.7781066894531;406.1581115722656;394.5106201171875
690;335.0019226074219;391.7818603515625;394.22845458984375;405.6022644042969;393.96612548828125
691;334.5009765625;391.2369384765625;393.6792602539063;405.0473327636719;393.4223327636719
692;334.00042724609375;390.69232177734375;393.1307067871094;404.4928283691406;392.8791809082031
693;333.50079345703125;390.1484375;392.5828552246094;403.9393310546875;392.3367919921875
694;333.0019226074219;389.60552978515625;392.03594970703125;403.386474609375;391.7950439453125
695;332.5036315917969;389.0629577636719;391.4898376464844;402.8343505859375;391.25390625
696;332.005859375;388.52142333984375;390.9440002441406;402.2825927734375;390.7132263183594
697;331.5089416503906;387.9805603027344;390.3990173339844;401.7315673828125;390.17315673828125
698;331.01251220703125;387.4400634765625;389.85491943359375;401.18145751953125;389.6337890625
699;330.5166931152344;386.9005737304688;389.3113098144531;400.63165283203125;389.0950012207031
700;330.02178955078125;386.3614501953125;388.7685852050781;400.0826110839844;388.5572814941406
701;329.5276184082031;385.8231201171875;388.2266540527344;399.5345153808594;388.0198974609375
702;329.0337829589844;385.28564453125;387.68505859375;398.9868774414063;387.4833984375
703;328.5409240722656;384.7488708496094;387.1441955566406;398.4398498535156;386.94732666015625
704;328.0484924316406;384.2125244140625;386.6040344238281;397.8935241699219;386.41217041015625
705;327.556640625;383.6770935058594;386.0645446777344;397.3480529785156;385.8774719238281
706;327.0658264160156;383.1423034667969;385.5260009765625;396.8033142089844;385.3433532714844
707;326.57537841796875;382.6083068847656;384.9881286621094;396.25927734375;384.8099365234375
708;326.0855407714844;382.0748596191406;384.4510192871094;395.7158508300781;384.27740478515625
709;325.5966491699219;381.5421752929688;383.9145202636719;395.17315673828125;383.7455749511719
710;325.10845947265625;381.0099182128906;383.3785095214844;394.6308288574219;383.2141418457031
711;324.620849609375;380.47857666015625;382.8431091308594;394.0893859863281;382.6835632324219
712;324.1339416503906;379.94757080078125;382.3087158203125;393.5487060546875;382.1534423828125
713;323.6477355957031;379.4176025390625;381.7746887207031;393.0086669921875;381.6242065429688
714;323.162109375;378.8882141113281;381.2416687011719;392.4690246582031;381.095703125
715;322.6769104003906;378.3592529296875;380.7091064453125;391.9302978515625;380.5677185058594
716;322.1926574707031;377.8310241699219;380.1773376464844;391.3919677734375;380.0404357910156
717;321.7088317871094;377.3033752441406;379.6461181640625;390.85430908203125;379.5137939453125
718;321.2255859375;376.7764892578125;379.1157531738281;390.3172912597656;378.98779296875
719;320.74322509765625;376.250244140625;378.5858154296875;389.7812194824219;378.4622497558594
720;320.2616271972656;375.7246398925781;378.056884765625;389.2457885742188;377.93756103515625
721;319.7806091308594;375.19970703125;377.5283508300781;388.7108154296875;377.4132080078125
722;319.30023193359375;374.67572021484375;377.0006713867188;388.17669677734375;376.8898315429688
723;318.820556640625;374.15234375;376.4734802246094;387.64300537109375;376.3669128417969
724;318.3415222167969;373.6294860839844;375.9471740722656;387.1099853515625;375.84478759765625
725;317.86285400390625;373.107177734375;375.4215698242188;386.57757568359375;375.3230895996094
726;317.3848571777344;372.5855712890625;374.89642333984375;386.0458679199219;374.8022766113281
727;316.9075622558594;372.0649108886719;374.37188720703125;385.5151062011719;374.2818298339844
728;316.43084716796875;371.5447998046875;373.8480529785156;384.9848937988281;373.7621154785156
729;315.9550476074219;371.0251770019531;373.3248596191406;384.4554443359375;373.24298095703125
730;315.4798889160156;370.5064697265625;372.8025817871094;383.9263000488281;372.7247009277344
731;315.00531005859375;369.9884033203125;372.2808227539063;383.3980712890625;372.2071533203125
732;314.53125;369.4710388183594;371.7598571777344;382.87054443359375;371.6901245117188
733;314.0577697753906;368.95404052734375;371.2395935058594;382.3436279296875;371.17388916015625
734;313.58514404296875;368.43792724609375;370.7197265625;381.817138671875;370.6578674316406
735;313.11297607421875;367.9222412109375;370.2005615234375;381.2912902832031;370.14288330078125
736;312.6413879394531;367.4071960449219;369.6822814941406;380.766357421875;369.6284484863281
737;312.1705627441406;366.8930969238281;369.1643981933594;380.2418212890625;369.11468505859375
738;311.70025634765625;366.3795166015625;368.6474914550781;379.7179260253906;368.6012878417969
739;311.23065185546875;365.8665466308594;368.1312255859375;379.1948852539063;368.0888671875
740;310.7618713378906;365.35430908203125;367.61529541015625;378.6725769042969;367.57696533203125
741;310.29351806640625;364.8425598144531;367.1003723144531;378.1507568359375;367.0657043457031
742;309.8257751464844;364.3316650390625;366.5860595703125;377.6297607421875;366.5548706054688
743;309.3587951660156;363.8214416503906;366.0721130371094;377.1093444824219;366.044921875
744;308.89251708984375;363.3118896484375;365.55889892578125;376.5895385742188;365.5353088378906
745;308.4267272949219;362.80267333984375;365.0465393066406;376.0704040527344;365.0263977050781
746;307.9617614746094;362.2941589355469;364.5348815917969;375.5516662597656;364.5182800292969
747;307.4974060058594;361.7862548828125;364.0235900878906;375.03350830078125;364.0106506347656
748;307.03350830078125;361.2790222167969;363.5130310058594;374.51611328125;363.5035400390625
749;306.57025146484375;360.7726745605469;363.0032653808594;373.9994812011719;362.99713134765625
750;306.1075744628906;360.2667236328125;362.4939270019531;373.4835205078125;362.4915771484375
751;305.6457824707031;359.7614440917969;361.9852600097656;372.96820068359375;361.9866638183594
752;305.1844177246094;359.2567138671875;361.4772644042969;372.4533386230469;361.4822998046875
753;304.7238464355469;358.75274658203125;360.9701843261719;371.9393005371094;360.97857666015625
754;304.263916015625;358.24957275390625;360.4634094238281;371.4259033203125;360.47552490234375
755;303.8045959472656;357.74700927734375;359.95733642578125;370.9130859375;359.97283935546875
756;303.34588623046875;357.2449035644531;359.45220947265625;370.4007263183594;359.4707946777344
757;302.88787841796875;356.74371337890625;358.9473876953125;369.8890075683594;358.9693908691406
758;302.43017578125;356.2430419921875;358.4432373046875;369.3781433105469;358.46881103515625
759;301.9732360839844;355.7430725097656;357.9398193359375;368.8676452636719;357.9688415527344
760;301.51702880859375;355.2437744140625;357.43695068359375;368.3580322265625;357.4694519042969
761;301.0614929199219;354.7450866699219;356.93499755859375;367.8488464355469;356.9705810546875
762;300.6062927246094;354.2467956542969;356.43365478515625;367.34027099609375;356.47247314453125
763;300.1520080566406;353.7491455078125;355.9327392578125;366.8323059082031;355.9750061035156
764;299.6982727050781;353.2520751953125;355.4324951171875;366.32525634765625;355.4779357910156
765;299.24493408203125;352.75592041015625;354.9330749511719;365.8187255859375;354.9816589355469
766;298.79248046875;352.2601318359375;354.43414306640625;365.31292724609375;354.4859924316406
767;298.34063720703125;351.7650146484375;353.93597412109375;364.8075256347656;353.9907531738281
768;297.8893737792969;351.2707214355469;353.43829345703125;364.3029479980469;353.4963684082031
769;297.43853759765625;350.777099609375;352.94140625;363.79876708984375;353.0023498535156
770;296.98828125;350.2840576171875;352.4451904296875;363.29522705078125;352.5091857910156
771;296.5389099121094;349.7916259765625;351.9495849609375;362.7925415039063;352.0166015625
772;296.090087890625;349.2998352050781;351.4543762207031;362.2904052734375;351.5244140625
773;295.6417541503906;348.8087158203125;350.9601135253906;361.7889404296875;351.0330810546875
774;295.1940002441406;348.3182067871094;350.4664306640625;361.2881164550781;350.5423889160156
775;294.746826171875;347.8282775878906;349.9733581542969;360.7878723144531;350.0520324707031
776;294.30029296875;347.3389892578125;349.4809265136719;360.2882995605469;349.5625
777;293.8544921875;346.8501281738281;348.9889221191406;359.78924560546875;349.0733947753906
778;293.4091796875;346.362060546875;348.4977722167969;359.2906494140625;348.5851135253906
779;292.9646301269531;345.87469482421875;348.0072021484375;358.7927551269531;348.09722900390625
780;292.5205383300781;345.38787841796875;347.517333984375;358.2953796386719;347.6101379394531
781;292.0772399902344;344.9014892578125;347.0280456542969;357.7986755371094;347.1236267089844
782;291.634521484375;344.4158935546875;346.5393981933594;357.3027648925781;346.63763427734375
783;291.1924133300781;343.9307861328125;346.0511474609375;356.8074951171875;346.15228271484375
784;290.7507019042969;343.4463195800781;345.5637512207031;356.3125915527344;345.66766357421875
785;290.309814453125;342.96258544921875;345.07696533203125;355.8183898925781;345.1833801269531
786;289.86932373046875;342.47930908203125;344.5908508300781;355.3247375488281;344.6999206542969
787;289.4294128417969;341.9968566894531;344.10528564453125;354.8316650390625;344.2168884277344
788;288.99017333984375;341.5148010253906;343.6201477050781;354.3392333984375;343.7346496582031
789;288.5516662597656;341.0335693359375;343.13568115234375;353.84765625;343.25299072265625
790;288.1137390136719;340.55291748046875;342.6520080566406;353.3564758300781;342.7717590332031
791;287.6764831542969;340.0727233886719;342.1689453125;352.8658447265625;342.29132080078125
792;287.23974609375;339.5932922363281;341.6865539550781;352.3760681152344;341.8112487792969
793;286.8034973144531;339.11431884765625;341.2047119140625;351.8867492675781;341.33203125
794;286.36798095703125;338.63616943359375;340.72332763671875;351.3982238769531;340.8531494140625
795;285.9330749511719;338.1585693359375;340.2427978515625;350.9100341796875;340.37493896484375
796;285.49859619140625;337.6814270019531;339.76263427734375;350.4224853515625;339.89727783203125
797;285.0646667480469;337.20489501953125;339.2832946777344;349.9357604980469;339.4203796386719
798;284.63153076171875;336.7289123535156;338.8045349121094;349.44940185546875;338.94415283203125
799;284.198974609375;336.25384521484375;338.3263854980469;348.96392822265625;338.46844482421875
800;283.7668762207031;335.7790832519531;337.8489074707031;348.4789733886719;337.9933776855469
801;283.3352966308594;335.3052062988281;337.37188720703125;347.9945068359375;337.5186767578125
802;282.9043884277344;334.8316955566406;336.89532470703125;347.5105895996094;337.0447998046875
803;282.4740295410156;334.3587646484375;336.41949462890625;347.02728271484375;336.57147216796875
804;282.0443420410156;333.8864440917969;335.94439697265625;346.5447692871094;336.0987854003906
805;281.6151428222656;333.4148254394531;335.4700012207031;346.0626220703125;335.62646484375
806;281.186767578125;332.9438781738281;334.9961242675781;345.58111572265625;335.1549377441406
807;280.7587280273437;332.4733581542969;334.5226745605469;345.1002502441406;334.68402099609375
808;280.33135986328125;332.0035095214844;334.0499267578125;344.6200866699219;334.2134704589844
809;279.904541015625;331.5344543457031;333.5777587890625;344.140380859375;333.7434997558594
810;279.47830200195307;331.0659484863281;333.1063232421875;343.6614990234375;333.27410888671875
811;279.05264282226557;330.5978088378906;332.63531494140625;343.1829833984375;332.8055419921875
812;278.62759399414057;330.1303405761719;332.1649169921875;342.7052307128906;332.3375549316406
813;278.20327758789057;329.6634521484375;331.69512939453125;342.2279052734375;331.8699645996094
814;277.77938842773443;329.1973876953125;331.2261962890625;341.7512512207031;331.4031677246094
815;277.35610961914057;328.73162841796875;330.757568359375;341.2752990722656;330.9366760253906
816;276.93338012695307;328.2667236328125;330.28961181640625;340.7997741699219;330.4710693359375
817;276.51119995117193;327.8023986816406;329.8223876953125;340.3248291015625;330.0059509277344
818;276.0897827148437;327.3385009765625;329.3558349609375;339.85052490234375;329.5412902832031
819;275.66897583007807;326.8753967285156;328.8896789550781;339.37677001953125;329.0774230957031
820;275.24856567382807;326.412841796875;328.4241027832031;338.90362548828125;328.61407470703125
821;274.8287353515625;325.9507751464844;327.9591064453125;338.4312744140625;328.15130615234375
822;274.40948486328125;325.4893798828125;327.4949645996094;337.95941162109375;327.68914794921875
823;273.99081420898443;325.0284729003906;327.0313720703125;337.48828125;327.2274169921875
824;273.57272338867193;324.568115234375;326.5683898925781;337.0174560546875;326.7662048339844
825;273.15530395507807;324.1085510253906;326.10595703125;336.5472717285156;326.30560302734375
826;272.73855590820307;323.6493835449219;325.6441650390625;336.0776672363281;325.84576416015625
827;272.3222045898437;323.1908264160156;325.1827697753906;335.608642578125;325.3862609863281
828;271.90634155273443;322.7330322265625;324.72216796875;335.1404113769531;324.9273986816406
829;271.4911499023437;322.2757873535156;324.2621154785156;334.6724853515625;324.4691162109375
830;271.07662963867193;321.81903076171875;323.80255126953125;334.20526123046875;324.0115966796875
831;270.66275024414057;321.36297607421875;323.34368896484375;333.7386169433594;323.5545959472656
832;270.24935913085943;320.9073791503906;322.8852844238281;333.27264404296875;323.0980529785156
833;269.83645629882807;320.45245361328125;322.427490234375;332.80712890625;322.6422119140625
834;269.42404174804693;319.9981384277344;321.97039794921875;332.3423767089844;322.18701171875
835;269.01226806640625;319.5444641113281;321.5139465332031;331.8782653808594;321.7321472167969
836;268.60116577148443;319.09136962890625;321.0578918457031;331.41461181640625;321.27789306640625
837;268.190673828125;318.6388244628906;320.6025390625;330.9514465332031;320.8243408203125
838;267.78073120117193;318.1868896484375;320.1476745605469;330.4888610839844;320.3713684082031
839;267.37118530273443;317.73529052734375;319.6935119628906;330.0269775390625;319.9189453125
840;266.96243286132807;317.28436279296875;319.24005126953125;329.5655517578125;319.46697998046875
841;266.55416870117193;316.8339538574219;318.786865234375;329.1046447753906;319.0157470703125
842;266.14627075195307;316.38433837890625;318.3343505859375;328.6445007324219;318.5650329589844
843;265.73916625976557;315.935302734375;317.8823547363281;328.1848449707031;318.11492919921875
844;265.3326416015625;315.4868469238281;317.4309997558594;327.72589111328125;317.66546630859375
845;264.92648315429693;315.0389709472656;316.9801940917969;327.2673034667969;317.2162780761719
846;264.52108764648443;314.5914306640625;316.53021240234375;326.80950927734375;316.7678527832031
847;264.1161499023437;314.1446838378906;316.08074951171875;326.35211181640625;316.3200378417969
848;263.71170043945307;313.69842529296875;315.6317138671875;325.8952941894531;315.8727722167969
849;263.30795288085943;313.2525939941406;315.1834411621094;325.4391784667969;315.42584228515625
850;262.90460205078125;312.8076477050781;314.7357177734375;324.9836730957031;314.9797058105469
851;262.501953125;312.36322021484375;314.2884521484375;324.5287170410156;314.53411865234375
852;262.09988403320307;311.9193420410156;313.8416748046875;324.0742492675781;314.0889892578125
853;261.69833374023443;311.47589111328125;313.3957214355469;323.62042236328125;313.6443786621094
854;261.29739379882807;311.0329895019531;312.95013427734375;323.1671447753906;313.20025634765625
855;260.89682006835943;310.59088134765625;312.5052795410156;322.7145080566406;312.75677490234375
856;260.49697875976557;310.1491394042969;312.0611267089844;322.262451171875;312.31402587890625
857;260.09768676757807;309.7080078125;311.6174621582031;321.81072998046875;311.87164306640625
858;259.69894409179693;309.267578125;311.17413330078125;321.3596496582031;311.42999267578125
859;259.30056762695307;308.8277282714844;310.7315979003906;320.90911865234375;310.9887390136719
860;258.90292358398443;308.3883972167969;310.2896728515625;320.4593200683594;310.5481262207031
861;258.5057983398437;307.94976806640625;309.8481140136719;320.0098876953125;310.10821533203125
862;258.10910034179693;307.5114440917969;309.40716552734375;319.5611572265625;309.6687927246094
863;257.71298217773443;307.0738830566406;308.9667053222656;319.1131286621094;309.2299499511719
864;257.31741333007807;306.6368713378906;308.5269470214844;318.6653747558594;308.7915954589844
865;256.92254638671875;306.2004699707031;308.0876770019531;318.2183837890625;308.3538513183594
866;256.52804565429693;305.76446533203125;307.64898681640625;317.7718505859375;307.9165954589844
867;256.13424682617193;305.3289794921875;307.2110595703125;317.3260192871094;307.4800109863281
868;255.7409210205078;304.8942565917969;306.7736511230469;316.8804931640625;307.04388427734375
869;255.3481903076172;304.4601135253906;306.3367919921875;316.435791015625;306.6081848144531
870;254.95591735839844;304.0263366699219;305.90057373046875;315.9915771484375;306.1732177734375
871;254.5641326904297;303.59332275390625;305.4647216796875;315.5480041503906;305.73858642578125
872;254.1728973388672;303.1607360839844;305.0294494628906;315.10498046875;305.3045654296875
873;253.7822723388672;302.7286376953125;304.59490966796875;314.6624755859375;304.8712158203125
874;253.3922576904297;302.2972412109375;304.1609191894531;314.2205810546875;304.43841552734375
875;253.002685546875;301.86651611328125;303.72747802734375;313.7791442871094;304.0062255859375
876;252.6136932373047;301.43609619140625;303.29449462890625;313.3381652832031;303.5743408203125
877;252.22520446777344;301.0064697265625;302.86212158203125;312.8979797363281;303.14306640625
878;251.83724975585938;300.57720947265625;302.43035888671875;312.4582214355469;302.7123718261719
879;251.4500274658203;300.14849853515625;301.9990539550781;312.0189208984375;302.28216552734375
880;251.0631103515625;299.7203369140625;301.5684814453125;311.5803527832031;301.8526611328125
881;250.6769256591797;299.292724609375;301.1383972167969;311.1423034667969;301.4236145019531
882;250.2912750244141;298.8656311035156;300.70892333984375;310.7048034667969;300.99517822265625
883;249.90603637695312;298.43939208984375;300.2798156738281;310.2679138183594;300.56732177734375
884;249.521484375;298.01361083984375;299.8514099121094;309.83148193359375;300.1398620605469
885;249.1373443603516;297.5881652832031;299.42364501953125;309.3957214355469;299.7131042480469
886;248.7538146972656;297.16339111328125;298.996337890625;308.96044921875;299.2867431640625
887;248.3708648681641;296.7392272949219;298.5694885253906;308.5256042480469;298.86090087890625
888;247.9884490966797;296.31573486328125;298.1432189941406;308.09130859375;298.4355773925781
889;247.6064453125;295.8927001953125;297.7174072265625;307.65765380859375;298.0110778808594
890;247.22496032714844;295.47027587890625;297.29241943359375;307.2246398925781;297.5870361328125
891;246.843994140625;295.04833984375;296.8677978515625;306.7919616699219;297.16339111328125
892;246.46365356445312;294.6269836425781;296.4438171386719;306.3600158691406;296.740234375
893;246.0839385986328;294.2060241699219;296.02032470703125;305.92840576171875;296.31781005859375
894;245.7047271728516;293.78564453125;295.5973205566406;305.4975280761719;295.89581298828125
895;245.3260498046875;293.36572265625;295.17498779296875;305.0672302246094;295.4743957519531
896;244.94775390625;292.9464111328125;294.7532958984375;304.6374816894531;295.0534362792969
897;244.56997680664062;292.5276794433594;294.33197021484375;304.2082214355469;294.63299560546875
898;244.19284057617188;292.10943603515625;293.91119384765625;303.7794189453125;294.2132873535156
899;243.81629943847656;291.69171142578125;293.4911193847656;303.35125732421875;293.7939453125
900;243.4400634765625;291.27471923828125;293.0716552734375;302.9235534667969;293.3753356933594
901;243.06455993652344;290.8581848144531;292.65252685546875;302.4964904785156;292.9571838378906
902;242.689453125;290.4422607421875;292.2340087890625;302.0699768066406;292.5395812988281
903;242.31483459472656;290.0267333984375;291.8161926269531;301.64404296875;292.12255859375
904;241.9409027099609;289.6119384765625;291.39886474609375;301.2184753417969;291.7060546875
905;241.56739807128903;289.1975402832031;290.9819641113281;300.79345703125;291.2899475097656
906;241.1943664550781;288.7836608886719;290.5655517578125;300.3690185546875;290.8742980957031
907;240.822021484375;288.3703308105469;290.14971923828125;299.9451904296875;290.45941162109375
908;240.45016479492188;287.9576721191406;289.7344055175781;299.5219421386719;290.04498291015625
909;240.07872009277344;287.5455322265625;289.3197326660156;299.0990905761719;289.6311950683594
910;239.7079315185547;287.13385009765625;288.9056701660156;298.6768798828125;289.21783447265625
911;239.33750915527344;286.7228088378906;288.4921569824219;298.25531005859375;288.80487060546875
912;238.9676513671875;286.3122863769531;288.07916259765625;297.83404541015625;288.3926696777344
913;238.5982666015625;285.9023132324219;287.66668701171875;297.4133605957031;287.9808044433594
914;238.2295684814453;285.4927978515625;287.254638671875;296.99334716796875;287.5694274902344
915;237.861328125;285.0838623046875;286.8431396484375;296.5738525390625;287.1585998535156
916;237.49366760253903;284.67535400390625;286.43218994140625;296.15472412109375;286.74847412109375
917;237.1265106201172;284.267578125;286.0218811035156;295.7362060546875;286.33880615234375
918;236.75987243652344;283.86029052734375;285.6121826171875;295.3182678222656;285.9295959472656
919;236.3936309814453;283.4534912109375;285.2027587890625;294.9007873535156;285.5209045410156
920;236.0279083251953;283.0473327636719;284.7940368652344;294.4840087890625;285.1128234863281
921;235.662841796875;282.64166259765625;284.3857421875;294.0677490234375;284.7051696777344
922;235.29812622070312;282.236328125;283.97808837890625;293.6519775390625;284.2980041503906
923;234.93405151367188;281.8316650390625;283.5709228515625;293.2367248535156;283.8915710449219
924;234.5704803466797;281.4276123046875;283.16424560546875;292.8220520019531;283.48565673828125
925;234.2075042724609;281.02395629882807;282.75811767578125;292.4079284667969;283.0801696777344
926;233.8449249267578;280.62088012695307;282.3526611328125;291.9942626953125;282.6751708984375
927;233.4828186035156;280.2183837890625;281.9476623535156;291.5810852050781;282.2706298828125
928;233.12130737304688;279.81637573242193;281.5433044433594;291.1683654785156;281.86663818359375
929;232.76022338867188;279.41482543945307;281.139404296875;290.75634765625;281.46322631835943
930;232.39962768554688;279.013916015625;280.736083984375;290.3448486328125;281.06027221679693
931;232.0396728515625;278.61337280273443;280.33316040039057;289.93389892578125;280.6578369140625
932;231.68006896972656;278.2135009765625;279.93072509765625;289.5232849121094;280.25588989257807
933;231.321044921875;277.81417846679693;279.52886962890625;289.1134033203125;279.85464477539057
934;230.96255493164062;277.41534423828125;279.1275634765625;288.70391845703125;279.4539794921875
935;230.6046295166016;277.0169677734375;278.7266845703125;288.29498291015625;279.05374145507807
936;230.2472381591797;276.61917114257807;278.326416015625;287.886474609375;278.65390014648443
937;229.8903045654297;276.22177124023443;277.92666625976557;287.4786376953125;278.25460815429693
938;229.5337677001953;275.8250732421875;277.5274658203125;287.0712585449219;277.85580444335943
939;229.1778717041016;275.4288330078125;277.12872314453125;286.6644287109375;277.45748901367193
940;228.8223419189453;275.03317260742193;276.7305908203125;286.25811767578125;277.05975341796875
941;228.46749877929688;274.63790893554693;276.33291625976557;285.8522644042969;276.66250610351557
942;228.1129608154297;274.24325561523443;275.935791015625;285.4468994140625;276.2657470703125
943;227.7589569091797;273.84902954101557;275.5391845703125;285.0422668457031;275.86962890625
944;227.4054412841797;273.45529174804693;275.14306640625;284.637939453125;275.47409057617193
945;227.05247497558597;273.0621337890625;274.74755859375;284.2341613769531;275.07891845703125
946;226.6999664306641;272.66940307617193;274.3526611328125;283.8310852050781;274.68438720703125
947;226.34811401367188;272.2772827148437;273.9581298828125;283.4284362792969;274.29022216796875
948;225.9966125488281;271.88577270507807;273.56411743164057;283.0262451171875;273.89654541015625
949;225.64561462402344;271.4947509765625;273.17068481445307;282.6245422363281;273.50338745117193
950;225.29513549804688;271.10415649414057;272.7777099609375;282.2235107421875;273.11083984375
951;224.94517517089844;270.71401977539057;272.38543701171875;281.82293701171875;272.7188720703125
952;224.59567260742188;270.3245849609375;271.9935302734375;281.4229736328125;272.32742309570307
953;224.24668884277344;269.9356689453125;271.6021728515625;281.02346801757807;271.93643188476557
954;223.898193359375;269.54708862304693;271.21127319335943;280.62451171875;271.5458374023437
955;223.5503234863281;269.15921020507807;270.82101440429693;280.22607421875;271.15573120117193
956;223.2027587890625;268.77163696289057;270.43124389648443;279.828125;270.76611328125
957;222.85574340820312;268.38467407226557;270.0419921875;279.43069458007807;270.37713623046875
958;222.5093078613281;267.9981689453125;269.65322875976557;279.03378295898443;269.98861694335943
959;222.1632232666016;267.61233520507807;269.26495361328125;278.63726806640625;269.60055541992193
960;221.8178253173828;267.22695922851557;268.87713623046875;278.2413330078125;269.21295166015625
961;221.4727935791016;266.84201049804693;268.48989868164057;277.845947265625;268.825927734375
962;221.12828063964844;266.45770263671875;268.1031494140625;277.45095825195307;268.4393920898437
963;220.7842102050781;266.07379150390625;267.71694946289057;277.056640625;268.05349731445307
964;220.44070434570312;265.6904296875;267.33139038085943;276.66262817382807;267.66802978515625
965;220.0977325439453;265.3074951171875;266.9461669921875;276.269287109375;267.28311157226557
966;219.75515747070312;264.92514038085943;266.56143188476557;275.8763427734375;266.89859008789057
967;219.41310119628903;264.54318237304693;266.1773681640625;275.48403930664057;266.5145874023437
968;219.07151794433597;264.16189575195307;265.79391479492193;275.0922241210937;266.13104248046875
969;218.7304992675781;263.7811279296875;265.41070556640625;274.7008056640625;265.74801635742193
970;218.39002990722656;263.4007568359375;265.028076171875;274.30996704101557;265.3656005859375
971;218.0498962402344;263.0208740234375;264.64605712890625;273.91973876953125;264.98361206054693
972;217.7102813720703;262.6414794921875;264.2645263671875;273.52981567382807;264.60202026367193
973;217.37120056152344;262.2626342773437;263.8834228515625;273.14053344726557;264.22103881835943
974;217.03268432617188;261.88424682617193;263.5028076171875;272.75180053710943;263.84060668945307
975;216.69454956054688;261.50653076171875;263.12286376953125;272.36355590820307;263.4605712890625
976;216.3569183349609;261.12924194335943;262.74325561523443;271.97579956054693;263.0810546875
977;216.01980590820312;260.7525634765625;262.36416625976557;271.58843994140625;262.7021484375
978;215.6831817626953;260.3763427734375;261.98562622070307;271.2015380859375;262.3236083984375
979;215.3470916748047;260.00054931640625;261.60748291015625;270.81515502929693;261.94561767578125
980;215.01133728027344;259.62530517578125;261.2301025390625;270.42935180664057;261.56817626953125
981;214.6761016845703;259.25057983398443;260.85302734375;270.0439453125;261.19107055664057
982;214.34127807617188;258.87637329101557;260.4764404296875;269.6591186523437;260.81463623046875
983;214.00706481933597;258.5025634765625;260.10037231445307;269.27487182617193;260.43865966796875
984;213.6733703613281;258.12936401367193;259.72482299804693;268.89117431640625;260.06326293945307
985;213.340087890625;257.756591796875;259.34991455078125;268.5079345703125;259.68826293945307
986;213.00717163085938;257.38424682617193;258.975341796875;268.12509155273443;259.31381225585943
987;212.6747894287109;257.01251220703125;258.60140991210943;267.74285888671875;258.93984985351557
988;212.3429107666016;256.6412353515625;258.22793579101557;267.36099243164057;258.56625366210943
989;212.01161193847656;256.27053833007807;257.85501098632807;266.97976684570307;258.1932373046875
990;211.6806640625;255.900146484375;257.48245239257807;266.59890747070307;257.8207397460937
991;211.3502197265625;255.53038024902344;257.11044311523443;266.2186279296875;257.44869995117193
992;211.02024841308597;255.16099548339844;256.7388916015625;265.83877563476557;257.07720947265625
993;210.6908416748047;254.7921600341797;256.36795043945307;265.45947265625;256.70611572265625
994;210.3619079589844;254.42376708984372;255.9974822998047;265.08053588867193;256.33547973632807
995;210.03343200683597;254.05596923828125;255.6275177001953;264.70230102539057;255.96533203125
996;209.70545959472656;253.688720703125;255.258056640625;264.32455444335943;255.5957946777344
997;209.3779296875;253.3218536376953;254.88902282714844;263.9471435546875;255.22662353515625
998;209.0508117675781;252.9555969238281;254.5205383300781;263.57040405273443;254.85787963867188
999;208.7242889404297;252.58978271484372;254.15245056152344;263.19412231445307;254.4897766113281
