;fold_0;fold_1;fold_2;fold_3;fold_4
0;1333.58984375;1328.487060546875;1335.790771484375;1316.31396484375;1406.8843994140625
1;1332.727294921875;1327.61572265625;1334.723388671875;1315.65283203125;1405.9898681640625
2;1331.5784912109375;1326.445556640625;1333.66455078125;1314.8896484375;1404.79345703125
3;1330.5438232421875;1325.2757568359375;1332.6143798828125;1313.9996337890625;1403.6033935546875
4;1329.4168701171875;1324.17724609375;1331.63623046875;1313.1632080078125;1402.4200439453125
5;1328.301025390625;1323.056884765625;1330.6466064453125;1312.2705078125;1401.2928466796875
6;1327.2288818359375;1321.9200439453125;1329.65087890625;1311.40234375;1400.15625
7;1326.1561279296875;1320.77099609375;1328.63134765625;1310.5047607421875;1398.98974609375
8;1325.0693359375;1319.59521484375;1327.6180419921875;1309.6162109375;1397.828369140625
9;1323.9910888671875;1318.4161376953125;1326.619384765625;1308.7108154296875;1396.6820068359375
10;1322.920166015625;1317.23876953125;1325.6163330078125;1307.804443359375;1395.5296630859375
11;1321.857666015625;1316.052490234375;1324.6170654296875;1306.88916015625;1394.3809814453125
12;1320.7996826171875;1314.8583984375;1323.619384765625;1305.96484375;1393.2337646484375
13;1319.7430419921875;1313.65283203125;1322.625;1305.029052734375;1392.089599609375
14;1318.6885986328125;1312.4361572265625;1321.626708984375;1304.08203125;1390.94091796875
15;1317.6361083984375;1311.21533203125;1320.6270751953125;1303.1229248046875;1389.7904052734375
16;1316.5928955078125;1309.9827880859375;1319.62548828125;1302.150390625;1388.6458740234375
17;1315.5423583984375;1308.725830078125;1318.629638671875;1301.171875;1387.4989013671875
18;1314.491943359375;1307.4530029296875;1317.631103515625;1300.16943359375;1386.348388671875
19;1313.450927734375;1306.1751708984375;1316.6285400390625;1299.160400390625;1385.193115234375
20;1312.4093017578125;1304.865234375;1315.62158203125;1298.1231689453125;1384.019287109375
21;1311.354736328125;1303.54833984375;1314.60888671875;1297.0780029296875;1382.8502197265625
22;1310.308837890625;1302.19482421875;1313.5782470703125;1296.001220703125;1381.6588134765625
23;1309.259521484375;1300.8321533203125;1312.551513671875;1294.91455078125;1380.45654296875
24;1308.2059326171875;1299.4439697265625;1311.5164794921875;1293.7923583984375;1379.255859375
25;1307.134521484375;1298.0284423828125;1310.47216796875;1292.658203125;1378.0274658203125
26;1306.056396484375;1296.56640625;1309.4049072265625;1291.484619140625;1376.7835693359375
27;1304.970947265625;1295.090087890625;1308.32666015625;1290.2825927734375;1375.5372314453125
28;1303.8897705078125;1293.5809326171875;1307.23583984375;1289.0655517578125;1374.2578125
29;1302.799072265625;1292.018798828125;1306.144287109375;1287.802978515625;1372.9581298828125
30;1301.6846923828125;1290.419189453125;1305.0386962890625;1286.5228271484375;1371.63623046875
31;1300.571533203125;1288.7991943359375;1303.9178466796875;1285.192626953125;1370.3062744140625
32;1299.432373046875;1287.138427734375;1302.78076171875;1283.84228515625;1368.9510498046875
33;1298.2918701171875;1285.43505859375;1301.6129150390625;1282.4381103515625;1367.5687255859375
34;1297.1224365234375;1283.6865234375;1300.426513671875;1281.010009765625;1366.1575927734375
35;1295.9493408203125;1281.8704833984375;1299.233642578125;1279.5404052734375;1364.69921875
36;1294.7579345703125;1280.0247802734375;1298.0062255859375;1278.009765625;1363.2237548828125
37;1293.546875;1278.126953125;1296.7703857421875;1276.44970703125;1361.7132568359375
38;1292.314697265625;1276.1529541015625;1295.5111083984375;1274.8411865234375;1360.148193359375
39;1291.0596923828125;1274.12060546875;1294.21337890625;1273.1812744140625;1358.542724609375
40;1289.7803955078125;1272.0269775390625;1292.8895263671875;1271.449462890625;1356.9117431640625
41;1288.474853515625;1269.89208984375;1291.5380859375;1269.6597900390625;1355.2178955078125
42;1287.127685546875;1267.690673828125;1290.157470703125;1267.8292236328125;1353.4752197265625
43;1285.7503662109375;1265.396484375;1288.7462158203125;1265.935302734375;1351.69921875
44;1284.355712890625;1263.0517578125;1287.3170166015625;1263.97412109375;1349.8502197265625
45;1282.9132080078125;1260.605224609375;1285.8544921875;1261.92138671875;1347.9434814453125
46;1281.44921875;1258.10107421875;1284.3568115234375;1259.8135986328125;1345.9744873046875
47;1279.9329833984375;1255.5107421875;1282.80712890625;1257.62646484375;1343.9593505859375
48;1278.3763427734375;1252.8048095703125;1281.2330322265625;1255.3323974609375;1341.85546875
49;1276.7916259765625;1250.02880859375;1279.60302734375;1252.9476318359375;1339.6771240234375
50;1275.146728515625;1247.1258544921875;1277.929443359375;1250.4659423828125;1337.4202880859375
51;1273.4691162109375;1244.142333984375;1276.2099609375;1247.905029296875;1335.10107421875
52;1271.7408447265625;1241.047119140625;1274.4423828125;1245.211669921875;1332.69384765625
53;1269.9591064453125;1237.8048095703125;1272.6241455078125;1242.42626953125;1330.170654296875
54;1268.1204833984375;1234.4647216796875;1270.7681884765625;1239.51806640625;1327.5689697265625
55;1266.2216796875;1230.9617919921875;1268.84033203125;1236.4815673828125;1324.8612060546875
56;1264.2420654296875;1227.34716796875;1266.8525390625;1233.30615234375;1322.040771484375
57;1262.2103271484375;1223.58349609375;1264.8016357421875;1229.95458984375;1319.1011962890625
58;1260.0888671875;1219.6614990234375;1262.6845703125;1226.4708251953125;1316.0074462890625
59;1257.8895263671875;1215.5379638671875;1260.5150146484375;1222.818115234375;1312.773681640625
60;1255.625;1211.2374267578125;1258.25341796875;1218.9854736328125;1309.41748046875
61;1253.2547607421875;1206.7467041015625;1255.9315185546875;1214.9600830078125;1305.8751220703125
62;1250.80859375;1202.090087890625;1253.5081787109375;1210.73095703125;1302.1895751953125
63;1248.261962890625;1197.220947265625;1250.99609375;1206.291748046875;1298.291259765625
64;1245.589111328125;1192.1258544921875;1248.409912109375;1201.5888671875;1294.2249755859375
65;1242.800537109375;1186.79052734375;1245.7255859375;1196.6409912109375;1289.914794921875
66;1239.8876953125;1181.16015625;1242.9361572265625;1191.4339599609375;1285.4078369140625
67;1236.8411865234375;1175.298828125;1240.0147705078125;1185.952880859375;1280.655029296875
68;1233.6728515625;1169.108642578125;1236.9951171875;1180.224365234375;1275.637451171875
69;1230.3514404296875;1162.6583251953125;1233.8494873046875;1174.15576171875;1270.328857421875
70;1226.840087890625;1155.84423828125;1230.568603515625;1167.776611328125;1264.664306640625
71;1223.146484375;1148.742919921875;1227.143310546875;1161.0784912109375;1258.69140625
72;1219.2828369140625;1141.294677734375;1223.564697265625;1154.1060791015625;1252.3409423828125
73;1215.20703125;1133.4873046875;1219.8223876953125;1146.7724609375;1245.5762939453125
74;1210.8721923828125;1125.259521484375;1215.903564453125;1139.1956787109375;1238.3609619140625
75;1206.3135986328125;1116.654541015625;1211.7703857421875;1131.342041015625;1230.651611328125
76;1201.451171875;1107.7342529296877;1207.43408203125;1123.1905517578123;1222.3934326171875
77;1196.287841796875;1098.4569091796877;1202.87841796875;1114.892333984375;1213.4761962890625
78;1190.795654296875;1088.80615234375;1198.089111328125;1106.459228515625;1203.95263671875
79;1184.9439697265625;1078.866943359375;1193.078369140625;1097.9964599609377;1193.7137451171875
80;1178.7374267578125;1068.6929931640623;1187.7994384765625;1089.5206298828123;1182.728759765625
81;1172.107177734375;1058.4141845703123;1182.200927734375;1081.230712890625;1170.9505615234375
82;1165.015869140625;1047.98828125;1176.3291015625;1073.1600341796877;1158.296630859375
83;1157.4259033203125;1037.5799560546877;1170.1346435546875;1065.35595703125;1144.894775390625
84;1149.253173828125;1027.29541015625;1163.5528564453125;1057.8221435546877;1130.9036865234375
85;1140.5535888671875;1017.2685546875;1156.638916015625;1050.6728515625;1116.60205078125
86;1131.2579345703125;1007.5166015625;1149.331787109375;1043.852294921875;1102.370361328125
87;1121.2982177734377;998.1760864257812;1141.567626953125;1037.3846435546877;1088.4085693359377
88;1110.7630615234377;989.1694946289062;1133.41552734375;1031.306884765625;1075.1827392578123
89;1099.726318359375;980.6038208007812;1124.7711181640623;1025.54150390625;1062.8475341796877
90;1088.181396484375;972.5281982421876;1115.678955078125;1020.1272583007812;1051.4903564453123
91;1076.350341796875;964.8999633789062;1106.20458984375;1015.0729370117188;1041.1370849609377
92;1064.2523193359377;957.718994140625;1096.3446044921877;1010.3135986328124;1031.76025390625
93;1052.21728515625;950.962890625;1086.1107177734377;1005.8975830078124;1023.3075561523438
94;1040.3326416015623;944.583984375;1075.6541748046877;1001.7547607421876;1015.6224975585938
95;1028.8743896484377;938.594970703125;1065.0950927734377;997.862548828125;1008.5816650390624
96;1017.9442138671876;932.9659423828124;1054.5733642578123;994.1881713867188;1002.1678466796876
97;1007.6873779296876;927.6851196289062;1044.24755859375;990.7071533203124;996.2435302734376
98;998.1077880859376;922.6782836914062;1034.1337890625;987.423828125;990.7672729492188
99;989.16162109375;917.945556640625;1024.36962890625;984.2904663085938;985.715087890625
100;980.8885498046876;913.458984375;1015.0380859375;981.3226928710938;981.0074462890624
101;973.1708984375;909.2174682617188;1006.1030883789062;978.4800415039062;976.5882568359376
102;966.0084838867188;905.1588134765624;997.559814453125;975.7562866210938;972.4657592773438
103;959.4081420898438;901.2857666015624;989.4786376953124;973.1439819335938;968.5810546875
104;953.2705078125;897.6044311523438;981.7830810546876;970.6199951171876;964.9071655273438
105;947.5496826171876;894.0782470703125;974.4747314453124;968.1731567382812;961.4080810546876
106;942.2041015625;890.6954956054688;967.5909423828124;965.7932739257812;958.0782470703124
107;937.1795654296876;887.4302978515625;961.059326171875;963.474853515625;954.914306640625
108;932.5005493164062;884.2867431640625;954.8341064453124;961.203369140625;951.8817749023438
109;928.0845947265624;881.267822265625;948.9224243164062;958.980224609375;948.9696655273438
110;923.9346923828124;878.3522338867188;943.320556640625;956.8106689453124;946.1727905273438
111;919.9915161132812;875.5169067382812;938.0308227539062;954.6815185546876;943.4676513671876
112;916.2537841796876;872.7705078125;932.98828125;952.5891723632812;940.8533935546876
113;912.6959838867188;870.1168823242188;928.2071533203124;950.5221557617188;938.330810546875
114;909.3029174804688;867.525634765625;923.7102661132812;948.49609375;935.870849609375
115;906.0729370117188;865.0145263671875;919.4473876953124;946.5005493164062;933.4884643554688
116;902.978515625;862.5678100585938;915.3881225585938;944.5266723632812;931.166748046875
117;899.9944458007812;860.1819458007812;911.5155029296876;942.5816040039062;928.8929443359376
118;897.1180419921875;857.8421630859375;907.8297729492188;940.663330078125;926.6734619140624
119;894.34716796875;855.5626220703125;904.307861328125;938.7784423828124;924.5120849609376
120;891.6658935546875;853.322265625;900.93994140625;936.9188232421876;922.3952026367188
121;889.0537109375;851.1341552734375;897.7089233398438;935.0830078125;920.3193969726562
122;886.51416015625;848.9794921875;894.609130859375;933.2700805664062;918.2752685546876
123;884.0424194335938;846.8636474609375;891.6401977539062;931.472412109375;916.2759399414062
124;881.6392211914062;844.7838745117188;888.78515625;929.7022705078124;914.3027954101562
125;879.2892456054688;842.745361328125;886.0323486328125;927.952392578125;912.361572265625
126;876.9894409179688;840.7322998046875;883.372802734375;926.221923828125;910.4498291015624
127;874.7359008789062;838.7572631835938;880.7891235351562;924.5098876953124;908.5729370117188
128;872.5239868164062;836.8040161132812;878.28857421875;922.8102416992188;906.7224731445312
129;870.3427734375;834.8846435546875;875.860107421875;921.1282348632812;904.8899536132812
130;868.2058715820312;832.9901123046875;873.4983520507812;919.4691772460938;903.0875244140624
131;866.0969848632812;831.1190185546875;871.2083740234375;917.8265991210938;901.3075561523438
132;864.0313720703125;829.2705078125;868.9818115234375;916.199951171875;899.5482788085938
133;861.9977416992188;827.4432373046875;866.8046875;914.5883178710938;897.808837890625
134;859.9943237304688;825.63037109375;864.6859130859375;912.985595703125;896.0882568359375
135;858.0133666992188;823.84228515625;862.6132202148438;911.396484375;894.3864135742188
136;856.0667114257812;822.0661010742188;860.5834350585938;909.8204345703124;892.6962280273438
137;854.1400146484375;820.30712890625;858.5951538085938;908.2571411132812;891.0282592773438
138;852.2451782226562;818.5658569335938;856.6406860351562;906.7064819335938;889.3709106445312
139;850.3684692382812;816.84619140625;854.727783203125;905.1678466796876;887.734375
140;848.5151977539062;815.140625;852.8468627929688;903.640380859375;886.107177734375
141;846.6844482421875;813.448974609375;850.9894409179688;902.129150390625;884.494140625
142;844.8751220703125;811.7694702148438;849.1603393554688;900.6278686523438;882.8952026367188
143;843.0862426757812;810.102783203125;847.3578491210938;899.131591796875;881.3096923828125
144;841.32275390625;808.4472045898438;845.586181640625;897.644775390625;879.7372436523438
145;839.5778198242188;806.80224609375;843.832763671875;896.167724609375;878.1773681640625
146;837.8460693359375;805.1673583984375;842.1018676757812;894.704345703125;876.6344604492188
147;836.1322021484375;803.5419311523438;840.3981323242188;893.2496948242188;875.1032104492188
148;834.4408569335938;801.9261474609375;838.71484375;891.8033447265625;873.5834350585938
149;832.7611083984375;800.3189086914062;837.0458984375;890.365234375;872.0698852539062
150;831.1027221679688;798.719482421875;835.400390625;888.9349975585938;870.566650390625
151;829.4552001953125;797.1273193359375;833.76806640625;887.5081787109375;869.0736083984375
152;827.8231811523438;795.5470581054688;832.157470703125;886.0891723632812;867.5950317382812
153;826.2059326171875;793.9732055664062;830.55908203125;884.6819458007812;866.1216430664062
154;824.6031494140625;792.4015502929688;828.977294921875;883.2820434570312;864.6576538085938
155;823.0187377929688;790.8421020507812;827.4107666015625;881.88525390625;863.2071533203125
156;821.4475708007812;789.2886962890625;825.8631591796875;880.4993896484375;861.7608032226562
157;819.8887939453125;787.7363891601562;824.3248291015625;879.116455078125;860.3273315429688
158;818.3378295898438;786.189453125;822.7996826171875;877.7401123046875;858.9016723632812
159;816.8034057617188;784.6524658203125;821.2872924804688;876.3704223632812;857.4800415039062
160;815.2805786132812;783.116455078125;819.787353515625;875.01123046875;856.070068359375
161;813.7689819335938;781.5853271484375;818.3037109375;873.654541015625;854.6635131835938
162;812.26416015625;780.0592041015625;816.831298828125;872.307861328125;853.2644653320312
163;810.7744140625;778.5382080078125;815.3656005859375;870.9634399414062;851.8727416992188
164;809.2908935546875;777.021728515625;813.9107666015625;869.6287841796875;850.4923095703125
165;807.8175048828125;775.5140380859375;812.4663696289062;868.300048828125;849.114990234375
166;806.3543701171875;774.0069580078125;811.0361938476562;866.97705078125;847.7446899414062
167;804.9049072265625;772.5097045898438;809.615478515625;865.6561279296875;846.380859375
168;803.4612426757812;771.0180053710938;808.2001953125;864.3442993164062;845.0274658203125
169;802.0308227539062;769.5313720703125;806.7937622070312;863.0380249023438;843.6768188476562
170;800.6056518554688;768.050048828125;805.3959350585938;861.7337036132812;842.3327026367188
171;799.1891479492188;766.570556640625;804.0066528320312;860.4346923828125;840.9946899414062
172;797.7813110351562;765.0975952148438;802.6256713867188;859.140869140625;839.6663818359375
173;796.3854370117188;763.63427734375;801.2565307617188;857.8521728515625;838.3405151367188
174;794.9976806640625;762.177001953125;799.8914184570312;856.5718994140625;837.0237426757812
175;793.6143798828125;760.7261352539062;798.5339965820312;855.296630859375;835.713134765625
176;792.2424926757812;759.2814331054688;797.1838989257812;854.026123046875;834.4083251953125
177;790.8780517578125;757.843994140625;795.844482421875;852.757080078125;833.1088256835938
178;789.5177001953125;756.413818359375;794.5123291015625;851.4927978515625;831.8115844726562
179;788.1646118164062;754.990966796875;793.183837890625;850.2364501953125;830.519775390625
180;786.822265625;753.5716552734375;791.8621215820312;848.9844970703125;829.2365112304688
181;785.4869995117188;752.1597900390625;790.5469360351562;847.7372436523438;827.9583740234375
182;784.1586303710938;750.7586669921875;789.2381591796875;846.4912109375;826.6821899414062
183;782.8336181640625;749.3648071289062;787.9356079101562;845.252685546875;825.4140625
184;781.51513671875;747.978271484375;786.639404296875;844.015380859375;824.1477661132812
185;780.2064819335938;746.5960083007812;785.3492431640625;842.785400390625;822.8894653320312
186;778.90087890625;745.22509765625;784.0651245117188;841.556640625;821.6359252929688
187;777.6015014648438;743.862060546875;782.786865234375;840.3319702148438;820.3870849609375
188;776.3081665039062;742.507080078125;781.5142822265625;839.1112670898438;819.1429443359375
189;775.02392578125;741.156982421875;780.247314453125;837.89453125;817.9002685546875
190;773.7454223632812;739.818603515625;778.98876953125;836.6818237304688;816.6620483398438
191;772.4696655273438;738.4884033203125;777.735595703125;835.475830078125;815.4312133789062
192;771.1996459960938;737.1634521484375;776.4848022460938;834.270751953125;814.2018432617188
193;769.9381103515625;735.8472290039062;775.2393188476562;833.0693969726562;812.9766845703125
194;768.6821899414062;734.54296875;774.0017700195312;831.8717651367188;811.7586669921875
195;767.4315795898438;733.2445678710938;772.769287109375;830.6778564453125;810.5447998046875
196;766.1864624023438;731.9575805664062;771.538818359375;829.490234375;809.332275390625
197;764.9435424804688;730.6761474609375;770.3131713867188;828.3034057617188;808.126708984375
198;763.7086791992188;729.403076171875;769.0923461914062;827.1227416992188;806.9224243164062
199;762.47900390625;728.1412963867188;767.8787841796875;825.9427490234375;805.7247314453125
200;761.2515869140625;726.8877563476562;766.6672973632812;824.7691650390625;804.5283813476562
201;760.0291137695312;725.6427001953125;765.460205078125;823.5961303710938;803.3385009765625
202;758.8113403320312;724.4054565429688;764.2579345703125;822.4263916015625;802.15234375
203;757.59814453125;723.176025390625;763.0599365234375;821.260009765625;800.9699096679688
204;756.3897094726562;721.9515380859375;761.8663940429688;820.0995483398438;799.791259765625
205;755.1884155273438;720.734619140625;760.6796264648438;818.9396362304688;798.6136474609375
206;753.99169921875;719.525146484375;759.4971313476562;817.7830200195312;797.439697265625
207;752.7965698242188;718.3229370117188;758.3162231445312;816.629638671875;796.271728515625
208;751.6058959960938;717.127685546875;757.1419677734375;815.479248046875;795.1072998046875
209;750.4195556640625;715.9395751953125;755.9693603515625;814.3319091796875;793.9463500976562
210;749.2399291992188;714.7581787109375;754.80078125;813.1878051757812;792.7861938476562
211;748.0619506835938;713.5859375;753.63623046875;812.049072265625;791.6295776367188
212;746.8881225585938;712.4178466796875;752.4779663085938;810.913330078125;790.4761962890625
213;745.71826171875;711.258544921875;751.3212890625;809.780517578125;789.326171875
214;744.5524291992188;710.1052856445312;750.170654296875;808.648193359375;788.181884765625
215;743.3929443359375;708.95556640625;749.0214233398438;807.521240234375;787.0408325195312
216;742.23486328125;707.8140258789062;747.8758544921875;806.3970336914062;785.900634765625
217;741.0830688476562;706.6781005859375;746.7363891601562;805.2757568359375;784.7636108398438
218;739.9327392578125;705.5452270507812;745.6004028320312;804.1573486328125;783.6320190429688
219;738.7860717773438;704.4201049804688;744.4657592773438;803.039306640625;782.5033569335938
220;737.6454467773438;703.2979125976562;743.334716796875;801.9241943359375;781.3756103515625
221;736.5062255859375;702.1807250976562;742.2092895507812;800.8139038085938;780.2531127929688
222;735.3729248046875;701.0684204101562;741.0850830078125;799.706298828125;779.1314086914062
223;734.2431640625;699.9611206054688;739.966552734375;798.6015014648438;778.0126342773438
224;733.1168823242188;698.860595703125;738.851318359375;797.4970703125;776.8991088867188
225;731.9918212890625;697.7646484375;737.7393798828125;796.395263671875;775.7861938476562
226;730.8701782226562;696.671142578125;736.6284790039062;795.29833984375;774.6761474609375
227;729.7540893554688;695.5838623046875;735.5230712890625;794.203857421875;773.5690307617188
228;728.6392211914062;694.4989624023438;734.4207763671875;793.1099243164062;772.4647827148438
229;727.5296630859375;693.4180908203125;733.3217163085938;792.0205078125;771.36328125
230;726.4213256835938;692.3433227539062;732.2257690429688;790.9335327148438;770.2645874023438
231;725.318359375;691.2725830078125;731.1329345703125;789.8491821289062;769.170654296875
232;724.2186279296875;690.2056274414062;730.041015625;788.7650756835938;768.0794067382812
233;723.1219482421875;689.1405639648438;728.9521484375;787.68359375;766.9910278320312
234;722.0283813476562;688.081298828125;727.868408203125;786.6065063476562;765.9031372070312
235;720.9378662109375;687.023681640625;726.7874145507812;785.5318603515625;764.8198852539062
236;719.8504638671875;685.9696044921875;725.7074584960938;784.4575805664062;763.7373657226562
237;718.7658081054688;684.921142578125;724.6323852539062;783.3855590820312;762.6594848632812
238;717.6822509765625;683.8742065429688;723.5602416992188;782.3180541992188;761.584228515625
239;716.6036376953125;682.8325805664062;722.4909057617188;781.2527465820312;760.5115966796875
240;715.5280151367188;681.79443359375;721.4223022460938;780.1897583007812;759.44140625
241;714.4532470703125;680.7594604492188;720.3566284179688;779.127197265625;758.3737182617188
242;713.3814086914062;679.727783203125;719.2935180664062;778.0668334960938;757.3084716796875
243;712.3145751953125;678.6973266601562;718.2351684570312;777.0106201171875;756.245849609375
244;711.2485961914062;677.6719360351562;717.179443359375;775.9567260742188;755.185546875
245;710.1875;676.649658203125;716.1264038085938;774.905029296875;754.1278076171875
246;709.1290893554688;675.6302490234375;715.0761108398438;773.8536987304688;753.0723876953125
247;708.0735473632812;674.614013671875;714.0281982421875;772.8062744140625;752.0194091796875
248;707.0206909179688;673.6005859375;712.983154296875;771.7592163085938;750.9686889648438
249;705.9705810546875;672.5901489257812;711.940673828125;770.7162475585938;749.9183959960938
250;704.9213256835938;671.5826416015625;710.8987426757812;769.673583984375;748.8723754882812
251;703.8764038085938;670.5759887695312;709.8594360351562;768.633056640625;747.826904296875
252;702.8342895507812;669.5723266601562;708.8244018554688;767.5964965820312;746.7837524414062
253;701.7945556640625;668.5730590820312;707.7900390625;766.5619506835938;745.7427978515625
254;700.7575073242188;667.576416015625;706.7581787109375;765.529541015625;744.7041625976562
255;699.72314453125;666.58251953125;705.728759765625;764.4992065429688;743.6695556640625
256;698.6912841796875;665.5912475585938;704.7017822265625;763.4691772460938;742.6370849609375
257;697.6618041992188;664.6008911132812;703.6790161132812;762.441162109375;741.6052856445312
258;696.634765625;663.61474609375;702.6567993164062;761.4169311523438;740.5773315429688
259;695.6102905273438;662.6294555664062;701.6370239257812;760.3930053710938;739.5514526367188
260;694.5881958007812;661.6484375;700.6212768554688;759.372802734375;738.5260620117188
261;693.5668334960938;660.669677734375;699.6060791015625;758.3545532226562;737.5027465820312
262;692.5477294921875;659.693603515625;698.5949096679688;757.3366088867188;736.4815063476562
263;691.53271484375;658.7183837890625;697.5843505859375;756.3206176757812;735.4625244140625
264;690.5182495117188;657.7471923828125;696.5760498046875;755.3065795898438;734.4473266601562
265;689.5079956054688;656.7784423828125;695.5700073242188;754.2944946289062;733.4340209960938
266;688.4984741210938;655.8118896484375;694.5677490234375;753.2843627929688;732.4229125976562
267;687.4927978515625;654.8477783203125;693.5678100585938;752.2760620117188;731.412109375
268;686.48779296875;653.8859252929688;692.5684814453125;751.2713012695312;730.4033813476562
269;685.4849243164062;652.9264526367188;691.5711669921875;750.2669067382812;729.3967895507812
270;684.4844970703125;651.9675903320312;690.5761108398438;749.2643432617188;728.3921508789062
271;683.4877319335938;651.0125122070312;689.583251953125;748.2635498046875;727.3894653320312
272;682.4931640625;650.059814453125;688.593994140625;747.2662963867188;726.3887939453125
273;681.5008544921875;649.109130859375;687.6053466796875;746.2691650390625;725.3899536132812
274;680.5106811523438;648.1607055664062;686.6188354492188;745.275634765625;724.393310546875
275;679.5225830078125;647.2130126953125;685.635986328125;744.283935546875;723.3985595703125
276;678.5368041992188;646.2689819335938;684.653564453125;743.2924194335938;722.4071655273438
277;677.5531005859375;645.3255615234375;683.6732788085938;742.304443359375;721.4161987304688
278;676.5699462890625;644.3858642578125;682.696533203125;741.318115234375;720.4287109375
279;675.5888671875;643.4465942382812;681.7202758789062;740.3320922851562;719.443115234375
280;674.6099243164062;642.510986328125;680.7476196289062;739.347900390625;718.4593505859375
281;673.6331176757812;641.575927734375;679.7769165039062;738.3668212890625;717.4774780273438
282;672.6597290039062;640.642822265625;678.8067016601562;737.3860473632812;716.4973754882812
283;671.6869506835938;639.7133178710938;677.8385620117188;736.4085083007812;715.5177001953125
284;670.7161865234375;638.7858276367188;676.872314453125;735.4312133789062;714.5399780273438
285;669.7489013671875;637.8602905273438;675.909423828125;734.4571533203125;713.5654907226562
286;668.7836303710938;636.936767578125;674.9486694335938;733.483154296875;712.5912475585938
287;667.8203125;636.0152587890625;673.9896850585938;732.512451171875;711.620361328125
288;666.8590087890625;635.0955810546875;673.03125;731.5419311523438;710.6498413085938
289;665.8997192382812;634.1765747070312;672.0760498046875;730.5731811523438;709.6809692382812
290;664.9423828125;633.2594604492188;671.1228637695312;729.6061401367188;708.7140502929688
291;663.9856567382812;632.3455810546875;670.1701049804688;728.6420288085938;707.750244140625
292;663.03076171875;631.43359375;669.2191162109375;727.6796264648438;706.7882690429688
293;662.0778198242188;630.5234375;668.2702026367188;726.717529296875;705.8280029296875
294;661.1268310546875;629.6139526367188;667.322998046875;725.7568969726562;704.8679809570312
295;660.1775512695312;628.7061767578125;666.3776245117188;724.798095703125;703.9097900390625
296;659.2316284179688;627.8015747070312;665.4340209960938;723.8421020507812;702.9547119140625
297;658.2875366210938;626.897705078125;664.4923706054688;722.886474609375;701.9998779296875
298;657.3438720703125;625.9967651367188;663.5524291992188;721.932373046875;701.0467529296875
299;656.4035034179688;625.0977172851562;662.6156616210938;720.9813232421875;700.0967407226562
300;655.4651489257812;624.1990966796875;661.6806640625;720.030517578125;699.1484375
301;654.5284423828125;623.3023681640625;660.74609375;719.0826416015625;698.2017822265625
302;653.5924072265625;622.4072875976562;659.8132934570312;718.1362915039062;697.2568969726562
303;652.6580810546875;621.5139770507812;658.8822631835938;717.190185546875;696.3134765625
304;651.7255859375;620.6235961914062;657.9530029296875;716.246826171875;695.3717651367188
305;650.7960205078125;619.7337646484375;657.02685546875;715.3052368164062;694.430419921875
306;649.8683471679688;618.846923828125;656.1010131835938;714.3636474609375;693.4906005859375
307;648.9411010742188;617.961669921875;655.177001953125;713.425048828125;692.5525512695312
308;648.0156860351562;617.078125;654.2546997070312;712.4879150390625;691.6160278320312
309;647.0932006835938;616.1963500976562;653.3352661132812;711.5512084960938;690.6824340820312
310;646.1724243164062;615.3150024414062;652.4176635742188;710.6158447265625;689.7504272460938
311;645.2521362304688;614.435302734375;651.5003051757812;709.683349609375;688.8189086914062
312;644.3347778320312;613.5572509765625;650.5859985351562;708.7510375976562;687.8900756835938
313;643.4179077148438;612.680908203125;649.672119140625;707.8214721679688;686.962890625
314;642.5026245117188;611.8062133789062;648.7610473632812;706.8933715820312;686.035888671875
315;641.5890502929688;610.93310546875;647.8517456054688;705.9668579101562;685.1118774414062
316;640.6784057617188;610.062744140625;646.9426879882812;705.041748046875;684.1880493164062
317;639.7681274414062;609.1929321289062;646.035400390625;704.1181640625;683.2669677734375
318;638.8607788085938;608.3258666992188;645.1297607421875;703.1947631835938;682.3462524414062
319;637.9550170898438;607.459228515625;644.2255859375;702.2739868164062;681.4282836914062
320;637.0496826171875;606.59423828125;643.3231201171875;701.354736328125;680.5106201171875
321;636.1472778320312;605.7318115234375;642.4235229492188;700.435791015625;679.5945434570312
322;635.2463989257812;604.869873046875;641.524169921875;699.5193481445312;678.6810913085938
323;634.3458251953125;604.0106811523438;640.6265869140625;698.6032104492188;677.7692260742188
324;633.4481811523438;603.1530151367188;639.7304077148438;697.6896362304688;676.8575439453125
325;632.5509033203125;602.2957153320312;638.8370971679688;696.7763671875;675.9485473632812
326;631.6553344726562;601.441162109375;637.9453125;695.864501953125;675.0410766601562
327;630.7612915039062;600.5880737304688;637.053955078125;694.9539184570312;674.1350708007812
328;629.8700561523438;599.7354125976562;636.1640625;694.0460205078125;673.2293090820312
329;628.9802856445312;598.8842163085938;635.27587890625;693.138427734375;672.3262329101562
330;628.0909423828125;598.03564453125;634.38916015625;692.2332153320312;671.4246215820312
331;627.2042236328125;597.1874389648438;633.505126953125;691.3294067382812;670.5243530273438
332;626.3179321289062;596.341796875;632.6224975585938;690.4259033203125;669.6244506835938
333;625.4344482421875;595.4966430664062;631.741455078125;689.5237426757812;668.7271118164062
334;624.5523071289062;594.6538696289062;630.8609008789062;688.6229858398438;667.8311767578125
335;623.6707153320312;593.8126831054688;629.981689453125;687.7235717773438;666.9367065429688
336;622.7916870117188;592.972900390625;629.10400390625;686.8265991210938;666.0426025390625
337;621.9141235351562;592.134521484375;628.2289428710938;685.9298706054688;665.1510620117188
338;621.0380859375;591.297607421875;627.354248046875;685.0355224609375;664.2609252929688
339;620.1624145507812;590.462158203125;626.482177734375;684.1414794921875;663.3712158203125
340;619.2893676757812;589.6270751953125;625.6104125976562;683.248779296875;662.4840087890625
341;618.4178466796875;588.7933959960938;624.7412109375;682.3583984375;661.5982055664062
342;617.5476684570312;587.962158203125;623.8734130859375;681.4683837890625;660.7138671875
343;616.6779174804688;587.1312866210938;623.006103515625;680.57958984375;659.8309936523438
344;615.8096923828125;586.302978515625;622.14111328125;679.6932983398438;658.9495849609375
345;614.9439697265625;585.474853515625;621.276611328125;678.8082275390625;658.0696411132812
346;614.0797729492188;584.649169921875;620.41357421875;677.9244995117188;657.1901245117188
347;613.2169799804688;583.8248901367188;619.5518798828125;677.0409545898438;656.3119506835938
348;612.3555908203125;583.0009765625;618.6926879882812;676.1587524414062;655.4363403320312
349;611.4946899414062;582.1793212890625;617.8348388671875;675.2788696289062;654.562255859375
350;610.63525390625;581.3582153320312;616.9785766601562;674.399169921875;653.6895751953125
351;609.7781982421875;580.539306640625;616.12353515625;673.52197265625;652.8182373046875
352;608.9224853515625;579.7218017578125;615.2689208984375;672.644775390625;651.9483032226562
353;608.0673217773438;578.905517578125;614.416748046875;671.7689819335938;651.0787963867188
354;607.2144165039062;578.0897216796875;613.5658569335938;670.8944091796875;650.2114868164062
355;606.3629760742188;577.2752685546875;612.7153930664062;670.0211181640625;649.345458984375
356;605.5119018554688;576.4620971679688;611.8663940429688;669.1491088867188;648.4807739257812
357;604.6621704101562;575.6502075195312;611.0184936523438;668.279296875;647.6174926757812
358;603.8139038085938;574.840576171875;610.173095703125;667.4107666015625;646.7544555664062
359;602.9669189453125;574.0313720703125;609.3291015625;666.54248046875;645.8936157226562
360;602.1223754882812;573.224365234375;608.4854736328125;665.6754150390625;645.033203125
361;601.2791137695312;572.417724609375;607.6441040039062;664.8104858398438;644.1749877929688
362;600.4362182617188;571.6124267578125;606.8030395507812;663.9469604492188;643.3170776367188
363;599.5956420898438;570.809326171875;605.9634399414062;663.08447265625;642.4603881835938
364;598.7564086914062;570.006591796875;605.1251220703125;662.2233276367188;641.6049194335938
365;597.9175415039062;569.2059326171875;604.2890625;661.3633422851562;640.7517700195312
366;597.0809936523438;568.4066772460938;603.453369140625;660.503662109375;639.8998413085938
367;596.2447509765625;567.607666015625;602.6190185546875;659.6461181640625;639.049072265625
368;595.4107666015625;566.81005859375;601.7859497070312;658.7897338867188;638.1996459960938
369;594.5771484375;566.0145263671875;600.9542236328125;657.9345703125;637.3515014648438
370;593.7459106445312;565.2193603515625;600.1246948242188;657.08056640625;636.5045166015625
371;592.9148559570312;564.4263916015625;599.2964477539062;656.227783203125;635.6587524414062
372;592.0852661132812;563.6337280273438;598.469482421875;655.375244140625;634.8132934570312
373;591.2568969726562;562.84228515625;597.643798828125;654.5247802734375;633.9699096679688
374;590.4298095703125;562.0520629882811;596.8194580078125;653.6746826171875;633.1268920898438
375;589.6051025390625;561.2640991210939;595.9954223632812;652.8257446289062;632.2860717773438
376;588.7816162109375;560.4772338867189;595.1726684570312;651.978759765625;631.4463500976562
377;587.9594116210938;559.6915893554689;594.3521118164062;651.1329956054688;630.6079711914062
378;587.1375732421875;558.9063110351561;593.5328369140625;650.2875366210938;629.7697143554688
379;586.31787109375;558.123046875;592.71484375;649.4431762695312;628.9328002929688
380;585.4985961914062;557.341064453125;591.8970947265625;648.60009765625;628.097900390625
381;584.6805419921875;556.560302734375;591.0806884765625;647.7589721679688;627.2642211914062
382;583.8638916015625;555.7798461914061;590.2664184570312;646.9189453125;626.4307861328125
383;583.0492553710938;555.0014038085939;589.4525756835938;646.0801391601562;625.5994873046875
384;582.2350463867188;554.2242431640625;588.6408081054688;645.2424926757812;624.7693481445312
385;581.4220581054688;553.4473876953125;587.8302612304688;644.4050903320312;623.9403686523438
386;580.6102905273438;552.6725463867189;587.02099609375;643.5696411132812;623.1116943359375
387;579.8007202148438;551.89892578125;586.2129516601562;642.7354736328125;622.2850341796875
388;578.9913940429688;551.1264038085939;585.4052124023438;641.9014282226562;621.4595336914062
389;578.1842041015625;550.3551635742189;584.5995483398438;641.0693359375;620.6343994140625
390;577.3782348632812;549.5850830078125;583.795166015625;640.2376098632812;619.811279296875
391;576.5734252929688;548.816162109375;582.991943359375;639.4071044921875;618.9884643554688
392;575.7691040039062;548.0475463867189;582.1890869140625;638.578369140625;618.1668090820312
393;574.9658813476562;547.2802124023439;581.3883056640625;637.75;617.3463134765625
394;574.1639404296875;546.5147705078125;580.5878295898438;636.923583984375;616.5269775390625
395;573.3639526367188;545.7496337890625;579.7886352539062;636.0982055664062;615.7095336914062
396;572.5643310546875;544.9865112304689;578.9905395507812;635.273193359375;614.8923950195312
397;571.7667236328125;544.2236938476561;578.194580078125;634.44921875;614.0772094726562
398;570.9703979492188;543.4628295898439;577.3988647460938;633.6272583007812;613.2633056640625
399;570.1744995117188;542.703125;576.6043701171875;632.8055419921875;612.4495849609375
400;569.3804321289062;541.9437255859375;575.8118896484375;631.9849243164062;611.6377563476562
401;568.5875854492188;541.1854858398439;575.0205078125;631.165283203125;610.8263549804688
402;567.7952270507812;540.42919921875;574.2303466796875;630.346923828125;610.016845703125
403;567.0046997070312;539.6740112304689;573.44140625;629.5303955078125;609.2084350585938
404;566.2146606445312;538.919189453125;572.6527709960938;628.7141723632812;608.4012451171875
405;565.4264526367188;538.1654663085939;571.8660278320312;627.8997192382812;607.5950317382812
406;564.638671875;537.412841796875;571.0797729492188;627.085693359375;606.7900390625
407;563.8521118164062;536.6621704101561;570.294677734375;626.2726440429688;605.9852294921875
408;563.0665893554688;535.9117431640625;569.5113525390625;625.460693359375;605.1824340820312
409;562.2823486328125;535.1625366210939;568.728515625;624.650634765625;604.3806762695312
410;561.4991455078125;534.414306640625;567.94677734375;623.8416137695312;603.580078125
411;560.7171020507811;533.66796875;567.166259765625;623.0337524414062;602.7803955078125
412;559.9362182617189;532.9220581054689;566.3867797851562;622.226806640625;601.9819946289062
413;559.1565551757811;532.1778564453125;565.6085205078125;621.4210815429688;601.183837890625
414;558.3778686523439;531.4341430664061;564.831298828125;620.6162719726562;600.3875122070312
415;557.6012573242189;530.692138671875;564.0559692382812;619.811767578125;599.5914916992188
416;556.8248901367189;529.9505004882811;563.2818603515625;619.0091552734375;598.7965698242188
417;556.0504150390625;529.210693359375;562.508056640625;618.2074584960938;598.002685546875
418;555.2763061523439;528.471923828125;561.7361450195311;617.4061889648438;597.2098999023438
419;554.5033569335939;527.7342529296875;560.9652709960939;616.6058959960938;596.4190063476562
420;553.7322998046875;526.9969482421875;560.1956176757811;615.807373046875;595.6290893554688
421;552.9615478515625;526.261474609375;559.427001953125;615.0091552734375;594.8402099609375
422;552.19189453125;525.527099609375;558.6596069335939;614.212158203125;594.0525512695312
423;551.424072265625;524.793701171875;557.8924560546875;613.4158935546875;593.2658081054688
424;550.6566772460939;524.061279296875;557.12646484375;612.620849609375;592.4794311523438
425;549.8903198242189;523.3300170898439;556.3615112304689;611.8267822265625;591.6949462890625
426;549.1251220703125;522.5990600585939;555.5977172851561;611.0344848632812;590.9105224609375
427;548.3609619140625;521.8692016601561;554.8350219726561;610.2424926757812;590.1279907226562
428;547.5979614257811;521.140380859375;554.0733642578125;609.4515991210938;589.3466186523438
429;546.8367309570311;520.413330078125;553.312744140625;608.66162109375;588.5654907226562
430;546.0758056640625;519.6866455078125;552.5533447265625;607.8734130859375;587.7860717773438
431;545.3167724609375;518.9616088867189;551.7949829101561;607.0855102539062;587.0070190429688
432;544.5587158203125;518.237548828125;551.0377197265625;606.298583984375;586.2290649414062
433;543.8011474609375;517.5146484375;550.281494140625;605.5128173828125;585.452880859375
434;543.0445556640625;516.7920532226561;549.5269775390625;604.7286987304688;584.6769409179688
435;542.289794921875;516.0711669921875;548.77294921875;603.945556640625;583.902099609375
436;541.5353393554689;515.3506469726561;548.0198364257811;603.1634521484375;583.128173828125
437;540.78271484375;514.6318359375;547.2679443359375;602.38232421875;582.3553466796875
438;540.0303955078125;513.913330078125;546.5170288085939;601.6021728515625;581.5835571289062
439;539.2791748046875;513.196533203125;545.7678833007811;600.8230590820312;580.8134765625
440;538.5297241210939;512.4801025390625;545.0191650390625;600.044189453125;580.0443725585938
441;537.7805786132811;511.7652893066406;544.2713623046875;599.266357421875;579.2763061523438
442;537.0325317382811;511.0509338378906;543.524658203125;598.490234375;578.5093383789062
443;536.2855224609375;510.3375244140625;542.7797241210939;597.715087890625;577.7432250976562
444;535.5401611328125;509.6257629394531;542.0350952148439;596.9409790039062;576.9782104492188
445;534.7959594726561;508.9144287109375;541.292236328125;596.167724609375;576.2135009765625
446;534.0521240234375;508.20458984375;540.5496826171875;595.3955078125;575.450439453125
447;533.3092041015625;507.4952392578125;539.8082885742189;594.624267578125;574.6884155273438
448;532.5674438476561;506.7868347167969;539.0685424804689;593.853271484375;573.9266967773438
449;531.8267211914061;506.0794677734375;538.3297729492189;593.0840454101562;573.1666259765625
450;531.0869750976561;505.3736877441406;537.592041015625;592.315673828125;572.4075317382812
451;530.3482666015625;504.6681823730469;536.8546752929689;591.5476684570312;571.6495971679688
452;529.6112670898439;503.9644165039063;536.1189575195311;590.7813720703125;570.8924560546875
453;528.8746337890625;503.26165771484375;535.3836669921875;590.0159301757812;570.1356811523438
454;528.1396484375;502.5592041015625;534.6493530273439;589.2514038085938;569.3799438476562
455;527.405029296875;501.8582763671875;533.9160766601561;588.4873046875;568.6251220703125
456;526.6714477539061;501.1584167480469;533.1843872070311;587.72412109375;567.8713989257812
457;525.9395751953125;500.458984375;532.4532470703125;586.962646484375;567.1185913085938
458;525.2085571289061;499.7610778808594;531.7235717773439;586.2012939453125;566.3673706054688
459;524.4786376953125;499.0640258789063;530.9943237304689;585.441650390625;565.6171875
460;523.7490844726561;498.36810302734375;530.26611328125;584.6823120117188;564.8679809570312
461;523.0211791992189;497.6730651855469;529.5394897460939;583.9238891601562;564.1196899414062
462;522.2936401367189;496.9783935546875;528.8138427734375;583.1663818359375;563.372314453125
463;521.5677490234375;496.2847290039063;528.0892333984375;582.4105224609375;562.6253051757811
464;520.8422241210939;495.5920715332031;527.3656616210939;581.6556396484375;561.8799438476561
465;520.1176147460939;494.9002685546875;526.6430053710939;580.9010620117188;561.1348876953125
466;519.3947143554689;494.20947265625;525.920654296875;580.1473999023438;560.3908081054689
467;518.6721801757811;493.51959228515625;525.2000122070311;579.3946533203125;559.6476440429689
468;517.9511108398439;492.8307189941406;524.4803466796875;578.6428833007812;558.905517578125
469;517.2305297851561;492.1434020996094;523.7610473632811;577.8919677734375;558.1649780273439
470;516.5115356445311;491.4569091796875;523.0433349609375;577.1420288085938;557.4246826171875
471;515.7935791015625;490.7708740234375;522.325927734375;576.3937377929688;556.6859741210939
472;515.0758056640625;490.0858154296875;521.609619140625;575.645751953125;555.9476318359375
473;514.3598022460939;489.4021911621094;520.894775390625;574.898681640625;555.2108764648439
474;513.6441040039061;488.7190246582031;520.180908203125;574.1524658203125;554.4749145507811
475;512.9298706054689;488.0372619628906;519.467529296875;573.4077758789062;553.7394409179689
476;512.216796875;487.3558349609375;518.7550659179689;572.6640014648438;553.0048828125
477;511.5039978027344;486.6760559082031;518.0435180664061;571.9213256835938;552.2713623046875
478;510.7921447753906;485.99658203125;517.3335571289061;571.1788330078125;551.5386352539061
479;510.08184814453125;485.3186340332031;516.6239624023439;570.437255859375;550.8074340820311
480;509.37255859375;484.6409606933594;515.9158935546875;569.6971435546875;550.0771484375
481;508.6642150878906;483.96484375;515.208251953125;568.9581298828125;549.3473510742189
482;507.9568176269531;483.2891845703125;514.5020751953125;568.2192993164062;548.6182861328125
483;507.2503356933594;482.6148071289063;513.7969360351561;567.4813842773438;547.890869140625
484;506.5442810058594;481.94140625;513.0926513671875;566.7444458007812;547.1643676757811
485;505.8396911621094;481.2689208984375;512.3887939453125;566.0084838867188;546.4387817382811
486;505.1360778808594;480.5973815917969;511.68646240234375;565.27392578125;545.714111328125
487;504.4334411621094;479.92626953125;510.9844970703125;564.5403442382812;544.9902954101561
488;503.7312316894531;479.2565612792969;510.2834777832031;563.8070678710938;544.2674560546875
489;503.0304260253906;478.5876770019531;509.58392333984375;563.0746459960938;543.5455932617189
490;502.3305969238281;477.9192810058594;508.88482666015625;562.34326171875;542.8245239257811
491;501.6311950683594;477.2522888183594;508.1872253417969;561.6126708984375;542.1038208007811
492;500.9331970214844;476.5861511230469;507.4899597167969;560.883056640625;541.3841552734375
493;500.23626708984375;475.92095947265625;506.7941589355469;560.1548461914061;540.665283203125
494;499.54010009765625;475.2566833496094;506.0993347167969;559.427001953125;539.9479370117189
495;498.8449401855469;474.59326171875;505.4053955078125;558.7006225585939;539.2308959960939
496;498.1501770019531;473.9307861328125;504.7119140625;557.9745483398439;538.5153198242189
497;497.4568786621094;473.2691650390625;504.0198059082031;557.2493286132811;537.8006591796875
498;496.7644958496094;472.60791015625;503.3286743164063;556.525146484375;537.0869140625
499;496.0725402832031;471.9481201171875;502.6384582519531;555.8023071289061;536.3734741210939
