;fold_0;fold_1;fold_2;fold_3;fold_4
0;1315.8370361328125;1331.2816162109375;1311.3450927734375;1328.495849609375;1399.2640380859375
1;1315.5648193359375;1330.9906005859375;1310.9822998046875;1328.23486328125;1398.9495849609375
2;1315.200439453125;1330.6002197265625;1310.6182861328125;1327.8841552734375;1398.5286865234375
3;1314.837890625;1330.2108154296875;1310.2529296875;1327.53369140625;1398.1475830078125
4;1314.498779296875;1329.8223876953125;1309.886474609375;1327.18310546875;1397.7557373046875
5;1314.1392822265625;1329.434814453125;1309.5186767578125;1326.8326416015625;1397.34033203125
6;1313.7921142578125;1329.04833984375;1309.1494140625;1326.482177734375;1396.9393310546875
7;1313.435791015625;1328.66259765625;1308.77880859375;1326.1318359375;1396.5277099609375
8;1313.086181640625;1328.2835693359375;1308.40673828125;1325.78173828125;1396.1241455078125
9;1312.733154296875;1327.89990234375;1308.033447265625;1325.4312744140625;1395.7164306640625
10;1312.3836669921875;1327.51708984375;1307.6585693359375;1325.0810546875;1395.310791015625
11;1312.0338134765625;1327.1358642578125;1307.2822265625;1324.73095703125;1394.9078369140625
12;1311.685546875;1326.75439453125;1306.904296875;1324.380615234375;1394.5054931640625
13;1311.339111328125;1326.3743896484375;1306.5235595703125;1324.030517578125;1394.105712890625
14;1310.9942626953125;1325.9952392578125;1306.142578125;1323.678466796875;1393.7081298828125
15;1310.6512451171875;1325.6170654296875;1305.7598876953125;1323.3260498046875;1393.312255859375
16;1310.3070068359375;1325.2396240234375;1305.37548828125;1322.975830078125;1392.918212890625
17;1309.9669189453125;1324.8629150390625;1304.986083984375;1322.62548828125;1392.5228271484375
18;1309.625244140625;1324.4837646484375;1304.594482421875;1322.2750244140625;1392.132568359375
19;1309.2879638671875;1324.108642578125;1304.2010498046875;1321.924560546875;1391.744384765625
20;1308.9522705078125;1323.734375;1303.805419921875;1321.5738525390625;1391.353759765625
21;1308.6177978515625;1323.35693359375;1303.412109375;1321.22314453125;1390.96923828125
22;1308.2845458984375;1322.9842529296875;1303.0167236328125;1320.8682861328125;1390.582275390625
23;1307.948974609375;1322.6121826171875;1302.61962890625;1320.51708984375;1390.197021484375
24;1307.6143798828125;1322.236328125;1302.2156982421875;1320.165771484375;1389.8133544921875
25;1307.2847900390625;1321.865478515625;1301.8143310546875;1319.8101806640625;1389.43603515625
26;1306.9522705078125;1321.4908447265625;1301.4061279296875;1319.4544677734375;1389.0560302734375
27;1306.620849609375;1321.1165771484375;1301.0006103515625;1319.09814453125;1388.6820068359375
28;1306.2943115234375;1320.747314453125;1300.588134765625;1318.7462158203125;1388.3099365234375
29;1305.9686279296875;1320.3782958984375;1300.17822265625;1318.3935546875;1387.9390869140625
30;1305.6436767578125;1320.0096435546875;1299.7659912109375;1318.0408935546875;1387.5703125
31;1305.3160400390625;1319.6370849609375;1299.3465576171875;1317.687744140625;1387.202880859375
32;1304.9927978515625;1319.26904296875;1298.9298095703125;1317.3343505859375;1386.837158203125
33;1304.670166015625;1318.89697265625;1298.510498046875;1316.9803466796875;1386.472900390625
34;1304.3446044921875;1318.5250244140625;1298.0888671875;1316.6263427734375;1386.10595703125
35;1304.0196533203125;1318.15771484375;1297.6646728515625;1316.2716064453125;1385.7403564453125
36;1303.6953125;1317.7861328125;1297.238037109375;1315.91650390625;1385.3765869140625
37;1303.3751220703125;1317.418701171875;1296.8089599609375;1315.56103515625;1385.0179443359375
38;1303.055419921875;1317.047607421875;1296.376953125;1315.2012939453125;1384.6568603515625
39;1302.736083984375;1316.6802978515625;1295.9423828125;1314.8447265625;1384.297119140625
40;1302.4169921875;1316.31298828125;1295.5052490234375;1314.48779296875;1383.9388427734375
41;1302.0985107421875;1315.9456787109375;1295.0653076171875;1314.13037109375;1383.5853271484375
42;1301.7767333984375;1315.577880859375;1294.617919921875;1313.772216796875;1383.229248046875
43;1301.4586181640625;1315.2103271484375;1294.1678466796875;1313.4134521484375;1382.87451171875
44;1301.1407470703125;1314.838623046875;1293.71484375;1313.050537109375;1382.524169921875
45;1300.8199462890625;1314.4705810546875;1293.26318359375;1312.6871337890625;1382.17529296875
46;1300.502197265625;1314.102294921875;1292.8043212890625;1312.3265380859375;1381.8270263671875
47;1300.181640625;1313.72998046875;1292.34228515625;1311.9617919921875;1381.4796142578125
48;1299.864013671875;1313.3575439453125;1291.8818359375;1311.59619140625;1381.1300048828125
49;1299.5435791015625;1312.988037109375;1291.418212890625;1311.230224609375;1380.7840576171875
50;1299.222900390625;1312.6182861328125;1290.9510498046875;1310.863525390625;1380.4359130859375
51;1298.9052734375;1312.248046875;1290.48095703125;1310.495849609375;1380.0882568359375
52;1298.5875244140625;1311.8739013671875;1290.0032958984375;1310.12744140625;1379.7415771484375
53;1298.26953125;1311.49951171875;1289.5264892578125;1309.7584228515625;1379.3951416015625
54;1297.951171875;1311.1243896484375;1289.0421142578125;1309.3885498046875;1379.04931640625
55;1297.6300048828125;1310.7518310546875;1288.55859375;1309.0177001953125;1378.7042236328125
56;1297.308349609375;1310.378662109375;1288.071533203125;1308.649169921875;1378.359130859375
57;1296.9891357421875;1310.0047607421875;1287.5809326171875;1308.2767333984375;1378.0142822265625
58;1296.6668701171875;1309.6302490234375;1287.0865478515625;1307.90625;1377.6700439453125
59;1296.3443603515625;1309.251953125;1286.5887451171875;1307.534912109375;1377.328369140625
60;1296.0234375;1308.8756103515625;1286.0872802734375;1307.1595458984375;1376.984130859375
61;1295.7022705078125;1308.49560546875;1285.5819091796875;1306.7833251953125;1376.639892578125
62;1295.380615234375;1308.1175537109375;1285.06884765625;1306.4058837890625;1376.2955322265625
63;1295.0556640625;1307.7384033203125;1284.5560302734375;1306.0302734375;1375.95361328125
64;1294.7301025390625;1307.3555908203125;1284.039306640625;1305.65087890625;1375.6114501953125
65;1294.4036865234375;1306.9744873046875;1283.518310546875;1305.2730712890625;1375.266357421875
66;1294.078857421875;1306.5919189453125;1282.99365234375;1304.89404296875;1374.9234619140625
67;1293.753173828125;1306.205810546875;1282.4647216796875;1304.51123046875;1374.5799560546875
68;1293.4241943359375;1305.8209228515625;1281.931640625;1304.12744140625;1374.23583984375
69;1293.096435546875;1305.4322509765625;1281.3944091796875;1303.7421875;1373.89111328125
70;1292.765380859375;1305.0445556640625;1280.85302734375;1303.3582763671875;1373.54541015625
71;1292.4354248046875;1304.65576171875;1280.307373046875;1302.970458984375;1373.198974609375
72;1292.1041259765625;1304.2625732421875;1279.75732421875;1302.583984375;1372.8492431640625
73;1291.771728515625;1303.8681640625;1279.1993408203125;1302.1961669921875;1372.4984130859375
74;1291.437744140625;1303.4720458984375;1278.640380859375;1301.80712890625;1372.1466064453125
75;1291.1025390625;1303.07666015625;1278.0770263671875;1301.41650390625;1371.7957763671875
76;1290.7635498046875;1302.677001953125;1277.5091552734375;1301.0245361328125;1371.441650390625
77;1290.4228515625;1302.278076171875;1276.9365234375;1300.62841796875;1371.0880126953125
78;1290.0806884765625;1301.877197265625;1276.3558349609375;1300.231201171875;1370.7330322265625
79;1289.738525390625;1301.4720458984375;1275.7738037109375;1299.8345947265625;1370.3763427734375
80;1289.39453125;1301.064697265625;1275.1832275390625;1299.4342041015625;1370.0179443359375
81;1289.046630859375;1300.6552734375;1274.5880126953125;1299.03466796875;1369.6578369140625
82;1288.6983642578125;1300.24365234375;1273.991455078125;1298.63330078125;1369.293701171875
83;1288.3482666015625;1299.8321533203125;1273.3863525390625;1298.22802734375;1368.9296875
84;1287.9954833984375;1299.41845703125;1272.776123046875;1297.8233642578125;1368.5635986328125
85;1287.638427734375;1298.9996337890625;1272.1611328125;1297.4169921875;1368.195068359375
86;1287.2786865234375;1298.5784912109375;1271.5440673828125;1297.0089111328125;1367.8223876953125
87;1286.9183349609375;1298.1571044921875;1270.9185791015625;1296.598876953125;1367.4471435546875
88;1286.5531005859375;1297.7308349609375;1270.2913818359375;1296.1846923828125;1367.0694580078125
89;1286.1868896484375;1297.303955078125;1269.65869140625;1295.7689208984375;1366.6890869140625
90;1285.815673828125;1296.8743896484375;1269.01708984375;1295.35302734375;1366.305908203125
91;1285.441162109375;1296.4393310546875;1268.3699951171875;1294.935302734375;1365.921875
92;1285.0650634765625;1296.00146484375;1267.720947265625;1294.5155029296875;1365.5347900390625
93;1284.68359375;1295.5626220703125;1267.066162109375;1294.0914306640625;1365.1427001953125
94;1284.2982177734375;1295.1207275390625;1266.4056396484375;1293.6654052734375;1364.747314453125
95;1283.9090576171875;1294.675537109375;1265.7396240234375;1293.23681640625;1364.3504638671875
96;1283.517578125;1294.224609375;1265.0675048828125;1292.8082275390625;1363.9503173828125
97;1283.1199951171875;1293.770263671875;1264.3897705078125;1292.37548828125;1363.54638671875
98;1282.719482421875;1293.3123779296875;1263.7025146484375;1291.942138671875;1363.1365966796875
99;1282.314453125;1292.8529052734375;1263.0126953125;1291.50634765625;1362.7230224609375
100;1281.902587890625;1292.387451171875;1262.3134765625;1291.066162109375;1362.305419921875
101;1281.4854736328125;1291.92041015625;1261.6082763671875;1290.6256103515625;1361.8856201171875
102;1281.0648193359375;1291.4493408203125;1260.896728515625;1290.1822509765625;1361.461669921875
103;1280.63671875;1290.97412109375;1260.1788330078125;1289.734375;1361.0330810546875
104;1280.2044677734375;1290.4925537109375;1259.4580078125;1289.28369140625;1360.5977783203125
105;1279.7662353515625;1290.0089111328125;1258.730712890625;1288.832275390625;1360.1578369140625
106;1279.321533203125;1289.518798828125;1257.9969482421875;1288.3778076171875;1359.71484375
107;1278.8680419921875;1289.02392578125;1257.2532958984375;1287.918701171875;1359.2667236328125
108;1278.4095458984375;1288.5267333984375;1256.5029296875;1287.45654296875;1358.813232421875
109;1277.9437255859375;1288.0225830078125;1255.7459716796875;1286.9912109375;1358.352294921875
110;1277.4703369140625;1287.5137939453125;1254.982177734375;1286.5230712890625;1357.885498046875
111;1276.9888916015625;1287.002197265625;1254.21484375;1286.0513916015625;1357.4129638671875
112;1276.499267578125;1286.4832763671875;1253.43701171875;1285.5767822265625;1356.9361572265625
113;1276.0008544921875;1285.959228515625;1252.652099609375;1285.0986328125;1356.4512939453125
114;1275.491455078125;1285.43212890625;1251.860107421875;1284.619140625;1355.961669921875
115;1274.974609375;1284.8995361328125;1251.0609130859375;1284.13427734375;1355.4632568359375
116;1274.447998046875;1284.3592529296875;1250.2545166015625;1283.64599609375;1354.957763671875
117;1273.9090576171875;1283.815673828125;1249.4407958984375;1283.1561279296875;1354.4471435546875
118;1273.359375;1283.26416015625;1248.6195068359375;1282.66064453125;1353.9288330078125
119;1272.798583984375;1282.706787109375;1247.79052734375;1282.16357421875;1353.402587890625
120;1272.2283935546875;1282.1455078125;1246.95751953125;1281.6629638671875;1352.8682861328125
121;1271.646240234375;1281.578369140625;1246.1165771484375;1281.1585693359375;1352.3253173828125
122;1271.0513916015625;1281.00244140625;1245.2642822265625;1280.648193359375;1351.7713623046875
123;1270.443603515625;1280.42236328125;1244.404541015625;1280.1341552734375;1351.2081298828125
124;1269.8197021484375;1279.8338623046875;1243.5400390625;1279.6181640625;1350.6378173828125
125;1269.183837890625;1279.23876953125;1242.6640625;1279.0980224609375;1350.057373046875
126;1268.5333251953125;1278.63671875;1241.7799072265625;1278.5738525390625;1349.464599609375
127;1267.8671875;1278.0302734375;1240.8876953125;1278.0435791015625;1348.861083984375
128;1267.1851806640625;1277.41455078125;1239.990234375;1277.509521484375;1348.246337890625
129;1266.486328125;1276.794189453125;1239.0843505859375;1276.970947265625;1347.6199951171875
130;1265.7701416015625;1276.16650390625;1238.1666259765625;1276.4283447265625;1346.984130859375
131;1265.0360107421875;1275.531494140625;1237.2437744140625;1275.88330078125;1346.33544921875
132;1264.282470703125;1274.8890380859375;1236.312255859375;1275.333984375;1345.6715087890625
133;1263.5069580078125;1274.23876953125;1235.3719482421875;1274.7784423828125;1344.996337890625
134;1262.7132568359375;1273.5806884765625;1234.4229736328125;1274.22021484375;1344.3046875
135;1261.8983154296875;1272.91259765625;1233.4652099609375;1273.65576171875;1343.600830078125
136;1261.060791015625;1272.2362060546875;1232.495361328125;1273.086669921875;1342.8817138671875
137;1260.197021484375;1271.5538330078125;1231.5162353515625;1272.512939453125;1342.1470947265625
138;1259.3089599609375;1270.8631591796875;1230.5318603515625;1271.9346923828125;1341.3961181640625
139;1258.398681640625;1270.163818359375;1229.538330078125;1271.3516845703125;1340.6280517578125
140;1257.4622802734375;1269.4534912109375;1228.5355224609375;1270.765869140625;1339.84228515625
141;1256.498291015625;1268.734375;1227.523681640625;1270.173095703125;1339.03857421875
142;1255.5025634765625;1268.0086669921875;1226.4990234375;1269.57763671875;1338.2130126953125
143;1254.4801025390625;1267.2738037109375;1225.4686279296875;1268.9752197265625;1337.3675537109375
144;1253.4267578125;1266.5272216796875;1224.4290771484375;1268.36767578125;1336.5047607421875
145;1252.337646484375;1265.771240234375;1223.3802490234375;1267.75732421875;1335.617919921875
146;1251.218505859375;1265.0081787109375;1222.3221435546875;1267.139892578125;1334.7125244140625
147;1250.064453125;1264.2352294921875;1221.2550048828125;1266.51904296875;1333.784423828125
148;1248.873779296875;1263.449951171875;1220.178466796875;1265.8912353515625;1332.8299560546875
149;1247.6453857421875;1262.65478515625;1219.0928955078125;1265.2598876953125;1331.8543701171875
150;1246.3741455078125;1261.851806640625;1217.9945068359375;1264.6234130859375;1330.8514404296875
151;1245.0660400390625;1261.0384521484375;1216.8868408203125;1263.981201171875;1329.8226318359375
152;1243.7154541015625;1260.214599609375;1215.7733154296875;1263.3319091796875;1328.7713623046875
153;1242.316650390625;1259.37744140625;1214.6507568359375;1262.6785888671875;1327.6895751953125
154;1240.876708984375;1258.531982421875;1213.51904296875;1262.01806640625;1326.5804443359375
155;1239.3900146484375;1257.6729736328125;1212.37841796875;1261.3515625;1325.4464111328125
156;1237.850341796875;1256.802978515625;1211.2286376953125;1260.67919921875;1324.2833251953125
157;1236.260498046875;1255.92138671875;1210.0670166015625;1260.0008544921875;1323.08740234375
158;1234.6197509765625;1255.028564453125;1208.8963623046875;1259.3165283203125;1321.8643798828125
159;1232.9263916015625;1254.1239013671875;1207.7208251953125;1258.6258544921875;1320.6102294921875
160;1231.1800537109375;1253.2100830078125;1206.533203125;1257.92919921875;1319.32470703125
161;1229.385009765625;1252.28173828125;1205.3406982421875;1257.22607421875;1318.007080078125
162;1227.531005859375;1251.3409423828125;1204.136474609375;1256.5184326171875;1316.6529541015625
163;1225.628173828125;1250.3880615234375;1202.927734375;1255.80224609375;1315.2696533203125
164;1223.6661376953125;1249.4224853515625;1201.707763671875;1255.079345703125;1313.8489990234375
165;1221.6514892578125;1248.444091796875;1200.4835205078125;1254.3494873046875;1312.398193359375
166;1219.5911865234375;1247.45556640625;1199.25146484375;1253.6126708984375;1310.909423828125
167;1217.4759521484375;1246.454345703125;1198.0120849609375;1252.86865234375;1309.385986328125
168;1215.3206787109375;1245.43701171875;1196.76220703125;1252.11767578125;1307.83251953125
169;1213.122802734375;1244.406494140625;1195.5052490234375;1251.3612060546875;1306.24462890625
170;1210.8795166015625;1243.3653564453125;1194.244873046875;1250.597412109375;1304.6226806640625
171;1208.608642578125;1242.3077392578125;1192.9775390625;1249.8260498046875;1302.9661865234375
172;1206.3033447265625;1241.239013671875;1191.7005615234375;1249.0467529296875;1301.2711181640625
173;1203.9808349609375;1240.1566162109375;1190.4171142578125;1248.2596435546875;1299.5474853515625
174;1201.636474609375;1239.059814453125;1189.1275634765625;1247.46240234375;1297.7867431640625
175;1199.2882080078125;1237.9488525390625;1187.8355712890625;1246.65673828125;1295.9937744140625
176;1196.9315185546875;1236.8204345703125;1186.5343017578125;1245.8427734375;1294.1695556640625
177;1194.585693359375;1235.67724609375;1185.2274169921875;1245.020263671875;1292.3153076171875
178;1192.2510986328125;1234.5191650390625;1183.9151611328125;1244.1910400390625;1290.432861328125
179;1189.9285888671875;1233.345947265625;1182.6011962890625;1243.35302734375;1288.527587890625
180;1187.6302490234375;1232.1575927734375;1181.279052734375;1242.5037841796875;1286.5919189453125
181;1185.3619384765625;1230.9537353515625;1179.95556640625;1241.6473388671875;1284.632568359375
182;1183.134521484375;1229.7344970703125;1178.6243896484375;1240.7816162109375;1282.65625
183;1180.940185546875;1228.5023193359375;1177.29248046875;1239.904052734375;1280.6551513671875
184;1178.7880859375;1227.2509765625;1175.95361328125;1239.01904296875;1278.640869140625
185;1176.6864013671875;1225.98681640625;1174.6143798828125;1238.1217041015625;1276.6109619140625
186;1174.6341552734375;1224.70654296875;1173.268310546875;1237.216796875;1274.562744140625
187;1172.6253662109375;1223.4066162109375;1171.92236328125;1236.30126953125;1272.509521484375
188;1170.666259765625;1222.090087890625;1170.5701904296875;1235.3729248046875;1270.443115234375
189;1168.7572021484375;1220.7569580078125;1169.21826171875;1234.436279296875;1268.3763427734375
190;1166.902587890625;1219.4068603515625;1167.8623046875;1233.4886474609375;1266.301513671875
191;1165.0936279296875;1218.039794921875;1166.505859375;1232.530029296875;1264.2265625
192;1163.338134765625;1216.6588134765625;1165.1513671875;1231.5599365234375;1262.158447265625
193;1161.6307373046875;1215.2606201171875;1163.7979736328125;1230.57861328125;1260.0946044921875
194;1159.9661865234375;1213.84521484375;1162.44384765625;1229.5858154296875;1258.0325927734375
195;1158.3514404296875;1212.4090576171875;1161.0889892578125;1228.5809326171875;1255.97998046875
196;1156.7764892578125;1210.955078125;1159.7305908203125;1227.56201171875;1253.938720703125
197;1155.248779296875;1209.483154296875;1158.37451171875;1226.533203125;1251.9151611328125
198;1153.7593994140625;1207.9974365234375;1157.018798828125;1225.4923095703125;1249.9024658203125
199;1152.311279296875;1206.4906005859375;1155.6629638671875;1224.4361572265625;1247.911376953125
200;1150.9080810546875;1204.9664306640625;1154.3082275390625;1223.3699951171875;1245.93896484375
201;1149.537353515625;1203.428466796875;1152.9561767578125;1222.2886962890625;1243.9864501953125
202;1148.2052001953125;1201.8697509765625;1151.60791015625;1221.19677734375;1242.0550537109375
203;1146.9068603515625;1200.2974853515625;1150.266357421875;1220.089111328125;1240.141357421875
204;1145.6395263671875;1198.7049560546875;1148.9312744140625;1218.9708251953125;1238.25537109375
205;1144.4013671875;1197.099365234375;1147.5989990234375;1217.8388671875;1236.3892822265625
206;1143.1893310546875;1195.47705078125;1146.26904296875;1216.6907958984375;1234.5482177734375
207;1142.0064697265625;1193.83544921875;1144.9449462890625;1215.531494140625;1232.7362060546875
208;1140.846923828125;1192.1776123046875;1143.6256103515625;1214.3558349609375;1230.9464111328125
209;1139.7152099609375;1190.5081787109375;1142.31201171875;1213.1685791015625;1229.1864013671875
210;1138.607666015625;1188.8199462890625;1141.004150390625;1211.9644775390625;1227.4530029296875
211;1137.519775390625;1187.1175537109375;1139.709716796875;1210.7459716796875;1225.742431640625
212;1136.454833984375;1185.404541015625;1138.4219970703125;1209.515625;1224.0621337890625
213;1135.4141845703125;1183.67431640625;1137.1436767578125;1208.26806640625;1222.4083251953125
214;1134.392333984375;1181.9346923828125;1135.8707275390625;1207.0084228515625;1220.777099609375
215;1133.390869140625;1180.179443359375;1134.6031494140625;1205.734130859375;1219.175537109375
216;1132.4112548828125;1178.416259765625;1133.3389892578125;1204.4423828125;1217.5997314453125
217;1131.447509765625;1176.6385498046875;1132.0794677734375;1203.1385498046875;1216.046142578125
218;1130.502197265625;1174.8543701171875;1130.8265380859375;1201.8197021484375;1214.5211181640625
219;1129.5732421875;1173.05712890625;1129.5863037109375;1200.4830322265625;1213.0169677734375
220;1128.660888671875;1171.2550048828125;1128.3531494140625;1199.13427734375;1211.5377197265625
221;1127.7645263671875;1169.4449462890625;1127.126708984375;1197.767822265625;1210.085693359375
222;1126.8848876953125;1167.624755859375;1125.90869140625;1196.38916015625;1208.656982421875
223;1126.016357421875;1165.80224609375;1124.6966552734377;1194.9954833984375;1207.25244140625
224;1125.1605224609377;1163.970703125;1123.4923095703123;1193.584228515625;1205.8675537109375
225;1124.3182373046877;1162.138671875;1122.299560546875;1192.1580810546875;1204.5076904296875
226;1123.487548828125;1160.2999267578125;1121.117431640625;1190.7197265625;1203.1693115234375
227;1122.666259765625;1158.46240234375;1119.94873046875;1189.2640380859375;1201.8492431640625
228;1121.8560791015623;1156.623779296875;1118.7921142578123;1187.7967529296875;1200.5523681640625
229;1121.0562744140623;1154.781494140625;1117.646728515625;1186.322021484375;1199.275634765625
230;1120.2669677734377;1152.93994140625;1116.511474609375;1184.83447265625;1198.0159912109375
231;1119.4884033203123;1151.099853515625;1115.3878173828123;1183.3338623046875;1196.7755126953125
232;1118.718505859375;1149.2625732421875;1114.275146484375;1181.8204345703125;1195.553466796875
233;1117.9569091796877;1147.4322509765625;1113.1759033203123;1180.29443359375;1194.3497314453125
234;1117.2042236328123;1145.602783203125;1112.0909423828123;1178.7528076171875;1193.1656494140625
235;1116.4583740234377;1143.77880859375;1111.0205078125;1177.2025146484375;1191.9967041015625
236;1115.7222900390623;1141.961181640625;1109.9599609375;1175.637451171875;1190.8443603515625
237;1114.9923095703123;1140.1539306640625;1108.9105224609377;1174.0640869140625;1189.710205078125
238;1114.2691650390623;1138.3509521484375;1107.875;1172.47705078125;1188.591796875
239;1113.5548095703123;1136.5599365234375;1106.8504638671877;1170.8795166015625;1187.4866943359375
240;1112.84765625;1134.7781982421875;1105.8363037109377;1169.2752685546875;1186.3988037109375
241;1112.1466064453123;1133.0062255859375;1104.834228515625;1167.65869140625;1185.3255615234375
242;1111.4508056640623;1131.241455078125;1103.84521484375;1166.032958984375;1184.2642822265625
243;1110.762451171875;1129.4879150390625;1102.8690185546877;1164.3990478515625;1183.217041015625
244;1110.0802001953123;1127.7462158203125;1101.9019775390623;1162.75732421875;1182.1849365234375
245;1109.4027099609377;1126.016845703125;1100.947265625;1161.111083984375;1181.1658935546875
246;1108.73193359375;1124.3028564453123;1100.00439453125;1159.4583740234375;1180.1575927734375
247;1108.0655517578123;1122.599365234375;1099.07568359375;1157.799560546875;1179.16357421875
248;1107.4063720703123;1120.91259765625;1098.1590576171877;1156.135986328125;1178.1798095703125
249;1106.7535400390623;1119.2364501953123;1097.254638671875;1154.46826171875;1177.20947265625
250;1106.105712890625;1117.5743408203123;1096.360107421875;1152.794189453125;1176.250732421875
251;1105.4625244140623;1115.9266357421877;1095.4769287109377;1151.11669921875;1175.301513671875
252;1104.82373046875;1114.293701171875;1094.60205078125;1149.43701171875;1174.363037109375
253;1104.189208984375;1112.6778564453123;1093.734619140625;1147.7584228515625;1173.436767578125
254;1103.5589599609377;1111.0770263671877;1092.87646484375;1146.0765380859375;1172.51904296875
255;1102.9322509765623;1109.493896484375;1092.0262451171877;1144.3941650390625;1171.6114501953125
256;1102.3109130859377;1107.92333984375;1091.1837158203123;1142.7152099609375;1170.7135009765625
257;1101.6923828125;1106.37109375;1090.3486328125;1141.0391845703125;1169.8253173828125
258;1101.0777587890623;1104.8341064453123;1089.5205078125;1139.3646240234375;1168.9464111328125
259;1100.4676513671877;1103.314453125;1088.6993408203123;1137.696044921875;1168.078125
260;1099.861328125;1101.81591796875;1087.885498046875;1136.0316162109375;1167.2186279296875
261;1099.2574462890623;1100.33447265625;1087.07958984375;1134.375;1166.366455078125
262;1098.6571044921877;1098.8660888671877;1086.2806396484377;1132.7232666015625;1165.5223388671875
263;1098.06103515625;1097.4132080078123;1085.4893798828123;1131.08251953125;1164.6868896484375
264;1097.4671630859377;1095.9794921875;1084.70458984375;1129.447021484375;1163.8592529296875
265;1096.877685546875;1094.5655517578123;1083.9259033203123;1127.823486328125;1163.041015625
266;1096.29052734375;1093.168212890625;1083.15283203125;1126.2056884765625;1162.2291259765625
267;1095.707763671875;1091.7938232421877;1082.38427734375;1124.6005859375;1161.4246826171875
268;1095.126953125;1090.4366455078123;1081.62158203125;1123.00537109375;1160.6278076171875
269;1094.5504150390623;1089.096435546875;1080.86572265625;1121.41943359375;1159.8382568359375
270;1093.976806640625;1087.7730712890623;1080.1156005859377;1119.84423828125;1159.0555419921875
271;1093.4063720703123;1086.4666748046877;1079.3704833984377;1118.27978515625;1158.2796630859375
272;1092.8388671875;1085.179443359375;1078.630859375;1116.7264404296877;1157.51171875
273;1092.2744140625;1083.91259765625;1077.8961181640623;1115.1849365234377;1156.750244140625
274;1091.7117919921877;1082.67041015625;1077.1650390625;1113.65673828125;1155.9940185546875
275;1091.1524658203123;1081.4576416015623;1076.4404296875;1112.139892578125;1155.2440185546875
276;1090.5955810546877;1080.2601318359377;1075.7203369140623;1110.64501953125;1154.5
277;1090.0411376953123;1079.082275390625;1075.00537109375;1109.1685791015623;1153.7630615234375
278;1089.4892578125;1077.9200439453123;1074.2950439453123;1107.7108154296877;1153.0306396484375
279;1088.9388427734377;1076.77294921875;1073.5894775390623;1106.2637939453123;1152.303955078125
280;1088.3907470703123;1075.644287109375;1072.8883056640623;1104.8319091796877;1151.5841064453125
281;1087.8458251953123;1074.5311279296877;1072.1904296875;1103.41162109375;1150.86962890625
282;1087.302001953125;1073.43701171875;1071.49658203125;1102.00634765625;1150.159423828125
283;1086.7615966796877;1072.361572265625;1070.8077392578123;1100.6158447265623;1149.4544677734375
284;1086.22265625;1071.2984619140623;1070.1219482421877;1099.2388916015623;1148.754638671875
285;1085.6864013671877;1070.24853515625;1069.4400634765623;1097.8782958984377;1148.0601806640625
286;1085.1522216796877;1069.21142578125;1068.7633056640623;1096.5362548828123;1147.3699951171875
287;1084.6199951171877;1068.1883544921877;1068.0906982421877;1095.2086181640623;1146.68505859375
288;1084.0889892578123;1067.17919921875;1067.4229736328123;1093.89892578125;1146.004638671875
289;1083.5604248046877;1066.1820068359377;1066.7584228515623;1092.6070556640623;1145.329833984375
290;1083.0330810546877;1065.197265625;1066.098876953125;1091.329833984375;1144.6585693359375
291;1082.5084228515623;1064.223876953125;1065.4429931640623;1090.06787109375;1143.991455078125
292;1081.9849853515623;1063.259765625;1064.7896728515623;1088.8209228515623;1143.32861328125
293;1081.464111328125;1062.3043212890623;1064.14013671875;1087.591552734375;1142.671142578125
294;1080.9442138671877;1061.3590087890623;1063.4949951171877;1086.37841796875;1142.0174560546875
295;1080.427001953125;1060.42138671875;1062.8533935546877;1085.181640625;1141.367919921875
296;1079.9111328125;1059.492919921875;1062.21533203125;1084.0045166015623;1140.7222900390625
297;1079.3980712890623;1058.5711669921877;1061.5809326171877;1082.843994140625;1140.0797119140625
298;1078.8868408203123;1057.656982421875;1060.9498291015623;1081.699951171875;1139.4407958984375
299;1078.37744140625;1056.75;1060.3211669921877;1080.5736083984377;1138.805908203125
300;1077.8704833984377;1055.8499755859377;1059.69677734375;1079.46240234375;1138.175537109375
301;1077.3653564453123;1054.95654296875;1059.0753173828123;1078.367431640625;1137.5479736328125
302;1076.8616943359377;1054.06982421875;1058.4569091796877;1077.2857666015623;1136.925048828125
303;1076.359619140625;1053.189453125;1057.8409423828123;1076.219970703125;1136.3055419921875
304;1075.8585205078123;1052.31640625;1057.22900390625;1075.1712646484377;1135.6898193359375
305;1075.3594970703123;1051.4495849609377;1056.6199951171877;1074.1348876953123;1135.0765380859375
306;1074.861083984375;1050.5882568359377;1056.013916015625;1073.1102294921877;1134.466796875
307;1074.3643798828123;1049.73291015625;1055.41064453125;1072.1044921875;1133.8612060546875
308;1073.869873046875;1048.8846435546877;1054.8094482421877;1071.1107177734377;1133.2589111328125
309;1073.3768310546877;1048.0423583984377;1054.211181640625;1070.129150390625;1132.658935546875
310;1072.884521484375;1047.2042236328123;1053.6153564453123;1069.163818359375;1132.062744140625
311;1072.393310546875;1046.372314453125;1053.0223388671877;1068.2103271484377;1131.4696044921875
312;1071.9036865234377;1045.544677734375;1052.43212890625;1067.2701416015623;1130.878662109375
313;1071.416015625;1044.721923828125;1051.84521484375;1066.34130859375;1130.2904052734375
314;1070.9296875;1043.9039306640623;1051.2601318359377;1065.42333984375;1129.7056884765625
315;1070.4447021484377;1043.091796875;1050.6776123046877;1064.51708984375;1129.1231689453125
316;1069.960693359375;1042.2835693359377;1050.097412109375;1063.6192626953123;1128.5440673828125
317;1069.4786376953123;1041.479736328125;1049.5206298828123;1062.73291015625;1127.966796875
318;1068.9976806640623;1040.6802978515623;1048.9461669921877;1061.85595703125;1127.3924560546875
319;1068.517333984375;1039.886474609375;1048.374267578125;1060.9886474609377;1126.8206787109375
320;1068.038818359375;1039.09716796875;1047.804931640625;1060.13232421875;1126.2515869140625
321;1067.5609130859377;1038.3116455078123;1047.23779296875;1059.284912109375;1125.6856689453123
322;1067.083984375;1037.53076171875;1046.673095703125;1058.4443359375;1125.1224365234377
323;1066.6082763671877;1036.754150390625;1046.1104736328123;1057.61376953125;1124.561767578125
324;1066.1339111328123;1035.982421875;1045.5501708984377;1056.7918701171877;1124.00244140625
325;1065.6605224609377;1035.2142333984377;1044.991455078125;1055.9779052734377;1123.4464111328123
326;1065.1890869140623;1034.44970703125;1044.435791015625;1055.1732177734377;1122.8927001953123
327;1064.7183837890623;1033.6893310546877;1043.8822021484377;1054.3760986328123;1122.341552734375
328;1064.2489013671877;1032.933837890625;1043.329833984375;1053.584228515625;1121.7916259765623
329;1063.780517578125;1032.1829833984377;1042.7806396484377;1052.8001708984377;1121.244140625
330;1063.3131103515623;1031.4366455078123;1042.2325439453123;1052.0223388671877;1120.6995849609377
331;1062.8460693359377;1030.6939697265623;1041.6875;1051.2515869140623;1120.1568603515623
332;1062.3802490234377;1029.955810546875;1041.143798828125;1050.486572265625;1119.61572265625
333;1061.9154052734377;1029.2208251953123;1040.6026611328123;1049.72802734375;1119.07666015625
334;1061.4521484375;1028.490966796875;1040.0628662109377;1048.9752197265623;1118.5396728515623
335;1060.9892578125;1027.7647705078123;1039.52490234375;1048.2269287109377;1118.00537109375
336;1060.5279541015623;1027.042236328125;1038.98974609375;1047.484130859375;1117.472412109375
337;1060.0675048828123;1026.3223876953123;1038.455810546875;1046.746337890625;1116.94140625
338;1059.6087646484377;1025.60693359375;1037.92431640625;1046.0146484375;1116.4124755859377
339;1059.1502685546877;1024.894287109375;1037.3948974609377;1045.2890625;1115.885498046875
340;1058.6934814453123;1024.18603515625;1036.8665771484377;1044.5675048828123;1115.3604736328123
341;1058.2376708984377;1023.481201171875;1036.34033203125;1043.8505859375;1114.8377685546877
342;1057.7823486328123;1022.7797241210938;1035.8157958984377;1043.1392822265623;1114.31689453125
343;1057.3280029296877;1022.081787109375;1035.2935791015623;1042.4326171875;1113.7979736328123
344;1056.8751220703123;1021.3870239257812;1034.7733154296877;1041.7296142578123;1113.280029296875
345;1056.423095703125;1020.694580078125;1034.254150390625;1041.0308837890623;1112.7645263671877
346;1055.9720458984377;1020.0053100585938;1033.7373046875;1040.3359375;1112.250244140625
347;1055.5213623046877;1019.3194580078124;1033.2220458984377;1039.6448974609377;1111.73828125
348;1055.072265625;1018.6376953125;1032.7078857421877;1038.9586181640623;1111.2279052734377
349;1054.6234130859377;1017.9596557617188;1032.195556640625;1038.2750244140623;1110.718505859375
350;1054.1761474609377;1017.284912109375;1031.684814453125;1037.59521484375;1110.2108154296877
351;1053.7293701171877;1016.613037109375;1031.17626953125;1036.9195556640623;1109.704833984375
352;1053.283935546875;1015.9443359375;1030.66943359375;1036.24755859375;1109.2010498046877
353;1052.8392333984377;1015.2784423828124;1030.1640625;1035.5789794921877;1108.69921875
354;1052.39501953125;1014.6155395507812;1029.660400390625;1034.9129638671877;1108.1981201171877
355;1051.9521484375;1013.9555053710938;1029.157958984375;1034.2510986328123;1107.69921875
356;1051.509521484375;1013.2987060546876;1028.6573486328123;1033.5924072265623;1107.201171875
357;1051.068115234375;1012.6456298828124;1028.157958984375;1032.93603515625;1106.70458984375
358;1050.6270751953123;1011.995361328125;1027.66015625;1032.28271484375;1106.2100830078123
359;1050.187255859375;1011.3479614257812;1027.163330078125;1031.63330078125;1105.71630859375
360;1049.7481689453123;1010.7032470703124;1026.66845703125;1030.98583984375;1105.2244873046877
361;1049.309326171875;1010.0606689453124;1026.1751708984377;1030.3414306640623;1104.7342529296877
362;1048.8712158203123;1009.4215698242188;1025.68310546875;1029.699951171875;1104.2447509765623
363;1048.43408203125;1008.78515625;1025.19287109375;1029.06201171875;1103.7574462890623
364;1047.9979248046877;1008.150634765625;1024.70361328125;1028.42626953125;1103.2711181640623
365;1047.5626220703123;1007.519287109375;1024.21533203125;1027.7935791015623;1102.785888671875
366;1047.1280517578123;1006.8900756835938;1023.7283935546876;1027.1640625;1102.3023681640623
367;1046.693603515625;1006.2633666992188;1023.243408203125;1026.537109375;1101.8201904296877
368;1046.2603759765623;1005.639892578125;1022.759033203125;1025.912841796875;1101.3389892578123
369;1045.827880859375;1005.0188598632812;1022.2760620117188;1025.29052734375;1100.8594970703123
370;1045.3958740234377;1004.3997192382812;1021.794921875;1024.6707763671877;1100.3812255859377
371;1044.9644775390623;1003.7837524414062;1021.3151245117188;1024.05419921875;1099.9039306640623
372;1044.533447265625;1003.170166015625;1020.8358154296876;1023.4401245117188;1099.42822265625
373;1044.10302734375;1002.558349609375;1020.3578491210938;1022.8284301757812;1098.953369140625
374;1043.6737060546877;1001.948974609375;1019.8817138671876;1022.218505859375;1098.479736328125
375;1043.2452392578123;1001.3419189453124;1019.4063720703124;1021.611083984375;1098.00732421875
376;1042.81689453125;1000.7373046875;1018.9327392578124;1021.0059814453124;1097.5362548828123
377;1042.3896484375;1000.135009765625;1018.4600830078124;1020.4037475585938;1097.066162109375
378;1041.9630126953123;999.5354614257812;1017.9888305664062;1019.8034057617188;1096.59765625
379;1041.536376953125;998.9384765625;1017.5186767578124;1019.205322265625;1096.1300048828123
380;1041.110595703125;998.343017578125;1017.0492553710938;1018.6099243164062;1095.663330078125
381;1040.685546875;997.749755859375;1016.580810546875;1018.0162963867188;1095.1978759765623
382;1040.260986328125;997.159423828125;1016.1141357421876;1017.4254760742188;1094.734130859375
383;1039.837646484375;996.5709838867188;1015.648681640625;1016.8363647460938;1094.271240234375
384;1039.4144287109377;995.9859008789062;1015.1837158203124;1016.2498779296876;1093.8096923828123
385;1038.9918212890623;995.402099609375;1014.719970703125;1015.6657104492188;1093.3485107421877
386;1038.569580078125;994.8207397460938;1014.257080078125;1015.0830078125;1092.8890380859377
387;1038.1485595703123;994.2415161132812;1013.7960205078124;1014.5030517578124;1092.4305419921877
388;1037.7276611328123;993.6650390625;1013.3358154296876;1013.9252319335938;1091.9732666015623
389;1037.3074951171877;993.0906982421876;1012.8764038085938;1013.3487548828124;1091.516845703125
390;1036.8876953125;992.5185546875;1012.4178466796876;1012.7750854492188;1091.061279296875
391;1036.468505859375;991.9483642578124;1011.960693359375;1012.2026977539062;1090.6065673828123
392;1036.0499267578123;991.3804321289062;1011.5047607421876;1011.6333618164062;1090.1529541015623
393;1035.6324462890623;990.8137817382812;1011.0498046875;1011.066162109375;1089.7008056640623
394;1035.2154541015623;990.249755859375;1010.595947265625;1010.5003051757812;1089.24951171875
395;1034.798828125;989.6870727539062;1010.142333984375;1009.937255859375;1088.7987060546877
396;1034.383056640625;989.1270751953124;1009.6908569335938;1009.3756713867188;1088.349609375
397;1033.9671630859377;988.5682373046876;1009.240234375;1008.8159790039062;1087.9012451171877
398;1033.5523681640623;988.0114135742188;1008.7905883789062;1008.2590942382812;1087.4539794921877
399;1033.1380615234377;987.4571533203124;1008.342041015625;1007.703369140625;1087.0076904296877
400;1032.724365234375;986.904296875;1007.8944091796876;1007.1498413085938;1086.5623779296877
401;1032.3106689453123;986.3541870117188;1007.4478149414062;1006.598388671875;1086.1175537109377
402;1031.897705078125;985.8053588867188;1007.0016479492188;1006.0485229492188;1085.673583984375
403;1031.4854736328123;985.2582397460938;1006.5565185546876;1005.5003051757812;1085.2308349609377
404;1031.073974609375;984.713134765625;1006.1126098632812;1004.9541015625;1084.789306640625
405;1030.662841796875;984.1703491210938;1005.6693725585938;1004.4100341796876;1084.3480224609377
406;1030.251953125;983.6294555664062;1005.227294921875;1003.8680419921876;1083.90771484375
407;1029.8419189453123;983.0902709960938;1004.786376953125;1003.3278198242188;1083.4686279296877
408;1029.431884765625;982.552734375;1004.345703125;1002.7887573242188;1083.0306396484377
409;1029.0228271484377;982.0177001953124;1003.906494140625;1002.2518310546876;1082.5928955078123
410;1028.6143798828123;981.484375;1003.4676513671876;1001.7162475585938;1082.156005859375
411;1028.2061767578123;980.9530029296876;1003.0301513671876;1001.1823120117188;1081.7200927734377
412;1027.7987060546877;980.4228515625;1002.5930786132812;1000.650634765625;1081.2847900390623
413;1027.3916015625;979.8950805664062;1002.1573486328124;1000.119873046875;1080.850341796875
414;1026.985107421875;979.3690185546876;1001.7223510742188;999.5913696289062;1080.416748046875
415;1026.5787353515623;978.843994140625;1001.2876586914062;999.0639038085938;1079.9840087890623
416;1026.1732177734377;978.3208618164062;1000.8543701171876;998.5380859375;1079.5521240234377
417;1025.7681884765623;977.7999267578124;1000.4219970703124;998.0142211914062;1079.121337890625
418;1025.363525390625;977.2801513671876;999.9898071289062;997.491943359375;1078.6915283203123
419;1024.9593505859377;976.7621459960938;999.55859375;996.9711303710938;1078.2618408203123
420;1024.5557861328123;976.246337890625;999.1284790039062;996.4520263671876;1077.833251953125
421;1024.152587890625;975.731689453125;998.6990966796876;995.9344482421876;1077.4056396484377
422;1023.74951171875;975.21875;998.2706298828124;995.4178466796876;1076.9786376953123
423;1023.3473510742188;974.707763671875;997.8428955078124;994.9031982421876;1076.55224609375
424;1022.9459228515624;974.1985473632812;997.4158935546876;994.3896484375;1076.12646484375
425;1022.5446166992188;973.6917114257812;996.9896850585938;993.8775024414062;1075.701416015625
426;1022.1439819335938;973.1866455078124;996.564208984375;993.367431640625;1075.277099609375
427;1021.7440185546876;972.6827392578124;996.1392211914062;992.8589477539062;1074.8538818359377
428;1021.3444213867188;972.181396484375;995.71484375;992.3518676757812;1074.431396484375
429;1020.9449462890624;971.6812133789062;995.2916870117188;991.8458251953124;1074.0091552734377
430;1020.5463256835938;971.1831665039062;994.8687133789062;991.3412475585938;1073.587646484375
431;1020.1481323242188;970.686279296875;994.4469604492188;990.8380126953124;1073.167236328125
432;1019.7500610351562;970.1915283203124;994.0255126953124;990.336669921875;1072.7474365234377
433;1019.3524169921876;969.6983642578124;993.6057739257812;989.8367919921876;1072.327880859375
434;1018.9555053710938;969.2063598632812;993.1869506835938;989.338134765625;1071.909423828125
435;1018.5587158203124;968.7166748046876;992.7685546875;988.840576171875;1071.4913330078123
436;1018.1625366210938;968.2282104492188;992.3511352539062;988.344482421875;1071.0740966796877
437;1017.7665405273438;967.741455078125;991.9346923828124;987.8497314453124;1070.6575927734377
438;1017.37109375;967.256103515625;991.5189819335938;987.3567504882812;1070.24169921875
439;1016.9764404296876;966.7727661132812;991.1041870117188;986.8645629882812;1069.826416015625
440;1016.5819091796876;966.2911376953124;990.6895751953124;986.3737182617188;1069.411376953125
441;1016.1876220703124;965.810546875;990.2759399414062;985.884521484375;1068.9969482421877
442;1015.7939453125;965.3313598632812;989.863037109375;985.3967895507812;1068.5833740234377
443;1015.4010620117188;964.8539428710938;989.4512939453124;984.9102783203124;1068.1702880859377
444;1015.0084228515624;964.378173828125;989.039794921875;984.425048828125;1067.7579345703123
445;1014.6165161132812;963.904052734375;988.6292114257812;983.941162109375;1067.346435546875
446;1014.2249145507812;963.431396484375;988.2191772460938;983.458251953125;1066.935302734375
447;1013.8338623046876;962.9600830078124;987.8101196289062;982.9765625;1066.5252685546877
448;1013.4432373046876;962.4903564453124;987.4017944335938;982.496337890625;1066.1156005859377
449;1013.0528564453124;962.0224609375;986.9940185546876;982.0174560546876;1065.7061767578123
450;1012.6626586914062;961.555419921875;986.5866088867188;981.5393676757812;1065.2977294921877
451;1012.2731323242188;961.0899658203124;986.1798095703124;981.0626220703124;1064.8895263671877
452;1011.8841552734376;960.6260986328124;985.7738647460938;980.5874633789062;1064.4822998046877
453;1011.4950561523438;960.1630859375;985.3684692382812;980.1135864257812;1064.075439453125
454;1011.1068725585938;959.701904296875;984.9639892578124;979.6403198242188;1063.6693115234377
455;1010.7190551757812;959.2415161132812;984.5601196289062;979.1683959960938;1063.2637939453123
456;1010.3316040039062;958.782470703125;984.1567993164062;978.697998046875;1062.8585205078123
457;1009.9445190429688;958.3245239257812;983.754150390625;978.228759765625;1062.4542236328123
458;1009.5579833984376;957.868408203125;983.3519897460938;977.7600708007812;1062.0501708984377
459;1009.1716918945312;957.413330078125;982.9506225585938;977.2925415039062;1061.646484375
460;1008.7854614257812;956.9595336914062;982.5498046875;976.826416015625;1061.243408203125
461;1008.4000854492188;956.5068359375;982.1495361328124;976.361328125;1060.841064453125
462;1008.0150146484376;956.0553588867188;981.7494506835938;975.8970336914062;1060.439208984375
463;1007.6302490234376;955.6050415039062;981.3500366210938;975.4341430664062;1060.0377197265623
464;1007.24560546875;955.1558227539062;980.9512939453124;974.97265625;1059.63671875
465;1006.8617553710938;954.7074584960938;980.5534057617188;974.511962890625;1059.236572265625
466;1006.4780883789062;954.2604370117188;980.1558227539062;974.0524291992188;1058.8365478515623
467;1006.0948486328124;953.814208984375;979.7590942382812;973.593994140625;1058.437255859375
468;1005.7120971679688;953.3692626953124;979.3626098632812;973.136962890625;1058.0382080078123
469;1005.3297119140624;952.9253540039062;978.966796875;972.6810913085938;1057.6400146484377
470;1004.9473876953124;952.4819946289062;978.5718383789062;972.2261352539062;1057.2420654296877
471;1004.5654296875;952.040283203125;978.1774291992188;971.772216796875;1056.8446044921877
472;1004.1841430664062;951.5990600585938;977.7835083007812;971.3190307617188;1056.447998046875
473;1003.8031616210938;951.1588745117188;977.3900756835938;970.8670654296876;1056.0518798828123
474;1003.4224243164062;950.7197265625;976.9970703125;970.415771484375;1055.6561279296877
475;1003.0423583984376;950.2819213867188;976.6044921875;969.9655151367188;1055.260498046875
476;1002.66259765625;949.8448486328124;976.2124633789062;969.516357421875;1054.8656005859377
477;1002.2833251953124;949.408935546875;975.8209838867188;969.0682373046876;1054.470947265625
478;1001.9041137695312;948.9739379882812;975.4299926757812;968.6206665039062;1054.0767822265623
479;1001.5250854492188;948.5400390625;975.0394897460938;968.1743774414062;1053.6834716796877
480;1001.146484375;948.107177734375;974.6498413085938;967.7290649414062;1053.2906494140623
481;1000.7684326171876;947.6751098632812;974.2607421875;967.2843017578124;1052.8980712890623
482;1000.3905029296876;947.2442626953124;973.872314453125;966.8406982421876;1052.5057373046877
483;1000.0130004882812;946.8139038085938;973.4844970703124;966.3978881835938;1052.1141357421877
484;999.6358032226562;946.384521484375;973.096923828125;965.9559326171876;1051.7227783203123
485;999.2589111328124;945.9563598632812;972.710205078125;965.5147705078124;1051.332275390625
486;998.8825073242188;945.5289916992188;972.3235473632812;965.0748901367188;1050.942138671875
487;998.5064086914062;945.102294921875;971.9379272460938;964.6358642578124;1050.5521240234377
488;998.1309814453124;944.6767578125;971.552734375;964.197265625;1050.162353515625
489;997.7554931640624;944.252197265625;971.1676635742188;963.7598876953124;1049.7733154296877
490;997.3803100585938;943.827880859375;970.783203125;963.3233642578124;1049.385009765625
491;997.005859375;943.4047241210938;970.399169921875;962.8875732421876;1048.9967041015623
492;996.6317749023438;942.9825439453124;970.015625;962.4522705078124;1048.60888671875
493;996.2579345703124;942.5614013671876;969.632568359375;962.017822265625;1048.2213134765623
494;995.8843994140624;942.140625;969.2503051757812;961.5841064453124;1047.83447265625
495;995.5112915039062;941.720703125;968.8682861328124;961.151611328125;1047.447998046875
496;995.1381225585938;941.302001953125;968.4866333007812;960.7198486328124;1047.0616455078123
497;994.7653198242188;940.8839111328124;968.1058959960938;960.2885131835938;1046.6756591796877
498;994.3928833007812;940.4664916992188;967.7257080078124;959.8583984375;1046.2900390625
499;994.0210571289062;940.0501098632812;967.3458251953124;959.4285888671876;1045.9049072265623
