;fold_0;fold_1;fold_2;fold_3;fold_4
0;1279.8721923828125;1320.1102294921875;1324.5362548828125;1324.4208984375;1426.2637939453125
1;1279.5037841796875;1319.700439453125;1324.256103515625;1324.062744140625;1425.8502197265625
2;1279.0067138671875;1319.291015625;1323.8790283203125;1323.755615234375;1425.296630859375
3;1278.5072021484375;1318.9193115234375;1323.535400390625;1323.39892578125;1424.7943115234375
4;1278.0364990234375;1318.5107421875;1323.1805419921875;1323.043212890625;1424.27783203125
5;1277.554443359375;1318.1202392578125;1322.8017578125;1322.7032470703125;1423.7293701171875
6;1277.0484619140625;1317.7125244140625;1322.433837890625;1322.3594970703125;1423.18310546875
7;1276.550537109375;1317.313232421875;1322.0616455078125;1322.005859375;1422.6385498046875
8;1276.0467529296875;1316.9112548828125;1321.6806640625;1321.6580810546875;1422.0960693359375
9;1275.537841796875;1316.50341796875;1321.2984619140625;1321.30908203125;1421.5557861328125
10;1275.0216064453125;1316.0950927734375;1320.915283203125;1320.959228515625;1421.017333984375
11;1274.5029296875;1315.6865234375;1320.5308837890625;1320.6087646484375;1420.4818115234375
12;1273.9813232421875;1315.2772216796875;1320.1446533203125;1320.2581787109375;1419.9476318359375
13;1273.4552001953125;1314.865966796875;1319.7576904296875;1319.90673828125;1419.415771484375
14;1272.9254150390625;1314.4552001953125;1319.3692626953125;1319.5550537109375;1418.8856201171875
15;1272.3951416015625;1314.041015625;1318.9793701171875;1319.2052001953125;1418.3580322265625
16;1271.857666015625;1313.6282958984375;1318.5848388671875;1318.8526611328125;1417.8323974609375
17;1271.3214111328125;1313.211181640625;1318.1881103515625;1318.5030517578125;1417.304443359375
18;1270.781982421875;1312.7923583984375;1317.793212890625;1318.153076171875;1416.7830810546875
19;1270.233642578125;1312.371826171875;1317.392333984375;1317.80322265625;1416.263916015625
20;1269.6876220703125;1311.9541015625;1316.9935302734375;1317.44970703125;1415.746826171875
21;1269.132080078125;1311.5301513671875;1316.5924072265625;1317.0958251953125;1415.2264404296875
22;1268.5732421875;1311.109130859375;1316.189453125;1316.74169921875;1414.708251953125
23;1268.010498046875;1310.686279296875;1315.779541015625;1316.3912353515625;1414.19189453125
24;1267.4505615234375;1310.2615966796875;1315.3719482421875;1316.04052734375;1413.6837158203125
25;1266.8870849609375;1309.8299560546875;1314.9619140625;1315.6895751953125;1413.1776123046875
26;1266.320068359375;1309.39599609375;1314.54931640625;1315.334228515625;1412.66748046875
27;1265.7423095703125;1308.965087890625;1314.12939453125;1314.978515625;1412.159912109375
28;1265.1678466796875;1308.53173828125;1313.706787109375;1314.62255859375;1411.66015625
29;1264.5826416015625;1308.0960693359375;1313.28662109375;1314.2703857421875;1411.1566162109375
30;1263.993408203125;1307.6527099609375;1312.8634033203125;1313.9176025390625;1410.6553955078125
31;1263.4072265625;1307.2069091796875;1312.437744140625;1313.5604248046875;1410.1619873046875
32;1262.810302734375;1306.763671875;1312.0091552734375;1313.206787109375;1409.6705322265625
33;1262.2158203125;1306.3177490234375;1311.57763671875;1312.848876953125;1409.1812744140625
34;1261.610595703125;1305.86376953125;1311.13818359375;1312.4940185546875;1408.6885986328125
35;1261.008056640625;1305.4072265625;1310.6956787109375;1312.1348876953125;1408.1976318359375
36;1260.4012451171875;1304.94775390625;1310.250244140625;1311.7750244140625;1407.7088623046875
37;1259.7838134765625;1304.49072265625;1309.8016357421875;1311.41455078125;1407.2274169921875
38;1259.1617431640625;1304.0301513671875;1309.3548583984375;1311.0535888671875;1406.7481689453125
39;1258.5421142578125;1303.5670166015625;1308.90478515625;1310.6917724609375;1406.2655029296875
40;1257.9114990234375;1303.1007080078125;1308.4515380859375;1310.3331298828125;1405.784912109375
41;1257.2763671875;1302.6260986328125;1307.994873046875;1309.9736328125;1405.31103515625
42;1256.63671875;1302.1534423828125;1307.5301513671875;1309.6134033203125;1404.8392333984375
43;1255.9991455078125;1301.67724609375;1307.0667724609375;1309.248291015625;1404.3690185546875
44;1255.3504638671875;1301.19775390625;1306.59521484375;1308.88623046875;1403.9007568359375
45;1254.703369140625;1300.715087890625;1306.124755859375;1308.5194091796875;1403.434326171875
46;1254.0518798828125;1300.22900390625;1305.65087890625;1308.1552734375;1402.96484375
47;1253.395263671875;1299.7391357421875;1305.1732177734375;1307.7901611328125;1402.4974365234375
48;1252.727783203125;1299.2459716796875;1304.69189453125;1307.4237060546875;1402.031494140625
49;1252.055419921875;1298.7445068359375;1304.2021484375;1307.0528564453125;1401.5716552734375
50;1251.3841552734375;1298.243896484375;1303.71337890625;1306.680908203125;1401.11328125
51;1250.7017822265625;1297.73974609375;1303.2161865234375;1306.3109130859375;1400.652587890625
52;1250.0206298828125;1297.22705078125;1302.715087890625;1305.9365234375;1400.1976318359375
53;1249.334228515625;1296.7149658203125;1302.21435546875;1305.56396484375;1399.7401123046875
54;1248.642822265625;1296.194580078125;1301.70556640625;1305.18994140625;1399.2838134765625
55;1247.9461669921875;1295.6748046875;1301.1968994140625;1304.814453125;1398.8333740234375
56;1247.244384765625;1295.15087890625;1300.6798095703125;1304.437744140625;1398.3839111328125
57;1246.53125;1294.6185302734375;1300.1629638671875;1304.05908203125;1397.9359130859375
58;1245.8128662109375;1294.08642578125;1299.6376953125;1303.67919921875;1397.4893798828125
59;1245.0948486328125;1293.54541015625;1299.108154296875;1303.2945556640625;1397.0440673828125
60;1244.365478515625;1293.0048828125;1298.578369140625;1302.9112548828125;1396.5965576171875
61;1243.6307373046875;1292.45556640625;1298.0404052734375;1302.5260009765625;1396.1502685546875
62;1242.8902587890625;1291.906005859375;1297.4976806640625;1302.13623046875;1395.708740234375
63;1242.144287109375;1291.3480224609375;1296.95068359375;1301.7471923828125;1395.268310546875
64;1241.392578125;1290.7852783203125;1296.399169921875;1301.3536376953125;1394.8258056640625
65;1240.6405029296875;1290.218017578125;1295.8470458984375;1300.960693359375;1394.387451171875
66;1239.877197265625;1289.64599609375;1295.2864990234375;1300.56298828125;1393.9503173828125
67;1239.1080322265625;1289.0694580078125;1294.7210693359375;1300.1629638671875;1393.51416015625
68;1238.3331298828125;1288.488037109375;1294.15087890625;1299.7637939453125;1393.078857421875
69;1237.5574951171875;1287.9058837890625;1293.5758056640625;1299.359375;1392.6446533203125
70;1236.7703857421875;1287.31884765625;1293.0;1298.95263671875;1392.2083740234375
71;1235.982421875;1286.722900390625;1292.41552734375;1298.54638671875;1391.7757568359375
72;1235.183349609375;1286.1258544921875;1291.8297119140625;1298.137451171875;1391.3411865234375
73;1234.3778076171875;1285.5196533203125;1291.2391357421875;1297.72607421875;1390.91015625
74;1233.566162109375;1284.9124755859375;1290.6395263671875;1297.31201171875;1390.477294921875
75;1232.753173828125;1284.2999267578125;1290.034912109375;1296.8924560546875;1390.0450439453125
76;1231.933837890625;1283.68212890625;1289.4288330078125;1296.4703369140625;1389.613525390625
77;1231.1082763671875;1283.058837890625;1288.817626953125;1296.0452880859375;1389.1827392578125
78;1230.276123046875;1282.43017578125;1288.197265625;1295.6197509765625;1388.7550048828125
79;1229.4322509765625;1281.7960205078125;1287.57177734375;1295.188720703125;1388.3253173828125
80;1228.5867919921875;1281.1561279296875;1286.9444580078125;1294.75439453125;1387.898681640625
81;1227.734619140625;1280.5107421875;1286.3116455078125;1294.3170166015625;1387.469970703125
82;1226.8759765625;1279.8555908203125;1285.67333984375;1293.876220703125;1387.0440673828125
83;1226.0106201171875;1279.1986083984375;1285.02978515625;1293.434814453125;1386.61865234375
84;1225.1380615234375;1278.535400390625;1284.3802490234375;1292.9896240234375;1386.1934814453125
85;1224.254150390625;1277.8663330078125;1283.7252197265625;1292.541015625;1385.7686767578125
86;1223.3681640625;1277.19091796875;1283.0606689453125;1292.0859375;1385.343994140625
87;1222.4700927734375;1276.5059814453125;1282.39404296875;1291.6298828125;1384.917236328125
88;1221.570068359375;1275.8182373046875;1281.7178955078125;1291.1697998046875;1384.4903564453125
89;1220.6629638671875;1275.12060546875;1281.0394287109375;1290.705810546875;1384.066162109375
90;1219.743896484375;1274.416748046875;1280.35498046875;1290.23779296875;1383.6395263671875
91;1218.822021484375;1273.709716796875;1279.6644287109375;1289.762939453125;1383.2130126953125
92;1217.893310546875;1272.996337890625;1278.968017578125;1289.286376953125;1382.7864990234375
93;1216.9522705078125;1272.276123046875;1278.261474609375;1288.8028564453125;1382.362060546875
94;1216.00390625;1271.545654296875;1277.549072265625;1288.3145751953125;1381.9373779296875
95;1215.052978515625;1270.8118896484375;1276.830078125;1287.824462890625;1381.5103759765625
96;1214.0943603515625;1270.0711669921875;1276.1048583984375;1287.329345703125;1381.08544921875
97;1213.1236572265625;1269.3197021484375;1275.37646484375;1286.8294677734375;1380.659912109375
98;1212.145263671875;1268.56103515625;1274.6417236328125;1286.32177734375;1380.234130859375
99;1211.1639404296875;1267.795166015625;1273.9002685546875;1285.811767578125;1379.807861328125
100;1210.1749267578125;1267.025390625;1273.14892578125;1285.2962646484375;1379.379150390625
101;1209.1732177734375;1266.24853515625;1272.3941650390625;1284.77294921875;1378.951904296875
102;1208.168701171875;1265.464111328125;1271.632568359375;1284.246337890625;1378.5220947265625
103;1207.1514892578125;1264.671875;1270.86083984375;1283.7117919921875;1378.091796875
104;1206.1263427734375;1263.868408203125;1270.08203125;1283.173828125;1377.6627197265625
105;1205.093505859375;1263.05712890625;1269.296142578125;1282.6298828125;1377.23095703125
106;1204.0523681640625;1262.23779296875;1268.5068359375;1282.077392578125;1376.80029296875
107;1203.0079345703125;1261.4105224609375;1267.7069091796875;1281.5185546875;1376.368896484375
108;1201.9552001953125;1260.5750732421875;1266.8997802734375;1280.9556884765625;1375.9366455078125
109;1200.894287109375;1259.735107421875;1266.0887451171875;1280.3839111328125;1375.50146484375
110;1199.8250732421875;1258.88671875;1265.266845703125;1279.80517578125;1375.067138671875
111;1198.7474365234375;1258.0263671875;1264.437255859375;1279.22216796875;1374.6319580078125
112;1197.6571044921875;1257.1572265625;1263.60400390625;1278.62939453125;1374.195556640625
113;1196.558349609375;1256.279541015625;1262.75927734375;1278.0294189453125;1373.7579345703125
114;1195.4554443359375;1255.3966064453125;1261.9068603515625;1277.421875;1373.3192138671875
115;1194.3443603515625;1254.5048828125;1261.05029296875;1276.8092041015625;1372.879150390625
116;1193.224365234375;1253.6004638671875;1260.18212890625;1276.18603515625;1372.43603515625
117;1192.091552734375;1252.690673828125;1259.30615234375;1275.5572509765625;1371.993408203125
118;1190.9498291015625;1251.7716064453125;1258.4256591796875;1274.92041015625;1371.549072265625
119;1189.8038330078125;1250.843505859375;1257.53369140625;1274.275146484375;1371.1033935546875
120;1188.6490478515625;1249.906005859375;1256.63330078125;1273.6185302734375;1370.65625
121;1187.4853515625;1248.95556640625;1255.7281494140625;1272.95556640625;1370.20751953125
122;1186.308349609375;1247.995361328125;1254.81103515625;1272.2835693359375;1369.7552490234375
123;1185.1263427734375;1247.0291748046875;1253.88916015625;1271.5994873046875;1369.3031005859375
124;1183.9310302734375;1246.0496826171875;1252.954833984375;1270.906005859375;1368.8489990234375
125;1182.7265625;1245.060302734375;1252.0152587890625;1270.205322265625;1368.3914794921875
126;1181.5174560546875;1244.0645751953125;1251.0633544921875;1269.491943359375;1367.933837890625
127;1180.2945556640625;1243.05517578125;1250.105712890625;1268.770751953125;1367.4742431640625
128;1179.062255859375;1242.0357666015625;1249.1390380859375;1268.0362548828125;1367.012451171875
129;1177.8250732421875;1241.00634765625;1248.162841796875;1267.293701171875;1366.547119140625
130;1176.578857421875;1239.966552734375;1247.17724609375;1266.5369873046875;1366.0797119140625
131;1175.3231201171875;1238.91650390625;1246.18212890625;1265.771728515625;1365.6114501953125
132;1174.0537109375;1237.8558349609375;1245.1773681640625;1264.99462890625;1365.14111328125
133;1172.7750244140625;1236.788330078125;1244.1591796875;1264.20263671875;1364.6666259765625
134;1171.4913330078125;1235.7066650390625;1243.1309814453125;1263.3983154296875;1364.191650390625
135;1170.19384765625;1234.6182861328125;1242.09228515625;1262.58154296875;1363.71435546875
136;1168.8914794921875;1233.5189208984375;1241.046875;1261.75439453125;1363.232666015625
137;1167.575439453125;1232.4051513671875;1239.990966796875;1260.9140625;1362.7484130859375
138;1166.254638671875;1231.2845458984375;1238.9207763671875;1260.05712890625;1362.2633056640625
139;1164.9200439453125;1230.1490478515625;1237.8399658203125;1259.18896484375;1361.7752685546875
140;1163.5806884765625;1229.0064697265625;1236.7479248046875;1258.3033447265625;1361.2828369140625
141;1162.232177734375;1227.84912109375;1235.6480712890625;1257.40283203125;1360.789306640625
142;1160.8743896484375;1226.6844482421875;1234.536865234375;1256.490234375;1360.2913818359375
143;1159.5076904296875;1225.509033203125;1233.41064453125;1255.5623779296875;1359.7921142578125
144;1158.127685546875;1224.322509765625;1232.2764892578125;1254.6156005859375;1359.2879638671875
145;1156.7386474609375;1223.125;1231.12646484375;1253.65576171875;1358.7825927734375
146;1155.341064453125;1221.91259765625;1229.96435546875;1252.67626953125;1358.272216796875
147;1153.9393310546875;1220.69287109375;1228.7900390625;1251.6798095703125;1357.7603759765625
148;1152.5245361328125;1219.45849609375;1227.6033935546875;1250.666015625;1357.245361328125
149;1151.1058349609375;1218.21630859375;1226.4078369140625;1249.6375732421875;1356.726806640625
150;1149.674560546875;1216.9632568359375;1225.1956787109375;1248.5911865234375;1356.203369140625
151;1148.239501953125;1215.6990966796875;1223.974609375;1247.523193359375;1355.67626953125
152;1146.792236328125;1214.419677734375;1222.740234375;1246.4365234375;1355.1456298828125
153;1145.3416748046875;1213.13330078125;1221.4927978515625;1245.3309326171875;1354.611328125
154;1143.8834228515625;1211.83154296875;1220.2281494140625;1244.20947265625;1354.07470703125
155;1142.41796875;1210.5225830078125;1218.950439453125;1243.06494140625;1353.5330810546875
156;1140.9410400390625;1209.2025146484375;1217.6590576171875;1241.9041748046875;1352.98876953125
157;1139.457275390625;1207.871826171875;1216.357666015625;1240.72314453125;1352.44091796875
158;1137.967041015625;1206.5257568359375;1215.038818359375;1239.5184326171875;1351.886962890625
159;1136.474853515625;1205.1729736328125;1213.7103271484375;1238.2933349609375;1351.3292236328125
160;1134.9725341796875;1203.809326171875;1212.3677978515625;1237.04736328125;1350.76708984375
161;1133.464599609375;1202.434814453125;1211.0078125;1235.784423828125;1350.2008056640625
162;1131.955810546875;1201.045654296875;1209.6339111328125;1234.500244140625;1349.6302490234375
163;1130.4381103515625;1199.649658203125;1208.2459716796875;1233.19140625;1349.054931640625
164;1128.9200439453125;1198.2432861328125;1206.84814453125;1231.861328125;1348.4752197265625
165;1127.3939208984375;1196.826416015625;1205.4365234375;1230.510498046875;1347.8927001953125
166;1125.868408203125;1195.3994140625;1204.0113525390625;1229.138427734375;1347.303466796875
167;1124.3355712890623;1193.96240234375;1202.5721435546875;1227.7459716796875;1346.7113037109375
168;1122.7999267578123;1192.51123046875;1201.1195068359375;1226.3367919921875;1346.11279296875
169;1121.2620849609377;1191.05029296875;1199.6531982421875;1224.90771484375;1345.509033203125
170;1119.7266845703123;1189.5794677734375;1198.1695556640625;1223.4583740234375;1344.9000244140625
171;1118.190185546875;1188.09912109375;1196.6768798828125;1221.9896240234375;1344.2860107421875
172;1116.6488037109377;1186.6136474609375;1195.1712646484375;1220.502197265625;1343.6666259765625
173;1115.111328125;1185.118896484375;1193.64892578125;1218.9921875;1343.043701171875
174;1113.5740966796877;1183.6109619140625;1192.1177978515625;1217.4686279296875;1342.4151611328125
175;1112.037841796875;1182.0986328125;1190.5704345703125;1215.92333984375;1341.779052734375
176;1110.502685546875;1180.5738525390625;1189.01123046875;1214.3619384765625;1341.1373291015625
177;1108.969482421875;1179.0408935546875;1187.4405517578125;1212.788818359375;1340.4898681640625
178;1107.4388427734377;1177.5040283203125;1185.8583984375;1211.201171875;1339.8377685546875
179;1105.9073486328123;1175.955810546875;1184.2696533203125;1209.59521484375;1339.1796875
180;1104.3834228515623;1174.40380859375;1182.67041015625;1207.976318359375;1338.515380859375
181;1102.8636474609377;1172.8450927734375;1181.0609130859375;1206.35009765625;1337.8448486328125
182;1101.3486328125;1171.275390625;1179.4375;1204.7132568359375;1337.1658935546875
183;1099.835205078125;1169.6993408203125;1177.80517578125;1203.0667724609375;1336.4822998046875
184;1098.331298828125;1168.1170654296875;1176.1680908203125;1201.40771484375;1335.791748046875
185;1096.833984375;1166.5291748046875;1174.51904296875;1199.74609375;1335.09423828125
186;1095.3433837890623;1164.9395751953125;1172.86279296875;1198.078369140625;1334.389892578125
187;1093.85986328125;1163.3447265625;1171.203857421875;1196.402099609375;1333.6761474609375
188;1092.3841552734377;1161.7449951171875;1169.53857421875;1194.722412109375;1332.95703125
189;1090.9169921875;1160.136962890625;1167.86767578125;1193.0408935546875;1332.228515625
190;1089.45849609375;1158.52490234375;1166.1920166015625;1191.3624267578125;1331.4940185546875
191;1088.0091552734377;1156.9132080078125;1164.5123291015625;1189.684326171875;1330.75
192;1086.5697021484377;1155.29833984375;1162.828857421875;1188.0040283203125;1329.9976806640625
193;1085.1402587890623;1153.6771240234375;1161.13916015625;1186.326416015625;1329.23876953125
194;1083.7178955078123;1152.05712890625;1159.4517822265625;1184.6529541015625;1328.4698486328125
195;1082.306396484375;1150.43505859375;1157.7593994140625;1182.9884033203125;1327.69189453125
196;1080.9091796875;1148.8116455078125;1156.0667724609375;1181.32666015625;1326.9053955078125
197;1079.520751953125;1147.1871337890625;1154.37841796875;1179.6763916015625;1326.1094970703125
198;1078.1484375;1145.558349609375;1152.691650390625;1178.031005859375;1325.30419921875
199;1076.788330078125;1143.9295654296875;1151.0030517578125;1176.3990478515625;1324.4908447265625
200;1075.4404296875;1142.3046875;1149.3175048828125;1174.777587890625;1323.6658935546875
201;1074.1021728515623;1140.6766357421875;1147.635498046875;1173.16748046875;1322.83251953125
202;1072.7763671875;1139.05029296875;1145.9620361328125;1171.5692138671875;1321.9888916015625
203;1071.4693603515623;1137.4290771484375;1144.290283203125;1169.98046875;1321.132568359375
204;1070.1737060546877;1135.8062744140625;1142.624755859375;1168.4090576171875;1320.2672119140625
205;1068.896728515625;1134.1898193359375;1140.9700927734375;1166.84912109375;1319.3885498046875
206;1067.6385498046877;1132.57275390625;1139.3197021484375;1165.3076171875;1318.4998779296875
207;1066.3992919921877;1130.958984375;1137.6810302734375;1163.77783203125;1317.597412109375
208;1065.171630859375;1129.352783203125;1136.04833984375;1162.263916015625;1316.6844482421875
209;1063.9605712890623;1127.7471923828125;1134.42919921875;1160.7662353515625;1315.757080078125
210;1062.762451171875;1126.14990234375;1132.820556640625;1159.288818359375;1314.81640625
211;1061.5872802734377;1124.55419921875;1131.2232666015625;1157.8251953125;1313.8624267578125
212;1060.4267578125;1122.9674072265623;1129.6380615234375;1156.381591796875;1312.8963623046875
213;1059.2840576171877;1121.38623046875;1128.06494140625;1154.9554443359375;1311.9140625
214;1058.155517578125;1119.8115234375;1126.5054931640625;1153.548828125;1310.916748046875
215;1057.040771484375;1118.23974609375;1124.95947265625;1152.16064453125;1309.9066162109375
216;1055.9420166015623;1116.677978515625;1123.4244384765623;1150.7869873046875;1308.878662109375
217;1054.868896484375;1115.123046875;1121.90771484375;1149.43408203125;1307.8341064453125
218;1053.8115234375;1113.572509765625;1120.40283203125;1148.098388671875;1306.7730712890625
219;1052.7740478515623;1112.029541015625;1118.91357421875;1146.78076171875;1305.69482421875
220;1051.7474365234377;1110.49462890625;1117.4400634765623;1145.4810791015625;1304.5985107421875
221;1050.736572265625;1108.9681396484377;1115.9857177734377;1144.1982421875;1303.4842529296875
222;1049.7376708984377;1107.4500732421877;1114.5447998046877;1142.9332275390625;1302.3531494140625
223;1048.7572021484377;1105.943603515625;1113.12353515625;1141.6829833984375;1301.2003173828125
224;1047.7945556640623;1104.4459228515623;1111.71923828125;1140.451904296875;1300.0294189453125
225;1046.845947265625;1102.95751953125;1110.331787109375;1139.2352294921875;1298.83544921875
226;1045.91064453125;1101.4781494140623;1108.9615478515623;1138.0355224609375;1297.6202392578125
227;1044.9879150390623;1100.005126953125;1107.6060791015623;1136.8519287109375;1296.3851318359375
228;1044.08203125;1098.54443359375;1106.2705078125;1135.6854248046875;1295.1275634765625
229;1043.190673828125;1097.093505859375;1104.9495849609377;1134.538330078125;1293.8465576171875
230;1042.311767578125;1095.6495361328123;1103.6488037109377;1133.4071044921875;1292.5413818359375
231;1041.4444580078123;1094.2152099609377;1102.3636474609377;1132.2890625;1291.2086181640625
232;1040.590576171875;1092.7908935546877;1101.095947265625;1131.1859130859375;1289.852783203125
233;1039.7481689453123;1091.37646484375;1099.845703125;1130.099853515625;1288.4708251953125
234;1038.913818359375;1089.97216796875;1098.615234375;1129.028564453125;1287.061767578125
235;1038.0926513671877;1088.58056640625;1097.40185546875;1127.969970703125;1285.625
236;1037.2803955078123;1087.19677734375;1096.2052001953123;1126.926513671875;1284.159912109375
237;1036.479248046875;1085.8258056640623;1095.0252685546877;1125.8992919921877;1282.665771484375
238;1035.6854248046877;1084.4627685546877;1093.8616943359377;1124.8831787109377;1281.1395263671875
239;1034.899169921875;1083.112548828125;1092.7130126953123;1123.8800048828123;1279.585693359375
240;1034.1201171875;1081.7701416015623;1091.5811767578123;1122.88916015625;1278.0015869140625
241;1033.348388671875;1080.43798828125;1090.46533203125;1121.9124755859377;1276.385986328125
242;1032.5838623046877;1079.11865234375;1089.3671875;1120.9481201171877;1274.7359619140625
243;1031.825927734375;1077.8092041015623;1088.282470703125;1119.9949951171877;1273.0570068359375
244;1031.0767822265623;1076.5076904296877;1087.2144775390623;1119.05322265625;1271.345947265625
245;1030.333740234375;1075.21875;1086.1617431640623;1118.1246337890623;1269.602294921875
246;1029.5972900390623;1073.93994140625;1085.1246337890623;1117.20703125;1267.8262939453125
247;1028.8662109375;1072.67138671875;1084.1007080078123;1116.30078125;1266.0174560546875
248;1028.1407470703123;1071.41259765625;1083.090576171875;1115.4053955078123;1264.1732177734375
249;1027.4190673828123;1070.1640625;1082.0948486328123;1114.5189208984377;1262.29638671875
250;1026.7039794921877;1068.923583984375;1081.1124267578123;1113.6424560546877;1260.3878173828125
251;1025.994140625;1067.6949462890623;1080.1448974609377;1112.7772216796877;1258.4481201171875
252;1025.287841796875;1066.4761962890623;1079.18798828125;1111.92138671875;1256.4781494140625
253;1024.5860595703123;1065.267578125;1078.245361328125;1111.0748291015623;1254.4818115234375
254;1023.888671875;1064.0684814453123;1077.31298828125;1110.2369384765623;1252.45361328125
255;1023.1957397460938;1062.8770751953123;1076.3951416015623;1109.4066162109377;1250.39892578125
256;1022.5069580078124;1061.6951904296877;1075.4881591796877;1108.584716796875;1248.3199462890625
257;1021.8223876953124;1060.52490234375;1074.594482421875;1107.772705078125;1246.2215576171875
258;1021.1442260742188;1059.362060546875;1073.710205078125;1106.9677734375;1244.1029052734375
259;1020.4700927734376;1058.21044921875;1072.838623046875;1106.1712646484377;1241.96826171875
260;1019.7987060546876;1057.0679931640623;1071.9776611328123;1105.3836669921877;1239.81640625
261;1019.1312255859376;1055.9329833984377;1071.1270751953123;1104.60400390625;1237.656982421875
262;1018.4685668945312;1054.80712890625;1070.286376953125;1103.830810546875;1235.4898681640625
263;1017.8094482421876;1053.69189453125;1069.4539794921877;1103.0662841796877;1233.3177490234375
264;1017.1528930664062;1052.585693359375;1068.63232421875;1102.3076171875;1231.142822265625
265;1016.5012817382812;1051.4884033203123;1067.81884765625;1101.5574951171877;1228.9776611328125
266;1015.8530883789062;1050.39794921875;1067.0145263671877;1100.81298828125;1226.8206787109375
267;1015.2081298828124;1049.318115234375;1066.2205810546877;1100.075439453125;1224.6776123046875
268;1014.5654296875;1048.2469482421877;1065.4339599609377;1099.3453369140623;1222.5479736328125
269;1013.9271850585938;1047.182373046875;1064.6552734375;1098.620361328125;1220.4356689453125
270;1013.2919921875;1046.12646484375;1063.8858642578123;1097.9012451171877;1218.3450927734375
271;1012.6588134765624;1045.080810546875;1063.124267578125;1097.1881103515623;1216.27783203125
272;1012.0289916992188;1044.04150390625;1062.3701171875;1096.4810791015623;1214.23974609375
273;1011.4031372070312;1043.01220703125;1061.621826171875;1095.78076171875;1212.2293701171875
274;1010.7794189453124;1041.9910888671877;1060.8822021484377;1095.0863037109377;1210.2567138671875
275;1010.1596069335938;1040.976318359375;1060.1497802734377;1094.39599609375;1208.3221435546875
276;1009.5426635742188;1039.9693603515623;1059.4241943359377;1093.711181640625;1206.42529296875
277;1008.9287109375;1038.97216796875;1058.7041015625;1093.0325927734377;1204.5679931640625
278;1008.3165283203124;1037.9825439453123;1057.990478515625;1092.35791015625;1202.750244140625
279;1007.7072143554688;1037.0006103515623;1057.2840576171877;1091.6881103515623;1200.96923828125
280;1007.1005859375;1036.0247802734377;1056.5823974609377;1091.0247802734377;1199.229736328125
281;1006.4976196289062;1035.056640625;1055.8878173828123;1090.3662109375;1197.5318603515625
282;1005.8973999023438;1034.097412109375;1055.197998046875;1089.712158203125;1195.8724365234375
283;1005.298828125;1033.145751953125;1054.5145263671877;1089.061767578125;1194.2513427734375
284;1004.7036743164062;1032.2010498046877;1053.836669921875;1088.4161376953123;1192.6697998046875
285;1004.1104125976562;1031.262451171875;1053.1649169921877;1087.77490234375;1191.1273193359375
286;1003.51953125;1030.3328857421877;1052.5;1087.138671875;1189.621337890625
287;1002.9320678710938;1029.4090576171877;1051.84130859375;1086.5057373046877;1188.153076171875
288;1002.3471069335938;1028.4935302734377;1051.1866455078123;1085.877685546875;1186.719970703125
289;1001.7637939453124;1027.5838623046877;1050.536865234375;1085.2528076171877;1185.320068359375
290;1001.1827392578124;1026.681396484375;1049.8934326171877;1084.63232421875;1183.9542236328125
291;1000.6041870117188;1025.785888671875;1049.25439453125;1084.0159912109377;1182.6231689453125
292;1000.0288696289062;1024.8984375;1048.62109375;1083.4024658203123;1181.3182373046875
293;999.4557495117188;1024.0167236328123;1047.9935302734377;1082.79345703125;1180.04248046875
294;998.8842163085938;1023.1427001953124;1047.3709716796877;1082.1871337890623;1178.792724609375
295;998.3148803710938;1022.275146484375;1046.7529296875;1081.5853271484377;1177.5682373046875
296;997.7486572265624;1021.414306640625;1046.138427734375;1080.986083984375;1176.369384765625
297;997.1838989257812;1020.5599975585938;1045.5286865234377;1080.39111328125;1175.1942138671875
298;996.6212158203124;1019.712158203125;1044.923095703125;1079.799560546875;1174.039306640625
299;996.0617065429688;1018.87109375;1044.32275390625;1079.21044921875;1172.9080810546875
300;995.5042114257812;1018.0380859375;1043.7275390625;1078.62451171875;1171.796142578125
301;994.9489135742188;1017.2098388671876;1043.13671875;1078.0416259765623;1170.7066650390625
302;994.3948364257812;1016.387939453125;1042.5499267578123;1077.462646484375;1169.6346435546875
303;993.8436279296876;1015.572021484375;1041.96728515625;1076.88671875;1168.5804443359375
304;993.2944946289062;1014.763671875;1041.38818359375;1076.3133544921877;1167.54248046875
305;992.7474975585938;1013.9612426757812;1040.8123779296877;1075.7423095703123;1166.522216796875
306;992.2025146484376;1013.1633911132812;1040.239501953125;1075.1737060546877;1165.5177001953125
307;991.6595458984376;1012.3724975585938;1039.6702880859377;1074.60888671875;1164.528564453125
308;991.1189575195312;1011.5867919921876;1039.10498046875;1074.0457763671877;1163.5528564453125
309;990.5796508789062;1010.8077392578124;1038.54296875;1073.4852294921877;1162.592041015625
310;990.0421752929688;1010.035888671875;1037.984619140625;1072.927490234375;1161.644287109375
311;989.5073852539062;1009.2694091796876;1037.4288330078123;1072.3729248046877;1160.708984375
312;988.974609375;1008.5086669921876;1036.877197265625;1071.8203125;1159.78564453125
313;988.4429321289062;1007.7532348632812;1036.3280029296877;1071.2708740234377;1158.8729248046875
314;987.9137573242188;1007.0023803710938;1035.7823486328123;1070.7230224609377;1157.9727783203125
315;987.38671875;1006.258056640625;1035.23876953125;1070.177490234375;1157.08203125
316;986.8612670898438;1005.5184326171876;1034.6981201171877;1069.6346435546877;1156.2020263671875
317;986.3370361328124;1004.7855834960938;1034.1600341796877;1069.094482421875;1155.33349609375
318;985.814453125;1004.0601196289062;1033.6256103515623;1068.5567626953123;1154.475830078125
319;985.2944946289062;1003.3387451171876;1033.093505859375;1068.02099609375;1153.6273193359375
320;984.7760620117188;1002.6220703125;1032.5638427734377;1067.4876708984377;1152.7879638671875
321;984.2587890625;1001.9116821289062;1032.03564453125;1066.956298828125;1151.95654296875
322;983.7439575195312;1001.205810546875;1031.510498046875;1066.42626953125;1151.134765625
323;983.2306518554688;1000.504638671875;1030.9871826171877;1065.8983154296877;1150.321044921875
324;982.7191162109376;999.807861328125;1030.4666748046877;1065.37255859375;1149.515625
325;982.2085571289062;999.1146850585938;1029.9483642578123;1064.849365234375;1148.717529296875
326;981.7003173828124;998.4266357421876;1029.43212890625;1064.328369140625;1147.926025390625
327;981.19287109375;997.7431640625;1028.9169921875;1063.808349609375;1147.1417236328125
328;980.6871948242188;997.0631713867188;1028.404052734375;1063.29052734375;1146.36572265625
329;980.1831665039062;996.3878173828124;1027.89306640625;1062.775146484375;1145.5955810546875
330;979.6806030273438;995.7180786132812;1027.384765625;1062.260986328125;1144.8338623046875
331;979.1795043945312;995.052734375;1026.87841796875;1061.7486572265623;1144.0777587890625
332;978.6806640625;994.3911743164062;1026.3734130859377;1061.23876953125;1143.328125
333;978.1827392578124;993.7338256835938;1025.87060546875;1060.72998046875;1142.585205078125
334;977.6868896484376;993.081298828125;1025.369873046875;1060.2235107421877;1141.8492431640625
335;977.1925048828124;992.433349609375;1024.8717041015623;1059.718994140625;1141.1182861328125
336;976.6989135742188;991.7899169921876;1024.3748779296877;1059.21533203125;1140.394287109375
337;976.20703125;991.1502685546876;1023.879638671875;1058.71337890625;1139.6751708984375
338;975.7163696289062;990.5146484375;1023.3861694335938;1058.2138671875;1138.961181640625
339;975.2277221679688;989.8817138671876;1022.8944091796876;1057.7156982421877;1138.2523193359375
340;974.7400512695312;989.2534790039062;1022.4047241210938;1057.2193603515623;1137.549560546875
341;974.2536010742188;988.6287841796876;1021.9161376953124;1056.7237548828123;1136.851806640625
342;973.7692260742188;988.0076904296876;1021.4295654296876;1056.23046875;1136.1578369140625
343;973.2862548828124;987.3901977539062;1020.9440307617188;1055.7381591796877;1135.4686279296875
344;972.8040161132812;986.775146484375;1020.4605102539062;1055.2474365234377;1134.7850341796875
345;972.3231201171876;986.1633911132812;1019.978515625;1054.758056640625;1134.105224609375
346;971.8442993164062;985.5557861328124;1019.4973754882812;1054.270751953125;1133.429931640625
347;971.3662719726562;984.9505004882812;1019.0174560546876;1053.78466796875;1132.7601318359375
348;970.8902587890624;984.3493041992188;1018.5390625;1053.2999267578123;1132.0936279296875
349;970.4149169921876;983.750244140625;1018.0626220703124;1052.816650390625;1131.4315185546875
350;969.94140625;983.154296875;1017.5875854492188;1052.3353271484377;1130.7734375
351;969.46875;982.5615234375;1017.1137084960938;1051.8548583984377;1130.1197509765625
352;968.998046875;981.9718017578124;1016.6412963867188;1051.376220703125;1129.4708251953125
353;968.5279541015624;981.3848876953124;1016.1700439453124;1050.8984375;1128.8260498046875
354;968.0596923828124;980.8013305664062;1015.699951171875;1050.422607421875;1128.18505859375
355;967.5927124023438;980.2208251953124;1015.2308959960938;1049.9481201171877;1127.5477294921875
356;967.1268920898438;979.642822265625;1014.7626953125;1049.474365234375;1126.9151611328125
357;966.6624145507812;979.066650390625;1014.2963256835938;1049.0018310546877;1126.28515625
358;966.1989135742188;978.4937133789062;1013.8307495117188;1048.53076171875;1125.6593017578123
359;965.7367553710938;977.9229736328124;1013.3662109375;1048.061279296875;1125.0367431640623
360;965.2756958007812;977.3555908203124;1012.9034423828124;1047.59326171875;1124.4166259765623
361;964.8152465820312;976.7904663085938;1012.4412841796876;1047.125732421875;1123.7996826171877
362;964.3564453125;976.2278442382812;1011.980712890625;1046.66015625;1123.1873779296877
363;963.8988647460938;975.66796875;1011.5209350585938;1046.19580078125;1122.57763671875
364;963.4423828125;975.111083984375;1011.062744140625;1045.732421875;1121.9713134765623
365;962.9869384765624;974.5567626953124;1010.605712890625;1045.2698974609377;1121.36865234375
366;962.5321044921876;974.0048828125;1010.149169921875;1044.80908203125;1120.7689208984377
367;962.0784912109376;973.454833984375;1009.6943359375;1044.3492431640623;1120.171142578125
368;961.6258544921876;972.9071044921876;1009.2403564453124;1043.89013671875;1119.5767822265623
369;961.1749267578124;972.3626098632812;1008.7875366210938;1043.4324951171877;1118.985107421875
370;960.7249145507812;971.820068359375;1008.3356323242188;1042.97607421875;1118.3961181640623
371;960.2755126953124;971.2796020507812;1007.8843383789062;1042.5208740234377;1117.8096923828123
372;959.8272094726562;970.741943359375;1007.434814453125;1042.066650390625;1117.2249755859377
373;959.3803100585938;970.2059326171876;1006.986083984375;1041.61328125;1116.643798828125
374;958.9345703125;969.6723022460938;1006.5386352539062;1041.1612548828123;1116.06494140625
375;958.4896850585938;969.140869140625;1006.092041015625;1040.709716796875;1115.4881591796877
376;958.0459594726562;968.6114501953124;1005.646484375;1040.259765625;1114.9141845703123
377;957.6027221679688;968.0846557617188;1005.2014770507812;1039.810791015625;1114.342529296875
378;957.1605224609376;967.560546875;1004.7578125;1039.3629150390623;1113.773193359375
379;956.7191772460938;967.0386352539062;1004.3150024414062;1038.91552734375;1113.2059326171877
380;956.2789916992188;966.5184326171876;1003.873291015625;1038.4696044921877;1112.6402587890623
381;955.8401489257812;966.0004272460938;1003.4326171875;1038.0247802734377;1112.076904296875
382;955.4022216796876;965.484619140625;1002.9927368164062;1037.580810546875;1111.51611328125
383;954.9653930664062;964.9701538085938;1002.553466796875;1037.137939453125;1110.9569091796877
384;954.5294189453124;964.458740234375;1002.115478515625;1036.695556640625;1110.39990234375
385;954.0943603515624;963.94921875;1001.6778564453124;1036.2545166015623;1109.8453369140623
386;953.6597290039062;963.441162109375;1001.2415161132812;1035.8140869140623;1109.2928466796877
387;953.2266235351562;962.935546875;1000.8062133789062;1035.375244140625;1108.7423095703123
388;952.7938232421876;962.431884765625;1000.3716430664062;1034.936767578125;1108.1937255859377
389;952.3624877929688;961.9301147460938;999.9379272460938;1034.4991455078123;1107.6468505859377
390;951.931640625;961.4302368164062;999.5050048828124;1034.0626220703123;1107.10205078125
391;951.501953125;960.9321899414062;999.072998046875;1033.62744140625;1106.5589599609377
392;951.0732421875;960.4358520507812;998.6412963867188;1033.19287109375;1106.0177001953123
393;950.6454467773438;959.9408569335938;998.210693359375;1032.759521484375;1105.4776611328123
394;950.2184448242188;959.447509765625;997.7811279296876;1032.327392578125;1104.9400634765623
395;949.7924194335938;958.9563598632812;997.3522338867188;1031.8958740234377;1104.4036865234377
396;949.3670654296876;958.4663696289062;996.9239501953124;1031.4649658203123;1103.8697509765623
397;948.9429321289062;957.9780883789062;996.4962158203124;1031.034912109375;1103.3377685546877
398;948.5198364257812;957.4913330078124;996.0696411132812;1030.6058349609377;1102.8072509765623
399;948.0970458984376;957.0062866210938;995.6435546875;1030.1776123046877;1102.278564453125
400;947.6751098632812;956.523681640625;995.2184448242188;1029.7503662109377;1101.750732421875
401;947.25439453125;956.0426635742188;994.7938232421876;1029.3243408203123;1101.2254638671877
402;946.8345336914062;955.562744140625;994.3704223632812;1028.898681640625;1100.701904296875
403;946.4150390625;955.0848388671876;993.9476928710938;1028.4739990234377;1100.179443359375
404;945.9962158203124;954.6079711914062;993.525390625;1028.0504150390623;1099.658447265625
405;945.5787963867188;954.1331176757812;993.103759765625;1027.6273193359377;1099.1395263671877
406;945.1617431640624;953.6591796875;992.682861328125;1027.2054443359377;1098.621826171875
407;944.7459106445312;953.187255859375;992.262939453125;1026.7838134765623;1098.10595703125
408;944.3306274414062;952.7166748046876;991.843994140625;1026.363525390625;1097.5911865234377
409;943.91650390625;952.2471923828124;991.4252319335938;1025.9439697265623;1097.078125
410;943.5027465820312;951.7796020507812;991.007568359375;1025.52490234375;1096.566650390625
411;943.0902709960938;951.3131713867188;990.5902709960938;1025.1065673828123;1096.0565185546877
412;942.6780395507812;950.8482055664062;990.1741333007812;1024.6893310546877;1095.54736328125
413;942.2670288085938;950.3850708007812;989.7581176757812;1024.27294921875;1095.03955078125
414;941.8564453125;949.9235229492188;989.3432006835938;1023.8567504882812;1094.532958984375
415;941.4469604492188;949.463134765625;988.9290161132812;1023.4417114257812;1094.0281982421877
416;941.0383911132812;949.0042114257812;988.5150756835938;1023.027099609375;1093.5245361328123
417;940.6300048828124;948.5462036132812;988.1021118164062;1022.613037109375;1093.02294921875
418;940.2227783203124;948.0895385742188;987.689453125;1022.1998901367188;1092.5225830078123
419;939.8158569335938;947.6340942382812;987.277587890625;1021.7877807617188;1092.0234375
420;939.4100952148438;947.179931640625;986.8666381835938;1021.3762817382812;1091.525146484375
421;939.0045776367188;946.7271118164062;986.456298828125;1020.9653930664062;1091.028564453125
422;938.5997314453124;946.2759399414062;986.0467529296876;1020.5551147460938;1090.5330810546877
423;938.1961669921876;945.825927734375;985.6372680664062;1020.1459350585938;1090.03857421875
424;937.79296875;945.376953125;985.2288208007812;1019.7374267578124;1089.5455322265623
425;937.3906860351562;944.9292602539062;984.821044921875;1019.3294067382812;1089.0533447265623
426;936.9890747070312;944.4822998046876;984.413818359375;1018.922119140625;1088.5626220703123
427;936.5880126953124;944.0369873046876;984.0069580078124;1018.5150756835938;1088.0726318359377
428;936.1873779296876;943.5926513671876;983.6007080078124;1018.1085205078124;1087.5838623046877
429;935.7872314453124;943.1495361328124;983.1948852539062;1017.7024536132812;1087.0968017578123
430;935.3878784179688;942.7071533203124;982.7896118164062;1017.2971801757812;1086.6102294921877
431;934.9894409179688;942.2661743164062;982.3850708007812;1016.892333984375;1086.124755859375
432;934.5919189453124;941.8260498046876;981.9815673828124;1016.48828125;1085.640380859375
433;934.1945190429688;941.3873901367188;981.5785522460938;1016.0846557617188;1085.15771484375
434;933.7982177734376;940.9493408203124;981.1762084960938;1015.681884765625;1084.67529296875
435;933.4028930664062;940.5123901367188;980.7742919921876;1015.2797241210938;1084.1947021484377
436;933.0078125;940.0768432617188;980.3731689453124;1014.8778076171876;1083.7149658203123
437;932.6135864257812;939.642333984375;979.972412109375;1014.4766845703124;1083.236328125
438;932.2197875976562;939.2084350585938;979.5718383789062;1014.0762939453124;1082.7581787109377
439;931.8267822265624;938.7759399414062;979.1723022460938;1013.6763305664062;1082.2811279296877
440;931.4344482421876;938.3444213867188;978.773193359375;1013.2763671875;1081.805419921875
441;931.0426635742188;937.9135131835938;978.374755859375;1012.8776245117188;1081.330810546875
442;930.6519165039062;937.4839477539062;977.9764404296876;1012.4788208007812;1080.8570556640623
443;930.2618408203124;937.0551147460938;977.5785522460938;1012.0810546875;1080.38427734375
444;929.8724365234376;936.6273803710938;977.181396484375;1011.683837890625;1079.9119873046877
445;929.4833374023438;936.200439453125;976.7847290039062;1011.2866821289062;1079.4410400390623
446;929.0949096679688;935.7747192382812;976.3885498046876;1010.8905029296876;1078.9710693359377
447;928.7071533203124;935.3497314453124;975.9932861328124;1010.4946899414062;1078.501708984375
448;928.3200073242188;934.926025390625;975.5986328125;1010.099609375;1078.0330810546877
449;927.9338989257812;934.5028076171876;975.2039794921876;1009.704833984375;1077.56591796875
450;927.5482788085938;934.0805053710938;974.810302734375;1009.310546875;1077.0994873046877
451;927.1629028320312;933.6594848632812;974.4171142578124;1008.9164428710938;1076.6339111328123
452;926.7784423828124;933.2393798828124;974.0241088867188;1008.5230102539062;1076.1689453125
453;926.3942260742188;932.8198852539062;973.6315307617188;1008.1301879882812;1075.7047119140623
454;926.0109252929688;932.4014892578124;973.2395629882812;1007.7381591796876;1075.2415771484377
455;925.6279296875;931.9840698242188;972.8483276367188;1007.3465576171876;1074.7789306640623
456;925.2454833984376;931.5670776367188;972.4573364257812;1006.955078125;1074.3177490234377
457;924.8638305664062;931.1514892578124;972.0672607421876;1006.5640258789062;1073.857421875
458;924.4828491210938;930.7367553710938;971.677490234375;1006.1734008789062;1073.39794921875
459;924.1022338867188;930.322509765625;971.2879638671876;1005.7833251953124;1072.93896484375
460;923.7222290039062;929.909423828125;970.8992919921876;1005.3938598632812;1072.4805908203123
461;923.3423461914062;929.4967651367188;970.5107421875;1005.0048828125;1072.0235595703123
462;922.9635009765624;929.0852661132812;970.123046875;1004.6162109375;1071.56689453125
463;922.5850830078124;928.6746826171876;969.735595703125;1004.2283935546876;1071.111083984375
464;922.2073364257812;928.264892578125;969.3487548828124;1003.8411254882812;1070.656494140625
465;921.82958984375;927.85546875;968.962158203125;1003.4546508789062;1070.2021484375
466;921.4522705078124;927.447265625;968.575927734375;1003.0682373046876;1069.7489013671877
467;921.0760498046876;927.0396118164062;968.190673828125;1002.6821899414062;1069.296630859375
468;920.7001342773438;926.633056640625;967.8055419921876;1002.296630859375;1068.8446044921877
469;920.3247680664062;926.2271118164062;967.4207763671876;1001.9116821289062;1068.393798828125
470;919.9496459960938;925.822021484375;967.0365600585938;1001.5269165039062;1067.943359375
471;919.5750122070312;925.4176635742188;966.6527709960938;1001.1428833007812;1067.4940185546877
472;919.2011108398438;925.0140991210938;966.2698364257812;1000.7592163085938;1067.0450439453123
473;918.8277587890624;924.6109008789062;965.886962890625;1000.376220703125;1066.59716796875
474;918.4545288085938;924.2084350585938;965.5044555664062;999.9934692382812;1066.1495361328123
475;918.08203125;923.8070678710938;965.122802734375;999.611572265625;1065.703125
476;917.7100830078124;923.4063720703124;964.7417602539062;999.2294921875;1065.25732421875
477;917.3382568359376;923.0065307617188;964.360595703125;998.8482055664062;1064.8118896484377
478;916.9671630859376;922.6068725585938;963.980224609375;998.4671020507812;1064.367431640625
479;916.5966186523438;922.2083129882812;963.6000366210938;998.0866088867188;1063.9237060546877
480;916.2261352539062;921.810302734375;963.220458984375;997.706787109375;1063.480712890625
481;915.8560180664062;921.4132080078124;962.8413696289062;997.3272705078124;1063.0384521484377
482;915.48681640625;921.016357421875;962.462890625;996.9483642578124;1062.5965576171877
483;915.1180419921876;920.6205444335938;962.0846557617188;996.5697631835938;1062.155517578125
484;914.7495727539062;920.2254638671876;961.7066040039062;996.1917114257812;1061.71533203125
485;914.3816528320312;919.8307495117188;961.329345703125;995.8140258789062;1061.27587890625
486;914.0137939453124;919.4366455078124;960.952392578125;995.4366455078124;1060.8370361328123
487;913.6463623046876;919.0433959960938;960.5758666992188;995.0595703125;1060.398681640625
488;913.2793579101562;918.6510620117188;960.199462890625;994.682861328125;1059.960693359375
489;912.9131469726562;918.2593383789062;959.823486328125;994.3067626953124;1059.52392578125
490;912.5472412109376;917.8680419921876;959.4481201171876;993.9310913085938;1059.0877685546877
491;912.1815185546876;917.4774169921876;959.0733642578124;993.5557861328124;1058.6522216796877
492;911.8162231445312;917.0875854492188;958.6989135742188;993.180908203125;1058.2169189453123
493;911.4514770507812;916.6979370117188;958.3248901367188;992.806396484375;1057.7825927734377
494;911.0872192382812;916.3090209960938;957.9512939453124;992.432373046875;1057.3485107421877
495;910.7236328125;915.920654296875;957.5776977539062;992.0587158203124;1056.91552734375
496;910.3600463867188;915.533203125;957.2049560546876;991.685546875;1056.48291015625
497;909.9970703125;915.146484375;956.8321533203124;991.3121948242188;1056.0511474609377
498;909.6347045898438;914.759765625;956.4598388671876;990.9393310546876;1055.619873046875
499;909.2726440429688;914.3739013671876;956.087890625;990.5670776367188;1055.18896484375
500;908.9110107421876;913.9889526367188;955.716796875;990.1948852539062;1054.7589111328123
501;908.5499877929688;913.6040649414062;955.345947265625;989.8231201171876;1054.3292236328123
502;908.1893920898438;913.219970703125;954.9751586914062;989.4518432617188;1053.900390625
503;907.8292236328124;912.836669921875;954.6051635742188;989.0809326171876;1053.47216796875
504;907.4692993164062;912.4536743164062;954.2354736328124;988.7106323242188;1053.044189453125
505;907.1102294921876;912.071044921875;953.8659057617188;988.340576171875;1052.616943359375
506;906.7514038085938;911.6895751953124;953.4966430664062;987.970703125;1052.190185546875
507;906.39306640625;911.3081665039062;953.128173828125;987.6012573242188;1051.7637939453123
508;906.0347900390624;910.927734375;952.760009765625;987.232421875;1051.338134765625
509;905.6770629882812;910.5477294921876;952.3922729492188;986.8637084960938;1050.913330078125
510;905.3197631835938;910.16845703125;952.0249633789062;986.495361328125;1050.489013671875
511;904.9629516601562;909.7896728515624;951.6578979492188;986.1273803710938;1050.065185546875
512;904.6066284179688;909.4114379882812;951.291259765625;985.759765625;1049.641845703125
513;904.2506713867188;909.033447265625;950.9246826171876;985.3928833007812;1049.2188720703123
514;903.8950805664062;908.656005859375;950.5587158203124;985.0262451171876;1048.796875
515;903.5399169921876;908.2793579101562;950.1930541992188;984.6600341796876;1048.3753662109377
516;903.1849975585938;907.9032592773438;949.8278198242188;984.2938232421876;1047.954345703125
517;902.83056640625;907.5276489257812;949.4630126953124;983.9284057617188;1047.533935546875
518;902.4764404296876;907.152587890625;949.098388671875;983.5631713867188;1047.114013671875
519;902.1229858398438;906.7777099609376;948.7340698242188;983.1981201171876;1046.6947021484377
520;901.7698974609376;906.4036254882812;948.3699951171876;982.833251953125;1046.2755126953123
521;901.4169921875;906.0301513671876;948.0062866210938;982.4688720703124;1045.8568115234377
522;901.0645141601562;905.6572265625;947.6430053710938;982.1047973632812;1045.438720703125
523;900.7125854492188;905.284423828125;947.2801513671876;981.7410888671876;1045.0216064453123
524;900.3609619140625;904.9122314453124;946.9178466796876;981.378173828125;1044.6043701171877
525;900.0097045898438;904.5404663085938;946.5555419921876;981.0155029296876;1044.1881103515623
526;899.6588745117188;904.1694946289062;946.1940307617188;980.653076171875;1043.7725830078123
527;899.3084106445312;903.7987060546876;945.8324584960938;980.290771484375;1043.357177734375
528;898.9580078125;903.428466796875;945.4712524414062;979.9292602539062;1042.942138671875
529;898.6082763671875;903.0588989257812;945.1103515625;979.567626953125;1042.5277099609377
530;898.2589111328125;902.68994140625;944.7501220703124;979.2064819335938;1042.114013671875
531;897.9098510742188;902.3214721679688;944.389892578125;978.845703125;1041.70068359375
532;897.5609741210938;901.9531860351562;944.0301513671876;978.4853515625;1041.28759765625
533;897.21240234375;901.585693359375;943.6705932617188;978.1253051757812;1040.875
534;896.8643798828125;901.2185668945312;943.3118286132812;977.7655029296876;1040.463134765625
535;896.5165405273438;900.8517456054688;942.9532470703124;977.4058227539062;1040.0518798828123
536;896.1692504882812;900.485595703125;942.5950317382812;977.0467529296876;1039.6409912109377
537;895.8219604492188;900.1199951171875;942.2369995117188;976.6878051757812;1039.2305908203123
538;895.4754638671875;899.7545776367188;941.8794555664062;976.3292236328124;1038.8206787109377
539;895.1290283203125;899.3895263671875;941.522216796875;975.9710083007812;1038.410888671875
540;894.7828979492188;899.0253295898438;941.1653442382812;975.6134033203124;1038.0018310546877
541;894.4371948242188;898.6612548828125;940.8087158203124;975.255859375;1037.593505859375
542;894.091796875;898.2978515625;940.4522705078124;974.8985595703124;1037.1851806640623
543;893.7466430664062;897.9346923828125;940.0961303710938;974.5416870117188;1036.777587890625
544;893.40185546875;897.572265625;939.7401123046876;974.1849975585938;1036.3704833984377
545;893.0574340820312;897.210205078125;939.3848876953124;973.8286743164062;1035.9635009765623
546;892.7132568359375;896.848388671875;939.0296020507812;973.4723510742188;1035.5572509765623
547;892.3692626953125;896.4872436523438;938.675048828125;973.1166381835938;1035.151123046875
548;892.0260009765625;896.12646484375;938.3203125;972.7610473632812;1034.74560546875
549;891.6827392578125;895.7659301757812;937.9662475585938;972.4057006835938;1034.3406982421877
550;891.3399047851562;895.4058227539062;937.6121826171876;972.0509033203124;1033.9364013671877
551;890.9976196289062;895.046142578125;937.2587890625;971.6965942382812;1033.532470703125
552;890.6555786132812;894.6871337890625;936.9052734375;971.3424682617188;1033.128662109375
553;890.3135986328125;894.3285522460938;936.5521850585938;970.9885864257812;1032.7255859375
554;889.9721069335938;893.9700317382812;936.199462890625;970.6348876953124;1032.3226318359377
555;889.630859375;893.6123046875;935.8469848632812;970.28125;1031.9205322265623
556;889.2899169921875;893.2550048828125;935.494873046875;969.927978515625;1031.5184326171877
557;888.94921875;892.8980712890625;935.143310546875;969.5750732421876;1031.1168212890623
558;888.6085815429688;892.5413208007812;934.791748046875;969.2223510742188;1030.7159423828123
559;888.2686157226562;892.1852416992188;934.4405517578124;968.8699951171876;1030.3154296875
560;887.9288940429688;891.8294677734375;934.08984375;968.5181274414062;1029.9154052734377
561;887.5892944335938;891.47412109375;933.739501953125;968.1663208007812;1029.515869140625
562;887.25;891.1192626953125;933.3893432617188;967.8147583007812;1029.116455078125
563;886.9108276367188;890.7647094726562;933.0393676757812;967.4637451171876;1028.7176513671877
564;886.5723876953125;890.410400390625;932.6898803710938;967.1127319335938;1028.3192138671877
565;886.2342529296875;890.056640625;932.340576171875;966.7621459960938;1027.92138671875
566;885.8961791992188;889.7033081054688;931.9915161132812;966.411865234375;1027.5238037109377
567;885.55859375;889.3502807617188;931.6430053710938;966.061767578125;1027.1263427734377
568;885.2210083007812;888.997314453125;931.2944946289062;965.712158203125;1026.729736328125
569;884.8839111328125;888.6452026367188;930.946533203125;965.3624267578124;1026.3331298828123
570;884.546875;888.2933959960938;930.598388671875;965.0131225585938;1025.9371337890623
571;884.2103271484375;887.9419555664062;930.2508544921876;964.6640625;1025.5413818359377
572;883.8740234375;887.5908813476562;929.9036254882812;964.3151245117188;1025.1463623046877
573;883.5379028320312;887.240234375;929.5565185546876;963.966552734375;1024.7515869140623
574;883.2018432617188;886.8895874023438;929.2099609375;963.618408203125;1024.3570556640623
575;882.8662719726562;886.539794921875;928.86328125;963.270263671875;1023.963134765625
576;882.5308227539062;886.190185546875;928.5172729492188;962.9225463867188;1023.5695190429688
577;882.1956176757812;885.8408813476562;928.1713256835938;962.5748901367188;1023.1764526367188
578;881.8609008789062;885.4917602539062;927.825439453125;962.2278442382812;1022.7838134765624
579;881.5264282226562;885.143310546875;927.4800415039062;961.881103515625;1022.3912963867188
580;881.1923217773438;884.7950439453125;927.135009765625;961.5343017578124;1021.9990844726562
581;880.8580932617188;884.4469604492188;926.7899169921876;961.1879272460938;1021.607421875
582;880.5242919921875;884.0995483398438;926.4451904296876;960.8419189453124;1021.216064453125
583;880.1907348632812;883.7525024414062;926.1008911132812;960.4959716796876;1020.8250122070312
584;879.8575439453125;883.4058837890625;925.7568359375;960.150146484375;1020.4343872070312
585;879.5247192382812;883.0595703125;925.4130859375;959.8045654296876;1020.0442504882812
586;879.1918334960938;882.713623046875;925.0693359375;959.4592895507812;1019.6544189453124
587;878.8592529296875;882.3680419921875;924.7260131835938;959.1141357421876;1019.2650146484376
588;878.5272216796875;882.022705078125;924.3829345703124;958.76953125;1018.8761596679688
589;878.1952514648438;881.6776123046875;924.0403442382812;958.4251098632812;1018.4873657226562
590;877.86376953125;881.332763671875;923.697998046875;958.080810546875;1018.0989990234376
591;877.5325927734375;880.9883422851562;923.355712890625;957.7368774414062;1017.7113037109376
592;877.20166015625;880.6444091796875;923.0137939453124;957.393310546875;1017.3236083984376
593;876.8709106445312;880.300537109375;922.6721801757812;957.0496826171876;1016.9365234375
594;876.5404663085938;879.9571533203125;922.3307495117188;956.7064819335938;1016.5499267578124
595;876.2103881835938;879.6143188476562;921.9895629882812;956.36328125;1016.1634521484376
596;875.8801879882812;879.271728515625;921.6487426757812;956.0203857421876;1015.7772827148438
597;875.5506591796875;878.9296264648438;921.3081665039062;955.6778564453124;1015.3917846679688
598;875.2211303710938;878.5878295898438;920.9677734375;955.3355102539062;1015.0067749023438
599;874.8917846679688;878.246337890625;920.6276245117188;954.9932861328124;1014.6219482421876
600;874.5630493164062;877.9050903320312;920.2875366210938;954.6514892578124;1014.237548828125
601;874.2345581054688;877.5642700195312;919.9479370117188;954.3098754882812;1013.853271484375
602;873.9063720703125;877.2236328125;919.6085205078124;953.968505859375;1013.4695434570312
603;873.5784301757812;876.8833618164062;919.2694091796876;953.6273803710938;1013.0862426757812
604;873.2506103515625;876.5432739257812;918.930419921875;953.286376953125;1012.703125
605;872.9231567382812;876.20361328125;918.591796875;952.9458618164062;1012.3204956054688
606;872.5958251953125;875.8643798828125;918.2536010742188;952.60546875;1011.9378662109376
607;872.2686767578125;875.5253295898438;917.9153442382812;952.2653198242188;1011.5560913085938
608;871.94189453125;875.1866455078125;917.5775756835938;951.9253540039062;1011.1744995117188
609;871.6151733398438;874.84814453125;917.239990234375;951.5855102539062;1010.7930908203124
610;871.2886352539062;874.51025390625;916.902587890625;951.2459716796876;1010.4119873046876
611;870.9625244140625;874.1725463867188;916.5653076171876;950.9065551757812;1010.0313720703124
612;870.6365966796875;873.835205078125;916.228271484375;950.5675048828124;1009.6510009765624
613;870.3106689453125;873.4979248046875;915.8914794921876;950.228515625;1009.2713012695312
614;869.9852294921875;873.1612548828125;915.5551147460938;949.8897705078124;1008.8916625976562
615;869.6598510742188;872.8247680664062;915.218994140625;949.5510864257812;1008.5125122070312
616;869.3349609375;872.488525390625;914.8826904296876;949.2130126953124;1008.1336059570312
617;869.0101928710938;872.152587890625;914.5469970703124;948.8748779296876;1007.7551879882812
618;868.6856689453125;871.8170166015625;914.2116088867188;948.537109375;1007.3768920898438
619;868.3614501953125;871.4815673828125;913.8762817382812;948.1995239257812;1006.9990234375
620;868.0374755859375;871.1466064453125;913.541259765625;947.8619995117188;1006.6216430664062
621;867.7135620117188;870.81201171875;913.2063598632812;947.5249633789062;1006.244384765625
622;867.39013671875;870.4776611328125;912.8715209960938;947.1879272460938;1005.867431640625
623;867.06689453125;870.1436157226562;912.5372314453124;946.851318359375;1005.4909057617188
624;866.7439575195312;869.8099365234375;912.203125;946.5149536132812;1005.1145629882812
625;866.4212036132812;869.476318359375;911.8690185546876;946.1785888671876;1004.7389526367188
626;866.0985107421875;869.14306640625;911.5352783203124;945.8426513671876;1004.3634643554688
627;865.77587890625;868.81005859375;911.201904296875;945.5068359375;1003.9881591796876
628;865.4537963867188;868.4772338867188;910.8685913085938;945.1710205078124;1003.6132202148438
629;865.1318359375;868.1449584960938;910.5357055664062;944.835693359375;1003.2389526367188
630;864.8099975585938;867.8129272460938;910.2028198242188;944.5004272460938;1002.8646850585938
631;864.4885864257812;867.481201171875;909.8700561523438;944.1655883789062;1002.4907836914062
632;864.1673583984375;867.1497192382812;909.53759765625;943.830810546875;1002.1173706054688
633;863.8464965820312;866.818603515625;909.205322265625;943.4962158203124;1001.744140625
634;863.5254516601562;866.4877319335938;908.8731689453124;943.1616821289062;1001.371337890625
635;863.2048950195312;866.156982421875;908.5415649414062;942.8274536132812;1000.9988403320312
636;862.8843383789062;865.826416015625;908.2099609375;942.4935913085938;1000.6263427734376
637;862.5640869140625;865.4962158203125;907.8785400390624;942.1597290039062;1000.2544555664062
638;862.2440795898438;865.1663208007812;907.5475463867188;941.8262939453124;999.8829345703124
639;861.9242553710938;864.8367309570312;907.216552734375;941.4928588867188;999.5115966796876
640;861.6046142578125;864.507568359375;906.8858642578124;941.1597290039062;999.140625
641;861.2852783203125;864.1786499023438;906.5554809570312;940.8268432617188;998.7699584960938
642;860.9662475585938;863.8499145507812;906.2254638671876;940.494140625;998.399658203125
643;860.6472778320312;863.5214233398438;905.8955688476562;940.1616821289062;998.0294189453124
644;860.32861328125;863.193359375;905.5658569335938;939.8294067382812;997.6594848632812
645;860.0100708007812;862.8652954101562;905.2363891601562;939.497314453125;997.2898559570312
646;859.6917114257812;862.5375366210938;904.9070434570312;939.165283203125;996.9208374023438
647;859.3735961914062;862.210205078125;904.577880859375;938.8336791992188;996.552001953125
648;859.0555419921875;861.8831176757812;904.248779296875;938.501953125;996.183349609375
649;858.7377319335938;861.556396484375;903.920166015625;938.1705932617188;995.8151245117188
650;858.4200439453125;861.229736328125;903.591552734375;937.8392944335938;995.4472045898438
651;858.1028442382812;860.9034423828125;903.2633666992188;937.5083618164062;995.0794067382812
652;857.78564453125;860.577392578125;902.935302734375;937.1776123046876;994.7122192382812
653;857.4685668945312;860.2515258789062;902.6076049804688;936.8469848632812;994.3450927734376
654;857.1517333984375;859.926025390625;902.2799682617188;936.5167236328124;993.9782104492188
655;856.8351440429688;859.600830078125;901.9525146484376;936.1865234375;993.6118774414062
656;856.5186767578125;859.2758178710938;901.6253051757812;935.8565673828124;993.2457885742188
657;856.2025756835938;858.9509887695312;901.29833984375;935.5269165039062;992.8798217773438
658;855.8866577148438;858.626220703125;900.9714965820312;935.197265625;992.5142822265624
659;855.5709838867188;858.302001953125;900.6449584960938;934.867919921875;992.1491088867188
660;855.2553100585938;857.977783203125;900.318603515625;934.538818359375;991.7841186523438
661;854.9398803710938;857.654052734375;899.9923706054688;934.209716796875;991.4194946289062
662;854.6248168945312;857.330322265625;899.6663818359375;933.880859375;991.0548095703124
663;854.3096923828125;857.0070190429688;899.340576171875;933.5523071289062;990.6905517578124
664;853.9948120117188;856.6839599609375;899.014892578125;933.223876953125;990.3267211914062
665;853.6802978515625;856.3609619140625;898.689453125;932.8953857421876;989.9630126953124
666;853.3659057617188;856.038330078125;898.3641357421875;932.5675048828124;989.599609375
667;853.0520629882812;855.7158813476562;898.0392456054688;932.2395629882812;989.2366943359376
668;852.73828125;855.3934326171875;897.7144775390625;931.9116821289062;988.8739624023438
669;852.4246826171875;855.0715942382812;897.3897094726562;931.5842895507812;988.511474609375
670;852.111328125;854.75;897.0653076171875;931.257080078125;988.1493530273438
671;851.7981567382812;854.4285278320312;896.7410278320312;930.9301147460938;987.7874755859376
672;851.4850463867188;854.107421875;896.4171142578125;930.6029663085938;987.4259033203124
673;851.17236328125;853.786376953125;896.0930786132812;930.2764892578124;987.0647583007812
674;850.8599243164062;853.465576171875;895.7696533203125;929.9498901367188;986.7037353515624
675;850.5474243164062;853.145263671875;895.4461669921875;929.6235961914062;986.3429565429688
676;850.2354125976562;852.8250732421875;895.123046875;929.297607421875;985.9825439453124
677;849.9234008789062;852.5050048828125;894.7999877929688;928.9713745117188;985.6222534179688
678;849.6117553710938;852.1851806640625;894.4772338867188;928.6455078125;985.2622680664062
679;849.3004150390625;851.8656616210938;894.154541015625;928.3200073242188;984.902587890625
680;848.9891357421875;851.5462036132812;893.83203125;927.9946899414062;984.5432739257812
681;848.6780395507812;851.2272338867188;893.5098876953125;927.6692504882812;984.1841430664062
682;848.3671264648438;850.9083862304688;893.1876831054688;927.3442993164062;983.8253173828124
683;848.0563354492188;850.5897216796875;892.86572265625;927.0192260742188;983.4668579101562
684;847.7457275390625;850.2713623046875;892.5439453125;926.694580078125;983.1083984375
685;847.4352416992188;849.9533081054688;892.2224731445312;926.3701171875;982.7505493164062
686;847.1251831054688;849.6351928710938;891.9012451171875;926.0458984375;982.3927612304688
687;846.8151245117188;849.3175048828125;891.5802001953125;925.7215576171876;982.03515625
688;846.5054321289062;848.9998779296875;891.2593383789062;925.397705078125;981.6777954101562
689;846.1959228515625;848.6826782226562;890.9385986328125;925.0739135742188;981.3206787109376
690;845.8864135742188;848.3656616210938;890.6181030273438;924.750244140625;980.9640502929688
691;845.5772705078125;848.048828125;890.2978515625;924.4266357421876;980.6077270507812
692;845.2681274414062;847.7321166992188;889.9776000976562;924.103271484375;980.251708984375
693;844.9591674804688;847.415771484375;889.6576538085938;923.780029296875;979.895751953125
694;844.650390625;847.0997314453125;889.337646484375;923.457275390625;979.5402221679688
695;844.341796875;846.7837524414062;889.0179443359375;923.1343383789062;979.184814453125
696;844.0335693359375;846.468017578125;888.6985473632812;922.8116455078124;978.829833984375
697;843.7252807617188;846.1522827148438;888.3794555664062;922.4892578125;978.4749755859376
698;843.4174194335938;845.8368530273438;888.060302734375;922.1668701171876;978.1203002929688
699;843.1096801757812;845.521728515625;887.741455078125;921.8447265625;977.7661743164062
700;842.8018798828125;845.206787109375;887.4227294921875;921.522705078125;977.4119873046876
701;842.4945068359375;844.8919067382812;887.1043701171875;921.2010498046876;977.0582275390624
702;842.1871948242188;844.5775756835938;886.7860107421875;920.8795776367188;976.7044677734376
703;841.8800048828125;844.2632446289062;886.4679565429688;920.5582885742188;976.3512573242188
704;841.5731201171875;843.94921875;886.1500244140625;920.237060546875;975.998291015625
705;841.2662963867188;843.6353759765625;885.8321533203125;919.9158935546876;975.6455688476562
706;840.9595947265625;843.32177734375;885.5145263671875;919.5952758789062;975.2928466796876
707;840.6533813476562;843.0083618164062;885.1971435546875;919.2745361328124;974.9403686523438
708;840.3472290039062;842.6951904296875;884.8797607421875;918.9539794921876;974.5884399414062
709;840.0413818359375;842.38232421875;884.562744140625;918.6334838867188;974.236572265625
710;839.7355346679688;842.0693359375;884.2457885742188;918.3133544921876;973.884765625
711;839.4300537109375;841.756591796875;883.9290771484375;917.993408203125;973.533447265625
712;839.1245727539062;841.444091796875;883.6124267578125;917.673583984375;973.182373046875
713;838.8193359375;841.1319580078125;883.2960815429688;917.3539428710938;972.8314819335938
714;838.51416015625;840.8197631835938;882.9797973632812;917.0344848632812;972.4808959960938
715;838.2093505859375;840.5078735351562;882.663818359375;916.7151489257812;972.130615234375
716;837.9044189453125;840.1962890625;882.3480224609375;916.3959350585938;971.7802124023438
717;837.5999145507812;839.884765625;882.0324096679688;916.076904296875;971.4303588867188
718;837.2954711914062;839.5735473632812;881.716796875;915.758056640625;971.0806274414062
719;836.9910888671875;839.2625122070312;881.4014892578125;915.4391479492188;970.7312622070312
720;836.6870727539062;838.9517211914062;881.0862426757812;915.1206665039062;970.3818969726562
721;836.3831787109375;838.6411743164062;880.7711791992188;914.8021850585938;970.0328369140624
722;836.0795288085938;838.3307495117188;880.4564208984375;914.4839477539062;969.6839599609376
723;835.7759399414062;838.020263671875;880.1417236328125;914.165771484375;969.3355102539062
724;835.4724731445312;837.710205078125;879.8272705078125;913.84765625;968.9872436523438
725;835.1693115234375;837.4002685546875;879.5128173828125;913.5299682617188;968.6393432617188
726;834.8662719726562;837.0906372070312;879.19873046875;913.2123413085938;968.2914428710938
727;834.5634155273438;836.781005859375;878.8848266601562;912.8949584960938;967.9439086914062
728;834.2607421875;836.4718017578125;878.571044921875;912.5776977539062;967.5966186523438
729;833.9581298828125;836.1627197265625;878.2575073242188;912.2607421875;967.2494506835938
730;833.6557006835938;835.8539428710938;877.9440307617188;911.9437866210938;966.9024658203124
731;833.353515625;835.545166015625;877.6307983398438;911.627197265625;966.555908203125
732;833.0513305664062;835.2366943359375;877.3176879882812;911.3106689453124;966.2095336914062
733;832.7493286132812;834.928466796875;877.0046997070312;910.9940185546876;965.8631591796876
734;832.4475708007812;834.6201782226562;876.692138671875;910.6778564453124;965.5172119140624
735;832.1458740234375;834.3121337890625;876.3795166015625;910.361572265625;965.171630859375
736;831.8442993164062;834.0043334960938;876.067138671875;910.0455932617188;964.8260498046876
737;831.5430297851562;833.6966552734375;875.7547607421875;909.7297973632812;964.4808349609376
738;831.2418823242188;833.3892822265625;875.4425048828125;909.4140625;964.1357421875
739;830.94091796875;833.0820922851562;875.130615234375;909.0985107421876;963.7908935546876
740;830.6400756835938;832.7750854492188;874.81884765625;908.783203125;963.4463500976562
741;830.3392944335938;832.46826171875;874.5071411132812;908.4678955078124;963.1018676757812
742;830.0386962890625;832.1614990234375;874.1956176757812;908.1527709960938;962.7576904296876
743;829.7383422851562;831.8547973632812;873.8842163085938;907.837890625;962.4136962890624
744;829.4381103515625;831.5484619140625;873.5730590820312;907.523193359375;962.070068359375
745;829.1381225585938;831.2421875;873.2621459960938;907.2085571289062;961.7263793945312
746;828.8381958007812;830.93603515625;872.9512939453125;906.8941040039062;961.383056640625
747;828.5383911132812;830.6301879882812;872.6408081054688;906.5797729492188;961.0399169921876
748;828.23876953125;830.32470703125;872.3303833007812;906.2657470703124;960.6969604492188
749;827.9392700195312;830.0192260742188;872.0200805664062;905.9517211914062;960.3543090820312
750;827.6399536132812;829.7139892578125;871.7100830078125;905.6378173828124;960.0118408203124
751;827.3407592773438;829.4088745117188;871.3999633789062;905.32421875;959.669677734375
752;827.0418090820312;829.1039428710938;871.090087890625;905.0106201171876;959.3276977539062
753;826.7429809570312;828.799072265625;870.7804565429688;904.6971435546876;958.9856567382812
754;826.4442138671875;828.4945678710938;870.4708862304688;904.3839111328124;958.6441650390624
755;826.1456298828125;828.1900634765625;870.1614379882812;904.0708618164062;958.3025512695312
756;825.8472290039062;827.8858642578125;869.8522338867188;903.7579956054688;957.9613037109376
757;825.5488891601562;827.581787109375;869.543212890625;903.4453125;957.6201782226562
758;825.2506713867188;827.2779541015625;869.2342529296875;903.1326293945312;957.2792358398438
759;824.9525756835938;826.9741821289062;868.9255981445312;902.820068359375;956.9386596679688
760;824.6547241210938;826.670654296875;868.6171264648438;902.5078125;956.5983276367188
761;824.3570556640625;826.3672485351562;868.308837890625;902.1956176757812;956.258056640625
762;824.0595703125;826.0639038085938;868.00048828125;901.8836669921876;955.918212890625
763;823.7620849609375;825.7608642578125;867.6925048828125;901.5717163085938;955.5782470703124
764;823.4646606445312;825.4578857421875;867.3846435546875;901.260009765625;955.2388305664062
765;823.1675415039062;825.1552734375;867.0769653320312;900.9483642578124;954.8993530273438
766;822.8704833984375;824.8527221679688;866.7693481445312;900.6370239257812;954.5599975585938
767;822.5736083984375;824.5503540039062;866.4620361328125;900.3258666992188;954.2210693359376
768;822.2769775390625;824.248046875;866.1547241210938;900.0146484375;953.8822631835938
769;821.9804077148438;823.946044921875;865.84765625;899.7037353515625;953.5436401367188
770;821.6838989257812;823.6441650390625;865.5406494140625;899.3929443359375;953.2052001953124
771;821.3876953125;823.3424682617188;865.233642578125;899.0820922851562;952.8671875
772;821.0914916992188;823.0408935546875;864.9269409179688;898.7715454101562;952.5291748046876
773;820.7955932617188;822.7394409179688;864.6204833984375;898.461181640625;952.19140625
774;820.4996948242188;822.438232421875;864.3141479492188;898.1509399414062;951.8538818359376
775;820.2039184570312;822.1372680664062;864.0079345703125;897.8406982421875;951.5166015625
776;819.9083251953125;821.8362426757812;863.701904296875;897.5306396484375;951.1795654296876
777;819.61279296875;821.5354614257812;863.3961181640625;897.2208862304688;950.8427124023438
778;819.3175048828125;821.2347412109375;863.0902709960938;896.9112548828125;950.506103515625
779;819.0223388671875;820.9342651367188;862.7844848632812;896.601806640625;950.1696166992188
780;818.7274169921875;820.6337890625;862.4790649414062;896.2923583984375;949.8333129882812
781;818.4325561523438;820.3336181640625;862.1737060546875;895.9830932617188;949.4973754882812
782;818.1378784179688;820.0335693359375;861.8685913085938;895.674072265625;949.1616821289062
783;817.8434448242188;819.7337036132812;861.5635986328125;895.3651733398438;948.8260498046876
784;817.5490112304688;819.4339599609375;861.2588500976562;895.0563354492188;948.4907836914062
785;817.2547607421875;819.1343994140625;860.9542236328125;894.7476806640625;948.1553955078124
786;816.9605102539062;818.8347778320312;860.649658203125;894.4391479492188;947.8202514648438
787;816.66650390625;818.535400390625;860.3452758789062;894.1307373046875;947.4852905273438
788;816.3726196289062;818.2362060546875;860.0410766601562;893.8223876953125;947.150634765625
789;816.0789794921875;817.93701171875;859.737060546875;893.5142211914062;946.8163452148438
790;815.7852783203125;817.6380615234375;859.4331665039062;893.2062377929688;946.4820556640624
791;815.4918823242188;817.3391723632812;859.1292724609375;892.8984375;946.1478881835938
792;815.1986083984375;817.0404663085938;858.8257446289062;892.5906372070312;945.8140258789062
793;814.9053344726562;816.741943359375;858.522216796875;892.2830810546875;945.480224609375
794;814.6121826171875;816.4434814453125;858.218994140625;891.9755859375;945.1466064453124
795;814.3192749023438;816.1453247070312;857.915771484375;891.6683349609375;944.813232421875
796;814.0263671875;815.8471069335938;857.6128540039062;891.361328125;944.4801025390624
797;813.7338256835938;815.549072265625;857.31005859375;891.0542602539062;944.1471557617188
798;813.44140625;815.2512817382812;857.00732421875;890.747314453125;943.814453125
799;813.1491088867188;814.9535522460938;856.7047729492188;890.440673828125;943.4818725585938
800;812.8568725585938;814.656005859375;856.4024658203125;890.1340942382812;943.1494750976562
801;812.5648193359375;814.358642578125;856.1002197265625;889.827880859375;942.8171997070312
802;812.2727661132812;814.0614624023438;855.798095703125;889.5213623046875;942.4852294921876
803;811.9808959960938;813.764404296875;855.4961547851562;889.2151489257812;942.1534423828124
804;811.6892700195312;813.4674682617188;855.1942749023438;888.9089965820312;941.8215942382812
805;811.3975830078125;813.170654296875;854.892578125;888.603271484375;941.490234375
806;811.1060180664062;812.8740844726562;854.5911254882812;888.297607421875;941.1589965820312
807;810.8147583007812;812.5775146484375;854.2899169921875;887.991943359375;940.8276977539062
808;810.5235595703125;812.28125;853.9888305664062;887.6864013671875;940.4967041015624
809;810.2325439453125;811.9851684570312;853.6879272460938;887.3811645507812;940.1659545898438
810;809.9417724609375;811.6892700195312;853.3869018554688;887.075927734375;939.8352661132812
811;809.6510620117188;811.3933715820312;853.0861206054688;886.770751953125;939.5046997070312
812;809.3604736328125;811.0977783203125;852.78564453125;886.4660034179688;939.1746215820312
813;809.0700073242188;810.80224609375;852.4852294921875;886.1610717773438;938.8445434570312
814;808.7796630859375;810.5067749023438;852.1851196289062;885.8564453125;938.5146484375
815;808.4893798828125;810.2115478515625;851.885009765625;885.5519409179688;938.1851196289062
816;808.1993408203125;809.9163818359375;851.5850830078125;885.24755859375;937.8555908203124
817;807.9093627929688;809.6213989257812;851.2852172851562;884.943359375;937.5263061523438
818;807.6195678710938;809.32666015625;850.985595703125;884.6393432617188;937.1970825195312
819;807.3299560546875;809.031982421875;850.6862182617188;884.3352661132812;936.8680419921876
820;807.0404052734375;808.7374267578125;850.3868408203125;884.0313110351562;936.5391845703124
821;806.7510375976562;808.443115234375;850.0875244140625;883.727783203125;936.2105712890624
822;806.4617919921875;808.1491088867188;849.78857421875;883.424072265625;935.8821411132812
823;806.1724243164062;807.8551635742188;849.4896850585938;883.1204833984375;935.5538940429688
824;805.8833618164062;807.561279296875;849.19091796875;882.817138671875;935.225830078125
825;805.5944213867188;807.267822265625;848.892333984375;882.5140991210938;934.8978881835938
826;805.3056640625;806.9745483398438;848.5939331054688;882.2108764648438;934.5703125
827;805.0169677734375;806.6813354492188;848.295654296875;881.907958984375;934.2425537109376
828;804.7283935546875;806.3883666992188;847.997314453125;881.60498046875;933.9152221679688
829;804.4398803710938;806.0955200195312;847.69921875;881.3023071289062;933.5879516601562
830;804.1515502929688;805.802978515625;847.4012451171875;880.999755859375;933.2609252929688
831;803.8633422851562;805.5104370117188;847.1036376953125;880.6973876953125;932.9341430664062
832;803.5753173828125;805.218017578125;846.805908203125;880.3949584960938;932.6074829101562
833;803.2875366210938;804.9259033203125;846.5084228515625;880.0928955078125;932.2810668945312
834;802.9998779296875;804.6338500976562;846.2109985351562;879.790771484375;931.9546508789062
835;802.7122192382812;804.342041015625;845.9137573242188;879.4888305664062;931.6283569335938
836;802.4246826171875;804.0504760742188;845.6166381835938;879.1871948242188;931.3023681640624
837;802.1373901367188;803.7590942382812;845.3197021484375;878.885498046875;930.9765014648438
838;801.8502807617188;803.4678344726562;845.0228881835938;878.5840454101562;930.6507568359376
839;801.5631103515625;803.1767578125;844.7263793945312;878.2826538085938;930.3253784179688
840;801.2761840820312;802.8859252929688;844.4297485351562;877.9814453125;930.0001220703124
841;800.9893188476562;802.5951538085938;844.13330078125;877.6802978515625;929.6749267578124
842;800.7026977539062;802.3045043945312;843.8370361328125;877.37939453125;929.3499755859376
843;800.4161987304688;802.0139770507812;843.5408325195312;877.0784301757812;929.0252685546876
844;800.1298217773438;801.7236938476562;843.2448120117188;876.7777709960938;928.7005004882812
845;799.8435668945312;801.4336547851562;842.948974609375;876.4771728515625;928.3760375976562
846;799.5573120117188;801.143798828125;842.6533813476562;876.1765747070312;928.0516967773438
847;799.2713623046875;800.85400390625;842.3577880859375;875.876220703125;927.7274780273438
848;798.9853515625;800.5645141601562;842.0623168945312;875.5761108398438;927.4035034179688
849;798.6994018554688;800.2752685546875;841.76708984375;875.276123046875;927.0796508789062
850;798.4138793945312;799.986083984375;841.471923828125;874.9760131835938;926.756103515625
851;798.1282958984375;799.6970825195312;841.1769409179688;874.6760864257812;926.4325561523438
852;797.8427734375;799.4083251953125;840.882080078125;874.3764038085938;926.1092529296876
853;797.5574951171875;799.1197509765625;840.5875244140625;874.0768432617188;925.7860717773438
854;797.2723999023438;798.8312377929688;840.29296875;873.7772827148438;925.4630126953124
855;796.9873657226562;798.5427856445312;839.9984741210938;873.4780883789062;925.1402587890624
856;796.7023315429688;798.254638671875;839.7042236328125;873.1788330078125;924.8176879882812
857;796.41748046875;797.966552734375;839.4098510742188;872.8797607421875;924.4951782226562
858;796.1327514648438;797.6788330078125;839.1157836914062;872.5808715820312;924.1729125976562
859;795.8480834960938;797.3912353515625;838.82177734375;872.281982421875;923.8506469726562
860;795.5635375976562;797.1038818359375;838.5278930664062;871.9830932617188;923.5286254882812
861;795.2791748046875;796.8165283203125;838.2342529296875;871.6845092773438;923.2069091796876
862;794.9949951171875;796.5293579101562;837.9407958984375;871.3860473632812;922.8851318359376
863;794.7108764648438;796.242431640625;837.6474609375;871.087646484375;922.5636596679688
864;794.4268188476562;795.9555053710938;837.3541870117188;870.7894897460938;922.2423706054688
865;794.1429443359375;795.6688842773438;837.06103515625;870.491455078125;921.9210815429688
866;793.8592529296875;795.3825073242188;836.7678833007812;870.193359375;921.6002197265624
867;793.5755615234375;795.095947265625;836.4750366210938;869.8955688476562;921.279296875
868;793.2921142578125;794.8097534179688;836.1822509765625;869.59765625;920.9586181640624
869;793.0086669921875;794.523681640625;835.8897705078125;869.3001708984375;920.6380004882812
870;792.7254638671875;794.2376708984375;835.5973510742188;869.0027465820312;920.3176879882812
871;792.4421997070312;793.9517822265625;835.3049926757812;868.705322265625;919.9973754882812
872;792.1591796875;793.6661376953125;835.012939453125;868.4080200195312;919.6773681640624
873;791.8763427734375;793.380615234375;834.7208251953125;868.1109619140625;919.357421875
874;791.5934448242188;793.0951538085938;834.4288330078125;867.8137817382812;919.0377197265624
875;791.3107299804688;792.8099365234375;834.1370849609375;867.516845703125;918.7180786132812
876;791.0281372070312;792.5247192382812;833.8453369140625;867.2201538085938;918.3985595703124
877;790.7456665039062;792.2396850585938;833.5537109375;866.9235229492188;918.079345703125
878;790.46337890625;791.954833984375;833.2620849609375;866.6268310546875;917.7603149414062
879;790.1812133789062;791.6700439453125;832.9707641601562;866.3305053710938;917.44140625
880;789.8990478515625;791.3853149414062;832.6795043945312;866.0342407226562;917.122802734375
881;789.6171264648438;791.1007080078125;832.3884887695312;865.738037109375;916.8041381835938
882;789.3353271484375;790.8162841796875;832.09765625;865.4420166015625;916.4859619140624
883;789.0535888671875;790.5320434570312;831.8067626953125;865.14599609375;916.167724609375
884;788.7719116210938;790.248046875;831.5159912109375;864.8502807617188;915.849853515625
885;788.4904174804688;789.9639892578125;831.225341796875;864.5545043945312;915.5320434570312
886;788.2091064453125;789.6800537109375;830.934814453125;864.2589721679688;915.2144775390624
887;787.9278564453125;789.396240234375;830.6445922851562;863.9635009765625;914.8969116210938
888;787.6466674804688;789.112548828125;830.3543090820312;863.6680908203125;914.5797119140624
889;787.3655395507812;788.8290405273438;830.064208984375;863.3729858398438;914.2626342773438
890;787.0845336914062;788.545654296875;829.774169921875;863.077880859375;913.9457397460938
891;786.8037719726562;788.2623901367188;829.4842529296875;862.782958984375;913.6289672851562
892;786.5230712890625;787.9791870117188;829.1945190429688;862.488037109375;913.3123779296876
893;786.2424926757812;787.6961059570312;828.9049682617188;862.193359375;912.9959716796876
894;785.9618530273438;787.4132080078125;828.615478515625;861.898681640625;912.6795654296876
895;785.6815185546875;787.1305541992188;828.326171875;861.6041870117188;912.36328125
896;785.4012451171875;786.847900390625;828.0370483398438;861.3099365234375;912.0472412109376
897;785.12109375;786.5654907226562;827.747802734375;861.0155639648438;911.7312622070312
898;784.8409423828125;786.2830200195312;827.4588623046875;860.721435546875;911.4154663085938
899;784.56103515625;786.0007934570312;827.1701049804688;860.4275512695312;911.099853515625
900;784.2811889648438;785.71875;826.88134765625;860.1337280273438;910.7844848632812
901;784.0015258789062;785.4367065429688;826.5928955078125;859.8397827148438;910.4692993164062
902;783.7219848632812;785.15478515625;826.3042602539062;859.546142578125;910.154296875
903;783.4423828125;784.873046875;826.015869140625;859.252685546875;909.8392944335938
904;783.1630859375;784.5914916992188;825.7275390625;858.9592895507812;909.5244140625
905;782.8838500976562;784.3099365234375;825.4393920898438;858.6658935546875;909.2096557617188
906;782.6047973632812;784.028564453125;825.1513671875;858.372802734375;908.8951416015624
907;782.3256225585938;783.747314453125;824.863525390625;858.07958984375;908.5808715820312
908;782.0468139648438;783.4661865234375;824.5757446289062;857.7866821289062;908.2666625976562
909;781.7680053710938;783.1851806640625;824.2880249023438;857.4938354492188;907.9526977539062
910;781.4893188476562;782.9043579101562;824.0003662109375;857.2010498046875;907.6387939453124
911;781.2107543945312;782.6236572265625;823.713134765625;856.908447265625;907.3250122070312
912;780.9323120117188;782.343017578125;823.4256591796875;856.615966796875;907.011474609375
913;780.6538696289062;782.0625610351562;823.1385498046875;856.3235473632812;906.6980590820312
914;780.3757934570312;781.7822875976562;822.8513793945312;856.03125;906.384765625
915;780.09765625;781.5021362304688;822.5645751953125;855.7390747070312;906.0715942382812
916;779.8196411132812;781.2220458984375;822.2777709960938;855.447021484375;905.7586059570312
917;779.5416870117188;780.9420166015625;821.990966796875;855.155029296875;905.4457397460938
918;779.2639770507812;780.662109375;821.7044067382812;854.86328125;905.1331176757812
919;778.9862670898438;780.3824462890625;821.41796875;854.571533203125;904.820556640625
920;778.7086181640625;780.1028442382812;821.1316528320312;854.2799072265625;904.5083618164062
921;778.43115234375;779.8233642578125;820.8453979492188;853.9884033203125;904.1962280273438
922;778.15380859375;779.5440673828125;820.559326171875;853.697021484375;903.8842163085938
923;777.8766479492188;779.2647705078125;820.2733154296875;853.4057006835938;903.5723876953124
924;777.5994873046875;778.9857177734375;819.9874877929688;853.1145629882812;903.2606201171876
925;777.3224487304688;778.7066650390625;819.7017211914062;852.8235473632812;902.9490966796876
926;777.0455932617188;778.4277954101562;819.4160766601562;852.5327758789062;902.6377563476562
927;776.7689208984375;778.149169921875;819.1304931640625;852.241943359375;902.3265380859376
928;776.4921264648438;777.8704833984375;818.844970703125;851.951171875;902.015380859375
929;776.2156372070312;777.5919799804688;818.5596313476562;851.6605224609375;901.7044067382812
930;775.9390869140625;777.3134765625;818.2743530273438;851.3700561523438;901.3937377929688
931;775.6627807617188;777.0352783203125;817.9893188476562;851.0795288085938;901.0830688476562
932;775.3865966796875;776.7571411132812;817.704345703125;850.7893676757812;900.7725219726562
933;775.1104736328125;776.479248046875;817.4194946289062;850.499267578125;900.462158203125
934;774.8344116210938;776.2012329101562;817.134765625;850.2091674804688;900.1519775390625
935;774.5585327148438;775.9235229492188;816.8502197265625;849.9192504882812;899.8419189453125
936;774.2826538085938;775.645751953125;816.565673828125;849.6295166015625;899.5320434570312
937;774.0068359375;775.3682861328125;816.2813110351562;849.3397827148438;899.2222900390625
938;773.7311401367188;775.0907592773438;815.9968872070312;849.0501708984375;898.9127807617188
939;773.4557495117188;774.8135986328125;815.7127685546875;848.7606811523438;898.6033935546875
940;773.1802978515625;774.536376953125;815.4285888671875;848.4713134765625;898.2940673828125
941;772.9050903320312;774.2593994140625;815.1447143554688;848.181884765625;897.9848022460938
942;772.6298828125;773.9823608398438;814.8609619140625;847.892822265625;897.6758422851562
943;772.3549194335938;773.7055053710938;814.5772705078125;847.603759765625;897.366943359375
944;772.0800170898438;773.4287719726562;814.293701171875;847.3148193359375;897.0582275390625
945;771.8051147460938;773.1522827148438;814.01025390625;847.0260009765625;896.7496337890625
946;771.5303955078125;772.875732421875;813.726806640625;846.7373046875;896.441162109375
947;771.2557373046875;772.599365234375;813.443603515625;846.4486694335938;896.1329345703125
948;770.9810180664062;772.3231811523438;813.160400390625;846.1600952148438;895.8248291015625
949;770.7066040039062;772.0469360351562;812.8773803710938;845.8717041015625;895.5169067382812
950;770.4322509765625;771.7708740234375;812.594482421875;845.5833740234375;895.208984375
951;770.1580200195312;771.494873046875;812.3117065429688;845.2952270507812;894.9013671875
952;769.8839111328125;771.2190551757812;812.0288696289062;845.0071411132812;894.59375
953;769.6099853515625;770.943359375;811.7463989257812;844.7191772460938;894.2862548828125
954;769.3361206054688;770.6679077148438;811.4639282226562;844.4312133789062;893.9789428710938
955;769.0623168945312;770.392333984375;811.1815795898438;844.1435546875;893.671875
956;768.7886352539062;770.1170654296875;810.8992309570312;843.8558349609375;893.3648681640625
957;768.5149536132812;769.8416748046875;810.6171875;843.568359375;893.0579223632812
958;768.2413940429688;769.566650390625;810.335205078125;843.281005859375;892.7511596679688
959;767.9678955078125;769.2916870117188;810.0532836914062;842.9935302734375;892.4445190429688
960;767.6947631835938;769.0167846679688;809.7715454101562;842.7064208984375;892.1380004882812
961;767.4215087890625;768.7420654296875;809.4898681640625;842.4194946289062;891.8316650390625
962;767.1484985351562;768.46728515625;809.208251953125;842.1325073242188;891.525390625
963;766.8755493164062;768.1928100585938;808.9267578125;841.8455810546875;891.2193603515625
964;766.6025390625;767.9183959960938;808.645263671875;841.558837890625;890.9135131835938
965;766.3297729492188;767.6439819335938;808.364013671875;841.272216796875;890.6077880859375
966;766.0571899414062;767.3697509765625;808.0828247070312;840.985595703125;890.3020629882812
967;765.78466796875;767.0955200195312;807.8018188476562;840.6990966796875;889.9966430664062
968;765.51220703125;766.821533203125;807.52099609375;840.412841796875;889.691162109375
969;765.2399291992188;766.547607421875;807.2401123046875;840.1266479492188;889.3858642578125
970;764.9676513671875;766.2738037109375;806.9594116210938;839.8404541015625;889.080810546875
971;764.6954345703125;766.000244140625;806.6787719726562;839.554443359375;888.7757568359375
972;764.4234619140625;765.7266845703125;806.398193359375;839.2684936523438;888.4708251953125
973;764.1514892578125;765.4531860351562;806.1177978515625;838.982666015625;888.1661376953125
974;763.8797607421875;765.1798095703125;805.83740234375;838.6969604492188;887.861572265625
975;763.6079711914062;764.9066162109375;805.5572509765625;838.411376953125;887.5570678710938
976;763.33642578125;764.633544921875;805.277099609375;838.1258544921875;887.252685546875
977;763.0648803710938;764.360595703125;804.9970703125;837.8404541015625;886.9484252929688
978;762.7935180664062;764.0877075195312;804.71728515625;837.5552368164062;886.644287109375
979;762.5221557617188;763.8148193359375;804.4375610351562;837.27001953125;886.3402099609375
980;762.2509155273438;763.542236328125;804.1578369140625;836.98486328125;886.0364379882812
981;761.9798583984375;763.2696533203125;803.8782348632812;836.699951171875;885.7327880859375
982;761.7088623046875;762.997314453125;803.598876953125;836.4151611328125;885.4291381835938
983;761.4379272460938;762.7249145507812;803.319580078125;836.1304321289062;885.1257934570312
984;761.1672973632812;762.4525756835938;803.0401611328125;835.845703125;884.8223876953125
985;760.896484375;762.180419921875;802.760986328125;835.5610961914062;884.519287109375
986;760.6259155273438;761.908447265625;802.4819946289062;835.2766723632812;884.2162475585938
987;760.35546875;761.6365356445312;802.2031860351562;834.9923095703125;883.9132690429688
988;760.0849609375;761.3646850585938;801.9242553710938;834.7081298828125;883.6104125976562
989;759.8145751953125;761.093017578125;801.6455078125;834.4240112304688;883.3078002929688
990;759.5444946289062;760.8214721679688;801.366943359375;834.139892578125;883.005126953125
991;759.2744140625;760.5498657226562;801.08837890625;833.8560180664062;882.7025756835938
992;759.00439453125;760.2784423828125;800.8101196289062;833.5720825195312;882.4004516601562
993;758.7344360351562;760.007080078125;800.5316772460938;833.288330078125;882.0983276367188
994;758.4645385742188;759.7360229492188;800.2535400390625;833.0046997070312;881.7962036132812
995;758.1948852539062;759.4649047851562;799.975341796875;832.7212524414062;881.494384765625
996;757.92529296875;759.1940307617188;799.697509765625;832.437744140625;881.1925659179688
997;757.65576171875;758.9231567382812;799.419677734375;832.154541015625;880.8909912109375
998;757.3863525390625;758.6524658203125;799.141845703125;831.871337890625;880.5894775390625
999;757.1170654296875;758.3817138671875;798.8643188476562;831.588134765625;880.2879638671875
