;loss
0;1306.5096435546875
1;1305.960693359375
2;1305.222412109375
3;1304.4832763671875
4;1303.7882080078125
5;1303.0782470703125
6;1302.357177734375
7;1301.6273193359375
8;1300.890380859375
9;1300.140380859375
10;1299.390869140625
11;1298.6361083984375
12;1297.875732421875
13;1297.1123046875
14;1296.344482421875
15;1295.566650390625
16;1294.7882080078125
17;1294.003662109375
18;1293.2120361328125
19;1292.4130859375
20;1291.605712890625
21;1290.7896728515625
22;1289.954345703125
23;1289.1180419921875
24;1288.260009765625
25;1287.400146484375
26;1286.5167236328125
27;1285.6292724609375
28;1284.7164306640625
29;1283.787109375
30;1282.8516845703125
31;1281.8978271484375
32;1280.9248046875
33;1279.919677734375
34;1278.9036865234375
35;1277.8648681640625
36;1276.8009033203125
37;1275.7109375
38;1274.592529296875
39;1273.4443359375
40;1272.2513427734375
41;1271.0240478515625
42;1269.773193359375
43;1268.4832763671875
44;1267.151611328125
45;1265.775390625
46;1264.336669921875
47;1262.860107421875
48;1261.3133544921875
49;1259.7054443359375
50;1258.031005859375
51;1256.3009033203125
52;1254.4937744140625
53;1252.6029052734375
54;1250.6202392578125
55;1248.5194091796875
56;1246.326416015625
57;1243.994140625
58;1241.528076171875
59;1238.9346923828125
60;1236.179443359375
61;1233.244384765625
62;1230.0850830078125
63;1226.7242431640625
64;1223.083984375
65;1219.1844482421875
66;1214.961181640625
67;1210.369384765625
68;1205.3197021484375
69;1199.779296875
70;1193.671142578125
71;1186.953369140625
72;1179.432861328125
73;1171.038818359375
74;1161.6522216796875
75;1151.2357177734375
76;1139.666259765625
77;1126.875732421875
78;1113.07421875
79;1098.6444091796875
80;1083.921630859375
81;1069.369384765625
82;1055.3143310546875
83;1042.1292724609375
84;1030.0172119140625
85;1018.8646850585938
86;1008.7530517578125
87;999.5408935546875
88;991.1431274414062
89;983.43359375
90;976.3917236328125
91;969.9415893554688
92;964.0167236328125
93;958.5716552734375
94;953.5794067382812
95;948.9412231445312
96;944.5995483398438
97;940.5576782226562
98;936.7581787109375
99;933.1900024414062
100;929.8202514648438
101;926.6194458007812
102;923.56640625
103;920.6378784179688
104;917.8223266601562
105;915.0903930664062
106;912.4439697265625
107;909.8766479492188
108;907.3927001953125
109;904.974609375
110;902.6184692382812
111;900.3197631835938
112;898.0645751953125
113;895.8597412109375
114;893.7022705078125
115;891.5974731445312
116;889.5323486328125
117;887.5044555664062
118;885.5114135742188
119;883.5433959960938
120;881.6065673828125
121;879.7069091796875
122;877.8281860351562
123;875.9755859375
124;874.1548461914062
125;872.3511352539062
126;870.576171875
127;868.8220825195312
128;867.0881958007812
129;865.3671875
130;863.6646728515625
131;861.9856567382812
132;860.3174438476562
133;858.6654052734375
134;857.0347900390625
135;855.4189453125
136;853.8118286132812
137;852.2235107421875
138;850.6484375
139;849.0859375
140;847.53564453125
141;845.9971923828125
142;844.4701538085938
143;842.9541015625
144;841.4490966796875
145;839.9544677734375
146;838.4701538085938
147;836.9909057617188
148;835.5260620117188
149;834.0660400390625
150;832.6198120117188
151;831.1827392578125
152;829.7499389648438
153;828.3302001953125
154;826.9189453125
155;825.5161743164062
156;824.1212768554688
157;822.7344360351562
158;821.3551635742188
159;819.9833374023438
160;818.6185913085938
161;817.2610473632812
162;815.9104614257812
163;814.5667114257812
164;813.2258911132812
165;811.8953247070312
166;810.5675048828125
167;809.2501220703125
168;807.9388427734375
169;806.6303100585938
170;805.3314819335938
171;804.0390014648438
172;802.7527465820312
173;801.4722290039062
174;800.1939086914062
175;798.9243774414062
176;797.6570434570312
177;796.3949584960938
178;795.1415405273438
179;793.8934326171875
180;792.6471557617188
181;791.4059448242188
182;790.1697387695312
183;788.9414672851562
184;787.7180786132812
185;786.4991455078125
186;785.2848510742188
187;784.0752563476562
188;782.8702392578125
189;781.6668701171875
190;780.4706420898438
191;779.2755126953125
192;778.0845336914062
193;776.9006958007812
194;775.720703125
195;774.5445556640625
196;773.3695678710938
197;772.1984252929688
198;771.0311279296875
199;769.8674926757812
200;768.7100219726562
201;767.55615234375
202;766.4031372070312
203;765.2561645507812
204;764.1100463867188
205;762.9697265625
206;761.8328857421875
207;760.6992797851562
208;759.5665283203125
209;758.43701171875
210;757.3129272460938
211;756.1920776367188
212;755.0719604492188
213;753.9573364257812
214;752.84326171875
215;751.7345581054688
216;750.6265258789062
217;749.5238037109375
218;748.423828125
219;747.3246459960938
220;746.23046875
221;745.1390991210938
222;744.0482788085938
223;742.9603271484375
224;741.875
225;740.7945556640625
226;739.7169189453125
227;738.6397705078125
228;737.5673828125
229;736.49560546875
230;735.4285888671875
231;734.3640747070312
232;733.2999877929688
233;732.2406005859375
234;731.1817626953125
235;730.1273803710938
236;729.0733642578125
237;728.0238647460938
238;726.9747924804688
239;725.9281616210938
240;724.8858642578125
241;723.8460083007812
242;722.8082885742188
243;721.7730102539062
244;720.7400512695312
245;719.70751953125
246;718.67724609375
247;717.6492919921875
248;716.6235961914062
249;715.60009765625
250;714.5789184570312
251;713.5597534179688
252;712.5429077148438
253;711.5298461914062
254;710.5191040039062
255;709.5086059570312
256;708.5020141601562
257;707.4957275390625
258;706.4916381835938
259;705.4894409179688
260;704.4910888671875
261;703.4931030273438
262;702.4971313476562
263;701.5032348632812
264;700.5112915039062
265;699.5213623046875
266;698.5350341796875
267;697.55078125
268;696.5667114257812
269;695.5846557617188
270;694.6061401367188
271;693.6295776367188
272;692.6534423828125
273;691.6806640625
274;690.7083129882812
275;689.7392578125
276;688.7705688476562
277;687.8052368164062
278;686.8402709960938
279;685.8785400390625
280;684.9188232421875
281;683.9608154296875
282;683.0044555664062
283;682.0499267578125
284;681.0972900390625
285;680.1449584960938
286;679.1942749023438
287;678.2454833984375
288;677.2997436523438
289;676.3543701171875
290;675.4107055664062
291;674.4701538085938
292;673.53125
293;672.5941162109375
294;671.6572875976562
295;670.7234497070312
296;669.7899169921875
297;668.8580322265625
298;667.9291381835938
299;667.0005493164062
300;666.0748901367188
301;665.1495361328125
302;664.2271118164062
303;663.3062744140625
304;662.3870849609375
305;661.4692993164062
306;660.5518798828125
307;659.6361694335938
308;658.7218627929688
309;657.8092041015625
310;656.8992919921875
311;655.9909057617188
312;655.0841064453125
313;654.1776123046875
314;653.2738037109375
315;652.37158203125
316;651.4696655273438
317;650.5692138671875
318;649.6702880859375
319;648.7739868164062
320;647.8792114257812
321;646.9846801757812
322;646.0916137695312
323;645.201171875
324;644.31103515625
325;643.4224243164062
326;642.5362548828125
327;641.6505126953125
328;640.7660522460938
329;639.8843383789062
330;639.0028076171875
331;638.1226196289062
332;637.2449951171875
333;636.3688354492188
334;635.4928588867188
335;634.6195068359375
336;633.7474365234375
337;632.8756103515625
338;632.00634765625
339;631.1383666992188
340;630.2717895507812
341;629.4066772460938
342;628.5427856445312
343;627.6802368164062
344;626.8190307617188
345;625.9581298828125
346;625.0986328125
347;624.2415161132812
348;623.3856811523438
349;622.5311279296875
350;621.6768798828125
351;620.8250732421875
352;619.9744873046875
353;619.1251831054688
354;618.2761840820312
355;617.4285278320312
356;616.5820922851562
357;615.7368774414062
358;614.8931274414062
359;614.0515747070312
360;613.2111206054688
361;612.37109375
362;611.5333251953125
363;610.6967163085938
364;609.8604736328125
365;609.0264282226562
366;608.1936645507812
367;607.3619995117188
368;606.53076171875
369;605.70166015625
370;604.8737182617188
371;604.0471801757812
372;603.2217407226562
373;602.3966674804688
374;601.5728759765625
375;600.7510986328125
376;599.9298095703125
377;599.1105346679688
378;598.2915649414062
379;597.4738159179688
380;596.6582641601562
381;595.8428955078125
382;595.0288696289062
383;594.2161254882812
384;593.4052734375
385;592.595703125
386;591.7864990234375
387;590.9793701171875
388;590.17236328125
389;589.3666381835938
390;588.5621337890625
391;587.7587890625
392;586.9566040039062
393;586.1555786132812
394;585.3556518554688
395;584.5577392578125
396;583.7601928710938
397;582.9645385742188
398;582.1692504882812
399;581.3758544921875
400;580.5828247070312
401;579.7916259765625
402;579.0008544921875
403;578.2118530273438
404;577.4232788085938
405;576.6365966796875
406;575.8509521484375
407;575.0657348632812
408;574.2822875976562
409;573.4991455078125
410;572.7171630859375
411;571.9370727539062
412;571.1578979492188
413;570.3792724609375
414;569.6015625
415;568.8257446289062
416;568.05029296875
417;567.27587890625
418;566.5025634765625
419;565.7302856445312
420;564.9591064453125
421;564.1896362304688
422;563.4212646484375
423;562.6539916992188
424;561.8870239257812
425;561.1217651367188
426;560.3568725585938
427;559.5938110351562
428;558.8316650390625
429;558.0699462890625
430;557.3098754882812
431;556.5501708984375
432;555.7914428710938
433;555.0338134765625
434;554.2771606445312
435;553.5216064453125
436;552.7677001953125
437;552.0148315429688
438;551.2630004882812
439;550.5121459960938
440;549.7616577148438
441;549.0121459960938
442;548.2643432617188
443;547.5175170898438
444;546.77099609375
445;546.0255126953125
446;545.2816772460938
447;544.5382690429688
448;543.79638671875
449;543.0554809570312
450;542.3156127929688
451;541.5761108398438
452;540.8381958007812
453;540.1011962890625
454;539.3646240234375
455;538.6289672851562
456;537.8943481445312
457;537.1612548828125
458;536.4285278320312
459;535.6968383789062
460;534.9667358398438
461;534.2374877929688
462;533.50927734375
463;532.7820434570312
464;532.0557250976562
465;531.3297729492188
466;530.6053466796875
467;529.8812255859375
468;529.1581420898438
469;528.43603515625
470;527.7152709960938
471;526.9956665039062
472;526.2769775390625
473;525.5592041015625
474;524.8416748046875
475;524.1251220703125
476;523.4096069335938
477;522.6954956054688
478;521.9817504882812
479;521.2689819335938
480;520.5576782226562
481;519.8467407226562
482;519.1372680664062
483;518.4287719726562
484;517.7205200195312
485;517.0137939453125
486;516.3080444335938
487;515.6031494140625
488;514.8985595703125
489;514.1949462890625
490;513.4927368164062
491;512.7914428710938
492;512.0905151367188
493;511.3904724121094
494;510.69134521484375
495;509.99365234375
496;509.2963562011719
497;508.6004333496094
498;507.90484619140625
499;507.210205078125
500;506.5164489746094
501;505.82354736328125
502;505.132080078125
503;504.4410095214844
504;503.75079345703125
505;503.0614929199219
506;502.3730163574219
507;501.68597412109375
508;500.9992370605469
509;500.3139343261719
510;499.6295471191406
511;498.9454650878906
512;498.26220703125
513;497.58038330078125
514;496.89892578125
515;496.21875
516;495.5390625
517;494.8606872558594
518;494.18316650390625
519;493.50653076171875
520;492.83026123046875
521;492.1553039550781
522;491.4812316894531
523;490.8080139160156
524;490.1356506347656
525;489.464111328125
526;488.7929382324219
527;488.12261962890625
528;487.4531555175781
529;486.7850036621094
530;486.1177062988281
531;485.45123291015625
532;484.78558349609375
533;484.120849609375
534;483.4569396972656
535;482.7933044433594
536;482.130615234375
537;481.46917724609375
538;480.80810546875
539;480.1483459472656
540;479.4894104003906
541;478.8308410644531
542;478.1736145019531
543;477.51666259765625
544;476.86102294921875
545;476.2057800292969
546;475.5517272949219
547;474.8985900878906
548;474.24578857421875
549;473.59381103515625
550;472.94305419921875
551;472.292724609375
552;471.6432189941406
553;470.9949645996094
554;470.3474426269531
555;469.7007751464844
556;469.0549621582031
557;468.40948486328125
558;467.7648010253906
559;467.1209411621094
560;466.47796630859375
561;465.83612060546875
562;465.195068359375
563;464.55487060546875
564;463.91546630859375
565;463.2768249511719
566;462.6390075683594
567;462.00201416015625
568;461.36578369140625
569;460.7299499511719
570;460.0948791503906
571;459.46099853515625
572;458.8279113769531
573;458.1956481933594
574;457.5641784667969
575;456.9334411621094
576;456.3030700683594
577;455.6736145019531
578;455.04522705078125
579;454.41766357421875
580;453.7908630371094
581;453.16485595703125
582;452.5392150878906
583;451.9147644042969
584;451.29071044921875
585;450.6677551269531
586;450.0456237792969
587;449.4242858886719
588;448.80328369140625
589;448.1830749511719
590;447.56365966796875
591;446.9449157714844
592;446.32708740234375
593;445.7102966308594
594;445.0943298339844
595;444.4791564941406
596;443.8642578125
597;443.25018310546875
598;442.6369323730469
599;442.02435302734375
600;441.41253662109375
601;440.8018493652344
602;440.1915588378906
603;439.5821228027344
604;438.97369384765625
605;438.3656921386719
606;437.7588195800781
607;437.1523132324219
608;436.5466003417969
609;435.9419250488281
610;435.3380432128906
611;434.73492431640625
612;434.1325378417969
613;433.5305480957031
614;432.92962646484375
615;432.3294372558594
616;431.73004150390625
617;431.1310119628906
618;430.53271484375
619;429.93548583984375
620;429.3390808105469
621;428.74334716796875
622;428.14801025390625
623;427.5537414550781
624;426.95989990234375
625;426.36676025390625
626;425.7747497558594
627;425.1830749511719
628;424.5924377441406
629;424.0026550292969
630;423.41351318359375
631;422.8250427246094
632;422.2374572753906
633;421.650146484375
634;421.06390380859375
635;420.4783630371094
636;419.8936462402344
637;419.3095703125
638;418.7262268066406
639;418.143310546875
640;417.5613708496094
641;416.9802551269531
642;416.3997497558594
643;415.820068359375
644;415.2409973144531
645;414.6627502441406
646;414.08514404296875
647;413.50787353515625
648;412.9314270019531
649;412.35595703125
650;411.7812194824219
651;411.2071228027344
652;410.63348388671875
653;410.0608825683594
654;409.48870849609375
655;408.9174499511719
656;408.3466796875
657;407.7765808105469
658;407.2074279785156
659;406.63873291015625
660;406.07073974609375
661;405.5034484863281
662;404.9371643066406
663;404.37127685546875
664;403.8063659667969
665;403.2421569824219
666;402.6786193847656
667;402.11578369140625
668;401.55340576171875
669;400.9919738769531
670;400.4309387207031
671;399.87060546875
672;399.3113098144531
673;398.75262451171875
674;398.1943359375
675;397.63671875
676;397.07989501953125
677;396.5240173339844
678;395.968505859375
679;395.4139099121094
680;394.85986328125
681;394.3063659667969
682;393.753662109375
683;393.2015075683594
684;392.6501159667969
685;392.09967041015625
686;391.5496520996094
687;391.0005798339844
688;390.45220947265625
689;389.9042053222656
690;389.3570861816406
691;388.8107604980469
692;388.26507568359375
693;387.7197265625
694;387.1751403808594
695;386.6311950683594
696;386.0882263183594
697;385.54559326171875
698;385.0036315917969
699;384.4626770019531
700;383.92230224609375
701;383.38275146484375
702;382.84368896484375
703;382.3053894042969
704;381.76763916015625
705;381.23046875
706;380.69384765625
707;380.1579284667969
708;379.6228332519531
709;379.0885925292969
710;378.55462646484375
711;378.0213317871094
712;377.489013671875
713;376.9573059082031
714;376.4259948730469
715;375.89532470703125
716;375.36529541015625
717;374.8359375
718;374.30731201171875
719;373.779541015625
720;373.25244140625
721;372.7259216308594
722;372.20013427734375
723;371.6748962402344
724;371.15045166015625
725;370.6266174316406
726;370.1033020019531
727;369.5807800292969
728;369.0588684082031
729;368.53759765625
730;368.01690673828125
731;367.4969787597656
732;366.97760009765625
733;366.4586486816406
734;365.94036865234375
735;365.4226989746094
736;364.9057312011719
737;364.38958740234375
738;363.8738098144531
739;363.3587341308594
740;362.84423828125
741;362.3304748535156
742;361.8172912597656
743;361.3049621582031
744;360.79302978515625
745;360.28204345703125
746;359.77142333984375
747;359.2614440917969
748;358.7522888183594
749;358.24359130859375
750;357.7355041503906
751;357.2282409667969
752;356.7216796875
753;356.2156677246094
754;355.71026611328125
755;355.2053527832031
756;354.7012634277344
757;354.19757080078125
758;353.69451904296875
759;353.1922302246094
760;352.6904296875
761;352.1892395019531
762;351.68890380859375
763;351.1891784667969
764;350.6901550292969
765;350.19140625
766;349.6935729980469
767;349.1963195800781
768;348.69970703125
769;348.2034606933594
770;347.70806884765625
771;347.2131042480469
772;346.71868896484375
773;346.2250061035156
774;345.73187255859375
775;345.23956298828125
776;344.7477111816406
777;344.2563171386719
778;343.76593017578125
779;343.2760314941406
780;342.78656005859375
781;342.2979431152344
782;341.8096618652344
783;341.3222961425781
784;340.8354797363281
785;340.34930419921875
786;339.86370849609375
787;339.3785095214844
788;338.8938903808594
789;338.4099426269531
790;337.9267578125
791;337.4442443847656
792;336.9620666503906
793;336.4806823730469
794;335.99969482421875
795;335.5193786621094
796;335.039794921875
797;334.56060791015625
798;334.0823059082031
799;333.6042785644531
800;333.12713623046875
801;332.6506042480469
802;332.1745910644531
803;331.6992492675781
804;331.22430419921875
805;330.7500915527344
806;330.27655029296875
807;329.8034973144531
808;329.33099365234375
809;328.8591003417969
810;328.3879089355469
811;327.9170837402344
812;327.4469299316406
813;326.9774475097656
814;326.5085754394531
815;326.04010009765625
816;325.572265625
817;325.1051330566406
818;324.63861083984375
819;324.1726989746094
820;323.7073669433594
821;323.2426452636719
822;322.7784118652344
823;322.3147277832031
824;321.8516540527344
825;321.3892517089844
826;320.9274597167969
827;320.46600341796875
828;320.00518798828125
829;319.5448913574219
830;319.08538818359375
831;318.6264343261719
832;318.1679382324219
833;317.7099609375
834;317.2525939941406
835;316.7957458496094
836;316.33953857421875
837;315.8839416503906
838;315.4288024902344
839;314.9745178222656
840;314.520751953125
841;314.067626953125
842;313.6148986816406
843;313.16259765625
844;312.7110290527344
845;312.2600402832031
846;311.8096008300781
847;311.35980224609375
848;310.91046142578125
849;310.461669921875
850;310.01348876953125
851;309.5659484863281
852;309.1189270019531
853;308.6725769042969
854;308.2267761230469
855;307.7814025878906
856;307.33673095703125
857;306.8926696777344
858;306.4490661621094
859;306.0059509277344
860;305.5635681152344
861;305.12158203125
862;304.68017578125
863;304.2392578125
864;303.7989807128906
865;303.3591613769531
866;302.9201354980469
867;302.48150634765625
868;302.0434265136719
869;301.60601806640625
870;301.1690368652344
871;300.7326965332031
872;300.2967834472656
873;299.86163330078125
874;299.4270324707031
875;298.9928283691406
876;298.55914306640625
877;298.12628173828125
878;297.6936950683594
879;297.26171875
880;296.83026123046875
881;296.3995056152344
882;295.96917724609375
883;295.53936767578125
884;295.1103210449219
885;294.6816101074219
886;294.25347900390625
887;293.8258972167969
888;293.3988342285156
889;292.97235107421875
890;292.54638671875
891;292.12109375
892;291.6962585449219
893;291.27203369140625
894;290.8482360839844
895;290.4251403808594
896;290.00244140625
897;289.58026123046875
898;289.1586608886719
899;288.737548828125
900;288.31707763671875
901;287.8971862792969
902;287.47784423828125
903;287.0590515136719
904;286.6406555175781
905;286.2228698730469
906;285.80548095703125
907;285.3888854980469
908;284.9728088378906
909;284.5570983886719
910;284.14202880859375
911;283.7275085449219
912;283.3134460449219
913;282.9000549316406
914;282.48712158203125
915;282.0747375488281
916;281.66278076171875
917;281.25152587890625
918;280.8407287597656
919;280.4302978515625
920;280.02044677734375
921;279.6112976074219
922;279.2025146484375
923;278.7944030761719
924;278.38677978515625
925;277.9797668457031
926;277.5730285644531
927;277.1669006347656
928;276.76141357421875
929;276.3564453125
930;275.9518737792969
931;275.54791259765625
932;275.1443786621094
933;274.7414245605469
934;274.3388977050781
935;273.93707275390625
936;273.5357971191406
937;273.1350402832031
938;272.7347717285156
939;272.33502197265625
940;271.9356689453125
941;271.536865234375
942;271.1385192871094
943;270.7407531738281
944;270.34356689453125
945;269.9468994140625
946;269.5506591796875
947;269.1549987792969
948;268.7599792480469
949;268.3652648925781
950;267.9710388183594
951;267.5774841308594
952;267.184326171875
953;266.7917785644531
954;266.399658203125
955;266.0081787109375
956;265.6171569824219
957;265.2265625
958;264.8364562988281
959;264.44683837890625
960;264.0577697753906
961;263.6691589355469
962;263.2810974121094
963;262.8935546875
964;262.506591796875
965;262.1200866699219
966;261.7339782714844
967;261.34857177734375
968;260.963623046875
969;260.5791931152344
970;260.1953430175781
971;259.81195068359375
972;259.4289245605469
973;259.0464782714844
974;258.6645812988281
975;258.283203125
976;257.90216064453125
977;257.52178955078125
978;257.1417541503906
979;256.76239013671875
980;256.3834228515625
981;256.00506591796875
982;255.6270294189453
983;255.24951171875
984;254.8724822998047
985;254.49595642089844
986;254.119873046875
987;253.74449157714844
988;253.3695526123047
989;252.99513244628906
990;252.62106323242188
991;252.24758911132812
992;251.87460327148438
993;251.50204467773438
994;251.13002014160156
995;250.75852966308594
996;250.38754272460938
997;250.0170135498047
998;249.64686584472656
999;249.27737426757812
1000;248.90829467773438
1001;248.53965759277344
1002;248.1715850830078
1003;247.80397033691406
1004;247.43678283691406
1005;247.0701446533203
1006;246.7040252685547
1007;246.33827209472656
1008;245.97312927246094
1009;245.60842895507812
1010;245.244140625
1011;244.8804168701172
1012;244.51718139648438
1013;244.15443420410156
1014;243.7920684814453
1015;243.4302520751953
1016;243.06898498535156
1017;242.70803833007812
1018;242.34762573242188
1019;241.98765563964844
1020;241.628173828125
1021;241.26927185058594
1022;240.9108123779297
1023;240.5529022216797
1024;240.19541931152344
1025;239.83828735351562
1026;239.48170471191406
1027;239.1256561279297
1028;238.76998901367188
1029;238.41490173339844
1030;238.06027221679688
1031;237.70608520507812
1032;237.35238647460938
1033;236.99913024902344
1034;236.64634704589844
1035;236.2940216064453
1036;235.9422149658203
1037;235.59078979492188
1038;235.2399444580078
1039;234.8896026611328
1040;234.5396270751953
1041;234.19020080566406
1042;233.8411407470703
1043;233.49253845214844
1044;233.14439392089844
1045;232.7968292236328
1046;232.4496307373047
1047;232.1029510498047
1048;231.75680541992188
1049;231.41110229492188
1050;231.06578063964844
1051;230.72097778320312
1052;230.37661743164062
1053;230.03273010253906
1054;229.68934631347656
1055;229.34634399414062
1056;229.00387573242188
1057;228.6619415283203
1058;228.32029724121094
1059;227.9791717529297
1060;227.6384735107422
1061;227.29818725585938
1062;226.95846557617188
1063;226.61915588378906
1064;226.2802734375
1065;225.9419708251953
1066;225.6040802001953
1067;225.26658630371094
1068;224.9294891357422
1069;224.59300231933594
1070;224.25694274902344
1071;223.92138671875
1072;223.5862274169922
1073;223.25155639648438
1074;222.91726684570312
1075;222.5834197998047
1076;222.25010681152344
1077;221.91722106933594
1078;221.58482360839844
1079;221.25282287597656
1080;220.92135620117188
1081;220.59017944335938
1082;220.25955200195312
1083;219.92930603027344
1084;219.5995635986328
1085;219.2703399658203
1086;218.94140625
1087;218.613037109375
1088;218.2850341796875
1089;217.95748901367188
1090;217.63046264648438
1091;217.30384826660156
1092;216.9776153564453
1093;216.65194702148438
1094;216.3266143798828
1095;216.00173950195312
1096;215.6774444580078
1097;215.353515625
1098;215.030029296875
1099;214.70701599121094
1100;214.38430786132812
1101;214.0621795654297
1102;213.740478515625
1103;213.41921997070312
1104;213.0983428955078
1105;212.77792358398438
1106;212.45791625976562
1107;212.1383514404297
1108;211.81932067871094
1109;211.5006866455078
1110;211.18238830566406
1111;210.86453247070312
1112;210.5471954345703
1113;210.23025512695312
1114;209.913818359375
1115;209.5978546142578
1116;209.28219604492188
1117;208.96693420410156
1118;208.65213012695312
1119;208.337890625
1120;208.0240020751953
1121;207.71054077148438
1122;207.3974609375
1123;207.08497619628906
1124;206.7727813720703
1125;206.4610595703125
1126;206.1497344970703
1127;205.8387908935547
1128;205.52841186523438
1129;205.2183837890625
1130;204.9088897705078
1131;204.59970092773438
1132;204.29100036621094
1133;203.9827117919922
1134;203.67483520507812
1135;203.36740112304688
1136;203.06040954589844
1137;202.75387573242188
1138;202.44778442382812
1139;202.14205932617188
1140;201.83676147460938
1141;201.5318603515625
1142;201.22743225097656
1143;200.92337036132812
1144;200.6197967529297
1145;200.31668090820312
1146;200.013916015625
1147;199.7115020751953
1148;199.40963745117188
1149;199.1081085205078
1150;198.80709838867188
1151;198.50645446777344
1152;198.20619201660156
1153;197.90638732910156
1154;197.6070556640625
1155;197.3080596923828
1156;197.00950622558594
1157;196.71139526367188
1158;196.41360473632812
1159;196.11636352539062
1160;195.81954956054688
1161;195.5230255126953
1162;195.2269287109375
1163;194.93125915527344
1164;194.63601684570312
1165;194.3412322998047
1166;194.04689025878906
1167;193.7530059814453
1168;193.45944213867188
1169;193.16629028320312
1170;192.8735809326172
1171;192.58126831054688
1172;192.28939819335938
1173;191.99781799316406
1174;191.7067108154297
1175;191.41600036621094
1176;191.1257781982422
1177;190.8359375
1178;190.5464630126953
1179;190.25741577148438
1180;189.9687957763672
1181;189.6805419921875
1182;189.39273071289062
1183;189.10533142089844
1184;188.818359375
1185;188.53172302246094
1186;188.24557495117188
1187;187.9597625732422
1188;187.67440795898438
1189;187.38943481445312
1190;187.10488891601562
1191;186.8207244873047
1192;186.53700256347656
1193;186.25369262695312
1194;185.9707489013672
1195;185.68814086914062
1196;185.406005859375
1197;185.1241912841797
1198;184.84280395507812
1199;184.56190490722656
1200;184.28135681152344
1201;184.00120544433594
1202;183.72140502929688
1203;183.4419708251953
1204;183.1630401611328
1205;182.884521484375
1206;182.60633850097656
1207;182.32861328125
1208;182.05125427246094
1209;181.7742919921875
1210;181.49771118164062
1211;181.22152709960938
1212;180.9457244873047
1213;180.67037963867188
1214;180.3954620361328
1215;180.12081909179688
1216;179.8465576171875
1217;179.5727996826172
1218;179.2993621826172
1219;179.02633666992188
1220;178.75367736816406
1221;178.48143005371094
1222;178.2095184326172
1223;177.93812561035156
1224;177.66709899902344
1225;177.3964080810547
1226;177.12611389160156
1227;176.8561248779297
1228;176.5865936279297
1229;176.31748962402344
1230;176.048828125
1231;175.78048706054688
1232;175.5125274658203
1233;175.24490356445312
1234;174.97767639160156
1235;174.7109375
1236;174.44447326660156
1237;174.17848205566406
1238;173.912841796875
1239;173.64756774902344
1240;173.38270568847656
1241;173.1182098388672
1242;172.85415649414062
1243;172.59048461914062
1244;172.32713317871094
1245;172.064208984375
1246;171.80162048339844
1247;171.53945922851562
1248;171.277587890625
1249;171.0161895751953
1250;170.75515747070312
1251;170.49449157714844
1252;170.2342529296875
1253;169.97433471679688
1254;169.71473693847656
1255;169.45565795898438
1256;169.19680786132812
1257;168.9384307861328
1258;168.68038940429688
1259;168.42271423339844
1260;168.16551208496094
1261;167.90858459472656
1262;167.652099609375
1263;167.39598083496094
1264;167.14024353027344
1265;166.8848419189453
1266;166.62979125976562
1267;166.37510681152344
1268;166.120849609375
1269;165.86692810058594
1270;165.61343383789062
1271;165.36032104492188
1272;165.1075897216797
1273;164.8551483154297
1274;164.6030731201172
1275;164.35140991210938
1276;164.1001434326172
1277;163.8491668701172
1278;163.59864807128906
1279;163.34849548339844
1280;163.09872436523438
1281;162.84927368164062
1282;162.60023498535156
1283;162.35145568847656
1284;162.10316467285156
1285;161.85519409179688
1286;161.60763549804688
1287;161.3603973388672
1288;161.11351013183594
1289;160.86703491210938
1290;160.6208953857422
1291;160.37513732910156
1292;160.1296844482422
1293;159.88461303710938
1294;159.6399383544922
1295;159.3956298828125
1296;159.15164184570312
1297;158.90806579589844
1298;158.66481018066406
1299;158.4219512939453
1300;158.17945861816406
1301;157.93727111816406
1302;157.6954803466797
1303;157.4541015625
1304;157.21299743652344
1305;156.9722442626953
1306;156.7318878173828
1307;156.4918670654297
1308;156.2522735595703
1309;156.01295471191406
1310;155.7740478515625
1311;155.5355224609375
1312;155.2973175048828
1313;155.0594482421875
1314;154.8219451904297
1315;154.58482360839844
1316;154.34805297851562
1317;154.1116180419922
1318;153.87550354003906
1319;153.6398162841797
1320;153.4044647216797
1321;153.16946411132812
1322;152.934814453125
1323;152.7005157470703
1324;152.4665069580078
1325;152.23294067382812
1326;151.9996337890625
1327;151.76673889160156
1328;151.53421020507812
1329;151.3020782470703
1330;151.07022094726562
1331;150.83871459960938
1332;150.6075897216797
1333;150.37680053710938
1334;150.14637756347656
1335;149.91627502441406
1336;149.68650817871094
1337;149.4571075439453
1338;149.22802734375
1339;148.9993133544922
1340;148.7709503173828
1341;148.54293823242188
1342;148.31521606445312
1343;148.08792114257812
1344;147.8608856201172
1345;147.63427734375
1346;147.4080047607422
1347;147.18203735351562
1348;146.95643615722656
1349;146.73117065429688
1350;146.50624084472656
1351;146.28158569335938
1352;146.05735778808594
1353;145.8334503173828
1354;145.60984802246094
1355;145.3866424560547
1356;145.1637420654297
1357;144.94122314453125
1358;144.7190399169922
1359;144.49720764160156
1360;144.2757110595703
1361;144.0544891357422
1362;143.8336639404297
1363;143.61318969726562
1364;143.3930206298828
1365;143.1731414794922
1366;142.95367431640625
1367;142.73448181152344
1368;142.51568603515625
1369;142.29722595214844
1370;142.07904052734375
1371;141.8612518310547
1372;141.64378356933594
1373;141.42665100097656
1374;141.2098388671875
1375;140.9933319091797
1376;140.7771759033203
1377;140.56138610839844
1378;140.34591674804688
1379;140.1307373046875
1380;139.91592407226562
1381;139.70144653320312
1382;139.4872589111328
1383;139.27342224121094
1384;139.05990600585938
1385;138.8467254638672
1386;138.63392639160156
1387;138.4214324951172
1388;138.2092742919922
1389;137.99746704101562
1390;137.78599548339844
1391;137.57481384277344
1392;137.3639678955078
1393;137.15341186523438
1394;136.94317626953125
1395;136.7333221435547
1396;136.52378845214844
1397;136.31455993652344
1398;136.1056671142578
1399;135.89710998535156
1400;135.68887329101562
1401;135.48092651367188
1402;135.2733154296875
1403;135.06602478027344
1404;134.8590545654297
1405;134.65240478515625
1406;134.44606018066406
1407;134.24008178710938
1408;134.03440856933594
1409;133.8290557861328
1410;133.6240234375
1411;133.41929626464844
1412;133.2149658203125
1413;133.01084899902344
1414;132.80714416503906
1415;132.603759765625
1416;132.40066528320312
1417;132.19790649414062
1418;131.9954376220703
1419;131.79330444335938
1420;131.5914764404297
1421;131.3899688720703
1422;131.1887969970703
1423;130.98789978027344
1424;130.78733825683594
1425;130.58712768554688
1426;130.38719177246094
1427;130.18760681152344
1428;129.9883270263672
1429;129.78932189941406
1430;129.59066772460938
1431;129.39234924316406
1432;129.1942596435547
1433;128.99655151367188
1434;128.7991485595703
1435;128.60203552246094
1436;128.4052276611328
1437;128.20875549316406
1438;128.0126190185547
1439;127.81673431396484
1440;127.62116241455078
1441;127.42594909667969
1442;127.23103332519531
1443;127.0363998413086
1444;126.84210968017578
1445;126.6480941772461
1446;126.45445251464844
1447;126.26105499267578
1448;126.0679931640625
1449;125.8752670288086
1450;125.68279266357422
1451;125.49064636230469
1452;125.29881286621094
1453;125.10726165771484
1454;124.91602325439453
1455;124.72505950927734
1456;124.53443908691406
1457;124.34412384033203
1458;124.15410614013672
1459;123.9643783569336
1460;123.77501678466797
1461;123.5859146118164
1462;123.39710235595703
1463;123.20857238769531
1464;123.02043151855469
1465;122.83255767822266
1466;122.64495849609375
1467;122.45769500732422
1468;122.2707290649414
1469;122.08409118652344
1470;121.89766693115234
1471;121.71158599853516
1472;121.52581024169922
1473;121.34033203125
1474;121.15516662597656
1475;120.97029113769531
1476;120.78569030761719
1477;120.6014175415039
1478;120.41743469238281
1479;120.23372650146484
1480;120.0503158569336
1481;119.86722564697266
1482;119.68443298339844
1483;119.50196838378906
1484;119.31977844238281
1485;119.13788604736328
1486;118.95625305175781
1487;118.77494812011719
1488;118.59395599365234
1489;118.41322326660156
1490;118.23282623291016
1491;118.05268096923828
1492;117.87285614013672
1493;117.69332122802734
1494;117.51407623291016
1495;117.33512115478516
1496;117.15644073486328
1497;116.97808074951172
1498;116.79999542236328
1499;116.6221923828125
1500;116.44468688964844
1501;116.26741790771484
1502;116.09050750732422
1503;115.91388702392578
1504;115.73750305175781
1505;115.56140899658203
1506;115.3856430053711
1507;115.21015930175781
1508;115.03498077392578
1509;114.86009216308594
1510;114.68547058105469
1511;114.5111312866211
1512;114.33705139160156
1513;114.163330078125
1514;113.98981475830078
1515;113.81661224365234
1516;113.64369201660156
1517;113.47106170654297
1518;113.29874420166016
1519;113.12667083740234
1520;112.95488739013672
1521;112.78343200683594
1522;112.61225128173828
1523;112.44133758544922
1524;112.27066802978516
1525;112.10033416748047
1526;111.93023681640625
1527;111.76048278808594
1528;111.5909652709961
1529;111.4217529296875
1530;111.2527847290039
1531;111.08415985107422
1532;110.91573333740234
1533;110.74761962890625
1534;110.579833984375
1535;110.41227722167969
1536;110.2449951171875
1537;110.0780258178711
1538;109.91129302978516
1539;109.74486541748047
1540;109.57869720458984
1541;109.41280364990234
1542;109.24720001220703
1543;109.0819091796875
1544;108.9168472290039
1545;108.7520751953125
1546;108.58756256103516
1547;108.42333221435547
1548;108.2593994140625
1549;108.09571075439453
1550;107.93229675292969
1551;107.76917266845703
1552;107.60631561279297
1553;107.4437484741211
1554;107.2814712524414
1555;107.11943817138672
1556;106.95771026611328
1557;106.79625701904297
1558;106.635009765625
1559;106.47406005859375
1560;106.31340026855469
1561;106.15300750732422
1562;105.99286651611328
1563;105.83304595947266
1564;105.6734390258789
1565;105.51411437988281
1566;105.35506439208984
1567;105.19630432128906
1568;105.03777313232422
1569;104.87956237792969
1570;104.72161102294922
1571;104.56385803222656
1572;104.40644073486328
1573;104.24928283691406
1574;104.09235382080078
1575;103.93573760986328
1576;103.77935028076172
1577;103.62324523925781
1578;103.46742248535156
1579;103.31184387207031
1580;103.15650177001953
1581;103.00145721435547
1582;102.84669494628906
1583;102.69219207763672
1584;102.53792572021484
1585;102.38391876220703
1586;102.23020935058594
1587;102.07672119140625
1588;101.92353057861328
1589;101.77058410644531
1590;101.61787414550781
1591;101.46546173095703
1592;101.31330871582031
1593;101.1613998413086
1594;101.00977325439453
1595;100.85841369628906
1596;100.70728302001953
1597;100.55641174316406
1598;100.40580749511719
1599;100.25547790527344
1600;100.1053695678711
1601;99.95557403564453
1602;99.80598449707031
1603;99.65668487548828
1604;99.50761413574219
1605;99.35884094238281
1606;99.21028137207031
1607;99.06201934814453
1608;98.91400146484375
1609;98.76624298095703
1610;98.61872100830078
1611;98.47149658203125
1612;98.3244400024414
1613;98.17768096923828
1614;98.03120422363281
1615;97.88495635986328
1616;97.73895263671875
1617;97.59322357177734
1618;97.4477310180664
1619;97.3025131225586
1620;97.15754699707031
1621;97.01282501220703
1622;96.86835479736328
1623;96.72411346435547
1624;96.58013916015625
1625;96.4364013671875
1626;96.29293060302734
1627;96.14970397949219
1628;96.0067138671875
1629;95.864013671875
1630;95.7215347290039
1631;95.57933044433594
1632;95.43737030029297
1633;95.29563903808594
1634;95.1541519165039
1635;95.01292419433594
1636;94.87196350097656
1637;94.73121643066406
1638;94.5907211303711
1639;94.45047760009766
1640;94.31049346923828
1641;94.1707534790039
1642;94.03124237060547
1643;93.89201354980469
1644;93.75297546386719
1645;93.61418914794922
1646;93.47564697265625
1647;93.33736419677734
1648;93.19932556152344
1649;93.06153869628906
1650;92.92396545410156
1651;92.78666687011719
1652;92.64958953857422
1653;92.51275634765625
1654;92.37618255615234
1655;92.2398452758789
1656;92.103759765625
1657;91.96791076660156
1658;91.83228302001953
1659;91.6968994140625
1660;91.561767578125
1661;91.42686462402344
1662;91.29222106933594
1663;91.15782165527344
1664;91.02364349365234
1665;90.88970947265625
1666;90.75599670410156
1667;90.62254333496094
1668;90.48931884765625
1669;90.35628509521484
1670;90.22352600097656
1671;90.09100341796875
1672;89.958740234375
1673;89.82667541503906
1674;89.6948471069336
1675;89.56330871582031
1676;89.43195343017578
1677;89.30084991455078
1678;89.16997528076172
1679;89.03936004638672
1680;88.90894317626953
1681;88.77879333496094
1682;88.64886474609375
1683;88.51914978027344
1684;88.38968658447266
1685;88.26045989990234
1686;88.13145446777344
1687;88.0026626586914
1688;87.87413787841797
1689;87.74581146240234
1690;87.61774444580078
1691;87.48991394042969
1692;87.36226654052734
1693;87.23490142822266
1694;87.1077651977539
1695;86.9808120727539
1696;86.85413360595703
1697;86.72766876220703
1698;86.6014404296875
1699;86.47542572021484
1700;86.34967041015625
1701;86.22412872314453
1702;86.09880828857422
1703;85.97371673583984
1704;85.84883117675781
1705;85.72420501708984
1706;85.59978485107422
1707;85.47557830810547
1708;85.35161590576172
1709;85.22786712646484
1710;85.10437774658203
1711;84.98109436035156
1712;84.8580093383789
1713;84.73517608642578
1714;84.61256408691406
1715;84.49016571044922
1716;84.36798858642578
1717;84.24604034423828
1718;84.12432098388672
1719;84.00282287597656
1720;83.88154602050781
1721;83.760498046875
1722;83.63968658447266
1723;83.51905822753906
1724;83.3986587524414
1725;83.27851867675781
1726;83.15857696533203
1727;83.03885650634766
1728;82.91932678222656
1729;82.80005645751953
1730;82.68098449707031
1731;82.56214141845703
1732;82.44351959228516
1733;82.32508850097656
1734;82.20691680908203
1735;82.08895111083984
1736;81.97119903564453
1737;81.85364532470703
1738;81.736328125
1739;81.61922454833984
1740;81.5023422241211
1741;81.38565826416016
1742;81.26922607421875
1743;81.15299224853516
1744;81.03697204589844
1745;80.92115783691406
1746;80.80558776855469
1747;80.69020080566406
1748;80.57505798339844
1749;80.4601058959961
1750;80.34539031982422
1751;80.23085021972656
1752;80.11652374267578
1753;80.00245666503906
1754;79.8885726928711
1755;79.77490997314453
1756;79.6614761352539
1757;79.54823303222656
1758;79.43519592285156
1759;79.32237243652344
1760;79.20978546142578
1761;79.09735870361328
1762;78.98521423339844
1763;78.87322235107422
1764;78.76145935058594
1765;78.64989471435547
1766;78.53853607177734
1767;78.42738342285156
1768;78.31647491455078
1769;78.20573425292969
1770;78.09523010253906
1771;77.98492431640625
1772;77.87483215332031
1773;77.76496124267578
1774;77.6552734375
1775;77.54579162597656
1776;77.43650817871094
1777;77.32744598388672
1778;77.21858215332031
1779;77.10992431640625
1780;77.00148010253906
1781;76.89324951171875
1782;76.78519439697266
1783;76.67737579345703
1784;76.56977081298828
1785;76.46233367919922
1786;76.35511016845703
1787;76.24810028076172
1788;76.14130401611328
1789;76.03468322753906
1790;75.92829132080078
1791;75.82207489013672
1792;75.716064453125
1793;75.61027526855469
1794;75.50469207763672
1795;75.39928436279297
1796;75.29410552978516
1797;75.18909454345703
1798;75.08429718017578
1799;74.97969055175781
1800;74.87532806396484
1801;74.7711181640625
1802;74.6671371459961
1803;74.56333923339844
1804;74.4597396850586
1805;74.3563461303711
1806;74.253173828125
1807;74.15016174316406
1808;74.04736328125
1809;73.94476318359375
1810;73.84236907958984
1811;73.74016571044922
1812;73.63813781738281
1813;73.53636169433594
1814;73.43470764160156
1815;73.33330535888672
1816;73.23207092285156
1817;73.13105010986328
1818;73.03020477294922
1819;72.92958068847656
1820;72.82911682128906
1821;72.72887420654297
1822;72.62883758544922
1823;72.5289535522461
1824;72.42929077148438
1825;72.32980346679688
1826;72.23051452636719
1827;72.13141632080078
1828;72.03252410888672
1829;71.93379974365234
1830;71.83528137207031
1831;71.73697662353516
1832;71.63883972167969
1833;71.54088592529297
1834;71.4431381225586
1835;71.34556579589844
1836;71.24821472167969
1837;71.1510238647461
1838;71.05403137207031
1839;70.95722961425781
1840;70.86063385009766
1841;70.76421356201172
1842;70.66796112060547
1843;70.57191467285156
1844;70.47606658935547
1845;70.38037109375
1846;70.28490447998047
1847;70.18961334228516
1848;70.09449768066406
1849;69.99956512451172
1850;69.90483856201172
1851;69.81027221679688
1852;69.71590423583984
1853;69.6217269897461
1854;69.52774810791016
1855;69.4339370727539
1856;69.34033203125
1857;69.24687957763672
1858;69.15364074707031
1859;69.06058502197266
1860;68.96769714355469
1861;68.87498474121094
1862;68.78248596191406
1863;68.69014739990234
1864;68.59800720214844
1865;68.50605010986328
1866;68.41426086425781
1867;68.3226318359375
1868;68.23121643066406
1869;68.13998413085938
1870;68.04893493652344
1871;67.95805358886719
1872;67.86736297607422
1873;67.77684783935547
1874;67.6865005493164
1875;67.59635925292969
1876;67.50637817382812
1877;67.41656494140625
1878;67.32695007324219
1879;67.23751068115234
1880;67.14826202392578
1881;67.05916595458984
1882;66.97027587890625
1883;66.88155364990234
1884;66.79302215576172
1885;66.70463562011719
1886;66.61643981933594
1887;66.52842712402344
1888;66.4405746459961
1889;66.3529281616211
1890;66.26543426513672
1891;66.1781234741211
1892;66.09098815917969
1893;66.0040283203125
1894;65.91722869873047
1895;65.83063507080078
1896;65.74419403076172
1897;65.65792846679688
1898;65.57186126708984
1899;65.48594665527344
1900;65.40019989013672
1901;65.31462860107422
1902;65.22923278808594
1903;65.14400482177734
1904;65.05896759033203
1905;64.97408294677734
1906;64.88939666748047
1907;64.80485534667969
1908;64.72049713134766
1909;64.63630676269531
1910;64.55231475830078
1911;64.46845245361328
1912;64.384765625
1913;64.30126953125
1914;64.21794128417969
1915;64.13477325439453
1916;64.05178833007812
1917;63.96896743774414
1918;63.886314392089844
1919;63.80381393432617
1920;63.72151565551758
1921;63.63936996459961
1922;63.55738067626953
1923;63.4755859375
1924;63.3939323425293
1925;63.312461853027344
1926;63.23115158081055
1927;63.15001678466797
1928;63.06903076171875
1929;62.98821258544922
1930;62.9075813293457
1931;62.82709884643555
1932;62.74679183959961
1933;62.66664505004883
1934;62.58666229248047
1935;62.50686264038086
1936;62.42719268798828
1937;62.34771728515625
1938;62.26840591430664
1939;62.189239501953125
1940;62.1102409362793
1941;62.03139877319336
1942;61.95273208618164
1943;61.87421417236328
1944;61.795875549316406
1945;61.717689514160156
1946;61.639671325683594
1947;61.561798095703125
1948;61.48412322998047
1949;61.406578063964844
1950;61.32920455932617
1951;61.25197982788086
1952;61.17493438720703
1953;61.09803009033203
1954;61.02130889892578
1955;60.944732666015625
1956;60.86832046508789
1957;60.79207992553711
1958;60.71598434448242
1959;60.640052795410156
1960;60.56428909301758
1961;60.48866653442383
1962;60.4132080078125
1963;60.33791732788086
1964;60.262760162353516
1965;60.18777847290039
1966;60.112953186035156
1967;60.038291931152344
1968;59.96377944946289
1969;59.889404296875
1970;59.81520462036133
1971;59.74116897583008
1972;59.66727828979492
1973;59.59355545043945
1974;59.51995849609375
1975;59.446533203125
1976;59.37328338623047
1977;59.30016326904297
1978;59.22722625732422
1979;59.154415130615234
1980;59.08176040649414
1981;59.0092658996582
1982;58.936927795410156
1983;58.86472702026367
1984;58.79269027709961
1985;58.72080612182617
1986;58.64907455444336
1987;58.5775146484375
1988;58.506080627441406
1989;58.434810638427734
1990;58.363677978515625
1991;58.29270553588867
1992;58.22187423706055
1993;58.15121841430664
1994;58.08069610595703
1995;58.010318756103516
1996;57.94009017944336
1997;57.870025634765625
1998;57.80010986328125
1999;57.7303466796875
2000;57.66073226928711
2001;57.591251373291016
2002;57.52193069458008
2003;57.452735900878906
2004;57.38372802734375
2005;57.31486892700195
2006;57.24611282348633
2007;57.17753219604492
2008;57.10911178588867
2009;57.04081344604492
2010;56.972686767578125
2011;56.9046630859375
2012;56.83681869506836
2013;56.76911544799805
2014;56.701560974121094
2015;56.63417434692383
2016;56.56690216064453
2017;56.499778747558594
2018;56.43279266357422
2019;56.365966796875
2020;56.29929733276367
2021;56.232749938964844
2022;56.166351318359375
2023;56.100101470947266
2024;56.03399658203125
2025;55.96802520751953
2026;55.9022102355957
2027;55.836524963378906
2028;55.77100372314453
2029;55.705596923828125
2030;55.640350341796875
2031;55.575252532958984
2032;55.51028823852539
2033;55.44545364379883
2034;55.38078689575195
2035;55.316226959228516
2036;55.2518310546875
2037;55.18756866455078
2038;55.12344741821289
2039;55.0594596862793
2040;54.995609283447266
2041;54.93192672729492
2042;54.86836624145508
2043;54.80493927001953
2044;54.74165725708008
2045;54.67852783203125
2046;54.61552047729492
2047;54.552642822265625
2048;54.48992919921875
2049;54.42734146118164
2050;54.364891052246094
2051;54.302581787109375
2052;54.240394592285156
2053;54.178367614746094
2054;54.116477966308594
2055;54.05470657348633
2056;53.99307632446289
2057;53.931575775146484
2058;53.87023162841797
2059;53.808998107910156
2060;53.747920989990234
2061;53.686954498291016
2062;53.626136779785156
2063;53.565486907958984
2064;53.50493621826172
2065;53.44450759887695
2066;53.384239196777344
2067;53.32410430908203
2068;53.264076232910156
2069;53.2042236328125
2070;53.14447021484375
2071;53.08486557006836
2072;53.025394439697266
2073;52.96604537963867
2074;52.906822204589844
2075;52.84775924682617
2076;52.78879928588867
2077;52.730003356933594
2078;52.67129898071289
2079;52.61275863647461
2080;52.55434036254883
2081;52.496055603027344
2082;52.43790054321289
2083;52.37986373901367
2084;52.32197952270508
2085;52.264190673828125
2086;52.206565856933594
2087;52.1490478515625
2088;52.0916748046875
2089;52.034423828125
2090;51.977298736572266
2091;51.92033004760742
2092;51.86346435546875
2093;51.806724548339844
2094;51.750118255615234
2095;51.69365310668945
2096;51.63730239868164
2097;51.58108139038086
2098;51.52498245239258
2099;51.46902084350586
2100;51.413169860839844
2101;51.35744857788086
2102;51.301876068115234
2103;51.24640655517578
2104;51.19107437133789
2105;51.1358642578125
2106;51.08077621459961
2107;51.02581024169922
2108;50.970970153808594
2109;50.91626739501953
2110;50.8616828918457
2111;50.80722427368164
2112;50.75288772583008
2113;50.69867706298828
2114;50.64461135864258
2115;50.59062576293945
2116;50.53679275512695
2117;50.483070373535156
2118;50.42947006225586
2119;50.375999450683594
2120;50.32265853881836
2121;50.269432067871094
2122;50.216339111328125
2123;50.16333770751953
2124;50.110496520996094
2125;50.05774688720703
2126;50.00513458251953
2127;49.95262908935547
2128;49.90024948120117
2129;49.84800338745117
2130;49.79587936401367
2131;49.74384307861328
2132;49.69196319580078
2133;49.64018630981445
2134;49.588539123535156
2135;49.53701400756836
2136;49.48557662963867
2137;49.43429183959961
2138;49.38311004638672
2139;49.33205795288086
2140;49.281105041503906
2141;49.23029327392578
2142;49.17958450317383
2143;49.12898635864258
2144;49.07853317260742
2145;49.028194427490234
2146;48.97794723510742
2147;48.92784881591797
2148;48.87783432006836
2149;48.827945709228516
2150;48.77817916870117
2151;48.72852325439453
2152;48.67899703979492
2153;48.629573822021484
2154;48.580284118652344
2155;48.53109359741211
2156;48.482017517089844
2157;48.43305587768555
2158;48.38420867919922
2159;48.33550262451172
2160;48.286865234375
2161;48.23836135864258
2162;48.18999481201172
2163;48.14170455932617
2164;48.09354019165039
2165;48.04551315307617
2166;47.99757766723633
2167;47.94975662231445
2168;47.90205764770508
2169;47.85445022583008
2170;47.80696487426758
2171;47.75960922241211
2172;47.712345123291016
2173;47.66520309448242
2174;47.61818313598633
2175;47.57126235961914
2176;47.52444839477539
2177;47.47774887084961
2178;47.43115997314453
2179;47.38467788696289
2180;47.33831024169922
2181;47.292049407958984
2182;47.245906829833984
2183;47.19986343383789
2184;47.15394973754883
2185;47.108123779296875
2186;47.06240463256836
2187;47.01680374145508
2188;46.9713134765625
2189;46.92593002319336
2190;46.88066864013672
2191;46.835487365722656
2192;46.790435791015625
2193;46.745479583740234
2194;46.70063400268555
2195;46.655906677246094
2196;46.61125946044922
2197;46.56674575805664
2198;46.52233123779297
2199;46.478031158447266
2200;46.43381118774414
2201;46.38972854614258
2202;46.345741271972656
2203;46.3018684387207
2204;46.258087158203125
2205;46.21440505981445
2206;46.17083740234375
2207;46.12737274169922
2208;46.08402633666992
2209;46.040771484375
2210;45.99761199951172
2211;45.9545783996582
2212;45.91162872314453
2213;45.86880874633789
2214;45.82607650756836
2215;45.78343963623047
2216;45.74092483520508
2217;45.698509216308594
2218;45.65618896484375
2219;45.61397933959961
2220;45.571861267089844
2221;45.52987289428711
2222;45.48794937133789
2223;45.44614791870117
2224;45.40443801879883
2225;45.362850189208984
2226;45.32135009765625
2227;45.27994918823242
2228;45.23866653442383
2229;45.19746780395508
2230;45.156368255615234
2231;45.11536407470703
2232;45.074462890625
2233;45.0336799621582
2234;44.99298858642578
2235;44.952392578125
2236;44.91189193725586
2237;44.871498107910156
2238;44.83121109008789
2239;44.791019439697266
2240;44.750911712646484
2241;44.71091842651367
2242;44.67102813720703
2243;44.63121795654297
2244;44.59149169921875
2245;44.5518913269043
2246;44.51240921020508
2247;44.472991943359375
2248;44.43367385864258
2249;44.39445114135742
2250;44.355350494384766
2251;44.31632614135742
2252;44.27740478515625
2253;44.238563537597656
2254;44.1998405456543
2255;44.16121292114258
2256;44.12267303466797
2257;44.084228515625
2258;44.04587936401367
2259;44.00762939453125
2260;43.96946334838867
2261;43.931400299072266
2262;43.89344024658203
2263;43.855560302734375
2264;43.81777572631836
2265;43.78010940551758
2266;43.742515563964844
2267;43.705013275146484
2268;43.66761016845703
2269;43.63029098510742
2270;43.59307861328125
2271;43.55596923828125
2272;43.51892852783203
2273;43.48201370239258
2274;43.44516372680664
2275;43.408409118652344
2276;43.37175750732422
2277;43.33518600463867
2278;43.29871368408203
2279;43.26234817504883
2280;43.22605514526367
2281;43.189849853515625
2282;43.15372085571289
2283;43.11772537231445
2284;43.08179473876953
2285;43.04598617553711
2286;43.01023483276367
2287;42.97457504272461
2288;42.93901824951172
2289;42.90353775024414
2290;42.86815643310547
2291;42.83285903930664
2292;42.79764938354492
2293;42.762542724609375
2294;42.727516174316406
2295;42.69259262084961
2296;42.65774154663086
2297;42.62297821044922
2298;42.588321685791016
2299;42.55373764038086
2300;42.51925277709961
2301;42.48483657836914
2302;42.45051956176758
2303;42.416297912597656
2304;42.38216018676758
2305;42.34809112548828
2306;42.31413650512695
2307;42.28024673461914
2308;42.24645233154297
2309;42.2127571105957
2310;42.17913055419922
2311;42.14561080932617
2312;42.1121711730957
2313;42.078792572021484
2314;42.045509338378906
2315;42.01233673095703
2316;41.979225158691406
2317;41.94620895385742
2318;41.913265228271484
2319;41.88042068481445
2320;41.84765625
2321;41.814979553222656
2322;41.78239059448242
2323;41.749874114990234
2324;41.717445373535156
2325;41.68510818481445
2326;41.6528434753418
2327;41.62067794799805
2328;41.588584899902344
2329;41.55658721923828
2330;41.524654388427734
2331;41.49281692504883
2332;41.4610595703125
2333;41.42937088012695
2334;41.39778518676758
2335;41.366275787353516
2336;41.334842681884766
2337;41.303489685058594
2338;41.27222442626953
2339;41.24104690551758
2340;41.20993423461914
2341;41.17892074584961
2342;41.147972106933594
2343;41.11713409423828
2344;41.08633804321289
2345;41.05564498901367
2346;41.0250244140625
2347;40.99449920654297
2348;40.964012145996094
2349;40.93364715576172
2350;40.90335464477539
2351;40.87313461303711
2352;40.84299087524414
2353;40.81293487548828
2354;40.78296661376953
2355;40.753055572509766
2356;40.72323989868164
2357;40.69348907470703
2358;40.66382598876953
2359;40.63424301147461
2360;40.6047477722168
2361;40.575313568115234
2362;40.54595947265625
2363;40.51668930053711
2364;40.48749542236328
2365;40.45835494995117
2366;40.4293212890625
2367;40.40036392211914
2368;40.37146759033203
2369;40.34267044067383
2370;40.31391143798828
2371;40.28525924682617
2372;40.25668716430664
2373;40.22816848754883
2374;40.19974899291992
2375;40.17139434814453
2376;40.14311981201172
2377;40.114906311035156
2378;40.0867919921875
2379;40.058738708496094
2380;40.03075408935547
2381;40.00286102294922
2382;39.97502899169922
2383;39.94727325439453
2384;39.91958999633789
2385;39.891990661621094
2386;39.864463806152344
2387;39.837005615234375
2388;39.809627532958984
2389;39.78231430053711
2390;39.75507354736328
2391;39.7279167175293
2392;39.700836181640625
2393;39.673824310302734
2394;39.646873474121094
2395;39.619998931884766
2396;39.59320831298828
2397;39.56647872924805
2398;39.53982162475586
2399;39.513248443603516
2400;39.48674774169922
2401;39.460304260253906
2402;39.43393325805664
2403;39.40764617919922
2404;39.381431579589844
2405;39.355281829833984
2406;39.32920455932617
2407;39.303192138671875
2408;39.277259826660156
2409;39.25137710571289
2410;39.22559356689453
2411;39.199859619140625
2412;39.17420196533203
2413;39.148624420166016
2414;39.123111724853516
2415;39.097660064697266
2416;39.07229232788086
2417;39.04697799682617
2418;39.0217399597168
2419;38.99657440185547
2420;38.97146987915039
2421;38.94644546508789
2422;38.92148208618164
2423;38.896583557128906
2424;38.871761322021484
2425;38.84699249267578
2426;38.82230758666992
2427;38.79768753051758
2428;38.773136138916016
2429;38.7486457824707
2430;38.724220275878906
2431;38.69988250732422
2432;38.67559814453125
2433;38.651390075683594
2434;38.62723159790039
2435;38.60313034057617
2436;38.57913589477539
2437;38.55519485473633
2438;38.531307220458984
2439;38.507476806640625
2440;38.483726501464844
2441;38.460052490234375
2442;38.43643569946289
2443;38.41288375854492
2444;38.38938522338867
2445;38.365970611572266
2446;38.34260940551758
2447;38.31932830810547
2448;38.29609298706055
2449;38.2729377746582
2450;38.24982452392578
2451;38.226806640625
2452;38.20382308959961
2453;38.18093490600586
2454;38.1580924987793
2455;38.13531494140625
2456;38.112606048583984
2457;38.08994674682617
2458;38.067359924316406
2459;38.04484176635742
2460;38.022369384765625
2461;37.99999237060547
2462;37.977657318115234
2463;37.95538330078125
2464;37.933170318603516
2465;37.91102981567383
2466;37.88894271850586
2467;37.86691665649414
2468;37.844970703125
2469;37.82307815551758
2470;37.80123519897461
2471;37.77946853637695
2472;37.75775146484375
2473;37.736106872558594
2474;37.71451950073242
2475;37.6929931640625
2476;37.671531677246094
2477;37.650123596191406
2478;37.6287841796875
2479;37.607486724853516
2480;37.58626174926758
2481;37.56511688232422
2482;37.54401397705078
2483;37.52296829223633
2484;37.50198745727539
2485;37.48106002807617
2486;37.46019744873047
2487;37.43939208984375
2488;37.41864776611328
2489;37.39795684814453
2490;37.37732696533203
2491;37.35676956176758
2492;37.336246490478516
2493;37.31580352783203
2494;37.29541778564453
2495;37.27507400512695
2496;37.25480270385742
2497;37.234596252441406
2498;37.214439392089844
2499;37.1943359375
2500;37.174293518066406
2501;37.15431594848633
2502;37.1343879699707
2503;37.11450958251953
2504;37.09470748901367
2505;37.0749397277832
2506;37.05525588989258
2507;37.03561782836914
2508;37.016014099121094
2509;36.99649429321289
2510;36.97703170776367
2511;36.95761489868164
2512;36.938262939453125
2513;36.91895294189453
2514;36.89970779418945
2515;36.88051223754883
2516;36.861385345458984
2517;36.842308044433594
2518;36.82329559326172
2519;36.804325103759766
2520;36.78540802001953
2521;36.766536712646484
2522;36.74774932861328
2523;36.729000091552734
2524;36.71031951904297
2525;36.69166946411133
2526;36.67307662963867
2527;36.65454864501953
2528;36.636077880859375
2529;36.61764907836914
2530;36.599273681640625
2531;36.58096694946289
2532;36.562705993652344
2533;36.54451370239258
2534;36.52635192871094
2535;36.50825881958008
2536;36.49021911621094
2537;36.47222137451172
2538;36.45427703857422
2539;36.43638229370117
2540;36.41855239868164
2541;36.400779724121094
2542;36.38303756713867
2543;36.365360260009766
2544;36.347747802734375
2545;36.330162048339844
2546;36.31264877319336
2547;36.295169830322266
2548;36.27776336669922
2549;36.26039505004883
2550;36.24308395385742
2551;36.2258186340332
2552;36.2086067199707
2553;36.191429138183594
2554;36.17432403564453
2555;36.157291412353516
2556;36.14026641845703
2557;36.123313903808594
2558;36.10639572143555
2559;36.08954620361328
2560;36.0727424621582
2561;36.055992126464844
2562;36.039283752441406
2563;36.02260971069336
2564;36.00600814819336
2565;35.989463806152344
2566;35.97296142578125
2567;35.95649719238281
2568;35.94008255004883
2569;35.92372512817383
2570;35.90743637084961
2571;35.891170501708984
2572;35.87495803833008
2573;35.8587760925293
2574;35.84267807006836
2575;35.826602935791016
2576;35.81060028076172
2577;35.794620513916016
2578;35.7786979675293
2579;35.7628288269043
2580;35.74700164794922
2581;35.73121643066406
2582;35.715492248535156
2583;35.699806213378906
2584;35.684173583984375
2585;35.668575286865234
2586;35.65304183959961
2587;35.63755416870117
2588;35.62210464477539
2589;35.6067008972168
2590;35.591365814208984
2591;35.57604217529297
2592;35.560787200927734
2593;35.54558563232422
2594;35.5304069519043
2595;35.51528549194336
2596;35.50020980834961
2597;35.48517990112305
2598;35.470211029052734
2599;35.45527648925781
2600;35.44038009643555
2601;35.425537109375
2602;35.410728454589844
2603;35.39597702026367
2604;35.38126754760742
2605;35.366607666015625
2606;35.351993560791016
2607;35.337406158447266
2608;35.32288360595703
2609;35.308406829833984
2610;35.293975830078125
2611;35.27956008911133
2612;35.26521682739258
2613;35.25090789794922
2614;35.23663330078125
2615;35.22241973876953
2616;35.208251953125
2617;35.194114685058594
2618;35.180023193359375
2619;35.165977478027344
2620;35.15198516845703
2621;35.138023376464844
2622;35.124107360839844
2623;35.11023712158203
2624;35.096405029296875
2625;35.082611083984375
2626;35.068870544433594
2627;35.055179595947266
2628;35.0415153503418
2629;35.02790069580078
2630;35.01432418823242
2631;35.00080490112305
2632;34.9873046875
2633;34.9738655090332
2634;34.9604606628418
2635;34.94709014892578
2636;34.93377685546875
2637;34.920501708984375
2638;34.90726089477539
2639;34.89406204223633
2640;34.880916595458984
2641;34.86780548095703
2642;34.8547248840332
2643;34.84170150756836
2644;34.82869338989258
2645;34.81574630737305
2646;34.802833557128906
2647;34.789981842041016
2648;34.77713394165039
2649;34.764366149902344
2650;34.75161361694336
2651;34.73891067504883
2652;34.72624206542969
2653;34.713619232177734
2654;34.70103073120117
2655;34.6884765625
2656;34.67596435546875
2657;34.663509368896484
2658;34.651084899902344
2659;34.638694763183594
2660;34.626338958740234
2661;34.6140251159668
2662;34.60175323486328
2663;34.589515686035156
2664;34.57732009887695
2665;34.56516647338867
2666;34.55304718017578
2667;34.54098892211914
2668;34.5289421081543
2669;34.516929626464844
2670;34.50497055053711
2671;34.49303436279297
2672;34.48115158081055
2673;34.46930694580078
2674;34.45750045776367
2675;34.44572067260742
2676;34.43399429321289
2677;34.42229080200195
2678;34.4106330871582
2679;34.399024963378906
2680;34.38743209838867
2681;34.37588119506836
2682;34.3643684387207
2683;34.352882385253906
2684;34.34145736694336
2685;34.33005142211914
2686;34.31867599487305
2687;34.307350158691406
2688;34.296058654785156
2689;34.28481674194336
2690;34.27360153198242
2691;34.26242446899414
2692;34.25127029418945
2693;34.240150451660156
2694;34.22909164428711
2695;34.218040466308594
2696;34.20703887939453
2697;34.19607925415039
2698;34.185142517089844
2699;34.17424774169922
2700;34.16338348388672
2701;34.15256881713867
2702;34.14176559448242
2703;34.131019592285156
2704;34.12030029296875
2705;34.109615325927734
2706;34.09895324707031
2707;34.088356018066406
2708;34.077781677246094
2709;34.067222595214844
2710;34.05672073364258
2711;34.046234130859375
2712;34.035797119140625
2713;34.025386810302734
2714;34.015010833740234
2715;34.004676818847656
2716;33.99436950683594
2717;33.984092712402344
2718;33.97384262084961
2719;33.9636344909668
2720;33.953468322753906
2721;33.943336486816406
2722;33.933223724365234
2723;33.92314529418945
2724;33.913116455078125
2725;33.903114318847656
2726;33.89313888549805
2727;33.88320541381836
2728;33.873294830322266
2729;33.863426208496094
2730;33.85358428955078
2731;33.84376907348633
2732;33.83399200439453
2733;33.824249267578125
2734;33.814537048339844
2735;33.80485916137695
2736;33.79520034790039
2737;33.785587310791016
2738;33.7760009765625
2739;33.766456604003906
2740;33.75693893432617
2741;33.74744415283203
2742;33.737998962402344
2743;33.72856521606445
2744;33.719173431396484
2745;33.709808349609375
2746;33.70047378540039
2747;33.691184997558594
2748;33.681915283203125
2749;33.672664642333984
2750;33.6634635925293
2751;33.6542854309082
2752;33.645137786865234
2753;33.63603591918945
2754;33.6269416809082
2755;33.617897033691406
2756;33.60886001586914
2757;33.5998649597168
2758;33.59090805053711
2759;33.58198165893555
2760;33.57307815551758
2761;33.56420135498047
2762;33.55536651611328
2763;33.546546936035156
2764;33.53777313232422
2765;33.52901077270508
2766;33.52029800415039
2767;33.5115966796875
2768;33.50293731689453
2769;33.49428939819336
2770;33.485679626464844
2771;33.477115631103516
2772;33.46856689453125
2773;33.460044860839844
2774;33.451568603515625
2775;33.443092346191406
2776;33.434669494628906
2777;33.42626190185547
2778;33.417884826660156
2779;33.4095458984375
2780;33.401214599609375
2781;33.39292907714844
2782;33.38467025756836
2783;33.37643814086914
2784;33.368228912353516
2785;33.36005783081055
2786;33.35190200805664
2787;33.343780517578125
2788;33.33568572998047
2789;33.32761001586914
2790;33.3195915222168
2791;33.311561584472656
2792;33.30359649658203
2793;33.29563522338867
2794;33.287696838378906
2795;33.27980422973633
2796;33.271915435791016
2797;33.264076232910156
2798;33.25625991821289
2799;33.248470306396484
2800;33.240699768066406
2801;33.232967376708984
2802;33.225250244140625
2803;33.21756362915039
2804;33.209903717041016
2805;33.2022705078125
2806;33.194664001464844
2807;33.18709182739258
2808;33.17953872680664
2809;33.17200469970703
2810;33.16450881958008
2811;33.15704345703125
2812;33.14958190917969
2813;33.14216995239258
2814;33.13475799560547
2815;33.127384185791016
2816;33.12004470825195
2817;33.11272048950195
2818;33.10544204711914
2819;33.09815216064453
2820;33.09091567993164
2821;33.08369827270508
2822;33.07650375366211
2823;33.0693359375
2824;33.062198638916016
2825;33.05507278442383
2826;33.0479850769043
2827;33.0409049987793
2828;33.033870697021484
2829;33.026851654052734
2830;33.019859313964844
2831;33.01289749145508
2832;33.005958557128906
2833;32.9990348815918
2834;32.992130279541016
2835;32.985260009765625
2836;32.97840118408203
2837;32.97158432006836
2838;32.96479415893555
2839;32.95802688598633
2840;32.951263427734375
2841;32.94453811645508
2842;32.937828063964844
2843;32.931156158447266
2844;32.924495697021484
2845;32.9178581237793
2846;32.9112548828125
2847;32.904666900634766
2848;32.898094177246094
2849;32.89155197143555
2850;32.885040283203125
2851;32.878543853759766
2852;32.872093200683594
2853;32.865638732910156
2854;32.85919952392578
2855;32.85280990600586
2856;32.8464241027832
2857;32.84006881713867
2858;32.833740234375
2859;32.82742691040039
2860;32.8211555480957
2861;32.81488037109375
2862;32.80863571166992
2863;32.80241012573242
2864;32.79621505737305
2865;32.7900390625
2866;32.783905029296875
2867;32.77776336669922
2868;32.77164840698242
2869;32.76557159423828
2870;32.75950241088867
2871;32.753456115722656
2872;32.747440338134766
2873;32.7414436340332
2874;32.7354621887207
2875;32.729496002197266
2876;32.72356033325195
2877;32.717655181884766
2878;32.71174621582031
2879;32.70589065551758
2880;32.700042724609375
2881;32.69420623779297
2882;32.68839645385742
2883;32.6826171875
2884;32.67684555053711
2885;32.67110061645508
2886;32.665382385253906
2887;32.65967559814453
2888;32.65400314331055
2889;32.64833450317383
2890;32.64268112182617
2891;32.637062072753906
2892;32.63147735595703
2893;32.625892639160156
2894;32.62034225463867
2895;32.61479568481445
2896;32.60927963256836
2897;32.603763580322266
2898;32.598297119140625
2899;32.59284210205078
2900;32.587398529052734
2901;32.58198165893555
2902;32.57658767700195
2903;32.57121658325195
2904;32.56584548950195
2905;32.56050491333008
2906;32.5551872253418
2907;32.549896240234375
2908;32.54461669921875
2909;32.539363861083984
2910;32.534095764160156
2911;32.52888107299805
2912;32.523685455322266
2913;32.51849365234375
2914;32.513336181640625
2915;32.50818634033203
2916;32.503055572509766
2917;32.497955322265625
2918;32.49285888671875
2919;32.487796783447266
2920;32.48274612426758
2921;32.47771072387695
2922;32.472694396972656
2923;32.46770095825195
2924;32.462730407714844
2925;32.457767486572266
2926;32.45282745361328
2927;32.44791793823242
2928;32.4430046081543
2929;32.43811798095703
2930;32.433258056640625
2931;32.42839813232422
2932;32.423580169677734
2933;32.418766021728516
2934;32.41397476196289
2935;32.4091911315918
2936;32.404441833496094
2937;32.399696350097656
2938;32.39498519897461
2939;32.39027786254883
2940;32.38559341430664
2941;32.38092041015625
2942;32.37627029418945
2943;32.371639251708984
2944;32.36701583862305
2945;32.3624153137207
2946;32.35783386230469
2947;32.353267669677734
2948;32.348724365234375
2949;32.344181060791016
2950;32.339683532714844
2951;32.335182189941406
2952;32.33070755004883
2953;32.32624435424805
2954;32.32179641723633
2955;32.31736373901367
2956;32.31295394897461
2957;32.30855941772461
2958;32.3041877746582
2959;32.29982376098633
2960;32.29545211791992
2961;32.2911376953125
2962;32.286827087402344
2963;32.282527923583984
2964;32.27824783325195
2965;32.273983001708984
2966;32.269737243652344
2967;32.265525817871094
2968;32.261295318603516
2969;32.257102966308594
2970;32.25291061401367
2971;32.24875259399414
2972;32.24459457397461
2973;32.24045944213867
2974;32.23634719848633
2975;32.23225402832031
2976;32.22815704345703
2977;32.22407150268555
2978;32.22003173828125
2979;32.21597671508789
2980;32.21196365356445
2981;32.20794677734375
2982;32.20395278930664
2983;32.199989318847656
2984;32.19601821899414
2985;32.192073822021484
2986;32.188133239746094
2987;32.18422317504883
2988;32.18031692504883
2989;32.17643356323242
2990;32.17256546020508
2991;32.16869354248047
2992;32.164859771728516
2993;32.16103744506836
2994;32.1572151184082
2995;32.153411865234375
2996;32.149635314941406
2997;32.1458625793457
2998;32.14211654663086
2999;32.13837432861328
