;loss
0;1299.1065673828125
1;1298.10498046875
2;1296.7559814453125
3;1295.52587890625
4;1294.169677734375
5;1292.80908203125
6;1291.4437255859375
7;1290.0728759765625
8;1288.696533203125
9;1287.31396484375
10;1285.925048828125
11;1284.531005859375
12;1283.1275634765625
13;1281.7115478515625
14;1280.2845458984375
15;1278.8460693359375
16;1277.39599609375
17;1275.946533203125
18;1274.47216796875
19;1272.9849853515625
20;1271.484130859375
21;1269.9696044921875
22;1268.4404296875
23;1266.9136962890625
24;1265.3720703125
25;1263.7960205078125
26;1262.221923828125
27;1260.6114501953125
28;1259.00146484375
29;1257.353759765625
30;1255.68603515625
31;1253.997802734375
32;1252.307861328125
33;1250.5762939453125
34;1248.8414306640625
35;1247.062744140625
36;1245.2791748046875
37;1243.4500732421875
38;1241.6142578125
39;1239.7308349609375
40;1237.8389892578125
41;1235.8992919921875
42;1233.92919921875
43;1231.92724609375
44;1229.8924560546875
45;1227.84375
46;1225.7398681640625
47;1223.6007080078125
48;1221.4237060546875
49;1219.207763671875
50;1216.951904296875
51;1214.6553955078125
52;1212.336181640625
53;1209.9522705078125
54;1207.522705078125
55;1205.0457763671875
56;1202.5206298828125
57;1199.96630859375
58;1197.36181640625
59;1194.6846923828125
60;1191.9554443359375
61;1189.170654296875
62;1186.3502197265625
63;1183.4722900390625
64;1180.5347900390625
65;1177.5133056640625
66;1174.42724609375
67;1171.275146484375
68;1168.0782470703125
69;1164.8128662109375
70;1161.453369140625
71;1158.02294921875
72;1154.5169677734375
73;1150.9334716796875
74;1147.2939453125
75;1143.5745849609375
76;1139.7716064453125
77;1135.88427734375
78;1131.886474609375
79;1127.82568359375
80;1123.650390625
81;1119.38525390625
82;1115.0291748046875
83;1110.58251953125
84;1106.07470703125
85;1101.47265625
86;1096.7764892578125
87;1091.960693359375
88;1087.05859375
89;1082.093505859375
90;1077.0372314453125
91;1071.8629150390625
92;1066.60107421875
93;1061.25634765625
94;1055.831298828125
95;1050.3304443359375
96;1044.7630615234375
97;1039.1304931640625
98;1033.44091796875
99;1027.705322265625
100;1021.9352416992188
101;1016.1382446289062
102;1010.3325805664062
103;1004.5397338867188
104;998.7279663085938
105;992.960693359375
106;987.2190551757812
107;981.5008544921875
108;975.8659057617188
109;970.2924194335938
110;964.8030395507812
111;959.410400390625
112;954.1112060546875
113;948.8961791992188
114;943.8229370117188
115;938.8919067382812
116;934.1139526367188
117;929.4876098632812
118;925.012939453125
119;920.679931640625
120;916.489990234375
121;912.4290161132812
122;908.498046875
123;904.6958618164062
124;901.0303955078125
125;897.4921875
126;894.0829467773438
127;890.7916870117188
128;887.5973510742188
129;884.52587890625
130;881.560546875
131;878.6849975585938
132;875.8823852539062
133;873.1587524414062
134;870.5247192382812
135;867.9664916992188
136;865.470703125
137;863.0370483398438
138;860.670166015625
139;858.35791015625
140;856.0942993164062
141;853.880126953125
142;851.7109375
143;849.5858764648438
144;847.4954833984375
145;845.4429931640625
146;843.4304809570312
147;841.46044921875
148;839.5239868164062
149;837.6192016601562
150;835.744873046875
151;833.8934936523438
152;832.0755615234375
153;830.284912109375
154;828.5194702148438
155;826.7767944335938
156;825.057861328125
157;823.358154296875
158;821.683837890625
159;820.0287475585938
160;818.3883666992188
161;816.7666015625
162;815.1670532226562
163;813.5796508789062
164;812.0078735351562
165;810.4508056640625
166;808.9076538085938
167;807.3790893554688
168;805.8687133789062
169;804.3713989257812
170;802.8866577148438
171;801.4141235351562
172;799.9537353515625
173;798.505126953125
174;797.0638427734375
175;795.6333618164062
176;794.217041015625
177;792.81103515625
178;791.4148559570312
179;790.024658203125
180;788.6436157226562
181;787.2747802734375
182;785.9111328125
183;784.555908203125
184;783.2088623046875
185;781.8731079101562
186;780.545166015625
187;779.2249145507812
188;777.908935546875
189;776.6034545898438
190;775.3048706054688
191;774.013671875
192;772.7293701171875
193;771.4488525390625
194;770.1749267578125
195;768.9071655273438
196;767.6456909179688
197;766.3900756835938
198;765.1405029296875
199;763.8997192382812
200;762.6646118164062
201;761.432373046875
202;760.2056274414062
203;758.9843139648438
204;757.7681884765625
205;756.559814453125
206;755.356689453125
207;754.1583862304688
208;752.9649658203125
209;751.7763671875
210;750.58984375
211;749.407958984375
212;748.233154296875
213;747.060302734375
214;745.8919067382812
215;744.727783203125
216;743.5679931640625
217;742.414794921875
218;741.2633056640625
219;740.1183471679688
220;738.977294921875
221;737.840087890625
222;736.7044067382812
223;735.5726318359375
224;734.4469604492188
225;733.3248901367188
226;732.2064819335938
227;731.0916137695312
228;729.9802856445312
229;728.8723754882812
230;727.765869140625
231;726.6626586914062
232;725.5628051757812
233;724.4664306640625
234;723.3753662109375
235;722.28759765625
236;721.2008056640625
237;720.1193237304688
238;719.038818359375
239;717.961669921875
240;716.8893432617188
241;715.818115234375
242;714.7518920898438
243;713.6885375976562
244;712.6281127929688
245;711.5704956054688
246;710.5156860351562
247;709.4636840820312
248;708.4126586914062
249;707.3662109375
250;706.3223876953125
251;705.279541015625
252;704.2410278320312
253;703.205322265625
254;702.1703491210938
255;701.1380615234375
256;700.110107421875
257;699.084716796875
258;698.0618286132812
259;697.0397338867188
260;696.021728515625
261;695.00634765625
262;693.9932861328125
263;692.98095703125
264;691.97265625
265;690.9651489257812
266;689.9599609375
267;688.9571533203125
268;687.9564819335938
269;686.9581909179688
270;685.9638061523438
271;684.9700317382812
272;683.980224609375
273;682.9910278320312
274;682.004150390625
275;681.0209350585938
276;680.038330078125
277;679.0579833984375
278;678.07958984375
279;677.1049194335938
280;676.1324462890625
281;675.1620483398438
282;674.1937255859375
283;673.2258911132812
284;672.2601928710938
285;671.2964477539062
286;670.3347778320312
287;669.3766479492188
288;668.4203491210938
289;667.4661254882812
290;666.5138549804688
291;665.5621948242188
292;664.6123046875
293;663.6658935546875
294;662.7213745117188
295;661.77734375
296;660.836669921875
297;659.8980102539062
298;658.961181640625
299;658.0261840820312
300;657.0930786132812
301;656.161865234375
302;655.2323608398438
303;654.3046875
304;653.3775634765625
305;652.4522094726562
306;651.528564453125
307;650.6080322265625
308;649.68798828125
309;648.7697143554688
310;647.8543090820312
311;646.9396362304688
312;646.0277709960938
313;645.1163940429688
314;644.2067260742188
315;643.2999877929688
316;642.393798828125
317;641.4890747070312
318;640.586181640625
319;639.6860961914062
320;638.786376953125
321;637.8896484375
322;636.9945678710938
323;636.1010131835938
324;635.2091064453125
325;634.3189086914062
326;633.4290161132812
327;632.5408325195312
328;631.6541137695312
329;630.7702026367188
330;629.8878173828125
331;629.0057373046875
332;628.1263427734375
333;627.2485961914062
334;626.3712158203125
335;625.4952392578125
336;624.620849609375
337;623.7479248046875
338;622.8765258789062
339;622.0077514648438
340;621.1403198242188
341;620.2744750976562
342;619.4089965820312
343;618.5451049804688
344;617.6824340820312
345;616.8224487304688
346;615.9627685546875
347;615.1055297851562
348;614.2487182617188
349;613.393310546875
350;612.5404052734375
351;611.6878051757812
352;610.836669921875
353;609.988037109375
354;609.1397705078125
355;608.2928466796875
356;607.447265625
357;606.6032104492188
358;605.7604370117188
359;604.9189453125
360;604.0789184570312
361;603.240234375
362;602.4028930664062
363;601.5669555664062
364;600.7332153320312
365;599.90087890625
366;599.06982421875
367;598.2401123046875
368;597.410888671875
369;596.5828247070312
370;595.756103515625
371;594.931640625
372;594.1076049804688
373;593.2857055664062
374;592.4642944335938
375;591.6441040039062
376;590.8253173828125
377;590.008544921875
378;589.1922607421875
379;588.3780517578125
380;587.5642700195312
381;586.7526245117188
382;585.9413452148438
383;585.1312866210938
384;584.322509765625
385;583.5149536132812
386;582.7086181640625
387;581.9036254882812
388;581.1005859375
389;580.298828125
390;579.4981689453125
391;578.6988525390625
392;577.900634765625
393;577.1036987304688
394;576.3079833984375
395;575.513427734375
396;574.7192993164062
397;573.9263305664062
398;573.134521484375
399;572.3439331054688
400;571.5553588867188
401;570.7678833007812
402;569.9807739257812
403;569.1956787109375
404;568.410888671875
405;567.6272583007812
406;566.844970703125
407;566.063720703125
408;565.2835693359375
409;564.504638671875
410;563.726806640625
411;562.9501953125
412;562.1753540039062
413;561.4016723632812
414;560.6292114257812
415;559.8577880859375
416;559.0867919921875
417;558.3168334960938
418;557.548828125
419;556.7819213867188
420;556.0160522460938
421;555.2506103515625
422;554.4862670898438
423;553.7237548828125
424;552.9616088867188
425;552.2013549804688
426;551.44140625
427;550.6825561523438
428;549.9247436523438
429;549.1688232421875
430;548.4139404296875
431;547.659423828125
432;546.9067993164062
433;546.154296875
434;545.40380859375
435;544.653564453125
436;543.9050903320312
437;543.156982421875
438;542.4099731445312
439;541.6647338867188
440;540.9197387695312
441;540.176513671875
442;539.4344482421875
443;538.692626953125
444;537.95263671875
445;537.212890625
446;536.4743041992188
447;535.7373046875
448;535.000732421875
449;534.265869140625
450;533.5314331054688
451;532.798583984375
452;532.066162109375
453;531.334716796875
454;530.6043090820312
455;529.8755493164062
456;529.1477661132812
457;528.4210815429688
458;527.6947021484375
459;526.969970703125
460;526.2456665039062
461;525.52294921875
462;524.8012084960938
463;524.08056640625
464;523.36083984375
465;522.64208984375
466;521.92431640625
467;521.2075805664062
468;520.4912109375
469;519.7764282226562
470;519.0620727539062
471;518.3493041992188
472;517.637451171875
473;516.926513671875
474;516.2166137695312
475;515.507080078125
476;514.7991943359375
477;514.0921020507812
478;513.3860473632812
479;512.6809692382812
480;511.9768371582031
481;511.2736511230469
482;510.57086181640625
483;509.86907958984375
484;509.1686706542969
485;508.4693603515625
486;507.7708740234375
487;507.0733947753906
488;506.3763122558594
489;505.68011474609375
490;504.98541259765625
491;504.2916259765625
492;503.5988464355469
493;502.9063720703125
494;502.2154846191406
495;501.52490234375
496;500.8352966308594
497;500.1471862792969
498;499.4593505859375
499;498.77252197265625
