;loss
0;1312.388427734375
1;1311.6182861328125
2;1310.5828857421875
3;1309.546142578125
4;1308.5078125
5;1307.511962890625
6;1306.5006103515625
7;1305.476318359375
8;1304.4259033203125
9;1303.3709716796875
10;1302.315673828125
11;1301.2508544921875
12;1300.177734375
13;1299.0970458984375
14;1298.008056640625
15;1296.9029541015625
16;1295.7945556640625
17;1294.6751708984375
18;1293.5440673828125
19;1292.3997802734375
20;1291.2415771484375
21;1290.068359375
22;1288.8785400390625
23;1287.6715087890625
24;1286.4315185546875
25;1285.185546875
26;1283.91796875
27;1282.6275634765625
28;1281.312744140625
29;1279.971923828125
30;1278.5872802734375
31;1277.189453125
32;1275.743408203125
33;1274.2637939453125
34;1272.7659912109375
35;1271.2313232421875
36;1269.657470703125
37;1268.0238037109375
38;1266.345703125
39;1264.6390380859375
40;1262.8641357421875
41;1261.0550537109375
42;1259.1903076171875
43;1257.2662353515625
44;1255.2786865234375
45;1253.2037353515625
46;1251.056640625
47;1248.853759765625
48;1246.5693359375
49;1244.1982421875
50;1241.710693359375
51;1239.1226806640625
52;1236.4522705078125
53;1233.6693115234375
54;1230.763427734375
55;1227.7254638671875
56;1224.5460205078125
57;1221.1864013671875
58;1217.6883544921875
59;1213.9830322265625
60;1210.1138916015625
61;1206.005126953125
62;1201.671142578125
63;1197.093505859375
64;1192.252685546875
65;1187.166259765625
66;1181.7374267578125
67;1175.9805908203125
68;1169.873046875
69;1163.4376220703125
70;1156.565673828125
71;1149.285400390625
72;1141.6331787109375
73;1133.5118408203125
74;1124.989990234375
75;1116.0938720703125
76;1106.953857421875
77;1097.6324462890625
78;1088.245361328125
79;1078.8743896484375
80;1069.754150390625
81;1061.052490234375
82;1052.794921875
83;1045.01611328125
84;1037.7371826171875
85;1030.9578857421875
86;1024.647705078125
87;1018.7445678710938
88;1013.2156982421875
89;1008.0317993164062
90;1003.1614379882812
91;998.5557861328125
92;994.2338256835938
93;990.1181640625
94;986.2136840820312
95;982.4993896484375
96;978.9733276367188
97;975.5887451171875
98;972.3639526367188
99;969.2505493164062
100;966.2545776367188
101;963.3828125
102;960.60888671875
103;957.92822265625
104;955.3197021484375
105;952.7967529296875
106;950.3464965820312
107;947.9486694335938
108;945.6100463867188
109;943.3255004882812
110;941.1014404296875
111;938.9241333007812
112;936.7899169921875
113;934.6962890625
114;932.6311645507812
115;930.6087646484375
116;928.6094360351562
117;926.6400756835938
118;924.6983642578125
119;922.783203125
120;920.9005126953125
121;919.0414428710938
122;917.1976928710938
123;915.3745727539062
124;913.5709838867188
125;911.7931518554688
126;910.0259399414062
127;908.28173828125
128;906.5471801757812
129;904.8282470703125
130;903.1248779296875
131;901.44189453125
132;899.7730102539062
133;898.1175537109375
134;896.4691772460938
135;894.8392944335938
136;893.2216186523438
137;891.6109008789062
138;890.0120239257812
139;888.4302368164062
140;886.8596801757812
141;885.29541015625
142;883.7470703125
143;882.2091674804688
144;880.6769409179688
145;879.1597900390625
146;877.6524658203125
147;876.1499633789062
148;874.6616821289062
149;873.1824340820312
150;871.7125854492188
151;870.2474365234375
152;868.7954711914062
153;867.34765625
154;865.9085083007812
155;864.4821166992188
156;863.0595703125
157;861.6491088867188
158;860.2426147460938
159;858.8475952148438
160;857.4605102539062
161;856.0767822265625
162;854.7042236328125
163;853.3388061523438
164;851.98046875
165;850.6287841796875
166;849.2838134765625
167;847.9454345703125
168;846.61328125
169;845.2838134765625
170;843.9639282226562
171;842.6500244140625
172;841.3385009765625
173;840.0328979492188
174;838.7330322265625
175;837.4421997070312
176;836.1570434570312
177;834.8772583007812
178;833.6028442382812
179;832.3303833007812
180;831.06640625
181;829.8045654296875
182;828.5475463867188
183;827.2954711914062
184;826.0512084960938
185;824.8116455078125
186;823.5738525390625
187;822.3436279296875
188;821.1176147460938
189;819.8931884765625
190;818.6729736328125
191;817.4571533203125
192;816.2483520507812
193;815.0435791015625
194;813.8428955078125
195;812.6432495117188
196;811.4503784179688
197;810.2614135742188
198;809.0735473632812
199;807.8893432617188
200;806.7089233398438
201;805.5346069335938
202;804.3616333007812
203;803.19482421875
204;802.0315551757812
205;800.8717041015625
206;799.71533203125
207;798.5597534179688
208;797.4100341796875
209;796.2611694335938
210;795.1155395507812
211;793.9755249023438
212;792.83642578125
213;791.7003173828125
214;790.5676879882812
215;789.4403076171875
216;788.3158569335938
217;787.1923217773438
218;786.0740356445312
219;784.9586791992188
220;783.8463134765625
221;782.7345581054688
222;781.6256713867188
223;780.5196533203125
224;779.4187622070312
225;778.3204345703125
226;777.2249145507812
227;776.1299438476562
228;775.0397338867188
229;773.9521484375
230;772.8651123046875
231;771.7806396484375
232;770.7007446289062
233;769.6213989257812
234;768.5465087890625
235;767.47412109375
236;766.404296875
237;765.3367309570312
238;764.27197265625
239;763.2078247070312
240;762.1461181640625
241;761.0869140625
242;760.0302734375
243;758.9778442382812
244;757.927734375
245;756.8799438476562
246;755.8345336914062
247;754.7894897460938
248;753.7467651367188
249;752.7083129882812
250;751.6700439453125
251;750.6358032226562
252;749.6038208007812
253;748.5722045898438
254;747.5426635742188
255;746.51708984375
256;745.4918823242188
257;744.46875
258;743.4495239257812
259;742.4305419921875
260;741.4153442382812
261;740.4005126953125
262;739.3877563476562
263;738.3786010742188
264;737.3716430664062
265;736.3666381835938
266;735.3634033203125
267;734.3606567382812
268;733.3598022460938
269;732.3624267578125
270;731.3653564453125
271;730.3719482421875
272;729.38037109375
273;728.3892211914062
274;727.3998413085938
275;726.4122314453125
276;725.4266357421875
277;724.4443359375
278;723.4623413085938
279;722.4820556640625
280;721.5050659179688
281;720.5299072265625
282;719.5565185546875
283;718.5847778320312
284;717.61474609375
285;716.646484375
286;715.6785278320312
287;714.7120361328125
288;713.7489013671875
289;712.7858276367188
290;711.8246459960938
291;710.8649291992188
292;709.9085083007812
293;708.9535522460938
294;708.0001831054688
295;707.0471801757812
296;706.0971069335938
297;705.1485595703125
298;704.2017822265625
299;703.2564697265625
300;702.3128051757812
301;701.37060546875
302;700.4301147460938
303;699.48974609375
304;698.5509033203125
305;697.6150512695312
306;696.6793212890625
307;695.7464599609375
308;694.8151245117188
309;693.88525390625
310;692.9569091796875
311;692.02880859375
312;691.1034545898438
313;690.1795654296875
314;689.255859375
315;688.3336791992188
316;687.4130249023438
317;686.4949951171875
318;685.5784301757812
319;684.662109375
320;683.7484130859375
321;682.8361206054688
322;681.9253540039062
323;681.0159301757812
324;680.10791015625
325;679.2012939453125
326;678.2962036132812
327;677.3911743164062
328;676.48876953125
329;675.5866088867188
330;674.6859741210938
331;673.7876586914062
332;672.8907470703125
333;671.994140625
334;671.1000366210938
335;670.2061157226562
336;669.3135986328125
337;668.4235229492188
338;667.5347290039062
339;666.6473388671875
340;665.7612915039062
341;664.8754272460938
342;663.9920654296875
343;663.1088256835938
344;662.22802734375
345;661.3485107421875
346;660.4702758789062
347;659.5933837890625
348;658.7177734375
349;657.8434448242188
350;656.9703979492188
351;656.0987548828125
352;655.2271118164062
353;654.3568725585938
354;653.4879150390625
355;652.6202392578125
356;651.7548217773438
357;650.890625
358;650.0277099609375
359;649.1649780273438
360;648.3045654296875
361;647.4453125
362;646.5873413085938
363;645.73046875
364;644.8740234375
365;644.0186767578125
366;643.1655883789062
367;642.3128051757812
368;641.4610595703125
369;640.6106567382812
370;639.7614135742188
371;638.9133911132812
372;638.0675048828125
373;637.2218017578125
374;636.3773803710938
375;635.5350341796875
376;634.6939086914062
377;633.8538818359375
378;633.0140991210938
379;632.1764526367188
380;631.3399047851562
381;630.5037841796875
382;629.6686401367188
383;628.8346557617188
384;628.0018920898438
385;627.1712036132812
386;626.3414916992188
387;625.51220703125
388;624.6840209960938
389;623.8568725585938
390;623.0309448242188
391;622.2069702148438
392;621.38330078125
393;620.5607299804688
394;619.7401733398438
395;618.9197998046875
396;618.1005859375
397;617.2833251953125
398;616.4663696289062
399;615.6513061523438
400;614.8373413085938
401;614.0244750976562
402;613.2119140625
403;612.4003295898438
404;611.5899047851562
405;610.7814331054688
406;609.9740600585938
407;609.1668701171875
408;608.36083984375
409;607.5557861328125
410;606.7527465820312
411;605.9498901367188
412;605.14892578125
413;604.3482055664062
414;603.5493774414062
415;602.7515258789062
416;601.9540405273438
417;601.1583251953125
418;600.3629150390625
419;599.5686645507812
420;598.7760009765625
421;597.9844970703125
422;597.193359375
423;596.4031982421875
424;595.6140747070312
425;594.8258666992188
426;594.0388793945312
427;593.2535400390625
428;592.4692993164062
429;591.68603515625
430;590.9031372070312
431;590.1219482421875
432;589.3408813476562
433;588.5617065429688
434;587.7828369140625
435;587.0049438476562
436;586.2280883789062
437;585.4522705078125
438;584.6781005859375
439;583.9049682617188
440;583.1327514648438
441;582.361572265625
442;581.5907592773438
443;580.821533203125
444;580.0526123046875
445;579.2847900390625
446;578.5178833007812
447;577.7525634765625
448;576.9883422851562
449;576.2249755859375
450;575.4620361328125
451;574.70068359375
452;573.9395751953125
453;573.1795654296875
454;572.4210815429688
455;571.6630249023438
456;570.9064331054688
457;570.1509399414062
458;569.3956298828125
459;568.6420288085938
460;567.888671875
461;567.1362915039062
462;566.3848266601562
463;565.6350708007812
464;564.8855590820312
465;564.1369018554688
466;563.3899536132812
467;562.6431884765625
468;561.8975219726562
469;561.1533203125
470;560.4100952148438
471;559.6671142578125
472;558.9257202148438
473;558.1846313476562
474;557.4445190429688
475;556.7058715820312
476;555.9682006835938
477;555.2308349609375
478;554.4950561523438
479;553.7601318359375
480;553.026123046875
481;552.2930908203125
482;551.560302734375
483;550.8284912109375
484;550.0975952148438
485;549.3681030273438
486;548.6395874023438
487;547.9120483398438
488;547.1846923828125
489;546.458984375
490;545.7339477539062
491;545.0094604492188
492;544.2862548828125
493;543.5635986328125
494;542.8422241210938
495;542.1217651367188
496;541.4017333984375
497;540.6830444335938
498;539.9647827148438
499;539.247314453125
500;538.5308227539062
501;537.8156127929688
502;537.1009521484375
503;536.3875732421875
504;535.6751098632812
505;534.9635620117188
506;534.2528686523438
507;533.54248046875
508;532.83349609375
509;532.1248779296875
510;531.4176025390625
511;530.7107543945312
512;530.0052490234375
513;529.3001098632812
514;528.5963134765625
515;527.8934326171875
516;527.19140625
517;526.4902954101562
518;525.7899169921875
519;525.0899658203125
520;524.391357421875
521;523.6935424804688
522;522.9961547851562
523;522.3001098632812
524;521.6049194335938
525;520.9105834960938
526;520.216552734375
527;519.5233764648438
528;518.83154296875
529;518.1400756835938
530;517.449951171875
531;516.7601318359375
532;516.0717163085938
533;515.3836059570312
534;514.69677734375
535;514.0103759765625
536;513.3252563476562
537;512.6404418945312
538;511.95703125
539;511.2739562988281
540;510.5921325683594
541;509.9111633300781
542;509.23052978515625
543;508.5512390136719
544;507.8727722167969
545;507.1946105957031
546;506.51727294921875
547;505.84075927734375
548;505.16552734375
549;504.4906921386719
550;503.8171081542969
551;503.1438903808594
552;502.4718933105469
553;501.80029296875
554;501.12945556640625
555;500.4599914550781
556;499.7908020019531
557;499.1224060058594
558;498.4548645019531
559;497.7885437011719
560;497.1230773925781
561;496.45831298828125
562;495.7944030761719
563;495.13134765625
564;494.4686584472656
565;493.8070983886719
566;493.1459655761719
567;492.4859924316406
568;491.8269348144531
569;491.1686096191406
570;490.5110168457031
571;489.8542785644531
572;489.1979064941406
573;488.5427551269531
574;487.8879089355469
575;487.23388671875
576;486.5810852050781
577;485.92913818359375
578;485.27783203125
579;484.6269226074219
580;483.97723388671875
581;483.3279113769531
582;482.67974853515625
583;482.03204345703125
584;481.385498046875
585;480.7392272949219
586;480.09423828125
587;479.4495544433594
588;478.80615234375
589;478.16302490234375
590;477.52105712890625
591;476.8798828125
592;476.2395324707031
593;475.599853515625
594;474.9609680175781
595;474.3229064941406
596;473.685546875
597;473.0485534667969
598;472.4127502441406
599;471.77728271484375
600;471.142578125
601;470.5090026855469
602;469.87591552734375
603;469.24346923828125
604;468.61224365234375
605;467.981689453125
606;467.35198974609375
607;466.7229309082031
608;466.0943298339844
609;465.4668273925781
610;464.83966064453125
611;464.2133483886719
612;463.5880432128906
613;462.9635925292969
614;462.33941650390625
615;461.71600341796875
616;461.0934143066406
617;460.47186279296875
618;459.8510437011719
619;459.2309875488281
620;458.6116638183594
621;457.99310302734375
622;457.3752746582031
623;456.7581481933594
624;456.14178466796875
625;455.5262145996094
626;454.9112854003906
627;454.2967834472656
628;453.6829528808594
629;453.07025146484375
630;452.45794677734375
631;451.8463439941406
632;451.23583984375
633;450.6257019042969
634;450.0166320800781
635;449.40826416015625
636;448.80035400390625
637;448.1930847167969
638;447.5869140625
639;446.9814453125
640;446.37640380859375
641;445.7723693847656
642;445.1690979003906
643;444.56646728515625
644;443.96429443359375
645;443.36285400390625
646;442.7620544433594
647;442.1623840332031
648;441.5630187988281
649;440.96478271484375
650;440.36688232421875
651;439.7696838378906
652;439.1731872558594
653;438.5774230957031
654;437.98236083984375
655;437.3880310058594
656;436.79437255859375
657;436.2014465332031
658;435.60955810546875
659;435.0183410644531
660;434.42779541015625
661;433.83770751953125
662;433.24859619140625
663;432.659912109375
664;432.07220458984375
665;431.48486328125
666;430.89825439453125
667;430.3126525878906
668;429.7277526855469
669;429.1435546875
670;428.55963134765625
671;427.9765625
672;427.39410400390625
673;426.8123474121094
674;426.23138427734375
675;425.6510314941406
676;425.0716247558594
677;424.4929504394531
678;423.91497802734375
679;423.337646484375
680;422.7607727050781
681;422.184814453125
682;421.6095886230469
683;421.03509521484375
684;420.4611511230469
685;419.8879699707031
686;419.3151550292969
687;418.7433166503906
688;418.171875
689;417.6011047363281
690;417.0313415527344
691;416.4622497558594
692;415.8935546875
693;415.3254699707031
694;414.7583923339844
695;414.1916809082031
696;413.6259765625
697;413.0606994628906
698;412.4959411621094
699;411.9320373535156
700;411.36895751953125
701;410.80657958984375
702;410.24462890625
703;409.6832580566406
704;409.12261962890625
705;408.5626525878906
706;408.0033874511719
707;407.44476318359375
708;406.88677978515625
709;406.32940673828125
710;405.7731018066406
711;405.2173767089844
712;404.66204833984375
713;404.107666015625
714;403.5539245605469
715;403.0005798339844
716;402.4482116699219
717;401.8964538574219
718;401.34515380859375
719;400.7947082519531
720;400.244873046875
721;399.6955261230469
722;399.14703369140625
723;398.5989685058594
724;398.05157470703125
725;397.50482177734375
726;396.958984375
727;396.41375732421875
728;395.8691711425781
729;395.3252868652344
730;394.78179931640625
731;394.2391662597656
732;393.69696044921875
733;393.1556091308594
734;392.6150207519531
735;392.0747375488281
736;391.5351257324219
737;390.9963684082031
738;390.45831298828125
739;389.9208679199219
740;389.38385009765625
741;388.847412109375
742;388.3118591308594
743;387.7770080566406
744;387.2428283691406
745;386.7091369628906
746;386.1759338378906
747;385.64361572265625
748;385.1117248535156
749;384.5807189941406
750;384.0502624511719
751;383.5205078125
752;382.99139404296875
753;382.4628601074219
754;381.9347229003906
755;381.4075012207031
756;380.8808288574219
757;380.35455322265625
758;379.82904052734375
759;379.3043518066406
760;378.7799377441406
761;378.25640869140625
762;377.7333984375
763;377.2112121582031
764;376.6893615722656
765;376.16815185546875
766;375.64764404296875
767;375.1278991699219
768;374.6086120605469
769;374.0901184082031
770;373.572021484375
771;373.05474853515625
772;372.5379943847656
773;372.02197265625
774;371.5065612792969
775;370.99163818359375
776;370.47747802734375
777;369.9640197753906
778;369.45086669921875
779;368.9383239746094
780;368.4264831542969
781;367.9154357910156
782;367.4046936035156
783;366.8948669433594
784;366.38568115234375
785;365.8770446777344
786;365.368896484375
787;364.8614807128906
788;364.3547058105469
789;363.84857177734375
790;363.3427734375
791;362.837646484375
792;362.3332824707031
793;361.82958984375
794;361.3262023925781
795;360.82373046875
796;360.32159423828125
797;359.8202819824219
798;359.319580078125
799;358.8193359375
800;358.3197937011719
801;357.8207092285156
802;357.3223571777344
803;356.8246765136719
804;356.3274230957031
805;355.8307189941406
806;355.3348083496094
807;354.8395080566406
808;354.3448181152344
809;353.85064697265625
810;353.35699462890625
811;352.86407470703125
812;352.37176513671875
813;351.8798828125
814;351.3885803222656
815;350.8978576660156
816;350.4079284667969
817;349.91839599609375
818;349.429443359375
819;348.9411315917969
820;348.4535217285156
821;347.9665832519531
822;347.47998046875
823;346.9941711425781
824;346.50897216796875
825;346.024169921875
826;345.54010009765625
827;345.056640625
828;344.57373046875
829;344.09130859375
830;343.6096496582031
831;343.1282653808594
832;342.6477355957031
833;342.1676330566406
834;341.6883239746094
835;341.2093200683594
836;340.7309265136719
837;340.2533264160156
838;339.776123046875
839;339.2995300292969
840;338.8235778808594
841;338.3482971191406
842;337.87353515625
843;337.39923095703125
844;336.9254455566406
845;336.45233154296875
846;335.97991943359375
847;335.5080261230469
848;335.0368347167969
849;334.5659484863281
850;334.09576416015625
851;333.62603759765625
852;333.15692138671875
853;332.6883239746094
854;332.2203063964844
855;331.7530822753906
856;331.2863464355469
857;330.820068359375
858;330.3542785644531
859;329.88934326171875
860;329.42486572265625
861;328.96099853515625
862;328.49774169921875
863;328.0348815917969
864;327.57269287109375
865;327.1111145019531
866;326.6499328613281
867;326.1893005371094
868;325.7294006347656
869;325.2700500488281
870;324.8110656738281
871;324.3528747558594
872;323.8952331542969
873;323.4381408691406
874;322.98162841796875
875;322.5256042480469
876;322.0702819824219
877;321.6153869628906
878;321.1611328125
879;320.7073059082031
880;320.254150390625
881;319.8015441894531
882;319.3493347167969
883;318.89776611328125
884;318.4468688964844
885;317.9964294433594
886;317.5464172363281
887;317.09716796875
888;316.6484069824219
889;316.2002258300781
890;315.7525939941406
891;315.30548095703125
892;314.8589172363281
893;314.4129943847656
894;313.9673767089844
895;313.52227783203125
896;313.07794189453125
897;312.63421630859375
898;312.1907653808594
899;311.7479553222656
900;311.3057556152344
901;310.864013671875
902;310.4228210449219
903;309.98223876953125
904;309.5421447753906
905;309.1026916503906
906;308.6636657714844
907;308.22515869140625
908;307.7873229980469
909;307.34991455078125
910;306.9130554199219
911;306.47674560546875
912;306.0411071777344
913;305.6058044433594
914;305.17132568359375
915;304.73712158203125
916;304.30352783203125
917;303.87042236328125
918;303.43798828125
919;303.006103515625
920;302.57464599609375
921;302.14361572265625
922;301.7134094238281
923;301.28350830078125
924;300.85418701171875
925;300.4254455566406
926;299.99725341796875
927;299.5694885253906
928;299.1422424316406
929;298.715576171875
930;298.28936767578125
931;297.8637390136719
932;297.4388122558594
933;297.01434326171875
934;296.59033203125
935;296.16693115234375
936;295.7441101074219
937;295.3216247558594
938;294.8997497558594
939;294.4783020019531
940;294.0576171875
941;293.6374206542969
942;293.2175598144531
943;292.7983703613281
944;292.3797607421875
945;291.9616394042969
946;291.5439147949219
947;291.1268310546875
948;290.71014404296875
949;290.2939453125
950;289.8784484863281
951;289.46331787109375
952;289.0487976074219
953;288.63470458984375
954;288.22119140625
955;287.8082580566406
956;287.3957214355469
957;286.9837341308594
958;286.57220458984375
959;286.1612243652344
960;285.750732421875
961;285.3408508300781
962;284.9314880371094
963;284.5225830078125
964;284.1142883300781
965;283.70648193359375
966;283.29925537109375
967;282.8923645019531
968;282.48602294921875
969;282.08013916015625
970;281.6749572753906
971;281.2702331542969
972;280.86590576171875
973;280.46209716796875
974;280.0588684082031
975;279.6560363769531
976;279.2538757324219
977;278.8520812988281
978;278.4507751464844
979;278.0501403808594
980;277.65008544921875
981;277.2503967285156
982;276.8511657714844
983;276.4524841308594
984;276.0544128417969
985;275.65667724609375
986;275.2594299316406
987;274.8627014160156
988;274.4665222167969
989;274.0707702636719
990;273.6756896972656
991;273.2808837890625
992;272.88665771484375
993;272.4931335449219
994;272.0999755859375
995;271.7072448730469
996;271.3151550292969
997;270.92340087890625
998;270.53228759765625
999;270.14154052734375
1000;269.75140380859375
1001;269.36181640625
1002;268.9726257324219
1003;268.58404541015625
1004;268.1957702636719
1005;267.8079833984375
1006;267.4206848144531
1007;267.0340881347656
1008;266.6479187011719
1009;266.2621765136719
1010;265.8769836425781
1011;265.4921875
1012;265.1080017089844
1013;264.7242736816406
1014;264.3409729003906
1015;263.9581604003906
1016;263.5758361816406
1017;263.1940612792969
1018;262.8127746582031
1019;262.4319763183594
1020;262.05157470703125
1021;261.6717224121094
1022;261.2924499511719
1023;260.9134826660156
1024;260.5350036621094
1025;260.15716552734375
1026;259.7796325683594
1027;259.4027404785156
1028;259.0262145996094
1029;258.65020751953125
1030;258.2747802734375
1031;257.8998107910156
1032;257.52520751953125
1033;257.15106201171875
1034;256.7774963378906
1035;256.4042663574219
1036;256.0315856933594
1037;255.65953063964844
1038;255.28787231445312
1039;254.91661071777344
1040;254.5459442138672
1041;254.17564392089844
1042;253.8059844970703
1043;253.43673706054688
1044;253.06796264648438
1045;252.69969177246094
1046;252.33189392089844
1047;251.9645538330078
1048;251.59756469726562
1049;251.23106384277344
1050;250.86509704589844
1051;250.49951171875
1052;250.13442993164062
1053;249.7698516845703
1054;249.40574645996094
1055;249.04209899902344
1056;248.67898559570312
1057;248.31639099121094
1058;247.9541473388672
1059;247.59242248535156
1060;247.2311248779297
1061;246.87046813964844
1062;246.51014709472656
1063;246.1503143310547
1064;245.7909698486328
1065;245.4319610595703
1066;245.07351684570312
1067;244.7154998779297
1068;244.35792541503906
1069;244.00096130371094
1070;243.64430236816406
1071;243.2881622314453
1072;242.93247985839844
1073;242.57725524902344
1074;242.22254943847656
1075;241.8682403564453
1076;241.51438903808594
1077;241.1610565185547
1078;240.80824279785156
1079;240.4558563232422
1080;240.1039276123047
1081;239.75244140625
1082;239.4014434814453
1083;239.05087280273438
1084;238.70082092285156
1085;238.35110473632812
1086;238.0018768310547
1087;237.65318298339844
1088;237.30482482910156
1089;236.95704650878906
1090;236.6096649169922
1091;236.2626953125
1092;235.91622924804688
1093;235.57017517089844
1094;235.22451782226562
1095;234.87936401367188
1096;234.53468322753906
1097;234.19046020507812
1098;233.8467559814453
1099;233.50344848632812
1100;233.16055297851562
1101;232.8181610107422
1102;232.47630310058594
1103;232.13473510742188
1104;231.79359436035156
1105;231.45303344726562
1106;231.11282348632812
1107;230.773193359375
1108;230.43385314941406
1109;230.09506225585938
1110;229.7566375732422
1111;229.418701171875
1112;229.08126831054688
1113;228.74423217773438
1114;228.40762329101562
1115;228.07156372070312
1116;227.73587036132812
1117;227.400634765625
1118;227.0658721923828
1119;226.7315216064453
1120;226.3976287841797
1121;226.064208984375
1122;225.73117065429688
1123;225.3985595703125
1124;225.0664825439453
1125;224.73477172851562
1126;224.40345764160156
1127;224.07264709472656
1128;223.74229431152344
1129;223.412353515625
1130;223.08290100097656
1131;222.7538299560547
1132;222.42526245117188
1133;222.09703063964844
1134;221.76919555664062
1135;221.44190979003906
1136;221.11502075195312
1137;220.7886199951172
1138;220.4626007080078
1139;220.1370391845703
1140;219.81190490722656
1141;219.48716735839844
1142;219.1629180908203
1143;218.8390350341797
1144;218.515625
1145;218.192626953125
1146;217.8701171875
1147;217.5479736328125
1148;217.226318359375
1149;216.905029296875
1150;216.584228515625
1151;216.2638397216797
1152;215.9439239501953
1153;215.6244354248047
1154;215.30526733398438
1155;214.98654174804688
1156;214.66824340820312
1157;214.35043334960938
1158;214.03306579589844
1159;213.71617126464844
1160;213.39964294433594
1161;213.0835723876953
1162;212.76779174804688
1163;212.45254516601562
1164;212.1376495361328
1165;211.8231964111328
1166;211.5092010498047
1167;211.19558715820312
1168;210.8824462890625
1169;210.56971740722656
1170;210.2573699951172
1171;209.94546508789062
1172;209.63392639160156
1173;209.32289123535156
1174;209.01222229003906
1175;208.7019805908203
1176;208.3922119140625
1177;208.0828399658203
1178;207.77383422851562
1179;207.46533203125
1180;207.1573028564453
1181;206.84957885742188
1182;206.5423126220703
1183;206.23548889160156
1184;205.92909240722656
1185;205.6230926513672
1186;205.3174591064453
1187;205.01223754882812
1188;204.7074737548828
1189;204.40309143066406
1190;204.0991668701172
1191;203.79563903808594
1192;203.49256896972656
1193;203.18991088867188
1194;202.88758850097656
1195;202.58570861816406
1196;202.28421020507812
1197;201.9832000732422
1198;201.68258666992188
1199;201.38233947753906
1200;201.0825653076172
1201;200.78318786621094
1202;200.484130859375
1203;200.18553161621094
1204;199.88735961914062
1205;199.589599609375
1206;199.2922821044922
1207;198.995361328125
1208;198.69882202148438
1209;198.40267944335938
1210;198.1068572998047
1211;197.81153869628906
1212;197.5165557861328
1213;197.22203063964844
1214;196.92787170410156
1215;196.63412475585938
1216;196.34085083007812
1217;196.04788208007812
1218;195.75540161132812
1219;195.4633331298828
1220;195.17161560058594
1221;194.8802947998047
1222;194.5894317626953
1223;194.29891967773438
1224;194.00881958007812
1225;193.7191162109375
1226;193.4298553466797
1227;193.14097595214844
1228;192.85243225097656
1229;192.5643310546875
1230;192.2766571044922
1231;191.98939514160156
1232;191.70240783691406
1233;191.41592407226562
1234;191.12986755371094
1235;190.8441162109375
1236;190.55885314941406
1237;190.27392578125
1238;189.9894561767578
1239;189.70530700683594
1240;189.42152404785156
1241;189.13815307617188
1242;188.8551483154297
1243;188.57260131835938
1244;188.29043579101562
1245;188.0086212158203
1246;187.72720336914062
1247;187.44625854492188
1248;187.1657257080078
1249;186.88552856445312
1250;186.60568237304688
1251;186.3262939453125
1252;186.0472412109375
1253;185.7686309814453
1254;185.4903564453125
1255;185.2124786376953
1256;184.93496704101562
1257;184.65785217285156
1258;184.3811492919922
1259;184.10484313964844
1260;183.82887268066406
1261;183.55335998535156
1262;183.2782745361328
1263;183.00344848632812
1264;182.72909545898438
1265;182.4550323486328
1266;182.18142700195312
1267;181.90817260742188
1268;181.6353302001953
1269;181.3628692626953
1270;181.09080505371094
1271;180.8191375732422
1272;180.54786682128906
1273;180.2769012451172
1274;180.00634765625
1275;179.73617553710938
1276;179.46640014648438
1277;179.1969757080078
1278;178.92794799804688
1279;178.65933227539062
1280;178.39111328125
1281;178.12326049804688
1282;177.85572814941406
1283;177.58860778808594
1284;177.3218536376953
1285;177.05540466308594
1286;176.78944396972656
1287;176.52383422851562
1288;176.2586212158203
1289;175.9936981201172
1290;175.729248046875
1291;175.46510314941406
1292;175.20138549804688
1293;174.93798828125
1294;174.6749725341797
1295;174.412353515625
1296;174.15005493164062
1297;173.8882293701172
1298;173.6267547607422
1299;173.3656463623047
1300;173.1049346923828
1301;172.84451293945312
1302;172.58448791503906
1303;172.3248291015625
1304;172.06553649902344
1305;171.80667114257812
1306;171.54811096191406
1307;171.2899627685547
1308;171.03219604492188
1309;170.7748260498047
1310;170.5177459716797
1311;170.2611083984375
1312;170.0048065185547
1313;169.74888610839844
1314;169.49331665039062
1315;169.23814392089844
1316;168.98329162597656
1317;168.72879028320312
1318;168.47471618652344
1319;168.220947265625
1320;167.96755981445312
1321;167.71450805664062
1322;167.46188354492188
1323;167.20957946777344
1324;166.9576416015625
1325;166.70608520507812
1326;166.45486450195312
1327;166.20408630371094
1328;165.95359802246094
1329;165.70350646972656
1330;165.45372009277344
1331;165.20433044433594
1332;164.9552459716797
1333;164.70655822753906
1334;164.458251953125
1335;164.21029663085938
1336;163.9627227783203
1337;163.71548461914062
1338;163.46859741210938
1339;163.2220458984375
1340;162.97584533691406
1341;162.72999572753906
1342;162.48458862304688
1343;162.2394256591797
1344;161.9946746826172
1345;161.7503204345703
1346;161.50631713867188
1347;161.2626190185547
1348;161.01930236816406
1349;160.77639770507812
1350;160.5337371826172
1351;160.29148864746094
1352;160.049560546875
1353;159.8079833984375
1354;159.56678771972656
1355;159.3259735107422
1356;159.08547973632812
1357;158.84532165527344
1358;158.60549926757812
1359;158.3660125732422
1360;158.12693786621094
1361;157.8882293701172
1362;157.6498260498047
1363;157.4118194580078
1364;157.1741485595703
1365;156.93679809570312
1366;156.6998291015625
1367;156.46315002441406
1368;156.22683715820312
1369;155.99087524414062
1370;155.75526428222656
1371;155.5199737548828
1372;155.2850341796875
1373;155.0504608154297
1374;154.8162078857422
1375;154.58236694335938
1376;154.34877014160156
1377;154.1156005859375
1378;153.8827362060547
1379;153.6502685546875
1380;153.4180908203125
1381;153.18626403808594
1382;152.95472717285156
1383;152.7236328125
1384;152.4928436279297
1385;152.262451171875
1386;152.0323486328125
1387;151.80259704589844
1388;151.57313537597656
1389;151.34408569335938
1390;151.1153106689453
1391;150.88687133789062
1392;150.6588134765625
1393;150.4311065673828
1394;150.2036895751953
1395;149.97659301757812
1396;149.7499237060547
1397;149.52354431152344
1398;149.29747009277344
1399;149.07180786132812
1400;148.846435546875
1401;148.6214141845703
1402;148.39671325683594
1403;148.17237854003906
1404;147.94833374023438
1405;147.724609375
1406;147.50123596191406
1407;147.27821350097656
1408;147.0555419921875
1409;146.8332061767578
1410;146.6111602783203
1411;146.38943481445312
1412;146.1680908203125
1413;145.94700622558594
1414;145.72630310058594
1415;145.50596618652344
1416;145.285888671875
1417;145.066162109375
1418;144.84677124023438
1419;144.62771606445312
1420;144.40896606445312
1421;144.19056701660156
1422;143.9724884033203
1423;143.75473022460938
1424;143.53733825683594
1425;143.32028198242188
1426;143.10354614257812
1427;142.88714599609375
1428;142.67105102539062
1429;142.45530700683594
1430;142.2398223876953
1431;142.02471923828125
1432;141.8099365234375
1433;141.5955047607422
1434;141.38131713867188
1435;141.16749572753906
1436;140.95399475097656
1437;140.7408447265625
1438;140.52798461914062
1439;140.3155059814453
1440;140.10330200195312
1441;139.8914031982422
1442;139.6798553466797
1443;139.46861267089844
1444;139.25770568847656
1445;139.04710388183594
1446;138.8368377685547
1447;138.6268768310547
1448;138.41722106933594
1449;138.2078857421875
1450;137.99891662597656
1451;137.79019165039062
1452;137.58187866210938
1453;137.373779296875
1454;137.1660919189453
1455;136.9586639404297
1456;136.7515869140625
1457;136.54478454589844
1458;136.33834838867188
1459;136.13218688964844
1460;135.92636108398438
1461;135.72084045410156
1462;135.51564025878906
1463;135.31082153320312
1464;135.1062469482422
1465;134.90203857421875
1466;134.69808959960938
1467;134.49449157714844
1468;134.29116821289062
1469;134.08816528320312
1470;133.8855438232422
1471;133.6831512451172
1472;133.4810791015625
1473;133.2793731689453
1474;133.07789611816406
1475;132.87677001953125
1476;132.6759796142578
1477;132.47547912597656
1478;132.27529907226562
1479;132.075439453125
1480;131.8758544921875
1481;131.67657470703125
1482;131.47763061523438
1483;131.27902221679688
1484;131.0806427001953
1485;130.88259887695312
1486;130.6848602294922
1487;130.48744201660156
1488;130.2903289794922
1489;130.09352111816406
1490;129.89698791503906
1491;129.70083618164062
1492;129.5049591064453
1493;129.30935668945312
1494;129.11407470703125
1495;128.91909790039062
1496;128.7244415283203
1497;128.5300750732422
1498;128.33599853515625
1499;128.1422576904297
1500;127.94877624511719
1501;127.755615234375
1502;127.562744140625
1503;127.37018585205078
1504;127.17790985107422
1505;126.98596954345703
1506;126.79429626464844
1507;126.60295104980469
1508;126.41188049316406
1509;126.22114562988281
1510;126.03071594238281
1511;125.84056091308594
1512;125.65071868896484
1513;125.46116638183594
1514;125.27192687988281
1515;125.08296203613281
1516;124.8942642211914
1517;124.70591735839844
1518;124.5178451538086
1519;124.33008575439453
1520;124.14261627197266
1521;123.9554214477539
1522;123.76850128173828
1523;123.58192443847656
1524;123.39564514160156
1525;123.20966339111328
1526;123.02399444580078
1527;122.83858489990234
1528;122.65349578857422
1529;122.4686279296875
1530;122.28409576416016
1531;122.09981536865234
1532;121.91587829589844
1533;121.7322769165039
1534;121.54889678955078
1535;121.3658447265625
1536;121.18305969238281
1537;121.00055694580078
1538;120.81835174560547
1539;120.63640594482422
1540;120.45475769042969
1541;120.27345275878906
1542;120.0924301147461
1543;119.91168975830078
1544;119.73121643066406
1545;119.55104064941406
1546;119.37113189697266
1547;119.1915283203125
1548;119.01224517822266
1549;118.83317565917969
1550;118.6544189453125
1551;118.47599792480469
1552;118.29783630371094
1553;118.11995697021484
1554;117.94234466552734
1555;117.76505279541016
1556;117.58802032470703
1557;117.41126251220703
1558;117.23479461669922
1559;117.05866241455078
1560;116.88274383544922
1561;116.70713806152344
1562;116.53182220458984
1563;116.35676574707031
1564;116.1820068359375
1565;116.007568359375
1566;115.83332061767578
1567;115.65943908691406
1568;115.48579406738281
1569;115.31243896484375
1570;115.13934326171875
1571;114.9665298461914
1572;114.79401397705078
1573;114.62177276611328
1574;114.44979095458984
1575;114.27812957763672
1576;114.10670471191406
1577;113.93560028076172
1578;113.76471710205078
1579;113.59416198730469
1580;113.42381286621094
1581;113.25379943847656
1582;113.08405303955078
1583;112.91461944580078
1584;112.74541473388672
1585;112.57653045654297
1586;112.40789031982422
1587;112.2395248413086
1588;112.07142639160156
1589;111.90360260009766
1590;111.736083984375
1591;111.56883239746094
1592;111.40186309814453
1593;111.23514556884766
1594;111.06871032714844
1595;110.90250396728516
1596;110.73661041259766
1597;110.57098388671875
1598;110.40562438964844
1599;110.24054718017578
1600;110.0757064819336
1601;109.91118621826172
1602;109.74688720703125
1603;109.58292388916016
1604;109.41917419433594
1605;109.25572204589844
1606;109.0925064086914
1607;108.92958068847656
1608;108.76692199707031
1609;108.60456085205078
1610;108.44245147705078
1611;108.28058624267578
1612;108.11897277832031
1613;107.95762634277344
1614;107.7966079711914
1615;107.63578796386719
1616;107.47523498535156
1617;107.31500244140625
1618;107.15501403808594
1619;106.99529266357422
1620;106.83583068847656
1621;106.6766128540039
1622;106.51765441894531
1623;106.3590087890625
1624;106.20061492919922
1625;106.04246520996094
1626;105.88459014892578
1627;105.7269515991211
1628;105.569580078125
1629;105.41248321533203
1630;105.25566864013672
1631;105.09908294677734
1632;104.94276428222656
1633;104.7867202758789
1634;104.63092803955078
1635;104.47537994384766
1636;104.32010650634766
1637;104.16510009765625
1638;104.01033782958984
1639;103.85582733154297
1640;103.70158386230469
1641;103.5475845336914
1642;103.39388275146484
1643;103.24042510986328
1644;103.08724212646484
1645;102.93428802490234
1646;102.78160858154297
1647;102.62914276123047
1648;102.47697448730469
1649;102.32506561279297
1650;102.1734390258789
1651;102.02202606201172
1652;101.870849609375
1653;101.71991729736328
1654;101.56927490234375
1655;101.4188461303711
1656;101.26871490478516
1657;101.11882781982422
1658;100.96917724609375
1659;100.81978607177734
1660;100.67066955566406
1661;100.52180480957031
1662;100.37316131591797
1663;100.22481536865234
1664;100.07667541503906
1665;99.92884063720703
1666;99.78121185302734
1667;99.63383483886719
1668;99.48673248291016
1669;99.33989715576172
1670;99.19325256347656
1671;99.046875
1672;98.90077209472656
1673;98.7549057006836
1674;98.60930633544922
1675;98.46392059326172
1676;98.31880187988281
1677;98.17393493652344
1678;98.02928161621094
1679;97.8849105834961
1680;97.74079132080078
1681;97.59687042236328
1682;97.4532241821289
1683;97.30982208251953
1684;97.16669464111328
1685;97.02376556396484
1686;96.881103515625
1687;96.73870086669922
1688;96.59651184082031
1689;96.45458984375
1690;96.31293487548828
1691;96.17149353027344
1692;96.0302963256836
1693;95.88933563232422
1694;95.7486343383789
1695;95.608154296875
1696;95.46795654296875
1697;95.32796478271484
1698;95.18824005126953
1699;95.0487060546875
1700;94.90946960449219
1701;94.77043914794922
1702;94.63166046142578
1703;94.49309539794922
1704;94.35479736328125
1705;94.21674346923828
1706;94.07887268066406
1707;93.94129180908203
1708;93.803955078125
1709;93.66686248779297
1710;93.52997589111328
1711;93.39336395263672
1712;93.25697326660156
1713;93.12080383300781
1714;92.9848861694336
1715;92.84920501708984
1716;92.7137451171875
1717;92.57853698730469
1718;92.44353485107422
1719;92.30878448486328
1720;92.17427062988281
1721;92.03998565673828
1722;91.9059829711914
1723;91.77215576171875
1724;91.6385726928711
1725;91.50525665283203
1726;91.37214660644531
1727;91.23926544189453
1728;91.10663604736328
1729;90.97425079345703
1730;90.84207916259766
1731;90.71014404296875
1732;90.57842254638672
1733;90.44695281982422
1734;90.31571960449219
1735;90.1846923828125
1736;90.0539321899414
1737;89.92334747314453
1738;89.79302978515625
1739;89.66291046142578
1740;89.5330810546875
1741;89.4034194946289
1742;89.27404022216797
1743;89.14484405517578
1744;89.0158920288086
1745;88.88716888427734
1746;88.7586669921875
1747;88.63040924072266
1748;88.50236511230469
1749;88.37455749511719
1750;88.24700164794922
1751;88.11962127685547
1752;87.99249267578125
1753;87.86556243896484
1754;87.7388916015625
1755;87.61241149902344
1756;87.4861831665039
1757;87.36016845703125
1758;87.23436737060547
1759;87.10881805419922
1760;86.98347473144531
1761;86.85835266113281
1762;86.73343658447266
1763;86.6087646484375
1764;86.48432159423828
1765;86.3601303100586
1766;86.23612213134766
1767;86.11235809326172
1768;85.98876953125
1769;85.86543273925781
1770;85.74230194091797
1771;85.6194076538086
1772;85.49675750732422
1773;85.37428283691406
1774;85.2520751953125
1775;85.13005828857422
1776;85.00826263427734
1777;84.88668060302734
1778;84.76532745361328
1779;84.6441879272461
1780;84.52326202392578
1781;84.40254211425781
1782;84.28205871582031
1783;84.16179656982422
1784;84.04173278808594
1785;83.9218978881836
1786;83.8022689819336
1787;83.68284606933594
1788;83.56365966796875
1789;83.44469451904297
1790;83.32594299316406
1791;83.20740509033203
1792;83.08906555175781
1793;82.9709701538086
1794;82.85308074951172
1795;82.73539733886719
1796;82.617919921875
1797;82.50066375732422
1798;82.38361358642578
1799;82.26679229736328
1800;82.15018463134766
1801;82.03377532958984
1802;81.91758728027344
1803;81.80158233642578
1804;81.6858139038086
1805;81.57023620605469
1806;81.45489501953125
1807;81.33975982666016
1808;81.22480773925781
1809;81.11011505126953
1810;80.99561309814453
1811;80.8813247680664
1812;80.7672348022461
1813;80.65333557128906
1814;80.53968811035156
1815;80.4262466430664
1816;80.31298065185547
1817;80.19994354248047
1818;80.08709716796875
1819;79.97444915771484
1820;79.86202239990234
1821;79.74982452392578
1822;79.63780975341797
1823;79.52600860595703
1824;79.41441345214844
1825;79.30301666259766
1826;79.19183349609375
1827;79.0808334350586
1828;78.97007751464844
1829;78.85948944091797
1830;78.7491455078125
1831;78.63896942138672
1832;78.5290298461914
1833;78.41925811767578
1834;78.30970764160156
1835;78.20038604736328
1836;78.09123229980469
1837;77.98230743408203
1838;77.87355041503906
1839;77.7650146484375
1840;77.65666961669922
1841;77.5485610961914
1842;77.44060516357422
1843;77.3328857421875
1844;77.22534942626953
1845;77.11802673339844
1846;77.01090240478516
1847;76.90397644042969
1848;76.79722595214844
1849;76.69071197509766
1850;76.58438873291016
1851;76.47825622558594
1852;76.37229919433594
1853;76.26654815673828
1854;76.16102600097656
1855;76.05567932128906
1856;75.95054626464844
1857;75.84559631347656
1858;75.74085235595703
1859;75.63629913330078
1860;75.53192138671875
1861;75.42777252197266
1862;75.32381439208984
1863;75.22005462646484
1864;75.11649322509766
1865;75.01309967041016
1866;74.9099349975586
1867;74.80693054199219
1868;74.70415496826172
1869;74.60154724121094
1870;74.49913787841797
1871;74.39692687988281
1872;74.29492950439453
1873;74.19307708740234
1874;74.09147644042969
1875;73.99003601074219
1876;73.8887710571289
1877;73.7877197265625
1878;73.6868896484375
1879;73.58619689941406
1880;73.4857177734375
1881;73.38543701171875
1882;73.28533172607422
1883;73.1854248046875
1884;73.085693359375
1885;72.98619079589844
1886;72.88684844970703
1887;72.7876968383789
1888;72.68872833251953
1889;72.58995056152344
1890;72.49137115478516
1891;72.39299011230469
1892;72.29480743408203
1893;72.19676971435547
1894;72.09894561767578
1895;72.00129699707031
1896;71.90387725830078
1897;71.80659484863281
1898;71.70952606201172
1899;71.61262512207031
1900;71.51591491699219
1901;71.41938781738281
1902;71.32305908203125
1903;71.22692108154297
1904;71.13094329833984
1905;71.03514862060547
1906;70.9395751953125
1907;70.84416198730469
1908;70.7489242553711
1909;70.65389251708984
1910;70.55902862548828
1911;70.46437072753906
1912;70.369873046875
1913;70.27555084228516
1914;70.18144226074219
1915;70.0875015258789
1916;69.99372100830078
1917;69.90013885498047
1918;69.80674743652344
1919;69.71353912353516
1920;69.62049865722656
1921;69.52763366699219
1922;69.43496704101562
1923;69.34247589111328
1924;69.25016021728516
1925;69.15802764892578
1926;69.0660629272461
1927;68.97428131103516
1928;68.88270568847656
1929;68.7912826538086
1930;68.7000503540039
1931;68.60900115966797
1932;68.51811218261719
1933;68.42740631103516
1934;68.33687591552734
1935;68.24651336669922
1936;68.1563720703125
1937;68.06635284423828
1938;67.97654724121094
1939;67.88690948486328
1940;67.79744720458984
1941;67.70813751220703
1942;67.61903381347656
1943;67.53009796142578
1944;67.44132995605469
1945;67.35272979736328
1946;67.2643051147461
1947;67.17607879638672
1948;67.08800506591797
1949;67.00011444091797
1950;66.91239929199219
1951;66.8248519897461
1952;66.73747253417969
1953;66.65028381347656
1954;66.56324005126953
1955;66.47638702392578
1956;66.38971710205078
1957;66.30320739746094
1958;66.21685791015625
1959;66.13068389892578
1960;66.0447006225586
1961;65.95886993408203
1962;65.87322235107422
1963;65.78773498535156
1964;65.7024154663086
1965;65.61726379394531
1966;65.53229522705078
1967;65.4474868774414
1968;65.36283874511719
1969;65.27836608886719
1970;65.1940689086914
1971;65.10993194580078
1972;65.02597045898438
1973;64.94217681884766
1974;64.85853576660156
1975;64.77509307861328
1976;64.69180297851562
1977;64.60868835449219
1978;64.52571868896484
1979;64.44293975830078
1980;64.36029815673828
1981;64.27783966064453
1982;64.19554138183594
1983;64.1134033203125
1984;64.03146362304688
1985;63.949649810791016
1986;63.86802291870117
1987;63.78656005859375
1988;63.70525360107422
1989;63.62411117553711
1990;63.54313278198242
1991;63.462337493896484
1992;63.381690979003906
1993;63.30118179321289
1994;63.22087478637695
1995;63.140716552734375
1996;63.06073760986328
1997;62.980892181396484
1998;62.901241302490234
1999;62.82173538208008
2000;62.742374420166016
2001;62.66318130493164
2002;62.58415985107422
2003;62.50528335571289
2004;62.42658233642578
2005;62.34804916381836
2006;62.26966094970703
2007;62.19143295288086
2008;62.11336898803711
2009;62.03543472290039
2010;61.95771026611328
2011;61.88010787963867
2012;61.80268096923828
2013;61.72541046142578
2014;61.64829635620117
2015;61.57135772705078
2016;61.49454879760742
2017;61.41791534423828
2018;61.341434478759766
2019;61.26510238647461
2020;61.18893051147461
2021;61.1129264831543
2022;61.03708267211914
2023;60.961368560791016
2024;60.88582992553711
2025;60.81044387817383
2026;60.73521041870117
2027;60.66012954711914
2028;60.5852165222168
2029;60.51044464111328
2030;60.43584060668945
2031;60.36138153076172
2032;60.28706741333008
2033;60.21291732788086
2034;60.13893508911133
2035;60.0650749206543
2036;59.991390228271484
2037;59.91785430908203
2038;59.8444709777832
2039;59.77122116088867
2040;59.69813919067383
2041;59.625221252441406
2042;59.55243682861328
2043;59.47980880737305
2044;59.40734100341797
2045;59.33500289916992
2046;59.262847900390625
2047;59.1908073425293
2048;59.11894607543945
2049;59.04719924926758
2050;58.97563934326172
2051;58.90421676635742
2052;58.83295440673828
2053;58.7618293762207
2054;58.69085693359375
2055;58.62001419067383
2056;58.54934310913086
2057;58.47881317138672
2058;58.408447265625
2059;58.33820343017578
2060;58.268123626708984
2061;58.19817352294922
2062;58.128379821777344
2063;58.05872344970703
2064;57.98923873901367
2065;57.91988754272461
2066;57.85066604614258
2067;57.781620025634766
2068;57.71268844604492
2069;57.64392852783203
2070;57.57529830932617
2071;57.506832122802734
2072;57.4384880065918
2073;57.37030029296875
2074;57.3022575378418
2075;57.23435592651367
2076;57.16661834716797
2077;57.09899139404297
2078;57.03152084350586
2079;56.964210510253906
2080;56.89700698852539
2081;56.829986572265625
2082;56.7630729675293
2083;56.69632339477539
2084;56.62972640991211
2085;56.56325149536133
2086;56.4969367980957
2087;56.43075180053711
2088;56.36470413208008
2089;56.298797607421875
2090;56.2330322265625
2091;56.16741943359375
2092;56.1019287109375
2093;56.03659439086914
2094;55.97138214111328
2095;55.906333923339844
2096;55.84141159057617
2097;55.776634216308594
2098;55.71198654174805
2099;55.64748001098633
2100;55.583099365234375
2101;55.518882751464844
2102;55.454795837402344
2103;55.39086151123047
2104;55.32703399658203
2105;55.26335906982422
2106;55.1998291015625
2107;55.13643264770508
2108;55.07316207885742
2109;55.01003646850586
2110;54.947059631347656
2111;54.88418960571289
2112;54.82147216796875
2113;54.758888244628906
2114;54.69643020629883
2115;54.63412857055664
2116;54.57194137573242
2117;54.50991439819336
2118;54.447994232177734
2119;54.3862190246582
2120;54.3245849609375
2121;54.263084411621094
2122;54.20171356201172
2123;54.14047622680664
2124;54.079376220703125
2125;54.01840591430664
2126;53.957557678222656
2127;53.89685821533203
2128;53.83629608154297
2129;53.77584457397461
2130;53.715553283691406
2131;53.6553840637207
2132;53.595340728759766
2133;53.53542709350586
2134;53.475643157958984
2135;53.415985107421875
2136;53.35647201538086
2137;53.297088623046875
2138;53.23784255981445
2139;53.178707122802734
2140;53.119712829589844
2141;53.060821533203125
2142;53.002105712890625
2143;52.943504333496094
2144;52.885032653808594
2145;52.8266716003418
2146;52.768455505371094
2147;52.710357666015625
2148;52.65240478515625
2149;52.594547271728516
2150;52.5368537902832
2151;52.479270935058594
2152;52.42181396484375
2153;52.36447525024414
2154;52.30730056762695
2155;52.250221252441406
2156;52.193275451660156
2157;52.13645553588867
2158;52.079769134521484
2159;52.02320098876953
2160;51.96676254272461
2161;51.91043472290039
2162;51.85425567626953
2163;51.79819107055664
2164;51.74226760864258
2165;51.68645095825195
2166;51.63077163696289
2167;51.5751953125
2168;51.51975631713867
2169;51.464454650878906
2170;51.409263610839844
2171;51.354190826416016
2172;51.29923629760742
2173;51.24441146850586
2174;51.18972396850586
2175;51.13515090942383
2176;51.08070755004883
2177;51.02637481689453
2178;50.97216033935547
2179;50.91806411743164
2180;50.86410140991211
2181;50.81026840209961
2182;50.75653839111328
2183;50.702938079833984
2184;50.64946746826172
2185;50.59611129760742
2186;50.54286575317383
2187;50.489749908447266
2188;50.436767578125
2189;50.383880615234375
2190;50.33113479614258
2191;50.278472900390625
2192;50.22597885131836
2193;50.1735725402832
2194;50.12129592895508
2195;50.06912612915039
2196;50.01708221435547
2197;49.96516036987305
2198;49.913368225097656
2199;49.86167526245117
2200;49.81010055541992
2201;49.75864028930664
2202;49.70730972290039
2203;49.65607833862305
2204;49.60498046875
2205;49.55400848388672
2206;49.50312042236328
2207;49.45237350463867
2208;49.401737213134766
2209;49.35122299194336
2210;49.300811767578125
2211;49.25052261352539
2212;49.20034408569336
2213;49.15028762817383
2214;49.100345611572266
2215;49.05051803588867
2216;49.00080108642578
2217;48.95119094848633
2218;48.90171432495117
2219;48.852352142333984
2220;48.80307388305664
2221;48.753936767578125
2222;48.70491409301758
2223;48.6559944152832
2224;48.607181549072266
2225;48.55849075317383
2226;48.50991439819336
2227;48.46146011352539
2228;48.4130973815918
2229;48.36484909057617
2230;48.31670379638672
2231;48.26869583129883
2232;48.22079086303711
2233;48.17298126220703
2234;48.12530517578125
2235;48.07773971557617
2236;48.03026580810547
2237;47.98291015625
2238;47.9356689453125
2239;47.88853073120117
2240;47.841514587402344
2241;47.79460525512695
2242;47.74779510498047
2243;47.70110321044922
2244;47.65451431274414
2245;47.608036041259766
2246;47.56167221069336
2247;47.51541519165039
2248;47.46925735473633
2249;47.42321014404297
2250;47.37728500366211
2251;47.33143997192383
2252;47.285728454589844
2253;47.240116119384766
2254;47.19461441040039
2255;47.14921951293945
2256;47.10393142700195
2257;47.058746337890625
2258;47.01366424560547
2259;46.96869659423828
2260;46.92382049560547
2261;46.87906265258789
2262;46.83441925048828
2263;46.78986358642578
2264;46.745418548583984
2265;46.70109176635742
2266;46.6568603515625
2267;46.61272430419922
2268;46.56869888305664
2269;46.5247802734375
2270;46.48096466064453
2271;46.437252044677734
2272;46.39364242553711
2273;46.350135803222656
2274;46.306732177734375
2275;46.263431549072266
2276;46.22024154663086
2277;46.17715835571289
2278;46.13417434692383
2279;46.09128189086914
2280;46.048500061035156
2281;46.00580978393555
2282;45.96323776245117
2283;45.92076873779297
2284;45.87839126586914
2285;45.83612060546875
2286;45.79393768310547
2287;45.75187301635742
2288;45.70989227294922
2289;45.66802215576172
2290;45.62625503540039
2291;45.58457565307617
2292;45.54301071166992
2293;45.50155258178711
2294;45.46017837524414
2295;45.41889572143555
2296;45.37772750854492
2297;45.33666229248047
2298;45.29570388793945
2299;45.25481414794922
2300;45.214046478271484
2301;45.173370361328125
2302;45.13278579711914
2303;45.09232711791992
2304;45.051937103271484
2305;45.01165771484375
2306;44.97146224975586
2307;44.93136978149414
2308;44.891395568847656
2309;44.851478576660156
2310;44.81168746948242
2311;44.771976470947266
2312;44.73238754272461
2313;44.692874908447266
2314;44.653480529785156
2315;44.6141471862793
2316;44.57494354248047
2317;44.535823822021484
2318;44.49678421020508
2319;44.457847595214844
2320;44.41899871826172
2321;44.38027572631836
2322;44.341617584228516
2323;44.30306625366211
2324;44.26460647583008
2325;44.22624969482422
2326;44.18796157836914
2327;44.1497917175293
2328;44.11170196533203
2329;44.07373046875
2330;44.035823822021484
2331;43.99802017211914
2332;43.96031951904297
2333;43.92268753051758
2334;43.885189056396484
2335;43.84774398803711
2336;43.81039810180664
2337;43.77315902709961
2338;43.73600387573242
2339;43.69892501831055
2340;43.6619758605957
2341;43.62508773803711
2342;43.58830642700195
2343;43.55160903930664
2344;43.514991760253906
2345;43.478477478027344
2346;43.442047119140625
2347;43.40570831298828
2348;43.36948013305664
2349;43.33332061767578
2350;43.29726028442383
2351;43.26128387451172
2352;43.225399017333984
2353;43.18958282470703
2354;43.15389633178711
2355;43.11825942993164
2356;43.082740783691406
2357;43.04729461669922
2358;43.0119514465332
2359;42.976680755615234
2360;42.94152069091797
2361;42.90643310546875
2362;42.87144088745117
2363;42.83652114868164
2364;42.80169677734375
2365;42.766963958740234
2366;42.7323112487793
2367;42.69775390625
2368;42.663291931152344
2369;42.628902435302734
2370;42.59458541870117
2371;42.56038284301758
2372;42.526241302490234
2373;42.49219512939453
2374;42.45824432373047
2375;42.424381256103516
2376;42.39059066772461
2377;42.35689926147461
2378;42.32327651977539
2379;42.28974151611328
2380;42.256309509277344
2381;42.222938537597656
2382;42.18966293334961
2383;42.15647506713867
2384;42.12336349487305
2385;42.09033966064453
2386;42.05739974975586
2387;42.02455520629883
2388;41.991783142089844
2389;41.959075927734375
2390;41.92647171020508
2391;41.893951416015625
2392;41.86153793334961
2393;41.82917404174805
2394;41.796897888183594
2395;41.76470184326172
2396;41.73259353637695
2397;41.7005615234375
2398;41.668617248535156
2399;41.63675308227539
2400;41.60498046875
2401;41.57327651977539
2402;41.541656494140625
2403;41.510128021240234
2404;41.478660583496094
2405;41.44728469848633
2406;41.41599655151367
2407;41.384769439697266
2408;41.35365676879883
2409;41.32259750366211
2410;41.29161834716797
2411;41.26072311401367
2412;41.229915618896484
2413;41.19917678833008
2414;41.16852569580078
2415;41.137943267822266
2416;41.10744094848633
2417;41.07703399658203
2418;41.04669952392578
2419;41.01644515991211
2420;40.98625946044922
2421;40.956153869628906
2422;40.926124572753906
2423;40.89617919921875
2424;40.866310119628906
2425;40.83651351928711
2426;40.80680465698242
2427;40.77717971801758
2428;40.74761962890625
2429;40.71812057495117
2430;40.68872833251953
2431;40.659393310546875
2432;40.63014602661133
2433;40.60095977783203
2434;40.571861267089844
2435;40.54282760620117
2436;40.51388931274414
2437;40.485008239746094
2438;40.456214904785156
2439;40.427490234375
2440;40.39884567260742
2441;40.370277404785156
2442;40.341793060302734
2443;40.31338119506836
2444;40.28502655029297
2445;40.25676345825195
2446;40.22855758666992
2447;40.200439453125
2448;40.17238998413086
2449;40.144412994384766
2450;40.116512298583984
2451;40.08869171142578
2452;40.0609245300293
2453;40.033267974853516
2454;40.00566482543945
2455;39.97814178466797
2456;39.950660705566406
2457;39.923274993896484
2458;39.89596939086914
2459;39.86872482299805
2460;39.84156036376953
2461;39.814456939697266
2462;39.78742599487305
2463;39.76047897338867
2464;39.73360061645508
2465;39.706790924072266
2466;39.68004608154297
2467;39.653377532958984
2468;39.62678146362305
2469;39.60027313232422
2470;39.57381057739258
2471;39.54743194580078
2472;39.5211181640625
2473;39.494873046875
2474;39.46870803833008
2475;39.44260025024414
2476;39.416568756103516
2477;39.3906135559082
2478;39.36471939086914
2479;39.33888626098633
2480;39.31313705444336
2481;39.28745651245117
2482;39.261837005615234
2483;39.236289978027344
2484;39.210819244384766
2485;39.1854133605957
2486;39.16006088256836
2487;39.13479232788086
2488;39.10959243774414
2489;39.08445358276367
2490;39.05939483642578
2491;39.03438949584961
2492;39.009456634521484
2493;38.984596252441406
2494;38.959800720214844
2495;38.93506622314453
2496;38.910404205322266
2497;38.88582229614258
2498;38.86128616333008
2499;38.83681106567383
2500;38.81243133544922
2501;38.78809356689453
2502;38.76383590698242
2503;38.7396240234375
2504;38.71549606323242
2505;38.691444396972656
2506;38.66744613647461
2507;38.64351272583008
2508;38.619632720947266
2509;38.5958366394043
2510;38.57210922241211
2511;38.548423767089844
2512;38.52481460571289
2513;38.50127029418945
2514;38.47779083251953
2515;38.454376220703125
2516;38.431034088134766
2517;38.40774154663086
2518;38.384521484375
2519;38.36137008666992
2520;38.33827590942383
2521;38.315242767333984
2522;38.292274475097656
2523;38.26935958862305
2524;38.246524810791016
2525;38.22374725341797
2526;38.2010498046875
2527;38.17837905883789
2528;38.15579605102539
2529;38.133262634277344
2530;38.11080551147461
2531;38.08841323852539
2532;38.06604766845703
2533;38.04378128051758
2534;38.02156448364258
2535;37.99941635131836
2536;37.97732925415039
2537;37.95529556274414
2538;37.93332290649414
2539;37.91141128540039
2540;37.889556884765625
2541;37.8677864074707
2542;37.84605026245117
2543;37.824398040771484
2544;37.80278396606445
2545;37.781246185302734
2546;37.759769439697266
2547;37.73833465576172
2548;37.716976165771484
2549;37.69567108154297
2550;37.67441940307617
2551;37.65323257446289
2552;37.63211441040039
2553;37.61104965209961
2554;37.59004592895508
2555;37.5691032409668
2556;37.5482063293457
2557;37.52736282348633
2558;37.50661087036133
2559;37.48588943481445
2560;37.46523666381836
2561;37.44464111328125
2562;37.42410659790039
2563;37.40362548828125
2564;37.38320541381836
2565;37.36283493041992
2566;37.342529296875
2567;37.32227325439453
2568;37.30208206176758
2569;37.28196334838867
2570;37.26188278198242
2571;37.24185562133789
2572;37.22188949584961
2573;37.201988220214844
2574;37.18213653564453
2575;37.16233444213867
2576;37.142608642578125
2577;37.12293243408203
2578;37.10329818725586
2579;37.083740234375
2580;37.06421661376953
2581;37.04476547241211
2582;37.02536392211914
2583;37.00600814819336
2584;36.986717224121094
2585;36.96747589111328
2586;36.94830322265625
2587;36.92918014526367
2588;36.91011428833008
2589;36.891082763671875
2590;36.87213134765625
2591;36.85321807861328
2592;36.83435821533203
2593;36.815574645996094
2594;36.79683303833008
2595;36.77813720703125
2596;36.759490966796875
2597;36.74091339111328
2598;36.72239303588867
2599;36.70391082763672
2600;36.68548583984375
2601;36.66712188720703
2602;36.648799896240234
2603;36.63054275512695
2604;36.612327575683594
2605;36.59416961669922
2606;36.5760612487793
2607;36.558013916015625
2608;36.540016174316406
2609;36.52206039428711
2610;36.504173278808594
2611;36.486328125
2612;36.46854019165039
2613;36.4507942199707
2614;36.43310546875
2615;36.41546630859375
2616;36.39788818359375
2617;36.38035583496094
2618;36.362876892089844
2619;36.345436096191406
2620;36.32805633544922
2621;36.31072235107422
2622;36.2934455871582
2623;36.276222229003906
2624;36.259037017822266
2625;36.241920471191406
2626;36.22483444213867
2627;36.20781326293945
2628;36.190834045410156
2629;36.173912048339844
2630;36.15703201293945
2631;36.14019775390625
2632;36.12342071533203
2633;36.10669708251953
2634;36.09000778198242
2635;36.07338333129883
2636;36.05681228637695
2637;36.040279388427734
2638;36.0237922668457
2639;36.007347106933594
2640;35.990970611572266
2641;35.97462463378906
2642;35.958351135253906
2643;35.942100524902344
2644;35.925907135009766
2645;35.90977096557617
2646;35.89366912841797
2647;35.87761306762695
2648;35.861610412597656
2649;35.84566116333008
2650;35.82975769042969
2651;35.813880920410156
2652;35.79808807373047
2653;35.782318115234375
2654;35.7666130065918
2655;35.750938415527344
2656;35.735313415527344
2657;35.71973419189453
2658;35.70419692993164
2659;35.688716888427734
2660;35.673282623291016
2661;35.657867431640625
2662;35.64255142211914
2663;35.627227783203125
2664;35.61199188232422
2665;35.59678268432617
2666;35.58161163330078
2667;35.566505432128906
2668;35.55142593383789
2669;35.53640365600586
2670;35.521419525146484
2671;35.506492614746094
2672;35.49160385131836
2673;35.47674560546875
2674;35.46196365356445
2675;35.44719314575195
2676;35.432491302490234
2677;35.417823791503906
2678;35.4032096862793
2679;35.388633728027344
2680;35.37409210205078
2681;35.3596076965332
2682;35.345149993896484
2683;35.33076095581055
2684;35.316402435302734
2685;35.302085876464844
2686;35.28782272338867
2687;35.273590087890625
2688;35.2594108581543
2689;35.245262145996094
2690;35.23115921020508
2691;35.217124938964844
2692;35.2031135559082
2693;35.189144134521484
2694;35.175209045410156
2695;35.16132736206055
2696;35.147483825683594
2697;35.13369369506836
2698;35.11991500854492
2699;35.1062126159668
2700;35.09254837036133
2701;35.078922271728516
2702;35.065338134765625
2703;35.05178451538086
2704;35.03827667236328
2705;35.024818420410156
2706;35.01140213012695
2707;34.99801254272461
2708;34.98468017578125
2709;34.97138977050781
2710;34.95811462402344
2711;34.944908142089844
2712;34.93172073364258
2713;34.918601989746094
2714;34.9055061340332
2715;34.89244842529297
2716;34.87944793701172
2717;34.86647415161133
2718;34.85353469848633
2719;34.840633392333984
2720;34.82778549194336
2721;34.81498336791992
2722;34.80220413208008
2723;34.78947067260742
2724;34.77678680419922
2725;34.764122009277344
2726;34.75151443481445
2727;34.73894119262695
2728;34.726402282714844
2729;34.713905334472656
2730;34.701446533203125
2731;34.689029693603516
2732;34.676666259765625
2733;34.66431427001953
2734;34.652008056640625
2735;34.639732360839844
2736;34.627525329589844
2737;34.61533737182617
2738;34.60319900512695
2739;34.591068267822266
2740;34.579002380371094
2741;34.566959381103516
2742;34.55496597290039
2743;34.54301452636719
2744;34.53110122680664
2745;34.51920700073242
2746;34.50736618041992
2747;34.49555206298828
2748;34.4837760925293
2749;34.472049713134766
2750;34.460365295410156
2751;34.44868850708008
2752;34.437076568603516
2753;34.42549514770508
2754;34.413936614990234
2755;34.402408599853516
2756;34.39094924926758
2757;34.379478454589844
2758;34.368099212646484
2759;34.356719970703125
2760;34.34539031982422
2761;34.3340950012207
2762;34.32284164428711
2763;34.31162643432617
2764;34.3004264831543
2765;34.289276123046875
2766;34.27817916870117
2767;34.267086029052734
2768;34.256046295166016
2769;34.245025634765625
2770;34.23406219482422
2771;34.223114013671875
2772;34.21221160888672
2773;34.20135498046875
2774;34.19050979614258
2775;34.17970275878906
2776;34.1689338684082
2777;34.158206939697266
2778;34.14751052856445
2779;34.136863708496094
2780;34.1262321472168
2781;34.11563491821289
2782;34.10507583618164
2783;34.09455490112305
2784;34.08405685424805
2785;34.073612213134766
2786;34.06317138671875
2787;34.052791595458984
2788;34.042423248291016
2789;34.032100677490234
2790;34.021820068359375
2791;34.011573791503906
2792;34.00135040283203
2793;33.99115753173828
2794;33.98099899291992
2795;33.970863342285156
2796;33.960784912109375
2797;33.95071792602539
2798;33.94070053100586
2799;33.93070602416992
2800;33.92076110839844
2801;33.910823822021484
2802;33.90092849731445
2803;33.891075134277344
2804;33.88124084472656
2805;33.87145233154297
2806;33.86167526245117
2807;33.8519401550293
2808;33.84224319458008
2809;33.83256912231445
2810;33.82292938232422
2811;33.813331604003906
2812;33.80375289916992
2813;33.7942008972168
2814;33.78466796875
2815;33.775211334228516
2816;33.76575469970703
2817;33.75634002685547
2818;33.746952056884766
2819;33.73759078979492
2820;33.7282600402832
2821;33.718955993652344
2822;33.70970916748047
2823;33.70047378540039
2824;33.6912727355957
2825;33.682098388671875
2826;33.6729621887207
2827;33.66384506225586
2828;33.654754638671875
2829;33.64569854736328
2830;33.636688232421875
2831;33.627689361572266
2832;33.61873245239258
2833;33.60979461669922
2834;33.60089874267578
2835;33.5920295715332
2836;33.58318328857422
2837;33.57434844970703
2838;33.56557083129883
2839;33.556819915771484
2840;33.548099517822266
2841;33.53940200805664
2842;33.530738830566406
2843;33.52210235595703
2844;33.51347351074219
2845;33.5048942565918
2846;33.49634552001953
2847;33.48781967163086
2848;33.47932434082031
2849;33.47085952758789
2850;33.46241760253906
2851;33.45400619506836
2852;33.44563674926758
2853;33.43726348876953
2854;33.4289436340332
2855;33.420650482177734
2856;33.41238021850586
2857;33.404136657714844
2858;33.39591598510742
2859;33.38773727416992
2860;33.37957763671875
2861;33.371456146240234
2862;33.36334228515625
2863;33.355262756347656
2864;33.347225189208984
2865;33.33919143676758
2866;33.33120346069336
2867;33.32322311401367
2868;33.31529998779297
2869;33.307376861572266
2870;33.29949188232422
2871;33.2916259765625
2872;33.28380584716797
2873;33.27598190307617
2874;33.26820755004883
2875;33.26044845581055
2876;33.25273895263672
2877;33.245033264160156
2878;33.237361907958984
2879;33.229705810546875
2880;33.222076416015625
2881;33.21449661254883
2882;33.20692443847656
2883;33.19938278198242
2884;33.191856384277344
2885;33.18437576293945
2886;33.17689895629883
2887;33.16946792602539
2888;33.16204833984375
2889;33.1546516418457
2890;33.147300720214844
2891;33.13996124267578
2892;33.13262939453125
2893;33.12535095214844
2894;33.11809539794922
2895;33.11084747314453
2896;33.10363006591797
2897;33.0964469909668
2898;33.08928680419922
2899;33.08214569091797
2900;33.07503890991211
2901;33.06793975830078
2902;33.06089401245117
2903;33.053836822509766
2904;33.046844482421875
2905;33.039852142333984
2906;33.03288650512695
2907;33.02593231201172
2908;33.01901626586914
2909;33.01211166381836
2910;33.0052490234375
2911;32.99839401245117
2912;32.99158477783203
2913;32.98477554321289
2914;32.97800064086914
2915;32.971256256103516
2916;32.96451950073242
2917;32.95782470703125
2918;32.95112991333008
2919;32.944480895996094
2920;32.93783950805664
2921;32.93122100830078
2922;32.92464828491211
2923;32.91807174682617
2924;32.911529541015625
2925;32.905006408691406
2926;32.89851760864258
2927;32.89204788208008
2928;32.88558578491211
2929;32.87916946411133
2930;32.872772216796875
2931;32.86639404296875
2932;32.86002731323242
2933;32.85368728637695
2934;32.84736251831055
2935;32.8410758972168
2936;32.834800720214844
2937;32.82854080200195
2938;32.82233428955078
2939;32.816131591796875
2940;32.80994415283203
2941;32.803775787353516
2942;32.797637939453125
2943;32.7915153503418
2944;32.78543472290039
2945;32.77935028076172
2946;32.7733154296875
2947;32.767276763916016
2948;32.76128387451172
2949;32.75528335571289
2950;32.74932098388672
2951;32.74337387084961
2952;32.737449645996094
2953;32.73155975341797
2954;32.72565460205078
2955;32.719810485839844
2956;32.71397018432617
2957;32.7081413269043
2958;32.70235061645508
2959;32.69657516479492
2960;32.690818786621094
2961;32.68507766723633
2962;32.67937469482422
2963;32.67367172241211
2964;32.668006896972656
2965;32.662353515625
2966;32.656707763671875
2967;32.651100158691406
2968;32.64551544189453
2969;32.63994216918945
2970;32.63438034057617
2971;32.62885665893555
2972;32.62334442138672
2973;32.61785125732422
2974;32.612388610839844
2975;32.60692596435547
2976;32.601497650146484
2977;32.5960807800293
2978;32.590694427490234
2979;32.58531951904297
2980;32.5799560546875
2981;32.57463836669922
2982;32.5693244934082
2983;32.56401824951172
2984;32.558738708496094
2985;32.55348587036133
2986;32.54824447631836
2987;32.54302978515625
2988;32.5378303527832
2989;32.53263854980469
2990;32.527469635009766
2991;32.522335052490234
2992;32.5172004699707
2993;32.5120964050293
2994;32.507015228271484
2995;32.50194549560547
2996;32.496910095214844
2997;32.49185562133789
2998;32.48684310913086
2999;32.48185348510742
