;loss
0;1321.97607421875
1;1321.40087890625
2;1320.63037109375
3;1319.86279296875
4;1319.1446533203125
5;1318.382080078125
6;1317.62158203125
7;1316.8634033203125
8;1316.1070556640625
9;1315.3525390625
10;1314.6031494140625
11;1313.851318359375
12;1313.100341796875
13;1312.3475341796875
14;1311.59716796875
15;1310.8465576171875
16;1310.0894775390625
17;1309.3304443359375
18;1308.575927734375
19;1307.81201171875
20;1307.0447998046875
21;1306.2744140625
22;1305.500244140625
23;1304.7215576171875
24;1303.9383544921875
25;1303.150146484375
26;1302.356201171875
27;1301.5565185546875
28;1300.7501220703125
29;1299.9366455078125
30;1299.115478515625
31;1298.296142578125
32;1297.46826171875
33;1296.621337890625
34;1295.7744140625
35;1294.90771484375
36;1294.0396728515625
37;1293.1505126953125
38;1292.2491455078125
39;1291.3446044921875
40;1290.4266357421875
41;1289.484619140625
42;1288.527587890625
43;1287.5545654296875
44;1286.5655517578125
45;1285.55908203125
46;1284.54443359375
47;1283.5010986328125
48;1282.43798828125
49;1281.35400390625
50;1280.24853515625
51;1279.120361328125
52;1277.9681396484375
53;1276.791259765625
54;1275.587890625
55;1274.36767578125
56;1273.1192626953125
57;1271.83056640625
58;1270.521240234375
59;1269.1796875
60;1267.804443359375
61;1266.3828125
62;1264.9234619140625
63;1263.4366455078125
64;1261.8980712890625
65;1260.316650390625
66;1258.7022705078125
67;1257.0294189453125
68;1255.30712890625
69;1253.5330810546875
70;1251.703857421875
71;1249.8175048828125
72;1247.8839111328125
73;1245.8741455078125
74;1243.8115234375
75;1241.6788330078125
76;1239.4593505859375
77;1237.1614990234375
78;1234.781494140625
79;1232.31494140625
80;1229.7569580078125
81;1227.1171875
82;1224.35986328125
83;1221.49365234375
84;1218.5299072265625
85;1215.4285888671875
86;1212.19873046875
87;1208.85107421875
88;1205.3603515625
89;1201.7171630859375
90;1197.892333984375
91;1193.9158935546875
92;1189.7584228515625
93;1185.409423828125
94;1180.8560791015625
95;1176.087646484375
96;1171.0916748046875
97;1165.8548583984375
98;1160.3353271484375
99;1154.5738525390625
100;1148.5294189453125
101;1142.188720703125
102;1135.5399169921875
103;1128.5699462890625
104;1121.2705078125
105;1113.6334228515625
106;1105.65283203125
107;1097.293212890625
108;1088.6334228515625
109;1079.648193359375
110;1070.3603515625
111;1060.8004150390625
112;1050.9658203125
113;1040.993896484375
114;1030.905029296875
115;1020.7838745117188
116;1010.7197265625
117;1000.7850341796875
118;991.064453125
119;981.696044921875
120;972.7919921875
121;964.3034057617188
122;956.3123779296875
123;948.802734375
124;941.767333984375
125;935.2216796875
126;929.1690673828125
127;923.5494995117188
128;918.3539428710938
129;913.492431640625
130;908.951904296875
131;904.6738891601562
132;900.620361328125
133;896.769775390625
134;893.0814819335938
135;889.5355834960938
136;886.1150512695312
137;882.808349609375
138;879.6004028320312
139;876.485595703125
140;873.4430541992188
141;870.4873046875
142;867.59765625
143;864.7787475585938
144;862.0361938476562
145;859.3485107421875
146;856.7327270507812
147;854.1697998046875
148;851.6617431640625
149;849.2133178710938
150;846.807861328125
151;844.458984375
152;842.14697265625
153;839.8765869140625
154;837.65185546875
155;835.4637451171875
156;833.3038330078125
157;831.176025390625
158;829.07861328125
159;827.0164794921875
160;824.9758911132812
161;822.9683227539062
162;820.98583984375
163;819.0271606445312
164;817.0866088867188
165;815.173583984375
166;813.275146484375
167;811.3966674804688
168;809.5404052734375
169;807.7012329101562
170;805.872802734375
171;804.0640869140625
172;802.2695922851562
173;800.489013671875
174;798.7171020507812
175;796.9636840820312
176;795.2236938476562
177;793.4965209960938
178;791.7815551757812
179;790.07421875
180;788.3786010742188
181;786.6944580078125
182;785.0260009765625
183;783.3685913085938
184;781.7186279296875
185;780.083740234375
186;778.4600219726562
187;776.847412109375
188;775.2456665039062
189;773.6541748046875
190;772.069091796875
191;770.494384765625
192;768.9296875
193;767.3745727539062
194;765.828857421875
195;764.2926635742188
196;762.7659301757812
197;761.2484130859375
198;759.7432861328125
199;758.2471923828125
200;756.7599487304688
201;755.2815551757812
202;753.8117065429688
203;752.3468627929688
204;750.8905029296875
205;749.4456176757812
206;748.0086669921875
207;746.5765991210938
208;745.1553955078125
209;743.7391967773438
210;742.3305053710938
211;740.929443359375
212;739.5360107421875
213;738.1526489257812
214;736.7737426757812
215;735.402099609375
216;734.0374755859375
217;732.6798706054688
218;731.33203125
219;729.9910888671875
220;728.6541748046875
221;727.3239135742188
222;726.0029907226562
223;724.6859130859375
224;723.3778076171875
225;722.0761108398438
226;720.780517578125
227;719.4913940429688
228;718.2083129882812
229;716.931396484375
230;715.660400390625
231;714.392822265625
232;713.1311645507812
233;711.8754272460938
234;710.6256103515625
235;709.3836669921875
236;708.1453247070312
237;706.913330078125
238;705.6874389648438
239;704.468017578125
240;703.2564697265625
241;702.0481567382812
242;700.8456420898438
243;699.6488037109375
244;698.4592895507812
245;697.2732543945312
246;696.092529296875
247;694.9187622070312
248;693.7498779296875
249;692.5838623046875
250;691.4225463867188
251;690.2655029296875
252;689.1129760742188
253;687.9667358398438
254;686.822998046875
255;685.6834106445312
256;684.5498657226562
257;683.4204711914062
258;682.2951049804688
259;681.173583984375
260;680.0543212890625
261;678.938720703125
262;677.8270874023438
263;676.7210083007812
264;675.6168823242188
265;674.5164794921875
266;673.419921875
267;672.3267822265625
268;671.2373657226562
269;670.1533203125
270;669.0711669921875
271;667.9943237304688
272;666.9193115234375
273;665.8477783203125
274;664.779541015625
275;663.7147216796875
276;662.6532592773438
277;661.5952758789062
278;660.5404663085938
279;659.4905395507812
280;658.4421997070312
281;657.3986206054688
282;656.357177734375
283;655.3204345703125
284;654.2852783203125
285;653.253173828125
286;652.2240600585938
287;651.1981811523438
288;650.175537109375
289;649.157470703125
290;648.14208984375
291;647.128173828125
292;646.1173706054688
293;645.109375
294;644.1040649414062
295;643.1016235351562
296;642.1019287109375
297;641.1062622070312
298;640.11328125
299;639.1228637695312
300;638.135009765625
301;637.1497802734375
302;636.1670532226562
303;635.1867065429688
304;634.2089233398438
305;633.233642578125
306;632.2608032226562
307;631.2903442382812
308;630.3223266601562
309;629.356689453125
310;628.3919067382812
311;627.4296875
312;626.4696044921875
313;625.5132446289062
314;624.5578002929688
315;623.6058349609375
316;622.6561889648438
317;621.7086791992188
318;620.7622680664062
319;619.8179931640625
320;618.8770141601562
321;617.937255859375
322;616.9995727539062
323;616.0640258789062
324;615.130615234375
325;614.19921875
326;613.271240234375
327;612.343994140625
328;611.4189453125
329;610.495849609375
330;609.575927734375
331;608.6568603515625
332;607.7398681640625
333;606.8247680664062
334;605.9115600585938
335;605.0004272460938
336;604.0911865234375
337;603.1839599609375
338;602.2797241210938
339;601.3762817382812
340;600.4747314453125
341;599.5750122070312
342;598.6771850585938
343;597.7824096679688
344;596.8882446289062
345;595.9959716796875
346;595.1066284179688
347;594.2190551757812
348;593.333251953125
349;592.4493408203125
350;591.5670166015625
351;590.685546875
352;589.806884765625
353;588.928955078125
354;588.0526733398438
355;587.17919921875
356;586.306396484375
357;585.436279296875
358;584.5670166015625
359;583.7002563476562
360;582.834228515625
361;581.970947265625
362;581.1082763671875
363;580.247314453125
364;579.388916015625
365;578.5321655273438
366;577.6770629882812
367;576.823486328125
368;575.9716186523438
369;575.121337890625
370;574.271728515625
371;573.4236450195312
372;572.578125
373;571.7332153320312
374;570.890869140625
375;570.049072265625
376;569.2088623046875
377;568.3710327148438
378;567.5340576171875
379;566.6984252929688
380;565.8644409179688
381;565.03271484375
382;564.2025756835938
383;563.3739013671875
384;562.5468139648438
385;561.7211303710938
386;560.89697265625
387;560.0743408203125
388;559.2530517578125
389;558.4323120117188
390;557.6131591796875
391;556.79541015625
392;555.97998046875
393;555.1651611328125
394;554.3526611328125
395;553.5413818359375
396;552.731689453125
397;551.92333984375
398;551.1155395507812
399;550.3092651367188
400;549.505126953125
401;548.7015380859375
402;547.8994140625
403;547.0986328125
404;546.2991943359375
405;545.5020141601562
406;544.7061157226562
407;543.9108276367188
408;543.1176147460938
409;542.3250122070312
410;541.5338745117188
411;540.743896484375
412;539.9560546875
413;539.1695556640625
414;538.3843994140625
415;537.599853515625
416;536.8165283203125
417;536.0346069335938
418;535.254638671875
419;534.4758911132812
420;533.6986083984375
421;532.9218139648438
422;532.1471557617188
423;531.3728637695312
424;530.6006469726562
425;529.8289184570312
426;529.0585327148438
427;528.2893676757812
428;527.5215454101562
429;526.755615234375
430;525.9902954101562
431;525.226806640625
432;524.464599609375
433;523.70361328125
434;522.9440307617188
435;522.184814453125
436;521.4275512695312
437;520.6715698242188
438;519.916015625
439;519.1616821289062
440;518.4093017578125
441;517.6580810546875
442;516.9074096679688
443;516.157958984375
444;515.4103393554688
445;514.6638793945312
446;513.9186401367188
447;513.174560546875
448;512.4310302734375
449;511.6886901855469
450;510.9480895996094
451;510.2086486816406
452;509.4698791503906
453;508.73284912109375
454;507.9968566894531
455;507.2615051269531
456;506.5279541015625
457;505.79541015625
458;505.0634765625
459;504.3332824707031
460;503.6036682128906
461;502.8757629394531
462;502.14892578125
463;501.4227294921875
464;500.6982421875
465;499.97412109375
466;499.2512512207031
467;498.5294189453125
468;497.8088073730469
469;497.0892333984375
470;496.3707580566406
471;495.6539306640625
472;494.9383239746094
473;494.2237548828125
474;493.51031494140625
475;492.7978515625
476;492.0865478515625
477;491.3763122558594
478;490.6671447753906
479;489.9591064453125
480;489.2520751953125
481;488.5461730957031
482;487.84075927734375
483;487.1368713378906
484;486.43365478515625
485;485.73138427734375
486;485.03021240234375
487;484.330078125
488;483.6316223144531
489;482.93414306640625
490;482.2371826171875
491;481.5412292480469
492;480.8468933105469
493;480.1531066894531
494;479.4602355957031
495;478.76898193359375
496;478.0788879394531
497;477.38970947265625
498;476.7010192871094
499;476.0138244628906
500;475.3277587890625
501;474.64263916015625
502;473.9586181640625
503;473.2755432128906
504;472.5929870605469
505;471.9114074707031
506;471.2308349609375
507;470.55181884765625
508;469.8732604980469
509;469.1956787109375
510;468.5191650390625
511;467.8440246582031
512;467.16949462890625
513;466.4959411621094
514;465.8238525390625
515;465.1527099609375
516;464.4821472167969
517;463.81292724609375
518;463.1448669433594
519;462.4776611328125
520;461.81097412109375
521;461.1451416015625
522;460.4808349609375
523;459.8170471191406
524;459.15423583984375
525;458.4923400878906
526;457.8319091796875
527;457.17193603515625
528;456.5130310058594
529;455.85540771484375
530;455.1983642578125
531;454.54217529296875
532;453.887451171875
533;453.23321533203125
534;452.5799560546875
535;451.9275207519531
536;451.27618408203125
537;450.6261291503906
538;449.97705078125
539;449.3289489746094
540;448.6812438964844
541;448.0345153808594
542;447.38909912109375
543;446.7442626953125
544;446.1007080078125
545;445.4581604003906
546;444.8164978027344
547;444.17572021484375
548;443.535888671875
549;442.896484375
550;442.25848388671875
551;441.62139892578125
552;440.9851989746094
553;440.3498840332031
554;439.7154541015625
555;439.08197021484375
556;438.448974609375
557;437.8172912597656
558;437.18646240234375
559;436.55615234375
560;435.9271240234375
561;435.2989501953125
562;434.67138671875
563;434.04461669921875
564;433.4192199707031
565;432.79461669921875
566;432.1705322265625
567;431.5477294921875
568;430.92584228515625
569;430.30474853515625
570;429.6845703125
571;429.0653076171875
572;428.4468994140625
573;427.829345703125
574;427.21270751953125
575;426.5965270996094
576;425.9815673828125
577;425.3670654296875
578;424.75384521484375
579;424.1415100097656
580;423.5296630859375
581;422.9190673828125
582;422.3092956542969
583;421.70001220703125
584;421.09197998046875
585;420.4844970703125
586;419.8781433105469
587;419.27276611328125
588;418.6680908203125
589;418.0643310546875
590;417.4614562988281
591;416.8594665527344
592;416.2583312988281
593;415.6579895019531
594;415.05859375
595;414.4595642089844
596;413.86181640625
597;413.2644958496094
598;412.6684265136719
599;412.0727844238281
600;411.4783935546875
601;410.8847961425781
602;410.2920837402344
603;409.70013427734375
604;409.1090087890625
605;408.5184020996094
606;407.9288635253906
607;407.3403015136719
608;406.7525329589844
609;406.16552734375
610;405.5793151855469
611;404.9939880371094
612;404.4091491699219
613;403.8254699707031
614;403.2425537109375
615;402.6601257324219
616;402.0788269042969
617;401.4983825683594
618;400.91864013671875
619;400.3397521972656
620;399.7613830566406
621;399.1841125488281
622;398.6076354980469
623;398.0315856933594
624;397.4566955566406
625;396.88226318359375
626;396.3089599609375
627;395.73614501953125
628;395.1644592285156
629;394.5935363769531
630;394.02337646484375
631;393.4537353515625
632;392.8851623535156
633;392.3174133300781
634;391.7501220703125
635;391.1835632324219
636;390.6177978515625
637;390.0531311035156
638;389.4892883300781
639;388.92620849609375
640;388.363525390625
641;387.80169677734375
642;387.24053955078125
643;386.68048095703125
644;386.1213073730469
645;385.5627746582031
646;385.0047607421875
647;384.44781494140625
648;383.8913269042969
649;383.3355712890625
650;382.78082275390625
651;382.22698974609375
652;381.673828125
653;381.12139892578125
654;380.56976318359375
655;380.0188903808594
656;379.46881103515625
657;378.91937255859375
658;378.3707275390625
659;377.8228759765625
660;377.2757263183594
661;376.7293701171875
662;376.1837158203125
663;375.6387939453125
664;375.0946044921875
665;374.5509338378906
666;374.0079345703125
667;373.4660339355469
668;372.9245910644531
669;372.3841552734375
670;371.84442138671875
671;371.30517578125
672;370.7666931152344
673;370.2288818359375
674;369.6917724609375
675;369.1554870605469
676;368.6199645996094
677;368.0850830078125
678;367.55096435546875
679;367.017578125
680;366.4851379394531
681;365.95318603515625
682;365.4222412109375
683;364.89178466796875
684;364.3619689941406
685;363.83294677734375
686;363.30462646484375
687;362.77728271484375
688;362.2503967285156
689;361.7242431640625
690;361.1987609863281
691;360.6742858886719
692;360.1502685546875
693;359.6272277832031
694;359.1046142578125
695;358.582763671875
696;358.0617980957031
697;357.5415954589844
698;357.0218505859375
699;356.5028076171875
700;355.9844665527344
701;355.46685791015625
702;354.9501037597656
703;354.4341735839844
704;353.9188232421875
705;353.4040222167969
706;352.89013671875
707;352.3767395019531
708;351.86419677734375
709;351.3524475097656
710;350.8413391113281
711;350.3309326171875
712;349.8209228515625
713;349.31195068359375
714;348.8033752441406
715;348.2955322265625
716;347.7882995605469
717;347.2820739746094
718;346.7765197753906
719;346.2716064453125
720;345.7672119140625
721;345.2634582519531
722;344.7606201171875
723;344.2584228515625
724;343.75701904296875
725;343.2562561035156
726;342.7561340332031
727;342.2567138671875
728;341.75775146484375
729;341.2594299316406
730;340.7618408203125
731;340.2651672363281
732;339.7690734863281
733;339.27374267578125
734;338.77880859375
735;338.2845458984375
736;337.7911376953125
737;337.29833984375
738;336.8062744140625
739;336.31494140625
740;335.8242492675781
741;335.3340148925781
742;334.8446960449219
743;334.3558044433594
744;333.8675537109375
745;333.3800048828125
746;332.893310546875
747;332.40728759765625
748;331.9219055175781
749;331.43701171875
750;330.9529724121094
751;330.4693298339844
752;329.9866027832031
753;329.5043029785156
754;329.0228576660156
755;328.5421142578125
756;328.0619812011719
757;327.58251953125
758;327.1036682128906
759;326.6256103515625
760;326.1480712890625
761;325.6711730957031
762;325.19500732421875
763;324.71942138671875
764;324.2445068359375
765;323.7699890136719
766;323.2961730957031
767;322.8229675292969
768;322.3504638671875
769;321.8785400390625
770;321.4072570800781
771;320.9366455078125
772;320.4668884277344
773;319.9977111816406
774;319.5292053222656
775;319.0613098144531
776;318.5941162109375
777;318.1275634765625
778;317.66156005859375
779;317.1961975097656
780;316.7315673828125
781;316.26751708984375
782;315.8041076660156
783;315.3412780761719
784;314.8789367675781
785;314.4172058105469
786;313.9562683105469
787;313.49609375
788;313.03619384765625
789;312.5769348144531
790;312.11859130859375
791;311.66064453125
792;311.2032470703125
793;310.7467346191406
794;310.2906494140625
795;309.8351745605469
796;309.3803405761719
797;308.92626953125
798;308.47283935546875
799;308.0198669433594
800;307.5675048828125
801;307.1159362792969
802;306.6649475097656
803;306.2146911621094
804;305.764892578125
805;305.31561279296875
806;304.8669128417969
807;304.4188537597656
808;303.971435546875
809;303.5247802734375
810;303.0784912109375
811;302.6329345703125
812;302.1878662109375
813;301.74346923828125
814;301.2996826171875
815;300.8565368652344
816;300.4140930175781
817;299.9720764160156
818;299.5307312011719
819;299.0899658203125
820;298.6499938964844
821;298.2104187011719
822;297.7715759277344
823;297.33343505859375
824;296.8958435058594
825;296.4588317871094
826;296.0224304199219
827;295.5866394042969
828;295.1512756347656
829;294.7166748046875
830;294.28265380859375
831;293.8492431640625
832;293.4164123535156
833;292.9842224121094
834;292.5523986816406
835;292.1211853027344
836;291.6905517578125
837;291.2607116699219
838;290.831298828125
839;290.40240478515625
840;289.97418212890625
841;289.54669189453125
842;289.1195983886719
843;288.6932373046875
844;288.2673645019531
845;287.84197998046875
846;287.41729736328125
847;286.9931640625
848;286.5697326660156
849;286.146728515625
850;285.7244873046875
851;285.30279541015625
852;284.88165283203125
853;284.4610290527344
854;284.0409240722656
855;283.6214599609375
856;283.2024841308594
857;282.7840881347656
858;282.3665466308594
859;281.9494934082031
860;281.5328369140625
861;281.11676025390625
862;280.7012939453125
863;280.2864990234375
864;279.8723449707031
865;279.4585876464844
866;279.04541015625
867;278.6327819824219
868;278.2206726074219
869;277.8092041015625
870;277.3984680175781
871;276.9882507324219
872;276.5785827636719
873;276.1693420410156
874;275.7608642578125
875;275.3529052734375
876;274.9455871582031
877;274.5386047363281
878;274.1322937011719
879;273.72662353515625
880;273.3213195800781
881;272.9167175292969
882;272.5125732421875
883;272.1090087890625
884;271.7061462402344
885;271.30377197265625
886;270.9020080566406
887;270.5006408691406
888;270.09991455078125
889;269.6996765136719
890;269.3000183105469
891;268.9008483886719
892;268.50225830078125
893;268.1043701171875
894;267.7070617675781
895;267.31011962890625
896;266.91387939453125
897;266.5181579589844
898;266.1229553222656
899;265.7283935546875
900;265.33428955078125
901;264.9405517578125
902;264.547607421875
903;264.1550598144531
904;263.7630615234375
905;263.37164306640625
906;262.980712890625
907;262.5904846191406
908;262.2008056640625
909;261.8116760253906
910;261.4230651855469
911;261.03485107421875
912;260.647216796875
913;260.26007080078125
914;259.8736572265625
915;259.4876708984375
916;259.1021728515625
917;258.7171630859375
918;258.332763671875
919;257.9489440917969
920;257.5656433105469
921;257.1829833984375
922;256.80084228515625
923;256.4192199707031
924;256.0381774902344
925;255.65757751464844
926;255.27755737304688
927;254.89805603027344
928;254.5191192626953
929;254.14056396484375
930;253.7625274658203
931;253.38507080078125
932;253.00811767578125
933;252.6316680908203
934;252.2557830810547
935;251.88043212890625
936;251.50550842285156
937;251.13134765625
938;250.757568359375
939;250.38424682617188
940;250.0116424560547
941;249.639404296875
942;249.2677459716797
943;248.89654541015625
944;248.52598571777344
945;248.1559295654297
946;247.78643798828125
947;247.41744995117188
948;247.04896545410156
949;246.680908203125
950;246.31333923339844
951;245.9462890625
952;245.579833984375
953;245.21380615234375
954;244.84835815429688
955;244.4833984375
956;244.11903381347656
957;243.7552032470703
958;243.3917694091797
959;243.02891540527344
960;242.66661071777344
961;242.30474853515625
962;241.943359375
963;241.58251953125
964;241.22213745117188
965;240.86227416992188
966;240.50306701660156
967;240.1442108154297
968;239.78602600097656
969;239.42822265625
970;239.07098388671875
971;238.71424865722656
972;238.35801696777344
973;238.0023651123047
974;237.64707946777344
975;237.29226684570312
976;236.93809509277344
977;236.58441162109375
978;236.23117065429688
979;235.87838745117188
980;235.52615356445312
981;235.17434692382812
982;234.8230743408203
983;234.47227478027344
984;234.12200927734375
985;233.77227783203125
986;233.423095703125
987;233.07432556152344
988;232.72601318359375
989;232.3783416748047
990;232.03114318847656
991;231.6844024658203
992;231.33816528320312
993;230.992431640625
994;230.64724731445312
995;230.30242919921875
996;229.9580841064453
997;229.61419677734375
998;229.27093505859375
999;228.92819213867188
1000;228.5858612060547
1001;228.24395751953125
1002;227.90252685546875
1003;227.56163024902344
1004;227.2212371826172
1005;226.88128662109375
1006;226.5418243408203
1007;226.20291137695312
1008;225.86444091796875
1009;225.52645874023438
1010;225.1890411376953
1011;224.8520965576172
1012;224.51556396484375
1013;224.17962646484375
1014;223.84405517578125
1015;223.5089569091797
1016;223.17434692382812
1017;222.84022521972656
1018;222.50660705566406
1019;222.17352294921875
1020;221.84091186523438
1021;221.5087127685547
1022;221.17697143554688
1023;220.84580993652344
1024;220.5150909423828
1025;220.18484497070312
1026;219.85498046875
1027;219.52566528320312
1028;219.19676208496094
1029;218.8683624267578
1030;218.5404510498047
1031;218.21295166015625
1032;217.8860321044922
1033;217.5594940185547
1034;217.23345947265625
1035;216.9078826904297
1036;216.58287048339844
1037;216.25839233398438
1038;215.93418884277344
1039;215.61053466796875
1040;215.2872772216797
1041;214.9645233154297
1042;214.6422576904297
1043;214.32044982910156
1044;213.99911499023438
1045;213.67828369140625
1046;213.35800170898438
1047;213.0380401611328
1048;212.71856689453125
1049;212.3995361328125
1050;212.0809783935547
1051;211.76290893554688
1052;211.44525146484375
1053;211.12808227539062
1054;210.81146240234375
1055;210.49520874023438
1056;210.17942810058594
1057;209.86407470703125
1058;209.5492401123047
1059;209.23480224609375
1060;208.92083740234375
1061;208.6073455810547
1062;208.2943115234375
1063;207.98178100585938
1064;207.66969299316406
1065;207.35800170898438
1066;207.04684448242188
1067;206.73617553710938
1068;206.42596435546875
1069;206.11622619628906
1070;205.806884765625
1071;205.49790954589844
1072;205.1894989013672
1073;204.8815460205078
1074;204.57403564453125
1075;204.2668914794922
1076;203.96017456054688
1077;203.6539764404297
1078;203.34817504882812
1079;203.04283142089844
1080;202.7379608154297
1081;202.4335479736328
1082;202.12954711914062
1083;201.82601928710938
1084;201.52296447753906
1085;201.22035217285156
1086;200.91815185546875
1087;200.61636352539062
1088;200.3151092529297
1089;200.01426696777344
1090;199.71392822265625
1091;199.4138946533203
1092;199.1143341064453
1093;198.81524658203125
1094;198.5166473388672
1095;198.2183837890625
1096;197.92071533203125
1097;197.6233367919922
1098;197.3264617919922
1099;197.02996826171875
1100;196.73403930664062
1101;196.43849182128906
1102;196.1433868408203
1103;195.8487548828125
1104;195.55445861816406
1105;195.26060485839844
1106;194.96726989746094
1107;194.67425537109375
1108;194.3817901611328
1109;194.08973693847656
1110;193.79803466796875
1111;193.50680541992188
1112;193.2159881591797
1113;192.9256134033203
1114;192.6356658935547
1115;192.34616088867188
1116;192.05706787109375
1117;191.7684326171875
1118;191.48016357421875
1119;191.19236755371094
1120;190.90499877929688
1121;190.61810302734375
1122;190.33157348632812
1123;190.04547119140625
1124;189.75979614257812
1125;189.4746551513672
1126;189.18983459472656
1127;188.90557861328125
1128;188.62161254882812
1129;188.33807373046875
1130;188.0550079345703
1131;187.77236938476562
1132;187.4901580810547
1133;187.20840454101562
1134;186.927001953125
1135;186.64599609375
1136;186.36544799804688
1137;186.0853271484375
1138;185.80560302734375
1139;185.52626037597656
1140;185.24740600585938
1141;184.96896362304688
1142;184.69100952148438
1143;184.41336059570312
1144;184.13616943359375
1145;183.85943603515625
1146;183.58306884765625
1147;183.30714416503906
1148;183.03167724609375
1149;182.7565155029297
1150;182.48187255859375
1151;182.20753479003906
1152;181.9336395263672
1153;181.6602325439453
1154;181.3872528076172
1155;181.11468505859375
1156;180.8424072265625
1157;180.5706024169922
1158;180.29916381835938
1159;180.0281982421875
1160;179.7576446533203
1161;179.48748779296875
1162;179.21766662597656
1163;178.94834899902344
1164;178.67938232421875
1165;178.41082763671875
1166;178.1427764892578
1167;177.87501525878906
1168;177.60772705078125
1169;177.3407745361328
1170;177.07431030273438
1171;176.80816650390625
1172;176.54246520996094
1173;176.2771453857422
1174;176.01226806640625
1175;175.747802734375
1176;175.48377990722656
1177;175.22006225585938
1178;174.95684814453125
1179;174.6940155029297
1180;174.43157958984375
1181;174.16949462890625
1182;173.90786743164062
1183;173.64659118652344
1184;173.38568115234375
1185;173.12521362304688
1186;172.86517333984375
1187;172.6054229736328
1188;172.3461456298828
1189;172.0872344970703
1190;171.82875061035156
1191;171.57061767578125
1192;171.31292724609375
1193;171.0555877685547
1194;170.7986602783203
1195;170.54214477539062
1196;170.2860107421875
1197;170.0302734375
1198;169.77496337890625
1199;169.5199737548828
1200;169.26551818847656
1201;169.01136779785156
1202;168.75759887695312
1203;168.50425720214844
1204;168.2512664794922
1205;167.9986572265625
1206;167.74647521972656
1207;167.49456787109375
1208;167.24314880371094
1209;166.99212646484375
1210;166.741455078125
1211;166.49114990234375
1212;166.24136352539062
1213;165.99191284179688
1214;165.7428436279297
1215;165.49411010742188
1216;165.2457733154297
1217;164.997802734375
1218;164.75022888183594
1219;164.50303649902344
1220;164.25628662109375
1221;164.00987243652344
1222;163.76380920410156
1223;163.51815795898438
1224;163.27293395996094
1225;163.028076171875
1226;162.78359985351562
1227;162.53948974609375
1228;162.29574584960938
1229;162.0524139404297
1230;161.80938720703125
1231;161.56678771972656
1232;161.32461547851562
1233;161.08274841308594
1234;160.84132385253906
1235;160.60020446777344
1236;160.35955810546875
1237;160.11917114257812
1238;159.87925720214844
1239;159.63966369628906
1240;159.4004364013672
1241;159.1615753173828
1242;158.9231414794922
1243;158.68502807617188
1244;158.44732666015625
1245;158.2099609375
1246;157.9729766845703
1247;157.73641967773438
1248;157.50018310546875
1249;157.26438903808594
1250;157.02891540527344
1251;156.79376220703125
1252;156.55905151367188
1253;156.3247528076172
1254;156.0907745361328
1255;155.85711669921875
1256;155.6239013671875
1257;155.3909912109375
1258;155.15846252441406
1259;154.92628479003906
1260;154.69451904296875
1261;154.46307373046875
1262;154.23199462890625
1263;154.00137329101562
1264;153.7710723876953
1265;153.54107666015625
1266;153.31146240234375
1267;153.08224487304688
1268;152.8533477783203
1269;152.6248779296875
1270;152.396728515625
1271;152.1689453125
1272;151.94151306152344
1273;151.71441650390625
1274;151.48776245117188
1275;151.26144409179688
1276;151.03546142578125
1277;150.80984497070312
1278;150.58462524414062
1279;150.35971069335938
1280;150.13516235351562
1281;149.91098022460938
1282;149.68714904785156
1283;149.46372985839844
1284;149.24058532714844
1285;149.01785278320312
1286;148.7954559326172
1287;148.57339477539062
1288;148.35171508789062
1289;148.13043212890625
1290;147.90948486328125
1291;147.68882751464844
1292;147.4686279296875
1293;147.24867248535156
1294;147.02919006347656
1295;146.80999755859375
1296;146.59112548828125
1297;146.37261962890625
1298;146.15452575683594
1299;145.93670654296875
1300;145.71925354003906
1301;145.502197265625
1302;145.28546142578125
1303;145.06910705566406
1304;144.85308837890625
1305;144.63735961914062
1306;144.4219970703125
1307;144.20697021484375
1308;143.99227905273438
1309;143.77801513671875
1310;143.56402587890625
1311;143.35040283203125
1312;143.1371612548828
1313;142.9242401123047
1314;142.7116241455078
1315;142.4993896484375
1316;142.28746032714844
1317;142.07595825195312
1318;141.86473083496094
1319;141.65386962890625
1320;141.44338989257812
1321;141.23318481445312
1322;141.02333068847656
1323;140.81381225585938
1324;140.60462951660156
1325;140.3958282470703
1326;140.1873779296875
1327;139.979248046875
1328;139.77146911621094
1329;139.56399536132812
1330;139.35690307617188
1331;139.1500701904297
1332;138.943603515625
1333;138.73748779296875
1334;138.53167724609375
1335;138.3262939453125
1336;138.12115478515625
1337;137.9164276123047
1338;137.71200561523438
1339;137.50787353515625
1340;137.3040771484375
1341;137.10061645507812
1342;136.89752197265625
1343;136.69468688964844
1344;136.49224853515625
1345;136.29013061523438
1346;136.08836364746094
1347;135.88693237304688
1348;135.68577575683594
1349;135.4850311279297
1350;135.28457641601562
1351;135.0843963623047
1352;134.88462829589844
1353;134.6851348876953
1354;134.4859619140625
1355;134.2871551513672
1356;134.08865356445312
1357;133.8905487060547
1358;133.69271850585938
1359;133.4951934814453
1360;133.29803466796875
1361;133.1011962890625
1362;132.90469360351562
1363;132.70851135253906
1364;132.51263427734375
1365;132.31703186035156
1366;132.121826171875
1367;131.9269256591797
1368;131.7323760986328
1369;131.53810119628906
1370;131.34417724609375
1371;131.1505584716797
1372;130.9572296142578
1373;130.76426696777344
1374;130.57159423828125
1375;130.37930297851562
1376;130.18727111816406
1377;129.99557495117188
1378;129.80426025390625
1379;129.6132049560547
1380;129.42247009277344
1381;129.23202514648438
1382;129.0419464111328
1383;128.85220336914062
1384;128.6627655029297
1385;128.47360229492188
1386;128.2847900390625
1387;128.09625244140625
1388;127.90805053710938
1389;127.72014617919922
1390;127.53263092041016
1391;127.34539031982422
1392;127.15846252441406
1393;126.97188568115234
1394;126.78559112548828
1395;126.599609375
1396;126.41390228271484
1397;126.22856903076172
1398;126.04347229003906
1399;125.85871124267578
1400;125.67427825927734
1401;125.49015045166016
1402;125.30632781982422
1403;125.12283325195312
1404;124.93960571289062
1405;124.75672912597656
1406;124.57415008544922
1407;124.39187622070312
1408;124.20992279052734
1409;124.02826690673828
1410;123.846923828125
1411;123.66587829589844
1412;123.48516082763672
1413;123.30471801757812
1414;123.12460327148438
1415;122.94483947753906
1416;122.76529693603516
1417;122.58612823486328
1418;122.40724182128906
1419;122.2286376953125
1420;122.05036163330078
1421;121.87238311767578
1422;121.69468688964844
1423;121.51734924316406
1424;121.34029388427734
1425;121.16349029541016
1426;120.98702239990234
1427;120.81082153320312
1428;120.63494110107422
1429;120.4593505859375
1430;120.28408813476562
1431;120.109130859375
1432;119.93446350097656
1433;119.76009368896484
1434;119.58599090576172
1435;119.41220092773438
1436;119.23873138427734
1437;119.06552124023438
1438;118.89263153076172
1439;118.72006225585938
1440;118.54776000976562
1441;118.37576293945312
1442;118.20404815673828
1443;118.03262329101562
1444;117.86148834228516
1445;117.69068908691406
1446;117.52012634277344
1447;117.34990692138672
1448;117.17996215820312
1449;117.01029205322266
1450;116.8409423828125
1451;116.67185974121094
1452;116.50306701660156
1453;116.3345947265625
1454;116.16639709472656
1455;115.99850463867188
1456;115.83090209960938
1457;115.66355895996094
1458;115.49652862548828
1459;115.32979583740234
1460;115.16336822509766
1461;114.99720764160156
1462;114.83132934570312
1463;114.66574096679688
1464;114.50045776367188
1465;114.33543395996094
1466;114.17074584960938
1467;114.00633239746094
1468;113.8421630859375
1469;113.67829895019531
1470;113.5147476196289
1471;113.3514404296875
1472;113.18843841552734
1473;113.02570343017578
1474;112.86326599121094
1475;112.70108795166016
1476;112.53923797607422
1477;112.37760925292969
1478;112.21634674072266
1479;112.0553207397461
1480;111.89456176757812
1481;111.73410034179688
1482;111.57389068603516
1483;111.41400909423828
1484;111.25437927246094
1485;111.09503936767578
1486;110.93598937988281
1487;110.77719116210938
1488;110.61869049072266
1489;110.4604721069336
1490;110.30248260498047
1491;110.14483642578125
1492;109.98745727539062
1493;109.83032989501953
1494;109.67350769042969
1495;109.51693725585938
1496;109.36070251464844
1497;109.20470428466797
1498;109.04898834228516
1499;108.89352416992188
