;loss
0;1322.5150146484375
1;1321.8477783203125
2;1321.2738037109375
3;1320.603515625
4;1319.9312744140625
5;1319.2568359375
6;1318.57958984375
7;1317.8990478515625
8;1317.2152099609375
9;1316.52685546875
10;1315.83740234375
11;1315.139404296875
12;1314.4359130859375
13;1313.723388671875
14;1313.00634765625
15;1312.28173828125
16;1311.5487060546875
17;1310.8004150390625
18;1310.049072265625
19;1309.27978515625
20;1308.5072021484375
21;1307.72314453125
22;1306.9271240234375
23;1306.1087646484375
24;1305.2760009765625
25;1304.4388427734375
26;1303.576171875
27;1302.697509765625
28;1301.8018798828125
29;1300.88818359375
30;1299.966796875
31;1299.02587890625
32;1298.053466796875
33;1297.05908203125
34;1296.04150390625
35;1295.011474609375
36;1293.94482421875
37;1292.863525390625
38;1291.75439453125
39;1290.6036376953125
40;1289.4217529296875
41;1288.2197265625
42;1286.9832763671875
43;1285.69775390625
44;1284.37353515625
45;1283.0225830078125
46;1281.62939453125
47;1280.177734375
48;1278.6785888671875
49;1277.1436767578125
50;1275.5423583984375
51;1273.884765625
52;1272.1839599609375
53;1270.40673828125
54;1268.58056640625
55;1266.6866455078125
56;1264.721435546875
57;1262.68115234375
58;1260.5438232421875
59;1258.33984375
60;1256.029296875
61;1253.6431884765625
62;1251.15869140625
63;1248.570068359375
64;1245.8719482421875
65;1243.0576171875
66;1240.10009765625
67;1237.0340576171875
68;1233.8096923828125
69;1230.4407958984375
70;1226.91943359375
71;1223.2376708984375
72;1219.3865966796875
73;1215.357421875
74;1211.14013671875
75;1206.72705078125
76;1202.107421875
77;1197.30322265625
78;1192.27783203125
79;1186.9888916015625
80;1181.49365234375
81;1175.71923828125
82;1169.69091796875
83;1163.44287109375
84;1156.9019775390625
85;1150.1021728515625
86;1143.0875244140625
87;1135.788330078125
88;1128.2564697265625
89;1120.5479736328125
90;1112.64404296875
91;1104.530029296875
92;1096.2777099609375
93;1087.919677734375
94;1079.497802734375
95;1071.05126953125
96;1062.6258544921875
97;1054.264404296875
98;1046.0126953125
99;1037.95068359375
100;1030.0421142578125
101;1022.3551635742188
102;1014.953125
103;1007.7919921875
104;1000.923583984375
105;994.3628540039062
106;988.111572265625
107;982.190673828125
108;976.5659790039062
109;971.232177734375
110;966.1852416992188
111;961.4057006835938
112;956.8655395507812
113;952.5892944335938
114;948.519287109375
115;944.6803588867188
116;941.025146484375
117;937.5606689453125
118;934.2413330078125
119;931.0608520507812
120;928.0090942382812
121;925.0849609375
122;922.2516479492188
123;919.5147705078125
124;916.8753051757812
125;914.3065185546875
126;911.8131713867188
127;909.396484375
128;907.0418701171875
129;904.7368774414062
130;902.4929809570312
131;900.2969360351562
132;898.1387329101562
133;896.0235595703125
134;893.948486328125
135;891.9130249023438
136;889.9208374023438
137;887.9556884765625
138;886.0223388671875
139;884.1192016601562
140;882.250732421875
141;880.4075317382812
142;878.5818481445312
143;876.784912109375
144;875.003662109375
145;873.2426147460938
146;871.5009155273438
147;869.7833251953125
148;868.0775146484375
149;866.3894653320312
150;864.7179565429688
151;863.067138671875
152;861.431396484375
153;859.809814453125
154;858.202392578125
155;856.6036987304688
156;855.0174560546875
157;853.44384765625
158;851.8871459960938
159;850.3419799804688
160;848.80810546875
161;847.284912109375
162;845.7684936523438
163;844.2622680664062
164;842.7660522460938
165;841.2838745117188
166;839.8070678710938
167;838.3396606445312
168;836.8815307617188
169;835.4321899414062
170;833.9956665039062
171;832.5671997070312
172;831.1430053710938
173;829.7304077148438
174;828.3217163085938
175;826.9207153320312
176;825.5305786132812
177;824.1438598632812
178;822.7640991210938
179;821.3947143554688
180;820.0284423828125
181;818.672119140625
182;817.322265625
183;815.9752807617188
184;814.6345825195312
185;813.3032836914062
186;811.9744873046875
187;810.6548461914062
188;809.337646484375
189;808.0262451171875
190;806.7203369140625
191;805.423095703125
192;804.131103515625
193;802.8414916992188
194;801.557373046875
195;800.2811279296875
196;799.007080078125
197;797.738037109375
198;796.4739379882812
199;795.2174682617188
200;793.9630126953125
201;792.7131958007812
202;791.4708251953125
203;790.230224609375
204;788.996826171875
205;787.7651977539062
206;786.5404663085938
207;785.3201293945312
208;784.1014404296875
209;782.8870239257812
210;781.6768798828125
211;780.473388671875
212;779.2714233398438
213;778.0761108398438
214;776.8846435546875
215;775.6972045898438
216;774.51123046875
217;773.3291625976562
218;772.153564453125
219;770.9791259765625
220;769.8108520507812
221;768.6442260742188
222;767.4835205078125
223;766.323974609375
224;765.1681518554688
225;764.015869140625
226;762.8670043945312
227;761.7218017578125
228;760.579833984375
229;759.4437255859375
230;758.3084716796875
231;757.1788330078125
232;756.0501708984375
233;754.9269409179688
234;753.8068237304688
235;752.6898193359375
236;751.5737915039062
237;750.4609985351562
238;749.3511962890625
239;748.246337890625
240;747.1444091796875
241;746.0454711914062
242;744.9476318359375
243;743.8525390625
244;742.7623291015625
245;741.6729125976562
246;740.5881958007812
247;739.50634765625
248;738.42724609375
249;737.3489990234375
250;736.2734375
251;735.2005615234375
252;734.1301879882812
253;733.0626220703125
254;731.9976806640625
255;730.9368896484375
256;729.8770751953125
257;728.821533203125
258;727.7685546875
259;726.7179565429688
260;725.6680908203125
261;724.6207275390625
262;723.57568359375
263;722.534912109375
264;721.496337890625
265;720.4602661132812
266;719.426513671875
267;718.39501953125
268;717.3641967773438
269;716.335693359375
270;715.3094482421875
271;714.2854614257812
272;713.2638549804688
273;712.2459716796875
274;711.2302856445312
275;710.21533203125
276;709.2024536132812
277;708.1917114257812
278;707.1832885742188
279;706.1768798828125
280;705.1725463867188
281;704.1703491210938
282;703.1717529296875
283;702.17529296875
284;701.1808471679688
285;700.1868896484375
286;699.196533203125
287;698.2081909179688
288;697.2203979492188
289;696.2344360351562
290;695.2520751953125
291;694.2716674804688
292;693.291748046875
293;692.313720703125
294;691.3391723632812
295;690.366455078125
296;689.394287109375
297;688.424072265625
298;687.45556640625
299;686.490478515625
300;685.5271606445312
301;684.565673828125
302;683.6047973632812
303;682.6470336914062
304;681.6911010742188
305;680.7356567382812
306;679.781982421875
307;678.830078125
308;677.8800659179688
309;676.9329223632812
310;675.9877319335938
311;675.04296875
312;674.1011962890625
313;673.159912109375
314;672.2203369140625
315;671.28369140625
316;670.3475341796875
317;669.4131469726562
318;668.4815673828125
319;667.550537109375
320;666.622314453125
321;665.6959228515625
322;664.7709350585938
323;663.8465576171875
324;662.9249877929688
325;662.0050659179688
326;661.0855102539062
327;660.167724609375
328;659.2513427734375
329;658.3366088867188
330;657.423583984375
331;656.5132446289062
332;655.603271484375
333;654.6950073242188
334;653.7882080078125
335;652.8829345703125
336;651.9793090820312
337;651.0783081054688
338;650.1776733398438
339;649.2786254882812
340;648.381103515625
341;647.485107421875
342;646.590576171875
343;645.6975708007812
344;644.8060913085938
345;643.9161376953125
346;643.027587890625
347;642.1415405273438
348;641.257080078125
349;640.3740234375
350;639.492431640625
351;638.6112060546875
352;637.7325439453125
353;636.855224609375
354;635.9783935546875
355;635.1039428710938
356;634.22998046875
357;633.3572998046875
358;632.486083984375
359;631.6173706054688
360;630.7499389648438
361;629.8829956054688
362;629.0183715820312
363;628.1551513671875
364;627.2933349609375
365;626.432861328125
366;625.57275390625
367;624.714111328125
368;623.8577270507812
369;623.001708984375
370;622.1480102539062
371;621.294677734375
372;620.442626953125
373;619.592041015625
374;618.7427978515625
375;617.895751953125
376;617.049072265625
377;616.2037963867188
378;615.3596801757812
379;614.517822265625
380;613.6774291992188
381;612.8372802734375
382;611.9984130859375
383;611.161865234375
384;610.3255004882812
385;609.4906616210938
386;608.6577758789062
387;607.8253784179688
388;606.9942016601562
389;606.1652221679688
390;605.33740234375
391;604.510009765625
392;603.6846923828125
393;602.8597412109375
394;602.0361938476562
395;601.2137451171875
396;600.3933715820312
397;599.573486328125
398;598.7547607421875
399;597.9381103515625
400;597.121826171875
401;596.3067626953125
402;595.4928588867188
403;594.6802978515625
404;593.8688354492188
405;593.059326171875
406;592.2510986328125
407;591.4432983398438
408;590.6365966796875
409;589.8311157226562
410;589.027587890625
411;588.2244873046875
412;587.422607421875
413;586.621826171875
414;585.8221435546875
415;585.0244750976562
416;584.2272338867188
417;583.431884765625
418;582.6376953125
419;581.8446044921875
420;581.052734375
421;580.2619018554688
422;579.4722900390625
423;578.6830444335938
424;577.8949584960938
425;577.1087036132812
426;576.3235473632812
427;575.53955078125
428;574.7559814453125
429;573.9742431640625
430;573.1928100585938
431;572.413330078125
432;571.6349487304688
433;570.8567504882812
434;570.0798950195312
435;569.3040771484375
436;568.529296875
437;567.7557373046875
438;566.9838256835938
439;566.2124633789062
440;565.4420166015625
441;564.6727294921875
442;563.904541015625
443;563.137451171875
444;562.371337890625
445;561.6071166992188
446;560.8430786132812
447;560.080322265625
448;559.318603515625
449;558.5578002929688
450;557.7981567382812
451;557.0396118164062
452;556.2820434570312
453;555.5255737304688
454;554.7701416015625
455;554.016357421875
456;553.2637329101562
457;552.5114135742188
458;551.7608032226562
459;551.01123046875
460;550.2626342773438
461;549.5144653320312
462;548.767333984375
463;548.0218505859375
464;547.2767944335938
465;546.53271484375
466;545.7896728515625
467;545.047607421875
468;544.306640625
469;543.5667114257812
470;542.828369140625
471;542.09033203125
472;541.3533325195312
473;540.617431640625
474;539.883056640625
475;539.149169921875
476;538.4160766601562
477;537.6847534179688
478;536.954345703125
479;536.224365234375
480;535.4959716796875
481;534.7680053710938
482;534.0415649414062
483;533.3155517578125
484;532.5910034179688
485;531.866943359375
486;531.1443481445312
487;530.4228515625
488;529.7022705078125
489;528.982666015625
490;528.263916015625
491;527.545654296875
492;526.828369140625
493;526.112060546875
494;525.3966674804688
495;524.6827392578125
496;523.9698486328125
497;523.2572631835938
498;522.5457153320312
499;521.8351440429688
