;loss
0;1323.27734375
1;1322.6923828125
2;1321.9097900390625
3;1321.1314697265625
4;1320.357177734375
5;1319.619384765625
6;1318.85205078125
7;1318.08740234375
8;1317.3360595703125
9;1316.582763671875
10;1315.827880859375
11;1315.0703125
12;1314.313232421875
13;1313.55615234375
14;1312.7945556640625
15;1312.03076171875
16;1311.2696533203125
17;1310.5062255859375
18;1309.7322998046875
19;1308.95361328125
20;1308.170166015625
21;1307.388916015625
22;1306.6015625
23;1305.797607421875
24;1304.994873046875
25;1304.1734619140625
26;1303.35205078125
27;1302.509521484375
28;1301.6650390625
29;1300.8077392578125
30;1299.9364013671875
31;1299.0396728515625
32;1298.13720703125
33;1297.217529296875
34;1296.2685546875
35;1295.310546875
36;1294.331298828125
37;1293.330078125
38;1292.2935791015625
39;1291.231689453125
40;1290.154541015625
41;1289.037353515625
42;1287.90185546875
43;1286.7347412109375
44;1285.5340576171875
45;1284.2850341796875
46;1283.01025390625
47;1281.695068359375
48;1280.33740234375
49;1278.9208984375
50;1277.468505859375
51;1275.96435546875
52;1274.4049072265625
53;1272.7857666015625
54;1271.08837890625
55;1269.3365478515625
56;1267.51171875
57;1265.59130859375
58;1263.58447265625
59;1261.484130859375
60;1259.3006591796875
61;1257.00927734375
62;1254.582275390625
63;1252.026123046875
64;1249.35009765625
65;1246.5234375
66;1243.531982421875
67;1240.337646484375
68;1236.94287109375
69;1233.327880859375
70;1229.470458984375
71;1225.374755859375
72;1220.98681640625
73;1216.2755126953125
74;1211.173095703125
75;1205.6685791015625
76;1199.7562255859375
77;1193.353759765625
78;1186.40771484375
79;1178.8616943359375
80;1170.6051025390625
81;1161.681640625
82;1151.9385986328125
83;1141.39794921875
84;1130.12841796875
85;1118.1197509765625
86;1105.4775390625
87;1092.3673095703125
88;1078.9376220703125
89;1065.5076904296875
90;1052.3218994140625
91;1039.6546630859375
92;1027.58349609375
93;1016.141357421875
94;1005.4850463867188
95;995.5552368164062
96;986.3323364257812
97;977.7772216796875
98;969.841064453125
99;962.4666748046875
100;955.5657348632812
101;949.1471557617188
102;943.1012573242188
103;937.4164428710938
104;932.082275390625
105;927.020263671875
106;922.233642578125
107;917.6944580078125
108;913.402587890625
109;909.3013305664062
110;905.3949584960938
111;901.6798095703125
112;898.1246948242188
113;894.718994140625
114;891.4502563476562
115;888.3069458007812
116;885.2787475585938
117;882.3555297851562
118;879.5306396484375
119;876.7969970703125
120;874.1375732421875
121;871.5679321289062
122;869.073486328125
123;866.6474609375
124;864.2769165039062
125;861.9751586914062
126;859.720947265625
127;857.5192260742188
128;855.3732299804688
129;853.274169921875
130;851.2106323242188
131;849.1864013671875
132;847.20556640625
133;845.2584838867188
134;843.343505859375
135;841.4523315429688
136;839.5894165039062
137;837.7532348632812
138;835.948974609375
139;834.1688232421875
140;832.4121704101562
141;830.6715698242188
142;828.9576416015625
143;827.2630615234375
144;825.5816040039062
145;823.918212890625
146;822.2774658203125
147;820.6530151367188
148;819.0443115234375
149;817.4508666992188
150;815.8720703125
151;814.3024291992188
152;812.7510375976562
153;811.2125854492188
154;809.6821899414062
155;808.1683349609375
156;806.661865234375
157;805.1669921875
158;803.6832275390625
159;802.2103271484375
160;800.7520141601562
161;799.3037719726562
162;797.8652954101562
163;796.4363403320312
164;795.0167846679688
165;793.606201171875
166;792.2044067382812
167;790.8073120117188
168;789.4224243164062
169;788.0419311523438
170;786.6731567382812
171;785.3123779296875
172;783.9591064453125
173;782.6097412109375
174;781.271240234375
175;779.9398193359375
176;778.6156616210938
177;777.2982788085938
178;775.984619140625
179;774.677490234375
180;773.3770141601562
181;772.0830688476562
182;770.798583984375
183;769.5204467773438
184;768.245361328125
185;766.9794921875
186;765.7195434570312
187;764.4656982421875
188;763.2147827148438
189;761.9724731445312
190;760.7328491210938
191;759.50146484375
192;758.2755737304688
193;757.0548706054688
194;755.8362426757812
195;754.6256713867188
196;753.4198608398438
197;752.2191162109375
198;751.0231323242188
199;749.831787109375
200;748.6450805664062
201;747.4602661132812
202;746.280029296875
203;745.1043701171875
204;743.9329223632812
205;742.765869140625
206;741.602783203125
207;740.4464721679688
208;739.2916870117188
209;738.1408081054688
210;736.9962158203125
211;735.85546875
212;734.718505859375
213;733.5852661132812
214;732.455810546875
215;731.3275756835938
216;730.202880859375
217;729.0840454101562
218;727.9664306640625
219;726.852294921875
220;725.74365234375
221;724.638427734375
222;723.5341796875
223;722.4332275390625
224;721.3355102539062
225;720.2430419921875
226;719.1516723632812
227;718.0634155273438
228;716.9780883789062
229;715.8959350585938
230;714.8189086914062
231;713.7447509765625
232;712.673583984375
233;711.6054077148438
234;710.5400390625
235;709.4774780273438
236;708.417724609375
237;707.35888671875
238;706.3046875
239;705.2532958984375
240;704.2025146484375
241;703.1546020507812
242;702.1112060546875
243;701.0704345703125
244;700.0323486328125
245;698.996826171875
246;697.9619750976562
247;696.9296264648438
248;695.9016723632812
249;694.8744506835938
250;693.8513793945312
251;692.8291625976562
252;691.8091430664062
253;690.79345703125
254;689.7800903320312
255;688.7691040039062
256;687.760498046875
257;686.754150390625
258;685.7501831054688
259;684.7467651367188
260;683.747314453125
261;682.7501220703125
262;681.7534790039062
263;680.7607421875
264;679.770263671875
265;678.7819213867188
266;677.7941284179688
267;676.81005859375
268;675.82666015625
269;674.846923828125
270;673.8693237304688
271;672.8922119140625
272;671.9187622070312
273;670.9459228515625
274;669.97509765625
275;669.0078125
276;668.0426025390625
277;667.0780029296875
278;666.1153564453125
279;665.1561279296875
280;664.1989135742188
281;663.2423095703125
282;662.2891235351562
283;661.3363647460938
284;660.3856811523438
285;659.4368896484375
286;658.489990234375
287;657.544921875
288;656.6019287109375
289;655.6622924804688
290;654.722900390625
291;653.785400390625
292;652.8499145507812
293;651.9161987304688
294;650.9843139648438
295;650.05419921875
296;649.1259765625
297;648.2008056640625
298;647.276123046875
299;646.353271484375
300;645.4334106445312
301;644.5140991210938
302;643.596435546875
303;642.6819458007812
304;641.7691650390625
305;640.858154296875
306;639.9475708007812
307;639.0386962890625
308;638.131591796875
309;637.227294921875
310;636.323486328125
311;635.422607421875
312;634.522216796875
313;633.6246337890625
314;632.7276000976562
315;631.83203125
316;630.9393310546875
317;630.04833984375
318;629.158935546875
319;628.269775390625
320;627.3836059570312
321;626.497802734375
322;625.613525390625
323;624.73193359375
324;623.8519897460938
325;622.9734497070312
326;622.0964965820312
327;621.2210693359375
328;620.3472290039062
329;619.474853515625
330;618.6028442382812
331;617.732421875
332;616.8634033203125
333;615.9970092773438
334;615.132080078125
335;614.267578125
336;613.4055786132812
337;612.5439453125
338;611.683837890625
339;610.8262329101562
340;609.969970703125
341;609.1151733398438
342;608.2607421875
343;607.4088745117188
344;606.5582885742188
345;605.709228515625
346;604.8615112304688
347;604.01513671875
348;603.1692504882812
349;602.32470703125
350;601.4825439453125
351;600.6416625976562
352;599.80224609375
353;598.9641723632812
354;598.12646484375
355;597.2901000976562
356;596.455078125
357;595.6223754882812
358;594.7900390625
359;593.9591064453125
360;593.13037109375
361;592.302978515625
362;591.4760131835938
363;590.6502685546875
364;589.825927734375
365;589.0028686523438
366;588.1810302734375
367;587.360595703125
368;586.5413818359375
369;585.7234497070312
370;584.90771484375
371;584.0924072265625
372;583.2782592773438
373;582.4664306640625
374;581.6548461914062
375;580.8445434570312
376;580.036376953125
377;579.2294921875
378;578.4238891601562
379;577.6184692382812
380;576.8153686523438
381;576.0125732421875
382;575.2117919921875
383;574.411376953125
384;573.6123046875
385;572.815185546875
386;572.0193481445312
387;571.223876953125
388;570.4295654296875
389;569.636474609375
390;568.8446044921875
391;568.053955078125
392;567.264404296875
393;566.4761352539062
394;565.68896484375
395;564.9030151367188
396;564.1183471679688
397;563.334716796875
398;562.5530395507812
399;561.7726440429688
400;560.9925537109375
401;560.2145385742188
402;559.4375
403;558.6617431640625
404;557.8863525390625
405;557.1127319335938
406;556.339599609375
407;555.568359375
408;554.7982788085938
409;554.0292358398438
410;553.2607421875
411;552.493896484375
412;551.7283325195312
413;550.9638061523438
414;550.200439453125
415;549.4375
416;548.6763305664062
417;547.9163208007812
418;547.1566772460938
419;546.3982543945312
420;545.6408081054688
421;544.8851928710938
422;544.1300659179688
423;543.3759765625
424;542.623046875
425;541.87109375
426;541.120361328125
427;540.3706665039062
428;539.6220703125
429;538.875244140625
430;538.1287841796875
431;537.3842163085938
432;536.6399536132812
433;535.8967895507812
434;535.1554565429688
435;534.4143676757812
436;533.6743774414062
437;532.9354858398438
438;532.1976928710938
439;531.461669921875
440;530.725830078125
441;529.9918212890625
442;529.2581787109375
443;528.5262451171875
444;527.7953491210938
445;527.0647583007812
446;526.3352661132812
447;525.6068115234375
448;524.8800048828125
449;524.1541748046875
450;523.429443359375
451;522.7049560546875
452;521.982177734375
453;521.260498046875
454;520.5391235351562
455;519.8193969726562
456;519.1000366210938
457;518.3822631835938
458;517.66552734375
459;516.9491577148438
460;516.2344970703125
461;515.5206298828125
462;514.8073120117188
463;514.095458984375
464;513.3847045898438
465;512.6749267578125
466;511.9660949707031
467;511.2575988769531
468;510.5501403808594
469;509.8436279296875
470;509.138671875
471;508.4347229003906
472;507.7312316894531
473;507.0286560058594
474;506.3270263671875
475;505.6263122558594
476;504.9266357421875
477;504.2283935546875
478;503.53125
479;502.8349609375
480;502.1396484375
481;501.44525146484375
482;500.7518310546875
483;500.0588073730469
484;499.36676025390625
485;498.6761474609375
486;497.9859924316406
487;497.2967529296875
488;496.6085205078125
489;495.9217224121094
490;495.23583984375
491;494.5504150390625
492;493.8658447265625
493;493.1827697753906
494;492.5001220703125
495;491.81890869140625
496;491.1385192871094
497;490.4591369628906
498;489.78076171875
499;489.1031799316406
500;488.4265441894531
501;487.7507629394531
502;487.0760192871094
503;486.4015197753906
504;485.72802734375
505;485.0558776855469
506;484.38421630859375
507;483.71331787109375
508;483.04345703125
509;482.3748779296875
510;481.7073059082031
511;481.0406494140625
512;480.3747253417969
513;479.7093200683594
514;479.0447692871094
515;478.3810729980469
516;477.71826171875
517;477.0568542480469
518;476.3963317871094
519;475.7361755371094
520;475.0773010253906
521;474.41943359375
522;473.7619323730469
523;473.1052551269531
524;472.4499206542969
525;471.7950439453125
526;471.1414489746094
527;470.48828125
528;469.8359375
529;469.1844482421875
530;468.5343017578125
531;467.8850402832031
532;467.2361755371094
533;466.5881042480469
534;465.94097900390625
535;465.2945861816406
536;464.6491394042969
537;464.00494384765625
538;463.3616027832031
539;462.71917724609375
540;462.07708740234375
541;461.4358215332031
542;460.79541015625
543;460.15582275390625
544;459.517578125
545;458.8800354003906
546;458.2430419921875
547;457.6072082519531
548;456.9718017578125
549;456.3372802734375
550;455.7034912109375
551;455.07061767578125
552;454.4389343261719
553;453.80767822265625
554;453.1772766113281
555;452.54766845703125
556;451.9193115234375
557;451.2917175292969
558;450.6645812988281
559;450.0382385253906
560;449.4131164550781
561;448.78887939453125
562;448.1653747558594
563;447.5422668457031
564;446.9204406738281
565;446.29937744140625
566;445.67913818359375
567;445.05926513671875
568;444.4406433105469
569;443.82281494140625
570;443.20574951171875
571;442.5895690917969
572;441.9741516113281
573;441.3594970703125
574;440.7452392578125
575;440.1318054199219
576;439.5191345214844
577;438.9076843261719
578;438.2969970703125
579;437.6867370605469
580;437.0776672363281
581;436.4689636230469
582;435.8614807128906
583;435.2547302246094
584;434.6488037109375
585;434.0435791015625
586;433.4388427734375
587;432.83526611328125
588;432.2320556640625
589;431.629638671875
590;431.0284423828125
591;430.4275207519531
592;429.8274230957031
593;429.2281188964844
594;428.6295471191406
595;428.03216552734375
596;427.4351806640625
597;426.8393249511719
598;426.2442321777344
599;425.64990234375
600;425.05633544921875
601;424.4631652832031
602;423.8708190917969
603;423.2792053222656
604;422.6886901855469
605;422.09893798828125
606;421.5098876953125
607;420.92132568359375
608;420.3334655761719
609;419.7467956542969
610;419.16046142578125
611;418.5748596191406
612;417.9901123046875
613;417.4060974121094
614;416.82275390625
615;416.2402038574219
616;415.6584167480469
617;415.07769775390625
618;414.4977111816406
619;413.918212890625
620;413.3397216796875
621;412.761962890625
622;412.1846618652344
623;411.60809326171875
624;411.03265380859375
625;410.4578552246094
626;409.88348388671875
627;409.3098449707031
628;408.7373352050781
629;408.16546630859375
630;407.59442138671875
631;407.0240478515625
632;406.4541320800781
633;405.8848876953125
634;405.3167724609375
635;404.7492980957031
636;404.18255615234375
637;403.6163330078125
638;403.0508117675781
639;402.4859619140625
640;401.922119140625
641;401.3590393066406
642;400.79669189453125
643;400.2347717285156
644;399.673828125
645;399.11334228515625
646;398.5538635253906
647;397.9950866699219
648;397.4371032714844
649;396.8794250488281
650;396.3228759765625
651;395.7669372558594
652;395.2117614746094
653;394.6570129394531
654;394.10321044921875
655;393.5501708984375
656;392.9978332519531
657;392.4458923339844
658;391.8946533203125
659;391.34442138671875
660;390.7945556640625
661;390.2458190917969
662;389.6973876953125
663;389.1496887207031
664;388.6029968261719
665;388.0566711425781
666;387.5113525390625
667;386.9667663574219
668;386.4228210449219
669;385.8793029785156
670;385.33685302734375
671;384.7949523925781
672;384.25390625
673;383.71307373046875
674;383.1731262207031
675;382.6336975097656
676;382.0951232910156
677;381.5574035644531
678;381.02044677734375
679;380.48419189453125
680;379.9482421875
681;379.4133605957031
682;378.8788146972656
683;378.3450012207031
684;377.8121337890625
685;377.2796630859375
686;376.7479248046875
687;376.21710205078125
688;375.6869812011719
689;375.1571960449219
690;374.6281433105469
691;374.10009765625
692;373.5723876953125
693;373.0452880859375
694;372.5192565917969
695;371.9938659667969
696;371.4691162109375
697;370.9447937011719
698;370.4211730957031
699;369.8984069824219
700;369.37640380859375
701;368.8547058105469
702;368.33404541015625
703;367.813720703125
704;367.29412841796875
705;366.775390625
706;366.25714111328125
707;365.7395324707031
708;365.2227783203125
709;364.70648193359375
710;364.1910705566406
711;363.6761474609375
712;363.1620178222656
713;362.6485900878906
714;362.1358947753906
715;361.62353515625
716;361.11212158203125
717;360.60137939453125
718;360.0909729003906
719;359.5815124511719
720;359.07275390625
721;358.5643310546875
722;358.0565185546875
723;357.5494689941406
724;357.04302978515625
725;356.53729248046875
726;356.0321350097656
727;355.52764892578125
728;355.0238037109375
729;354.52056884765625
730;354.01824951171875
731;353.5166015625
732;353.01556396484375
733;352.51495361328125
734;352.0150146484375
735;351.51593017578125
736;351.0172119140625
737;350.5194091796875
738;350.0223083496094
739;349.5254821777344
740;349.0296630859375
741;348.5343322753906
742;348.03948974609375
743;347.54534912109375
744;347.0517578125
745;346.558837890625
746;346.0667724609375
747;345.5751037597656
748;345.08428955078125
749;344.5938720703125
750;344.1043701171875
751;343.6152038574219
752;343.1269226074219
753;342.6390686035156
754;342.15203857421875
755;341.6656188964844
756;341.1797180175781
757;340.6943054199219
758;340.2098083496094
759;339.7259216308594
760;339.2426452636719
761;338.7597961425781
762;338.2775573730469
763;337.79595947265625
764;337.315185546875
765;336.8349914550781
766;336.35528564453125
767;335.87615966796875
768;335.3978271484375
769;334.920166015625
770;334.4428405761719
771;333.96624755859375
772;333.4903564453125
773;333.0149841308594
774;332.5401611328125
775;332.06597900390625
776;331.59259033203125
777;331.1198425292969
778;330.6474609375
779;330.1759948730469
780;329.7050476074219
781;329.2347106933594
782;328.7649841308594
783;328.2958679199219
784;327.8271179199219
785;327.359130859375
786;326.89178466796875
787;326.4251403808594
788;325.95904541015625
789;325.4933776855469
790;325.0284729003906
791;324.56427001953125
792;324.100341796875
793;323.63714599609375
794;323.1746826171875
795;322.71282958984375
796;322.2513732910156
797;321.79052734375
798;321.3304138183594
799;320.8710021972656
800;320.4120788574219
801;319.9537658691406
802;319.4959716796875
803;319.0388488769531
804;318.5821533203125
805;318.1260986328125
806;317.6706237792969
807;317.2157287597656
808;316.7613830566406
809;316.3077087402344
810;315.8546142578125
811;315.4022521972656
812;314.9503173828125
813;314.49908447265625
814;314.0484924316406
815;313.5983581542969
816;313.14892578125
817;312.699951171875
818;312.2516784667969
819;311.8040771484375
820;311.3567810058594
821;310.9102783203125
822;310.46441650390625
823;310.01904296875
824;309.5741271972656
825;309.1297912597656
826;308.68621826171875
827;308.2430114746094
828;307.8004150390625
829;307.3583679199219
830;306.91693115234375
831;306.4760437011719
832;306.0360107421875
833;305.5964050292969
834;305.15728759765625
835;304.7189025878906
836;304.2808837890625
837;303.84344482421875
838;303.4066162109375
839;302.9703674316406
840;302.5348205566406
841;302.09967041015625
842;301.665283203125
843;301.2312927246094
844;300.7978210449219
845;300.3650207519531
846;299.9328918457031
847;299.50115966796875
848;299.0699768066406
849;298.6394348144531
850;298.2095947265625
851;297.78009033203125
852;297.351318359375
853;296.923095703125
854;296.49542236328125
855;296.06842041015625
856;295.6419372558594
857;295.21600341796875
858;294.7906494140625
859;294.36566162109375
860;293.94140625
861;293.5177307128906
862;293.0945129394531
863;292.6717529296875
864;292.2496643066406
865;291.8280944824219
866;291.4071044921875
867;290.9865417480469
868;290.5667724609375
869;290.1473388671875
870;289.728515625
871;289.3102111816406
872;288.89251708984375
873;288.47528076171875
874;288.0587158203125
875;287.642578125
876;287.2272033691406
877;286.8123779296875
878;286.3979797363281
879;285.9842529296875
880;285.5708312988281
881;285.1581115722656
882;284.7459716796875
883;284.3344421386719
884;283.92327880859375
885;283.5126953125
886;283.10260009765625
887;282.6930236816406
888;282.2840881347656
889;281.8758239746094
890;281.4678955078125
891;281.060546875
892;280.65386962890625
893;280.247802734375
894;279.8421630859375
895;279.4371337890625
896;279.0325622558594
897;278.6285705566406
898;278.2251281738281
899;277.82220458984375
900;277.41986083984375
901;277.01788330078125
902;276.6164855957031
903;276.2156677246094
904;275.8154602050781
905;275.41571044921875
906;275.0164794921875
907;274.61773681640625
908;274.21942138671875
909;273.8217468261719
910;273.4245300292969
911;273.02801513671875
912;272.63189697265625
913;272.2362976074219
914;271.8412780761719
915;271.44671630859375
916;271.0528564453125
917;270.6595153808594
918;270.2666931152344
919;269.8743896484375
920;269.4825439453125
921;269.0911865234375
922;268.7004699707031
923;268.31011962890625
924;267.9203186035156
925;267.5311584472656
926;267.14239501953125
927;266.7541198730469
928;266.3663635253906
929;265.97918701171875
930;265.5925598144531
931;265.2063293457031
932;264.82080078125
933;264.4356689453125
934;264.0511779785156
935;263.667236328125
936;263.28375244140625
937;262.90081787109375
938;262.51837158203125
939;262.1364440917969
940;261.7549133300781
941;261.3739318847656
942;260.993408203125
943;260.6135559082031
944;260.2341003417969
945;259.8551330566406
946;259.4766845703125
947;259.0987243652344
948;258.7213439941406
949;258.3444519042969
950;257.9681396484375
951;257.5922546386719
952;257.21697998046875
953;256.8421630859375
954;256.4679260253906
955;256.0940856933594
956;255.72067260742188
957;255.3478240966797
958;254.9754180908203
959;254.6035919189453
960;254.2323455810547
961;253.8616485595703
962;253.49127197265625
963;253.12152099609375
964;252.75230407714844
965;252.3834686279297
966;252.01524353027344
967;251.64735412597656
968;251.28005981445312
969;250.91326904296875
970;250.5470428466797
971;250.18121337890625
972;249.81585693359375
973;249.4510955810547
974;249.08670043945312
975;248.72286987304688
976;248.35948181152344
977;247.99671936035156
978;247.63441467285156
979;247.27252197265625
980;246.91127014160156
981;246.5503692626953
982;246.19004821777344
983;245.83010864257812
984;245.47067260742188
985;245.11187744140625
986;244.75347900390625
987;244.3956756591797
988;244.03826904296875
989;243.681396484375
990;243.3250274658203
991;242.96905517578125
992;242.613525390625
993;242.25857543945312
994;241.90411376953125
995;241.55015563964844
996;241.19671630859375
997;240.84364318847656
998;240.490966796875
999;240.13897705078125
1000;239.78732299804688
1001;239.43614196777344
1002;239.08547973632812
1003;238.7352752685547
1004;238.38552856445312
1005;238.0363006591797
1006;237.6876678466797
1007;237.33949279785156
1008;236.99183654785156
1009;236.64459228515625
1010;236.29774475097656
1011;235.95147705078125
1012;235.60557556152344
1013;235.26014709472656
1014;234.91525268554688
1015;234.57077026367188
1016;234.226806640625
1017;233.88333129882812
1018;233.540283203125
1019;233.19781494140625
1020;232.85581970214844
1021;232.5143280029297
1022;232.17330932617188
1023;231.8326873779297
1024;231.49246215820312
1025;231.15286254882812
1026;230.8136444091797
1027;230.4749298095703
1028;230.13671875
1029;229.7989044189453
1030;229.46160888671875
1031;229.12472534179688
1032;228.7882537841797
1033;228.4523162841797
1034;228.11676025390625
1035;227.78184509277344
1036;227.44723510742188
1037;227.1131134033203
1038;226.7794647216797
1039;226.44631958007812
1040;226.11366271972656
1041;225.781494140625
1042;225.4497528076172
1043;225.1184844970703
1044;224.78768920898438
1045;224.4573974609375
1046;224.12753295898438
1047;223.798095703125
1048;223.4691619873047
1049;223.14056396484375
1050;222.81256103515625
1051;222.48492431640625
1052;222.1577606201172
1053;221.83111572265625
1054;221.50491333007812
1055;221.1791229248047
1056;220.8538055419922
1057;220.52899169921875
1058;220.20458984375
1059;219.88055419921875
1060;219.55702209472656
1061;219.23394775390625
1062;218.9114227294922
1063;218.58921813964844
1064;218.26747131347656
1065;217.9462127685547
1066;217.62542724609375
1067;217.3050079345703
1068;216.98509216308594
1069;216.6656036376953
1070;216.34664916992188
1071;216.02813720703125
1072;215.7100372314453
1073;215.392333984375
1074;215.07518005371094
1075;214.7583770751953
1076;214.44207763671875
1077;214.1261749267578
1078;213.81077575683594
1079;213.49575805664062
1080;213.1811981201172
1081;212.86715698242188
1082;212.55349731445312
1083;212.24029541015625
1084;211.92758178710938
1085;211.6152801513672
1086;211.30340576171875
1087;210.991943359375
1088;210.6809844970703
1089;210.3704833984375
1090;210.06033325195312
1091;209.7506103515625
1092;209.4413604736328
1093;209.13250732421875
1094;208.8241729736328
1095;208.51632690429688
1096;208.20880126953125
1097;207.90167236328125
1098;207.59510803222656
1099;207.28890991210938
1100;206.98309326171875
1101;206.6777801513672
1102;206.3728790283203
1103;206.06838989257812
1104;205.76434326171875
1105;205.46084594726562
1106;205.1576385498047
1107;204.85499572753906
1108;204.55267333984375
1109;204.25086975097656
1110;203.94940185546875
1111;203.6483917236328
1112;203.34788513183594
1113;203.04769897460938
1114;202.74798583984375
1115;202.4487762451172
1116;202.14990234375
1117;201.8515625
1118;201.55360412597656
1119;201.256103515625
1120;200.9590301513672
1121;200.6623077392578
1122;200.3661346435547
1123;200.0702362060547
1124;199.77476501464844
1125;199.4798126220703
1126;199.18524169921875
1127;198.89105224609375
1128;198.59732055664062
1129;198.30393981933594
1130;198.01100158691406
1131;197.71856689453125
1132;197.42654418945312
1133;197.1349639892578
1134;196.8437957763672
1135;196.55303955078125
1136;196.26275634765625
1137;195.97283935546875
1138;195.6833038330078
1139;195.39413452148438
1140;195.10546875
1141;194.81723022460938
1142;194.52932739257812
1143;194.2419891357422
1144;193.95497131347656
1145;193.66842651367188
1146;193.3822479248047
1147;193.09645080566406
1148;192.8111114501953
1149;192.52610778808594
1150;192.24163818359375
1151;191.95751953125
1152;191.67385864257812
1153;191.39053344726562
1154;191.107666015625
1155;190.82522583007812
1156;190.543212890625
1157;190.26148986816406
1158;189.98028564453125
1159;189.69944763183594
1160;189.41905212402344
1161;189.13906860351562
1162;188.8594207763672
1163;188.58026123046875
1164;188.3014678955078
1165;188.02305603027344
1166;187.74510192871094
1167;187.4675750732422
1168;187.1903839111328
1169;186.91363525390625
1170;186.6372833251953
1171;186.361328125
1172;186.08575439453125
1173;185.8106231689453
1174;185.53585815429688
1175;185.26153564453125
1176;184.98760986328125
1177;184.71405029296875
1178;184.44085693359375
1179;184.16810607910156
1180;183.8957061767578
1181;183.62380981445312
1182;183.35227966308594
1183;183.08114624023438
1184;182.81036376953125
1185;182.54005432128906
1186;182.27015686035156
1187;182.00064086914062
1188;181.7314453125
1189;181.4627227783203
1190;181.19432067871094
1191;180.92642211914062
1192;180.65882873535156
1193;180.39166259765625
1194;180.12489318847656
1195;179.85848999023438
1196;179.5924835205078
1197;179.32696533203125
1198;179.06178283691406
1199;178.79693603515625
1200;178.53250122070312
1201;178.26849365234375
1202;178.00491333007812
1203;177.74171447753906
1204;177.47889709472656
1205;177.21641540527344
1206;176.95431518554688
1207;176.6925811767578
1208;176.4313201904297
1209;176.1703643798828
1210;175.90989685058594
1211;175.6497344970703
1212;175.3900604248047
1213;175.13072204589844
1214;174.87171936035156
1215;174.61318969726562
1216;174.35499572753906
1217;174.09713745117188
1218;173.83975219726562
1219;173.58273315429688
1220;173.32608032226562
1221;173.06983947753906
1222;172.81399536132812
1223;172.55850219726562
1224;172.30340576171875
1225;172.04872131347656
1226;171.79437255859375
1227;171.54046630859375
1228;171.286865234375
1229;171.03370666503906
1230;170.7808380126953
1231;170.52838134765625
1232;170.2763214111328
1233;170.02459716796875
1234;169.77325439453125
1235;169.52230834960938
1236;169.2717742919922
1237;169.02154541015625
1238;168.77175903320312
1239;168.52227783203125
1240;168.27322387695312
1241;168.0245819091797
1242;167.77622985839844
1243;167.5282745361328
1244;167.28074645996094
1245;167.03353881835938
1246;166.78668212890625
1247;166.540283203125
1248;166.29425048828125
1249;166.04859924316406
1250;165.80323791503906
1251;165.55824279785156
1252;165.31365966796875
1253;165.0694122314453
1254;164.82562255859375
1255;164.5821990966797
1256;164.3390655517578
1257;164.09632873535156
1258;163.8539276123047
1259;163.61199951171875
1260;163.3704071044922
1261;163.12911987304688
1262;162.88819885253906
1263;162.64764404296875
1264;162.40750122070312
1265;162.16773986816406
1266;161.9283447265625
1267;161.68931579589844
1268;161.45059204101562
1269;161.21226501464844
1270;160.97425842285156
1271;160.73667907714844
1272;160.4994659423828
1273;160.26260375976562
1274;160.0260467529297
1275;159.7899169921875
1276;159.55410766601562
1277;159.31869506835938
1278;159.08360290527344
1279;158.84890747070312
1280;158.61453247070312
1281;158.38052368164062
1282;158.14695739746094
1283;157.91363525390625
1284;157.68072509765625
1285;157.4481658935547
1286;157.21600341796875
1287;156.98419189453125
1288;156.7527313232422
1289;156.52154541015625
1290;156.29083251953125
1291;156.0604248046875
1292;155.83038330078125
1293;155.6006622314453
1294;155.371337890625
1295;155.1423797607422
1296;154.91372680664062
1297;154.6854248046875
1298;154.45750427246094
1299;154.22994995117188
1300;154.00277709960938
1301;153.7759246826172
1302;153.54940795898438
1303;153.3232421875
1304;153.09747314453125
1305;152.87197875976562
1306;152.64686584472656
1307;152.42214965820312
1308;152.19769287109375
1309;151.97369384765625
1310;151.74993896484375
1311;151.52659606933594
1312;151.30360412597656
1313;151.08087158203125
1314;150.8585662841797
1315;150.63662719726562
1316;150.4149932861328
1317;150.1936798095703
1318;149.97271728515625
1319;149.75213623046875
1320;149.53187561035156
1321;149.31195068359375
1322;149.0924072265625
1323;148.87319946289062
1324;148.6543426513672
1325;148.43577575683594
1326;148.21759033203125
1327;147.999755859375
1328;147.7822265625
1329;147.56504821777344
1330;147.34820556640625
1331;147.13180541992188
1332;146.91563415527344
1333;146.6998291015625
1334;146.48434448242188
1335;146.26922607421875
1336;146.05445861816406
1337;145.83998107910156
1338;145.62586975097656
1339;145.41207885742188
1340;145.19859313964844
1341;144.98550415039062
1342;144.77273559570312
1343;144.560302734375
1344;144.34820556640625
1345;144.1364288330078
1346;143.92498779296875
1347;143.7138671875
1348;143.50311279296875
1349;143.29270935058594
1350;143.08262634277344
1351;142.87286376953125
1352;142.66342163085938
1353;142.45431518554688
1354;142.24557495117188
1355;142.0371551513672
1356;141.82904052734375
1357;141.62130737304688
1358;141.4138641357422
1359;141.20672607421875
1360;140.99993896484375
1361;140.79351806640625
1362;140.58740234375
1363;140.38162231445312
1364;140.17616271972656
1365;139.97105407714844
1366;139.76620483398438
1367;139.56170654296875
1368;139.3575897216797
1369;139.15374755859375
1370;138.95025634765625
1371;138.74710083007812
1372;138.5442352294922
1373;138.3417205810547
1374;138.13946533203125
1375;137.93756103515625
1376;137.73602294921875
1377;137.53480529785156
1378;137.33392333984375
1379;137.1333465576172
1380;136.9330596923828
1381;136.73312377929688
1382;136.5335235595703
1383;136.334228515625
1384;136.13526916503906
1385;135.9366455078125
1386;135.73829650878906
1387;135.54026794433594
1388;135.3425750732422
1389;135.14520263671875
1390;134.94818115234375
1391;134.7514190673828
1392;134.5550079345703
1393;134.35891723632812
1394;134.16314697265625
1395;133.96766662597656
1396;133.77249145507812
1397;133.57765197753906
1398;133.38308715820312
1399;133.18890380859375
1400;132.99502563476562
1401;132.80142211914062
1402;132.60816955566406
1403;132.41522216796875
1404;132.2226104736328
1405;132.0303192138672
1406;131.83828735351562
1407;131.64662170410156
1408;131.4552001953125
1409;131.26409912109375
1410;131.07337951660156
1411;130.8828887939453
1412;130.69276428222656
1413;130.50296020507812
1414;130.31338500976562
1415;130.12420654296875
1416;129.93528747558594
1417;129.7467041015625
1418;129.55844116210938
1419;129.37045288085938
1420;129.1827850341797
1421;128.99542236328125
1422;128.8083953857422
1423;128.62164306640625
1424;128.43521118164062
1425;128.24908447265625
1426;128.06324768066406
1427;127.87776947021484
1428;127.69254302978516
1429;127.50760650634766
1430;127.32296752929688
1431;127.13864135742188
1432;126.95467376708984
1433;126.77098083496094
1434;126.58760833740234
1435;126.40451049804688
1436;126.22171020507812
1437;126.03922271728516
1438;125.85701751708984
1439;125.67513275146484
1440;125.49354553222656
1441;125.31227111816406
1442;125.13130950927734
1443;124.95064544677734
1444;124.77023315429688
1445;124.59014129638672
1446;124.41036987304688
1447;124.23091888427734
1448;124.05170440673828
1449;123.87281799316406
1450;123.69419860839844
1451;123.51590728759766
1452;123.33790588378906
1453;123.16018676757812
1454;122.98275756835938
1455;122.80563354492188
1456;122.62885284423828
1457;122.45230102539062
1458;122.27609252929688
1459;122.10018157958984
1460;121.92457580566406
1461;121.74917602539062
1462;121.57413482666016
1463;121.39937591552734
1464;121.22490692138672
1465;121.05074310302734
1466;120.87686157226562
1467;120.70326232910156
1468;120.52999877929688
1469;120.35701751708984
1470;120.18428802490234
1471;120.01182556152344
1472;119.83969116210938
1473;119.66781616210938
1474;119.49629974365234
1475;119.32503509521484
1476;119.15403747558594
1477;118.98336029052734
1478;118.81297302246094
1479;118.642822265625
1480;118.47299194335938
1481;118.303466796875
1482;118.13420867919922
1483;117.96524047851562
1484;117.79653930664062
1485;117.62812042236328
1486;117.46001434326172
1487;117.29219818115234
1488;117.12460327148438
1489;116.95734405517578
1490;116.79037475585938
1491;116.62368774414062
1492;116.45729064941406
1493;116.2911376953125
1494;116.12528228759766
1495;115.95970153808594
1496;115.79444885253906
1497;115.62944793701172
1498;115.46475219726562
1499;115.30033111572266
1500;115.13616180419922
1501;114.9722900390625
1502;114.80870056152344
1503;114.6453857421875
1504;114.48238372802734
1505;114.31961822509766
1506;114.15714263916016
1507;113.99492645263672
1508;113.83297729492188
1509;113.67134094238281
1510;113.50996398925781
1511;113.34890747070312
1512;113.18804931640625
1513;113.02753448486328
1514;112.86727142333984
1515;112.70729064941406
1516;112.54753875732422
1517;112.38812255859375
1518;112.22893524169922
1519;112.07006072998047
1520;111.91146087646484
1521;111.75308227539062
1522;111.59498596191406
1523;111.43722534179688
1524;111.27965545654297
1525;111.12236785888672
1526;110.96540832519531
1527;110.80870056152344
1528;110.65228271484375
1529;110.4961166381836
1530;110.34024047851562
1531;110.1845932006836
1532;110.02923583984375
1533;109.87413024902344
1534;109.71932220458984
1535;109.56476593017578
1536;109.41049194335938
1537;109.25642395019531
1538;109.10269165039062
1539;108.94920349121094
1540;108.79596710205078
1541;108.6430435180664
1542;108.49034118652344
1543;108.33792114257812
1544;108.18577575683594
1545;108.03389739990234
1546;107.88225555419922
1547;107.73092651367188
1548;107.57980346679688
1549;107.42900085449219
1550;107.27842712402344
1551;107.12808990478516
1552;106.9780502319336
1553;106.8282470703125
1554;106.67874908447266
1555;106.52950286865234
1556;106.38050079345703
1557;106.23174285888672
1558;106.08329772949219
1559;105.93508911132812
1560;105.7871322631836
1561;105.63946533203125
1562;105.49203491210938
1563;105.3448715209961
1564;105.19794464111328
1565;105.05132293701172
1566;104.90491485595703
1567;104.75877380371094
1568;104.6129150390625
1569;104.46728515625
1570;104.32191467285156
1571;104.17678833007812
1572;104.03195190429688
1573;103.88735961914062
1574;103.74302673339844
1575;103.59896087646484
1576;103.45510864257812
1577;103.3115234375
1578;103.16822814941406
1579;103.02515411376953
1580;102.88236999511719
1581;102.73979949951172
1582;102.59750366210938
1583;102.45547485351562
1584;102.31368255615234
1585;102.17215728759766
1586;102.03087615966797
1587;101.88984680175781
1588;101.74906158447266
1589;101.60851287841797
1590;101.46826934814453
1591;101.32823944091797
1592;101.1884536743164
1593;101.04893493652344
1594;100.90965270996094
1595;100.77064514160156
1596;100.6318588256836
1597;100.49333190917969
1598;100.35505676269531
1599;100.21703338623047
1600;100.0792465209961
1601;99.94168853759766
1602;99.80437469482422
1603;99.66737365722656
1604;99.53057861328125
1605;99.39402770996094
1606;99.25770568847656
1607;99.12162780761719
1608;98.98580932617188
1609;98.85023498535156
1610;98.71492004394531
1611;98.579833984375
1612;98.44498443603516
1613;98.31039428710938
1614;98.1760482788086
1615;98.04192352294922
1616;97.9080810546875
1617;97.77446746826172
1618;97.64108276367188
1619;97.50794982910156
1620;97.37504577636719
1621;97.2424087524414
1622;97.10997009277344
1623;96.97779846191406
1624;96.84583282470703
1625;96.71416473388672
1626;96.58268737792969
1627;96.45149993896484
1628;96.32051086425781
1629;96.18975830078125
1630;96.05927276611328
1631;95.92901611328125
1632;95.7989730834961
1633;95.66920471191406
1634;95.53962707519531
1635;95.41031646728516
1636;95.2812271118164
1637;95.15239715576172
1638;95.02379608154297
1639;94.89543914794922
1640;94.76729583740234
1641;94.639404296875
1642;94.5117416381836
1643;94.38433837890625
1644;94.25711822509766
1645;94.13018035888672
1646;94.0034408569336
1647;93.876953125
1648;93.75069427490234
1649;93.62466430664062
1650;93.49887084960938
1651;93.37332153320312
1652;93.24797821044922
1653;93.12288665771484
1654;92.99800872802734
1655;92.87338256835938
1656;92.74898529052734
1657;92.62480163574219
1658;92.50088500976562
1659;92.37715911865234
1660;92.25364685058594
1661;92.13040161132812
1662;92.00736999511719
1663;91.88456726074219
1664;91.76199340820312
1665;91.6396484375
1666;91.51753997802734
1667;91.3956298828125
1668;91.27397155761719
1669;91.15255737304688
1670;91.03136444091797
1671;90.9103775024414
1672;90.78961181640625
1673;90.66908264160156
1674;90.54875946044922
1675;90.4286880493164
1676;90.308837890625
1677;90.18920135498047
1678;90.06977844238281
1679;89.95059204101562
1680;89.83162689208984
1681;89.71289825439453
1682;89.5943603515625
1683;89.47608184814453
1684;89.3580093383789
1685;89.24015045166016
1686;89.1225357055664
1687;89.00509643554688
1688;88.88790893554688
1689;88.77092742919922
1690;88.6541748046875
1691;88.53762817382812
1692;88.42131042480469
1693;88.30523681640625
1694;88.18936920166016
1695;88.07373046875
1696;87.95830535888672
1697;87.84309387207031
1698;87.72808074951172
1699;87.6133041381836
1700;87.49872589111328
1701;87.38436889648438
1702;87.27025604248047
1703;87.15636444091797
1704;87.04267883300781
1705;86.92916870117188
1706;86.81591033935547
1707;86.7028579711914
1708;86.59001922607422
1709;86.47738647460938
1710;86.36500549316406
1711;86.25279998779297
1712;86.14083099365234
1713;86.02908325195312
1714;85.91752624511719
1715;85.8061752319336
1716;85.69505310058594
1717;85.58413696289062
1718;85.47342681884766
1719;85.36295318603516
1720;85.25267028808594
1721;85.1426010131836
1722;85.0327377319336
1723;84.92308807373047
1724;84.81366729736328
1725;84.70443725585938
1726;84.59542846679688
1727;84.48664093017578
1728;84.37802124023438
1729;84.26963806152344
1730;84.16144561767578
1731;84.0534896850586
1732;83.94573211669922
1733;83.83818817138672
1734;83.73085021972656
1735;83.62369537353516
1736;83.51677703857422
1737;83.41006469726562
1738;83.30354309082031
1739;83.19721984863281
1740;83.09110260009766
1741;82.9852294921875
1742;82.87953186035156
1743;82.77403259277344
1744;82.66875457763672
1745;82.56368255615234
1746;82.45880889892578
1747;82.35415649414062
1748;82.24966430664062
1749;82.14540100097656
1750;82.04132843017578
1751;81.93746185302734
1752;81.83380126953125
1753;81.73035430908203
1754;81.62710571289062
1755;81.5240478515625
1756;81.42118835449219
1757;81.31856536865234
1758;81.2160873413086
1759;81.11383819580078
1760;81.01180267333984
1761;80.90995025634766
1762;80.80830383300781
1763;80.70683288574219
1764;80.60562133789062
1765;80.50454711914062
1766;80.4037094116211
1767;80.30305480957031
1768;80.20258331298828
1769;80.10234069824219
1770;80.00227355957031
1771;79.90238189697266
1772;79.802734375
1773;79.70325469970703
1774;79.60397338867188
1775;79.50489044189453
1776;79.406005859375
1777;79.30731201171875
1778;79.20883178710938
1779;79.11051177978516
1780;79.01240539550781
1781;78.91452026367188
1782;78.81681060791016
1783;78.71926879882812
1784;78.62195587158203
1785;78.52481842041016
1786;78.4278793334961
1787;78.33112335205078
1788;78.23455810546875
1789;78.13819885253906
1790;78.04199981689453
1791;77.9460220336914
1792;77.85022735595703
1793;77.7546157836914
1794;77.6592025756836
1795;77.56398010253906
1796;77.46895599365234
1797;77.37408447265625
1798;77.27943420410156
1799;77.18496704101562
1800;77.0907211303711
1801;76.99661254882812
1802;76.90272521972656
1803;76.80902099609375
1804;76.71549987792969
1805;76.62214660644531
1806;76.52899169921875
1807;76.43605041503906
1808;76.34326171875
1809;76.25066375732422
1810;76.15827178955078
1811;76.06605529785156
1812;75.97402954101562
1813;75.88219451904297
1814;75.79054260253906
1815;75.69904327392578
1816;75.60774993896484
1817;75.51663208007812
1818;75.42573547363281
1819;75.3349838256836
1820;75.24443054199219
1821;75.15404510498047
1822;75.06385040283203
1823;74.97386932373047
1824;74.88404846191406
1825;74.79440307617188
1826;74.70496368408203
1827;74.6156997680664
1828;74.526611328125
1829;74.43769073486328
1830;74.34896087646484
1831;74.26040649414062
1832;74.17204284667969
1833;74.0838623046875
1834;73.99586486816406
1835;73.90802001953125
1836;73.82036590576172
1837;73.73291015625
1838;73.64559936523438
1839;73.5584945678711
1840;73.47154998779297
1841;73.38478088378906
1842;73.29820251464844
1843;73.21182250976562
1844;73.12557220458984
1845;73.03952026367188
1846;72.95364379882812
1847;72.8679428100586
1848;72.78242492675781
1849;72.69708251953125
1850;72.6119155883789
1851;72.52690887451172
1852;72.44210815429688
1853;72.35745239257812
1854;72.27297973632812
1855;72.18869018554688
1856;72.10455322265625
1857;72.02059936523438
1858;71.93683624267578
1859;71.85324096679688
1860;71.76980590820312
1861;71.68656921386719
1862;71.60348510742188
1863;71.52056121826172
1864;71.43783569335938
1865;71.35525512695312
1866;71.27285766601562
1867;71.19063568115234
1868;71.10858154296875
1869;71.02670288085938
1870;70.94499206542969
1871;70.86344146728516
1872;70.78206634521484
1873;70.70088195800781
1874;70.61984252929688
1875;70.53897857666016
1876;70.45829772949219
1877;70.37776184082031
1878;70.29740905761719
1879;70.21722412109375
1880;70.13720703125
1881;70.05735778808594
1882;69.97766876220703
1883;69.89814758300781
1884;69.81879425048828
1885;69.7396011352539
1886;69.66059875488281
1887;69.58174896240234
1888;69.50306701660156
1889;69.42454528808594
1890;69.34617614746094
1891;69.26798248291016
1892;69.18997192382812
1893;69.11209106445312
1894;69.03439331054688
1895;68.95687103271484
1896;68.8795166015625
1897;68.80229949951172
1898;68.72527313232422
1899;68.64838409423828
1900;68.57167053222656
1901;68.4951171875
1902;68.4187240600586
1903;68.34249877929688
1904;68.26643371582031
1905;68.19052124023438
1906;68.11478424072266
1907;68.0392074584961
1908;67.96377563476562
1909;67.88850402832031
1910;67.81340026855469
1911;67.73847198486328
1912;67.66366577148438
1913;67.58903503417969
1914;67.51459503173828
1915;67.4402847290039
1916;67.36612701416016
1917;67.29212188720703
1918;67.21831512451172
1919;67.1446304321289
1920;67.07112121582031
1921;66.99777221679688
1922;66.92456817626953
1923;66.85153198242188
1924;66.77864074707031
1925;66.7059097290039
1926;66.6333236694336
1927;66.5609130859375
1928;66.48863983154297
1929;66.41654205322266
1930;66.34458923339844
1931;66.27279663085938
1932;66.2011489868164
1933;66.12967681884766
1934;66.05833435058594
1935;65.98715209960938
1936;65.91612243652344
1937;65.84525299072266
1938;65.77452850341797
1939;65.70399475097656
1940;65.6335678100586
1941;65.56330871582031
1942;65.49320220947266
1943;65.42324829101562
1944;65.35343170166016
1945;65.2837905883789
1946;65.21428680419922
1947;65.14492797851562
1948;65.07572174072266
1949;65.00667572021484
1950;64.93778228759766
1951;64.8690414428711
1952;64.80044555664062
1953;64.73198699951172
1954;64.66368865966797
1955;64.59553527832031
1956;64.52754211425781
1957;64.45967864990234
1958;64.39199829101562
1959;64.32443237304688
1960;64.25702667236328
1961;64.18977355957031
1962;64.1226577758789
1963;64.05570983886719
1964;63.98888397216797
1965;63.92222213745117
1966;63.85568618774414
1967;63.78932189941406
1968;63.72308349609375
1969;63.65700912475586
1970;63.59107971191406
1971;63.5252685546875
1972;63.45962142944336
1973;63.39411926269531
1974;63.32876205444336
1975;63.26355743408203
1976;63.198486328125
1977;63.13355255126953
1978;63.06876754760742
1979;63.00413513183594
1980;62.93964385986328
1981;62.87528610229492
1982;62.81107711791992
1983;62.74701690673828
1984;62.68309020996094
1985;62.61931610107422
1986;62.55567169189453
1987;62.49217987060547
1988;62.42881774902344
1989;62.36560821533203
1990;62.30252456665039
1991;62.23959732055664
1992;62.17681121826172
1993;62.11416244506836
1994;62.05165100097656
1995;61.98926544189453
1996;61.92703628540039
1997;61.86494827270508
1998;61.802978515625
1999;61.74116516113281
