;loss
0;1309.2021484375
1;1308.5911865234375
2;1307.7681884765625
3;1306.9429931640625
4;1306.165771484375
5;1305.3348388671875
6;1304.5260009765625
7;1303.705810546875
8;1302.8756103515625
9;1302.0286865234375
10;1301.1807861328125
11;1300.322998046875
12;1299.4573974609375
13;1298.5831298828125
14;1297.6990966796875
15;1296.810791015625
16;1295.9061279296875
17;1294.998291015625
18;1294.070556640625
19;1293.1300048828125
20;1292.1861572265625
21;1291.2176513671875
22;1290.2447509765625
23;1289.2557373046875
24;1288.2379150390625
25;1287.201171875
26;1286.1566162109375
27;1285.0911865234375
28;1283.990234375
29;1282.8646240234375
30;1281.7266845703125
31;1280.5616455078125
32;1279.3677978515625
33;1278.1434326171875
34;1276.88671875
35;1275.595947265625
36;1274.2689208984375
37;1272.9041748046875
38;1271.4991455078125
39;1270.0517578125
40;1268.5596923828125
41;1267.00390625
42;1265.3978271484375
43;1263.7388916015625
44;1262.0411376953125
45;1260.28515625
46;1258.4495849609375
47;1256.549072265625
48;1254.580078125
49;1252.5384521484375
50;1250.4407958984375
51;1248.2447509765625
52;1245.96484375
53;1243.597412109375
54;1241.1583251953125
55;1238.6021728515625
56;1235.9661865234375
57;1233.225341796875
58;1230.3739013671875
59;1227.407470703125
60;1224.3197021484375
61;1221.0806884765625
62;1217.7080078125
63;1214.1956787109375
64;1210.5374755859375
65;1206.7266845703125
66;1202.7557373046875
67;1198.619384765625
68;1194.3109130859375
69;1189.8232421875
70;1185.1505126953125
71;1180.322021484375
72;1175.302978515625
73;1170.0899658203125
74;1164.646728515625
75;1159.0072021484375
76;1153.2110595703125
77;1147.1912841796875
78;1140.99267578125
79;1134.6256103515625
80;1128.108642578125
81;1121.4599609375
82;1114.704345703125
83;1107.8701171875
84;1100.9918212890625
85;1094.1400146484375
86;1087.2750244140625
87;1080.511962890625
88;1073.813720703125
89;1067.2852783203125
90;1060.921875
91;1054.72119140625
92;1048.76904296875
93;1043.0462646484375
94;1037.540283203125
95;1032.2818603515625
96;1027.269287109375
97;1022.4987182617188
98;1017.9592895507812
99;1013.6455688476562
100;1009.5424194335938
101;1005.6319580078125
102;1001.9154663085938
103;998.3475952148438
104;994.9337158203125
105;991.6689453125
106;988.5130004882812
107;985.4833984375
108;982.54345703125
109;979.6939086914062
110;976.9280395507812
111;974.2362060546875
112;971.6104736328125
113;969.0537109375
114;966.5377807617188
115;964.06982421875
116;961.6452026367188
117;959.2688598632812
118;956.9210205078125
119;954.6094970703125
120;952.3388671875
121;950.0977783203125
122;947.8759155273438
123;945.6895751953125
124;943.5284423828125
125;941.3836669921875
126;939.263671875
127;937.1685180664062
128;935.1044921875
129;933.064453125
130;931.0401611328125
131;929.0446166992188
132;927.0640258789062
133;925.10546875
134;923.1749267578125
135;921.2652587890625
136;919.3692626953125
137;917.5009765625
138;915.6471557617188
139;913.8131713867188
140;912.0045166015625
141;910.2150268554688
142;908.4383544921875
143;906.6866455078125
144;904.953125
145;903.2323608398438
146;901.5357666015625
147;899.85693359375
148;898.1959228515625
149;896.5516967773438
150;894.9224243164062
151;893.3082885742188
152;891.708984375
153;890.1192016601562
154;888.5436401367188
155;886.9822998046875
156;885.4342651367188
157;883.8991088867188
158;882.37646484375
159;880.8661499023438
160;879.3674926757812
161;877.8800048828125
162;876.4075927734375
163;874.9418334960938
164;873.4907836914062
165;872.0494995117188
166;870.6178588867188
167;869.1953125
168;867.7816162109375
169;866.3727416992188
170;864.9723510742188
171;863.5803833007812
172;862.1998291015625
173;860.8267211914062
174;859.4569702148438
175;858.0942993164062
176;856.7415161132812
177;855.39501953125
178;854.0510864257812
179;852.7163696289062
180;851.3839111328125
181;850.05712890625
182;848.7388305664062
183;847.4257202148438
184;846.1173095703125
185;844.8101806640625
186;843.5108642578125
187;842.2160034179688
188;840.9223022460938
189;839.6324462890625
190;838.3468017578125
191;837.0648803710938
192;835.7897338867188
193;834.5186767578125
194;833.2515258789062
195;831.9849243164062
196;830.7211303710938
197;829.4606323242188
198;828.2035522460938
199;826.9497680664062
200;825.69921875
201;824.4540405273438
202;823.2114868164062
203;821.9712524414062
204;820.7305908203125
205;819.4953002929688
206;818.2622680664062
207;817.0313720703125
208;815.7999267578125
209;814.5706176757812
210;813.3458251953125
211;812.1205444335938
212;810.8972778320312
213;809.6782836914062
214;808.4588623046875
215;807.2438354492188
216;806.0306396484375
217;804.8192138671875
218;803.6096801757812
219;802.4017944335938
220;801.1956176757812
221;799.9888305664062
222;798.7838134765625
223;797.5807495117188
224;796.3794555664062
225;795.1824951171875
226;793.9849243164062
227;792.7893676757812
228;791.5977783203125
229;790.4059448242188
230;789.2184448242188
231;788.0331420898438
232;786.8497314453125
233;785.6683959960938
234;784.4893798828125
235;783.3101196289062
236;782.1331787109375
237;780.9583129882812
238;779.7880249023438
239;778.6176147460938
240;777.4517211914062
241;776.2862548828125
242;775.1234741210938
243;773.9631958007812
244;772.8071899414062
245;771.6516723632812
246;770.5005493164062
247;769.3521728515625
248;768.2041015625
249;767.0606689453125
250;765.9176025390625
251;764.7771606445312
252;763.64111328125
253;762.5076904296875
254;761.3748779296875
255;760.2445678710938
256;759.1171264648438
257;757.9921875
258;756.8696899414062
259;755.7500610351562
260;754.6331176757812
261;753.5188598632812
262;752.4074096679688
263;751.3004760742188
264;750.1944580078125
265;749.0909423828125
266;747.9903564453125
267;746.8946533203125
268;745.7999877929688
269;744.7100830078125
270;743.6215209960938
271;742.5361328125
272;741.4568481445312
273;740.3792114257812
274;739.3041381835938
275;738.2335815429688
276;737.1638793945312
277;736.0985717773438
278;735.0342407226562
279;733.97412109375
280;732.9147338867188
281;731.8580322265625
282;730.8037719726562
283;729.7536010742188
284;728.7042846679688
285;727.6575317382812
286;726.61474609375
287;725.5728149414062
288;724.5332641601562
289;723.4961547851562
290;722.4614868164062
291;721.4306640625
292;720.4021606445312
293;719.3760375976562
294;718.3522338867188
295;717.3307495117188
296;716.3101196289062
297;715.2916259765625
298;714.2755126953125
299;713.26171875
300;712.2501220703125
301;711.2421875
302;710.2349853515625
303;709.2301025390625
304;708.2289428710938
305;707.2284545898438
306;706.2315673828125
307;705.2356567382812
308;704.2431640625
309;703.2528686523438
310;702.2633666992188
311;701.2760620117188
312;700.2907104492188
313;699.3076171875
314;698.3279418945312
315;697.3489379882812
316;696.3720092773438
317;695.3983764648438
318;694.4254150390625
319;693.4546508789062
320;692.4871215820312
321;691.5216064453125
322;690.5567626953125
323;689.59423828125
324;688.6336669921875
325;687.6749877929688
326;686.7195434570312
327;685.7647094726562
328;684.8118286132812
329;683.8606567382812
330;682.9114990234375
331;681.9652099609375
332;681.0208129882812
333;680.0782470703125
334;679.1373291015625
335;678.197265625
336;677.2587890625
337;676.3222045898438
338;675.3884887695312
339;674.4552612304688
340;673.52392578125
341;672.5952758789062
342;671.6683959960938
343;670.7421264648438
344;669.8174438476562
345;668.8944702148438
346;667.97314453125
347;667.0535278320312
348;666.1365966796875
349;665.2201538085938
350;664.3065185546875
351;663.3932495117188
352;662.4828491210938
353;661.5728149414062
354;660.6644287109375
355;659.7576293945312
356;658.8534545898438
357;657.9497680664062
358;657.0487670898438
359;656.1481323242188
360;655.2491455078125
361;654.3527221679688
362;653.4567260742188
363;652.5623779296875
364;651.6693725585938
365;650.7778930664062
366;649.8880004882812
367;648.99951171875
368;648.1126098632812
369;647.22802734375
370;646.3441162109375
371;645.4614868164062
372;644.5813598632812
373;643.7025756835938
374;642.8243408203125
375;641.9475708007812
376;641.0731201171875
377;640.1990966796875
378;639.3265991210938
379;638.4556274414062
380;637.5859375
381;636.7177124023438
382;635.8508911132812
383;634.986328125
384;634.1221313476562
385;633.2593994140625
386;632.3980102539062
387;631.5390014648438
388;630.6812133789062
389;629.8248291015625
390;628.9689331054688
391;628.1152954101562
392;627.2620239257812
393;626.4100341796875
394;625.5594482421875
395;624.7101440429688
396;623.8630981445312
397;623.0164184570312
398;622.1709594726562
399;621.3268432617188
400;620.4840698242188
401;619.6426391601562
402;618.8023681640625
403;617.9634399414062
404;617.1257934570312
405;616.2893676757812
406;615.4549560546875
407;614.6210327148438
408;613.7891845703125
409;612.9578247070312
410;612.1275024414062
411;611.2994384765625
412;610.4725341796875
413;609.6468505859375
414;608.8223876953125
415;607.9983520507812
416;607.1754760742188
417;606.3546142578125
418;605.5341186523438
419;604.7149658203125
420;603.8976440429688
421;603.0809326171875
422;602.2651977539062
423;601.4507446289062
424;600.6382446289062
425;599.8261108398438
426;599.0160522460938
427;598.2062377929688
428;597.3984375
429;596.5911254882812
430;595.7847290039062
431;594.98046875
432;594.1773071289062
433;593.3744506835938
434;592.5728149414062
435;591.7723388671875
436;590.9736328125
437;590.1754150390625
438;589.3783569335938
439;588.5824584960938
440;587.7882080078125
441;586.9945678710938
442;586.2019653320312
443;585.4111938476562
444;584.6215209960938
445;583.8322143554688
446;583.0440673828125
447;582.2570190429688
448;581.4710693359375
449;580.6862182617188
450;579.9031372070312
451;579.1204833984375
452;578.3395385742188
453;577.55908203125
454;576.7796630859375
455;576.0012817382812
456;575.2239990234375
457;574.44775390625
458;573.6734008789062
459;572.8999633789062
460;572.1276245117188
461;571.3563232421875
462;570.5861206054688
463;569.8162841796875
464;569.0474853515625
465;568.2804565429688
466;567.5137939453125
467;566.7481079101562
468;565.9835815429688
469;565.2200317382812
470;564.4581298828125
471;563.6966552734375
472;562.9368286132812
473;562.1780395507812
474;561.4202880859375
475;560.6629028320312
476;559.9071655273438
477;559.1524658203125
478;558.3981323242188
479;557.6448364257812
480;556.8925170898438
481;556.141845703125
482;555.3916625976562
483;554.6423950195312
484;553.8941040039062
485;553.1468505859375
486;552.4005737304688
487;551.6552734375
488;550.9115600585938
489;550.1682739257812
490;549.4259643554688
491;548.6846313476562
492;547.9448852539062
493;547.2056274414062
494;546.4671630859375
495;545.7297973632812
496;544.993896484375
497;544.2584838867188
498;543.5240478515625
499;542.79052734375
500;542.0579833984375
501;541.326416015625
502;540.5957641601562
503;539.86669921875
504;539.1380004882812
505;538.4102172851562
506;537.6834106445312
507;536.9575805664062
508;536.2332763671875
509;535.50927734375
510;534.7863159179688
511;534.0647583007812
512;533.3436279296875
513;532.6240844726562
514;531.90478515625
515;531.1864624023438
516;530.4696655273438
517;529.7537231445312
518;529.0387573242188
519;528.3241577148438
520;527.6104736328125
521;526.8978271484375
522;526.1859741210938
523;525.47509765625
524;524.7656860351562
525;524.05712890625
526;523.3494873046875
527;522.6422729492188
528;521.9364624023438
529;521.2310791015625
530;520.5265502929688
531;519.8229370117188
532;519.1207885742188
533;518.4190063476562
534;517.7181396484375
535;517.0181274414062
536;516.3195190429688
537;515.6213989257812
538;514.9246215820312
539;514.2286987304688
540;513.5331420898438
541;512.8385009765625
542;512.1447143554688
543;511.4518737792969
544;510.7599792480469
545;510.06890869140625
546;509.3786926269531
547;508.6893005371094
548;508.0013122558594
549;507.3137512207031
550;506.6271057128906
551;505.9411926269531
552;505.25628662109375
553;504.57220458984375
554;503.8889465332031
555;503.20660400390625
556;502.52508544921875
557;501.844482421875
558;501.1647033691406
559;500.48626708984375
560;499.8086853027344
561;499.1315002441406
562;498.4555969238281
563;497.7805480957031
564;497.10638427734375
565;496.43304443359375
566;495.7604675292969
567;495.08843994140625
568;494.417236328125
569;493.7468566894531
570;493.0773010253906
571;492.4085388183594
572;491.74072265625
573;491.07373046875
574;490.4075012207031
575;489.7421875
576;489.07763671875
577;488.41400146484375
578;487.75115966796875
579;487.0890808105469
580;486.42828369140625
581;485.7684020996094
582;485.10931396484375
583;484.4510192871094
584;483.7935485839844
585;483.1368713378906
586;482.4811096191406
587;481.82598876953125
588;481.171875
589;480.5184631347656
590;479.8658752441406
591;479.2141418457031
592;478.5627746582031
593;477.9126892089844
594;477.2633972167969
595;476.6144714355469
596;475.96636962890625
597;475.319091796875
598;474.672607421875
599;474.02691650390625
600;473.38201904296875
601;472.7383117675781
602;472.0950622558594
603;471.4530334472656
604;470.811279296875
605;470.1704406738281
606;469.53070068359375
607;468.89141845703125
608;468.2529602050781
609;467.6156311035156
610;466.9790344238281
611;466.34332275390625
612;465.7083435058594
613;465.0741271972656
614;464.4404296875
615;463.8074035644531
616;463.17523193359375
617;462.5437927246094
618;461.9132385253906
619;461.28369140625
620;460.65460205078125
621;460.0267028808594
622;459.3995056152344
623;458.77276611328125
624;458.14678955078125
625;457.5216369628906
626;456.8972473144531
627;456.2735900878906
628;455.6506652832031
629;455.028564453125
630;454.4072265625
631;453.78704833984375
632;453.16717529296875
633;452.5481262207031
634;451.9302062988281
635;451.3126525878906
636;450.6958923339844
637;450.07989501953125
638;449.46502685546875
639;448.85089111328125
640;448.2372131347656
641;447.6242370605469
642;447.0122985839844
643;446.40087890625
644;445.7901306152344
645;445.1805114746094
646;444.57135009765625
647;443.9632263183594
648;443.35546875
649;442.74853515625
650;442.1423034667969
651;441.5371398925781
652;440.9324035644531
653;440.3287658691406
654;439.7258605957031
655;439.1236877441406
656;438.5221862792969
657;437.9211730957031
658;437.3208923339844
659;436.7217102050781
660;436.1231994628906
661;435.5254211425781
662;434.92840576171875
663;434.33209228515625
664;433.7365417480469
665;433.1413879394531
666;432.5469665527344
667;431.95330810546875
668;431.3606262207031
669;430.7684020996094
670;430.1772155761719
671;429.5867004394531
672;428.9966735839844
673;428.40765380859375
674;427.8193664550781
675;427.2314453125
676;426.6443176269531
677;426.057861328125
678;425.4723815917969
679;424.88763427734375
680;424.3037109375
681;423.7204284667969
682;423.1378479003906
683;422.55596923828125
684;421.974853515625
685;421.3943786621094
686;420.81439208984375
687;420.2353515625
688;419.65704345703125
689;419.07940673828125
690;418.5022277832031
691;417.92572021484375
692;417.3502502441406
693;416.77520751953125
694;416.20111083984375
695;415.62774658203125
696;415.0550842285156
697;414.4830627441406
698;413.91180419921875
699;413.34124755859375
700;412.7713317871094
701;412.2018737792969
702;411.63336181640625
703;411.06561279296875
704;410.49847412109375
705;409.93206787109375
706;409.3660583496094
707;408.80078125
708;408.2361145019531
709;407.6725158691406
710;407.10955810546875
711;406.5470275878906
712;405.9851379394531
713;405.4239807128906
714;404.863525390625
715;404.3037414550781
716;403.7445983886719
717;403.18646240234375
718;402.6286926269531
719;402.0719299316406
720;401.51580810546875
721;400.9603576660156
722;400.40533447265625
723;399.8512878417969
724;399.2975769042969
725;398.7445983886719
726;398.1922912597656
727;397.640625
728;397.08990478515625
729;396.53961181640625
730;395.9899597167969
731;395.4410705566406
732;394.8927917480469
733;394.3454895019531
734;393.7987976074219
735;393.25250244140625
736;392.70697021484375
737;392.1620178222656
738;391.6177673339844
739;391.0741882324219
740;390.5315246582031
741;389.98919677734375
742;389.4476623535156
743;388.90667724609375
744;388.3664245605469
745;387.8268127441406
746;387.287841796875
747;386.749755859375
748;386.2123718261719
749;385.6756286621094
750;385.1394958496094
751;384.6038513183594
752;384.0688781738281
753;383.53448486328125
754;383.00079345703125
755;382.4677734375
756;381.93560791015625
757;381.40380859375
758;380.8727722167969
759;380.34228515625
760;379.812744140625
761;379.28387451171875
762;378.75537109375
763;378.22747802734375
764;377.7003479003906
765;377.1739807128906
766;376.6481018066406
767;376.12298583984375
768;375.5986328125
769;375.0748596191406
770;374.5515441894531
771;374.02880859375
772;373.5068054199219
773;372.9855651855469
774;372.46478271484375
775;371.94464111328125
776;371.4253845214844
777;370.9065246582031
778;370.3882751464844
779;369.8706970214844
780;369.35400390625
781;368.837890625
782;368.32220458984375
783;367.80712890625
784;367.29290771484375
785;366.7791442871094
786;366.2659606933594
787;365.7534484863281
788;365.2414855957031
789;364.730224609375
790;364.2195739746094
791;363.70977783203125
792;363.20037841796875
793;362.69183349609375
794;362.18389892578125
795;361.6766052246094
796;361.1698913574219
797;360.663818359375
798;360.15838623046875
799;359.653564453125
800;359.14910888671875
801;358.64556884765625
802;358.142578125
803;357.6402282714844
804;357.1382751464844
805;356.636962890625
806;356.1362609863281
807;355.63623046875
808;355.13671875
809;354.6378479003906
810;354.1396484375
811;353.64202880859375
812;353.1451721191406
813;352.6490173339844
814;352.1532287597656
815;351.6580505371094
816;351.16363525390625
817;350.6697082519531
818;350.1766052246094
819;349.6838073730469
820;349.19189453125
821;348.7005310058594
822;348.2097473144531
823;347.71966552734375
824;347.2301330566406
825;346.7411804199219
826;346.2529296875
827;345.7651672363281
828;345.278076171875
829;344.7915344238281
830;344.3056335449219
831;343.8201599121094
832;343.3352355957031
833;342.85107421875
834;342.36761474609375
835;341.8846130371094
836;341.4023132324219
837;340.92059326171875
838;340.4392395019531
839;339.9587707519531
840;339.4787902832031
841;338.99920654296875
842;338.5205078125
843;338.0422668457031
844;337.56451416015625
845;337.0873718261719
846;336.6109924316406
847;336.1349792480469
848;335.6596984863281
849;335.18511962890625
850;334.71087646484375
851;334.2373962402344
852;333.7643737792969
853;333.29193115234375
854;332.82000732421875
855;332.348876953125
856;331.87841796875
857;331.4084167480469
858;330.93902587890625
859;330.4702453613281
860;330.0020446777344
861;329.534423828125
862;329.0673828125
863;328.60076904296875
864;328.13482666015625
865;327.6694030761719
866;327.20452880859375
867;326.7403869628906
868;326.276611328125
869;325.8134460449219
870;325.35089111328125
871;324.8890075683594
872;324.4275817871094
873;323.96673583984375
874;323.5066223144531
875;323.046875
876;322.58770751953125
877;322.1291198730469
878;321.6711730957031
879;321.2138671875
880;320.7571105957031
881;320.30084228515625
882;319.84527587890625
883;319.3903503417969
884;318.93572998046875
885;318.4819030761719
886;318.028564453125
887;317.5758361816406
888;317.1236877441406
889;316.6720886230469
890;316.22088623046875
891;315.7703552246094
892;315.32049560546875
893;314.8711853027344
894;314.4221496582031
895;313.9737854003906
896;313.52593994140625
897;313.0788879394531
898;312.63214111328125
899;312.18609619140625
900;311.7406921386719
901;311.29583740234375
902;310.8515319824219
903;310.40771484375
904;309.96453857421875
905;309.5218200683594
906;309.07977294921875
907;308.63818359375
908;308.19720458984375
909;307.75677490234375
910;307.31671142578125
911;306.87725830078125
912;306.43829345703125
913;306.0000305175781
914;305.5622253417969
915;305.12493896484375
916;304.6883239746094
917;304.2521667480469
918;303.8164978027344
919;303.381591796875
920;302.947021484375
921;302.5130310058594
922;302.07958984375
923;301.6466369628906
924;301.2142639160156
925;300.7825012207031
926;300.35125732421875
927;299.92047119140625
928;299.4904479980469
929;299.060791015625
930;298.6316833496094
931;298.203125
932;297.7751770019531
933;297.347900390625
934;296.92108154296875
935;296.49468994140625
936;296.0689392089844
937;295.6436462402344
938;295.2188415527344
939;294.7945861816406
940;294.370849609375
941;293.94775390625
942;293.5251770019531
943;293.1031799316406
944;292.6816101074219
945;292.26055908203125
946;291.84002685546875
947;291.41998291015625
948;291.0005798339844
949;290.58160400390625
950;290.1632385253906
951;289.7455139160156
952;289.3283386230469
953;288.91168212890625
954;288.4953918457031
955;288.07965087890625
956;287.6645812988281
957;287.2500305175781
958;286.8357849121094
959;286.4222106933594
960;286.0092468261719
961;285.59674072265625
962;285.184814453125
963;284.7732849121094
964;284.3622741699219
965;283.951904296875
966;283.54193115234375
967;283.1324462890625
968;282.7234802246094
969;282.31512451171875
970;281.9072570800781
971;281.4998474121094
972;281.09320068359375
973;280.6869201660156
974;280.2812194824219
975;279.8760681152344
976;279.4712829589844
977;279.0670471191406
978;278.6632995605469
979;278.26007080078125
980;277.85736083984375
981;277.4551086425781
982;277.053466796875
983;276.65228271484375
984;276.251708984375
985;275.8517150878906
986;275.4521484375
987;275.05303955078125
988;274.65447998046875
989;274.2563171386719
990;273.8587951660156
991;273.4618225097656
992;273.065185546875
993;272.6692810058594
994;272.2738342285156
995;271.8788757324219
996;271.48443603515625
997;271.0905456542969
998;270.6970520019531
999;270.3040771484375
1000;269.91168212890625
1001;269.5196533203125
1002;269.1281433105469
1003;268.73724365234375
1004;268.3468322753906
1005;267.95684814453125
1006;267.5673522949219
1007;267.1783142089844
1008;266.7898254394531
1009;266.40185546875
1010;266.0143127441406
1011;265.62744140625
1012;265.240966796875
1013;264.8549499511719
1014;264.46954345703125
1015;264.08453369140625
1016;263.7001647949219
1017;263.31610107421875
1018;262.9327087402344
1019;262.5496826171875
1020;262.1672668457031
1021;261.78521728515625
1022;261.4037780761719
1023;261.02276611328125
1024;260.6422119140625
1025;260.26214599609375
1026;259.8825988769531
1027;259.5035095214844
1028;259.1250305175781
1029;258.7469177246094
1030;258.36932373046875
1031;257.99237060546875
1032;257.61578369140625
1033;257.2396545410156
1034;256.8640441894531
1035;256.48883056640625
1036;256.11431884765625
1037;255.7401580810547
1038;255.3665008544922
1039;254.99331665039062
1040;254.62059020996094
1041;254.24842834472656
1042;253.8767547607422
1043;253.50547790527344
1044;253.1348114013672
1045;252.76451110839844
1046;252.39476013183594
1047;252.02552795410156
1048;251.65672302246094
1049;251.28831481933594
1050;250.92037963867188
1051;250.55311584472656
1052;250.1861114501953
1053;249.8197479248047
1054;249.453857421875
1055;249.08834838867188
1056;248.723388671875
1057;248.35877990722656
1058;247.99484252929688
1059;247.63133239746094
1060;247.268310546875
1061;246.90577697753906
1062;246.5436553955078
1063;246.18202209472656
1064;245.82090759277344
1065;245.46023559570312
1066;245.10006713867188
1067;244.74037170410156
1068;244.38113403320312
1069;244.02235412597656
1070;243.66407775878906
1071;243.30624389648438
1072;242.9488983154297
1073;242.59205627441406
1074;242.23562622070312
1075;241.87966918945312
1076;241.52420043945312
1077;241.169189453125
1078;240.81455993652344
1079;240.4604949951172
1080;240.1068878173828
1081;239.75375366210938
1082;239.40098571777344
1083;239.04869079589844
1084;238.6968536376953
1085;238.34556579589844
1086;237.99465942382812
1087;237.64425659179688
1088;237.29434204101562
1089;236.94493103027344
1090;236.595947265625
1091;236.247314453125
1092;235.89920043945312
1093;235.55165100097656
1094;235.2045135498047
1095;234.85787963867188
1096;234.51162719726562
1097;234.1658935546875
1098;233.8206024169922
1099;233.47579956054688
1100;233.13145446777344
1101;232.7875213623047
1102;232.44407653808594
1103;232.10107421875
1104;231.7584686279297
1105;231.41635131835938
1106;231.07469177246094
1107;230.73348999023438
1108;230.39268493652344
1109;230.05238342285156
1110;229.71255493164062
1111;229.37307739257812
1112;229.0341033935547
1113;228.69552612304688
1114;228.35743713378906
1115;228.01988220214844
1116;227.68264770507812
1117;227.34591674804688
1118;227.0096435546875
1119;226.6739044189453
1120;226.33853149414062
1121;226.00369262695312
1122;225.6692657470703
1123;225.33531188964844
1124;225.0017852783203
1125;224.66871643066406
1126;224.33596801757812
1127;224.0037078857422
1128;223.67190551757812
1129;223.34054565429688
1130;223.0095977783203
1131;222.6790771484375
1132;222.3490753173828
1133;222.0194854736328
1134;221.69033813476562
1135;221.3616485595703
1136;221.03334045410156
1137;220.70556640625
1138;220.37814331054688
1139;220.0511932373047
1140;219.72474670410156
1141;219.3987579345703
1142;219.0731964111328
1143;218.7479705810547
1144;218.42332458496094
1145;218.0990753173828
1146;217.77529907226562
1147;217.45193481445312
1148;217.1289825439453
1149;216.80648803710938
1150;216.48440551757812
1151;216.16282653808594
1152;215.84158325195312
1153;215.5208740234375
1154;215.20054626464844
1155;214.88058471679688
1156;214.56106567382812
1157;214.24203491210938
1158;213.92333984375
1159;213.6051483154297
1160;213.2873992919922
1161;212.97012329101562
1162;212.65316772460938
1163;212.33668518066406
1164;212.02064514160156
1165;211.70497131347656
1166;211.38986206054688
1167;211.07505798339844
1168;210.76071166992188
1169;210.44677734375
1170;210.13333129882812
1171;209.8202362060547
1172;209.5076904296875
1173;209.19541931152344
1174;208.88368225097656
1175;208.5723876953125
1176;208.26144409179688
1177;207.95095825195312
1178;207.64085388183594
1179;207.33114624023438
1180;207.02197265625
1181;206.7132110595703
1182;206.40478515625
1183;206.0968475341797
1184;205.7894287109375
1185;205.4822998046875
1186;205.1756134033203
1187;204.8692626953125
1188;204.56338500976562
1189;204.25796508789062
1190;203.95298767089844
1191;203.64833068847656
1192;203.34410095214844
1193;203.0403594970703
1194;202.73695373535156
1195;202.43408203125
1196;202.1315460205078
1197;201.8293914794922
1198;201.52767944335938
1199;201.22642517089844
1200;200.925537109375
1201;200.6251220703125
1202;200.32504272460938
1203;200.0254669189453
1204;199.72621154785156
1205;199.42739868164062
1206;199.1290283203125
1207;198.83103942871094
1208;198.53343200683594
1209;198.236328125
1210;197.9396209716797
1211;197.64334106445312
1212;197.34750366210938
1213;197.052001953125
1214;196.7568817138672
1215;196.46226501464844
1216;196.16796875
1217;195.87417602539062
1218;195.5806884765625
1219;195.28768920898438
1220;194.99502563476562
1221;194.70285034179688
1222;194.4110107421875
1223;194.11964416503906
1224;193.82864379882812
1225;193.53799438476562
1226;193.24783325195312
1227;192.95809936523438
1228;192.6686553955078
1229;192.3796844482422
1230;192.0911407470703
1231;191.8029022216797
1232;191.51512145996094
1233;191.2277069091797
1234;190.94068908691406
1235;190.65408325195312
1236;190.3679656982422
1237;190.08213806152344
1238;189.79676818847656
1239;189.5117645263672
1240;189.2271728515625
1241;188.9429473876953
1242;188.6591796875
1243;188.37576293945312
1244;188.09275817871094
1245;187.81016540527344
1246;187.5279083251953
1247;187.24607849121094
1248;186.9646453857422
1249;186.68359375
1250;186.40298461914062
1251;186.12283325195312
1252;185.8429718017578
1253;185.5635223388672
1254;185.28451538085938
1255;185.00582885742188
1256;184.7276153564453
1257;184.44969177246094
1258;184.17227172851562
1259;183.89523315429688
1260;183.61851501464844
1261;183.34219360351562
1262;183.06631469726562
1263;182.79087829589844
1264;182.51576232910156
1265;182.24099731445312
1266;181.96658325195312
1267;181.69261169433594
1268;181.4190216064453
1269;181.14578247070312
1270;180.87295532226562
1271;180.6005859375
1272;180.3284912109375
1273;180.05685424804688
1274;179.78561401367188
1275;179.51478576660156
1276;179.2443389892578
1277;178.9741973876953
1278;178.70445251464844
1279;178.4351043701172
1280;178.16610717773438
1281;177.8975830078125
1282;177.62936401367188
1283;177.3615264892578
1284;177.09413146972656
1285;176.8270721435547
1286;176.5604705810547
1287;176.29420471191406
1288;176.02828979492188
1289;175.7627716064453
1290;175.49758911132812
1291;175.2328643798828
1292;174.96847534179688
1293;174.7043914794922
1294;174.44078063964844
1295;174.17750549316406
1296;173.9146270751953
1297;173.65213012695312
1298;173.38999938964844
1299;173.1282501220703
1300;172.8668670654297
1301;172.6058807373047
1302;172.34521484375
1303;172.0850067138672
1304;171.82516479492188
1305;171.56570434570312
1306;171.30661010742188
1307;171.04783630371094
1308;170.78945922851562
1309;170.5314178466797
1310;170.27383422851562
1311;170.01651000976562
1312;169.7596435546875
1313;169.5030975341797
1314;169.2469940185547
1315;168.99122619628906
1316;168.73582458496094
1317;168.48081970214844
1318;168.2261505126953
1319;167.9718475341797
1320;167.7179412841797
1321;167.46435546875
1322;167.21115112304688
1323;166.95835876464844
1324;166.7058868408203
1325;166.45375061035156
1326;166.20205688476562
1327;165.95069885253906
1328;165.69970703125
1329;165.44911193847656
1330;165.19882202148438
1331;164.9489288330078
1332;164.6993408203125
1333;164.45016479492188
1334;164.20130920410156
1335;163.95286560058594
1336;163.70469665527344
1337;163.45701599121094
1338;163.20957946777344
1339;162.96253967285156
1340;162.71591186523438
1341;162.46963500976562
1342;162.22372436523438
1343;161.97813415527344
1344;161.7329559326172
1345;161.48805236816406
1346;161.24356079101562
1347;160.99940490722656
1348;160.75564575195312
1349;160.51222229003906
1350;160.2691650390625
1351;160.0264434814453
1352;159.78408813476562
1353;159.54212951660156
1354;159.3004150390625
1355;159.05917358398438
1356;158.81820678710938
1357;158.57760620117188
1358;158.33731079101562
1359;158.097412109375
1360;157.85791015625
1361;157.61875915527344
1362;157.37991333007812
1363;157.1414794921875
1364;156.90335083007812
1365;156.6655731201172
1366;156.4281463623047
1367;156.19105529785156
1368;155.95431518554688
1369;155.7179718017578
1370;155.4818878173828
1371;155.2462158203125
1372;155.01089477539062
1373;154.77587890625
1374;154.54122924804688
1375;154.30699157714844
1376;154.07302856445312
1377;153.83946228027344
1378;153.6062469482422
1379;153.3733673095703
1380;153.14083862304688
1381;152.90859985351562
1382;152.6767578125
1383;152.44520568847656
1384;152.21408081054688
1385;151.98326110839844
1386;151.75279235839844
1387;151.52267456054688
1388;151.2928924560547
1389;151.0634307861328
1390;150.83432006835938
1391;150.6055450439453
1392;150.3771514892578
1393;150.14903259277344
1394;149.92127990722656
1395;149.69387817382812
1396;149.46681213378906
1397;149.24014282226562
1398;149.01376342773438
1399;148.78770446777344
1400;148.56198120117188
1401;148.33663940429688
1402;148.11158752441406
1403;147.88693237304688
1404;147.66261291503906
1405;147.4385986328125
1406;147.21493530273438
1407;146.9916229248047
1408;146.76864624023438
1409;146.54600524902344
1410;146.32369995117188
1411;146.1017303466797
1412;145.88009643554688
1413;145.6587371826172
1414;145.43775939941406
1415;145.2171173095703
1416;144.99681091308594
1417;144.77684020996094
1418;144.5572052001953
1419;144.337890625
1420;144.1188507080078
1421;143.90020751953125
1422;143.68186950683594
1423;143.46389770507812
1424;143.24624633789062
1425;143.0288848876953
1426;142.81190490722656
1427;142.59519958496094
1428;142.37884521484375
1429;142.1627960205078
1430;141.94712829589844
1431;141.7317657470703
1432;141.5167999267578
1433;141.30201721191406
1434;141.08766174316406
1435;140.87362670898438
1436;140.65989685058594
1437;140.44651794433594
1438;140.2334442138672
1439;140.02073669433594
1440;139.8082733154297
1441;139.59619140625
1442;139.38442993164062
1443;139.1729278564453
1444;138.96182250976562
1445;138.7510528564453
1446;138.54051208496094
1447;138.3303680419922
1448;138.12049865722656
1449;137.91099548339844
1450;137.70179748535156
1451;137.49293518066406
1452;137.28439331054688
1453;137.07614135742188
1454;136.8682098388672
1455;136.66061401367188
1456;136.453369140625
1457;136.24639892578125
1458;136.0397186279297
1459;135.8334197998047
1460;135.62744140625
1461;135.42176818847656
1462;135.21640014648438
1463;135.01136779785156
1464;134.80662536621094
1465;134.60220336914062
1466;134.39810180664062
1467;134.1942901611328
1468;133.99082946777344
1469;133.78768920898438
1470;133.58485412597656
1471;133.38235473632812
1472;133.18011474609375
1473;132.97824096679688
1474;132.77664184570312
1475;132.57533264160156
1476;132.3743438720703
1477;132.17372131347656
1478;131.97335815429688
1479;131.77334594726562
1480;131.57362365722656
1481;131.3742218017578
1482;131.17514038085938
1483;130.97634887695312
1484;130.7779083251953
1485;130.57974243164062
1486;130.38189697265625
1487;130.18435668945312
1488;129.9871368408203
1489;129.7902069091797
1490;129.5935516357422
1491;129.39723205566406
1492;129.2012481689453
1493;129.00555419921875
1494;128.81016540527344
1495;128.61508178710938
1496;128.42030334472656
1497;128.22581481933594
1498;128.0316619873047
1499;127.83778381347656
1500;127.64422607421875
1501;127.45096588134766
1502;127.25801849365234
1503;127.06539154052734
1504;126.87303161621094
1505;126.6810073852539
1506;126.48925018310547
1507;126.29781341552734
1508;126.10668182373047
1509;125.91585540771484
1510;125.72529602050781
1511;125.53508758544922
1512;125.3451156616211
1513;125.1554946899414
1514;124.96617126464844
1515;124.77711486816406
1516;124.58837890625
1517;124.39990997314453
1518;124.21177673339844
1519;124.02388763427734
1520;123.83631896972656
1521;123.64904022216797
1522;123.46214294433594
1523;123.27547454833984
1524;123.08910369873047
1525;122.90299224853516
1526;122.71720886230469
1527;122.53174591064453
1528;122.34656524658203
1529;122.16168975830078
1530;121.97708892822266
1531;121.79283142089844
1532;121.60880279541016
1533;121.42511749267578
1534;121.24168395996094
1535;121.05854034423828
1536;120.87571716308594
1537;120.6931381225586
1538;120.51090240478516
1539;120.32896423339844
1540;120.14727783203125
1541;119.96590423583984
1542;119.7848129272461
1543;119.60398864746094
1544;119.42350006103516
1545;119.24327850341797
1546;119.06336975097656
1547;118.88374328613281
1548;118.70440673828125
1549;118.52533721923828
1550;118.34660339355469
1551;118.16810607910156
1552;117.98993682861328
1553;117.81201934814453
1554;117.63439178466797
1555;117.45708465576172
1556;117.28004455566406
1557;117.10328674316406
1558;116.92683410644531
1559;116.75062561035156
1560;116.57469940185547
1561;116.39911651611328
1562;116.2237548828125
1563;116.0487060546875
1564;115.87393951416016
1565;115.6994400024414
1566;115.52523040771484
1567;115.35131072998047
1568;115.17767333984375
1569;115.00428771972656
1570;114.8311996459961
1571;114.6584243774414
1572;114.48591613769531
1573;114.31372833251953
1574;114.14173889160156
1575;113.9700927734375
1576;113.79866790771484
1577;113.62754821777344
1578;113.45670318603516
1579;113.28614044189453
1580;113.11585235595703
1581;112.94585418701172
1582;112.77611541748047
1583;112.60667419433594
1584;112.43751525878906
1585;112.26860046386719
1586;112.09999084472656
1587;111.93163299560547
1588;111.76356506347656
1589;111.59580993652344
1590;111.42827606201172
1591;111.26102447509766
1592;111.09404754638672
1593;110.9273452758789
1594;110.76093292236328
1595;110.59484100341797
1596;110.42897033691406
1597;110.26337432861328
1598;110.09803771972656
1599;109.93296813964844
1600;109.7681884765625
1601;109.60369110107422
1602;109.43944549560547
1603;109.27546691894531
1604;109.11180114746094
1605;108.94834899902344
1606;108.78516387939453
1607;108.622314453125
1608;108.4596939086914
1609;108.29737091064453
1610;108.13532257080078
1611;107.97350311279297
1612;107.81197357177734
1613;107.65071105957031
1614;107.48970794677734
1615;107.32899475097656
1616;107.16853332519531
1617;107.00836944580078
1618;106.84844207763672
1619;106.68878173828125
1620;106.52936553955078
1621;106.3702621459961
1622;106.21138763427734
1623;106.05279541015625
1624;105.89447784423828
1625;105.7364273071289
1626;105.57861328125
1627;105.42108917236328
1628;105.2637939453125
1629;105.10675048828125
1630;104.95001220703125
1631;104.79352569580078
1632;104.63726043701172
1633;104.4813232421875
1634;104.32562255859375
1635;104.17017364501953
1636;104.0149917602539
1637;103.86005401611328
1638;103.70536804199219
1639;103.55097961425781
1640;103.3968505859375
1641;103.24295806884766
1642;103.0893325805664
1643;102.93596649169922
1644;102.78288269042969
1645;102.63004302978516
1646;102.47743225097656
1647;102.3250961303711
1648;102.17302703857422
1649;102.02120208740234
1650;101.86961364746094
1651;101.71830749511719
1652;101.56726837158203
1653;101.4164810180664
1654;101.26593780517578
1655;101.11564636230469
1656;100.96565246582031
1657;100.81587219238281
1658;100.66632843017578
1659;100.51708221435547
1660;100.36805725097656
1661;100.21929168701172
1662;100.07083892822266
1663;99.92255401611328
1664;99.77457427978516
1665;99.6268310546875
1666;99.4793472290039
1667;99.33208465576172
1668;99.1850814819336
1669;99.03834533691406
1670;98.891845703125
1671;98.74559020996094
1672;98.5995864868164
1673;98.45384216308594
1674;98.308349609375
1675;98.16307830810547
1676;98.01810455322266
1677;97.87334442138672
1678;97.7288589477539
1679;97.58460235595703
1680;97.44063568115234
1681;97.296875
1682;97.15338134765625
1683;97.01008605957031
1684;96.86708068847656
1685;96.72431945800781
1686;96.58182525634766
1687;96.4395523071289
1688;96.29750061035156
1689;96.1557388305664
1690;96.01419830322266
1691;95.87290954589844
1692;95.7318344116211
1693;95.59101104736328
1694;95.45044708251953
1695;95.31012725830078
1696;95.17002868652344
1697;95.03018951416016
1698;94.8906021118164
1699;94.7512435913086
1700;94.61211395263672
1701;94.4732437133789
1702;94.33460235595703
1703;94.19622802734375
1704;94.05805969238281
1705;93.92015075683594
1706;93.7824935913086
1707;93.64503479003906
1708;93.50782775878906
1709;93.37088775634766
1710;93.2341537475586
1711;93.09767150878906
1712;92.96141815185547
1713;92.82544708251953
1714;92.6896743774414
1715;92.55413055419922
1716;92.41883087158203
1717;92.28376770019531
1718;92.14898681640625
1719;92.01439666748047
1720;91.88005065917969
1721;91.74596405029297
1722;91.6120834350586
1723;91.4784927368164
1724;91.3450927734375
1725;91.21190643310547
1726;91.07899475097656
1727;90.94628143310547
1728;90.81378936767578
1729;90.68156433105469
1730;90.54957580566406
1731;90.4178237915039
1732;90.28627014160156
1733;90.15497589111328
1734;90.02391052246094
1735;89.89306640625
1736;89.7624740600586
1737;89.63214111328125
1738;89.50196838378906
1739;89.37205505371094
1740;89.24234771728516
1741;89.1128921508789
1742;88.98369598388672
1743;88.85468292236328
1744;88.72589874267578
1745;88.59736633300781
1746;88.46906280517578
1747;88.34095764160156
1748;88.21311950683594
1749;88.08549499511719
1750;87.95808410644531
1751;87.83092498779297
1752;87.70397186279297
1753;87.5772476196289
1754;87.45075225830078
1755;87.32452392578125
1756;87.19847869873047
1757;87.07263946533203
1758;86.94706726074219
1759;86.82170104980469
1760;86.69657897949219
1761;86.57164001464844
1762;86.4469223022461
1763;86.32247161865234
1764;86.19820404052734
1765;86.0741958618164
1766;85.95039367675781
1767;85.82682037353516
1768;85.70348358154297
1769;85.5803451538086
1770;85.45743560791016
1771;85.33473205566406
1772;85.2122573852539
1773;85.09000396728516
1774;84.96797180175781
1775;84.8461685180664
1776;84.72455596923828
1777;84.60321044921875
1778;84.48204803466797
1779;84.3611068725586
1780;84.24039459228516
1781;84.11994171142578
1782;83.99962615966797
1783;83.87958526611328
1784;83.759765625
1785;83.64012908935547
1786;83.5207290649414
1787;83.40152740478516
1788;83.28255462646484
1789;83.1637954711914
1790;83.0452651977539
1791;82.92695617675781
1792;82.80885314941406
1793;82.6909408569336
1794;82.57328033447266
1795;82.45579528808594
1796;82.33855438232422
1797;82.22151947021484
1798;82.1047134399414
1799;81.98809814453125
1800;81.8717269897461
1801;81.75553894042969
1802;81.63956451416016
1803;81.5238037109375
1804;81.40826416015625
1805;81.29293060302734
1806;81.17779541015625
1807;81.0628890991211
1808;80.94817352294922
1809;80.83367919921875
1810;80.71941375732422
1811;80.6053237915039
1812;80.49149322509766
1813;80.3778076171875
1814;80.26438903808594
1815;80.15116119384766
1816;80.0381088256836
1817;79.92533874511719
1818;79.81269836425781
1819;79.70030212402344
1820;79.58811950683594
1821;79.47614288330078
1822;79.3643798828125
1823;79.2528076171875
1824;79.14142608642578
1825;79.0302734375
1826;78.91932678222656
1827;78.80855560302734
1828;78.69803619384766
1829;78.58770751953125
1830;78.47760009765625
1831;78.36766815185547
1832;78.25794982910156
1833;78.14842224121094
1834;78.03911590576172
1835;77.93000030517578
1836;77.82110595703125
1837;77.71240234375
1838;77.6039047241211
1839;77.49561309814453
1840;77.38750457763672
1841;77.27960968017578
1842;77.17191314697266
1843;77.064453125
1844;76.95714569091797
1845;76.8500747680664
1846;76.74317169189453
1847;76.63648986816406
1848;76.52999114990234
1849;76.42371368408203
1850;76.317626953125
1851;76.21175384521484
1852;76.1060562133789
1853;76.00055694580078
1854;75.89527130126953
1855;75.7901840209961
1856;75.68531036376953
1857;75.58060455322266
1858;75.47612762451172
1859;75.371826171875
1860;75.26771545410156
1861;75.16380310058594
1862;75.06009674072266
1863;74.95658874511719
1864;74.85326385498047
1865;74.7501449584961
1866;74.647216796875
1867;74.54447174072266
1868;74.44195556640625
1869;74.33960723876953
1870;74.23748016357422
1871;74.135498046875
1872;74.03374481201172
1873;73.93216705322266
1874;73.83079528808594
1875;73.72962188720703
1876;73.62862396240234
1877;73.52783966064453
1878;73.42723846435547
1879;73.32682037353516
1880;73.2265853881836
1881;73.1265869140625
1882;73.02674102783203
1883;72.92707824707031
1884;72.82764434814453
1885;72.72837829589844
1886;72.62931060791016
1887;72.5304183959961
1888;72.43174743652344
1889;72.3332290649414
1890;72.23492431640625
1891;72.13678741455078
1892;72.03885650634766
1893;71.94109344482422
1894;71.84354400634766
1895;71.74614715576172
1896;71.64897155761719
1897;71.55197143554688
1898;71.45515441894531
1899;71.35851287841797
1900;71.26209259033203
1901;71.16581726074219
1902;71.06977081298828
1903;70.97388458251953
1904;70.878173828125
1905;70.78266143798828
1906;70.68730926513672
1907;70.5921859741211
1908;70.49723052978516
1909;70.40242767333984
1910;70.30785369873047
1911;70.21346282958984
1912;70.11922454833984
1913;70.02519226074219
1914;69.93133544921875
1915;69.83766174316406
1916;69.74417877197266
1917;69.65086364746094
1918;69.55772399902344
1919;69.46479797363281
1920;69.37201690673828
1921;69.27942657470703
1922;69.1870346069336
1923;69.09481811523438
1924;69.00276947021484
1925;68.91092681884766
1926;68.8192367553711
1927;68.72772979736328
1928;68.63640594482422
1929;68.5452651977539
1930;68.45429229736328
1931;68.36351013183594
1932;68.27289581298828
1933;68.18247985839844
1934;68.09220886230469
1935;68.00212860107422
1936;67.91224670410156
1937;67.8225326538086
1938;67.73299407958984
1939;67.64363098144531
1940;67.554443359375
1941;67.46543884277344
1942;67.37660217285156
1943;67.28792572021484
1944;67.199462890625
1945;67.11112976074219
1946;67.02299499511719
1947;66.93504333496094
1948;66.84724426269531
1949;66.75963592529297
1950;66.6722183227539
1951;66.5849380493164
1952;66.49784088134766
1953;66.4109115600586
1954;66.32418060302734
1955;66.23761749267578
1956;66.15119934082031
1957;66.06497955322266
1958;65.9789047241211
1959;65.89302062988281
1960;65.80730438232422
1961;65.72175598144531
1962;65.63639831542969
1963;65.55117797851562
1964;65.4661636352539
1965;65.38131713867188
1966;65.29661560058594
1967;65.21209716796875
1968;65.12773895263672
1969;65.04356384277344
1970;64.95952606201172
1971;64.87568664550781
1972;64.79202270507812
1973;64.70851135253906
1974;64.62516784667969
1975;64.54197692871094
1976;64.45897674560547
1977;64.37614440917969
1978;64.29347229003906
1979;64.2109603881836
1980;64.12861633300781
1981;64.04644012451172
1982;63.964447021484375
1983;63.88257598876953
1984;63.80091094970703
1985;63.71940231323242
1986;63.638057708740234
1987;63.556888580322266
1988;63.475860595703125
1989;63.3950080871582
1990;63.31432342529297
1991;63.23379135131836
1992;63.153438568115234
1993;63.07322311401367
1994;62.993194580078125
1995;62.9133186340332
1996;62.833614349365234
1997;62.75407028198242
1998;62.674678802490234
1999;62.595455169677734
2000;62.51639175415039
2001;62.43749237060547
2002;62.35873794555664
2003;62.280155181884766
2004;62.20174026489258
2005;62.12348556518555
2006;62.045387268066406
2007;61.967437744140625
2008;61.889678955078125
2009;61.81206512451172
2010;61.734596252441406
2011;61.65729904174805
2012;61.58013916015625
2013;61.503177642822266
2014;61.426334381103516
2015;61.349674224853516
2016;61.273170471191406
2017;61.19681930541992
2018;61.12062454223633
2019;61.044593811035156
2020;60.96869659423828
2021;60.89298629760742
2022;60.81742477416992
2023;60.74202346801758
2024;60.66675567626953
2025;60.591678619384766
2026;60.51673126220703
2027;60.44194412231445
2028;60.36732864379883
2029;60.2928466796875
2030;60.2185173034668
2031;60.14433670043945
2032;60.070335388183594
2033;59.996463775634766
2034;59.9227409362793
2035;59.84920120239258
2036;59.77579879760742
2037;59.702571868896484
2038;59.629459381103516
2039;59.556522369384766
2040;59.483734130859375
2041;59.41108322143555
2042;59.33859634399414
2043;59.26626968383789
2044;59.19408416748047
2045;59.12205123901367
2046;59.0501594543457
2047;58.97842788696289
2048;58.90685272216797
2049;58.835426330566406
2050;58.76415252685547
2051;58.692996978759766
2052;58.62203598022461
2053;58.55120086669922
2054;58.48052978515625
2055;58.40999221801758
2056;58.339595794677734
2057;58.269378662109375
2058;58.199275970458984
2059;58.129337310791016
2060;58.059539794921875
2061;57.989891052246094
2062;57.920406341552734
2063;57.851043701171875
2064;57.7818489074707
2065;57.7127685546875
2066;57.64385223388672
2067;57.57508087158203
2068;57.50646209716797
2069;57.43800735473633
2070;57.36967849731445
2071;57.301483154296875
2072;57.233455657958984
2073;57.165550231933594
2074;57.0977897644043
2075;57.03019332885742
2076;56.962730407714844
2077;56.895416259765625
2078;56.8282356262207
2079;56.76119613647461
2080;56.6943244934082
2081;56.62757110595703
2082;56.56096267700195
2083;56.4945068359375
2084;56.42818832397461
2085;56.362003326416016
2086;56.29597854614258
2087;56.230079650878906
2088;56.16431427001953
2089;56.09872055053711
2090;56.03323745727539
2091;55.9679069519043
2092;55.902713775634766
2093;55.83766555786133
2094;55.772769927978516
2095;55.7079963684082
2096;55.643367767333984
2097;55.578887939453125
2098;55.51453399658203
2099;55.450321197509766
2100;55.386234283447266
2101;55.322322845458984
2102;55.25850296020508
2103;55.19485092163086
2104;55.13132858276367
2105;55.06795883178711
2106;55.00469970703125
2107;54.94160842895508
2108;54.87862014770508
2109;54.81578826904297
2110;54.75309371948242
2111;54.69052505493164
2112;54.62809371948242
2113;54.56582260131836
2114;54.50364303588867
2115;54.4416389465332
2116;54.37975311279297
2117;54.31800079345703
2118;54.25638961791992
2119;54.19491195678711
2120;54.13356399536133
2121;54.072349548339844
2122;54.011268615722656
2123;53.9503173828125
2124;53.88950729370117
2125;53.828826904296875
2126;53.76828384399414
2127;53.70786666870117
2128;53.647586822509766
2129;53.587440490722656
2130;53.52742385864258
2131;53.46755599975586
2132;53.40778732299805
2133;53.348175048828125
2134;53.2886962890625
2135;53.22932052612305
2136;53.17009735107422
2137;53.11101150512695
2138;53.05203628540039
2139;52.993194580078125
2140;52.93449020385742
2141;52.87592315673828
2142;52.81746292114258
2143;52.759159088134766
2144;52.70096969604492
2145;52.642906188964844
2146;52.58498001098633
2147;52.52717971801758
2148;52.469512939453125
2149;52.41196060180664
2150;52.35454177856445
2151;52.2972412109375
2152;52.24008560180664
2153;52.183040618896484
2154;52.126129150390625
2155;52.06935501098633
2156;52.012691497802734
2157;51.9561767578125
2158;51.8997688293457
2159;51.84349822998047
2160;51.78733444213867
2161;51.7313117980957
2162;51.6754150390625
2163;51.619659423828125
2164;51.56399154663086
2165;51.50847244262695
2166;51.45305633544922
2167;51.39778518676758
2168;51.342620849609375
2169;51.287593841552734
2170;51.232696533203125
2171;51.177913665771484
2172;51.12325668334961
2173;51.068729400634766
2174;51.01430892944336
2175;50.960025787353516
2176;50.90584945678711
2177;50.851806640625
2178;50.79788589477539
2179;50.744083404541016
2180;50.6904182434082
2181;50.63684844970703
2182;50.58340072631836
2183;50.530113220214844
2184;50.47692108154297
2185;50.4238395690918
2186;50.37089157104492
2187;50.31806182861328
2188;50.265350341796875
2189;50.21274948120117
2190;50.16028594970703
2191;50.1079216003418
2192;50.055694580078125
2193;50.00357437133789
2194;49.951568603515625
2195;49.899688720703125
2196;49.847957611083984
2197;49.796295166015625
2198;49.744773864746094
2199;49.69336700439453
2200;49.642086029052734
2201;49.59090042114258
2202;49.53987503051758
2203;49.488922119140625
2204;49.4381103515625
2205;49.38740921020508
2206;49.33681106567383
2207;49.286354064941406
2208;49.235984802246094
2209;49.18575668334961
2210;49.1356315612793
2211;49.08561325073242
2212;49.03571319580078
2213;48.9859504699707
2214;48.936279296875
2215;48.88673782348633
2216;48.83729934692383
2217;48.787986755371094
2218;48.73877716064453
2219;48.6896858215332
2220;48.64069366455078
2221;48.591835021972656
2222;48.5430908203125
2223;48.494441986083984
2224;48.4459228515625
2225;48.39750289916992
2226;48.34920883178711
2227;48.301021575927734
2228;48.252952575683594
2229;48.20498275756836
2230;48.15712356567383
2231;48.1093864440918
2232;48.06174850463867
2233;48.01424026489258
2234;47.96682357788086
2235;47.919525146484375
2236;47.872337341308594
2237;47.82525634765625
2238;47.77829360961914
2239;47.7314567565918
2240;47.6846923828125
2241;47.63805389404297
2242;47.59153366088867
2243;47.54511260986328
2244;47.49880599975586
2245;47.45259475708008
2246;47.4065055847168
2247;47.36052703857422
2248;47.31464767456055
2249;47.26887130737305
2250;47.223209381103516
2251;47.17766571044922
2252;47.132225036621094
2253;47.08687973022461
2254;47.04165267944336
2255;46.99652862548828
2256;46.95151138305664
2257;46.906593322753906
2258;46.86178970336914
2259;46.81710433959961
2260;46.77250289916992
2261;46.72801971435547
2262;46.683631896972656
2263;46.63936233520508
2264;46.59518051147461
2265;46.55111312866211
2266;46.50716018676758
2267;46.46329879760742
2268;46.4195442199707
2269;46.37590408325195
2270;46.33235549926758
2271;46.28891372680664
2272;46.24557113647461
2273;46.20233917236328
2274;46.159210205078125
2275;46.11618423461914
2276;46.07326889038086
2277;46.03043746948242
2278;45.98772430419922
2279;45.94511032104492
2280;45.90259552001953
2281;45.86019515991211
2282;45.817867279052734
2283;45.77566146850586
2284;45.73355484008789
2285;45.69155502319336
2286;45.6496467590332
2287;45.60784912109375
2288;45.56613540649414
2289;45.524539947509766
2290;45.483028411865234
2291;45.44162368774414
2292;45.400333404541016
2293;45.359130859375
2294;45.31802749633789
2295;45.27701187133789
2296;45.23611068725586
2297;45.1953125
2298;45.15459442138672
2299;45.1140022277832
2300;45.073486328125
2301;45.033077239990234
2302;44.99277877807617
2303;44.952571868896484
2304;44.91244125366211
2305;44.87241744995117
2306;44.83249282836914
2307;44.79266357421875
2308;44.75293731689453
2309;44.71330642700195
2310;44.67377853393555
2311;44.634334564208984
2312;44.594993591308594
2313;44.55575180053711
2314;44.5166015625
2315;44.4775505065918
2316;44.438594818115234
2317;44.39973831176758
2318;44.36096954345703
2319;44.32228469848633
2320;44.28371810913086
2321;44.2452507019043
2322;44.20684814453125
2323;44.1685676574707
2324;44.13036346435547
2325;44.092254638671875
2326;44.05425262451172
2327;44.01633071899414
2328;43.97849655151367
2329;43.940765380859375
2330;43.90311813354492
2331;43.86559295654297
2332;43.8281364440918
2333;43.790775299072266
2334;43.753501892089844
2335;43.71633529663086
2336;43.67925262451172
2337;43.64226531982422
2338;43.60536575317383
2339;43.56856155395508
2340;43.531837463378906
2341;43.49522018432617
2342;43.45869064331055
2343;43.42224884033203
2344;43.38589096069336
2345;43.349639892578125
2346;43.31345748901367
2347;43.277381896972656
2348;43.24139404296875
2349;43.20548629760742
2350;43.169681549072266
2351;43.13395309448242
2352;43.098331451416016
2353;43.062782287597656
2354;43.02733612060547
2355;42.991973876953125
2356;42.95669174194336
2357;42.921504974365234
2358;42.88640594482422
2359;42.85137939453125
2360;42.81646728515625
2361;42.78162384033203
2362;42.746891021728516
2363;42.71220779418945
2364;42.67764663696289
2365;42.64313888549805
2366;42.60874557495117
2367;42.5744514465332
2368;42.54022979736328
2369;42.50608444213867
2370;42.4720344543457
2371;42.43806076049805
2372;42.40419387817383
2373;42.370391845703125
2374;42.336673736572266
2375;42.303062438964844
2376;42.269508361816406
2377;42.2360725402832
2378;42.202693939208984
2379;42.16940689086914
2380;42.1362190246582
2381;42.10309982299805
2382;42.070068359375
2383;42.037113189697266
2384;42.0042610168457
2385;41.971492767333984
2386;41.93878936767578
2387;41.906158447265625
2388;41.87363815307617
2389;41.84119415283203
2390;41.808837890625
2391;41.776573181152344
2392;41.74436569213867
2393;41.712249755859375
2394;41.68022537231445
2395;41.64826583862305
2396;41.616397857666016
2397;41.584617614746094
2398;41.55291748046875
2399;41.521305084228516
2400;41.4897575378418
2401;41.45829391479492
2402;41.42693328857422
2403;41.3956298828125
2404;41.364418029785156
2405;41.33327102661133
2406;41.30221176147461
2407;41.27124786376953
2408;41.24034881591797
2409;41.20953369140625
2410;41.1788215637207
2411;41.14815139770508
2412;41.1175651550293
2413;41.08707809448242
2414;41.056678771972656
2415;41.02631759643555
2416;40.99606704711914
2417;40.965877532958984
2418;40.93578338623047
2419;40.90576171875
2420;40.87582015991211
2421;40.84592819213867
2422;40.8161506652832
2423;40.786441802978516
2424;40.756813049316406
2425;40.72724151611328
2426;40.697757720947266
2427;40.66836166381836
2428;40.639034271240234
2429;40.60976791381836
2430;40.580604553222656
2431;40.55152130126953
2432;40.522491455078125
2433;40.493553161621094
2434;40.46467971801758
2435;40.435890197753906
2436;40.40717697143555
2437;40.37853240966797
2438;40.34996795654297
2439;40.321475982666016
2440;40.29307174682617
2441;40.26472091674805
2442;40.23645782470703
2443;40.20827865600586
2444;40.180145263671875
2445;40.152103424072266
2446;40.12412643432617
2447;40.09623336791992
2448;40.06841278076172
2449;40.04067611694336
2450;40.01301193237305
2451;39.98540496826172
2452;39.9578857421875
2453;39.93043899536133
2454;39.90304946899414
2455;39.875732421875
2456;39.8485107421875
2457;39.82134246826172
2458;39.79426193237305
2459;39.76723861694336
2460;39.74030303955078
2461;39.713409423828125
2462;39.686622619628906
2463;39.65989303588867
2464;39.63323211669922
2465;39.60665512084961
2466;39.58013153076172
2467;39.55368423461914
2468;39.52731704711914
2469;39.50100326538086
2470;39.474769592285156
2471;39.44862747192383
2472;39.422515869140625
2473;39.396484375
2474;39.37054443359375
2475;39.34467315673828
2476;39.318851470947266
2477;39.29311752319336
2478;39.26743698120117
2479;39.24182891845703
2480;39.21630859375
2481;39.19082260131836
2482;39.16542434692383
2483;39.14009475708008
2484;39.11484146118164
2485;39.08966064453125
2486;39.06453323364258
2487;39.03947067260742
2488;39.014469146728516
2489;38.989566802978516
2490;38.9647102355957
2491;38.93992233276367
2492;38.91521453857422
2493;38.89056396484375
2494;38.86598587036133
2495;38.84146499633789
2496;38.81700897216797
2497;38.79262161254883
2498;38.7683219909668
2499;38.74406814575195
2500;38.71988296508789
2501;38.695762634277344
2502;38.67171096801758
2503;38.64772415161133
2504;38.62379837036133
2505;38.59994125366211
2506;38.576168060302734
2507;38.55244827270508
2508;38.528778076171875
2509;38.505184173583984
2510;38.481658935546875
2511;38.45819854736328
2512;38.43479537963867
2513;38.41146469116211
2514;38.38819122314453
2515;38.3649787902832
2516;38.34183120727539
2517;38.31875991821289
2518;38.29574966430664
2519;38.272804260253906
2520;38.249908447265625
2521;38.227088928222656
2522;38.204322814941406
2523;38.181636810302734
2524;38.15898895263672
2525;38.13641357421875
2526;38.11391067504883
2527;38.091461181640625
2528;38.069091796875
2529;38.0467529296875
2530;38.024497985839844
2531;38.00229263305664
2532;37.98016357421875
2533;37.958072662353516
2534;37.93606185913086
2535;37.91411590576172
2536;37.89223098754883
2537;37.870391845703125
2538;37.848636627197266
2539;37.8269157409668
2540;37.805274963378906
2541;37.7836799621582
2542;37.76216506958008
2543;37.740699768066406
2544;37.71928787231445
2545;37.69794464111328
2546;37.6766471862793
2547;37.655426025390625
2548;37.63425827026367
2549;37.613162994384766
2550;37.59210968017578
2551;37.57112503051758
2552;37.55020523071289
2553;37.52933120727539
2554;37.50851821899414
2555;37.487762451171875
2556;37.46706771850586
2557;37.446434020996094
2558;37.42586135864258
2559;37.405338287353516
2560;37.38488006591797
2561;37.364479064941406
2562;37.344139099121094
2563;37.3238410949707
2564;37.30363082885742
2565;37.283447265625
2566;37.2633171081543
2567;37.2432746887207
2568;37.223270416259766
2569;37.203330993652344
2570;37.183441162109375
2571;37.16361618041992
2572;37.14384841918945
2573;37.12411880493164
2574;37.104469299316406
2575;37.084869384765625
2576;37.065311431884766
2577;37.045814514160156
2578;37.0263786315918
2579;37.00699996948242
2580;36.98766326904297
2581;36.968406677246094
2582;36.94919204711914
2583;36.93002700805664
2584;36.91093826293945
2585;36.891868591308594
2586;36.87288284301758
2587;36.853939056396484
2588;36.835052490234375
2589;36.81622314453125
2590;36.797447204589844
2591;36.778724670410156
2592;36.760047912597656
2593;36.74144744873047
2594;36.72288131713867
2595;36.70438003540039
2596;36.68593215942383
2597;36.66752243041992
2598;36.64917755126953
2599;36.63088607788086
2600;36.61265182495117
2601;36.5944709777832
2602;36.576316833496094
2603;36.5582389831543
2604;36.54021453857422
2605;36.522239685058594
2606;36.50431442260742
2607;36.486446380615234
2608;36.46860885620117
2609;36.450836181640625
2610;36.43313980102539
2611;36.41547775268555
2612;36.39785385131836
2613;36.38029861450195
2614;36.362789154052734
2615;36.34532928466797
2616;36.32793045043945
2617;36.310569763183594
2618;36.29326629638672
2619;36.27600860595703
2620;36.2588005065918
2621;36.24163818359375
2622;36.22454071044922
2623;36.20749282836914
2624;36.19049835205078
2625;36.17353439331055
2626;36.15663528442383
2627;36.13977813720703
2628;36.122982025146484
2629;36.106204986572266
2630;36.08950424194336
2631;36.0728645324707
2632;36.05625534057617
2633;36.03969955444336
2634;36.023189544677734
2635;36.00672149658203
2636;35.990325927734375
2637;35.97395706176758
2638;35.957637786865234
2639;35.94138717651367
2640;35.92516326904297
2641;35.90900421142578
2642;35.89289474487305
2643;35.87680435180664
2644;35.86078643798828
2645;35.844810485839844
2646;35.828880310058594
2647;35.81300735473633
2648;35.79717254638672
2649;35.78137969970703
2650;35.76563262939453
2651;35.74996566772461
2652;35.73432159423828
2653;35.71870803833008
2654;35.70315933227539
2655;35.68764114379883
2656;35.67219924926758
2657;35.65679168701172
2658;35.64141082763672
2659;35.6260986328125
2660;35.61082077026367
2661;35.5955924987793
2662;35.580421447753906
2663;35.56527328491211
2664;35.55018997192383
2665;35.53514862060547
2666;35.5201530456543
2667;35.505191802978516
2668;35.49028778076172
2669;35.475433349609375
2670;35.46061706542969
2671;35.445831298828125
2672;35.43111038208008
2673;35.416419982910156
2674;35.40178680419922
2675;35.38718795776367
2676;35.37263107299805
2677;35.35812759399414
2678;35.343666076660156
2679;35.329254150390625
2680;35.314876556396484
2681;35.30055618286133
2682;35.286251068115234
2683;35.27202606201172
2684;35.25780487060547
2685;35.24365997314453
2686;35.22954177856445
2687;35.21547317504883
2688;35.201454162597656
2689;35.18747329711914
2690;35.173526763916016
2691;35.15961837768555
2692;35.145751953125
2693;35.13195037841797
2694;35.11819076538086
2695;35.10445022583008
2696;35.09076690673828
2697;35.077125549316406
2698;35.063514709472656
2699;35.04995346069336
2700;35.03644561767578
2701;35.02296829223633
2702;35.00952911376953
2703;34.99612808227539
2704;34.98278045654297
2705;34.969478607177734
2706;34.956214904785156
2707;34.942970275878906
2708;34.92979431152344
2709;34.91663360595703
2710;34.903526306152344
2711;34.89045333862305
2712;34.87743377685547
2713;34.86445236206055
2714;34.851497650146484
2715;34.838600158691406
2716;34.825748443603516
2717;34.81290817260742
2718;34.80012130737305
2719;34.787391662597656
2720;34.774681091308594
2721;34.76200485229492
2722;34.7493782043457
2723;34.736793518066406
2724;34.724266052246094
2725;34.71175003051758
2726;34.69927978515625
2727;34.686851501464844
2728;34.674461364746094
2729;34.66210174560547
2730;34.649803161621094
2731;34.63751983642578
2732;34.62529373168945
2733;34.61309051513672
2734;34.60092544555664
2735;34.588809967041016
2736;34.576725006103516
2737;34.5646858215332
2738;34.55266189575195
2739;34.54071044921875
2740;34.528770446777344
2741;34.51688003540039
2742;34.50503158569336
2743;34.49320602416992
2744;34.481422424316406
2745;34.46968078613281
2746;34.45796203613281
2747;34.446311950683594
2748;34.43467330932617
2749;34.423072814941406
2750;34.411521911621094
2751;34.399993896484375
2752;34.38852310180664
2753;34.377079010009766
2754;34.36566162109375
2755;34.35427474975586
2756;34.34293746948242
2757;34.331642150878906
2758;34.320369720458984
2759;34.30913543701172
2760;34.297950744628906
2761;34.286781311035156
2762;34.27566146850586
2763;34.26456832885742
2764;34.2535285949707
2765;34.24250030517578
2766;34.23151397705078
2767;34.22057342529297
2768;34.20966339111328
2769;34.19878387451172
2770;34.18794631958008
2771;34.1771354675293
2772;34.16636276245117
2773;34.15562438964844
2774;34.1449089050293
2775;34.1342658996582
2776;34.123626708984375
2777;34.113014221191406
2778;34.102455139160156
2779;34.09192657470703
2780;34.0814208984375
2781;34.07097244262695
2782;34.06053924560547
2783;34.050148010253906
2784;34.039794921875
2785;34.02946853637695
2786;34.0191650390625
2787;34.0088996887207
2788;33.99867630004883
2789;33.98847579956055
2790;33.97832107543945
2791;33.96819305419922
2792;33.95810317993164
2793;33.94803237915039
2794;33.938011169433594
2795;33.92800521850586
2796;33.91803741455078
2797;33.90810775756836
2798;33.89820098876953
2799;33.888343811035156
2800;33.87849044799805
2801;33.86870193481445
2802;33.85892868041992
2803;33.849178314208984
2804;33.83948516845703
2805;33.829811096191406
2806;33.82015609741211
2807;33.810550689697266
2808;33.80098342895508
2809;33.791439056396484
2810;33.781925201416016
2811;33.772430419921875
2812;33.76297378540039
2813;33.75355911254883
2814;33.744171142578125
2815;33.73480224609375
2816;33.725486755371094
2817;33.716182708740234
2818;33.706912994384766
2819;33.69767761230469
2820;33.68846893310547
2821;33.67928695678711
2822;33.670135498046875
2823;33.6610221862793
2824;33.65192794799805
2825;33.642887115478516
2826;33.63386535644531
2827;33.6248664855957
2828;33.61589813232422
2829;33.60696029663086
2830;33.598060607910156
2831;33.58918380737305
2832;33.58034133911133
2833;33.57152557373047
2834;33.562747955322266
2835;33.55397415161133
2836;33.545249938964844
2837;33.53655242919922
2838;33.52787780761719
2839;33.51924514770508
2840;33.5106315612793
2841;33.50204849243164
2842;33.49349594116211
2843;33.48496627807617
2844;33.47645950317383
2845;33.46799850463867
2846;33.45956802368164
2847;33.451141357421875
2848;33.442752838134766
2849;33.43440246582031
2850;33.42607498168945
2851;33.417781829833984
2852;33.40951156616211
2853;33.4012565612793
2854;33.3930549621582
2855;33.3848762512207
2856;33.3766975402832
2857;33.36857223510742
2858;33.36046600341797
2859;33.35239791870117
2860;33.34434127807617
2861;33.336326599121094
2862;33.32833480834961
2863;33.32034683227539
2864;33.312416076660156
2865;33.304508209228516
2866;33.296630859375
2867;33.28876495361328
2868;33.28094482421875
2869;33.27312088012695
2870;33.265342712402344
2871;33.25759506225586
2872;33.249874114990234
2873;33.24217224121094
2874;33.234493255615234
2875;33.22684860229492
2876;33.21922302246094
2877;33.211631774902344
2878;33.20405960083008
2879;33.196529388427734
2880;33.18900680541992
2881;33.181514739990234
2882;33.174049377441406
2883;33.16661834716797
2884;33.15920639038086
2885;33.15180587768555
2886;33.14445114135742
2887;33.13711166381836
2888;33.129798889160156
2889;33.12250900268555
2890;33.1152458190918
2891;33.1080207824707
2892;33.10079574584961
2893;33.0936164855957
2894;33.08645248413086
2895;33.079315185546875
2896;33.07217788696289
2897;33.06509780883789
2898;33.058040618896484
2899;33.051002502441406
2900;33.043983459472656
2901;33.03700637817383
2902;33.030033111572266
2903;33.02309036254883
2904;33.01616287231445
2905;33.009281158447266
2906;33.002410888671875
2907;32.99557113647461
2908;32.98874282836914
2909;32.98195266723633
2910;32.975181579589844
2911;32.96842575073242
2912;32.961692810058594
2913;32.954994201660156
2914;32.94832229614258
2915;32.941654205322266
2916;32.935028076171875
2917;32.92841720581055
2918;32.92182540893555
2919;32.9152717590332
2920;32.908721923828125
2921;32.90220642089844
2922;32.89573287963867
2923;32.889244079589844
2924;32.88279342651367
2925;32.876373291015625
2926;32.869972229003906
2927;32.863590240478516
2928;32.85723876953125
2929;32.85089111328125
2930;32.84458541870117
2931;32.83829879760742
2932;32.832027435302734
2933;32.825782775878906
2934;32.81956481933594
2935;32.81336212158203
2936;32.80717849731445
2937;32.801025390625
2938;32.79487991333008
2939;32.78876876831055
2940;32.782684326171875
2941;32.776615142822266
2942;32.770565032958984
2943;32.76453399658203
2944;32.7585334777832
2945;32.752559661865234
2946;32.74658203125
2947;32.74064636230469
2948;32.734718322753906
2949;32.728824615478516
2950;32.72295379638672
2951;32.71708297729492
2952;32.71125411987305
2953;32.705448150634766
2954;32.699649810791016
2955;32.693878173828125
2956;32.68812942504883
2957;32.6823844909668
2958;32.67667770385742
2959;32.67098617553711
2960;32.665321350097656
2961;32.659671783447266
2962;32.65404510498047
2963;32.6484375
2964;32.64284896850586
2965;32.63727569580078
2966;32.6317253112793
2967;32.62619400024414
2968;32.62068176269531
2969;32.61520767211914
2970;32.60973358154297
2971;32.60429000854492
2972;32.59886932373047
2973;32.59345626831055
2974;32.58805465698242
2975;32.58268356323242
2976;32.57733917236328
2977;32.572017669677734
2978;32.56670379638672
2979;32.5614013671875
2980;32.55613327026367
2981;32.55088806152344
2982;32.545658111572266
2983;32.54042053222656
2984;32.53522872924805
2985;32.53006362915039
2986;32.52490234375
2987;32.51975631713867
2988;32.51464080810547
2989;32.509544372558594
2990;32.504459381103516
2991;32.49940872192383
2992;32.494354248046875
2993;32.489322662353516
2994;32.484317779541016
2995;32.47932434082031
2996;32.47435760498047
2997;32.46941375732422
2998;32.4644660949707
2999;32.45954132080078
