;loss
0;1322.5196533203125
1;1321.7548828125
2;1320.72705078125
3;1319.7918701171875
4;1318.7630615234375
5;1317.733154296875
6;1316.732666015625
7;1315.720458984375
8;1314.6832275390625
9;1313.6510009765625
10;1312.604248046875
11;1311.55322265625
12;1310.4927978515625
13;1309.42626953125
14;1308.345947265625
15;1307.261962890625
16;1306.15966796875
17;1305.054931640625
18;1303.927490234375
19;1302.797607421875
20;1301.6534423828125
21;1300.4940185546875
22;1299.318115234375
23;1298.1107177734375
24;1296.8837890625
25;1295.6505126953125
26;1294.3953857421875
27;1293.11669921875
28;1291.7979736328125
29;1290.4517822265625
30;1289.0926513671875
31;1287.7027587890625
32;1286.2635498046875
33;1284.80615234375
34;1283.2943115234375
35;1281.7421875
36;1280.1468505859375
37;1278.506103515625
38;1276.8350830078125
39;1275.113525390625
40;1273.3192138671875
41;1271.48681640625
42;1269.59375
43;1267.6363525390625
44;1265.610595703125
45;1263.4910888671875
46;1261.3150634765625
47;1259.0357666015625
48;1256.69091796875
49;1254.2540283203125
50;1251.6961669921875
51;1249.056396484375
52;1246.305908203125
53;1243.438232421875
54;1240.4193115234375
55;1237.2923583984375
56;1233.9959716796875
57;1230.5478515625
58;1226.9383544921875
59;1223.154541015625
60;1219.1842041015625
61;1215.049072265625
62;1210.673095703125
63;1206.0726318359375
64;1201.241943359375
65;1196.16552734375
66;1190.861328125
67;1185.2779541015625
68;1179.404541015625
69;1173.237548828125
70;1166.7193603515625
71;1159.8818359375
72;1152.7322998046875
73;1145.3294677734375
74;1137.599609375
75;1129.59326171875
76;1121.33642578125
77;1112.8702392578125
78;1104.31884765625
79;1095.62646484375
80;1086.9693603515625
81;1078.358642578125
82;1069.8160400390625
83;1061.49951171875
84;1053.422607421875
85;1045.5657958984375
86;1038.0242919921875
87;1030.874267578125
88;1024.07763671875
89;1017.6268310546875
90;1011.4786376953125
91;1005.6676635742188
92;1000.1763305664062
93;994.9846801757812
94;990.0718383789062
95;985.412109375
96;980.9878540039062
97;976.7897338867188
98;972.8180541992188
99;969.0149536132812
100;965.403076171875
101;961.9454345703125
102;958.6170654296875
103;955.4227294921875
104;952.3489379882812
105;949.3850708007812
106;946.5244140625
107;943.7677001953125
108;941.0846557617188
109;938.4913330078125
110;935.9620361328125
111;933.5110473632812
112;931.12109375
113;928.7798461914062
114;926.5032348632812
115;924.2670288085938
116;922.077392578125
117;919.9337158203125
118;917.8310546875
119;915.7669067382812
120;913.7473754882812
121;911.7620239257812
122;909.8006591796875
123;907.86962890625
124;905.9679565429688
125;904.0936279296875
126;902.2525634765625
127;900.4393920898438
128;898.6507568359375
129;896.8849487304688
130;895.1405029296875
131;893.417724609375
132;891.714111328125
133;890.0291748046875
134;888.3562622070312
135;886.7005004882812
136;885.0618286132812
137;883.4488525390625
138;881.8466186523438
139;880.2588500976562
140;878.6935424804688
141;877.1392211914062
142;875.5987548828125
143;874.070556640625
144;872.5541381835938
145;871.0538330078125
146;869.5598754882812
147;868.0819702148438
148;866.6101684570312
149;865.15283203125
150;863.7014770507812
151;862.263916015625
152;860.8356323242188
153;859.4161376953125
154;858.0055541992188
155;856.59912109375
156;855.204833984375
157;853.8189086914062
158;852.441162109375
159;851.071044921875
160;849.70849609375
161;848.353271484375
162;847.005126953125
163;845.6602172851562
164;844.325927734375
165;842.9945068359375
166;841.6707763671875
167;840.3568725585938
168;839.0493774414062
169;837.7446899414062
170;836.4498901367188
171;835.160888671875
172;833.878173828125
173;832.60107421875
174;831.32958984375
175;830.0634155273438
176;828.8026733398438
177;827.5473022460938
178;826.296875
179;825.0514526367188
180;823.8109741210938
181;822.5723876953125
182;821.3414916992188
183;820.1151123046875
184;818.8934326171875
185;817.673095703125
186;816.45703125
187;815.2452392578125
188;814.0377197265625
189;812.8343505859375
190;811.637939453125
191;810.4425048828125
192;809.2511596679688
193;808.0663452148438
194;806.8825073242188
195;805.7025146484375
196;804.5263061523438
197;803.3535766601562
198;802.1845092773438
199;801.0215454101562
200;799.862060546875
201;798.7061157226562
202;797.553466796875
203;796.4017333984375
204;795.2532348632812
205;794.110595703125
206;792.9686279296875
207;791.8323974609375
208;790.6993408203125
209;789.5693359375
210;788.4425048828125
211;787.316162109375
212;786.1953125
213;785.0751953125
214;783.9580688476562
215;782.8460693359375
216;781.737060546875
217;780.628662109375
218;779.5232543945312
219;778.4207763671875
220;777.3209838867188
221;776.2262573242188
222;775.1340942382812
223;774.0426635742188
224;772.9537963867188
225;771.8698120117188
226;770.788330078125
227;769.70947265625
228;768.631103515625
229;767.5574340820312
230;766.4841918945312
231;765.4135131835938
232;764.3472900390625
233;763.2816162109375
234;762.2203979492188
235;761.15966796875
236;760.1032104492188
237;759.0492553710938
238;757.9955444335938
239;756.9462890625
240;755.8993530273438
241;754.8527221679688
242;753.8104248046875
243;752.7703247070312
244;751.730712890625
245;750.6932373046875
246;749.659912109375
247;748.6271362304688
248;747.5963745117188
249;746.56787109375
250;745.54150390625
251;744.517333984375
252;743.4952392578125
253;742.4771118164062
254;741.459228515625
255;740.4434204101562
256;739.4314575195312
257;738.4198608398438
258;737.410400390625
259;736.404541015625
260;735.4007568359375
261;734.3990478515625
262;733.399169921875
263;732.4013061523438
264;731.4054565429688
265;730.4097900390625
266;729.416259765625
267;728.426025390625
268;727.4378051757812
269;726.4515380859375
270;725.467041015625
271;724.4829711914062
272;723.500732421875
273;722.5218505859375
274;721.5432739257812
275;720.5680541992188
276;719.5932006835938
277;718.6199951171875
278;717.648681640625
279;716.6806640625
280;715.7128295898438
281;714.748291015625
282;713.7855224609375
283;712.824462890625
284;711.8651123046875
285;710.907470703125
286;709.9515991210938
287;708.997314453125
288;708.0447998046875
289;707.0938720703125
290;706.1432495117188
291;705.1942749023438
292;704.2468872070312
293;703.302490234375
294;702.3599243164062
295;701.4188232421875
296;700.4794311523438
297;699.5416259765625
298;698.60546875
299;697.6707153320312
300;696.7376708984375
301;695.8062744140625
302;694.876220703125
303;693.946533203125
304;693.019775390625
305;692.0944213867188
306;691.16943359375
307;690.2459106445312
308;689.323974609375
309;688.4035034179688
310;687.4844360351562
311;686.5681762695312
312;685.6522216796875
313;684.7376708984375
314;683.825927734375
315;682.9155883789062
316;682.0054931640625
317;681.0968017578125
318;680.1896362304688
319;679.2838745117188
320;678.3795776367188
321;677.4766845703125
322;676.5752563476562
323;675.6751708984375
324;674.776611328125
325;673.87939453125
326;672.9847412109375
327;672.09033203125
328;671.1974487304688
329;670.3070068359375
330;669.4168090820312
331;668.5291137695312
332;667.6416625976562
333;666.755615234375
334;665.8720092773438
335;664.9898071289062
336;664.1089477539062
337;663.229248046875
338;662.3499755859375
339;661.4720458984375
340;660.596435546875
341;659.72216796875
342;658.849365234375
343;657.9765625
344;657.105224609375
345;656.2350463867188
346;655.367431640625
347;654.5009765625
348;653.6358642578125
349;652.77197265625
350;651.9083251953125
351;651.047119140625
352;650.1869506835938
353;649.3281860351562
354;648.4696655273438
355;647.6134033203125
356;646.75830078125
357;645.904541015625
358;645.0509643554688
359;644.1995849609375
360;643.3495483398438
361;642.499755859375
362;641.652099609375
363;640.8048095703125
364;639.9586181640625
365;639.1146850585938
366;638.2718505859375
367;637.4293212890625
368;636.5880737304688
369;635.7479248046875
370;634.9089965820312
371;634.0713500976562
372;633.2348022460938
373;632.3994750976562
374;631.566162109375
375;630.734130859375
376;629.9031372070312
377;629.072509765625
378;628.2431030273438
379;627.4147338867188
380;626.587646484375
381;625.762451171875
382;624.9376220703125
383;624.11474609375
384;623.292236328125
385;622.4708251953125
386;621.6505737304688
387;620.832275390625
388;620.01513671875
389;619.19921875
390;618.3834838867188
391;617.5689086914062
392;616.7554931640625
393;615.9439086914062
394;615.1327514648438
395;614.3226318359375
396;613.5136108398438
397;612.705810546875
398;611.8989868164062
399;611.0933227539062
400;610.2887573242188
401;609.4852294921875
402;608.6828002929688
403;607.8815307617188
404;607.081298828125
405;606.2822265625
406;605.48486328125
407;604.6878662109375
408;603.8919677734375
409;603.09716796875
410;602.3034057617188
411;601.5106811523438
412;600.718994140625
413;599.928466796875
414;599.1396484375
415;598.3519897460938
416;597.5653076171875
417;596.7797241210938
418;595.9945068359375
419;595.2109375
420;594.428466796875
421;593.646240234375
422;592.8650512695312
423;592.0850219726562
424;591.3065795898438
425;590.528564453125
426;589.7522583007812
427;588.9769897460938
428;588.2019653320312
429;587.427978515625
430;586.65576171875
431;585.8837890625
432;585.1129150390625
433;584.343017578125
434;583.5747680664062
435;582.806884765625
436;582.0400390625
437;581.2741088867188
438;580.5092163085938
439;579.7460327148438
440;578.983154296875
441;578.2211303710938
442;577.4602661132812
443;576.7003784179688
444;575.942138671875
445;575.184814453125
446;574.428466796875
447;573.6724243164062
448;572.9174194335938
449;572.1640014648438
450;571.4109497070312
451;570.6595458984375
452;569.9091186523438
453;569.1595458984375
454;568.410400390625
455;567.662109375
456;566.9154052734375
457;566.1697998046875
458;565.4244384765625
459;564.6799926757812
460;563.9365844726562
461;563.194580078125
462;562.453125
463;561.7125244140625
464;560.9727783203125
465;560.2346801757812
466;559.4968872070312
467;558.7606201171875
468;558.0247192382812
469;557.2897338867188
470;556.5563354492188
471;555.8237915039062
472;555.0921630859375
473;554.3609008789062
474;553.6311645507812
475;552.90234375
476;552.173828125
477;551.4462280273438
478;550.72021484375
479;549.9950561523438
480;549.2701416015625
481;548.546875
482;547.8239135742188
483;547.1023559570312
484;546.381103515625
485;545.660888671875
486;544.9415283203125
487;544.2236328125
488;543.506591796875
489;542.79052734375
490;542.0753173828125
491;541.3604736328125
492;540.64697265625
493;539.933837890625
494;539.2217407226562
495;538.510986328125
496;537.800537109375
497;537.091064453125
498;536.3823852539062
499;535.6751098632812
500;534.9683227539062
501;534.2622680664062
502;533.5576171875
503;532.8533935546875
504;532.1500854492188
505;531.447998046875
506;530.7463989257812
507;530.045654296875
508;529.3458251953125
509;528.6472778320312
510;527.9496459960938
511;527.2523803710938
512;526.5564575195312
513;525.8609008789062
514;525.166259765625
515;524.472900390625
516;523.7803955078125
517;523.0881958007812
518;522.3975219726562
519;521.70751953125
520;521.0180053710938
521;520.3297729492188
522;519.642333984375
523;518.9558715820312
524;518.2702026367188
525;517.5847778320312
526;516.90087890625
527;516.2177124023438
528;515.534912109375
529;514.8529052734375
530;514.1718139648438
531;513.4915161132812
532;512.8120727539062
533;512.1334228515625
534;511.45611572265625
535;510.7796630859375
536;510.103515625
537;509.4288330078125
538;508.7547607421875
539;508.0811767578125
540;507.4088439941406
541;506.73675537109375
542;506.0656433105469
543;505.3953552246094
544;504.7257385253906
545;504.0570068359375
546;503.38958740234375
547;502.7225341796875
548;502.0567626953125
549;501.3912658691406
550;500.72711181640625
551;500.0638122558594
552;499.4012145996094
553;498.7389831542969
554;498.0780029296875
555;497.41790771484375
556;496.7585144042969
557;496.0999755859375
558;495.4422302246094
559;494.7853088378906
560;494.1287536621094
561;493.4734191894531
562;492.81878662109375
563;492.1650390625
564;491.5115966796875
565;490.8594970703125
566;490.20806884765625
567;489.5570068359375
568;488.9068603515625
569;488.25787353515625
570;487.6091613769531
571;486.9617004394531
572;486.3146057128906
573;485.6683349609375
574;485.0232238769531
575;484.3785705566406
576;483.7346496582031
577;483.0914306640625
578;482.4490661621094
579;481.8074645996094
580;481.1666259765625
581;480.5269775390625
582;479.8876953125
583;479.24957275390625
584;478.6119384765625
585;477.9753112792969
586;477.3395080566406
587;476.7044677734375
588;476.07025146484375
589;475.4363708496094
590;474.80328369140625
591;474.1712646484375
592;473.5397033691406
593;472.9089050292969
594;472.27886962890625
595;471.64990234375
596;471.0217590332031
597;470.3943786621094
598;469.7673645019531
599;469.14105224609375
600;468.5159606933594
601;467.89154052734375
602;467.2674560546875
603;466.6443176269531
604;466.0221862792969
605;465.40045166015625
606;464.77978515625
607;464.1595458984375
608;463.54046630859375
609;462.9217224121094
610;462.3040466308594
611;461.6871643066406
612;461.0710754394531
613;460.4552307128906
614;459.84027099609375
615;459.2259521484375
616;458.61273193359375
617;458.0
618;457.3883056640625
619;456.77691650390625
620;456.1663513183594
621;455.5567932128906
622;454.9477233886719
623;454.33966064453125
624;453.73236083984375
625;453.1253662109375
626;452.5191955566406
627;451.91375732421875
628;451.3089904785156
629;450.7053527832031
630;450.10235595703125
631;449.4998474121094
632;448.8983154296875
633;448.29754638671875
634;447.6971130371094
635;447.0978698730469
636;446.4989013671875
637;445.9006652832031
638;445.303466796875
639;444.7066345214844
640;444.110595703125
641;443.5152282714844
642;442.9209289550781
643;442.3270263671875
644;441.7340393066406
645;441.14190673828125
646;440.5504455566406
647;439.9593505859375
648;439.3690185546875
649;438.7793884277344
650;438.1907653808594
651;437.60247802734375
652;437.0152587890625
653;436.42840576171875
654;435.84228515625
655;435.25689697265625
656;434.6722106933594
657;434.0885009765625
658;433.505126953125
659;432.9224853515625
660;432.3406677246094
661;431.7597351074219
662;431.1795349121094
663;430.60003662109375
664;430.02117919921875
665;429.4430847167969
666;428.8656921386719
667;428.2886047363281
668;427.7125549316406
669;427.1373291015625
670;426.5626525878906
671;425.9886474609375
672;425.4151306152344
673;424.8421936035156
674;424.27001953125
675;423.6985168457031
676;423.127685546875
677;422.5578308105469
678;421.9884033203125
679;421.4195556640625
680;420.8517761230469
681;420.2844543457031
682;419.7176818847656
683;419.1519470214844
684;418.5865478515625
685;418.022216796875
686;417.458251953125
687;416.8951721191406
688;416.33251953125
689;415.7705383300781
690;415.20928955078125
691;414.64892578125
692;414.0889892578125
693;413.5296936035156
694;412.971435546875
695;412.41375732421875
696;411.8565673828125
697;411.2999267578125
698;410.7442626953125
699;410.1893310546875
700;409.63507080078125
701;409.08111572265625
702;408.5281982421875
703;407.9756164550781
704;407.4237060546875
705;406.8726806640625
706;406.3224182128906
707;405.7724609375
708;405.2234802246094
709;404.6751708984375
710;404.1271667480469
711;403.5801696777344
712;403.0335693359375
713;402.4879150390625
714;401.9426574707031
715;401.3982238769531
716;400.8544921875
717;400.3114318847656
718;399.76873779296875
719;399.2266845703125
720;398.6856384277344
721;398.1448974609375
722;397.6051330566406
723;397.065673828125
724;396.5272216796875
725;395.9893798828125
726;395.45184326171875
727;394.91534423828125
728;394.379150390625
729;393.8436279296875
730;393.3089599609375
731;392.77496337890625
732;392.24139404296875
733;391.70843505859375
734;391.1763916015625
735;390.6447448730469
736;390.1136779785156
737;389.5832824707031
738;389.0538330078125
739;388.5249938964844
740;387.9967346191406
741;387.46893310546875
742;386.9419860839844
743;386.4156494140625
744;385.88970947265625
745;385.364501953125
746;384.840087890625
747;384.31634521484375
748;383.793212890625
749;383.2706604003906
750;382.748779296875
751;382.22760009765625
752;381.7069091796875
753;381.1869201660156
754;380.6673889160156
755;380.14837646484375
756;379.63031005859375
757;379.11260986328125
758;378.5954895019531
759;378.0790100097656
760;377.5633850097656
761;377.0484313964844
762;376.53387451171875
763;376.0201416015625
764;375.5069885253906
765;374.99456787109375
766;374.4826354980469
767;373.97119140625
768;373.4605712890625
769;372.9505615234375
770;372.441162109375
771;371.93218994140625
772;371.42376708984375
773;370.9162292480469
774;370.4090576171875
775;369.9027404785156
776;369.3970947265625
777;368.8919677734375
778;368.38751220703125
779;367.8836669921875
780;367.3802185058594
781;366.8775634765625
782;366.37548828125
783;365.8739013671875
784;365.373046875
785;364.8728332519531
786;364.373046875
787;363.8740539550781
788;363.3754577636719
789;362.8776550292969
790;362.3804626464844
791;361.8836975097656
792;361.3876953125
793;360.89239501953125
794;360.3975830078125
795;359.90325927734375
796;359.40972900390625
797;358.91668701171875
798;358.4244384765625
799;357.93267822265625
800;357.4412841796875
801;356.9505310058594
802;356.46038818359375
803;355.9708251953125
804;355.4818420410156
805;354.99365234375
806;354.5060729980469
807;354.0191345214844
808;353.53253173828125
809;353.0465087890625
810;352.5613098144531
811;352.0767517089844
812;351.59271240234375
813;351.1092529296875
814;350.6262512207031
815;350.14385986328125
816;349.6619567871094
817;349.180908203125
818;348.70025634765625
819;348.2203369140625
820;347.7410583496094
821;347.2621154785156
822;346.78399658203125
823;346.30645751953125
824;345.8293151855469
825;345.3527526855469
826;344.8769226074219
827;344.40155029296875
828;343.92694091796875
829;343.45269775390625
830;342.97900390625
831;342.5059814453125
832;342.0336608886719
833;341.5617370605469
834;341.0906066894531
835;340.61981201171875
836;340.1497802734375
837;339.68023681640625
838;339.2113952636719
839;338.74310302734375
840;338.2752380371094
841;337.8080749511719
842;337.3415832519531
843;336.8756408691406
844;336.4102478027344
845;335.9451904296875
846;335.4808349609375
847;335.0169372558594
848;334.55364990234375
849;334.0910949707031
850;333.62896728515625
851;333.1673583984375
852;332.7065734863281
853;332.24609375
854;331.78619384765625
855;331.3270568847656
856;330.8684387207031
857;330.41021728515625
858;329.95257568359375
859;329.4957275390625
860;329.03924560546875
861;328.5833740234375
862;328.1280212402344
863;327.6732177734375
864;327.2189636230469
865;326.7654724121094
866;326.3125305175781
867;325.8599853515625
868;325.4079895019531
869;324.95672607421875
870;324.5058898925781
871;324.0555725097656
872;323.6058044433594
873;323.1566162109375
874;322.7079162597656
875;322.260009765625
876;321.81268310546875
877;321.36566162109375
878;320.91937255859375
879;320.4737548828125
880;320.0285339355469
881;319.5838317871094
882;319.13958740234375
883;318.6959228515625
884;318.2530212402344
885;317.8106689453125
886;317.36859130859375
887;316.9271545410156
888;316.4862976074219
889;316.0460510253906
890;315.60638427734375
891;315.1672668457031
892;314.7286071777344
893;314.2904052734375
894;313.8528137207031
895;313.41583251953125
896;312.97930908203125
897;312.5435485839844
898;312.1080627441406
899;311.6732482910156
900;311.2391357421875
901;310.8054504394531
902;310.37213134765625
903;309.9393615722656
904;309.5073547363281
905;309.0758361816406
906;308.6446838378906
907;308.21429443359375
908;307.7844543457031
909;307.35504150390625
910;306.9260559082031
911;306.4976806640625
912;306.0699157714844
913;305.64263916015625
914;305.21588134765625
915;304.78961181640625
916;304.3638000488281
917;303.9387512207031
918;303.5140380859375
919;303.0899658203125
920;302.6662902832031
921;302.2433776855469
922;301.8207702636719
923;301.39892578125
924;300.9773864746094
925;300.5566101074219
926;300.13629150390625
927;299.7164611816406
928;299.2972412109375
929;298.8785400390625
930;298.460205078125
931;298.0423889160156
932;297.6252136230469
933;297.20843505859375
934;296.7922668457031
935;296.3764953613281
936;295.9613342285156
937;295.54681396484375
938;295.1326904296875
939;294.71917724609375
940;294.3062744140625
941;293.8936767578125
942;293.4816589355469
943;293.0700988769531
944;292.6592102050781
945;292.2488708496094
946;291.83905029296875
947;291.4295654296875
948;291.0207824707031
949;290.6123352050781
950;290.2044677734375
951;289.79718017578125
952;289.39044189453125
953;288.98406982421875
954;288.5782775878906
955;288.1729736328125
956;287.7681579589844
957;287.3638610839844
958;286.96002197265625
959;286.55694580078125
960;286.154296875
961;285.75201416015625
962;285.3503112792969
963;284.94903564453125
964;284.54833984375
965;284.1481018066406
966;283.7484130859375
967;283.3492431640625
968;282.9506530761719
969;282.5525207519531
970;282.1548156738281
971;281.75775146484375
972;281.3612060546875
973;280.9652404785156
974;280.5697021484375
975;280.174560546875
976;279.780029296875
977;279.3858642578125
978;278.9924011230469
979;278.5993957519531
980;278.2069091796875
981;277.81475830078125
982;277.4232482910156
983;277.0322570800781
984;276.6417236328125
985;276.251708984375
986;275.8621826171875
987;275.47308349609375
988;275.0844421386719
989;274.6964416503906
990;274.3088073730469
991;273.92169189453125
992;273.53515625
993;273.14910888671875
994;272.7634582519531
995;272.37841796875
996;271.99383544921875
997;271.6097412109375
998;271.2261657714844
999;270.8430480957031
1000;270.46044921875
1001;270.07843017578125
1002;269.69671630859375
1003;269.3154602050781
1004;268.93487548828125
1005;268.5547790527344
1006;268.1750183105469
1007;267.7957763671875
1008;267.4170227050781
1009;267.0387268066406
1010;266.660888671875
1011;266.28375244140625
1012;265.90692138671875
1013;265.5306701660156
1014;265.15484619140625
1015;264.779541015625
1016;264.4046325683594
1017;264.0303955078125
1018;263.6564636230469
1019;263.2831726074219
1020;262.9103088378906
1021;262.537841796875
1022;262.16595458984375
1023;261.7945861816406
1024;261.42364501953125
1025;261.0531311035156
1026;260.68316650390625
1027;260.31378173828125
1028;259.9447326660156
1029;259.5761413574219
1030;259.2081298828125
1031;258.84051513671875
1032;258.4732666015625
1033;258.10662841796875
1034;257.74041748046875
1035;257.3746337890625
1036;257.00946044921875
1037;256.6446838378906
1038;256.2803955078125
1039;255.91647338867188
1040;255.55325317382812
1041;255.19049072265625
1042;254.828125
1043;254.46620178222656
1044;254.10467529296875
1045;253.74375915527344
1046;253.38323974609375
1047;253.0232696533203
1048;252.6636505126953
1049;252.30465698242188
1050;251.94598388671875
1051;251.587890625
1052;251.23028564453125
1053;250.873046875
1054;250.516357421875
1055;250.16001892089844
1056;249.80430603027344
1057;249.448974609375
1058;249.0940704345703
1059;248.73963928222656
1060;248.3857421875
1061;248.0322265625
1062;247.6791229248047
1063;247.32655334472656
1064;246.97439575195312
1065;246.62277221679688
1066;246.27166748046875
1067;245.9209747314453
1068;245.57069396972656
1069;245.22100830078125
1070;244.87168884277344
1071;244.52291870117188
1072;244.17459106445312
1073;243.82672119140625
1074;243.47914123535156
1075;243.13218688964844
1076;242.78561401367188
1077;242.43942260742188
1078;242.09371948242188
1079;241.74859619140625
1080;241.40380859375
1081;241.05960083007812
1082;240.71578979492188
1083;240.3724822998047
1084;240.02951049804688
1085;239.68701171875
1086;239.344970703125
1087;239.00341796875
1088;238.66224670410156
1089;238.3216094970703
1090;237.98150634765625
1091;237.6417694091797
1092;237.30235290527344
1093;236.96348571777344
1094;236.62506103515625
1095;236.28717041015625
1096;235.94960021972656
1097;235.61251831054688
1098;235.27584838867188
1099;234.9397735595703
1100;234.6040802001953
1101;234.2688751220703
1102;233.93414306640625
1103;233.5996856689453
1104;233.26576232910156
1105;232.9322052001953
1106;232.59918212890625
1107;232.26654052734375
1108;231.93446350097656
1109;231.60275268554688
1110;231.27151489257812
1111;230.940673828125
1112;230.6103515625
1113;230.28038024902344
1114;229.95095825195312
1115;229.62193298339844
1116;229.29335021972656
1117;228.96514892578125
1118;228.63742065429688
1119;228.31005859375
1120;227.9832305908203
1121;227.65692138671875
1122;227.33099365234375
1123;227.00540161132812
1124;226.68035888671875
1125;226.35568237304688
1126;226.031494140625
1127;225.70774841308594
1128;225.38442993164062
1129;225.0615692138672
1130;224.73912048339844
1131;224.41708374023438
1132;224.09539794921875
1133;223.77427673339844
1134;223.45358276367188
1135;223.1332244873047
1136;222.81338500976562
1137;222.4939727783203
1138;222.17501831054688
1139;221.8564910888672
1140;221.53826904296875
1141;221.22059631347656
1142;220.9032440185547
1143;220.58633422851562
1144;220.26988220214844
1145;219.95391845703125
1146;219.6383056640625
1147;219.3231201171875
1148;219.00836181640625
1149;218.6940155029297
1150;218.38018798828125
1151;218.0666961669922
1152;217.75372314453125
1153;217.4410858154297
1154;217.12896728515625
1155;216.8172149658203
1156;216.50584411621094
1157;216.1949920654297
1158;215.8845672607422
1159;215.57449340820312
1160;215.26495361328125
1161;214.95574951171875
1162;214.64700317382812
1163;214.33865356445312
1164;214.03070068359375
1165;213.7231903076172
1166;213.4161376953125
1167;213.10946655273438
1168;212.80331420898438
1169;212.49745178222656
1170;212.19207763671875
1171;211.8870849609375
1172;211.58253479003906
1173;211.27838134765625
1174;210.9746856689453
1175;210.67137145996094
1176;210.36839294433594
1177;210.06594848632812
1178;209.76390075683594
1179;209.46217346191406
1180;209.16094970703125
1181;208.86004638671875
1182;208.5596160888672
1183;208.2596435546875
1184;207.96006774902344
1185;207.66087341308594
1186;207.36215209960938
1187;207.0637969970703
1188;206.76583862304688
1189;206.46835327148438
1190;206.17115783691406
1191;205.87448120117188
1192;205.57810974121094
1193;205.2821502685547
1194;204.9866485595703
1195;204.6915740966797
1196;204.39691162109375
1197;204.10269165039062
1198;203.8087921142578
1199;203.5153350830078
1200;203.22235107421875
1201;202.92965698242188
1202;202.6374053955078
1203;202.3456268310547
1204;202.05413818359375
1205;201.76307678222656
1206;201.47242736816406
1207;201.18218994140625
1208;200.8923797607422
1209;200.6029815673828
1210;200.31399536132812
1211;200.025390625
1212;199.7371826171875
1213;199.44940185546875
1214;199.1619415283203
1215;198.87496948242188
1216;198.58834838867188
1217;198.30218505859375
1218;198.01634216308594
1219;197.7308807373047
1220;197.4458770751953
1221;197.16127014160156
1222;196.87701416015625
1223;196.59315490722656
1224;196.3096923828125
1225;196.02667236328125
1226;195.74404907226562
1227;195.46176147460938
1228;195.179931640625
1229;194.89842224121094
1230;194.61740112304688
1231;194.33676147460938
1232;194.05650329589844
1233;193.77667236328125
1234;193.49717712402344
1235;193.21812438964844
1236;192.93948364257812
1237;192.6610870361328
1238;192.38319396972656
1239;192.10569763183594
1240;191.82855224609375
1241;191.5518035888672
1242;191.27542114257812
1243;190.99948120117188
1244;190.723876953125
1245;190.44869995117188
1246;190.17396545410156
1247;189.89956665039062
1248;189.62554931640625
1249;189.35195922851562
1250;189.0786590576172
1251;188.80580139160156
1252;188.53334045410156
1253;188.26123046875
1254;187.98948669433594
1255;187.7182159423828
1256;187.44720458984375
1257;187.1766815185547
1258;186.90655517578125
1259;186.6367645263672
1260;186.36737060546875
1261;186.09835815429688
1262;185.82969665527344
1263;185.5613555908203
1264;185.29344177246094
1265;185.02598571777344
1266;184.75881958007812
1267;184.4921112060547
1268;184.22569274902344
1269;183.95970153808594
1270;183.69406127929688
1271;183.42889404296875
1272;183.16404724121094
1273;182.8996124267578
1274;182.63552856445312
1275;182.37176513671875
1276;182.1084747314453
1277;181.84548950195312
1278;181.58294677734375
1279;181.32073974609375
1280;181.0589141845703
1281;180.79742431640625
1282;180.53634643554688
1283;180.27565002441406
1284;180.01528930664062
1285;179.75531005859375
1286;179.49569702148438
1287;179.23643493652344
1288;178.9775848388672
1289;178.7191619873047
1290;178.46109008789062
1291;178.20335388183594
1292;177.94593811035156
1293;177.6889190673828
1294;177.432373046875
1295;177.1761016845703
1296;176.92022705078125
1297;176.66470336914062
1298;176.4095916748047
1299;176.1548309326172
1300;175.90042114257812
1301;175.64637756347656
1302;175.39276123046875
1303;175.13943481445312
1304;174.886474609375
1305;174.63389587402344
1306;174.3817138671875
1307;174.12994384765625
1308;173.8784637451172
1309;173.62730407714844
1310;173.37655639648438
1311;173.1262664794922
1312;172.876220703125
1313;172.62652587890625
1314;172.37728881835938
1315;172.12835693359375
1316;171.87977600097656
1317;171.6315460205078
1318;171.38372802734375
1319;171.1362762451172
1320;170.88912963867188
1321;170.64236450195312
1322;170.3959197998047
1323;170.1499481201172
1324;169.90426635742188
1325;169.65895080566406
1326;169.4140167236328
1327;169.16941833496094
1328;168.92523193359375
1329;168.68133544921875
1330;168.43780517578125
1331;168.19464111328125
1332;167.95179748535156
1333;167.70933532714844
1334;167.46725463867188
1335;167.22552490234375
1336;166.98414611816406
1337;166.74314880371094
1338;166.5024871826172
1339;166.26210021972656
1340;166.02210998535156
1341;165.78248596191406
1342;165.54318237304688
1343;165.30426025390625
1344;165.06565856933594
1345;164.8274688720703
1346;164.58961486816406
1347;164.3520965576172
1348;164.11492919921875
1349;163.87811279296875
1350;163.6416473388672
1351;163.40548706054688
1352;163.16973876953125
1353;162.9343719482422
1354;162.69931030273438
1355;162.46463012695312
1356;162.23020935058594
1357;161.9961395263672
1358;161.762451171875
1359;161.52915954589844
1360;161.2961883544922
1361;161.06353759765625
1362;160.8312530517578
1363;160.59930419921875
1364;160.36773681640625
1365;160.13645935058594
1366;159.90557861328125
1367;159.67498779296875
1368;159.44476318359375
1369;159.2148895263672
1370;158.98529052734375
1371;158.7561492919922
1372;158.5272216796875
1373;158.29869079589844
1374;158.0704803466797
1375;157.8426055908203
1376;157.61514282226562
1377;157.38800048828125
1378;157.1611785888672
1379;156.93467712402344
1380;156.70855712890625
1381;156.48272705078125
1382;156.25721740722656
1383;156.03208923339844
1384;155.8072967529297
1385;155.5828399658203
1386;155.3587188720703
1387;155.13494873046875
1388;154.9114990234375
1389;154.6884002685547
1390;154.46563720703125
1391;154.24322509765625
1392;154.02110290527344
1393;153.79931640625
1394;153.57791137695312
1395;153.35678100585938
1396;153.13604736328125
1397;152.91561889648438
1398;152.69554138183594
1399;152.47576904296875
1400;152.25636291503906
1401;152.03724670410156
1402;151.81845092773438
1403;151.6000518798828
1404;151.3819122314453
1405;151.16416931152344
1406;150.94671630859375
1407;150.72958374023438
1408;150.51284790039062
1409;150.2963409423828
1410;150.08021545410156
1411;149.86441040039062
1412;149.64894104003906
1413;149.4337921142578
1414;149.21900939941406
1415;149.0045166015625
1416;148.79034423828125
1417;148.57650756835938
1418;148.36300659179688
1419;148.14984130859375
1420;147.93695068359375
1421;147.72445678710938
1422;147.51222229003906
1423;147.3003387451172
1424;147.0886993408203
1425;146.87744140625
1426;146.6665496826172
1427;146.4559783935547
1428;146.24566650390625
1429;146.03570556640625
1430;145.82603454589844
1431;145.61672973632812
1432;145.40771484375
1433;145.19903564453125
1434;144.99069213867188
1435;144.78265380859375
1436;144.57496643066406
1437;144.36756896972656
1438;144.1604766845703
1439;143.9536895751953
1440;143.7472686767578
1441;143.54119873046875
1442;143.33534240722656
1443;143.12985229492188
1444;142.9247283935547
1445;142.71987915039062
1446;142.5153350830078
1447;142.31114196777344
1448;142.10723876953125
1449;141.90367126464844
1450;141.70042419433594
1451;141.49749755859375
1452;141.2948455810547
1453;141.09246826171875
1454;140.89048767089844
1455;140.68881225585938
1456;140.4874267578125
1457;140.28631591796875
1458;140.0855712890625
1459;139.8851776123047
1460;139.6850128173828
1461;139.4851837158203
1462;139.28570556640625
1463;139.08645629882812
1464;138.8875732421875
1465;138.68896484375
1466;138.49066162109375
1467;138.29273986816406
1468;138.09510803222656
1469;137.89773559570312
1470;137.70071411132812
1471;137.50401306152344
1472;137.30758666992188
1473;137.1114501953125
1474;136.91561889648438
1475;136.7201385498047
1476;136.5249481201172
1477;136.33001708984375
1478;136.13540649414062
1479;135.9411163330078
1480;135.74713134765625
1481;135.553466796875
1482;135.360107421875
1483;135.16705322265625
1484;134.9743194580078
1485;134.78184509277344
1486;134.5896759033203
1487;134.39784240722656
1488;134.206298828125
1489;134.01507568359375
1490;133.82412719726562
1491;133.63351440429688
1492;133.44314575195312
1493;133.25311279296875
1494;133.0633544921875
1495;132.87393188476562
1496;132.68475341796875
1497;132.49591064453125
1498;132.307373046875
1499;132.1190948486328
1500;131.93115234375
1501;131.74351501464844
1502;131.55613708496094
1503;131.36907958984375
1504;131.18234252929688
1505;130.99586486816406
1506;130.8096923828125
1507;130.62384033203125
1508;130.43826293945312
1509;130.2529754638672
1510;130.06796264648438
1511;129.88330078125
1512;129.6988983154297
1513;129.51478576660156
1514;129.33099365234375
1515;129.14747619628906
1516;128.96429443359375
1517;128.7813262939453
1518;128.59869384765625
1519;128.41636657714844
1520;128.2342987060547
1521;128.05250549316406
1522;127.87104034423828
1523;127.68987274169922
1524;127.50896453857422
1525;127.328369140625
1526;127.14800262451172
1527;126.968017578125
1528;126.788330078125
1529;126.60888671875
1530;126.42972564697266
1531;126.25082397460938
1532;126.07223510742188
1533;125.89395904541016
1534;125.71597290039062
1535;125.53827667236328
1536;125.36083984375
1537;125.18368530273438
1538;125.00680541992188
1539;124.83025360107422
1540;124.65398406982422
1541;124.47798919677734
1542;124.30226135253906
1543;124.12686157226562
1544;123.95171356201172
1545;123.77682495117188
1546;123.60226440429688
1547;123.42796325683594
1548;123.25395965576172
1549;123.08023071289062
1550;122.90676879882812
1551;122.73355865478516
1552;122.56069946289062
1553;122.38809204101562
1554;122.21573638916016
1555;122.04371643066406
1556;121.8719482421875
1557;121.70045471191406
1558;121.52926635742188
1559;121.35834503173828
1560;121.18769073486328
1561;121.017333984375
1562;120.84725189208984
1563;120.67745208740234
1564;120.50790405273438
1565;120.33865356445312
1566;120.16966247558594
1567;120.00093841552734
1568;119.83253479003906
1569;119.66437530517578
1570;119.49651336669922
1571;119.32894134521484
1572;119.16159057617188
1573;118.99454498291016
1574;118.8277587890625
1575;118.66123962402344
1576;118.49503326416016
1577;118.32911682128906
1578;118.16341400146484
1579;117.99797821044922
1580;117.83285522460938
1581;117.66798400878906
1582;117.50336456298828
1583;117.33904266357422
1584;117.17501068115234
1585;117.01124572753906
1586;116.84774017333984
1587;116.68453216552734
1588;116.52155303955078
1589;116.35887145996094
1590;116.19646453857422
1591;116.03431701660156
1592;115.87242126464844
1593;115.71084594726562
1594;115.54947662353516
1595;115.38841247558594
1596;115.22760772705078
1597;115.06710052490234
1598;114.90680694580078
1599;114.74677276611328
1600;114.58705139160156
1601;114.42757415771484
1602;114.26836395263672
1603;114.10940551757812
1604;113.95071411132812
1605;113.79228973388672
1606;113.63416290283203
1607;113.47624969482422
1608;113.3186264038086
1609;113.16128540039062
1610;113.00418090820312
1611;112.84732818603516
1612;112.69078063964844
1613;112.53447723388672
1614;112.37844848632812
1615;112.22265625
1616;112.06710815429688
1617;111.91183471679688
1618;111.75685119628906
1619;111.60211181640625
1620;111.4476089477539
1621;111.29338073730469
1622;111.13943481445312
1623;110.98571014404297
1624;110.83230590820312
1625;110.67910766601562
1626;110.52619934082031
1627;110.37355041503906
1628;110.22110748291016
1629;110.06898498535156
1630;109.91708374023438
1631;109.76544952392578
1632;109.61409759521484
1633;109.4629898071289
1634;109.31211853027344
1635;109.16150665283203
1636;109.01116180419922
1637;108.86104583740234
1638;108.71119689941406
1639;108.56161499023438
1640;108.41226196289062
1641;108.26317596435547
1642;108.1143569946289
1643;107.96578979492188
1644;107.81748962402344
1645;107.66942596435547
1646;107.52162170410156
1647;107.37405395507812
1648;107.22671508789062
1649;107.0796890258789
1650;106.93289947509766
1651;106.78629302978516
1652;106.63997650146484
1653;106.49394226074219
1654;106.34810638427734
1655;106.2025375366211
1656;106.05725860595703
1657;105.91219329833984
1658;105.76737976074219
1659;105.62283325195312
1660;105.47853088378906
1661;105.33446502685547
1662;105.19064331054688
1663;105.04705047607422
1664;104.90373229980469
1665;104.76063537597656
1666;104.61780548095703
1667;104.4752426147461
1668;104.33287048339844
1669;104.1907958984375
1670;104.04893493652344
1671;103.9073257446289
1672;103.76593780517578
1673;103.62486267089844
1674;103.48396301269531
1675;103.34335327148438
1676;103.20297241210938
1677;103.06285095214844
1678;102.92294311523438
1679;102.78327941894531
1680;102.64389038085938
1681;102.50471496582031
1682;102.36578369140625
1683;102.22711944580078
1684;102.08870697021484
1685;101.95050811767578
1686;101.81253051757812
1687;101.6748275756836
1688;101.53734588623047
1689;101.40011596679688
1690;101.26309967041016
1691;101.12631225585938
1692;100.98983001708984
1693;100.85350036621094
1694;100.71744537353516
1695;100.58163452148438
1696;100.44605255126953
1697;100.31071472167969
1698;100.17562103271484
1699;100.04076385498047
1700;99.90615844726562
1701;99.77178192138672
1702;99.63762664794922
1703;99.50370025634766
1704;99.3700180053711
1705;99.23656463623047
1706;99.10337829589844
1707;98.97036743164062
1708;98.83761596679688
1709;98.70514678955078
1710;98.57286834716797
1711;98.44081115722656
1712;98.30901336669922
1713;98.17745208740234
1714;98.04611206054688
1715;97.91499328613281
1716;97.78410339355469
1717;97.65347290039062
1718;97.52303314208984
1719;97.39285278320312
1720;97.26288604736328
1721;97.1331558227539
1722;97.00369262695312
1723;96.87439727783203
1724;96.74539184570312
1725;96.6165542602539
1726;96.48799133300781
1727;96.3596420288086
1728;96.2315444946289
1729;96.10364532470703
1730;95.97598266601562
1731;95.8485336303711
1732;95.7213134765625
1733;95.59432983398438
1734;95.46759796142578
1735;95.34105682373047
1736;95.21476745605469
1737;95.08866882324219
1738;94.96279907226562
1739;94.83718872070312
1740;94.71177673339844
1741;94.58658599853516
1742;94.46165466308594
1743;94.33694458007812
1744;94.2123794555664
1745;94.0881118774414
1746;93.96406555175781
1747;93.84022521972656
1748;93.71660614013672
1749;93.59323120117188
1750;93.4700698852539
1751;93.34713745117188
1752;93.22439575195312
1753;93.10187530517578
1754;92.97959899902344
1755;92.8575439453125
1756;92.73571014404297
1757;92.61407470703125
1758;92.49267578125
1759;92.37149047851562
1760;92.25051879882812
1761;92.1297607421875
1762;92.0092544555664
1763;91.88893127441406
1764;91.76883697509766
1765;91.64897918701172
1766;91.5293197631836
1767;91.4098892211914
1768;91.2906494140625
1769;91.1716537475586
1770;91.0528793334961
1771;90.93429565429688
1772;90.81597137451172
1773;90.69779968261719
1774;90.57989501953125
1775;90.46218872070312
1776;90.3447036743164
1777;90.22742462158203
1778;90.1103744506836
1779;89.9935302734375
1780;89.87689208984375
1781;89.76046752929688
1782;89.64425659179688
1783;89.52826690673828
1784;89.41248321533203
1785;89.29692840576172
1786;89.18154907226562
1787;89.06640625
1788;88.95148468017578
1789;88.83676147460938
1790;88.72222900390625
1791;88.60794067382812
1792;88.49382781982422
1793;88.37996673583984
1794;88.26629638671875
1795;88.15283203125
1796;88.0395736694336
1797;87.9265365600586
1798;87.81370544433594
1799;87.70108032226562
1800;87.5886459350586
1801;87.4764404296875
1802;87.36444854736328
1803;87.25264739990234
1804;87.14108276367188
1805;87.02969360351562
1806;86.91851043701172
1807;86.80754089355469
1808;86.69678497314453
1809;86.58622741699219
1810;86.47587585449219
1811;86.3657455444336
1812;86.25577545166016
1813;86.14605712890625
1814;86.03651428222656
1815;85.92720794677734
1816;85.81806945800781
1817;85.70915222167969
1818;85.60041046142578
1819;85.49191284179688
1820;85.38359069824219
1821;85.27550506591797
1822;85.16759490966797
1823;85.05989837646484
1824;84.95237731933594
1825;84.8450698852539
1826;84.73797607421875
1827;84.63109588623047
1828;84.52438354492188
1829;84.4178695678711
1830;84.31158447265625
1831;84.20549774169922
1832;84.099609375
1833;83.99392700195312
1834;83.88843536376953
1835;83.78311157226562
1836;83.67803192138672
1837;83.5731430053711
1838;83.46842193603516
1839;83.3639144897461
1840;83.25957489013672
1841;83.15548706054688
1842;83.05155944824219
1843;82.94784545898438
1844;82.84432983398438
1845;82.74099731445312
1846;82.63786315917969
1847;82.5349349975586
1848;82.43218231201172
1849;82.32965087890625
1850;82.227294921875
1851;82.1251449584961
1852;82.02318572998047
1853;81.92142486572266
1854;81.81982421875
1855;81.71844482421875
1856;81.61727905273438
1857;81.51628112792969
1858;81.41548156738281
1859;81.31489562988281
1860;81.21446228027344
1861;81.11425018310547
1862;81.01423645019531
1863;80.91439819335938
1864;80.81473541259766
1865;80.71527862548828
1866;80.61602783203125
1867;80.51696014404297
1868;80.41805267333984
1869;80.3193588256836
1870;80.22086334228516
1871;80.1225357055664
1872;80.02440643310547
1873;79.92647552490234
1874;79.8287353515625
1875;79.73117065429688
1876;79.63379669189453
1877;79.5365982055664
1878;79.43961334228516
1879;79.3427963256836
1880;79.24617004394531
1881;79.14974212646484
1882;79.0534896850586
1883;78.9574203491211
1884;78.86155700683594
1885;78.76585388183594
1886;78.67035675048828
1887;78.57501983642578
1888;78.47989654541016
1889;78.38494110107422
1890;78.2901840209961
1891;78.19558715820312
1892;78.1011962890625
1893;78.00698852539062
1894;77.91294860839844
1895;77.819091796875
1896;77.72543334960938
1897;77.63195037841797
1898;77.53866577148438
1899;77.4455337524414
1900;77.35260009765625
1901;77.25984191894531
1902;77.16726684570312
1903;77.07487487792969
1904;76.98263549804688
1905;76.89060974121094
1906;76.79875183105469
1907;76.70708465576172
1908;76.61559295654297
1909;76.5242919921875
1910;76.43317413330078
1911;76.34221649169922
1912;76.25143432617188
1913;76.16082763671875
1914;76.0704345703125
1915;75.98017120361328
1916;75.89012145996094
1917;75.80023956298828
1918;75.71052551269531
1919;75.62101745605469
1920;75.53168487548828
1921;75.44248962402344
1922;75.3534927368164
1923;75.2646484375
1924;75.17599487304688
1925;75.08753967285156
1926;74.999267578125
1927;74.91114807128906
1928;74.82317352294922
1929;74.73542022705078
1930;74.64781188964844
1931;74.56039428710938
1932;74.47314453125
1933;74.38607788085938
1934;74.29916381835938
1935;74.21244049072266
1936;74.12588500976562
1937;74.03951263427734
1938;73.95330047607422
1939;73.86725616455078
1940;73.7813720703125
1941;73.69568634033203
1942;73.61015319824219
1943;73.5248031616211
1944;73.43962097167969
1945;73.35459899902344
1946;73.26976776123047
1947;73.18508911132812
1948;73.10059356689453
1949;73.01626586914062
1950;72.93209838867188
1951;72.84808349609375
1952;72.76427459716797
1953;72.68062591552734
1954;72.59713745117188
1955;72.5138168334961
1956;72.43067169189453
1957;72.34767150878906
1958;72.26486206054688
1959;72.18221282958984
1960;72.09972381591797
1961;72.01741790771484
1962;71.93527221679688
1963;71.85327911376953
1964;71.77145385742188
1965;71.68982696533203
1966;71.60831451416016
1967;71.52700805664062
1968;71.44585418701172
1969;71.36485290527344
1970;71.28402709960938
1971;71.203369140625
1972;71.12287139892578
1973;71.04251861572266
1974;70.96234893798828
1975;70.88236999511719
1976;70.80252075195312
1977;70.72281646728516
1978;70.64331817626953
1979;70.56396484375
1980;70.48477172851562
1981;70.40572357177734
1982;70.32685089111328
1983;70.24813079833984
1984;70.16959381103516
1985;70.09121704101562
1986;70.01296997070312
1987;69.93492889404297
1988;69.85701751708984
1989;69.77925872802734
1990;69.70169067382812
1991;69.62423706054688
1992;69.54696655273438
1993;69.46986389160156
1994;69.39289855957031
1995;69.31613159179688
1996;69.23947143554688
1997;69.16299438476562
1998;69.08670043945312
1999;69.01052856445312
