;loss
0;1315.431396484375
1;1314.4700927734375
2;1313.1754150390625
3;1311.8778076171875
4;1310.5770263671875
5;1309.2728271484375
6;1308.00439453125
7;1306.7198486328125
8;1305.403564453125
9;1304.0946044921875
10;1302.7689208984375
11;1301.437255859375
12;1300.0975341796875
13;1298.7523193359375
14;1297.392333984375
15;1296.0308837890625
16;1294.64990234375
17;1293.25732421875
18;1291.8526611328125
19;1290.43505859375
20;1289.00341796875
21;1287.556884765625
22;1286.1103515625
23;1284.63037109375
24;1283.132080078125
25;1281.6318359375
26;1280.11083984375
27;1278.55029296875
28;1276.96630859375
29;1275.3763427734375
30;1273.7418212890625
31;1272.080078125
32;1270.4093017578125
33;1268.70849609375
34;1266.95654296875
35;1265.19189453125
36;1263.3724365234375
37;1261.5372314453125
38;1259.66455078125
39;1257.731201171875
40;1255.7562255859375
41;1253.758056640625
42;1251.714599609375
43;1249.6029052734375
44;1247.4410400390625
45;1245.22705078125
46;1242.9581298828125
47;1240.641357421875
48;1238.2647705078125
49;1235.824951171875
50;1233.3419189453125
51;1230.7666015625
52;1228.14208984375
53;1225.44287109375
54;1222.6644287109375
55;1219.7779541015625
56;1216.8289794921875
57;1213.78759765625
58;1210.649169921875
59;1207.4090576171875
60;1204.062255859375
61;1200.577392578125
62;1196.9725341796875
63;1193.2694091796875
64;1189.4345703125
65;1185.4605712890625
66;1181.3406982421875
67;1177.0743408203125
68;1172.6158447265625
69;1167.986083984375
70;1163.175048828125
71;1158.1717529296875
72;1152.9654541015625
73;1147.580078125
74;1141.9337158203125
75;1136.0870361328125
76;1129.9918212890625
77;1123.59423828125
78;1116.9219970703125
79;1110.00732421875
80;1102.74853515625
81;1095.18310546875
82;1087.33447265625
83;1079.0953369140625
84;1070.5076904296875
85;1061.6151123046875
86;1052.30419921875
87;1042.6258544921875
88;1032.6126708984375
89;1022.307861328125
90;1011.7024536132812
91;1000.8356323242188
92;989.7681274414062
93;978.6383666992188
94;967.4846801757812
95;956.5259399414062
96;945.7844848632812
97;935.4327392578125
98;925.6286010742188
99;916.338623046875
100;907.701416015625
101;899.6315307617188
102;892.12744140625
103;885.2044677734375
104;878.7689819335938
105;872.763671875
106;867.132568359375
107;861.8802490234375
108;856.9317626953125
109;852.2821655273438
110;847.9072265625
111;843.796630859375
112;839.9076538085938
113;836.2201538085938
114;832.705322265625
115;829.3692626953125
116;826.1861572265625
117;823.1326293945312
118;820.2213745117188
119;817.417724609375
120;814.730224609375
121;812.131591796875
122;809.633544921875
123;807.2068481445312
124;804.8558959960938
125;802.5732421875
126;800.3529052734375
127;798.1980590820312
128;796.089111328125
129;794.0382080078125
130;792.0269165039062
131;790.0662841796875
132;788.1390380859375
133;786.250732421875
134;784.3988647460938
135;782.5806274414062
136;780.7996215820312
137;779.0479125976562
138;777.3177490234375
139;775.6134643554688
140;773.9390869140625
141;772.282470703125
142;770.6524658203125
143;769.0431518554688
144;767.4483642578125
145;765.8727416992188
146;764.3199462890625
147;762.7789306640625
148;761.2587280273438
149;759.7490844726562
150;758.2586059570312
151;756.7821044921875
152;755.3148803710938
153;753.8651123046875
154;752.427734375
155;751.0023193359375
156;749.5884399414062
157;748.185546875
158;746.7933349609375
159;745.4114379882812
160;744.0396118164062
161;742.673583984375
162;741.3211059570312
163;739.977783203125
164;738.6433715820312
165;737.3139038085938
166;735.9967041015625
167;734.6845703125
168;733.3805541992188
169;732.0842895507812
170;730.799072265625
171;729.5177001953125
172;728.243408203125
173;726.9761962890625
174;725.7190551757812
175;724.46533203125
176;723.2180786132812
177;721.9805297851562
178;720.7491455078125
179;719.520751953125
180;718.3013916015625
181;717.0848999023438
182;715.8740844726562
183;714.6689453125
184;713.4722290039062
185;712.2778930664062
186;711.091796875
187;709.9080200195312
188;708.7293701171875
189;707.5556640625
190;706.386962890625
191;705.225830078125
192;704.0693969726562
193;702.9148559570312
194;701.7649536132812
195;700.6222534179688
196;699.481201171875
197;698.344482421875
198;697.212158203125
199;696.08642578125
200;694.96240234375
201;693.8424682617188
202;692.7266235351562
203;691.6171264648438
204;690.509033203125
205;689.4071655273438
206;688.306884765625
207;687.2103271484375
208;686.119873046875
209;685.0330200195312
210;683.9474487304688
211;682.8653564453125
212;681.7891845703125
213;680.7139892578125
214;679.6445922851562
215;678.5785522460938
216;677.515869140625
217;676.4566650390625
218;675.4005737304688
219;674.3477172851562
220;673.2980346679688
221;672.25146484375
222;671.2059936523438
223;670.1635131835938
224;669.124267578125
225;668.0879516601562
226;667.0567626953125
227;666.0263671875
228;665.0010375976562
229;663.9784545898438
230;662.956787109375
231;661.9380493164062
232;660.9239501953125
233;659.9108276367188
234;658.9002685546875
235;657.8926391601562
236;656.8875732421875
237;655.8851928710938
238;654.8873291015625
239;653.8919677734375
240;652.8992919921875
241;651.9091796875
242;650.921630859375
243;649.9366455078125
244;648.953857421875
245;647.971923828125
246;646.9942016601562
247;646.0172119140625
248;645.0425415039062
249;644.072021484375
250;643.1038208007812
251;642.1363525390625
252;641.1729736328125
253;640.2118530273438
254;639.2512817382812
255;638.2930297851562
256;637.3370361328125
257;636.3848876953125
258;635.433349609375
259;634.485595703125
260;633.5399780273438
261;632.594970703125
262;631.653564453125
263;630.7144165039062
264;629.7756958007812
265;628.839111328125
266;627.9061889648438
267;626.9737548828125
268;626.0433959960938
269;625.1165161132812
270;624.190185546875
271;623.267333984375
272;622.346435546875
273;621.426025390625
274;620.507568359375
275;619.5911254882812
276;618.676513671875
277;617.7638549804688
278;616.8531494140625
279;615.9441528320312
280;615.0372924804688
281;614.1321411132812
282;613.2288818359375
283;612.327392578125
284;611.4277954101562
285;610.5313720703125
286;609.6367797851562
287;608.743896484375
288;607.8515625
289;606.9609375
290;606.0734252929688
291;605.1876220703125
292;604.30224609375
293;603.4185180664062
294;602.5379638671875
295;601.6577758789062
296;600.780517578125
297;599.9036254882812
298;599.0285034179688
299;598.1550903320312
300;597.284423828125
301;596.414306640625
302;595.5457763671875
303;594.6800537109375
304;593.8160400390625
305;592.952392578125
306;592.091552734375
307;591.2323608398438
308;590.3746948242188
309;589.517333984375
310;588.6616821289062
311;587.8087158203125
312;586.957275390625
313;586.1073608398438
314;585.2579956054688
315;584.4111328125
316;583.5646362304688
317;582.720947265625
318;581.878662109375
319;581.036865234375
320;580.1964111328125
321;579.3575439453125
322;578.521240234375
323;577.685302734375
324;576.850830078125
325;576.017822265625
326;575.186279296875
327;574.356201171875
328;573.527587890625
329;572.7003173828125
330;571.8745727539062
331;571.0512084960938
332;570.228271484375
333;569.4078979492188
334;568.5877075195312
335;567.77001953125
336;566.9537963867188
337;566.1378173828125
338;565.3233032226562
339;564.5100708007812
340;563.6983642578125
341;562.888916015625
342;562.0798950195312
343;561.273193359375
344;560.4678344726562
345;559.663818359375
346;558.860107421875
347;558.058837890625
348;557.2587280273438
349;556.4600219726562
350;555.6626586914062
351;554.8656005859375
352;554.0708618164062
353;553.27734375
354;552.4842529296875
355;551.6923828125
356;550.90185546875
357;550.1126098632812
358;549.3255615234375
359;548.539794921875
360;547.7553100585938
361;546.9710693359375
362;546.1891479492188
363;545.407470703125
364;544.6280517578125
365;543.848876953125
366;543.0718994140625
367;542.296142578125
368;541.520751953125
369;540.7466430664062
370;539.9736328125
371;539.2028198242188
372;538.4322509765625
373;537.663818359375
374;536.8966064453125
375;536.1305541992188
376;535.3648681640625
377;534.600341796875
378;533.837158203125
379;533.0750122070312
380;532.3140869140625
381;531.5552368164062
382;530.7975463867188
383;530.0409545898438
384;529.2855834960938
385;528.5305786132812
386;527.777587890625
387;527.02490234375
388;526.2733154296875
389;525.5230102539062
390;524.7745361328125
391;524.0271606445312
392;523.2810668945312
393;522.5352783203125
394;521.7905883789062
395;521.047119140625
396;520.3047485351562
397;519.5634765625
398;518.8233642578125
399;518.0842895507812
400;517.346435546875
401;516.6103515625
402;515.8753662109375
403;515.1415405273438
404;514.4080810546875
405;513.6756591796875
406;512.9451293945312
407;512.2150268554688
408;511.48590087890625
409;510.7579345703125
410;510.0309143066406
411;509.30511474609375
412;508.5810546875
413;507.857421875
414;507.1354675292969
415;506.4139404296875
416;505.6941223144531
417;504.9747314453125
418;504.25634765625
419;503.5390625
420;502.8228759765625
421;502.1076354980469
422;501.3934326171875
423;500.68109130859375
424;499.9689636230469
425;499.2579650878906
426;498.5479736328125
427;497.8397216796875
428;497.1324768066406
429;496.4255065917969
430;495.7203674316406
431;495.01617431640625
432;494.3123779296875
433;493.6095275878906
434;492.9083557128906
435;492.2083435058594
436;491.5091552734375
437;490.8103942871094
438;490.11328125
439;489.4172058105469
440;488.7220153808594
441;488.02734375
442;487.3336181640625
443;486.6413879394531
444;485.9503173828125
445;485.2594909667969
446;484.5703125
447;483.8821716308594
448;483.1943359375
449;482.5080871582031
450;481.822265625
451;481.1379089355469
452;480.4539794921875
453;479.7716369628906
454;479.09027099609375
455;478.4093017578125
456;477.7292175292969
457;477.0501403808594
458;476.37255859375
459;475.6959533691406
460;475.0202941894531
461;474.3455810546875
462;473.671875
463;472.99908447265625
464;472.32672119140625
465;471.65576171875
466;470.98577880859375
467;470.3167724609375
468;469.6487731933594
469;468.9815673828125
470;468.31536865234375
471;467.6500244140625
472;466.9856872558594
473;466.32220458984375
474;465.65972900390625
475;464.9981689453125
476;464.3369140625
477;463.67724609375
478;463.0184020996094
479;462.35992431640625
480;461.7024230957031
481;461.04632568359375
482;460.390625
483;459.73590087890625
484;459.08258056640625
485;458.4295654296875
486;457.7779846191406
487;457.1273193359375
488;456.47711181640625
489;455.8277587890625
490;455.17926025390625
491;454.53167724609375
492;453.8850402832031
493;453.23980712890625
494;452.5953674316406
495;451.9518737792969
496;451.3087463378906
497;450.66705322265625
498;450.02618408203125
499;449.3857116699219
500;448.74615478515625
501;448.10791015625
502;447.4700927734375
503;446.8330993652344
504;446.197021484375
505;445.56182861328125
506;444.927490234375
507;444.29443359375
508;443.6623840332031
509;443.0310974121094
510;442.4007263183594
511;441.77117919921875
512;441.1424560546875
513;440.5146484375
514;439.8872375488281
515;439.2611083984375
516;438.63531494140625
517;438.01043701171875
518;437.3863830566406
519;436.7637023925781
520;436.1413879394531
521;435.5203552246094
522;434.9001770019531
523;434.2803955078125
524;433.6618957519531
525;433.0442810058594
526;432.4269714355469
527;431.8105773925781
528;431.1949768066406
529;430.5806884765625
530;429.9671630859375
531;429.3544921875
532;428.74273681640625
533;428.1313171386719
534;427.5207214355469
535;426.911376953125
536;426.30242919921875
537;425.6947326660156
538;425.08782958984375
539;424.4813232421875
540;423.8757019042969
541;423.2708435058594
542;422.66680908203125
543;422.06402587890625
544;421.46160888671875
545;420.8604736328125
546;420.2597351074219
547;419.65972900390625
548;419.060546875
549;418.4621887207031
550;417.86505126953125
551;417.2687072753906
552;416.6727600097656
553;416.0776062011719
554;415.4832763671875
555;414.8897705078125
556;414.29736328125
557;413.7057800292969
558;413.1146545410156
559;412.524658203125
560;411.9354553222656
561;411.3470458984375
562;410.759521484375
563;410.1722412109375
564;409.5862121582031
565;409.00054931640625
566;408.4161071777344
567;407.8324279785156
568;407.2495422363281
569;406.66741943359375
570;406.0860595703125
571;405.5054626464844
572;404.9256286621094
573;404.3466491699219
574;403.7684326171875
575;403.1905212402344
576;402.61346435546875
577;402.0375671386719
578;401.4620056152344
579;400.88720703125
580;400.3135986328125
581;399.7403869628906
582;399.1678466796875
583;398.5961608886719
584;398.0252685546875
585;397.4554443359375
586;396.8860168457031
587;396.31732177734375
588;395.749755859375
589;395.1826477050781
590;394.6165771484375
591;394.0509033203125
592;393.48638916015625
593;392.9222717285156
594;392.3592529296875
595;391.79693603515625
596;391.23504638671875
597;390.6739501953125
598;390.1136474609375
599;389.5542907714844
600;388.9953918457031
601;388.4372863769531
602;387.87982177734375
603;387.3231201171875
604;386.7676086425781
605;386.2127380371094
606;385.6582946777344
607;385.1048583984375
608;384.5522766113281
609;384.0003356933594
610;383.4491882324219
611;382.898681640625
612;382.3487548828125
613;381.7993469238281
614;381.2510986328125
615;380.70361328125
616;380.1567687988281
617;379.6107482910156
618;379.06536865234375
619;378.5204162597656
620;377.9761962890625
621;377.4329833984375
622;376.8902587890625
623;376.3484802246094
624;375.80712890625
625;375.2668151855469
626;374.7269592285156
627;374.1881103515625
628;373.64990234375
629;373.1120910644531
630;372.5750427246094
631;372.0387268066406
632;371.50341796875
633;370.96881103515625
634;370.4346008300781
635;369.9013977050781
636;369.36859130859375
637;368.8367919921875
638;368.3057861328125
639;367.77545166015625
640;367.2454833984375
641;366.7161865234375
642;366.1878967285156
643;365.660400390625
644;365.1331787109375
645;364.60675048828125
646;364.0810241699219
647;363.55596923828125
648;363.0315856933594
649;362.5081787109375
650;361.9854736328125
651;361.4632263183594
652;360.9416198730469
653;360.4207458496094
654;359.9005126953125
655;359.38104248046875
656;358.8625183105469
657;358.3443298339844
658;357.8268737792969
659;357.3104248046875
660;356.7946472167969
661;356.279541015625
662;355.7648010253906
663;355.2508239746094
664;354.73773193359375
665;354.225341796875
666;353.7135925292969
667;353.2023010253906
668;352.69171142578125
669;352.1817626953125
670;351.6724853515625
671;351.1641540527344
672;350.6564636230469
673;350.1492004394531
674;349.6429138183594
675;349.13702392578125
676;348.6317443847656
677;348.12725830078125
678;347.6234130859375
679;347.1203918457031
680;346.6180725097656
681;346.1161804199219
682;345.6149597167969
683;345.1146545410156
684;344.6148376464844
685;344.1158447265625
686;343.6172790527344
687;343.11962890625
688;342.62237548828125
689;342.12579345703125
690;341.6298828125
691;341.1346435546875
692;340.6400146484375
693;340.1463317871094
694;339.6533508300781
695;339.16070556640625
696;338.6689147949219
697;338.1778564453125
698;337.68719482421875
699;337.1974182128906
700;336.70806884765625
701;336.2193603515625
702;335.7312927246094
703;335.2438049316406
704;334.757080078125
705;334.2709045410156
706;333.78546142578125
707;333.3006286621094
708;332.8164367675781
709;332.33306884765625
710;331.8504333496094
711;331.3681640625
712;330.88677978515625
713;330.4060974121094
714;329.9259338378906
715;329.4464416503906
716;328.9676513671875
717;328.4894104003906
718;328.0119323730469
719;327.5350036621094
720;327.0587158203125
721;326.5828552246094
722;326.1077575683594
723;325.6331787109375
724;325.1593933105469
725;324.6863098144531
726;324.2135009765625
727;323.7416687011719
728;323.2703857421875
729;322.7998962402344
730;322.32965087890625
731;321.8602294921875
732;321.3915100097656
733;320.9232177734375
734;320.45574951171875
735;319.9888916015625
736;319.52239990234375
737;319.0567626953125
738;318.5917663574219
739;318.12744140625
740;317.6636962890625
741;317.2003173828125
742;316.7378234863281
743;316.2756652832031
744;315.8143615722656
745;315.3535461425781
746;314.8934326171875
747;314.4339599609375
748;313.9751281738281
749;313.5167236328125
750;313.0589599609375
751;312.6019592285156
752;312.1456298828125
753;311.6897888183594
754;311.23443603515625
755;310.7799072265625
756;310.325927734375
757;309.8724365234375
758;309.4195251464844
759;308.9671630859375
760;308.5156555175781
761;308.06475830078125
762;307.61419677734375
763;307.1643371582031
764;306.7152099609375
765;306.2667236328125
766;305.81884765625
767;305.3714904785156
768;304.9246520996094
769;304.478515625
770;304.0330810546875
771;303.5881652832031
772;303.14361572265625
773;302.69976806640625
774;302.2564697265625
775;301.813720703125
776;301.3716125488281
777;300.9301452636719
778;300.4891662597656
779;300.0488586425781
780;299.6092529296875
781;299.170166015625
782;298.7317810058594
783;298.2940368652344
784;297.8565979003906
785;297.4197998046875
786;296.9836120605469
787;296.5480041503906
788;296.1129455566406
789;295.6787109375
790;295.24505615234375
791;294.81195068359375
792;294.37945556640625
793;293.94732666015625
794;293.5158386230469
795;293.0848693847656
796;292.6546936035156
797;292.2249755859375
798;291.7957458496094
799;291.3670959472656
800;290.93927001953125
801;290.5118408203125
802;290.0848693847656
803;289.6585693359375
804;289.23291015625
805;288.807861328125
806;288.38330078125
807;287.9594421386719
808;287.5360107421875
809;287.1131896972656
810;286.6908874511719
811;286.2691650390625
812;285.8480224609375
813;285.4276123046875
814;285.00762939453125
815;284.5881652832031
816;284.1695251464844
817;283.7513732910156
818;283.3336181640625
819;282.9166564941406
820;282.5
821;282.0841369628906
822;281.6688232421875
823;281.25396728515625
824;280.8397216796875
825;280.4259948730469
826;280.0129089355469
827;279.6004638671875
828;279.1883544921875
829;278.7769775390625
830;278.3659973144531
831;277.95574951171875
832;277.54583740234375
833;277.13671875
834;276.72802734375
835;276.32000732421875
836;275.9125061035156
837;275.5054626464844
838;275.09893798828125
839;274.6929016113281
840;274.2876892089844
841;273.8829650878906
842;273.4786682128906
843;273.07489013671875
844;272.6717529296875
845;272.26904296875
846;271.8670654296875
847;271.46551513671875
848;271.064697265625
849;270.6642150878906
850;270.26446533203125
851;269.8652648925781
852;269.4664306640625
853;269.06817626953125
854;268.67059326171875
855;268.2735290527344
856;267.87689208984375
857;267.4809875488281
858;267.0854187011719
859;266.69036865234375
860;266.29595947265625
861;265.90216064453125
862;265.5089111328125
863;265.1162109375
864;264.7238464355469
865;264.3321533203125
866;263.9410400390625
867;263.55035400390625
868;263.16021728515625
869;262.7707214355469
870;262.381591796875
871;261.9930419921875
872;261.6051940917969
873;261.2176818847656
874;260.8308410644531
875;260.444580078125
876;260.0588073730469
877;259.6734619140625
878;259.2886962890625
879;258.90435791015625
880;258.520751953125
881;258.13751220703125
882;257.7547912597656
883;257.3726501464844
884;256.9910888671875
885;256.6099853515625
886;256.2294921875
887;255.84942626953125
888;255.4698944091797
889;255.09100341796875
890;254.71258544921875
891;254.33460998535156
892;253.95730590820312
893;253.5803985595703
894;253.2041778564453
895;252.8282012939453
896;252.452880859375
897;252.07815551757812
898;251.70379638671875
899;251.33013916015625
900;250.95689392089844
901;250.5840606689453
902;250.21197509765625
903;249.84019470214844
904;249.46896362304688
905;249.09841918945312
906;248.7281951904297
907;248.3585662841797
908;247.989501953125
909;247.62098693847656
910;247.2528533935547
911;246.88522338867188
912;246.51828002929688
913;246.151611328125
914;245.7855682373047
915;245.4200897216797
916;245.05496215820312
917;244.69046020507812
918;244.32638549804688
919;243.9629669189453
920;243.60009765625
921;243.23765563964844
922;242.8756561279297
923;242.51422119140625
924;242.1532440185547
925;241.7928009033203
926;241.43292236328125
927;241.07351684570312
928;240.71453857421875
929;240.35617065429688
930;239.998291015625
931;239.640869140625
932;239.28404235839844
933;238.92755126953125
934;238.57156372070312
935;238.21620178222656
936;237.8611602783203
937;237.50680541992188
938;237.15293884277344
939;236.79937744140625
940;236.44650268554688
941;236.09402465820312
942;235.74212646484375
943;235.39059448242188
944;235.03961181640625
945;234.68914794921875
946;234.33921813964844
947;233.98980712890625
948;233.64073181152344
949;233.29220581054688
950;232.94415283203125
951;232.5966796875
952;232.24969482421875
953;231.90321350097656
954;231.55709838867188
955;231.21148681640625
956;230.86631774902344
957;230.52166748046875
958;230.1776580810547
959;229.83392333984375
960;229.49075317382812
961;229.148193359375
962;228.8060760498047
963;228.46435546875
964;228.12318420410156
965;227.7825469970703
966;227.44229125976562
967;227.1025848388672
968;226.76329040527344
969;226.4244384765625
970;226.086181640625
971;225.74838256835938
972;225.41099548339844
973;225.07418823242188
974;224.7378692626953
975;224.4020233154297
976;224.06655883789062
977;223.73162841796875
978;223.39723205566406
979;223.06326293945312
980;222.72984313964844
981;222.39674377441406
982;222.0641632080078
983;221.73202514648438
984;221.4004669189453
985;221.06927490234375
986;220.73863220214844
987;220.4083709716797
988;220.07870483398438
989;219.74935913085938
990;219.4206085205078
991;219.09226989746094
992;218.76443481445312
993;218.43707275390625
994;218.11019897460938
995;217.78372192382812
996;217.4577178955078
997;217.1321258544922
998;216.80709838867188
999;216.48248291015625
1000;216.15843200683594
1001;215.8347930908203
1002;215.51158142089844
1003;215.18890380859375
1004;214.86669921875
1005;214.54495239257812
1006;214.2235565185547
1007;213.90264892578125
1008;213.5821990966797
1009;213.26226806640625
1010;212.9428253173828
1011;212.62376403808594
1012;212.30514526367188
1013;211.987060546875
1014;211.6694793701172
1015;211.35235595703125
1016;211.03553771972656
1017;210.71929931640625
1018;210.40347290039062
1019;210.08802795410156
1020;209.77308654785156
1021;209.45858764648438
1022;209.14453125
1023;208.83090209960938
1024;208.51783752441406
1025;208.20521545410156
1026;207.89303588867188
1027;207.5813751220703
1028;207.27008056640625
1029;206.95913696289062
1030;206.64886474609375
1031;206.33895874023438
1032;206.02947998046875
1033;205.72052001953125
1034;205.41192626953125
1035;205.10377502441406
1036;204.79605102539062
1037;204.4888916015625
1038;204.18212890625
1039;203.875732421875
1040;203.56988525390625
1041;203.26446533203125
1042;202.95953369140625
1043;202.65496826171875
1044;202.35081481933594
1045;202.04721069335938
1046;201.74398803710938
1047;201.44117736816406
1048;201.13880920410156
1049;200.83688354492188
1050;200.53543090820312
1051;200.2344512939453
1052;199.9338836669922
1053;199.63381958007812
1054;199.3340606689453
1055;199.03477478027344
1056;198.73590087890625
1057;198.4375457763672
1058;198.13961791992188
1059;197.84217834472656
1060;197.54502868652344
1061;197.2483367919922
1062;196.95208740234375
1063;196.65638732910156
1064;196.36097717285156
1065;196.0660858154297
1066;195.77166748046875
1067;195.4776611328125
1068;195.18409729003906
1069;194.8909454345703
1070;194.59825134277344
1071;194.30592346191406
1072;194.0140380859375
1073;193.72264099121094
1074;193.431640625
1075;193.14102172851562
1076;192.85079956054688
1077;192.56106567382812
1078;192.27182006835938
1079;191.98292541503906
1080;191.69456481933594
1081;191.40658569335938
1082;191.11895751953125
1083;190.8318634033203
1084;190.5451202392578
1085;190.25885009765625
1086;189.97300720214844
1087;189.68748474121094
1088;189.40252685546875
1089;189.11793518066406
1090;188.83377075195312
1091;188.54998779296875
1092;188.26666259765625
1093;187.98377990722656
1094;187.70123291015625
1095;187.41908264160156
1096;187.13739013671875
1097;186.85617065429688
1098;186.57537841796875
1099;186.29501342773438
1100;186.01507568359375
1101;185.73550415039062
1102;185.45640563964844
1103;185.17764282226562
1104;184.89930725097656
1105;184.62136840820312
1106;184.34390258789062
1107;184.06683349609375
1108;183.79022216796875
1109;183.51397705078125
1110;183.23818969726562
1111;182.9627227783203
1112;182.68780517578125
1113;182.41319274902344
1114;182.13897705078125
1115;181.86524963378906
1116;181.5919189453125
1117;181.3189239501953
1118;181.04635620117188
1119;180.77426147460938
1120;180.5025177001953
1121;180.23114013671875
1122;179.9602813720703
1123;179.68983459472656
1124;179.41973876953125
1125;179.15011596679688
1126;178.88082885742188
1127;178.6118927001953
1128;178.3434295654297
1129;178.07533264160156
1130;177.80770874023438
1131;177.54043579101562
1132;177.2736358642578
1133;177.00714111328125
1134;176.74110412597656
1135;176.4755096435547
1136;176.21029663085938
1137;175.9454803466797
1138;175.6811065673828
1139;175.41705322265625
1140;175.1533966064453
1141;174.8900909423828
1142;174.6273651123047
1143;174.3649444580078
1144;174.10287475585938
1145;173.84130859375
1146;173.580078125
1147;173.31927490234375
1148;173.05885314941406
1149;172.79884338378906
1150;172.5391845703125
1151;172.2799530029297
1152;172.02105712890625
1153;171.7626190185547
1154;171.50454711914062
1155;171.24685668945312
1156;170.98953247070312
1157;170.73260498046875
1158;170.47608947753906
1159;170.219970703125
1160;169.9643096923828
1161;169.70899963378906
1162;169.45408630371094
1163;169.19956970214844
1164;168.94541931152344
1165;168.691650390625
1166;168.4383087158203
1167;168.18531799316406
1168;167.93270874023438
1169;167.6804656982422
1170;167.42872619628906
1171;167.17726135253906
1172;166.92625427246094
1173;166.67556762695312
1174;166.4253387451172
1175;166.1754608154297
1176;165.92601013183594
1177;165.6768798828125
1178;165.42816162109375
1179;165.1798553466797
1180;164.93194580078125
1181;164.6843719482422
1182;164.43724060058594
1183;164.19041442871094
1184;163.9439697265625
1185;163.6979522705078
1186;163.45225524902344
1187;163.20703125
1188;162.9620819091797
1189;162.71759033203125
1190;162.4734649658203
1191;162.22967529296875
1192;161.98626708984375
1193;161.74322509765625
1194;161.5005645751953
1195;161.25830078125
1196;161.01641845703125
1197;160.77491760253906
1198;160.53375244140625
1199;160.29295349121094
1200;160.0526123046875
1201;159.81259155273438
1202;159.57290649414062
1203;159.33367919921875
1204;159.09475708007812
1205;158.8563232421875
1206;158.6181182861328
1207;158.38034057617188
1208;158.14291381835938
1209;157.90591430664062
1210;157.66921997070312
1211;157.43301391601562
1212;157.1970977783203
1213;156.96160888671875
1214;156.72642517089844
1215;156.49156188964844
1216;156.25714111328125
1217;156.02308654785156
1218;155.7893829345703
1219;155.55609130859375
1220;155.3231658935547
1221;155.09051513671875
1222;154.85833740234375
1223;154.6264190673828
1224;154.3949432373047
1225;154.163818359375
1226;153.93307495117188
1227;153.7025909423828
1228;153.4726104736328
1229;153.24290466308594
1230;153.01351928710938
1231;152.78460693359375
1232;152.5559539794922
1233;152.32769775390625
1234;152.09979248046875
1235;151.87229919433594
1236;151.64515686035156
1237;151.41830444335938
1238;151.19189453125
1239;150.9658203125
1240;150.7401123046875
1241;150.5147247314453
1242;150.2896728515625
1243;150.06504821777344
1244;149.8407745361328
1245;149.61688232421875
1246;149.39332580566406
1247;149.17010498046875
1248;148.9472198486328
1249;148.72474670410156
1250;148.50259399414062
1251;148.2808074951172
1252;148.05938720703125
1253;147.8382568359375
1254;147.6175537109375
1255;147.3971710205078
1256;147.17715454101562
1257;146.95750427246094
1258;146.73818969726562
1259;146.51918029785156
1260;146.30059814453125
1261;146.08230590820312
1262;145.86439514160156
1263;145.64683532714844
1264;145.42959594726562
1265;145.21270751953125
1266;144.99615478515625
1267;144.7799530029297
1268;144.5640869140625
1269;144.34860229492188
1270;144.1334228515625
1271;143.91864013671875
1272;143.7041473388672
1273;143.4900360107422
1274;143.27630615234375
1275;143.06283569335938
1276;142.8497772216797
1277;142.6370849609375
1278;142.4246826171875
1279;142.21258544921875
1280;142.0009002685547
1281;141.78955078125
1282;141.57855224609375
1283;141.36788940429688
1284;141.15753173828125
1285;140.94754028320312
1286;140.73785400390625
1287;140.52857971191406
1288;140.319580078125
1289;140.1109619140625
1290;139.9027099609375
1291;139.6947021484375
1292;139.48707580566406
1293;139.27972412109375
1294;139.07278442382812
1295;138.8661346435547
1296;138.6598663330078
1297;138.45391845703125
1298;138.24835205078125
1299;138.0430450439453
1300;137.83815002441406
1301;137.63357543945312
1302;137.42926025390625
1303;137.2252960205078
1304;137.0217742919922
1305;136.81849670410156
1306;136.61561584472656
1307;136.41302490234375
1308;136.2107391357422
1309;136.00885009765625
1310;135.8072052001953
1311;135.60589599609375
1312;135.40493774414062
1313;135.20433044433594
1314;135.0041046142578
1315;134.80413818359375
1316;134.60452270507812
1317;134.40524291992188
1318;134.206298828125
1319;134.00767517089844
1320;133.80934143066406
1321;133.61138916015625
1322;133.4137420654297
1323;133.2163848876953
1324;133.0193634033203
1325;132.8226776123047
1326;132.62632751464844
1327;132.43032836914062
1328;132.23458862304688
1329;132.0391845703125
1330;131.8441619873047
1331;131.6494140625
1332;131.45504760742188
1333;131.26092529296875
1334;131.06719970703125
1335;130.87374877929688
1336;130.68064880371094
1337;130.48782348632812
1338;130.29534912109375
1339;130.10313415527344
1340;129.91131591796875
1341;129.7198028564453
1342;129.52857971191406
1343;129.3376922607422
1344;129.14710998535156
1345;128.95684814453125
1346;128.76690673828125
1347;128.57725524902344
1348;128.3879852294922
1349;128.19895935058594
1350;128.01031494140625
1351;127.82198333740234
1352;127.63394165039062
1353;127.44615173339844
1354;127.25872039794922
1355;127.07167053222656
1356;126.88485717773438
1357;126.6983642578125
1358;126.51219177246094
1359;126.32633209228516
1360;126.14080047607422
1361;125.95558166503906
1362;125.7706298828125
1363;125.58607482910156
1364;125.40177154541016
1365;125.21778869628906
1366;125.03414154052734
1367;124.85077667236328
1368;124.66779327392578
1369;124.48503875732422
1370;124.30262756347656
1371;124.12052154541016
1372;123.938720703125
1373;123.75723266601562
1374;123.57601165771484
1375;123.3951416015625
1376;123.21451568603516
1377;123.03421783447266
1378;122.85427856445312
1379;122.67459869384766
1380;122.49525451660156
1381;122.316162109375
1382;122.13739776611328
1383;121.95893096923828
1384;121.78077697753906
1385;121.60294342041016
1386;121.42539978027344
1387;121.24815368652344
1388;121.07119750976562
1389;120.89458465576172
1390;120.71820831298828
1391;120.54215240478516
1392;120.36642456054688
1393;120.19100189208984
1394;120.01585388183594
1395;119.84103393554688
1396;119.66648864746094
1397;119.49222564697266
1398;119.31829071044922
1399;119.14466857910156
1400;118.97129821777344
1401;118.79824829101562
1402;118.62551879882812
1403;118.45304107666016
1404;118.28086853027344
1405;118.1090087890625
1406;117.93746948242188
1407;117.76619720458984
1408;117.59525299072266
1409;117.42459106445312
1410;117.25423431396484
1411;117.0841064453125
1412;116.91433715820312
1413;116.74483489990234
1414;116.57563018798828
1415;116.40668487548828
1416;116.23800659179688
1417;116.06968688964844
1418;115.90162658691406
1419;115.73383331298828
1420;115.56635284423828
1421;115.39918518066406
1422;115.2322998046875
1423;115.06570434570312
1424;114.89937591552734
1425;114.73336791992188
1426;114.56765747070312
1427;114.40225982666016
1428;114.23711395263672
1429;114.07223510742188
1430;113.90760803222656
1431;113.74332427978516
1432;113.57929992675781
1433;113.41559600830078
1434;113.25212860107422
1435;113.0889663696289
1436;112.92608642578125
1437;112.76351928710938
1438;112.60122680664062
1439;112.43924713134766
1440;112.27750396728516
1441;112.11605834960938
1442;111.95486450195312
1443;111.79399871826172
1444;111.63338470458984
1445;111.47306823730469
1446;111.31301879882812
1447;111.15328216552734
1448;110.99382019042969
1449;110.83460235595703
1450;110.67568969726562
1451;110.51702880859375
1452;110.3586654663086
1453;110.20059204101562
1454;110.04281616210938
1455;109.88528442382812
1456;109.7280502319336
1457;109.57107543945312
1458;109.41438293457031
1459;109.25796508789062
1460;109.10185241699219
1461;108.94600677490234
1462;108.79043579101562
1463;108.63512420654297
1464;108.48005676269531
1465;108.32528686523438
1466;108.1707763671875
1467;108.01653289794922
1468;107.86259460449219
1469;107.70890808105469
1470;107.55551147460938
1471;107.40237426757812
1472;107.24954223632812
1473;107.09696960449219
1474;106.94464111328125
1475;106.79257202148438
1476;106.64083862304688
1477;106.48934936523438
1478;106.33808898925781
1479;106.1871337890625
1480;106.03645324707031
1481;105.88601684570312
1482;105.73587799072266
1483;105.58599090576172
1484;105.43639373779297
1485;105.28705596923828
1486;105.13795471191406
1487;104.98918151855469
1488;104.84064483642578
1489;104.69237518310547
1490;104.54436492919922
1491;104.39662170410156
1492;104.24913024902344
1493;104.1019515991211
1494;103.9549789428711
1495;103.80831909179688
1496;103.66189575195312
1497;103.5157241821289
1498;103.36982727050781
1499;103.22422790527344
1500;103.07882690429688
1501;102.93373107910156
1502;102.78890991210938
1503;102.64431762695312
1504;102.49996948242188
1505;102.35592651367188
1506;102.21212768554688
1507;102.06857299804688
1508;101.9253158569336
1509;101.78229522705078
1510;101.63953399658203
1511;101.49706268310547
1512;101.35479736328125
1513;101.21281433105469
1514;101.07109069824219
1515;100.92963409423828
1516;100.78839874267578
1517;100.64747619628906
1518;100.50679016113281
1519;100.3663101196289
1520;100.22612762451172
1521;100.08621215820312
1522;99.94656372070312
1523;99.80715942382812
1524;99.6679916381836
1525;99.52909088134766
1526;99.3904800415039
1527;99.2520523071289
1528;99.11392211914062
1529;98.97604370117188
1530;98.83837127685547
1531;98.70101165771484
1532;98.56387329101562
1533;98.42700958251953
1534;98.29039001464844
1535;98.15398406982422
1536;98.01786804199219
1537;97.88201141357422
1538;97.74637603759766
1539;97.61100769042969
1540;97.47589111328125
1541;97.34098815917969
1542;97.20636749267578
1543;97.0719985961914
1544;96.93783569335938
1545;96.80396270751953
1546;96.6703109741211
1547;96.53694152832031
1548;96.40380859375
1549;96.27091217041016
1550;96.13827514648438
1551;96.00586700439453
1552;95.87371826171875
1553;95.7418212890625
1554;95.61013793945312
1555;95.47872924804688
1556;95.34754180908203
1557;95.21662139892578
1558;95.08592987060547
1559;94.95549011230469
1560;94.8252944946289
1561;94.69534301757812
1562;94.56562042236328
1563;94.43616485595703
1564;94.30693817138672
1565;94.17793273925781
1566;94.04917907714844
1567;93.92066192626953
1568;93.79238891601562
1569;93.66437530517578
1570;93.53656768798828
1571;93.40901184082031
1572;93.28170776367188
1573;93.1546401977539
1574;93.02780151367188
1575;92.90119171142578
1576;92.77485656738281
1577;92.64871978759766
1578;92.5228271484375
1579;92.39717864990234
1580;92.27175903320312
1581;92.14662170410156
1582;92.02166748046875
1583;91.89695739746094
1584;91.77249908447266
1585;91.64828491210938
1586;91.52427673339844
1587;91.4004898071289
1588;91.2769775390625
1589;91.15369415283203
1590;91.0306396484375
1591;90.90780639648438
1592;90.78520965576172
1593;90.6628189086914
1594;90.54072570800781
1595;90.41883850097656
1596;90.29718017578125
1597;90.1757583618164
1598;90.0545654296875
1599;89.9335708618164
1600;89.81283569335938
1601;89.69235229492188
1602;89.57205200195312
1603;89.45201110839844
1604;89.3321762084961
1605;89.21257019042969
1606;89.09322357177734
1607;88.97409057617188
1608;88.85519409179688
1609;88.73649597167969
1610;88.6180419921875
1611;88.49980926513672
1612;88.38179016113281
1613;88.26400756835938
1614;88.14646911621094
1615;88.02912139892578
1616;87.91204833984375
1617;87.79517364501953
1618;87.67852783203125
1619;87.56210327148438
1620;87.44589233398438
1621;87.32991790771484
1622;87.21416473388672
1623;87.0986328125
1624;86.98330688476562
1625;86.86821746826172
1626;86.75334930419922
1627;86.63870239257812
1628;86.5243148803711
1629;86.41008758544922
1630;86.2961196899414
1631;86.18236541748047
1632;86.0688247680664
1633;85.95549774169922
1634;85.8424072265625
1635;85.72953033447266
1636;85.61686706542969
1637;85.50442504882812
1638;85.39219665527344
1639;85.2801742553711
1640;85.16842651367188
1641;85.05682373046875
1642;84.94548034667969
1643;84.83435821533203
1644;84.72344207763672
1645;84.61273956298828
1646;84.50227355957031
1647;84.39197540283203
1648;84.28193664550781
1649;84.17208099365234
1650;84.06246948242188
1651;83.95304107666016
1652;83.84385681152344
1653;83.73490142822266
1654;83.62611389160156
1655;83.51757049560547
1656;83.40923309326172
1657;83.30110168457031
1658;83.19318389892578
1659;83.08550262451172
1660;82.9780044555664
1661;82.87073516845703
1662;82.763671875
1663;82.65682220458984
1664;82.55018615722656
1665;82.44375610351562
1666;82.33753204345703
1667;82.23151397705078
1668;82.12570190429688
1669;82.02009582519531
1670;81.91471099853516
1671;81.80950164794922
1672;81.70454406738281
1673;81.59980010986328
1674;81.49525451660156
1675;81.39091491699219
1676;81.28677368164062
1677;81.18283081054688
1678;81.07909393310547
1679;80.97559356689453
1680;80.87229919433594
1681;80.7691879272461
1682;80.66630554199219
1683;80.5635986328125
1684;80.46109771728516
1685;80.35881042480469
1686;80.25674438476562
1687;80.15485382080078
1688;80.05319213867188
1689;79.95174407958984
1690;79.85047149658203
1691;79.74940490722656
1692;79.64852142333984
1693;79.54784393310547
1694;79.4473876953125
1695;79.34713745117188
1696;79.24708557128906
1697;79.147216796875
1698;79.04754638671875
1699;78.94810485839844
1700;78.84883117675781
1701;78.74978637695312
1702;78.65090942382812
1703;78.55227661132812
1704;78.45381927490234
1705;78.35555267333984
1706;78.25749206542969
1707;78.15963745117188
1708;78.06197357177734
1709;77.96449279785156
1710;77.86723327636719
1711;77.77014923095703
1712;77.67327880859375
1713;77.57659912109375
1714;77.4801025390625
1715;77.38381958007812
1716;77.28771209716797
1717;77.19181823730469
1718;77.09612274169922
1719;77.0006332397461
1720;76.90530395507812
1721;76.81019592285156
1722;76.71525573730469
1723;76.62052917480469
1724;76.52600860595703
1725;76.43167114257812
1726;76.33750915527344
1727;76.24352264404297
1728;76.14976501464844
1729;76.05619049072266
1730;75.96282196044922
1731;75.86962127685547
1732;75.77659606933594
1733;75.68378448486328
1734;75.59115600585938
1735;75.49871063232422
1736;75.40647888183594
1737;75.3144302368164
1738;75.22256469726562
1739;75.13087463378906
1740;75.03939056396484
1741;74.94808197021484
1742;74.8569564819336
1743;74.76603698730469
1744;74.67532348632812
1745;74.58477783203125
1746;74.49441528320312
1747;74.40424346923828
1748;74.31424713134766
1749;74.22444915771484
1750;74.13481903076172
1751;74.04539489746094
1752;73.95614624023438
1753;73.86709594726562
1754;73.77821350097656
1755;73.68953704833984
1756;73.60101318359375
1757;73.5126953125
1758;73.424560546875
1759;73.33659362792969
1760;73.24881744384766
1761;73.16124725341797
1762;73.07384490966797
1763;72.98661804199219
1764;72.89958190917969
1765;72.81270599365234
1766;72.72602081298828
1767;72.6395263671875
1768;72.55321502685547
1769;72.46707153320312
1770;72.38113403320312
1771;72.29536437988281
1772;72.20977020263672
1773;72.12435913085938
1774;72.03910064697266
1775;71.95405578613281
1776;71.86917877197266
1777;71.78448486328125
1778;71.69995880126953
1779;71.6156234741211
1780;71.53143310546875
1781;71.44745635986328
1782;71.36365509033203
1783;71.2800064086914
1784;71.19654846191406
1785;71.11325073242188
1786;71.03015899658203
1787;70.94721221923828
1788;70.86447143554688
1789;70.78189086914062
1790;70.6994857788086
1791;70.61724090576172
1792;70.53518676757812
1793;70.45331573486328
1794;70.37158966064453
1795;70.29004669189453
1796;70.20868682861328
1797;70.12750244140625
1798;70.04647827148438
1799;69.96563720703125
1800;69.88494873046875
1801;69.80445098876953
1802;69.72412109375
1803;69.64395141601562
1804;69.56399536132812
1805;69.48416137695312
1806;69.4045181274414
1807;69.32504272460938
1808;69.24574279785156
1809;69.16659545898438
1810;69.08763122558594
1811;69.00881958007812
1812;68.9301986694336
1813;68.85173797607422
1814;68.77344512939453
1815;68.69532012939453
1816;68.61735534667969
1817;68.53958129882812
1818;68.46195983886719
1819;68.38451385498047
1820;68.30721282958984
1821;68.2300796508789
1822;68.15315246582031
1823;68.07633972167969
1824;67.99972534179688
1825;67.92327880859375
1826;67.84697723388672
1827;67.7708511352539
1828;67.69490051269531
1829;67.6191177368164
1830;67.5434799194336
1831;67.46800231933594
1832;67.39268493652344
1833;67.31757354736328
1834;67.24258422851562
1835;67.16778564453125
1836;67.09312438964844
1837;67.01863861083984
1838;66.94430541992188
1839;66.87012481689453
1840;66.79615020751953
1841;66.7222900390625
1842;66.64861297607422
1843;66.57508850097656
1844;66.50174713134766
1845;66.42854309082031
1846;66.35549926757812
1847;66.28262329101562
1848;66.20992279052734
1849;66.1373519897461
1850;66.06494140625
1851;65.99269104003906
1852;65.92062377929688
1853;65.84869384765625
1854;65.77692413330078
1855;65.705322265625
1856;65.63385772705078
1857;65.56256866455078
1858;65.49143981933594
1859;65.4204330444336
1860;65.34960174560547
1861;65.2789306640625
1862;65.20843505859375
1863;65.13806915283203
1864;65.06787872314453
1865;64.9978256225586
1866;64.92791748046875
1867;64.85818481445312
1868;64.78861236572266
1869;64.71917724609375
1870;64.64990997314453
1871;64.58078002929688
1872;64.51181030273438
1873;64.44300842285156
1874;64.37435913085938
1875;64.30585479736328
1876;64.23749542236328
1877;64.16928100585938
1878;64.10123443603516
1879;64.03334045410156
1880;63.96560287475586
1881;63.89799499511719
1882;63.83055877685547
1883;63.76327896118164
1884;63.69612503051758
1885;63.62913131713867
1886;63.56228256225586
1887;63.49557113647461
1888;63.42904281616211
1889;63.36265182495117
1890;63.29640197753906
1891;63.23029327392578
1892;63.16434860229492
1893;63.09854507446289
1894;63.03289031982422
1895;62.96739196777344
1896;62.90202331542969
1897;62.83680725097656
1898;62.77173614501953
1899;62.70682144165039
1900;62.64206314086914
1901;62.57741928100586
1902;62.51293182373047
1903;62.44859313964844
1904;62.38441467285156
1905;62.32036590576172
1906;62.25648880004883
1907;62.19272994995117
1908;62.12913513183594
1909;62.065673828125
1910;62.00234603881836
1911;61.93918991088867
1912;61.87613296508789
1913;61.81325149536133
1914;61.75050354003906
1915;61.68790054321289
1916;61.62544631958008
1917;61.56312561035156
1918;61.50094985961914
1919;61.43891906738281
1920;61.37702941894531
1921;61.31528091430664
1922;61.25366973876953
1923;61.19219970703125
1924;61.13088607788086
1925;61.06968307495117
1926;61.00863265991211
1927;60.94774627685547
1928;60.886962890625
1929;60.82632064819336
1930;60.76585388183594
1931;60.70550537109375
1932;60.64529037475586
1933;60.58522033691406
1934;60.52529525756836
1935;60.46548080444336
1936;60.40582275390625
1937;60.3463134765625
1938;60.28693389892578
1939;60.22767639160156
1940;60.16856002807617
1941;60.10960006713867
1942;60.05074691772461
1943;59.99205017089844
1944;59.93349838256836
1945;59.87507629394531
1946;59.81678009033203
1947;59.75863265991211
1948;59.70059585571289
1949;59.64271545410156
1950;59.58494567871094
1951;59.52733612060547
1952;59.46986389160156
1953;59.41250228881836
1954;59.35528564453125
1955;59.2982177734375
1956;59.24124526977539
1957;59.18442916870117
1958;59.12773895263672
1959;59.07119369506836
1960;59.01476287841797
1961;58.95847702026367
1962;58.90232467651367
1963;58.84629440307617
1964;58.79039764404297
1965;58.73463439941406
1966;58.67898178100586
1967;58.62348175048828
1968;58.56809997558594
1969;58.51287078857422
1970;58.457763671875
1971;58.40277862548828
1972;58.34791946411133
1973;58.29319381713867
1974;58.23859405517578
1975;58.18412399291992
1976;58.12978744506836
1977;58.07557678222656
1978;58.02149963378906
1979;57.96754837036133
1980;57.91372299194336
1981;57.86001968383789
1982;57.80644989013672
1983;57.75300598144531
1984;57.69969177246094
1985;57.64649963378906
1986;57.59344482421875
1987;57.54048538208008
1988;57.4876708984375
1989;57.43498992919922
1990;57.38243103027344
1991;57.32999801635742
1992;57.27768325805664
1993;57.22551727294922
1994;57.17344665527344
1995;57.12150573730469
1996;57.06968307495117
1997;57.01799774169922
1998;56.9664306640625
1999;56.91498565673828
