;loss
0;1320.67919921875
1;1319.6470947265625
2;1318.6143798828125
3;1317.6741943359375
4;1316.6396484375
5;1315.6041259765625
6;1314.5672607421875
7;1313.5506591796875
8;1312.51025390625
9;1311.476806640625
10;1310.4315185546875
11;1309.383056640625
12;1308.32958984375
13;1307.273193359375
14;1306.2071533203125
15;1305.14111328125
16;1304.0693359375
17;1302.98193359375
18;1301.8870849609375
19;1300.7840576171875
20;1299.6842041015625
21;1298.57568359375
22;1297.44580078125
23;1296.3057861328125
24;1295.1553955078125
25;1294.0069580078125
26;1292.83349609375
27;1291.647216796875
28;1290.44775390625
29;1289.234130859375
30;1288.0203857421875
31;1286.7911376953125
32;1285.53125
33;1284.2684326171875
34;1282.9727783203125
35;1281.6578369140625
36;1280.33740234375
37;1278.99560546875
38;1277.61669921875
39;1276.2293701171875
40;1274.8026123046875
41;1273.36474609375
42;1271.8841552734375
43;1270.375244140625
44;1268.8519287109375
45;1267.2974853515625
46;1265.7103271484375
47;1264.073486328125
48;1262.416259765625
49;1260.7056884765625
50;1258.971923828125
51;1257.181396484375
52;1255.3643798828125
53;1253.48681640625
54;1251.56201171875
55;1249.6051025390625
56;1247.5810546875
57;1245.52099609375
58;1243.3887939453125
59;1241.21630859375
60;1238.9674072265625
61;1236.67529296875
62;1234.3011474609375
63;1231.8792724609375
64;1229.370361328125
65;1226.7904052734375
66;1224.1365966796875
67;1221.42529296875
68;1218.61572265625
69;1215.7259521484375
70;1212.7724609375
71;1209.71337890625
72;1206.5673828125
73;1203.33203125
74;1200.00537109375
75;1196.6092529296875
76;1193.0989990234375
77;1189.5167236328125
78;1185.8175048828125
79;1182.04736328125
80;1178.1614990234375
81;1174.18310546875
82;1170.1134033203125
83;1165.9544677734375
84;1161.7330322265625
85;1157.43017578125
86;1153.0489501953125
87;1148.567138671875
88;1144.041259765625
89;1139.426025390625
90;1134.7569580078125
91;1130.0623779296875
92;1125.2994384765625
93;1120.5244140625
94;1115.6964111328125
95;1110.87353515625
96;1106.0399169921875
97;1101.18310546875
98;1096.3331298828125
99;1091.4979248046875
100;1086.70751953125
101;1081.923095703125
102;1077.1728515625
103;1072.4642333984375
104;1067.8031005859375
105;1063.197265625
106;1058.64990234375
107;1054.17431640625
108;1049.7991943359375
109;1045.5003662109375
110;1041.2777099609375
111;1037.1171875
112;1033.0477294921875
113;1029.0445556640625
114;1025.13916015625
115;1021.3147583007812
116;1017.552734375
117;1013.8670654296875
118;1010.252197265625
119;1006.711181640625
120;1003.2446899414062
121;999.8541870117188
122;996.53515625
123;993.2823486328125
124;990.0982055664062
125;986.9778442382812
126;983.9155883789062
127;980.9140625
128;977.9712524414062
129;975.0823364257812
130;972.2435913085938
131;969.4545288085938
132;966.7172241210938
133;964.031494140625
134;961.394775390625
135;958.8032836914062
136;956.2628173828125
137;953.7542114257812
138;951.284912109375
139;948.8642578125
140;946.4819946289062
141;944.13671875
142;941.8197631835938
143;939.5383911132812
144;937.290283203125
145;935.0807495117188
146;932.9014892578125
147;930.7451171875
148;928.624267578125
149;926.5333251953125
150;924.4712524414062
151;922.4359741210938
152;920.4267578125
153;918.4426879882812
154;916.4761352539062
155;914.5347290039062
156;912.6148071289062
157;910.7216796875
158;908.844970703125
159;906.9877319335938
160;905.1502685546875
161;903.332763671875
162;901.5345458984375
163;899.7542724609375
164;897.9923095703125
165;896.2529907226562
166;894.5302734375
167;892.8234252929688
168;891.132080078125
169;889.45556640625
170;887.788818359375
171;886.1366577148438
172;884.5026245117188
173;882.877685546875
174;881.2703857421875
175;879.67578125
176;878.0892333984375
177;876.515380859375
178;874.9533081054688
179;873.406494140625
180;871.8665161132812
181;870.3411254882812
182;868.826171875
183;867.3173828125
184;865.8185424804688
185;864.3329467773438
186;862.856689453125
187;861.389892578125
188;859.928466796875
189;858.4791870117188
190;857.0386962890625
191;855.6034545898438
192;854.176513671875
193;852.760986328125
194;851.3499755859375
195;849.9465942382812
196;848.55078125
197;847.162353515625
198;845.7843627929688
199;844.4099731445312
200;843.042724609375
201;841.6822509765625
202;840.3284912109375
203;838.9813232421875
204;837.6436767578125
205;836.3094482421875
206;834.984375
207;833.6654052734375
208;832.3496704101562
209;831.039794921875
210;829.7357788085938
211;828.4375610351562
212;827.144775390625
213;825.8576049804688
214;824.5756225585938
215;823.299072265625
216;822.02783203125
217;820.761962890625
218;819.5010375976562
219;818.2477416992188
220;816.996826171875
221;815.7509155273438
222;814.5120849609375
223;813.2779541015625
224;812.0481567382812
225;810.8228759765625
226;809.5995483398438
227;808.383056640625
228;807.1710205078125
229;805.9609375
230;804.7550659179688
231;803.5555419921875
232;802.360107421875
233;801.1663208007812
234;799.9765014648438
235;798.7906494140625
236;797.6107788085938
237;796.4346923828125
238;795.2623291015625
239;794.0935668945312
240;792.9285278320312
241;791.7669677734375
242;790.6090087890625
243;789.45458984375
244;788.3014526367188
245;787.1516723632812
246;786.0052490234375
247;784.8642578125
248;783.7263793945312
249;782.591796875
250;781.4603271484375
251;780.3301391601562
252;779.205322265625
253;778.08154296875
254;776.9608154296875
255;775.8430786132812
256;774.7305908203125
257;773.6209106445312
258;772.51416015625
259;771.4103393554688
260;770.309326171875
261;769.2111206054688
262;768.1138305664062
263;767.021240234375
264;765.931396484375
265;764.8423461914062
266;763.7579956054688
267;762.6743774414062
268;761.593505859375
269;760.5169067382812
270;759.4429321289062
271;758.3698120117188
272;757.3009033203125
273;756.2327270507812
274;755.1672973632812
275;754.10595703125
276;753.0470581054688
277;751.990478515625
278;750.9364013671875
279;749.883056640625
280;748.8320922851562
281;747.7850341796875
282;746.740478515625
283;745.6980590820312
284;744.6580810546875
285;743.6187744140625
286;742.583251953125
287;741.5499267578125
288;740.5188598632812
289;739.4900512695312
290;738.4633178710938
291;737.4387817382812
292;736.4164428710938
293;735.396240234375
294;734.3781127929688
295;733.360595703125
296;732.3466796875
297;731.334716796875
298;730.324951171875
299;729.315673828125
300;728.3098754882812
301;727.3047485351562
302;726.301513671875
303;725.3004150390625
304;724.3010864257812
305;723.305419921875
306;722.31005859375
307;721.316650390625
308;720.3253784179688
309;719.3358154296875
310;718.3482666015625
311;717.3626098632812
312;716.3801879882812
313;715.399658203125
314;714.4208984375
315;713.4426879882812
316;712.467529296875
317;711.4931640625
318;710.5205078125
319;709.5509033203125
320;708.581787109375
321;707.6159057617188
322;706.6502685546875
323;705.6866455078125
324;704.7246704101562
325;703.7645263671875
326;702.8060302734375
327;701.8493041992188
328;700.8955688476562
329;699.9422607421875
330;698.9918823242188
331;698.0419921875
332;697.0936889648438
333;696.147216796875
334;695.2034912109375
335;694.2603149414062
336;693.3186645507812
337;692.3787841796875
338;691.4417724609375
339;690.5051879882812
340;689.5703125
341;688.6369018554688
342;687.7052001953125
343;686.775146484375
344;685.8466186523438
345;684.9196166992188
346;683.9942016601562
347;683.070556640625
348;682.1482543945312
349;681.2275390625
350;680.3084716796875
351;679.3908081054688
352;678.4747924804688
353;677.560302734375
354;676.6473999023438
355;675.737060546875
356;674.8271484375
357;673.9188232421875
358;673.0120239257812
359;672.1077270507812
360;671.2039794921875
361;670.302734375
362;669.4028930664062
363;668.504638671875
364;667.606689453125
365;666.7102661132812
366;665.8152465820312
367;664.9216918945312
368;664.0296020507812
369;663.139892578125
370;662.2506713867188
371;661.3628540039062
372;660.4763793945312
373;659.5923461914062
374;658.708740234375
375;657.8274536132812
376;656.946533203125
377;656.068115234375
378;655.18994140625
379;654.313232421875
380;653.4378051757812
381;652.5637817382812
382;651.6920166015625
383;650.8206787109375
384;649.95068359375
385;649.0829467773438
386;648.215576171875
387;647.3495483398438
388;646.48486328125
389;645.6224975585938
390;644.7604370117188
391;643.899658203125
392;643.0411987304688
393;642.183837890625
394;641.327880859375
395;640.4733276367188
396;639.619873046875
397;638.766845703125
398;637.9151611328125
399;637.064697265625
400;636.2154541015625
401;635.368408203125
402;634.521728515625
403;633.6762084960938
404;632.83203125
405;631.989013671875
406;631.1473388671875
407;630.3068237304688
408;629.467529296875
409;628.6295166015625
410;627.7935180664062
411;626.9578857421875
412;626.1235961914062
413;625.2903442382812
414;624.459228515625
415;623.62841796875
416;622.7988891601562
417;621.9703979492188
418;621.1432495117188
419;620.3171997070312
420;619.4932250976562
421;618.6695556640625
422;617.847900390625
423;617.026611328125
424;616.2064819335938
425;615.3883056640625
426;614.5704956054688
427;613.7538452148438
428;612.9383544921875
429;612.1240844726562
430;611.3108520507812
431;610.4996337890625
432;609.689453125
433;608.8796997070312
434;608.0718383789062
435;607.2651977539062
436;606.4595336914062
437;605.6543579101562
438;604.8508911132812
439;604.0487060546875
440;603.24755859375
441;602.447509765625
442;601.6478271484375
443;600.849365234375
444;600.0526123046875
445;599.2570190429688
446;598.4624633789062
447;597.6690673828125
448;596.876708984375
449;596.0855102539062
450;595.2952880859375
451;594.506103515625
452;593.717529296875
453;592.929931640625
454;592.1439819335938
455;591.3591918945312
456;590.5748901367188
457;589.7914428710938
458;589.0092163085938
459;588.2280883789062
460;587.44775390625
461;586.6693725585938
462;585.8919677734375
463;585.11572265625
464;584.3404541015625
465;583.5654907226562
466;582.791748046875
467;582.01953125
468;581.2483520507812
469;580.4776000976562
470;579.7085571289062
471;578.9398803710938
472;578.1728515625
473;577.4063110351562
474;576.6407470703125
475;575.8768310546875
476;575.1132202148438
477;574.351318359375
478;573.5897827148438
479;572.8292846679688
480;572.0697631835938
481;571.311279296875
482;570.554443359375
483;569.798583984375
484;569.0431518554688
485;568.2886962890625
486;567.53515625
487;566.78271484375
488;566.0311279296875
489;565.2806396484375
490;564.53173828125
491;563.7838134765625
492;563.0369262695312
493;562.2908935546875
494;561.5458984375
495;560.8013305664062
496;560.0582275390625
497;559.3156127929688
498;558.574462890625
499;557.8342895507812
500;557.0946044921875
501;556.3557739257812
502;555.6185302734375
503;554.8822631835938
504;554.1463623046875
505;553.4119262695312
506;552.6785278320312
507;551.946044921875
508;551.2139892578125
509;550.4827880859375
510;549.752685546875
511;549.0233764648438
512;548.295166015625
513;547.5676879882812
514;546.8418579101562
515;546.1163330078125
516;545.392333984375
517;544.668701171875
518;543.946044921875
519;543.2242431640625
520;542.50341796875
521;541.7835083007812
522;541.0651245117188
523;540.3475952148438
524;539.6310424804688
525;538.915283203125
526;538.2005004882812
527;537.4866333007812
528;536.773681640625
529;536.0617065429688
530;535.3504638671875
531;534.6403198242188
532;533.930908203125
533;533.22265625
534;532.5150756835938
535;531.8084716796875
536;531.1027221679688
537;530.3973999023438
538;529.6929931640625
539;528.989990234375
540;528.2877807617188
541;527.5866088867188
542;526.88623046875
543;526.186767578125
544;525.4876708984375
545;524.7900390625
546;524.0926513671875
547;523.396728515625
548;522.701171875
549;522.006591796875
550;521.312744140625
551;520.619873046875
552;519.9283447265625
553;519.2371826171875
554;518.54736328125
555;517.8579711914062
556;517.1693725585938
557;516.482177734375
558;515.7958984375
559;515.10986328125
560;514.42529296875
561;513.740966796875
562;513.0576782226562
563;512.3756713867188
564;511.6939697265625
565;511.01318359375
566;510.3332824707031
567;509.65423583984375
568;508.9759521484375
569;508.2986145019531
570;507.62213134765625
571;506.9464416503906
572;506.2716064453125
573;505.59759521484375
574;504.9244384765625
575;504.2525634765625
576;503.58154296875
577;502.9113464355469
578;502.2419738769531
579;501.5735168457031
580;500.90570068359375
581;500.2388916015625
582;499.57281494140625
583;498.90765380859375
584;498.2432861328125
585;497.5797119140625
586;496.91693115234375
587;496.2550048828125
588;495.5940246582031
589;494.9337158203125
590;494.2742614746094
591;493.61566162109375
592;492.9578552246094
593;492.30084228515625
594;491.6446533203125
595;490.9888916015625
596;490.3338623046875
597;489.68011474609375
598;489.0272216796875
599;488.37506103515625
600;487.7237854003906
601;487.0728759765625
602;486.4232177734375
603;485.7742004394531
604;485.1261291503906
605;484.47845458984375
606;483.83197021484375
607;483.1859130859375
608;482.5408935546875
609;481.896484375
610;481.2527770996094
611;480.6102294921875
612;479.9685363769531
613;479.32720947265625
614;478.6866760253906
615;478.046875
616;477.4079895019531
617;476.7701721191406
618;476.1331787109375
619;475.4969482421875
620;474.8614807128906
621;474.2268371582031
622;473.5929870605469
623;472.95989990234375
624;472.32757568359375
625;471.6956787109375
626;471.06494140625
627;470.4349060058594
628;469.8053894042969
629;469.1769104003906
630;468.5491943359375
631;467.9219970703125
632;467.2958984375
633;466.6705322265625
634;466.0455627441406
635;465.42132568359375
636;464.7979736328125
637;464.17535400390625
638;463.5534362792969
639;462.93267822265625
640;462.3122863769531
641;461.6927490234375
642;461.0738830566406
643;460.4558410644531
644;459.8385009765625
645;459.2219543457031
646;458.6061096191406
647;457.9910583496094
648;457.3768005371094
649;456.76361083984375
650;456.1507568359375
651;455.5387268066406
652;454.9274597167969
653;454.3169250488281
654;453.70709228515625
655;453.098388671875
656;452.4901123046875
657;451.8828430175781
658;451.2763671875
659;450.6706237792969
660;450.0653076171875
661;449.4610290527344
662;448.8574523925781
663;448.2543640136719
664;447.65203857421875
665;447.0503845214844
666;446.449462890625
667;445.8492431640625
668;445.2501525878906
669;444.6517333984375
670;444.0540771484375
671;443.45684814453125
672;442.8603820800781
673;442.264892578125
674;441.670166015625
675;441.0758056640625
676;440.48223876953125
677;439.8893737792969
678;439.29718017578125
679;438.70574951171875
680;438.11505126953125
681;437.5253601074219
682;436.9364013671875
683;436.3478088378906
684;435.760009765625
685;435.1728820800781
686;434.5867614746094
687;434.00140380859375
688;433.4167175292969
689;432.832763671875
690;432.24951171875
691;431.66668701171875
692;431.0845947265625
693;430.503173828125
694;429.9224548339844
695;429.34246826171875
696;428.7634582519531
697;428.1851501464844
698;427.6075439453125
699;427.0303955078125
700;426.4542236328125
701;425.8787841796875
702;425.3039855957031
703;424.7296447753906
704;424.15594482421875
705;423.5829772949219
706;423.0107421875
707;422.4391784667969
708;421.8686218261719
709;421.29840087890625
710;420.7289733886719
711;420.1605224609375
712;419.59234619140625
713;419.0250244140625
714;418.4582824707031
715;417.8922424316406
716;417.3269958496094
717;416.7622985839844
718;416.1986083984375
719;415.6353454589844
720;415.0727844238281
721;414.5109558105469
722;413.94976806640625
723;413.3894958496094
724;412.8296203613281
725;412.2705383300781
726;411.7120361328125
727;411.154541015625
728;410.59765625
729;410.0415344238281
730;409.4857177734375
731;408.9306945800781
732;408.3763122558594
733;407.8226318359375
734;407.2697448730469
735;406.71771240234375
736;406.1660461425781
737;405.6152648925781
738;405.0649108886719
739;404.51519775390625
740;403.96624755859375
741;403.4178466796875
742;402.8702392578125
743;402.3232421875
744;401.77691650390625
745;401.2312316894531
746;400.6861877441406
747;400.1420593261719
748;399.59844970703125
749;399.0556640625
750;398.5135803222656
751;397.9721374511719
752;397.4313049316406
753;396.8912048339844
754;396.3515319824219
755;395.8124694824219
756;395.27435302734375
757;394.7368469238281
758;394.19976806640625
759;393.663330078125
760;393.1275634765625
761;392.5924377441406
762;392.0582580566406
763;391.52435302734375
764;390.9914855957031
765;390.4591979980469
766;389.9273681640625
767;389.3961486816406
768;388.8656005859375
769;388.3357238769531
770;387.80670166015625
771;387.27825927734375
772;386.75054931640625
773;386.223388671875
774;385.697021484375
775;385.1709899902344
776;384.64556884765625
777;384.12103271484375
778;383.596923828125
779;383.0734558105469
780;382.5508728027344
781;382.0286560058594
782;381.5073547363281
783;380.9864501953125
784;380.4664306640625
785;379.94696044921875
786;379.427978515625
787;378.9095764160156
788;378.39208984375
789;377.87518310546875
790;377.3587646484375
791;376.8428955078125
792;376.3277587890625
793;375.8131103515625
794;375.29937744140625
795;374.78607177734375
796;374.27337646484375
797;373.7615661621094
798;373.25030517578125
799;372.73974609375
800;372.22979736328125
801;371.7204284667969
802;371.2115478515625
803;370.7033996582031
804;370.1959228515625
805;369.6890869140625
806;369.182861328125
807;368.67724609375
808;368.17205810546875
809;367.6675109863281
810;367.1637268066406
811;366.6603698730469
812;366.15789794921875
813;365.6559753417969
814;365.1545104980469
815;364.65386962890625
816;364.1535949707031
817;363.6541442871094
818;363.1552734375
819;362.6571044921875
820;362.1592712402344
821;361.662109375
822;361.1654968261719
823;360.66949462890625
824;360.1741638183594
825;359.67938232421875
826;359.1854553222656
827;358.69195556640625
828;358.19921875
829;357.7068786621094
830;357.2151184082031
831;356.7242431640625
832;356.23394775390625
833;355.7441711425781
834;355.255126953125
835;354.7665710449219
836;354.27850341796875
837;353.79119873046875
838;353.30450439453125
839;352.818359375
840;352.3326416015625
841;351.84759521484375
842;351.3632507324219
843;350.87939453125
844;350.396240234375
845;349.9137268066406
846;349.4317932128906
847;348.95050048828125
848;348.4695129394531
849;347.9892272949219
850;347.5096435546875
851;347.0304870605469
852;346.5521545410156
853;346.0741882324219
854;345.5969543457031
855;345.120361328125
856;344.6443176269531
857;344.16888427734375
858;343.69390869140625
859;343.2196350097656
860;342.7459716796875
861;342.2726745605469
862;341.80023193359375
863;341.3282775878906
864;340.8569641113281
865;340.38623046875
866;339.9160461425781
867;339.44647216796875
868;338.9774475097656
869;338.5090637207031
870;338.0411682128906
871;337.573974609375
872;337.1072692871094
873;336.64117431640625
874;336.1756286621094
875;335.7104797363281
876;335.2459716796875
877;334.78216552734375
878;334.3190002441406
879;333.8563232421875
880;333.39422607421875
881;332.9327392578125
882;332.4718017578125
883;332.0112609863281
884;331.5513916015625
885;331.09210205078125
886;330.63348388671875
887;330.1754150390625
888;329.7177429199219
889;329.2606201171875
890;328.80426025390625
891;328.3484802246094
892;327.8930969238281
893;327.4382629394531
894;326.9841613769531
895;326.53045654296875
896;326.0773620605469
897;325.625
898;325.1731262207031
899;324.7218933105469
900;324.27093505859375
901;323.8208312988281
902;323.3710632324219
903;322.9220275878906
904;322.47357177734375
905;322.0256652832031
906;321.57830810546875
907;321.13153076171875
908;320.6852722167969
909;320.2396240234375
910;319.79449462890625
911;319.3498840332031
912;318.9058837890625
913;318.46240234375
914;318.01947021484375
915;317.5771484375
916;317.1353759765625
917;316.6940612792969
918;316.2534484863281
919;315.81329345703125
920;315.37353515625
921;314.9343566894531
922;314.495849609375
923;314.05792236328125
924;313.6203308105469
925;313.1835632324219
926;312.7471008300781
927;312.3112487792969
928;311.8759765625
929;311.4411926269531
930;311.0069274902344
931;310.5732116699219
932;310.14007568359375
933;309.7074890136719
934;309.2753601074219
935;308.843994140625
936;308.41302490234375
937;307.98272705078125
938;307.5529479980469
939;307.1236572265625
940;306.6949462890625
941;306.2667236328125
942;305.83917236328125
943;305.4120788574219
944;304.9855651855469
945;304.5595703125
946;304.1341247558594
947;303.7092590332031
948;303.2847900390625
949;302.8609619140625
950;302.43756103515625
951;302.0147705078125
952;301.592529296875
953;301.1706237792969
954;300.74951171875
955;300.32867431640625
956;299.9084777832031
957;299.48876953125
958;299.0697326660156
959;298.65118408203125
960;298.2331848144531
961;297.8155822753906
962;297.3986511230469
963;296.98223876953125
964;296.56634521484375
965;296.1510009765625
966;295.7361145019531
967;295.32183837890625
968;294.9080810546875
969;294.4946594238281
970;294.081787109375
971;293.6695251464844
972;293.2576904296875
973;292.8465270996094
974;292.4358215332031
975;292.0257568359375
976;291.6161193847656
977;291.2070617675781
978;290.7984313964844
979;290.3903503417969
980;289.9827575683594
981;289.5755615234375
982;289.16912841796875
983;288.76312255859375
984;288.3576965332031
985;287.9527587890625
986;287.54833984375
987;287.1444091796875
988;286.7410888671875
989;286.33819580078125
990;285.93585205078125
991;285.5340270996094
992;285.1326904296875
993;284.73187255859375
994;284.3314208984375
995;283.9315185546875
996;283.5321960449219
997;283.1334228515625
998;282.7351989746094
999;282.3374328613281
1000;281.9401550292969
1001;281.54339599609375
1002;281.14715576171875
1003;280.75146484375
1004;280.3562927246094
1005;279.96148681640625
1006;279.5672912597656
1007;279.1736145019531
1008;278.7804260253906
1009;278.3877258300781
1010;277.9953918457031
1011;277.6036682128906
1012;277.21240234375
1013;276.82171630859375
1014;276.4315490722656
1015;276.041748046875
1016;275.6525573730469
1017;275.263916015625
1018;274.8755798339844
1019;274.48785400390625
1020;274.10064697265625
1021;273.7139587402344
1022;273.3277587890625
1023;272.94207763671875
1024;272.556884765625
1025;272.1720886230469
1026;271.78790283203125
1027;271.4042053222656
1028;271.0210266113281
1029;270.6383056640625
1030;270.2559509277344
1031;269.874267578125
1032;269.4929504394531
1033;269.1121826171875
1034;268.7319030761719
1035;268.35205078125
1036;267.9727478027344
1037;267.5939025878906
1038;267.2156677246094
1039;266.83770751953125
1040;266.46044921875
1041;266.0836181640625
1042;265.7073059082031
1043;265.3314208984375
1044;264.9560546875
1045;264.58111572265625
1046;264.2067565917969
1047;263.832763671875
1048;263.4593505859375
1049;263.08642578125
1050;262.7138671875
1051;262.3419494628906
1052;261.9704284667969
1053;261.5994567871094
1054;261.2288818359375
1055;260.8587341308594
1056;260.4891052246094
1057;260.1199951171875
1058;259.75146484375
1059;259.38330078125
1060;259.0157165527344
1061;258.6485595703125
1062;258.28192138671875
1063;257.9156799316406
1064;257.5498962402344
1065;257.1846008300781
1066;256.8197021484375
1067;256.4554443359375
1068;256.0916442871094
1069;255.72830200195312
1070;255.3654022216797
1071;255.00306701660156
1072;254.64105224609375
1073;254.27960205078125
1074;253.91856384277344
1075;253.5580291748047
1076;253.1979217529297
1077;252.83831787109375
1078;252.47918701171875
1079;252.12049865722656
1080;251.7623748779297
1081;251.40460205078125
1082;251.0474395751953
1083;250.69061279296875
1084;250.33425903320312
1085;249.978515625
1086;249.62307739257812
1087;249.26824951171875
1088;248.91378784179688
1089;248.5597381591797
1090;248.20632934570312
1091;247.85333251953125
1092;247.5008087158203
1093;247.14865112304688
1094;246.79708862304688
1095;246.44583129882812
1096;246.09507751464844
1097;245.744873046875
1098;245.3951873779297
1099;245.0458221435547
1100;244.69691467285156
1101;244.34852600097656
1102;244.0005645751953
1103;243.65310668945312
1104;243.30618286132812
1105;242.9595489501953
1106;242.61341857910156
1107;242.267822265625
1108;241.922607421875
1109;241.5778045654297
1110;241.2334747314453
1111;240.8896484375
1112;240.54624938964844
1113;240.203369140625
1114;239.86087036132812
1115;239.5189666748047
1116;239.17742919921875
1117;238.83631896972656
1118;238.4956817626953
1119;238.15538024902344
1120;237.8157501220703
1121;237.47653198242188
1122;237.1376953125
1123;236.79928588867188
1124;236.4613494873047
1125;236.1238555908203
1126;235.7867889404297
1127;235.45013427734375
1128;235.11398315429688
1129;234.7783966064453
1130;234.4431915283203
1131;234.10836791992188
1132;233.7740020751953
1133;233.440185546875
1134;233.10675048828125
1135;232.77378845214844
1136;232.44129943847656
1137;232.10919189453125
1138;231.77748107910156
1139;231.44622802734375
1140;231.11541748046875
1141;230.78515625
1142;230.45526123046875
1143;230.1259002685547
1144;229.79690551757812
1145;229.46836853027344
1146;229.14019775390625
1147;228.81253051757812
1148;228.48532104492188
1149;228.15863037109375
1150;227.832275390625
1151;227.50640869140625
1152;227.18096923828125
1153;226.85598754882812
1154;226.53140258789062
1155;226.20721435546875
1156;225.88345336914062
1157;225.56021118164062
1158;225.23736572265625
1159;224.91490173339844
1160;224.59292602539062
1161;224.2713165283203
1162;223.95016479492188
1163;223.6294708251953
1164;223.30926513671875
1165;222.98941040039062
1166;222.6699676513672
1167;222.35101318359375
1168;222.03244018554688
1169;221.71432495117188
1170;221.39669799804688
1171;221.07952880859375
1172;220.76275634765625
1173;220.44639587402344
1174;220.13038635253906
1175;219.81488037109375
1176;219.4998321533203
1177;219.18524169921875
1178;218.87103271484375
1179;218.55718994140625
1180;218.2437744140625
1181;217.93087768554688
1182;217.618408203125
1183;217.30625915527344
1184;216.99461364746094
1185;216.68338012695312
1186;216.3725128173828
1187;216.06207275390625
1188;215.75218200683594
1189;215.44259643554688
1190;215.13336181640625
1191;214.82464599609375
1192;214.51641845703125
1193;214.20860290527344
1194;213.901123046875
1195;213.59408569335938
1196;213.2874755859375
1197;212.9813232421875
1198;212.67559814453125
1199;212.3702850341797
1200;212.06532287597656
1201;211.7608642578125
1202;211.4568328857422
1203;211.15313720703125
1204;210.84982299804688
1205;210.54698181152344
1206;210.24456787109375
1207;209.94256591796875
1208;209.64105224609375
1209;209.33990478515625
1210;209.03919982910156
1211;208.73886108398438
1212;208.43896484375
1213;208.139404296875
1214;207.84027099609375
1215;207.54153442382812
1216;207.24327087402344
1217;206.94537353515625
1218;206.6478729248047
1219;206.3507843017578
1220;206.0541229248047
1221;205.75791931152344
1222;205.46209716796875
1223;205.16659545898438
1224;204.8716583251953
1225;204.5770721435547
1226;204.28285217285156
1227;203.989013671875
1228;203.69564819335938
1229;203.40267944335938
1230;203.11016845703125
1231;202.8180389404297
1232;202.52627563476562
1233;202.23495483398438
1234;201.94400024414062
1235;201.65342712402344
1236;201.36328125
1237;201.0735321044922
1238;200.78424072265625
1239;200.49526977539062
1240;200.20677185058594
1241;199.91864013671875
1242;199.6309051513672
1243;199.34359741210938
1244;199.056640625
1245;198.77011108398438
1246;198.48406982421875
1247;198.19834899902344
1248;197.91302490234375
1249;197.6280517578125
1250;197.3435516357422
1251;197.0594940185547
1252;196.77569580078125
1253;196.4923858642578
1254;196.20941162109375
1255;195.92694091796875
1256;195.64476013183594
1257;195.36294555664062
1258;195.0816650390625
1259;194.80068969726562
1260;194.52012634277344
1261;194.24005126953125
1262;193.96022033691406
1263;193.68084716796875
1264;193.40188598632812
1265;193.123291015625
1266;192.84515380859375
1267;192.56732177734375
1268;192.2898712158203
1269;192.0128631591797
1270;191.73623657226562
1271;191.46002197265625
1272;191.1842041015625
1273;190.9087371826172
1274;190.63372802734375
1275;190.35902404785156
1276;190.08473205566406
1277;189.8108367919922
1278;189.5372772216797
1279;189.26409912109375
1280;188.99139404296875
1281;188.7190399169922
1282;188.44703674316406
1283;188.1754150390625
1284;187.90423583984375
1285;187.63340759277344
1286;187.36297607421875
1287;187.09292602539062
1288;186.8232421875
1289;186.553955078125
1290;186.28500366210938
1291;186.0164337158203
1292;185.74826049804688
1293;185.4805450439453
1294;185.2130889892578
1295;184.94610595703125
1296;184.67945861816406
1297;184.4132537841797
1298;184.14739990234375
1299;183.88186645507812
1300;183.6167755126953
1301;183.35208129882812
1302;183.08778381347656
1303;182.8238525390625
1304;182.56024169921875
1305;182.2970428466797
1306;182.03416442871094
1307;181.77169799804688
1308;181.5095977783203
1309;181.24789428710938
1310;180.98651123046875
1311;180.72555541992188
1312;180.46499633789062
1313;180.20481872558594
1314;179.94496154785156
1315;179.68548583984375
1316;179.42637634277344
1317;179.16766357421875
1318;178.9093475341797
1319;178.65135192871094
1320;178.3937530517578
1321;178.1365509033203
1322;177.87966918945312
1323;177.6232147216797
1324;177.36712646484375
1325;177.11134338378906
1326;176.8559112548828
1327;176.6008758544922
1328;176.34617614746094
1329;176.09193420410156
1330;175.83802795410156
1331;175.58450317382812
1332;175.33135986328125
1333;175.07852172851562
1334;174.82608032226562
1335;174.57395935058594
1336;174.32225036621094
1337;174.07089233398438
1338;173.81996154785156
1339;173.56935119628906
1340;173.31912231445312
1341;173.06922912597656
1342;172.8197021484375
1343;172.5705108642578
1344;172.32167053222656
1345;172.07322692871094
1346;171.8251953125
1347;171.57745361328125
1348;171.33010864257812
1349;171.08311462402344
1350;170.83645629882812
1351;170.59017944335938
1352;170.34426879882812
1353;170.0986785888672
1354;169.853515625
1355;169.60870361328125
1356;169.36419677734375
1357;169.12005615234375
1358;168.876220703125
1359;168.6328125
1360;168.38973999023438
1361;168.14703369140625
1362;167.9046173095703
1363;167.6626434326172
1364;167.42105102539062
1365;167.1797332763672
1366;166.93878173828125
1367;166.6982421875
1368;166.45803833007812
1369;166.21817016601562
1370;165.97866821289062
1371;165.7394561767578
1372;165.50070190429688
1373;165.26222229003906
1374;165.02410888671875
1375;164.78631591796875
1376;164.54888916015625
1377;164.31182861328125
1378;164.0751190185547
1379;163.8387908935547
1380;163.60275268554688
1381;163.36712646484375
1382;163.1317901611328
1383;162.89678955078125
1384;162.66213989257812
1385;162.42791748046875
1386;162.19398498535156
1387;161.96038818359375
1388;161.7271270751953
1389;161.49424743652344
1390;161.26165771484375
1391;161.02947998046875
1392;160.797607421875
1393;160.56610107421875
1394;160.33497619628906
1395;160.10415649414062
1396;159.87368774414062
1397;159.64356994628906
1398;159.41380310058594
1399;159.18431091308594
1400;158.9552001953125
1401;158.72642517089844
1402;158.49798583984375
1403;158.2698516845703
1404;158.04208374023438
1405;157.814697265625
1406;157.58761596679688
1407;157.36090087890625
1408;157.13446044921875
1409;156.90841674804688
1410;156.68272399902344
1411;156.45733642578125
1412;156.23228454589844
1413;156.00758361816406
1414;155.7832489013672
1415;155.55923461914062
1416;155.33551025390625
1417;155.1121368408203
1418;154.88909912109375
1419;154.66641235351562
1420;154.44406127929688
1421;154.2220916748047
1422;154.0004119873047
1423;153.77906799316406
1424;153.5580596923828
1425;153.33741760253906
1426;153.1171112060547
1427;152.89710998535156
1428;152.67745971679688
1429;152.45806884765625
1430;152.23904418945312
1431;152.02032470703125
1432;151.80198669433594
1433;151.58395385742188
1434;151.36624145507812
1435;151.1488800048828
1436;150.93186950683594
1437;150.7151641845703
1438;150.49880981445312
1439;150.2827606201172
1440;150.0670623779297
1441;149.85165405273438
1442;149.6365509033203
1443;149.42178344726562
1444;149.2073516845703
1445;148.9932403564453
1446;148.77947998046875
1447;148.5660400390625
1448;148.3529510498047
1449;148.14013671875
1450;147.92770385742188
1451;147.71556091308594
1452;147.50372314453125
1453;147.292236328125
1454;147.08108520507812
1455;146.8702392578125
1456;146.6597137451172
1457;146.4495391845703
1458;146.23968505859375
1459;146.03012084960938
1460;145.82086181640625
1461;145.61196899414062
1462;145.40342712402344
1463;145.19512939453125
1464;144.98715209960938
1465;144.77947998046875
1466;144.57217407226562
1467;144.3651580810547
1468;144.15846252441406
1469;143.95208740234375
1470;143.74603271484375
1471;143.540283203125
1472;143.33482360839844
1473;143.12969970703125
1474;142.92494201660156
1475;142.72052001953125
1476;142.51632690429688
1477;142.31251525878906
1478;142.10897827148438
1479;141.90574645996094
1480;141.70285034179688
1481;141.50030517578125
1482;141.29803466796875
1483;141.09603881835938
1484;140.89439392089844
1485;140.69305419921875
1486;140.4920196533203
1487;140.29132080078125
1488;140.09092712402344
1489;139.890869140625
1490;139.69107055664062
1491;139.4916229248047
1492;139.29248046875
1493;139.09368896484375
1494;138.89515686035156
1495;138.69696044921875
1496;138.49905395507812
1497;138.30148315429688
1498;138.1042022705078
1499;137.90721130371094
1500;137.7105255126953
1501;137.51416015625
1502;137.3181610107422
1503;137.12237548828125
1504;136.9269256591797
1505;136.73178100585938
1506;136.53692626953125
1507;136.3424072265625
1508;136.14817810058594
1509;135.95425415039062
1510;135.76065063476562
1511;135.56732177734375
1512;135.3743133544922
1513;135.18157958984375
1514;134.98916625976562
1515;134.79705810546875
1516;134.60523986816406
1517;134.41375732421875
1518;134.22254943847656
1519;134.03167724609375
1520;133.8411102294922
1521;133.6508026123047
1522;133.46080017089844
1523;133.27110290527344
1524;133.08169555664062
1525;132.89256286621094
1526;132.7038116455078
1527;132.51527404785156
1528;132.32705688476562
1529;132.13916015625
1530;131.9515380859375
1531;131.76422119140625
1532;131.57717895507812
1533;131.39047241210938
1534;131.20404052734375
1535;131.01791381835938
1536;130.8321075439453
1537;130.64659118652344
1538;130.4613494873047
1539;130.27642822265625
1540;130.0917510986328
1541;129.90736389160156
1542;129.72332763671875
1543;129.53956604003906
1544;129.35606384277344
1545;129.17288208007812
1546;128.989990234375
1547;128.80740356445312
1548;128.62506103515625
1549;128.44305419921875
1550;128.26129150390625
1551;128.07986450195312
1552;127.89871978759766
1553;127.71786499023438
1554;127.53728485107422
1555;127.35701751708984
1556;127.17705535888672
1557;126.99734497070312
1558;126.81793975830078
1559;126.63877868652344
1560;126.45994567871094
1561;126.28144073486328
1562;126.10311889648438
1563;125.92513275146484
1564;125.74745178222656
1565;125.570068359375
1566;125.3929443359375
1567;125.21610260009766
1568;125.03958129882812
1569;124.86329650878906
1570;124.68729400634766
1571;124.5115966796875
1572;124.33616638183594
1573;124.16104888916016
1574;123.98619079589844
1575;123.81163024902344
1576;123.63736724853516
1577;123.46339416503906
1578;123.28965759277344
1579;123.1162109375
1580;122.94308471679688
1581;122.77021026611328
1582;122.59762573242188
1583;122.42530822753906
1584;122.25326538085938
1585;122.08151245117188
1586;121.91004943847656
1587;121.73886108398438
1588;121.56796264648438
1589;121.3973388671875
1590;121.22696685791016
1591;121.05690002441406
1592;120.88710021972656
1593;120.71762084960938
1594;120.54835510253906
1595;120.37937927246094
1596;120.210693359375
1597;120.04226684570312
1598;119.87413024902344
1599;119.70624542236328
1600;119.53864288330078
1601;119.371337890625
1602;119.20429229736328
1603;119.03752899169922
1604;118.87105560302734
1605;118.70481872558594
1606;118.53888702392578
1607;118.37323760986328
1608;118.20781707763672
1609;118.04265594482422
1610;117.87779235839844
1611;117.71321868896484
1612;117.54886627197266
1613;117.38484954833984
1614;117.2210693359375
1615;117.05757904052734
1616;116.89434051513672
1617;116.73137664794922
1618;116.56871032714844
1619;116.40628814697266
1620;116.24415588378906
1621;116.08226013183594
1622;115.920654296875
1623;115.75931549072266
1624;115.59822845458984
1625;115.43743133544922
1626;115.27689361572266
1627;115.11660766601562
1628;114.95655822753906
1629;114.79682159423828
1630;114.63735961914062
1631;114.47811889648438
1632;114.31917572021484
1633;114.16046905517578
1634;114.00202178955078
1635;113.84390258789062
1636;113.68597412109375
1637;113.52836608886719
1638;113.37098693847656
1639;113.21388244628906
1640;113.05702209472656
1641;112.90047454833984
1642;112.74414825439453
1643;112.58810424804688
1644;112.43225860595703
1645;112.27672576904297
1646;112.1214599609375
1647;111.9664306640625
1648;111.81168365478516
1649;111.65717315673828
1650;111.5029296875
1651;111.34896087646484
1652;111.19525146484375
1653;111.04178619384766
1654;110.88858795166016
1655;110.73565673828125
1656;110.58296966552734
1657;110.4305419921875
1658;110.27839660644531
1659;110.12648010253906
1660;109.97480773925781
1661;109.82343292236328
1662;109.67227172851562
1663;109.52137756347656
1664;109.37075805664062
1665;109.2203598022461
1666;109.07023620605469
1667;108.92033386230469
1668;108.7707290649414
1669;108.62133026123047
1670;108.47221374511719
1671;108.32334899902344
1672;108.17476654052734
1673;108.02643585205078
1674;107.8783187866211
1675;107.73046875
1676;107.58287811279297
1677;107.43551635742188
1678;107.2884521484375
1679;107.1416015625
1680;106.99497985839844
1681;106.84866333007812
1682;106.70255279541016
1683;106.55667877197266
1684;106.41110229492188
1685;106.26573181152344
1686;106.12066650390625
1687;105.97579956054688
1688;105.83120727539062
1689;105.68684387207031
1690;105.5427474975586
1691;105.39887237548828
1692;105.25525665283203
1693;105.11192321777344
1694;104.9687728881836
1695;104.825927734375
1696;104.68328857421875
1697;104.5409164428711
1698;104.39875793457031
1699;104.25688171386719
1700;104.1152114868164
1701;103.97382354736328
1702;103.8326644897461
1703;103.69174194335938
1704;103.55107116699219
1705;103.41061401367188
1706;103.27044677734375
1707;103.13050842285156
1708;102.99079132080078
1709;102.85133361816406
1710;102.71212768554688
1711;102.57315826416016
1712;102.43441772460938
1713;102.29591369628906
1714;102.15767669677734
1715;102.0196533203125
1716;101.88186645507812
1717;101.74433135986328
1718;101.60701751708984
1719;101.46995544433594
1720;101.33316040039062
1721;101.19654846191406
1722;101.06022644042969
1723;100.92411804199219
1724;100.7882308959961
1725;100.65261840820312
1726;100.51717376708984
1727;100.38204193115234
1728;100.24710083007812
1729;100.11238861083984
1730;99.97797393798828
1731;99.84374237060547
1732;99.70978546142578
1733;99.57603454589844
1734;99.4425048828125
1735;99.30924224853516
1736;99.17617797851562
1737;99.0433349609375
1738;98.9107666015625
1739;98.77842712402344
1740;98.64630889892578
1741;98.51446533203125
1742;98.38282012939453
1743;98.25138854980469
1744;98.1202163696289
1745;97.98922729492188
1746;97.85850524902344
1747;97.72801208496094
1748;97.59774780273438
1749;97.46772766113281
1750;97.33792114257812
1751;97.2083511352539
1752;97.07899475097656
1753;96.94988250732422
1754;96.82102966308594
1755;96.6923599243164
1756;96.56393432617188
1757;96.43574523925781
1758;96.30779266357422
1759;96.18006134033203
1760;96.05254364013672
1761;95.92526245117188
1762;95.79817962646484
1763;95.67137145996094
1764;95.54476928710938
1765;95.41837310791016
1766;95.292236328125
1767;95.16631317138672
1768;95.04058074951172
1769;94.91509246826172
1770;94.78982543945312
1771;94.66477966308594
1772;94.53997802734375
1773;94.41537475585938
1774;94.29100036621094
1775;94.16688537597656
1776;94.04298400878906
1777;93.91927337646484
1778;93.79578399658203
1779;93.67251586914062
1780;93.54952239990234
1781;93.42668914794922
1782;93.30411529541016
1783;93.18172454833984
1784;93.05957794189453
1785;92.93765258789062
1786;92.81591796875
1787;92.69442749023438
1788;92.57315063476562
1789;92.45208740234375
1790;92.33125305175781
1791;92.21064758300781
1792;92.09024047851562
1793;91.97004699707031
1794;91.85010528564453
1795;91.73033142089844
1796;91.61080169677734
1797;91.49149322509766
1798;91.37238311767578
1799;91.25348663330078
1800;91.13481903076172
1801;91.01638793945312
1802;90.89810943603516
1803;90.78011322021484
1804;90.66229248046875
1805;90.54470825195312
1806;90.4273452758789
1807;90.3101806640625
1808;90.1932373046875
1809;90.0765151977539
1810;89.9599838256836
1811;89.84368896484375
1812;89.72760772705078
1813;89.61170959472656
1814;89.49605560302734
1815;89.3805923461914
1816;89.26533508300781
1817;89.15029907226562
1818;89.03544616699219
1819;88.92081451416016
1820;88.80642700195312
1821;88.69224548339844
1822;88.57825469970703
1823;88.46446228027344
1824;88.35088348388672
1825;88.23750305175781
1826;88.12437438964844
1827;88.01143646240234
1828;87.89871215820312
1829;87.78617095947266
1830;87.67384338378906
1831;87.56172943115234
1832;87.4498519897461
1833;87.33812713623047
1834;87.22663879394531
1835;87.11534118652344
1836;87.00428771972656
1837;86.89340209960938
1838;86.78271484375
1839;86.67225646972656
1840;86.56198120117188
1841;86.45193481445312
1842;86.34207153320312
1843;86.23240661621094
1844;86.12297058105469
1845;86.01372528076172
1846;85.90469360351562
1847;85.79586029052734
1848;85.68721771240234
1849;85.57876586914062
1850;85.47052001953125
1851;85.3625259399414
1852;85.25470733642578
1853;85.14705657958984
1854;85.03965759277344
1855;84.93244171142578
1856;84.8254165649414
1857;84.7186279296875
1858;84.61196899414062
1859;84.50557708740234
1860;84.39934539794922
1861;84.29331970214844
1862;84.1874771118164
1863;84.0818862915039
1864;83.9764633178711
1865;83.87120819091797
1866;83.76619720458984
1867;83.66136932373047
1868;83.55674743652344
1869;83.45230102539062
1870;83.34809112548828
1871;83.24403381347656
1872;83.14017486572266
1873;83.03652954101562
1874;82.93311309814453
1875;82.82984924316406
1876;82.72676849365234
1877;82.6239242553711
1878;82.52123260498047
1879;82.41874694824219
1880;82.31645202636719
1881;82.21435546875
1882;82.11247253417969
1883;82.01078033447266
1884;81.90924072265625
1885;81.80792999267578
1886;81.706787109375
1887;81.60586547851562
1888;81.50511169433594
1889;81.40457916259766
1890;81.30423736572266
1891;81.20404815673828
1892;81.1041030883789
1893;81.00430297851562
1894;80.90469360351562
1895;80.80530548095703
1896;80.7060775756836
1897;80.60706329345703
1898;80.50821685791016
1899;80.40959930419922
1900;80.31112670898438
1901;80.21284484863281
1902;80.11477661132812
1903;80.01687622070312
1904;79.9191665649414
1905;79.82164764404297
1906;79.72431182861328
1907;79.62718963623047
1908;79.53022766113281
1909;79.4334487915039
1910;79.33687591552734
1911;79.24047088623047
1912;79.144287109375
1913;79.0482406616211
1914;78.95242309570312
1915;78.85676574707031
1916;78.76129913330078
1917;78.6659927368164
1918;78.57093811035156
1919;78.47600555419922
1920;78.38125610351562
1921;78.28671264648438
1922;78.1923599243164
1923;78.09817504882812
1924;78.00418853759766
1925;77.91034698486328
1926;77.81672668457031
1927;77.7232666015625
1928;77.6299819946289
1929;77.5368881225586
1930;77.4439926147461
1931;77.35127258300781
1932;77.25872039794922
1933;77.16635131835938
1934;77.07418060302734
1935;76.982177734375
1936;76.89035034179688
1937;76.79869842529297
1938;76.70723724365234
1939;76.6159439086914
1940;76.52484893798828
1941;76.43389892578125
1942;76.34317016601562
1943;76.2525863647461
1944;76.16218566894531
1945;76.07197570800781
1946;75.98191833496094
1947;75.89205932617188
1948;75.8023681640625
1949;75.71286010742188
1950;75.62353515625
1951;75.53437042236328
1952;75.44539642333984
1953;75.35655975341797
1954;75.2679214477539
1955;75.17947387695312
1956;75.09121704101562
1957;75.00309753417969
1958;74.91517639160156
1959;74.82743835449219
1960;74.7398452758789
1961;74.6524429321289
1962;74.56520080566406
1963;74.4781265258789
1964;74.39125061035156
1965;74.30451965332031
1966;74.21796417236328
1967;74.13158416748047
1968;74.04537963867188
1969;73.9593734741211
1970;73.87348937988281
1971;73.78781127929688
1972;73.70230102539062
1973;73.616943359375
1974;73.5317611694336
1975;73.44674682617188
1976;73.36192321777344
1977;73.27722930908203
1978;73.19274139404297
1979;73.1084213256836
1980;73.02424621582031
1981;72.94026184082031
1982;72.85646057128906
1983;72.77278137207031
1984;72.68930053710938
1985;72.6059799194336
1986;72.52281951904297
1987;72.4398193359375
1988;72.35702514648438
1989;72.27434539794922
1990;72.1918716430664
1991;72.10955047607422
1992;72.02739715576172
1993;71.94540405273438
1994;71.86358642578125
1995;71.78194427490234
1996;71.7004165649414
1997;71.61909484863281
1998;71.53793334960938
1999;71.4569320678711
