;loss
0;1316.9195556640625
1;1316.78271484375
2;1316.5985107421875
3;1316.4139404296875
4;1316.2403564453125
5;1316.0550537109375
6;1315.8692626953125
7;1315.6832275390625
8;1315.4967041015625
9;1315.3096923828125
10;1315.1224365234375
11;1314.934814453125
12;1314.74658203125
13;1314.5579833984375
14;1314.368896484375
15;1314.179443359375
16;1313.9896240234375
17;1313.799072265625
18;1313.606201171875
19;1313.4130859375
20;1313.2213134765625
21;1313.02685546875
22;1312.8316650390625
23;1312.63623046875
24;1312.4422607421875
25;1312.24755859375
26;1312.0504150390625
27;1311.854736328125
28;1311.65869140625
29;1311.4619140625
30;1311.264404296875
31;1311.064208984375
32;1310.865478515625
33;1310.6639404296875
34;1310.4617919921875
35;1310.2589111328125
36;1310.0552978515625
37;1309.853271484375
38;1309.65087890625
39;1309.445068359375
40;1309.23876953125
41;1309.0338134765625
42;1308.826171875
43;1308.6195068359375
44;1308.412353515625
45;1308.2041015625
46;1307.9951171875
47;1307.783203125
48;1307.572509765625
49;1307.36083984375
50;1307.1485595703125
51;1306.9349365234375
52;1306.7205810546875
53;1306.5052490234375
54;1306.288818359375
55;1306.0697021484375
56;1305.8494873046875
57;1305.630126953125
58;1305.40966796875
59;1305.1864013671875
60;1304.96240234375
61;1304.7369384765625
62;1304.512451171875
63;1304.28662109375
64;1304.0599365234375
65;1303.8321533203125
66;1303.6072998046875
67;1303.3798828125
68;1303.1514892578125
69;1302.92236328125
70;1302.693603515625
71;1302.46240234375
72;1302.23193359375
73;1301.99853515625
74;1301.765869140625
75;1301.5318603515625
76;1301.2955322265625
77;1301.0595703125
78;1300.822509765625
79;1300.584228515625
80;1300.34326171875
81;1300.101318359375
82;1299.859619140625
83;1299.6151123046875
84;1299.37109375
85;1299.125732421875
86;1298.87939453125
87;1298.63037109375
88;1298.3800048828125
89;1298.1297607421875
90;1297.8770751953125
91;1297.6231689453125
92;1297.3677978515625
93;1297.111572265625
94;1296.8551025390625
95;1296.5975341796875
96;1296.3372802734375
97;1296.07568359375
98;1295.81298828125
99;1295.5489501953125
100;1295.2847900390625
101;1295.0194091796875
102;1294.75146484375
103;1294.4837646484375
104;1294.21435546875
105;1293.9425048828125
106;1293.66943359375
107;1293.39501953125
108;1293.1192626953125
109;1292.84326171875
110;1292.564697265625
111;1292.28466796875
112;1292.00341796875
113;1291.7236328125
114;1291.44140625
115;1291.1578369140625
116;1290.8743896484375
117;1290.58837890625
118;1290.302490234375
119;1290.0142822265625
120;1289.7249755859375
121;1289.435546875
122;1289.1448974609375
123;1288.851806640625
124;1288.5574951171875
125;1288.2625732421875
126;1287.96533203125
127;1287.6678466796875
128;1287.3681640625
129;1287.06689453125
130;1286.7642822265625
131;1286.4615478515625
132;1286.1566162109375
133;1285.85107421875
134;1285.544189453125
135;1285.235107421875
136;1284.924560546875
137;1284.6126708984375
138;1284.299560546875
139;1283.98486328125
140;1283.6700439453125
141;1283.352783203125
142;1283.0350341796875
143;1282.716064453125
144;1282.3956298828125
145;1282.07373046875
146;1281.74951171875
147;1281.4246826171875
148;1281.09814453125
149;1280.7701416015625
150;1280.44091796875
151;1280.109375
152;1279.7779541015625
153;1279.4451904296875
154;1279.10986328125
155;1278.7744140625
156;1278.4361572265625
157;1278.0966796875
158;1277.7567138671875
159;1277.4151611328125
160;1277.072265625
161;1276.727783203125
162;1276.3809814453125
163;1276.033447265625
164;1275.6834716796875
165;1275.3330078125
166;1274.9798583984375
167;1274.6263427734375
168;1274.27001953125
169;1273.9124755859375
170;1273.55322265625
171;1273.1925048828125
172;1272.8299560546875
173;1272.4661865234375
174;1272.1005859375
175;1271.7332763671875
176;1271.3656005859375
177;1270.995849609375
178;1270.623779296875
179;1270.25
180;1269.87451171875
181;1269.4974365234375
182;1269.1192626953125
183;1268.7396240234375
184;1268.35791015625
185;1267.9749755859375
186;1267.5892333984375
187;1267.2025146484375
188;1266.814208984375
189;1266.424072265625
190;1266.0321044921875
191;1265.638671875
192;1265.2435302734375
193;1264.848876953125
194;1264.45263671875
195;1264.0546875
196;1263.6549072265625
197;1263.25732421875
198;1262.859375
199;1262.4603271484375
200;1262.0599365234375
201;1261.657470703125
202;1261.25439453125
203;1260.85009765625
204;1260.4462890625
205;1260.0421142578125
206;1259.635986328125
207;1259.2294921875
208;1258.8216552734375
209;1258.41162109375
210;1258.0013427734375
211;1257.5894775390625
212;1257.1754150390625
213;1256.7608642578125
214;1256.3441162109375
215;1255.926025390625
216;1255.50634765625
217;1255.08544921875
218;1254.6630859375
219;1254.240234375
220;1253.81591796875
221;1253.3902587890625
222;1252.9638671875
223;1252.53955078125
224;1252.114013671875
225;1251.686767578125
226;1251.2591552734375
227;1250.830322265625
228;1250.3994140625
229;1249.96923828125
230;1249.537841796875
231;1249.1046142578125
232;1248.6700439453125
233;1248.2344970703125
234;1247.7977294921875
235;1247.3599853515625
236;1246.921630859375
237;1246.4822998046875
238;1246.0418701171875
239;1245.5997314453125
240;1245.16064453125
241;1244.7215576171875
242;1244.281982421875
243;1243.841552734375
244;1243.399169921875
245;1242.9561767578125
246;1242.51220703125
247;1242.0682373046875
248;1241.6231689453125
249;1241.17724609375
250;1240.73046875
251;1240.2828369140625
252;1239.833740234375
253;1239.384033203125
254;1238.935546875
255;1238.4862060546875
256;1238.0357666015625
257;1237.584716796875
258;1237.1328125
259;1236.6800537109375
260;1236.2265625
261;1235.771240234375
262;1235.315185546875
263;1234.8587646484375
264;1234.4017333984375
265;1233.9434814453125
266;1233.484619140625
267;1233.0240478515625
268;1232.5633544921875
269;1232.119384765625
270;1231.6795654296875
271;1231.2410888671875
272;1230.802978515625
273;1230.3642578125
274;1229.9266357421875
275;1229.4884033203125
276;1229.051025390625
277;1228.6134033203125
278;1228.1767578125
279;1227.739013671875
280;1227.30224609375
281;1226.864501953125
282;1226.4278564453125
283;1225.990478515625
284;1225.552734375
285;1225.114990234375
286;1224.677734375
287;1224.241943359375
288;1223.8092041015625
289;1223.3765869140625
290;1222.9439697265625
291;1222.5111083984375
292;1222.078857421875
293;1221.6483154296875
294;1221.218505859375
295;1220.7890625
296;1220.35986328125
297;1219.930419921875
298;1219.51025390625
299;1219.0906982421875
300;1218.671875
301;1218.2542724609375
302;1217.8372802734375
303;1217.420166015625
304;1217.003662109375
305;1216.5882568359375
306;1216.1727294921875
307;1215.75830078125
308;1215.34375
309;1214.93017578125
310;1214.5166015625
311;1214.103271484375
312;1213.6905517578125
313;1213.27880859375
314;1212.867431640625
315;1212.4564208984375
316;1212.0457763671875
317;1211.6365966796875
318;1211.2274169921875
319;1210.8197021484375
320;1210.4124755859375
321;1210.006103515625
322;1209.602294921875
323;1209.19873046875
324;1208.79638671875
325;1208.397705078125
326;1208.001708984375
327;1207.6060791015625
328;1207.21142578125
329;1206.818359375
330;1206.4254150390625
331;1206.0338134765625
332;1205.643310546875
333;1205.25341796875
334;1204.8643798828125
335;1204.4779052734375
336;1204.0931396484375
337;1203.708984375
338;1203.326171875
339;1202.94482421875
340;1202.564697265625
341;1202.185302734375
342;1201.806396484375
343;1201.4288330078125
344;1201.052734375
345;1200.678955078125
346;1200.306396484375
347;1199.93505859375
348;1199.56494140625
349;1199.195068359375
350;1198.8262939453125
351;1198.4588623046875
352;1198.0926513671875
353;1197.7275390625
354;1197.36328125
355;1197.0
356;1196.636962890625
357;1196.275390625
358;1195.914794921875
359;1195.554931640625
360;1195.1956787109375
361;1194.83740234375
362;1194.4798583984375
363;1194.1231689453125
364;1193.7672119140625
365;1193.412109375
366;1193.05908203125
367;1192.70654296875
368;1192.355224609375
369;1192.005126953125
370;1191.6552734375
371;1191.3072509765625
372;1190.9595947265625
373;1190.6131591796875
374;1190.2674560546875
375;1189.9224853515625
376;1189.57861328125
377;1189.23583984375
378;1188.89404296875
379;1188.5526123046875
380;1188.2120361328125
381;1187.872314453125
382;1187.5333251953125
383;1187.1953125
384;1186.85791015625
385;1186.52197265625
386;1186.186279296875
387;1185.8519287109375
388;1185.5181884765625
389;1185.1854248046875
390;1184.853515625
391;1184.5220947265625
392;1184.19189453125
393;1183.8621826171875
394;1183.533447265625
395;1183.2056884765625
396;1182.879150390625
397;1182.5533447265625
398;1182.22802734375
399;1181.9036865234375
400;1181.580322265625
401;1181.2574462890625
402;1180.9351806640625
403;1180.61376953125
404;1180.29345703125
405;1179.9735107421875
406;1179.65478515625
407;1179.336181640625
408;1179.0186767578125
409;1178.7015380859375
410;1178.38525390625
411;1178.06982421875
412;1177.7548828125
413;1177.44091796875
414;1177.1273193359375
415;1176.8145751953125
416;1176.50244140625
417;1176.190673828125
418;1175.8797607421875
419;1175.5694580078125
420;1175.2601318359375
421;1174.9510498046875
422;1174.64306640625
423;1174.335205078125
424;1174.0281982421875
425;1173.7215576171875
426;1173.4161376953125
427;1173.111083984375
428;1172.8065185546875
429;1172.5029296875
430;1172.19970703125
431;1171.8968505859375
432;1171.5947265625
433;1171.2933349609375
434;1170.9923095703125
435;1170.69189453125
436;1170.3922119140625
437;1170.09326171875
438;1169.79443359375
439;1169.4967041015625
440;1169.199462890625
441;1168.9033203125
442;1168.60791015625
443;1168.31298828125
444;1168.0186767578125
445;1167.72509765625
446;1167.43212890625
447;1167.139892578125
448;1166.84814453125
449;1166.556884765625
450;1166.2662353515625
451;1165.9759521484375
452;1165.686279296875
453;1165.3970947265625
454;1165.1087646484375
455;1164.820556640625
456;1164.5330810546875
457;1164.24609375
458;1163.95947265625
459;1163.67333984375
460;1163.387939453125
461;1163.10302734375
462;1162.8184814453125
463;1162.534423828125
464;1162.2509765625
465;1161.968017578125
466;1161.685302734375
467;1161.4029541015625
468;1161.121337890625
469;1160.84033203125
470;1160.5596923828125
471;1160.280029296875
472;1160.00048828125
473;1159.7215576171875
474;1159.4432373046875
475;1159.16552734375
476;1158.8878173828125
477;1158.6109619140625
478;1158.334716796875
479;1158.0587158203125
480;1157.782958984375
481;1157.5078125
482;1157.233154296875
483;1156.9588623046875
484;1156.684814453125
485;1156.412353515625
486;1156.140380859375
487;1155.8687744140625
488;1155.597900390625
489;1155.3275146484375
490;1155.0572509765625
491;1154.78759765625
492;1154.5181884765625
493;1154.2493896484375
494;1153.9810791015625
495;1153.7130126953125
496;1153.4454345703125
497;1153.17822265625
498;1152.9117431640625
499;1152.6455078125
500;1152.3795166015625
501;1152.1138916015625
502;1151.84912109375
503;1151.5845947265625
504;1151.3204345703125
505;1151.056396484375
506;1150.7930908203125
507;1150.5299072265625
508;1150.2672119140625
509;1150.0047607421875
510;1149.742919921875
511;1149.481201171875
512;1149.22021484375
513;1148.9591064453125
514;1148.69873046875
515;1148.4384765625
516;1148.178466796875
517;1147.9188232421875
518;1147.6595458984375
519;1147.4002685546875
520;1147.1414794921875
521;1146.8829345703125
522;1146.6248779296875
523;1146.3671875
524;1146.10986328125
525;1145.8526611328125
526;1145.5958251953125
527;1145.33935546875
528;1145.0831298828125
529;1144.8272705078125
530;1144.571533203125
531;1144.3160400390625
532;1144.06103515625
533;1143.805908203125
534;1143.55126953125
535;1143.296875
536;1143.042724609375
537;1142.7889404296875
538;1142.5355224609375
539;1142.2821044921875
540;1142.0291748046875
541;1141.776611328125
542;1141.5240478515625
543;1141.27197265625
544;1141.0201416015625
545;1140.7686767578125
546;1140.5172119140625
547;1140.2662353515625
548;1140.0152587890625
549;1139.764892578125
550;1139.5145263671875
551;1139.264404296875
552;1139.0145263671875
553;1138.76513671875
554;1138.5159912109375
555;1138.26708984375
556;1138.01806640625
557;1137.7696533203125
558;1137.521484375
559;1137.273681640625
560;1137.0257568359375
561;1136.7784423828125
562;1136.53125
563;1136.2841796875
564;1136.0374755859375
565;1135.791015625
566;1135.5447998046875
567;1135.2989501953125
568;1135.053466796875
569;1134.8084716796875
570;1134.5635986328125
571;1134.3187255859375
572;1134.07421875
573;1133.830078125
574;1133.5859375
575;1133.342041015625
576;1133.0985107421875
577;1132.855224609375
578;1132.612060546875
579;1132.3690185546875
580;1132.12646484375
581;1131.8837890625
582;1131.6414794921875
583;1131.3995361328125
584;1131.15771484375
585;1130.916015625
586;1130.6744384765625
587;1130.4332275390625
588;1130.1922607421875
589;1129.951416015625
590;1129.71044921875
591;1129.47021484375
592;1129.2301025390625
593;1128.989990234375
594;1128.750244140625
595;1128.5106201171875
596;1128.271484375
597;1128.0325927734375
598;1127.793701171875
599;1127.55517578125
600;1127.31689453125
601;1127.0787353515625
602;1126.8408203125
603;1126.60302734375
604;1126.365478515625
605;1126.128173828125
606;1125.89111328125
607;1125.654052734375
608;1125.417236328125
609;1125.1805419921875
610;1124.9442138671875
611;1124.7078857421875
612;1124.471923828125
613;1124.236083984375
614;1124.000244140625
615;1123.7646484375
616;1123.529296875
617;1123.294189453125
618;1123.05908203125
619;1122.823974609375
620;1122.58935546875
621;1122.35498046875
622;1122.12060546875
623;1121.886474609375
624;1121.6524658203125
625;1121.41845703125
626;1121.1849365234375
627;1120.95166015625
628;1120.71826171875
629;1120.4849853515625
630;1120.2520751953125
631;1120.0194091796875
632;1119.78662109375
633;1119.55419921875
634;1119.32177734375
635;1119.0894775390625
636;1118.8575439453125
637;1118.6256103515625
638;1118.3939208984375
639;1118.162353515625
640;1117.93115234375
641;1117.6998291015625
642;1117.468994140625
643;1117.2381591796875
644;1117.0074462890625
645;1116.7769775390625
646;1116.5467529296875
647;1116.31640625
648;1116.08642578125
649;1115.8565673828125
650;1115.626953125
651;1115.397216796875
652;1115.1678466796875
653;1114.9384765625
654;1114.70947265625
655;1114.48046875
656;1114.25146484375
657;1114.0228271484375
658;1113.7943115234375
659;1113.5660400390625
660;1113.3377685546875
661;1113.1097412109375
662;1112.8814697265625
663;1112.6536865234375
664;1112.4259033203125
665;1112.1982421875
666;1111.970947265625
667;1111.74365234375
668;1111.5164794921875
669;1111.28955078125
670;1111.0626220703125
671;1110.8358154296875
672;1110.609130859375
673;1110.3826904296875
674;1110.156494140625
675;1109.9305419921875
676;1109.7044677734375
677;1109.4786376953125
678;1109.2530517578125
679;1109.0274658203125
680;1108.8021240234375
681;1108.576904296875
682;1108.3519287109375
683;1108.1268310546875
684;1107.9022216796875
685;1107.677490234375
686;1107.452880859375
687;1107.228515625
688;1107.004150390625
689;1106.7799072265625
690;1106.55615234375
691;1106.332275390625
692;1106.1085205078125
693;1105.885009765625
694;1105.661376953125
695;1105.43798828125
696;1105.21484375
697;1104.9915771484375
698;1104.7685546875
699;1104.5457763671875
700;1104.322998046875
701;1104.100341796875
702;1103.8778076171875
703;1103.655517578125
704;1103.43310546875
705;1103.2110595703125
706;1102.98876953125
707;1102.76708984375
708;1102.5452880859375
709;1102.32373046875
710;1102.10205078125
711;1101.880615234375
712;1101.6593017578125
713;1101.4381103515625
714;1101.21728515625
715;1100.996337890625
716;1100.775390625
717;1100.5546875
718;1100.3341064453125
719;1100.11376953125
720;1099.8931884765625
721;1099.673095703125
722;1099.452880859375
723;1099.23291015625
724;1099.0130615234375
725;1098.793212890625
726;1098.5733642578125
727;1098.3538818359375
728;1098.1343994140625
729;1097.9151611328125
730;1097.69580078125
731;1097.4765625
732;1097.257568359375
733;1097.0386962890625
734;1096.820068359375
735;1096.601318359375
736;1096.383056640625
737;1096.1646728515625
738;1095.9464111328125
739;1095.728271484375
740;1095.5103759765625
741;1095.29248046875
742;1095.07470703125
743;1094.857177734375
744;1094.6397705078125
745;1094.42236328125
746;1094.2054443359375
747;1093.98828125
748;1093.7711181640625
749;1093.55419921875
750;1093.3375244140625
751;1093.120849609375
752;1092.9044189453125
753;1092.68798828125
754;1092.4718017578125
755;1092.25537109375
756;1092.0391845703125
757;1091.8233642578125
758;1091.6072998046875
759;1091.3916015625
760;1091.176025390625
761;1090.9603271484375
762;1090.744873046875
763;1090.529541015625
764;1090.314208984375
765;1090.09912109375
766;1089.884033203125
767;1089.6690673828125
768;1089.4541015625
769;1089.2392578125
770;1089.0245361328125
771;1088.8099365234375
772;1088.595458984375
773;1088.3809814453125
774;1088.1666259765625
775;1087.9525146484375
776;1087.73828125
777;1087.524169921875
778;1087.31005859375
779;1087.0963134765625
780;1086.8824462890625
781;1086.6688232421875
782;1086.455322265625
783;1086.24169921875
784;1086.0281982421875
785;1085.81494140625
786;1085.6016845703125
787;1085.3883056640625
788;1085.17529296875
789;1084.9622802734375
790;1084.7491455078125
791;1084.5362548828125
792;1084.3236083984375
793;1084.1107177734375
794;1083.898193359375
795;1083.6856689453125
796;1083.4732666015625
797;1083.26123046875
798;1083.0491943359375
799;1082.83740234375
800;1082.6256103515625
801;1082.4139404296875
802;1082.202392578125
803;1081.9908447265625
804;1081.7796630859375
805;1081.568359375
806;1081.3570556640625
807;1081.1458740234375
808;1080.934814453125
809;1080.723876953125
810;1080.5130615234375
811;1080.30224609375
812;1080.091552734375
813;1079.880859375
814;1079.67041015625
815;1079.4598388671875
816;1079.2496337890625
817;1079.0394287109375
818;1078.8291015625
819;1078.618896484375
820;1078.4090576171875
821;1078.1990966796875
822;1077.989013671875
823;1077.779296875
824;1077.5694580078125
825;1077.35986328125
826;1077.1502685546875
827;1076.94091796875
828;1076.7314453125
829;1076.5220947265625
830;1076.31298828125
831;1076.103759765625
832;1075.89453125
833;1075.6856689453125
834;1075.4769287109375
835;1075.26806640625
836;1075.0592041015625
837;1074.8507080078125
838;1074.64208984375
839;1074.43359375
840;1074.22509765625
841;1074.0167236328125
842;1073.80859375
843;1073.6002197265625
844;1073.39208984375
845;1073.18408203125
846;1072.97607421875
847;1072.768310546875
848;1072.5604248046875
849;1072.3529052734375
850;1072.14501953125
851;1071.9375
852;1071.72998046875
853;1071.5225830078125
854;1071.3150634765625
855;1071.10791015625
856;1070.9007568359375
857;1070.693603515625
858;1070.4864501953125
859;1070.2794189453125
860;1070.072509765625
861;1069.865478515625
862;1069.6588134765625
863;1069.4520263671875
864;1069.2452392578125
865;1069.038818359375
866;1068.8321533203125
867;1068.6256103515625
868;1068.4193115234375
869;1068.212890625
870;1068.0067138671875
871;1067.800537109375
872;1067.5946044921875
873;1067.3883056640625
874;1067.182373046875
875;1066.9765625
876;1066.7708740234375
877;1066.5650634765625
878;1066.359375
879;1066.15380859375
880;1065.9483642578125
881;1065.742919921875
882;1065.5374755859375
883;1065.33203125
884;1065.126708984375
885;1064.9215087890625
886;1064.716552734375
887;1064.5113525390625
888;1064.306396484375
889;1064.1015625
890;1063.896728515625
891;1063.69189453125
892;1063.487060546875
893;1063.282470703125
894;1063.077880859375
895;1062.8734130859375
896;1062.6690673828125
897;1062.464599609375
898;1062.2603759765625
899;1062.0560302734375
900;1061.851806640625
901;1061.6478271484375
902;1061.443603515625
903;1061.23974609375
904;1061.035888671875
905;1060.8321533203125
906;1060.62841796875
907;1060.424560546875
908;1060.2210693359375
909;1060.017578125
910;1059.8140869140625
911;1059.6107177734375
912;1059.407470703125
913;1059.2041015625
914;1059.0009765625
915;1058.797607421875
916;1058.5946044921875
917;1058.3914794921875
918;1058.1885986328125
919;1057.9857177734375
920;1057.782958984375
921;1057.580078125
922;1057.3773193359375
923;1057.1746826171875
924;1056.97216796875
925;1056.76953125
926;1056.567138671875
927;1056.36474609375
928;1056.162353515625
929;1055.9600830078125
930;1055.7576904296875
931;1055.5556640625
932;1055.353515625
933;1055.1513671875
934;1054.9495849609375
935;1054.74755859375
936;1054.5457763671875
937;1054.3441162109375
938;1054.1422119140625
939;1053.940673828125
940;1053.739013671875
941;1053.53759765625
942;1053.336181640625
943;1053.134765625
944;1052.9332275390625
945;1052.7320556640625
946;1052.53076171875
947;1052.32958984375
948;1052.12841796875
949;1051.927490234375
950;1051.7265625
951;1051.525634765625
952;1051.32470703125
953;1051.1239013671875
954;1050.923095703125
955;1050.7222900390625
956;1050.521728515625
957;1050.3211669921875
958;1050.12060546875
959;1049.9200439453125
960;1049.7196044921875
961;1049.519287109375
962;1049.3189697265625
963;1049.11865234375
964;1048.91845703125
965;1048.71826171875
966;1048.5181884765625
967;1048.3182373046875
968;1048.1181640625
969;1047.9183349609375
970;1047.7183837890625
971;1047.5186767578125
972;1047.31884765625
973;1047.1192626953125
974;1046.91943359375
975;1046.7200927734375
976;1046.5205078125
977;1046.321044921875
978;1046.121826171875
979;1045.92236328125
980;1045.7230224609375
981;1045.523681640625
982;1045.324462890625
983;1045.125244140625
984;1044.92626953125
985;1044.7271728515625
986;1044.5281982421875
987;1044.3292236328125
988;1044.13037109375
989;1043.9315185546875
990;1043.732666015625
991;1043.5341796875
992;1043.33544921875
993;1043.1368408203125
994;1042.938232421875
995;1042.73974609375
996;1042.541259765625
997;1042.3427734375
998;1042.14453125
999;1041.9461669921875
