;loss
0;1409.1778564453125
1;1408.8980712890625
2;1408.5218505859375
3;1408.145751953125
4;1407.769775390625
5;1407.3936767578125
6;1407.0291748046875
7;1406.6612548828125
8;1406.28564453125
9;1405.909912109375
10;1405.5345458984375
11;1405.1590576171875
12;1404.7835693359375
13;1404.408447265625
14;1404.0333251953125
15;1403.6583251953125
16;1403.2833251953125
17;1402.905517578125
18;1402.53076171875
19;1402.1561279296875
20;1401.777587890625
21;1401.4034423828125
22;1401.02490234375
23;1400.6507568359375
24;1400.2723388671875
25;1399.89404296875
26;1399.5201416015625
27;1399.1419677734375
28;1398.763916015625
29;1398.38623046875
30;1398.00830078125
31;1397.6304931640625
32;1397.25732421875
33;1396.8841552734375
34;1396.5111083984375
35;1396.1383056640625
36;1395.76123046875
37;1395.38427734375
38;1395.0115966796875
39;1394.6348876953125
40;1394.2581787109375
41;1393.8819580078125
42;1393.5054931640625
43;1393.1331787109375
44;1392.757080078125
45;1392.3848876953125
46;1392.009033203125
47;1391.6331787109375
48;1391.257568359375
49;1390.8853759765625
50;1390.5133056640625
51;1390.1409912109375
52;1389.76904296875
53;1389.3968505859375
54;1389.0213623046875
55;1388.649169921875
56;1388.277099609375
57;1387.9046630859375
58;1387.5325927734375
59;1387.16015625
60;1386.787841796875
61;1386.41552734375
62;1386.0404052734375
63;1385.667724609375
64;1385.2923583984375
65;1384.9168701171875
66;1384.5440673828125
67;1384.171142578125
68;1383.7955322265625
69;1383.4197998046875
70;1383.043701171875
71;1382.66796875
72;1382.2918701171875
73;1381.918212890625
74;1381.5443115234375
75;1381.167724609375
76;1380.7911376953125
77;1380.4141845703125
78;1380.039306640625
79;1379.664306640625
80;1379.2867431640625
81;1378.908935546875
82;1378.5330810546875
83;1378.1568603515625
84;1377.780517578125
85;1377.401611328125
86;1377.0245361328125
87;1376.644775390625
88;1376.2650146484375
89;1375.8865966796875
90;1375.5059814453125
91;1375.1270751953125
92;1374.74560546875
93;1374.36376953125
94;1373.9832763671875
95;1373.600830078125
96;1373.219482421875
97;1372.8359375
98;1372.4537353515625
99;1372.0692138671875
100;1371.68408203125
101;1371.2984619140625
102;1370.912353515625
103;1370.525634765625
104;1370.14013671875
105;1369.7540283203125
106;1369.3656005859375
107;1368.978515625
108;1368.589111328125
109;1368.2005615234375
110;1367.8114013671875
111;1367.421630859375
112;1367.03125
113;1366.64013671875
114;1366.248291015625
115;1365.855712890625
116;1365.4625244140625
117;1365.068603515625
118;1364.6737060546875
119;1364.2784423828125
120;1363.8828125
121;1363.4864501953125
122;1363.08935546875
123;1362.6898193359375
124;1362.28955078125
125;1361.8900146484375
126;1361.488037109375
127;1361.0870361328125
128;1360.68310546875
129;1360.278564453125
130;1359.873046875
131;1359.4666748046875
132;1359.05908203125
133;1358.652099609375
134;1358.2440185546875
135;1357.8348388671875
136;1357.4246826171875
137;1357.0120849609375
138;1356.598388671875
139;1356.18359375
140;1355.767578125
141;1355.35205078125
142;1354.9337158203125
143;1354.515625
144;1354.096435546875
145;1353.6746826171875
146;1353.2515869140625
147;1352.827392578125
148;1352.401611328125
149;1351.9747314453125
150;1351.546630859375
151;1351.1170654296875
152;1350.6875
153;1350.2564697265625
154;1349.82421875
155;1349.390380859375
156;1348.9559326171875
157;1348.5247802734375
158;1348.09375
159;1347.6605224609375
160;1347.227294921875
161;1346.793212890625
162;1346.3577880859375
163;1345.9197998046875
164;1345.480712890625
165;1345.04150390625
166;1344.6009521484375
167;1344.1588134765625
168;1343.71533203125
169;1343.2708740234375
170;1342.827880859375
171;1342.3836669921875
172;1341.938232421875
173;1341.491455078125
174;1341.043212890625
175;1340.593505859375
176;1340.1424560546875
177;1339.6888427734375
178;1339.23486328125
179;1338.7791748046875
180;1338.32080078125
181;1337.8609619140625
182;1337.4002685546875
183;1336.937255859375
184;1336.473388671875
185;1336.0067138671875
186;1335.53955078125
187;1335.069580078125
188;1334.59765625
189;1334.125244140625
190;1333.65087890625
191;1333.1737060546875
192;1332.694580078125
193;1332.21484375
194;1331.7320556640625
195;1331.2484130859375
196;1330.76318359375
197;1330.2747802734375
198;1329.7843017578125
199;1329.29296875
200;1328.7987060546875
201;1328.3023681640625
202;1327.80419921875
203;1327.3038330078125
204;1326.8013916015625
205;1326.2982177734375
206;1325.792724609375
207;1325.2852783203125
208;1324.775634765625
209;1324.2640380859375
210;1323.7503662109375
211;1323.2344970703125
212;1322.7164306640625
213;1322.1968994140625
214;1321.675048828125
215;1321.150146484375
216;1320.6239013671875
217;1320.0958251953125
218;1319.56591796875
219;1319.0330810546875
220;1318.4989013671875
221;1317.9617919921875
222;1317.4234619140625
223;1316.8829345703125
224;1316.340087890625
225;1315.794921875
226;1315.246337890625
227;1314.695556640625
228;1314.1424560546875
229;1313.5870361328125
230;1313.029052734375
231;1312.4698486328125
232;1311.9083251953125
233;1311.343994140625
234;1310.7774658203125
235;1310.20849609375
236;1309.636962890625
237;1309.0618896484375
238;1308.4842529296875
239;1307.904052734375
240;1307.321044921875
241;1306.73583984375
242;1306.14892578125
243;1305.5596923828125
244;1304.9674072265625
245;1304.3726806640625
246;1303.775390625
247;1303.17431640625
248;1302.5721435546875
249;1301.9674072265625
250;1301.359130859375
251;1300.748046875
252;1300.1353759765625
253;1299.52001953125
254;1298.9019775390625
255;1298.28125
256;1297.656494140625
257;1297.0303955078125
258;1296.4010009765625
259;1295.7681884765625
260;1295.13232421875
261;1294.4947509765625
262;1293.8533935546875
263;1293.2091064453125
264;1292.563232421875
265;1291.9144287109375
266;1291.2628173828125
267;1290.6070556640625
268;1289.9486083984375
269;1289.288330078125
270;1288.623779296875
271;1287.957763671875
272;1287.28857421875
273;1286.6156005859375
274;1285.94091796875
275;1285.2620849609375
276;1284.5802001953125
277;1283.8956298828125
278;1283.2076416015625
279;1282.5179443359375
280;1281.824462890625
281;1281.128662109375
282;1280.43017578125
283;1279.73291015625
284;1279.0321044921875
285;1278.328857421875
286;1277.6229248046875
287;1276.914306640625
288;1276.2030029296875
289;1275.5299072265625
290;1274.8665771484375
291;1274.205322265625
292;1273.5443115234375
293;1272.8851318359375
294;1272.227294921875
295;1271.5994873046875
296;1270.97509765625
297;1270.3543701171875
298;1269.736572265625
299;1269.125244140625
300;1268.5172119140625
301;1267.910400390625
302;1267.308837890625
303;1266.709228515625
304;1266.1104736328125
305;1265.5137939453125
306;1264.917724609375
307;1264.3226318359375
308;1263.7288818359375
309;1263.1363525390625
310;1262.5506591796875
311;1261.969482421875
312;1261.3890380859375
313;1260.8104248046875
314;1260.2320556640625
315;1259.6546630859375
316;1259.07861328125
317;1258.509521484375
318;1257.9432373046875
319;1257.38232421875
320;1256.8228759765625
321;1256.26513671875
322;1255.7086181640625
323;1255.153564453125
324;1254.60009765625
325;1254.04736328125
326;1253.49560546875
327;1252.9449462890625
328;1252.3958740234375
329;1251.846923828125
330;1251.2994384765625
331;1250.7530517578125
332;1250.20654296875
333;1249.661376953125
334;1249.1160888671875
335;1248.5721435546875
336;1248.0281982421875
337;1247.485595703125
338;1246.9434814453125
339;1246.4012451171875
340;1245.8597412109375
341;1245.3194580078125
342;1244.779541015625
343;1244.2403564453125
344;1243.70166015625
345;1243.162841796875
346;1242.6253662109375
347;1242.0877685546875
348;1241.5528564453125
349;1241.023681640625
350;1240.495849609375
351;1239.9691162109375
352;1239.4453125
353;1238.9261474609375
354;1238.40869140625
355;1237.8924560546875
356;1237.376953125
357;1236.863037109375
358;1236.349853515625
359;1235.8377685546875
360;1235.3275146484375
361;1234.817626953125
362;1234.30908203125
363;1233.801025390625
364;1233.2940673828125
365;1232.7877197265625
366;1232.282470703125
367;1231.7784423828125
368;1231.2747802734375
369;1230.77197265625
370;1230.2706298828125
371;1229.7694091796875
372;1229.2691650390625
373;1228.770263671875
374;1228.2720947265625
375;1227.774169921875
376;1227.277099609375
377;1226.78125
378;1226.28564453125
379;1225.7930908203125
380;1225.303466796875
381;1224.81494140625
382;1224.32763671875
383;1223.8414306640625
384;1223.356201171875
385;1222.871826171875
386;1222.3885498046875
387;1221.9068603515625
388;1221.426025390625
389;1220.9490966796875
390;1220.4854736328125
391;1220.0250244140625
392;1219.56640625
393;1219.109375
394;1218.654052734375
395;1218.200927734375
396;1217.7486572265625
397;1217.2982177734375
398;1216.848876953125
399;1216.401611328125
400;1215.9581298828125
401;1215.5155029296875
402;1215.07470703125
403;1214.6348876953125
404;1214.196044921875
405;1213.7586669921875
406;1213.32275390625
407;1212.8878173828125
408;1212.45361328125
409;1212.0211181640625
410;1211.589111328125
411;1211.1585693359375
412;1210.728515625
413;1210.29931640625
414;1209.871337890625
415;1209.444091796875
416;1209.0179443359375
417;1208.593017578125
418;1208.16845703125
419;1207.745361328125
420;1207.3231201171875
421;1206.9014892578125
422;1206.48046875
423;1206.0609130859375
424;1205.6424560546875
425;1205.2249755859375
426;1204.8082275390625
427;1204.392822265625
428;1203.97802734375
429;1203.5643310546875
430;1203.151123046875
431;1202.73876953125
432;1202.3277587890625
433;1201.917236328125
434;1201.5074462890625
435;1201.098388671875
436;1200.6903076171875
437;1200.2835693359375
438;1199.8770751953125
439;1199.4715576171875
440;1199.06689453125
441;1198.663330078125
442;1198.260498046875
443;1197.85888671875
444;1197.457763671875
445;1197.05712890625
446;1196.657470703125
447;1196.258544921875
448;1195.8604736328125
449;1195.468017578125
450;1195.0765380859375
451;1194.6861572265625
452;1194.2969970703125
453;1193.90869140625
454;1193.522216796875
455;1193.1392822265625
456;1192.7576904296875
457;1192.37744140625
458;1191.9984130859375
459;1191.620361328125
460;1191.242919921875
461;1190.86669921875
462;1190.49169921875
463;1190.1171875
464;1189.7440185546875
465;1189.3717041015625
466;1189.00048828125
467;1188.629638671875
468;1188.2601318359375
469;1187.89111328125
470;1187.52294921875
471;1187.15576171875
472;1186.789794921875
473;1186.4244384765625
474;1186.0601806640625
475;1185.6964111328125
476;1185.3338623046875
477;1184.971923828125
478;1184.6107177734375
479;1184.25048828125
480;1183.8909912109375
481;1183.5323486328125
482;1183.1744384765625
483;1182.8179931640625
484;1182.4625244140625
485;1182.1080322265625
486;1181.7542724609375
487;1181.401611328125
488;1181.0496826171875
489;1180.69873046875
490;1180.3482666015625
491;1179.998779296875
492;1179.6497802734375
493;1179.301513671875
494;1178.9539794921875
495;1178.607666015625
496;1178.2615966796875
497;1177.91650390625
498;1177.572265625
499;1177.2286376953125
