;loss
0;1351.0067138671875
1;1350.5521240234375
2;1350.1624755859375
3;1349.7501220703125
4;1349.3253173828125
5;1348.873291015625
6;1348.422119140625
7;1347.9715576171875
8;1347.5218505859375
9;1347.07275390625
10;1346.626708984375
11;1346.17919921875
12;1345.732666015625
13;1345.2852783203125
14;1344.837890625
15;1344.3936767578125
16;1343.9501953125
17;1343.507568359375
18;1343.065673828125
19;1342.6204833984375
20;1342.17529296875
21;1341.7310791015625
22;1341.28759765625
23;1340.8447265625
24;1340.4075927734375
25;1339.9659423828125
26;1339.5252685546875
27;1339.0904541015625
28;1338.6512451171875
29;1338.2130126953125
30;1337.7803955078125
31;1337.348388671875
32;1336.912109375
33;1336.4766845703125
34;1336.0416259765625
35;1335.6121826171875
36;1335.1842041015625
37;1334.75244140625
38;1334.3212890625
39;1333.8907470703125
40;1333.4610595703125
41;1333.036376953125
42;1332.607666015625
43;1332.183837890625
44;1331.7606201171875
45;1331.3377685546875
46;1330.9154052734375
47;1330.49365234375
48;1330.072265625
49;1329.6474609375
50;1329.2269287109375
51;1328.8028564453125
52;1328.37939453125
53;1327.9559326171875
54;1327.533203125
55;1327.1141357421875
56;1326.6953125
57;1326.273193359375
58;1325.851318359375
59;1325.4296875
60;1325.00830078125
61;1324.5869140625
62;1324.1656494140625
63;1323.74755859375
64;1323.32958984375
65;1322.911376953125
66;1322.4927978515625
67;1322.074462890625
68;1321.6558837890625
69;1321.2379150390625
70;1320.8199462890625
71;1320.4014892578125
72;1319.98291015625
73;1319.5638427734375
74;1319.142333984375
75;1318.7236328125
76;1318.3016357421875
77;1317.8819580078125
78;1317.46142578125
79;1317.039794921875
80;1316.6148681640625
81;1316.1890869140625
82;1315.76513671875
83;1315.3402099609375
84;1314.9117431640625
85;1314.482421875
86;1314.0521240234375
87;1313.62353515625
88;1313.19189453125
89;1312.7589111328125
90;1312.324951171875
91;1311.8896484375
92;1311.45556640625
93;1311.0203857421875
94;1310.5838623046875
95;1310.1458740234375
96;1309.7061767578125
97;1309.26513671875
98;1308.8223876953125
99;1308.3759765625
100;1307.9276123046875
101;1307.4794921875
102;1307.02978515625
103;1306.5777587890625
104;1306.1239013671875
105;1305.667724609375
106;1305.20947265625
107;1304.7491455078125
108;1304.286376953125
109;1303.8194580078125
110;1303.3502197265625
111;1302.881103515625
112;1302.409423828125
113;1301.93310546875
114;1301.456787109375
115;1300.9764404296875
116;1300.4957275390625
117;1300.0103759765625
118;1299.5224609375
119;1299.0316162109375
120;1298.54052734375
121;1298.044921875
122;1297.5462646484375
123;1297.0450439453125
124;1296.54052734375
125;1296.03515625
126;1295.52734375
127;1295.0172119140625
128;1294.50439453125
129;1293.988525390625
130;1293.4698486328125
131;1292.9466552734375
132;1292.4219970703125
133;1291.89208984375
134;1291.3612060546875
135;1290.8270263671875
136;1290.288330078125
137;1289.74658203125
138;1289.20166015625
139;1288.6536865234375
140;1288.10400390625
141;1287.5513916015625
142;1286.99755859375
143;1286.4385986328125
144;1285.878173828125
145;1285.3143310546875
146;1284.747314453125
147;1284.175048828125
148;1283.5994873046875
149;1283.0213623046875
150;1282.44189453125
151;1281.861083984375
152;1281.2777099609375
153;1280.6942138671875
154;1280.1087646484375
155;1279.5205078125
156;1278.93017578125
157;1278.34033203125
158;1277.7481689453125
159;1277.15185546875
160;1276.554443359375
161;1275.9527587890625
162;1275.348876953125
163;1274.74267578125
164;1274.1341552734375
165;1273.52685546875
166;1272.9188232421875
167;1272.3104248046875
168;1271.7000732421875
169;1271.086181640625
170;1270.47021484375
171;1269.8541259765625
172;1269.2362060546875
173;1268.61474609375
174;1267.9947509765625
175;1267.373291015625
176;1266.751220703125
177;1266.12890625
178;1265.5054931640625
179;1264.8795166015625
180;1264.2569580078125
181;1263.6331787109375
182;1263.0091552734375
183;1262.3841552734375
184;1261.7576904296875
185;1261.1318359375
186;1260.5064697265625
187;1259.8785400390625
188;1259.249755859375
189;1258.6219482421875
190;1257.99365234375
191;1257.3646240234375
192;1256.73583984375
193;1256.10595703125
194;1255.47607421875
195;1254.8470458984375
196;1254.218505859375
197;1253.5914306640625
198;1252.9652099609375
199;1252.338134765625
200;1251.7122802734375
201;1251.0849609375
202;1250.458984375
203;1249.8316650390625
204;1249.20556640625
205;1248.579833984375
206;1247.95556640625
207;1247.3314208984375
208;1246.71142578125
209;1246.092041015625
210;1245.4735107421875
211;1244.8564453125
212;1244.2396240234375
213;1243.6231689453125
214;1243.00732421875
215;1242.3914794921875
216;1241.774658203125
217;1241.16015625
218;1240.5477294921875
219;1239.9344482421875
220;1239.32275390625
221;1238.7103271484375
222;1238.0986328125
223;1237.4896240234375
224;1236.8818359375
225;1236.2760009765625
226;1235.6727294921875
227;1235.06884765625
228;1234.467041015625
229;1233.8731689453125
230;1233.28466796875
231;1232.69775390625
232;1232.11572265625
233;1231.5408935546875
234;1230.9678955078125
235;1230.397705078125
236;1229.82861328125
237;1229.260986328125
238;1228.6953125
239;1228.1353759765625
240;1227.58154296875
241;1227.0294189453125
242;1226.4798583984375
243;1225.930908203125
244;1225.38427734375
245;1224.8387451171875
246;1224.2957763671875
247;1223.7542724609375
248;1223.2139892578125
249;1222.6761474609375
250;1222.139892578125
251;1221.6051025390625
252;1221.072998046875
253;1220.54150390625
254;1220.0113525390625
255;1219.4842529296875
256;1218.959228515625
257;1218.438232421875
258;1217.9244384765625
259;1217.4132080078125
260;1216.90380859375
261;1216.3978271484375
262;1215.8939208984375
263;1215.3914794921875
264;1214.890380859375
265;1214.39111328125
266;1213.89404296875
267;1213.3978271484375
268;1212.904296875
269;1212.4122314453125
270;1211.9212646484375
271;1211.432373046875
272;1210.945068359375
273;1210.4620361328125
274;1209.98095703125
275;1209.5015869140625
276;1209.024169921875
277;1208.5504150390625
278;1208.0794677734375
279;1207.6123046875
280;1207.14697265625
281;1206.6851806640625
282;1206.22607421875
283;1205.768798828125
284;1205.313232421875
285;1204.859619140625
286;1204.40771484375
287;1203.9578857421875
288;1203.50927734375
289;1203.062255859375
290;1202.61669921875
291;1202.173828125
292;1201.73193359375
293;1201.29150390625
294;1200.8529052734375
295;1200.416259765625
296;1199.9810791015625
297;1199.5472412109375
298;1199.114501953125
299;1198.6829833984375
300;1198.253662109375
301;1197.8262939453125
302;1197.40087890625
303;1196.9765625
304;1196.5570068359375
305;1196.14013671875
306;1195.7252197265625
307;1195.31201171875
308;1194.89990234375
309;1194.48974609375
310;1194.08203125
311;1193.6759033203125
312;1193.2716064453125
313;1192.869140625
314;1192.46728515625
315;1192.06689453125
316;1191.6678466796875
317;1191.2706298828125
318;1190.874755859375
319;1190.47998046875
320;1190.08642578125
321;1189.6937255859375
322;1189.3026123046875
323;1188.912353515625
324;1188.52294921875
325;1188.13525390625
326;1187.7486572265625
327;1187.363525390625
328;1186.9803466796875
329;1186.5982666015625
330;1186.2174072265625
331;1185.83837890625
332;1185.45947265625
333;1185.08203125
334;1184.7059326171875
335;1184.3306884765625
336;1183.957275390625
337;1183.58447265625
338;1183.212890625
339;1182.8421630859375
340;1182.472412109375
341;1182.10400390625
342;1181.7369384765625
343;1181.3719482421875
344;1181.0087890625
345;1180.6468505859375
346;1180.28564453125
347;1179.9254150390625
348;1179.5662841796875
349;1179.20849609375
350;1178.851318359375
351;1178.4949951171875
352;1178.1397705078125
353;1177.7852783203125
354;1177.4320068359375
355;1177.080078125
356;1176.7286376953125
357;1176.378173828125
358;1176.0284423828125
359;1175.68017578125
360;1175.3323974609375
361;1174.98583984375
362;1174.64013671875
363;1174.294921875
364;1173.9505615234375
365;1173.607421875
366;1173.2655029296875
367;1172.925537109375
368;1172.58837890625
369;1172.2523193359375
370;1171.91748046875
371;1171.5836181640625
372;1171.2506103515625
373;1170.9185791015625
374;1170.58740234375
375;1170.2568359375
376;1169.92822265625
377;1169.6009521484375
378;1169.2745361328125
379;1168.94873046875
380;1168.6241455078125
381;1168.30029296875
382;1167.977294921875
383;1167.6556396484375
384;1167.3349609375
385;1167.014892578125
386;1166.695068359375
387;1166.37646484375
388;1166.05859375
389;1165.741455078125
390;1165.424560546875
391;1165.1087646484375
392;1164.7933349609375
393;1164.4786376953125
394;1164.1646728515625
395;1163.8514404296875
396;1163.5390625
397;1163.2274169921875
398;1162.916015625
399;1162.605712890625
400;1162.2960205078125
401;1161.987060546875
402;1161.6790771484375
403;1161.371826171875
404;1161.06494140625
405;1160.759033203125
406;1160.453369140625
407;1160.1485595703125
408;1159.8446044921875
409;1159.5413818359375
410;1159.238525390625
411;1158.9365234375
412;1158.635009765625
413;1158.333740234375
414;1158.0333251953125
415;1157.7332763671875
416;1157.4337158203125
417;1157.134765625
418;1156.8365478515625
419;1156.53955078125
420;1156.2432861328125
421;1155.947509765625
422;1155.6524658203125
423;1155.35791015625
424;1155.06396484375
425;1154.7703857421875
426;1154.477294921875
427;1154.18505859375
428;1153.89306640625
429;1153.6014404296875
430;1153.3104248046875
431;1153.020263671875
432;1152.730712890625
433;1152.4412841796875
434;1152.1522216796875
435;1151.86376953125
436;1151.57568359375
437;1151.2884521484375
438;1151.00146484375
439;1150.715087890625
440;1150.428955078125
441;1150.1436767578125
442;1149.858642578125
443;1149.573974609375
444;1149.2896728515625
445;1149.0057373046875
446;1148.7225341796875
447;1148.439697265625
448;1148.1571044921875
449;1147.8748779296875
450;1147.5931396484375
451;1147.3115234375
452;1147.0303955078125
453;1146.75
454;1146.4698486328125
455;1146.1900634765625
456;1145.91064453125
457;1145.631591796875
458;1145.3526611328125
459;1145.0743408203125
460;1144.7965087890625
461;1144.518798828125
462;1144.2413330078125
463;1143.9642333984375
464;1143.6875
465;1143.4111328125
466;1143.1351318359375
467;1142.8597412109375
468;1142.58447265625
469;1142.3096923828125
470;1142.0352783203125
471;1141.760986328125
472;1141.487060546875
473;1141.213623046875
474;1140.9403076171875
475;1140.6673583984375
476;1140.394775390625
477;1140.12353515625
478;1139.8525390625
479;1139.5819091796875
480;1139.311767578125
481;1139.0421142578125
482;1138.7728271484375
483;1138.50390625
484;1138.2352294921875
485;1137.9666748046875
486;1137.698486328125
487;1137.4307861328125
488;1137.16357421875
489;1136.8961181640625
490;1136.62939453125
491;1136.3629150390625
492;1136.0968017578125
493;1135.8309326171875
494;1135.565185546875
495;1135.2999267578125
496;1135.0350341796875
497;1134.77001953125
498;1134.5054931640625
499;1134.2412109375
500;1133.9771728515625
501;1133.7137451171875
502;1133.4501953125
503;1133.18701171875
504;1132.924072265625
505;1132.66162109375
506;1132.399169921875
507;1132.13720703125
508;1131.875244140625
509;1131.61376953125
510;1131.352783203125
511;1131.0921630859375
512;1130.8319091796875
513;1130.5721435546875
514;1130.312744140625
515;1130.05322265625
516;1129.7945556640625
517;1129.5361328125
518;1129.2777099609375
519;1129.019775390625
520;1128.761962890625
521;1128.5045166015625
522;1128.2476806640625
523;1127.9913330078125
524;1127.735107421875
525;1127.47900390625
526;1127.223388671875
527;1126.9681396484375
528;1126.712646484375
529;1126.457763671875
530;1126.202880859375
531;1125.9486083984375
532;1125.6943359375
533;1125.440185546875
534;1125.1866455078125
535;1124.93310546875
536;1124.6796875
537;1124.426513671875
538;1124.173828125
539;1123.921142578125
540;1123.6688232421875
541;1123.4166259765625
542;1123.16455078125
543;1122.9127197265625
544;1122.6612548828125
545;1122.409912109375
546;1122.158935546875
547;1121.907958984375
548;1121.6575927734375
549;1121.406982421875
550;1121.1568603515625
551;1120.9068603515625
552;1120.6571044921875
553;1120.4075927734375
554;1120.1583251953125
555;1119.9095458984375
556;1119.6610107421875
557;1119.412841796875
558;1119.164794921875
559;1118.917236328125
560;1118.669677734375
561;1118.42236328125
562;1118.1754150390625
563;1117.9285888671875
564;1117.681884765625
565;1117.435302734375
566;1117.1890869140625
567;1116.9429931640625
568;1116.6973876953125
569;1116.45166015625
570;1116.206298828125
571;1115.9613037109375
572;1115.716064453125
573;1115.471435546875
574;1115.2271728515625
575;1114.98291015625
576;1114.739013671875
577;1114.4952392578125
578;1114.2515869140625
579;1114.0081787109375
580;1113.7650146484375
581;1113.5220947265625
582;1113.2794189453125
583;1113.036865234375
584;1112.79443359375
585;1112.55224609375
586;1112.310546875
587;1112.069091796875
588;1111.827880859375
589;1111.5870361328125
590;1111.34619140625
591;1111.105712890625
592;1110.8651123046875
593;1110.6248779296875
594;1110.384765625
595;1110.144775390625
596;1109.90478515625
597;1109.6651611328125
598;1109.4256591796875
599;1109.1864013671875
600;1108.947265625
601;1108.7083740234375
602;1108.469482421875
603;1108.230712890625
604;1107.9923095703125
605;1107.75390625
606;1107.515869140625
607;1107.2777099609375
608;1107.0399169921875
609;1106.80224609375
610;1106.56494140625
611;1106.3275146484375
612;1106.09033203125
613;1105.853271484375
614;1105.6165771484375
615;1105.3798828125
616;1105.143310546875
617;1104.906982421875
618;1104.6707763671875
619;1104.4345703125
620;1104.19873046875
621;1103.9630126953125
622;1103.727294921875
623;1103.491943359375
624;1103.2564697265625
625;1103.021484375
626;1102.78662109375
627;1102.5516357421875
628;1102.317138671875
629;1102.082763671875
630;1101.848388671875
631;1101.6143798828125
632;1101.3802490234375
633;1101.146484375
634;1100.9127197265625
635;1100.67919921875
636;1100.44580078125
637;1100.21240234375
638;1099.9791259765625
639;1099.746337890625
640;1099.51318359375
641;1099.280517578125
642;1099.0477294921875
643;1098.815185546875
644;1098.5828857421875
645;1098.3509521484375
646;1098.11865234375
647;1097.88671875
648;1097.65478515625
649;1097.4232177734375
650;1097.1915283203125
651;1096.9600830078125
652;1096.7286376953125
653;1096.4974365234375
654;1096.266357421875
655;1096.035400390625
656;1095.8046875
657;1095.573974609375
658;1095.3433837890625
659;1095.1129150390625
660;1094.882568359375
661;1094.6524658203125
662;1094.4224853515625
663;1094.1925048828125
664;1093.962646484375
665;1093.73291015625
666;1093.50341796875
667;1093.27392578125
668;1093.044677734375
669;1092.8155517578125
670;1092.58642578125
671;1092.357666015625
672;1092.1290283203125
673;1091.9005126953125
674;1091.671875
675;1091.4434814453125
676;1091.21533203125
677;1090.987060546875
678;1090.759033203125
679;1090.53125
680;1090.3037109375
681;1090.076171875
682;1089.84912109375
683;1089.6219482421875
684;1089.39501953125
685;1089.168212890625
686;1088.9412841796875
687;1088.7147216796875
688;1088.48828125
689;1088.261962890625
690;1088.03564453125
691;1087.8096923828125
692;1087.58349609375
693;1087.35791015625
694;1087.1322021484375
695;1086.9066162109375
696;1086.6810302734375
697;1086.45556640625
698;1086.230224609375
699;1086.005126953125
700;1085.7799072265625
701;1085.554931640625
702;1085.3302001953125
703;1085.10546875
704;1084.880859375
705;1084.6563720703125
706;1084.431884765625
707;1084.2076416015625
708;1083.9833984375
709;1083.75927734375
710;1083.5352783203125
711;1083.311279296875
712;1083.0875244140625
713;1082.86376953125
714;1082.640380859375
715;1082.416748046875
716;1082.1934814453125
717;1081.97021484375
718;1081.7470703125
719;1081.52392578125
720;1081.301025390625
721;1081.0782470703125
722;1080.85546875
723;1080.6329345703125
724;1080.410400390625
725;1080.18798828125
726;1079.965576171875
727;1079.74365234375
728;1079.5213623046875
729;1079.2994384765625
730;1079.07763671875
731;1078.85595703125
732;1078.63427734375
733;1078.4127197265625
734;1078.191162109375
735;1077.969970703125
736;1077.74853515625
737;1077.52734375
738;1077.3062744140625
739;1077.08544921875
740;1076.8646240234375
741;1076.6436767578125
742;1076.4229736328125
743;1076.2025146484375
744;1075.98193359375
745;1075.7615966796875
746;1075.54150390625
747;1075.3211669921875
748;1075.1011962890625
749;1074.8812255859375
750;1074.6612548828125
751;1074.4415283203125
752;1074.2218017578125
753;1074.0020751953125
754;1073.78271484375
755;1073.5634765625
756;1073.3443603515625
757;1073.1253662109375
758;1072.906494140625
759;1072.6875
760;1072.4688720703125
761;1072.250244140625
762;1072.0316162109375
763;1071.8131103515625
764;1071.594970703125
765;1071.376708984375
766;1071.15869140625
767;1070.9405517578125
768;1070.72265625
769;1070.5047607421875
770;1070.287109375
771;1070.0693359375
772;1069.8519287109375
773;1069.63427734375
774;1069.4169921875
775;1069.19970703125
776;1068.982421875
777;1068.7652587890625
778;1068.5484619140625
779;1068.33154296875
780;1068.11474609375
781;1067.8980712890625
782;1067.681396484375
783;1067.46484375
784;1067.2484130859375
785;1067.0318603515625
786;1066.8155517578125
787;1066.599365234375
788;1066.38330078125
789;1066.167236328125
790;1065.9515380859375
791;1065.7357177734375
792;1065.519775390625
793;1065.30419921875
794;1065.0885009765625
795;1064.8729248046875
796;1064.6575927734375
797;1064.4422607421875
798;1064.2269287109375
799;1064.0118408203125
800;1063.7967529296875
801;1063.5819091796875
802;1063.366943359375
803;1063.1522216796875
804;1062.9375
805;1062.72265625
806;1062.5081787109375
807;1062.293701171875
808;1062.079345703125
809;1061.8651123046875
810;1061.6510009765625
811;1061.43701171875
812;1061.2230224609375
813;1061.0091552734375
814;1060.79541015625
815;1060.5816650390625
816;1060.3680419921875
817;1060.154541015625
818;1059.9410400390625
819;1059.7276611328125
820;1059.5145263671875
821;1059.30126953125
822;1059.088134765625
823;1058.875244140625
824;1058.662353515625
825;1058.449462890625
826;1058.23681640625
827;1058.0240478515625
828;1057.8115234375
829;1057.59912109375
830;1057.3865966796875
831;1057.1741943359375
832;1056.9620361328125
833;1056.7496337890625
834;1056.53759765625
835;1056.32568359375
836;1056.113525390625
837;1055.9017333984375
838;1055.68994140625
839;1055.47802734375
840;1055.266357421875
841;1055.0548095703125
842;1054.84326171875
843;1054.6319580078125
844;1054.4205322265625
845;1054.2093505859375
846;1053.998291015625
847;1053.787109375
848;1053.5760498046875
849;1053.3651123046875
850;1053.1541748046875
851;1052.943359375
852;1052.732666015625
853;1052.5218505859375
854;1052.3111572265625
855;1052.1007080078125
856;1051.8902587890625
857;1051.679931640625
858;1051.4696044921875
859;1051.25927734375
860;1051.049072265625
861;1050.839111328125
862;1050.6290283203125
863;1050.4190673828125
864;1050.209228515625
865;1049.99951171875
866;1049.7896728515625
867;1049.580078125
868;1049.3704833984375
869;1049.160888671875
870;1048.9515380859375
871;1048.7420654296875
872;1048.5328369140625
873;1048.32373046875
874;1048.1143798828125
875;1047.905517578125
876;1047.696533203125
877;1047.487548828125
878;1047.2786865234375
879;1047.06982421875
880;1046.861083984375
881;1046.6527099609375
882;1046.4439697265625
883;1046.235595703125
884;1046.027099609375
885;1045.81884765625
886;1045.610595703125
887;1045.402099609375
888;1045.1942138671875
889;1044.986083984375
890;1044.7781982421875
891;1044.5701904296875
892;1044.3624267578125
893;1044.1546630859375
894;1043.9468994140625
895;1043.7392578125
896;1043.53173828125
897;1043.32421875
898;1043.11669921875
899;1042.9095458984375
900;1042.7021484375
901;1042.4949951171875
902;1042.2877197265625
903;1042.0806884765625
904;1041.8736572265625
905;1041.6669921875
906;1041.4599609375
907;1041.253173828125
908;1041.04638671875
909;1040.8397216796875
910;1040.6331787109375
911;1040.4263916015625
912;1040.2200927734375
913;1040.0137939453125
914;1039.8072509765625
915;1039.60107421875
916;1039.39501953125
917;1039.188720703125
918;1038.982666015625
919;1038.7767333984375
920;1038.57080078125
921;1038.364990234375
922;1038.1590576171875
923;1037.953369140625
924;1037.74755859375
925;1037.5421142578125
926;1037.3365478515625
927;1037.131103515625
928;1036.92578125
929;1036.720458984375
930;1036.51513671875
931;1036.31005859375
932;1036.10498046875
933;1035.89990234375
934;1035.69482421875
935;1035.489990234375
936;1035.2852783203125
937;1035.08056640625
938;1034.875732421875
939;1034.6712646484375
940;1034.466552734375
941;1034.26220703125
942;1034.0576171875
943;1033.8531494140625
944;1033.64892578125
945;1033.4447021484375
946;1033.240478515625
947;1033.0362548828125
948;1032.832275390625
949;1032.6280517578125
950;1032.424072265625
951;1032.22021484375
952;1032.0164794921875
953;1031.812744140625
954;1031.60888671875
955;1031.4051513671875
956;1031.20166015625
957;1030.9981689453125
958;1030.7947998046875
959;1030.5914306640625
960;1030.3880615234375
961;1030.1846923828125
962;1029.981689453125
963;1029.7784423828125
964;1029.575439453125
965;1029.3724365234375
966;1029.16943359375
967;1028.966552734375
968;1028.7637939453125
969;1028.5609130859375
970;1028.3582763671875
971;1028.15576171875
972;1027.953125
973;1027.75048828125
974;1027.548095703125
975;1027.345703125
976;1027.143310546875
977;1026.9410400390625
978;1026.73876953125
979;1026.5367431640625
980;1026.3345947265625
981;1026.132568359375
982;1025.9306640625
983;1025.7288818359375
984;1025.5269775390625
985;1025.3251953125
986;1025.12353515625
987;1024.921875
988;1024.7203369140625
989;1024.5186767578125
990;1024.3173828125
991;1024.1158447265625
992;1023.9144897460938
993;1023.7131958007812
994;1023.5121459960938
995;1023.3108520507812
996;1023.1098022460938
997;1022.9086303710938
998;1022.7077026367188
999;1022.5067138671875
1000;1022.305908203125
1001;1022.1050415039062
1002;1021.904296875
1003;1021.7034301757812
1004;1021.5029296875
1005;1021.3023071289062
1006;1021.1018676757812
1007;1020.9014892578125
1008;1020.7010498046875
1009;1020.500732421875
1010;1020.3003540039062
1011;1020.1002807617188
1012;1019.9000854492188
1013;1019.699951171875
1014;1019.4998779296875
1015;1019.3002319335938
1016;1019.100830078125
1017;1018.9012451171875
1018;1018.7018432617188
1019;1018.5025024414062
1020;1018.3030395507812
1021;1018.1038208007812
1022;1017.9046020507812
1023;1017.7055053710938
1024;1017.5065307617188
1025;1017.3077392578125
1026;1017.1087036132812
1027;1016.9097290039062
1028;1016.7110595703125
1029;1016.5122680664062
1030;1016.313720703125
1031;1016.1151123046875
1032;1015.9164428710938
1033;1015.718017578125
1034;1015.519775390625
1035;1015.3214111328125
1036;1015.123046875
1037;1014.9246826171875
1038;1014.7264404296875
1039;1014.528564453125
1040;1014.330322265625
1041;1014.1322631835938
1042;1013.9342651367188
1043;1013.7364501953125
1044;1013.5386352539062
1045;1013.340576171875
1046;1013.1430053710938
1047;1012.945068359375
1048;1012.7476196289062
1049;1012.550048828125
1050;1012.3525390625
1051;1012.1549682617188
1052;1011.9574584960938
1053;1011.7600708007812
1054;1011.5629272460938
1055;1011.3656616210938
1056;1011.1685180664062
1057;1010.9713745117188
1058;1010.774169921875
1059;1010.5771484375
1060;1010.3801879882812
1061;1010.1831665039062
1062;1009.9864501953125
1063;1009.7896118164062
1064;1009.5926513671875
1065;1009.3960571289062
1066;1009.199462890625
1067;1009.002685546875
1068;1008.8060913085938
1069;1008.609619140625
1070;1008.4130859375
1071;1008.216796875
1072;1008.0203857421875
1073;1007.8240966796875
1074;1007.6278076171875
1075;1007.431640625
1076;1007.2356567382812
1077;1007.0396118164062
1078;1006.843505859375
1079;1006.6475830078125
1080;1006.4515991210938
1081;1006.255859375
1082;1006.0598754882812
1083;1005.8642578125
1084;1005.6683959960938
1085;1005.472900390625
1086;1005.2772216796875
1087;1005.0817260742188
1088;1004.8861694335938
1089;1004.6907348632812
1090;1004.495361328125
1091;1004.2999267578125
1092;1004.104736328125
1093;1003.9094848632812
1094;1003.7141723632812
1095;1003.5192260742188
1096;1003.323974609375
1097;1003.12890625
1098;1002.9341430664062
1099;1002.739013671875
1100;1002.544189453125
1101;1002.3493041992188
1102;1002.1546020507812
1103;1001.9598388671875
1104;1001.7650756835938
1105;1001.570556640625
1106;1001.3758544921875
1107;1001.1813354492188
1108;1000.9869995117188
1109;1000.7925415039062
1110;1000.5980834960938
1111;1000.4038696289062
1112;1000.2095336914062
1113;1000.0151977539062
1114;999.8209838867188
1115;999.626953125
1116;999.432861328125
1117;999.2388305664062
1118;999.0447998046875
1119;998.8508911132812
1120;998.656982421875
1121;998.463134765625
1122;998.2694091796875
1123;998.0757446289062
1124;997.882080078125
1125;997.6883544921875
1126;997.4946899414062
1127;997.3012084960938
1128;997.1077270507812
1129;996.9143676757812
1130;996.7210083007812
1131;996.5276489257812
1132;996.3342895507812
1133;996.1410522460938
1134;995.9478149414062
1135;995.7547607421875
1136;995.5616455078125
1137;995.3685913085938
1138;995.1756591796875
1139;994.982666015625
1140;994.789794921875
1141;994.596923828125
1142;994.4041748046875
1143;994.2114868164062
1144;994.0186767578125
1145;993.825927734375
1146;993.6334838867188
1147;993.4408569335938
1148;993.2483520507812
1149;993.0559692382812
1150;992.863525390625
1151;992.6712036132812
1152;992.4789428710938
1153;992.2865600585938
1154;992.0944213867188
1155;991.90234375
1156;991.710205078125
1157;991.5181274414062
1158;991.3260498046875
1159;991.1340942382812
1160;990.942138671875
1161;990.7501220703125
1162;990.558349609375
1163;990.3666381835938
1164;990.1748046875
1165;989.9832763671875
1166;989.7915649414062
1167;989.6000366210938
1168;989.4085083007812
1169;989.216796875
1170;989.025390625
1171;988.833984375
1172;988.6427001953125
1173;988.451416015625
1174;988.2600708007812
1175;988.0687866210938
1176;987.877685546875
1177;987.6865234375
1178;987.4954223632812
1179;987.304443359375
1180;987.113525390625
1181;986.9227294921875
1182;986.7318725585938
1183;986.5411376953125
1184;986.3504638671875
1185;986.1598510742188
1186;985.9691772460938
1187;985.7786254882812
1188;985.5881958007812
1189;985.397705078125
1190;985.2073364257812
1191;985.0171508789062
1192;984.8267211914062
1193;984.6364135742188
1194;984.4462890625
1195;984.2561645507812
1196;984.0661010742188
1197;983.876220703125
1198;983.6860961914062
1199;983.4962158203125
1200;983.3063354492188
1201;983.1166381835938
1202;982.9268798828125
1203;982.737060546875
1204;982.5474243164062
1205;982.3577270507812
1206;982.168212890625
1207;981.978759765625
1208;981.7891845703125
1209;981.599853515625
1210;981.410400390625
1211;981.2210083007812
1212;981.0316772460938
1213;980.842529296875
1214;980.6534423828125
1215;980.4641723632812
1216;980.2750854492188
1217;980.0859375
1218;979.8969116210938
1219;979.707763671875
1220;979.5188598632812
1221;979.3299560546875
1222;979.1411743164062
1223;978.952392578125
1224;978.7635498046875
1225;978.5748901367188
1226;978.3861694335938
1227;978.197509765625
1228;978.009033203125
1229;977.8203125
1230;977.6318359375
1231;977.443359375
1232;977.2550048828125
1233;977.066650390625
1234;976.8782348632812
1235;976.6898803710938
1236;976.5016479492188
1237;976.3133544921875
1238;976.125244140625
1239;975.9370727539062
1240;975.7490234375
1241;975.5608520507812
1242;975.3729248046875
1243;975.1849975585938
1244;974.9969482421875
1245;974.8091430664062
1246;974.6213989257812
1247;974.4337158203125
1248;974.24609375
1249;974.0584716796875
1250;973.870849609375
1251;973.6834716796875
1252;973.4959716796875
1253;973.3087158203125
1254;973.1213989257812
1255;972.9340209960938
1256;972.746826171875
1257;972.5595703125
1258;972.3724975585938
1259;972.185302734375
1260;971.9983520507812
1261;971.811279296875
1262;971.6243286132812
1263;971.4373779296875
1264;971.2504272460938
1265;971.063720703125
1266;970.8768310546875
1267;970.6901245117188
1268;970.5034790039062
1269;970.3167114257812
1270;970.130126953125
1271;969.9434814453125
1272;969.7569580078125
1273;969.5703125
1274;969.3839111328125
1275;969.197509765625
1276;969.0111694335938
1277;968.8247680664062
1278;968.6385498046875
1279;968.4521484375
1280;968.2659301757812
1281;968.079833984375
1282;967.8936767578125
1283;967.7075805664062
1284;967.5216064453125
1285;967.3355102539062
1286;967.1495361328125
1287;966.9635620117188
1288;966.7777709960938
1289;966.5919189453125
1290;966.4061279296875
1291;966.2203979492188
1292;966.0347290039062
1293;965.8489379882812
1294;965.663330078125
1295;965.477783203125
1296;965.292236328125
1297;965.1067504882812
1298;964.9212036132812
1299;964.7357788085938
1300;964.5503540039062
1301;964.364990234375
1302;964.1798095703125
1303;963.9945678710938
1304;963.809326171875
1305;963.624267578125
1306;963.4390258789062
1307;963.25390625
1308;963.0687866210938
1309;962.8839111328125
1310;962.6987915039062
1311;962.5139770507812
1312;962.3289794921875
1313;962.1442260742188
1314;961.9592895507812
1315;961.774658203125
1316;961.58984375
1317;961.4051513671875
1318;961.220458984375
1319;961.0358276367188
1320;960.851318359375
1321;960.666748046875
1322;960.482177734375
1323;960.2978515625
1324;960.11328125
1325;959.928955078125
1326;959.7445678710938
1327;959.5602416992188
1328;959.3759765625
1329;959.191650390625
1330;959.0075073242188
1331;958.8233642578125
1332;958.6392211914062
1333;958.4552001953125
1334;958.2710571289062
1335;958.0870361328125
1336;957.903076171875
1337;957.7191772460938
1338;957.5352783203125
1339;957.3514404296875
1340;957.1676635742188
1341;956.9838256835938
1342;956.800048828125
1343;956.616455078125
1344;956.4327392578125
1345;956.2490234375
1346;956.0655517578125
1347;955.8819580078125
1348;955.698486328125
1349;955.5149536132812
1350;955.3316040039062
1351;955.1481323242188
1352;954.96484375
1353;954.781494140625
1354;954.5983276367188
1355;954.4149169921875
1356;954.2318725585938
1357;954.048583984375
1358;953.8655395507812
1359;953.6824951171875
1360;953.4994506835938
1361;953.3165283203125
1362;953.1334838867188
1363;952.9506225585938
1364;952.767822265625
1365;952.5849609375
1366;952.402099609375
1367;952.2194213867188
1368;952.0365600585938
1369;951.8539428710938
1370;951.6712036132812
1371;951.488525390625
1372;951.3060913085938
1373;951.1233520507812
1374;950.9409790039062
1375;950.7584838867188
1376;950.5760498046875
1377;950.3936767578125
1378;950.2112426757812
1379;950.0289916992188
1380;949.8465576171875
1381;949.6643676757812
1382;949.4821166992188
1383;949.300048828125
1384;949.1178588867188
1385;948.9356689453125
1386;948.753662109375
1387;948.5715942382812
1388;948.3896484375
1389;948.2075805664062
1390;948.0256958007812
1391;947.8438720703125
1392;947.661865234375
1393;947.4800415039062
1394;947.2982788085938
1395;947.1165161132812
1396;946.934814453125
1397;946.753173828125
1398;946.5715942382812
1399;946.389892578125
1400;946.2083129882812
1401;946.0267944335938
1402;945.8453979492188
1403;945.663818359375
1404;945.4822998046875
1405;945.301025390625
1406;945.1196899414062
1407;944.9383544921875
1408;944.7571411132812
1409;944.5758666992188
1410;944.39453125
1411;944.2134399414062
1412;944.0323486328125
1413;943.8512573242188
1414;943.670166015625
1415;943.4891357421875
1416;943.3081665039062
1417;943.127197265625
1418;942.9462890625
1419;942.765380859375
1420;942.5845336914062
1421;942.4037475585938
1422;942.2229614257812
1423;942.042236328125
1424;941.861572265625
1425;941.680908203125
1426;941.5003051757812
1427;941.3196411132812
1428;941.1390991210938
1429;940.9586791992188
1430;940.778076171875
1431;940.5977783203125
1432;940.417236328125
1433;940.2368774414062
1434;940.0565185546875
1435;939.876220703125
1436;939.6959838867188
1437;939.5157470703125
1438;939.3355102539062
1439;939.1553955078125
1440;938.9752807617188
1441;938.795166015625
1442;938.6151123046875
1443;938.4349975585938
1444;938.2550048828125
1445;938.0750732421875
1446;937.8952026367188
1447;937.7153930664062
1448;937.5354614257812
1449;937.3555908203125
1450;937.1759033203125
1451;936.9962158203125
1452;936.8165283203125
1453;936.63671875
1454;936.45703125
1455;936.2774658203125
1456;936.0979614257812
1457;935.9183959960938
1458;935.7389526367188
1459;935.559326171875
1460;935.3800048828125
1461;935.2006225585938
1462;935.021240234375
1463;934.8419189453125
1464;934.6627807617188
1465;934.4833984375
1466;934.3041381835938
1467;934.125
1468;933.9458618164062
1469;933.7667236328125
1470;933.587646484375
1471;933.4086303710938
1472;933.2296142578125
1473;933.0506591796875
1474;932.8717651367188
1475;932.6928100585938
1476;932.513916015625
1477;932.3350830078125
1478;932.15625
1479;931.9775390625
1480;931.798828125
1481;931.6201171875
1482;931.44140625
1483;931.2626953125
1484;931.0841064453125
1485;930.9055786132812
1486;930.7269897460938
1487;930.5485229492188
1488;930.3699951171875
1489;930.1915283203125
1490;930.0131225585938
1491;929.834716796875
1492;929.656494140625
1493;929.4782104492188
1494;929.2999267578125
1495;929.1216430664062
1496;928.9434814453125
1497;928.7653198242188
1498;928.587158203125
1499;928.408935546875
