;loss
0;1323.1800537109375
1;1323.0528564453125
2;1322.9058837890625
3;1322.749755859375
4;1322.5775146484375
5;1322.405029296875
6;1322.23193359375
7;1322.0584716796875
8;1321.884521484375
9;1321.709716796875
10;1321.5355224609375
11;1321.359375
12;1321.1829833984375
13;1321.00537109375
14;1320.827392578125
15;1320.648193359375
16;1320.4683837890625
17;1320.2861328125
18;1320.102783203125
19;1319.9202880859375
20;1319.7347412109375
21;1319.55029296875
22;1319.3626708984375
23;1319.1739501953125
24;1318.984130859375
25;1318.7955322265625
26;1318.6036376953125
27;1318.4127197265625
28;1318.220703125
29;1318.0277099609375
30;1317.8331298828125
31;1317.6376953125
32;1317.438720703125
33;1317.2384033203125
34;1317.0389404296875
35;1316.8385009765625
36;1316.6365966796875
37;1316.43115234375
38;1316.2264404296875
39;1316.0181884765625
40;1315.80859375
41;1315.5997314453125
42;1315.38720703125
43;1315.17333984375
44;1314.960205078125
45;1314.7454833984375
46;1314.5269775390625
47;1314.3070068359375
48;1314.08544921875
49;1313.8624267578125
50;1313.6397705078125
51;1313.41357421875
52;1313.1875
53;1312.9578857421875
54;1312.7264404296875
55;1312.49560546875
56;1312.2628173828125
57;1312.026123046875
58;1311.787841796875
59;1311.5478515625
60;1311.3060302734375
61;1311.0640869140625
62;1310.8203125
63;1310.572998046875
64;1310.32373046875
65;1310.0743408203125
66;1309.821044921875
67;1309.56591796875
68;1309.310791015625
69;1309.0533447265625
70;1308.7940673828125
71;1308.53271484375
72;1308.26904296875
73;1308.001708984375
74;1307.732421875
75;1307.4625244140625
76;1307.18896484375
77;1306.9146728515625
78;1306.638427734375
79;1306.3599853515625
80;1306.0792236328125
81;1305.7962646484375
82;1305.51123046875
83;1305.2236328125
84;1304.9322509765625
85;1304.64013671875
86;1304.34423828125
87;1304.0457763671875
88;1303.7451171875
89;1303.443603515625
90;1303.1396484375
91;1302.83349609375
92;1302.52294921875
93;1302.2099609375
94;1301.8961181640625
95;1301.5799560546875
96;1301.2611083984375
97;1300.9381103515625
98;1300.61279296875
99;1300.2847900390625
100;1299.9559326171875
101;1299.622802734375
102;1299.287109375
103;1298.9501953125
104;1298.6092529296875
105;1298.2655029296875
106;1297.9193115234375
107;1297.5704345703125
108;1297.22021484375
109;1296.86767578125
110;1296.5106201171875
111;1296.15087890625
112;1295.78857421875
113;1295.42333984375
114;1295.0570068359375
115;1294.687744140625
116;1294.3143310546875
117;1293.939697265625
118;1293.560546875
119;1293.18017578125
120;1292.795654296875
121;1292.4083251953125
122;1292.0198974609375
123;1291.626953125
124;1291.2330322265625
125;1290.834716796875
126;1290.4337158203125
127;1290.02978515625
128;1289.623291015625
129;1289.2138671875
130;1288.8016357421875
131;1288.38671875
132;1287.9691162109375
133;1287.548828125
134;1287.125732421875
135;1286.69970703125
136;1286.2728271484375
137;1285.841552734375
138;1285.40771484375
139;1284.97119140625
140;1284.5321044921875
141;1284.0904541015625
142;1283.646240234375
143;1283.199462890625
144;1282.75
145;1282.298095703125
146;1281.84375
147;1281.3883056640625
148;1280.92919921875
149;1280.4674072265625
150;1280.00341796875
151;1279.5372314453125
152;1279.06982421875
153;1278.5989990234375
154;1278.1273193359375
155;1277.6519775390625
156;1277.176025390625
157;1276.6964111328125
158;1276.21484375
159;1275.732666015625
160;1275.247314453125
161;1274.7596435546875
162;1274.270263671875
163;1273.7803955078125
164;1273.28857421875
165;1272.7950439453125
166;1272.29833984375
167;1271.7999267578125
168;1271.3011474609375
169;1270.7994384765625
170;1270.2965087890625
171;1269.7919921875
172;1269.285888671875
173;1268.780029296875
174;1268.2728271484375
175;1267.7630615234375
176;1267.25341796875
177;1266.7413330078125
178;1266.2294921875
179;1265.717041015625
180;1265.2025146484375
181;1264.68701171875
182;1264.171875
183;1263.65478515625
184;1263.13720703125
185;1262.619873046875
186;1262.10205078125
187;1261.58251953125
188;1261.0626220703125
189;1260.54345703125
190;1260.022705078125
191;1259.50146484375
192;1258.980224609375
193;1258.4598388671875
194;1257.9393310546875
195;1257.41748046875
196;1256.8956298828125
197;1256.3739013671875
198;1255.8521728515625
199;1255.330810546875
200;1254.8094482421875
201;1254.28857421875
202;1253.7677001953125
203;1253.247314453125
204;1252.727294921875
205;1252.207763671875
206;1251.6890869140625
207;1251.1708984375
208;1250.6534423828125
209;1250.1375732421875
210;1249.6214599609375
211;1249.1060791015625
212;1248.5916748046875
213;1248.0782470703125
214;1247.566650390625
215;1247.054931640625
216;1246.5450439453125
217;1246.03515625
218;1245.526611328125
219;1245.0189208984375
220;1244.51318359375
221;1244.0076904296875
222;1243.50439453125
223;1243.0010986328125
224;1242.4989013671875
225;1241.9979248046875
226;1241.498291015625
227;1240.9996337890625
228;1240.5025634765625
229;1240.006591796875
230;1239.51220703125
231;1239.0198974609375
232;1238.5291748046875
233;1238.0396728515625
234;1237.5516357421875
235;1237.0640869140625
236;1236.5787353515625
237;1236.094970703125
238;1235.612548828125
239;1235.1314697265625
240;1234.6522216796875
241;1234.17431640625
242;1233.69775390625
243;1233.2227783203125
244;1232.749267578125
245;1232.2774658203125
246;1231.8062744140625
247;1231.33642578125
248;1230.8680419921875
249;1230.401611328125
250;1229.9365234375
251;1229.4730224609375
252;1229.0118408203125
253;1228.55224609375
254;1228.095703125
255;1227.6407470703125
256;1227.1873779296875
257;1226.7353515625
258;1226.28515625
259;1225.83740234375
260;1225.3907470703125
261;1224.9454345703125
262;1224.502197265625
263;1224.0606689453125
264;1223.6204833984375
265;1223.1820068359375
266;1222.7440185546875
267;1222.307861328125
268;1221.8734130859375
269;1221.4403076171875
270;1221.0089111328125
271;1220.579345703125
272;1220.1517333984375
273;1219.7255859375
274;1219.301025390625
275;1218.8778076171875
276;1218.4556884765625
277;1218.0357666015625
278;1217.61669921875
279;1217.198974609375
280;1216.782958984375
281;1216.3687744140625
282;1215.9559326171875
283;1215.54443359375
284;1215.1343994140625
285;1214.725830078125
286;1214.3184814453125
287;1213.9129638671875
288;1213.5091552734375
289;1213.10595703125
290;1212.7041015625
291;1212.3035888671875
292;1211.9044189453125
293;1211.507080078125
294;1211.1103515625
295;1210.7158203125
296;1210.322509765625
297;1209.9306640625
298;1209.5399169921875
299;1209.150390625
300;1208.76171875
301;1208.374755859375
302;1207.9893798828125
303;1207.605712890625
304;1207.222900390625
305;1206.8426513671875
306;1206.4638671875
307;1206.08642578125
308;1205.7108154296875
309;1205.3358154296875
310;1204.96240234375
311;1204.59130859375
312;1204.221923828125
313;1203.85400390625
314;1203.48681640625
315;1203.1207275390625
316;1202.756591796875
317;1202.3936767578125
318;1202.032470703125
319;1201.6727294921875
320;1201.3143310546875
321;1200.9573974609375
322;1200.60107421875
323;1200.24658203125
324;1199.8927001953125
325;1199.5401611328125
326;1199.1884765625
327;1198.8380126953125
328;1198.48828125
329;1198.1392822265625
330;1197.79150390625
331;1197.4444580078125
332;1197.0982666015625
333;1196.7532958984375
334;1196.4095458984375
335;1196.06591796875
336;1195.7235107421875
337;1195.38232421875
338;1195.0418701171875
339;1194.7022705078125
340;1194.36328125
341;1194.024658203125
342;1193.687255859375
343;1193.3505859375
344;1193.0147705078125
345;1192.67919921875
346;1192.34423828125
347;1192.01025390625
348;1191.6773681640625
349;1191.34521484375
350;1191.013671875
351;1190.68359375
352;1190.35400390625
353;1190.025146484375
354;1189.69677734375
355;1189.3695068359375
356;1189.0426025390625
357;1188.71630859375
358;1188.3909912109375
359;1188.066162109375
360;1187.7423095703125
361;1187.419189453125
362;1187.096435546875
363;1186.7740478515625
364;1186.452880859375
365;1186.1317138671875
366;1185.811279296875
367;1185.49169921875
368;1185.1727294921875
369;1184.8543701171875
370;1184.536865234375
371;1184.2200927734375
372;1183.90380859375
373;1183.58837890625
374;1183.2728271484375
375;1182.9583740234375
376;1182.64453125
377;1182.331298828125
378;1182.01806640625
379;1181.7059326171875
380;1181.39404296875
381;1181.0833740234375
382;1180.772705078125
383;1180.4630126953125
384;1180.1539306640625
385;1179.8453369140625
386;1179.53759765625
387;1179.23046875
388;1178.923828125
389;1178.617919921875
390;1178.3125
391;1178.007568359375
392;1177.703125
393;1177.3992919921875
394;1177.095703125
395;1176.79296875
396;1176.4906005859375
397;1176.188720703125
398;1175.8870849609375
399;1175.586181640625
400;1175.285400390625
401;1174.98486328125
402;1174.685302734375
403;1174.38623046875
404;1174.087158203125
405;1173.788818359375
406;1173.4910888671875
407;1173.193603515625
408;1172.89697265625
409;1172.6007080078125
410;1172.304443359375
411;1172.00927734375
412;1171.7142333984375
413;1171.4200439453125
414;1171.1263427734375
415;1170.8326416015625
416;1170.5396728515625
417;1170.248291015625
418;1169.957275390625
419;1169.6668701171875
420;1169.376953125
421;1169.08740234375
422;1168.798095703125
423;1168.5093994140625
424;1168.22119140625
425;1167.9332275390625
426;1167.64599609375
427;1167.3587646484375
428;1167.0718994140625
429;1166.78564453125
430;1166.499755859375
431;1166.21435546875
432;1165.92919921875
433;1165.6444091796875
434;1165.3602294921875
435;1165.0762939453125
436;1164.792724609375
437;1164.5093994140625
438;1164.2264404296875
439;1163.94384765625
440;1163.66162109375
441;1163.3798828125
442;1163.0987548828125
443;1162.81787109375
444;1162.537109375
445;1162.257080078125
446;1161.97705078125
447;1161.6976318359375
448;1161.4183349609375
449;1161.13916015625
450;1160.860595703125
451;1160.5823974609375
452;1160.30419921875
453;1160.026611328125
454;1159.7493896484375
455;1159.4722900390625
456;1159.195556640625
457;1158.9190673828125
458;1158.64306640625
459;1158.367431640625
460;1158.092041015625
461;1157.816650390625
462;1157.5416259765625
463;1157.26708984375
464;1156.9930419921875
465;1156.7191162109375
466;1156.4453125
467;1156.172119140625
468;1155.899169921875
469;1155.6263427734375
470;1155.3538818359375
471;1155.081787109375
472;1154.81005859375
473;1154.5386962890625
474;1154.2674560546875
475;1153.9967041015625
476;1153.7261962890625
477;1153.4559326171875
478;1153.18603515625
479;1152.9161376953125
480;1152.646728515625
481;1152.37744140625
482;1152.1087646484375
483;1151.8402099609375
484;1151.5716552734375
485;1151.303466796875
486;1151.03564453125
487;1150.7681884765625
488;1150.500732421875
489;1150.23388671875
490;1149.966796875
491;1149.7005615234375
492;1149.4339599609375
493;1149.1680908203125
494;1148.9024658203125
495;1148.6368408203125
496;1148.3714599609375
497;1148.1064453125
498;1147.841552734375
499;1147.5767822265625
500;1147.312255859375
501;1147.0482177734375
502;1146.7841796875
503;1146.5208740234375
504;1146.25732421875
505;1145.99462890625
506;1145.7318115234375
507;1145.4693603515625
508;1145.2073974609375
509;1144.9451904296875
510;1144.6834716796875
511;1144.422119140625
512;1144.1607666015625
513;1143.900146484375
514;1143.639404296875
515;1143.37890625
516;1143.118896484375
517;1142.859130859375
518;1142.599609375
519;1142.3402099609375
520;1142.0809326171875
521;1141.822265625
522;1141.5635986328125
523;1141.3052978515625
524;1141.047119140625
525;1140.789306640625
526;1140.5316162109375
527;1140.2740478515625
528;1140.0169677734375
529;1139.759765625
530;1139.5030517578125
531;1139.24658203125
532;1138.989990234375
533;1138.73388671875
534;1138.47802734375
535;1138.22216796875
536;1137.9666748046875
537;1137.71142578125
538;1137.456298828125
539;1137.201416015625
540;1136.9468994140625
541;1136.6925048828125
542;1136.4383544921875
543;1136.184326171875
544;1135.9307861328125
545;1135.6771240234375
546;1135.4237060546875
547;1135.1705322265625
548;1134.9176025390625
549;1134.6651611328125
550;1134.4124755859375
551;1134.160400390625
552;1133.9080810546875
553;1133.6563720703125
554;1133.4046630859375
555;1133.153076171875
556;1132.90185546875
557;1132.65087890625
558;1132.39990234375
559;1132.1490478515625
560;1131.89892578125
561;1131.6485595703125
562;1131.3985595703125
563;1131.148681640625
564;1130.8990478515625
565;1130.6495361328125
566;1130.400146484375
567;1130.1512451171875
568;1129.90234375
569;1129.65380859375
570;1129.4053955078125
571;1129.156982421875
572;1128.9088134765625
573;1128.6610107421875
574;1128.4134521484375
575;1128.166015625
576;1127.9188232421875
577;1127.6715087890625
578;1127.4246826171875
579;1127.177978515625
580;1126.931396484375
581;1126.68505859375
582;1126.4385986328125
583;1126.1927490234375
584;1125.9468994140625
585;1125.7010498046875
586;1125.45556640625
587;1125.21044921875
588;1124.96533203125
589;1124.720458984375
590;1124.475830078125
591;1124.231201171875
592;1123.9869384765625
593;1123.74267578125
594;1123.49853515625
595;1123.2547607421875
596;1123.0108642578125
597;1122.7672119140625
598;1122.5238037109375
599;1122.28076171875
600;1122.03759765625
601;1121.7947998046875
602;1121.5521240234375
603;1121.309814453125
604;1121.0672607421875
605;1120.8250732421875
606;1120.5831298828125
607;1120.34130859375
608;1120.0994873046875
609;1119.85791015625
610;1119.616455078125
611;1119.375244140625
612;1119.1341552734375
613;1118.893310546875
614;1118.652587890625
615;1118.411865234375
616;1118.1715087890625
617;1117.93115234375
618;1117.691162109375
619;1117.451171875
620;1117.21142578125
621;1116.9720458984375
622;1116.732666015625
623;1116.4932861328125
624;1116.2542724609375
625;1116.0152587890625
626;1115.776611328125
627;1115.5379638671875
628;1115.2994384765625
629;1115.061279296875
630;1114.8231201171875
631;1114.5853271484375
632;1114.3475341796875
633;1114.10986328125
634;1113.8724365234375
635;1113.635009765625
636;1113.39794921875
637;1113.160888671875
638;1112.9239501953125
639;1112.6871337890625
640;1112.45068359375
641;1112.2142333984375
642;1111.97802734375
643;1111.7418212890625
644;1111.505859375
645;1111.27001953125
646;1111.0345458984375
647;1110.798828125
648;1110.5634765625
649;1110.328369140625
650;1110.09326171875
651;1109.8582763671875
652;1109.62353515625
653;1109.3887939453125
654;1109.154296875
655;1108.919677734375
656;1108.6856689453125
657;1108.45166015625
658;1108.217529296875
659;1107.9837646484375
660;1107.750244140625
661;1107.5167236328125
662;1107.2835693359375
663;1107.05029296875
664;1106.817138671875
665;1106.584228515625
666;1106.351318359375
667;1106.1190185546875
668;1105.8863525390625
669;1105.6541748046875
670;1105.422119140625
671;1105.18994140625
672;1104.9581298828125
673;1104.7264404296875
674;1104.4947509765625
675;1104.26318359375
676;1104.03173828125
677;1103.80029296875
678;1103.569091796875
679;1103.338134765625
680;1103.107177734375
681;1102.87646484375
682;1102.6458740234375
683;1102.415283203125
684;1102.1849365234375
685;1101.95458984375
686;1101.7244873046875
687;1101.49462890625
688;1101.2645263671875
689;1101.0347900390625
690;1100.8052978515625
691;1100.57568359375
692;1100.3465576171875
693;1100.117431640625
694;1099.88818359375
695;1099.659423828125
696;1099.4302978515625
697;1099.20166015625
698;1098.97314453125
699;1098.744384765625
700;1098.51611328125
701;1098.2877197265625
702;1098.0596923828125
703;1097.8316650390625
704;1097.6038818359375
705;1097.3759765625
706;1097.1483154296875
707;1096.9207763671875
708;1096.6934814453125
709;1096.4661865234375
710;1096.239013671875
711;1096.011962890625
712;1095.78515625
713;1095.558349609375
714;1095.3316650390625
715;1095.1051025390625
716;1094.878662109375
717;1094.652587890625
718;1094.4263916015625
719;1094.2003173828125
720;1093.974365234375
721;1093.74853515625
722;1093.5228271484375
723;1093.297119140625
724;1093.071533203125
725;1092.84619140625
726;1092.6207275390625
727;1092.3956298828125
728;1092.170654296875
729;1091.9456787109375
730;1091.720947265625
731;1091.4962158203125
732;1091.2716064453125
733;1091.047119140625
734;1090.82275390625
735;1090.5985107421875
736;1090.3743896484375
737;1090.150146484375
738;1089.92626953125
739;1089.7025146484375
740;1089.478759765625
741;1089.2552490234375
742;1089.03173828125
743;1088.8082275390625
744;1088.5850830078125
745;1088.36181640625
746;1088.138671875
747;1087.9156494140625
748;1087.69287109375
749;1087.47021484375
750;1087.24755859375
751;1087.02490234375
752;1086.8026123046875
753;1086.5804443359375
754;1086.358154296875
755;1086.13623046875
756;1085.9140625
757;1085.692138671875
758;1085.470458984375
759;1085.24853515625
760;1085.0272216796875
761;1084.8056640625
762;1084.5845947265625
763;1084.3631591796875
764;1084.14208984375
765;1083.9208984375
766;1083.699951171875
767;1083.47900390625
768;1083.25830078125
769;1083.03759765625
770;1082.81689453125
771;1082.596435546875
772;1082.376220703125
773;1082.1558837890625
774;1081.935791015625
775;1081.7158203125
776;1081.495849609375
777;1081.276123046875
778;1081.0562744140625
779;1080.836669921875
780;1080.616943359375
781;1080.3975830078125
782;1080.17822265625
783;1079.9591064453125
784;1079.739990234375
785;1079.5208740234375
786;1079.302001953125
787;1079.083251953125
788;1078.8643798828125
789;1078.645751953125
790;1078.4271240234375
791;1078.20849609375
792;1077.989990234375
793;1077.77197265625
794;1077.5537109375
795;1077.33544921875
796;1077.1175537109375
797;1076.8997802734375
798;1076.6820068359375
799;1076.46435546875
800;1076.24658203125
801;1076.029052734375
802;1075.8116455078125
803;1075.59423828125
804;1075.376953125
805;1075.1597900390625
806;1074.9427490234375
807;1074.7257080078125
808;1074.5087890625
809;1074.2919921875
810;1074.0753173828125
811;1073.8585205078125
812;1073.64208984375
813;1073.4256591796875
814;1073.20947265625
815;1072.9930419921875
816;1072.77685546875
817;1072.5609130859375
818;1072.3448486328125
819;1072.12890625
820;1071.9129638671875
821;1071.697265625
822;1071.481689453125
823;1071.26611328125
824;1071.0506591796875
825;1070.8353271484375
826;1070.6201171875
827;1070.4049072265625
828;1070.1898193359375
829;1069.9747314453125
830;1069.759765625
831;1069.544921875
832;1069.330322265625
833;1069.1156005859375
834;1068.9010009765625
835;1068.6865234375
836;1068.47216796875
837;1068.2578125
838;1068.04345703125
839;1067.8294677734375
840;1067.615234375
841;1067.4013671875
842;1067.1875
843;1066.9736328125
844;1066.760009765625
845;1066.54638671875
846;1066.332763671875
847;1066.119384765625
848;1065.906005859375
849;1065.6927490234375
850;1065.4793701171875
851;1065.266357421875
852;1065.05322265625
853;1064.84033203125
854;1064.62744140625
855;1064.4146728515625
856;1064.201904296875
857;1063.9891357421875
858;1063.7767333984375
859;1063.564208984375
860;1063.351806640625
861;1063.1395263671875
862;1062.92724609375
863;1062.715087890625
864;1062.5029296875
865;1062.2911376953125
866;1062.0792236328125
867;1061.867431640625
868;1061.65576171875
869;1061.4439697265625
870;1061.232421875
871;1061.02099609375
872;1060.8095703125
873;1060.59814453125
874;1060.3868408203125
875;1060.17578125
876;1059.964599609375
877;1059.75341796875
878;1059.54248046875
879;1059.33154296875
880;1059.1209716796875
881;1058.91015625
882;1058.6995849609375
883;1058.489013671875
884;1058.2786865234375
885;1058.068359375
886;1057.85791015625
887;1057.6478271484375
888;1057.437744140625
889;1057.2275390625
890;1057.0174560546875
891;1056.8074951171875
892;1056.5977783203125
893;1056.387939453125
894;1056.17822265625
895;1055.968505859375
896;1055.759033203125
897;1055.549560546875
898;1055.3402099609375
899;1055.1309814453125
900;1054.9215087890625
901;1054.71240234375
902;1054.5032958984375
903;1054.2943115234375
904;1054.08544921875
905;1053.87646484375
906;1053.6676025390625
907;1053.458984375
908;1053.25048828125
909;1053.0416259765625
910;1052.8331298828125
911;1052.624755859375
912;1052.41650390625
913;1052.2081298828125
914;1051.9998779296875
915;1051.7916259765625
916;1051.58349609375
917;1051.375732421875
918;1051.1678466796875
919;1050.9599609375
920;1050.752197265625
921;1050.54443359375
922;1050.3367919921875
923;1050.12939453125
924;1049.9219970703125
925;1049.7144775390625
926;1049.5072021484375
927;1049.2999267578125
928;1049.0926513671875
929;1048.885498046875
930;1048.6785888671875
931;1048.4715576171875
932;1048.2646484375
933;1048.0577392578125
934;1047.85107421875
935;1047.6444091796875
936;1047.437744140625
937;1047.231201171875
938;1047.0247802734375
939;1046.8182373046875
940;1046.61181640625
941;1046.4056396484375
942;1046.1993408203125
943;1045.9932861328125
944;1045.787109375
945;1045.5811767578125
946;1045.375244140625
947;1045.16943359375
948;1044.963623046875
949;1044.7579345703125
950;1044.55224609375
951;1044.3466796875
952;1044.1412353515625
953;1043.9359130859375
954;1043.7303466796875
955;1043.5250244140625
956;1043.31982421875
957;1043.11474609375
958;1042.9095458984375
959;1042.70458984375
960;1042.49951171875
961;1042.294677734375
962;1042.0899658203125
963;1041.88525390625
964;1041.6805419921875
965;1041.475830078125
966;1041.271240234375
967;1041.0667724609375
968;1040.8624267578125
969;1040.657958984375
970;1040.45361328125
971;1040.2493896484375
972;1040.04541015625
973;1039.8411865234375
974;1039.6370849609375
975;1039.43310546875
976;1039.2291259765625
977;1039.025390625
978;1038.821533203125
979;1038.617919921875
980;1038.4141845703125
981;1038.21044921875
982;1038.007080078125
983;1037.8035888671875
984;1037.6002197265625
985;1037.39697265625
986;1037.193603515625
987;1036.9903564453125
988;1036.7872314453125
989;1036.5841064453125
990;1036.3812255859375
991;1036.17822265625
992;1035.9752197265625
993;1035.7724609375
994;1035.5697021484375
995;1035.3670654296875
996;1035.16455078125
997;1034.9615478515625
998;1034.75927734375
999;1034.5567626953125
1000;1034.3541259765625
1001;1034.1519775390625
1002;1033.94970703125
1003;1033.7474365234375
1004;1033.5452880859375
1005;1033.3431396484375
1006;1033.14111328125
1007;1032.939208984375
1008;1032.7373046875
1009;1032.535400390625
1010;1032.333740234375
1011;1032.1318359375
1012;1031.93017578125
1013;1031.7286376953125
1014;1031.527099609375
1015;1031.32568359375
1016;1031.124267578125
1017;1030.9229736328125
1018;1030.7216796875
1019;1030.5203857421875
1020;1030.3192138671875
1021;1030.1180419921875
1022;1029.9171142578125
1023;1029.716064453125
1024;1029.5150146484375
1025;1029.3143310546875
1026;1029.113525390625
1027;1028.91259765625
1028;1028.7120361328125
1029;1028.51123046875
1030;1028.310791015625
1031;1028.1103515625
1032;1027.9097900390625
1033;1027.70947265625
1034;1027.5091552734375
1035;1027.308837890625
1036;1027.1087646484375
1037;1026.9085693359375
1038;1026.70849609375
1039;1026.5084228515625
1040;1026.308349609375
1041;1026.1085205078125
1042;1025.90869140625
1043;1025.7088623046875
1044;1025.5091552734375
1045;1025.309326171875
1046;1025.10986328125
1047;1024.91015625
1048;1024.710693359375
1049;1024.5113525390625
1050;1024.3118896484375
1051;1024.1126708984375
1052;1023.913330078125
1053;1023.714111328125
1054;1023.5150756835938
1055;1023.3159790039062
1056;1023.1168823242188
1057;1022.91796875
1058;1022.718994140625
1059;1022.5202026367188
1060;1022.3214111328125
1061;1022.1226196289062
1062;1021.923828125
1063;1021.7251586914062
1064;1021.5266723632812
1065;1021.328125
1066;1021.129638671875
1067;1020.9312133789062
1068;1020.7328491210938
1069;1020.5344848632812
1070;1020.3363647460938
1071;1020.1381225585938
1072;1019.9400024414062
1073;1019.741943359375
1074;1019.5439453125
1075;1019.345947265625
1076;1019.1480102539062
1077;1018.9500732421875
1078;1018.7523803710938
1079;1018.554443359375
1080;1018.3567504882812
1081;1018.1590576171875
1082;1017.961669921875
1083;1017.7639770507812
1084;1017.5665283203125
1085;1017.369140625
1086;1017.171875
1087;1016.9744873046875
1088;1016.777099609375
1089;1016.5799560546875
1090;1016.3829345703125
1091;1016.1858520507812
1092;1015.9885864257812
1093;1015.7916870117188
1094;1015.5948486328125
1095;1015.3977661132812
1096;1015.200927734375
1097;1015.0042114257812
1098;1014.8074951171875
1099;1014.6107788085938
1100;1014.4141845703125
1101;1014.217529296875
1102;1014.0211791992188
1103;1013.8246459960938
1104;1013.628173828125
1105;1013.431884765625
1106;1013.235595703125
1107;1013.0393676757812
1108;1012.8430786132812
1109;1012.6470336914062
1110;1012.4508666992188
1111;1012.2547607421875
1112;1012.058837890625
1113;1011.8629760742188
1114;1011.6669921875
1115;1011.4712524414062
1116;1011.2755126953125
1117;1011.0797729492188
1118;1010.884033203125
1119;1010.6884765625
1120;1010.4928588867188
1121;1010.2974243164062
1122;1010.1018676757812
1123;1009.9065551757812
1124;1009.711181640625
1125;1009.5157470703125
1126;1009.320556640625
1127;1009.1253051757812
1128;1008.9301147460938
1129;1008.7350463867188
1130;1008.5399169921875
1131;1008.3448486328125
1132;1008.1499633789062
1133;1007.955078125
1134;1007.7601928710938
1135;1007.5654296875
1136;1007.3705444335938
1137;1007.17578125
1138;1006.9811401367188
1139;1006.7865600585938
1140;1006.592041015625
1141;1006.3974609375
1142;1006.2030029296875
1143;1006.0086669921875
1144;1005.814208984375
1145;1005.6199951171875
1146;1005.42578125
1147;1005.2315673828125
1148;1005.037353515625
1149;1004.8430786132812
1150;1004.649169921875
1151;1004.4552001953125
1152;1004.2611694335938
1153;1004.0673828125
1154;1003.8734741210938
1155;1003.6796875
1156;1003.4859008789062
1157;1003.292236328125
1158;1003.0985107421875
1159;1002.9048461914062
1160;1002.7112426757812
1161;1002.517822265625
1162;1002.32421875
1163;1002.130859375
1164;1001.9373779296875
1165;1001.7440185546875
1166;1001.55078125
1167;1001.357666015625
1168;1001.164306640625
1169;1000.9713745117188
1170;1000.7781982421875
1171;1000.585205078125
1172;1000.3921508789062
1173;1000.19921875
1174;1000.0062866210938
1175;999.8133544921875
1176;999.6205444335938
1177;999.4278564453125
1178;999.235107421875
1179;999.0425415039062
1180;998.8500366210938
1181;998.6573486328125
1182;998.46484375
1183;998.2723388671875
1184;998.0799560546875
1185;997.8876953125
1186;997.6953125
1187;997.5030517578125
1188;997.310791015625
1189;997.1187133789062
1190;996.9266357421875
1191;996.7344970703125
1192;996.5424194335938
1193;996.3504638671875
1194;996.1585083007812
1195;995.966796875
1196;995.7748413085938
1197;995.5830078125
1198;995.391357421875
1199;995.1995239257812
1200;995.008056640625
1201;994.8162841796875
1202;994.6248779296875
1203;994.4331665039062
1204;994.2417602539062
1205;994.0503540039062
1206;993.8588256835938
1207;993.6675415039062
1208;993.4762573242188
1209;993.284912109375
1210;993.0938720703125
1211;992.9027709960938
1212;992.7116088867188
1213;992.5206298828125
1214;992.3295288085938
1215;992.1385498046875
1216;991.9475708007812
1217;991.7567138671875
1218;991.5658569335938
1219;991.375
1220;991.184326171875
1221;990.9935913085938
1222;990.802978515625
1223;990.6123046875
1224;990.4217529296875
1225;990.231201171875
1226;990.0407104492188
1227;989.8502807617188
1228;989.659912109375
1229;989.469482421875
1230;989.279296875
1231;989.089111328125
1232;988.8987426757812
1233;988.708740234375
1234;988.5185546875
1235;988.3285522460938
1236;988.138427734375
1237;987.9485473632812
1238;987.758544921875
1239;987.5687866210938
1240;987.37890625
1241;987.1891479492188
1242;986.9994506835938
1243;986.8096923828125
1244;986.6199951171875
1245;986.4303588867188
1246;986.2406616210938
1247;986.0512084960938
1248;985.8616333007812
1249;985.6723022460938
1250;985.4828491210938
1251;985.2935180664062
1252;985.1040649414062
1253;984.9149169921875
1254;984.7257080078125
1255;984.536376953125
1256;984.3472290039062
1257;984.158203125
1258;983.9691772460938
1259;983.7801513671875
1260;983.5912475585938
1261;983.402099609375
1262;983.2133178710938
1263;983.0242919921875
1264;982.835693359375
1265;982.6469116210938
1266;982.4581298828125
1267;982.2696533203125
1268;982.0809326171875
1269;981.892333984375
1270;981.7037963867188
1271;981.5151977539062
1272;981.3268432617188
1273;981.1383666992188
1274;980.9500732421875
1275;980.76171875
1276;980.573486328125
1277;980.3851928710938
1278;980.1969604492188
1279;980.0087890625
1280;979.8206176757812
1281;979.632568359375
1282;979.444580078125
1283;979.2565307617188
1284;979.0686645507812
1285;978.8807373046875
1286;978.6929321289062
1287;978.505126953125
1288;978.3172607421875
1289;978.1295776367188
1290;977.9418334960938
1291;977.7542114257812
1292;977.5665283203125
1293;977.3790283203125
1294;977.191650390625
1295;977.0040283203125
1296;976.8165283203125
1297;976.629150390625
1298;976.4417114257812
1299;976.2544555664062
1300;976.067138671875
1301;975.8800048828125
1302;975.6928100585938
1303;975.505615234375
1304;975.3184814453125
1305;975.1314086914062
1306;974.9443359375
1307;974.7573852539062
1308;974.5704345703125
1309;974.383544921875
1310;974.1965942382812
1311;974.0098876953125
1312;973.8231201171875
1313;973.6364135742188
1314;973.4496459960938
1315;973.2630004882812
1316;973.076416015625
1317;972.8897705078125
1318;972.703369140625
1319;972.5167236328125
1320;972.3303833007812
1321;972.1439819335938
1322;971.9575805664062
1323;971.7711791992188
1324;971.5849609375
1325;971.398681640625
1326;971.2124633789062
1327;971.0263671875
1328;970.8402709960938
1329;970.654052734375
1330;970.4680786132812
1331;970.281982421875
1332;970.0961303710938
1333;969.9102783203125
1334;969.724365234375
1335;969.5383911132812
1336;969.3526611328125
1337;969.1668701171875
1338;968.9811401367188
1339;968.7954711914062
1340;968.6098022460938
1341;968.4242553710938
1342;968.2387084960938
1343;968.0531616210938
1344;967.8676147460938
1345;967.6821899414062
1346;967.4967651367188
1347;967.3114013671875
1348;967.1260986328125
1349;966.9407348632812
1350;966.7555541992188
1351;966.5704345703125
1352;966.3851928710938
1353;966.2000732421875
1354;966.0149536132812
1355;965.8299560546875
1356;965.6449584960938
1357;965.4599609375
1358;965.275146484375
1359;965.0902709960938
1360;964.9053955078125
1361;964.7205810546875
1362;964.5357055664062
1363;964.3511352539062
1364;964.1663208007812
1365;963.981689453125
1366;963.797119140625
1367;963.612548828125
1368;963.427978515625
1369;963.243408203125
1370;963.0590209960938
1371;962.8745727539062
1372;962.690185546875
1373;962.505859375
1374;962.321533203125
1375;962.1371459960938
1376;961.9530029296875
1377;961.768798828125
1378;961.5846557617188
1379;961.4005126953125
1380;961.2163696289062
1381;961.0322265625
1382;960.848388671875
1383;960.664306640625
1384;960.4803466796875
1385;960.2965698242188
1386;960.1126098632812
1387;959.9288330078125
1388;959.7449951171875
1389;959.561279296875
1390;959.3776245117188
1391;959.1940307617188
1392;959.0104370117188
1393;958.8267211914062
1394;958.6431274414062
1395;958.4596557617188
1396;958.2762451171875
1397;958.0926513671875
1398;957.9093017578125
1399;957.7258911132812
1400;957.5426635742188
1401;957.359375
1402;957.1760864257812
1403;956.992919921875
1404;956.809814453125
1405;956.6266479492188
1406;956.443359375
1407;956.2604370117188
1408;956.077392578125
1409;955.894287109375
1410;955.7113647460938
1411;955.5284423828125
1412;955.3455810546875
1413;955.1627807617188
1414;954.9799194335938
1415;954.7971801757812
1416;954.6143798828125
1417;954.4317626953125
1418;954.2491455078125
1419;954.0665283203125
1420;953.8839111328125
1421;953.701416015625
1422;953.5188598632812
1423;953.3364868164062
1424;953.154052734375
1425;952.9715576171875
1426;952.7891845703125
1427;952.6069946289062
1428;952.4246826171875
1429;952.242431640625
1430;952.0602416992188
1431;951.8780517578125
1432;951.6959838867188
1433;951.513916015625
1434;951.331787109375
1435;951.1497192382812
1436;950.9676513671875
1437;950.7858276367188
1438;950.6038208007812
1439;950.4219970703125
1440;950.2401123046875
1441;950.058349609375
1442;949.8765258789062
1443;949.6947631835938
1444;949.5131225585938
1445;949.3314819335938
1446;949.1499633789062
1447;948.9683227539062
1448;948.7868041992188
1449;948.6051635742188
1450;948.423828125
1451;948.2423095703125
1452;948.0608520507812
1453;947.8794555664062
1454;947.6982421875
1455;947.516845703125
1456;947.3356323242188
1457;947.1544189453125
1458;946.9730834960938
1459;946.7919921875
1460;946.6109008789062
1461;946.4298095703125
1462;946.2487182617188
1463;946.0676879882812
1464;945.88671875
1465;945.7057495117188
1466;945.5249633789062
1467;945.3440551757812
1468;945.1632080078125
1469;944.9822998046875
1470;944.8016357421875
1471;944.6209716796875
1472;944.4403076171875
1473;944.259521484375
1474;944.0791015625
1475;943.8984375
1476;943.7178955078125
1477;943.5374145507812
1478;943.3568725585938
1479;943.1764526367188
1480;942.9959716796875
1481;942.815673828125
1482;942.6353149414062
1483;942.4549560546875
1484;942.2747192382812
1485;942.094482421875
1486;941.914306640625
1487;941.734130859375
1488;941.5540161132812
1489;941.3739013671875
1490;941.1939086914062
1491;941.0137939453125
1492;940.8338623046875
1493;940.6538696289062
1494;940.4739379882812
1495;940.294189453125
1496;940.1142578125
1497;939.9344482421875
1498;939.754638671875
1499;939.574951171875
1500;939.395263671875
1501;939.215576171875
1502;939.035888671875
1503;938.8564453125
1504;938.6768798828125
1505;938.497314453125
1506;938.3178100585938
1507;938.1383666992188
1508;937.9588623046875
1509;937.779541015625
1510;937.6001586914062
1511;937.4207763671875
1512;937.2415161132812
1513;937.062255859375
1514;936.883056640625
1515;936.7037963867188
1516;936.524658203125
1517;936.3455810546875
1518;936.1664428710938
1519;935.9874267578125
1520;935.808349609375
1521;935.6294555664062
1522;935.4505004882812
1523;935.2716064453125
1524;935.0926513671875
1525;934.913818359375
1526;934.7349243164062
1527;934.5562133789062
1528;934.3775024414062
1529;934.1986694335938
1530;934.0200805664062
1531;933.8413696289062
1532;933.6627807617188
1533;933.484130859375
1534;933.3056640625
1535;933.127197265625
1536;932.9486694335938
1537;932.7702026367188
1538;932.591796875
1539;932.4133911132812
1540;932.235107421875
1541;932.056640625
1542;931.8783569335938
1543;931.7001953125
1544;931.5220336914062
1545;931.3438720703125
1546;931.1657104492188
1547;930.9876098632812
1548;930.8094482421875
1549;930.6315307617188
1550;930.4534301757812
1551;930.275390625
1552;930.0975341796875
1553;929.919677734375
1554;929.7418823242188
1555;929.5639038085938
1556;929.3860473632812
1557;929.2083129882812
1558;929.0305786132812
1559;928.8529663085938
1560;928.6752319335938
1561;928.4976196289062
1562;928.3200073242188
1563;928.1424560546875
1564;927.9649658203125
1565;927.7874145507812
1566;927.6100463867188
1567;927.4324951171875
1568;927.255126953125
1569;927.0776977539062
1570;926.900390625
1571;926.7230834960938
1572;926.5457763671875
1573;926.3684692382812
1574;926.19140625
1575;926.0140991210938
1576;925.8370361328125
1577;925.659912109375
1578;925.4828491210938
1579;925.3057861328125
1580;925.1287841796875
1581;924.9518432617188
1582;924.7748413085938
1583;924.597900390625
1584;924.4210205078125
1585;924.244140625
1586;924.0672607421875
1587;923.8905029296875
1588;923.7137451171875
1589;923.537109375
1590;923.3604736328125
1591;923.183837890625
1592;923.0071411132812
1593;922.8306274414062
1594;922.6539916992188
1595;922.4775390625
1596;922.301025390625
1597;922.1244506835938
1598;921.9481201171875
1599;921.771728515625
1600;921.5952758789062
1601;921.4189453125
1602;921.2426147460938
1603;921.06640625
1604;920.8901977539062
1605;920.7139892578125
1606;920.5377807617188
1607;920.3616333007812
1608;920.185546875
1609;920.009521484375
1610;919.8334350585938
1611;919.657470703125
1612;919.4815673828125
1613;919.3055419921875
1614;919.129638671875
1615;918.9537963867188
1616;918.7778930664062
1617;918.6021118164062
1618;918.4263305664062
1619;918.2505493164062
1620;918.0748901367188
1621;917.899169921875
1622;917.7235107421875
1623;917.5478515625
1624;917.372314453125
1625;917.1968383789062
1626;917.0211791992188
1627;916.845703125
1628;916.6703491210938
1629;916.494873046875
1630;916.3194580078125
1631;916.1441040039062
1632;915.9686279296875
1633;915.7933959960938
1634;915.6180419921875
1635;915.4429321289062
1636;915.2677001953125
1637;915.0924682617188
1638;914.9172973632812
1639;914.7421875
1640;914.567138671875
1641;914.3920288085938
1642;914.217041015625
1643;914.0421142578125
1644;913.866943359375
1645;913.6920776367188
1646;913.5171508789062
1647;913.3422241210938
1648;913.1672973632812
1649;912.9926147460938
1650;912.8178100585938
1651;912.6431274414062
1652;912.4684448242188
1653;912.293701171875
1654;912.1190185546875
1655;911.9443359375
1656;911.7698364257812
1657;911.5952758789062
1658;911.420654296875
1659;911.24609375
1660;911.0715942382812
1661;910.897216796875
1662;910.722900390625
1663;910.5485229492188
1664;910.3741455078125
1665;910.1998291015625
1666;910.0255126953125
1667;909.851318359375
1668;909.6770629882812
1669;909.5028686523438
1670;909.3287353515625
1671;909.154541015625
1672;908.9805297851562
1673;908.806396484375
1674;908.6323852539062
1675;908.4584350585938
1676;908.2843627929688
1677;908.1104125976562
1678;907.9365234375
1679;907.7626953125
1680;907.5888061523438
1681;907.4149780273438
1682;907.2412109375
1683;907.0675048828125
1684;906.8936767578125
1685;906.719970703125
1686;906.5463256835938
1687;906.3726196289062
1688;906.1990966796875
1689;906.0254516601562
1690;905.8519897460938
1691;905.678466796875
1692;905.5048828125
1693;905.3314208984375
1694;905.1580200195312
1695;904.9846801757812
1696;904.811279296875
1697;904.637939453125
1698;904.4646606445312
1699;904.2913208007812
1700;904.1181640625
1701;903.9448852539062
1702;903.7717895507812
1703;903.5985717773438
1704;903.4254760742188
1705;903.2523803710938
1706;903.079345703125
1707;902.9063110351562
1708;902.7332153320312
1709;902.560302734375
1710;902.387451171875
1711;902.2144165039062
1712;902.0416259765625
1713;901.8687133789062
1714;901.6958618164062
1715;901.5231323242188
1716;901.350341796875
1717;901.1775512695312
1718;901.0048828125
1719;900.8322143554688
1720;900.6594848632812
1721;900.4869384765625
1722;900.3143920898438
1723;900.141845703125
1724;899.9692993164062
1725;899.7967529296875
1726;899.624267578125
1727;899.451904296875
1728;899.279541015625
1729;899.107177734375
1730;898.934814453125
1731;898.762451171875
1732;898.590087890625
1733;898.4178466796875
1734;898.2456665039062
1735;898.073486328125
1736;897.9012451171875
1737;897.7290649414062
1738;897.5569458007812
1739;897.3848876953125
1740;897.212890625
1741;897.040771484375
1742;896.8687744140625
1743;896.6968994140625
1744;896.5248413085938
1745;896.35302734375
1746;896.1810913085938
1747;896.00927734375
1748;895.83740234375
1749;895.6656494140625
1750;895.493896484375
1751;895.3221435546875
1752;895.150390625
1753;894.978759765625
1754;894.8070678710938
1755;894.635498046875
1756;894.4639282226562
1757;894.2922973632812
1758;894.120849609375
1759;893.9493408203125
1760;893.7778930664062
1761;893.6064453125
1762;893.43505859375
1763;893.2635498046875
1764;893.0923461914062
1765;892.9210205078125
1766;892.7496948242188
1767;892.5784301757812
1768;892.4072875976562
1769;892.2360229492188
1770;892.0648193359375
1771;891.8936157226562
1772;891.7225341796875
1773;891.551513671875
1774;891.38037109375
1775;891.2094116210938
1776;891.0384521484375
1777;890.867431640625
1778;890.6964721679688
1779;890.5255737304688
1780;890.354736328125
1781;890.183837890625
1782;890.012939453125
1783;889.8421020507812
1784;889.6713256835938
1785;889.5006713867188
1786;889.3299560546875
1787;889.1593017578125
1788;888.9885864257812
1789;888.8179321289062
1790;888.6473999023438
1791;888.476806640625
1792;888.3062744140625
1793;888.1358032226562
1794;887.96533203125
1795;887.7948608398438
1796;887.6244506835938
1797;887.4541015625
1798;887.2837524414062
1799;887.1134033203125
1800;886.943115234375
1801;886.7727661132812
1802;886.6026000976562
1803;886.4323120117188
1804;886.2621459960938
1805;886.0919799804688
1806;885.9218139648438
1807;885.751708984375
1808;885.5817260742188
1809;885.4115600585938
1810;885.2415771484375
1811;885.071533203125
1812;884.9015502929688
1813;884.7317504882812
1814;884.561767578125
1815;884.3919067382812
1816;884.2221069335938
1817;884.05224609375
1818;883.882568359375
1819;883.712646484375
1820;883.54296875
1821;883.3732299804688
1822;883.2035522460938
1823;883.033935546875
1824;882.8643188476562
1825;882.6947631835938
1826;882.525146484375
1827;882.3556518554688
1828;882.1860961914062
1829;882.0166625976562
1830;881.84716796875
1831;881.6777954101562
1832;881.5084228515625
1833;881.3390502929688
1834;881.169677734375
1835;881.0003051757812
1836;880.8311157226562
1837;880.661865234375
1838;880.4924926757812
1839;880.3234252929688
1840;880.1541748046875
1841;879.9850463867188
1842;879.8159790039062
1843;879.6468505859375
1844;879.4778442382812
1845;879.308837890625
1846;879.1397705078125
1847;878.9708251953125
1848;878.8018188476562
1849;878.6328735351562
1850;878.4639892578125
1851;878.295166015625
1852;878.1262817382812
1853;877.95751953125
1854;877.7886962890625
1855;877.6200561523438
1856;877.4512329101562
1857;877.2825927734375
1858;877.1139526367188
1859;876.9452514648438
1860;876.7766723632812
1861;876.6080932617188
1862;876.439453125
1863;876.2709350585938
1864;876.1024169921875
1865;875.9340209960938
1866;875.7655029296875
1867;875.5970458984375
1868;875.4287109375
1869;875.2603759765625
1870;875.092041015625
1871;874.9236450195312
1872;874.75537109375
1873;874.5870971679688
1874;874.4190063476562
1875;874.250732421875
1876;874.08251953125
1877;873.9143676757812
1878;873.7462768554688
1879;873.5781860351562
1880;873.4100341796875
1881;873.2420654296875
1882;873.0740356445312
1883;872.9061279296875
1884;872.7381591796875
1885;872.5701904296875
1886;872.4022827148438
1887;872.2344360351562
1888;872.066650390625
1889;871.8987426757812
1890;871.73095703125
1891;871.563232421875
1892;871.3955078125
1893;871.227783203125
1894;871.0601196289062
1895;870.8924560546875
1896;870.724853515625
1897;870.5571899414062
1898;870.3895874023438
1899;870.2220458984375
1900;870.0545043945312
1901;869.886962890625
1902;869.719482421875
1903;869.5521240234375
1904;869.3847045898438
1905;869.2173461914062
1906;869.050048828125
1907;868.8826293945312
1908;868.7153930664062
1909;868.548095703125
1910;868.380859375
1911;868.213623046875
1912;868.0464477539062
1913;867.8792724609375
1914;867.712158203125
1915;867.5450439453125
1916;867.3779296875
1917;867.2108764648438
1918;867.0438232421875
1919;866.8767700195312
1920;866.7098388671875
1921;866.5429077148438
1922;866.3759765625
1923;866.208984375
1924;866.042236328125
1925;865.8753051757812
1926;865.7085571289062
1927;865.5416870117188
1928;865.3749389648438
1929;865.2081909179688
1930;865.04150390625
1931;864.874755859375
1932;864.708251953125
1933;864.5416259765625
1934;864.375
1935;864.2083740234375
1936;864.0418090820312
1937;863.8753662109375
1938;863.708740234375
1939;863.5422973632812
1940;863.3759765625
1941;863.20947265625
1942;863.0430908203125
1943;862.876708984375
1944;862.7105102539062
1945;862.5441284179688
1946;862.3778076171875
1947;862.2116088867188
1948;862.0453491210938
1949;861.879150390625
1950;861.7130126953125
1951;861.546875
1952;861.3806762695312
1953;861.214599609375
1954;861.048583984375
1955;860.882568359375
1956;860.716552734375
1957;860.550537109375
1958;860.3845825195312
1959;860.2186889648438
1960;860.0527954101562
1961;859.8869018554688
1962;859.7210693359375
1963;859.5552368164062
1964;859.389404296875
1965;859.2235717773438
1966;859.057861328125
1967;858.89208984375
1968;858.726318359375
1969;858.560791015625
1970;858.3952026367188
1971;858.2295532226562
1972;858.0639038085938
1973;857.8983154296875
1974;857.7328491210938
1975;857.5673217773438
1976;857.4017944335938
1977;857.236328125
1978;857.0709838867188
1979;856.9054565429688
1980;856.7400512695312
1981;856.5748291015625
1982;856.409423828125
1983;856.2440795898438
1984;856.078857421875
1985;855.91357421875
1986;855.7483520507812
1987;855.5831298828125
1988;855.41796875
1989;855.2527465820312
1990;855.087646484375
1991;854.9225463867188
1992;854.757568359375
1993;854.592529296875
1994;854.4274291992188
1995;854.262451171875
1996;854.0974731445312
1997;853.9326171875
1998;853.7676391601562
1999;853.602783203125
