;loss
0;1302.3880615234375
1;1302.2296142578125
2;1302.0465087890625
3;1301.8331298828125
4;1301.6328125
5;1301.419189453125
6;1301.2056884765625
7;1300.996337890625
8;1300.7823486328125
9;1300.5703125
10;1300.355712890625
11;1300.140380859375
12;1299.9249267578125
13;1299.709228515625
14;1299.493408203125
15;1299.276123046875
16;1299.0596923828125
17;1298.841552734375
18;1298.624755859375
19;1298.407958984375
20;1298.190673828125
21;1297.973388671875
22;1297.7557373046875
23;1297.535400390625
24;1297.3145751953125
25;1297.0936279296875
26;1296.8721923828125
27;1296.650390625
28;1296.4307861328125
29;1296.2083740234375
30;1295.9854736328125
31;1295.7646484375
32;1295.5433349609375
33;1295.321533203125
34;1295.099365234375
35;1294.8739013671875
36;1294.650390625
37;1294.4237060546875
38;1294.1986083984375
39;1293.970703125
40;1293.7442626953125
41;1293.5147705078125
42;1293.2843017578125
43;1293.055419921875
44;1292.8231201171875
45;1292.5904541015625
46;1292.3599853515625
47;1292.126220703125
48;1291.8917236328125
49;1291.65625
50;1291.4219970703125
51;1291.1846923828125
52;1290.9464111328125
53;1290.7091064453125
54;1290.46875
55;1290.227294921875
56;1289.986572265625
57;1289.7430419921875
58;1289.499755859375
59;1289.260009765625
60;1289.021484375
61;1288.781982421875
62;1288.539794921875
63;1288.298583984375
64;1288.054443359375
65;1287.8111572265625
66;1287.565185546875
67;1287.3197021484375
68;1287.071533203125
69;1286.8240966796875
70;1286.5753173828125
71;1286.3255615234375
72;1286.074462890625
73;1285.820556640625
74;1285.5672607421875
75;1285.310791015625
76;1285.054931640625
77;1284.7960205078125
78;1284.535888671875
79;1284.2760009765625
80;1284.0146484375
81;1283.751708984375
82;1283.4857177734375
83;1283.2198486328125
84;1282.9510498046875
85;1282.6807861328125
86;1282.4091796875
87;1282.1358642578125
88;1281.8626708984375
89;1281.5863037109375
90;1281.30859375
91;1281.0306396484375
92;1280.7498779296875
93;1280.46875
94;1280.186279296875
95;1279.9019775390625
96;1279.6160888671875
97;1279.3270263671875
98;1279.0364990234375
99;1278.744140625
100;1278.4500732421875
101;1278.1558837890625
102;1277.859619140625
103;1277.5604248046875
104;1277.259521484375
105;1276.9578857421875
106;1276.654541015625
107;1276.3482666015625
108;1276.0411376953125
109;1275.732177734375
110;1275.4215087890625
111;1275.1087646484375
112;1274.792724609375
113;1274.4759521484375
114;1274.1561279296875
115;1273.8353271484375
116;1273.5128173828125
117;1273.1881103515625
118;1272.861328125
119;1272.5325927734375
120;1272.2015380859375
121;1271.8685302734375
122;1271.5333251953125
123;1271.196044921875
124;1270.8551025390625
125;1270.5118408203125
126;1270.166259765625
127;1269.8209228515625
128;1269.4715576171875
129;1269.1199951171875
130;1268.7659912109375
131;1268.4111328125
132;1268.0535888671875
133;1267.693603515625
134;1267.3304443359375
135;1266.9649658203125
136;1266.598388671875
137;1266.2279052734375
138;1265.85546875
139;1265.48046875
140;1265.1041259765625
141;1264.7252197265625
142;1264.3436279296875
143;1263.959228515625
144;1263.5711669921875
145;1263.181640625
146;1262.7882080078125
147;1262.3931884765625
148;1261.994384765625
149;1261.593994140625
150;1261.189697265625
151;1260.7916259765625
152;1260.396240234375
153;1259.9979248046875
154;1259.5987548828125
155;1259.197998046875
156;1258.793701171875
157;1258.3887939453125
158;1257.981689453125
159;1257.5712890625
160;1257.1588134765625
161;1256.743896484375
162;1256.328125
163;1255.9088134765625
164;1255.4871826171875
165;1255.064453125
166;1254.650634765625
167;1254.2388916015625
168;1253.825927734375
169;1253.4129638671875
170;1252.9986572265625
171;1252.5833740234375
172;1252.1671142578125
173;1251.749267578125
174;1251.329833984375
175;1250.908935546875
176;1250.4876708984375
177;1250.0635986328125
178;1249.639404296875
179;1249.2137451171875
180;1248.787109375
181;1248.3575439453125
182;1247.9273681640625
183;1247.494384765625
184;1247.060546875
185;1246.625
186;1246.1864013671875
187;1245.745849609375
188;1245.3031005859375
189;1244.8585205078125
190;1244.4130859375
191;1243.9654541015625
192;1243.5145263671875
193;1243.0633544921875
194;1242.6124267578125
195;1242.1710205078125
196;1241.7283935546875
197;1241.284912109375
198;1240.840087890625
199;1240.3951416015625
200;1239.948486328125
201;1239.508056640625
202;1239.076904296875
203;1238.6453857421875
204;1238.2135009765625
205;1237.781005859375
206;1237.3486328125
207;1236.9156494140625
208;1236.4815673828125
209;1236.0479736328125
210;1235.6129150390625
211;1235.1767578125
212;1234.739501953125
213;1234.3011474609375
214;1233.8619384765625
215;1233.4210205078125
216;1232.9788818359375
217;1232.5364990234375
218;1232.0926513671875
219;1231.6470947265625
220;1231.2001953125
221;1230.7508544921875
222;1230.2998046875
223;1229.8470458984375
224;1229.392578125
225;1228.9364013671875
226;1228.4783935546875
227;1228.019287109375
228;1227.55859375
229;1227.095703125
230;1226.6300048828125
231;1226.163330078125
232;1225.694580078125
233;1225.2237548828125
234;1224.7508544921875
235;1224.275634765625
236;1223.797607421875
237;1223.3172607421875
238;1222.836181640625
239;1222.3555908203125
240;1221.873046875
241;1221.388427734375
242;1220.9010009765625
243;1220.412109375
244;1219.9202880859375
245;1219.4271240234375
246;1218.931884765625
247;1218.433349609375
248;1217.9324951171875
249;1217.429443359375
250;1216.9248046875
251;1216.4188232421875
252;1215.9140625
253;1215.406494140625
254;1214.8968505859375
255;1214.3858642578125
256;1213.872802734375
257;1213.3575439453125
258;1212.83984375
259;1212.3197021484375
260;1211.7974853515625
261;1211.2728271484375
262;1210.746337890625
263;1210.2166748046875
264;1209.6845703125
265;1209.150146484375
266;1208.613037109375
267;1208.07421875
268;1207.5330810546875
269;1206.989013671875
270;1206.4423828125
271;1205.8939208984375
272;1205.3468017578125
273;1204.807861328125
274;1204.270751953125
275;1203.7315673828125
276;1203.1915283203125
277;1202.650390625
278;1202.1087646484375
279;1201.5657958984375
280;1201.0240478515625
281;1200.482177734375
282;1199.939208984375
283;1199.394775390625
284;1198.8480224609375
285;1198.300048828125
286;1197.7503662109375
287;1197.198974609375
288;1196.647705078125
289;1196.0948486328125
290;1195.5401611328125
291;1194.9840087890625
292;1194.4261474609375
293;1193.8671875
294;1193.317138671875
295;1192.7703857421875
296;1192.223388671875
297;1191.6805419921875
298;1191.1400146484375
299;1190.5985107421875
300;1190.0594482421875
301;1189.521240234375
302;1188.983154296875
303;1188.4459228515625
304;1187.9088134765625
305;1187.370849609375
306;1186.833740234375
307;1186.296142578125
308;1185.7652587890625
309;1185.259033203125
310;1184.7547607421875
311;1184.252197265625
312;1183.752197265625
313;1183.2529296875
314;1182.7552490234375
315;1182.258544921875
316;1181.7625732421875
317;1181.2669677734375
318;1180.7734375
319;1180.2835693359375
320;1179.795166015625
321;1179.3067626953125
322;1178.819580078125
323;1178.332275390625
324;1177.845458984375
325;1177.3587646484375
326;1176.872802734375
327;1176.3873291015625
328;1175.9029541015625
329;1175.4180908203125
330;1174.933349609375
331;1174.449462890625
332;1173.9659423828125
333;1173.4825439453125
334;1172.9990234375
335;1172.5157470703125
336;1172.0323486328125
337;1171.549072265625
338;1171.0657958984375
339;1170.58203125
340;1170.09814453125
341;1169.61474609375
342;1169.130859375
343;1168.6474609375
344;1168.163330078125
345;1167.6793212890625
346;1167.195556640625
347;1166.7113037109375
348;1166.2276611328125
349;1165.74365234375
350;1165.260009765625
351;1164.7767333984375
352;1164.2950439453125
353;1163.817626953125
354;1163.3426513671875
355;1162.8677978515625
356;1162.393310546875
357;1161.918701171875
358;1161.4443359375
359;1160.9708251953125
360;1160.4974365234375
361;1160.0244140625
362;1159.5513916015625
363;1159.077880859375
364;1158.6044921875
365;1158.147705078125
366;1157.694580078125
367;1157.2437744140625
368;1156.7940673828125
369;1156.3455810546875
370;1155.898193359375
371;1155.452392578125
372;1155.0078125
373;1154.5643310546875
374;1154.12109375
375;1153.6785888671875
376;1153.2371826171875
377;1152.7957763671875
378;1152.35546875
379;1151.9150390625
380;1151.4771728515625
381;1151.0396728515625
382;1150.602294921875
383;1150.1656494140625
384;1149.7288818359375
385;1149.2928466796875
386;1148.8587646484375
387;1148.4251708984375
388;1147.9930419921875
389;1147.561279296875
390;1147.130615234375
391;1146.7003173828125
392;1146.271484375
393;1145.8436279296875
394;1145.416259765625
395;1144.989501953125
396;1144.5626220703125
397;1144.1368408203125
398;1143.711181640625
399;1143.2862548828125
400;1142.863037109375
401;1142.440673828125
402;1142.019287109375
403;1141.5985107421875
404;1141.1806640625
405;1140.762939453125
406;1140.3458251953125
407;1139.92919921875
408;1139.5133056640625
409;1139.097900390625
410;1138.6871337890625
411;1138.2777099609375
412;1137.8690185546875
413;1137.461181640625
414;1137.0543212890625
415;1136.6502685546875
416;1136.246337890625
417;1135.843505859375
418;1135.4405517578125
419;1135.0384521484375
420;1134.636474609375
421;1134.2349853515625
422;1133.8338623046875
423;1133.433349609375
424;1133.0330810546875
425;1132.6405029296875
426;1132.2506103515625
427;1131.861572265625
428;1131.47265625
429;1131.0845947265625
430;1130.6968994140625
431;1130.3104248046875
432;1129.9251708984375
433;1129.54052734375
434;1129.158203125
435;1128.776611328125
436;1128.3956298828125
437;1128.015625
438;1127.6365966796875
439;1127.2586669921875
440;1126.8814697265625
441;1126.5042724609375
442;1126.127685546875
443;1125.751708984375
444;1125.3760986328125
445;1125.001220703125
446;1124.6270751953125
447;1124.2540283203125
448;1123.880859375
449;1123.5084228515625
450;1123.1365966796875
451;1122.7691650390625
452;1122.4095458984375
453;1122.051513671875
454;1121.6944580078125
455;1121.3389892578125
456;1120.98486328125
457;1120.6318359375
458;1120.2796630859375
459;1119.9285888671875
460;1119.5784912109375
461;1119.2291259765625
462;1118.880126953125
463;1118.531982421875
464;1118.1846923828125
465;1117.838134765625
466;1117.4918212890625
467;1117.1463623046875
468;1116.8017578125
469;1116.4573974609375
470;1116.1138916015625
471;1115.7708740234375
472;1115.428466796875
473;1115.0860595703125
474;1114.7442626953125
475;1114.4027099609375
476;1114.0618896484375
477;1113.7218017578125
478;1113.3814697265625
479;1113.042236328125
480;1112.7037353515625
481;1112.3660888671875
482;1112.028564453125
483;1111.692138671875
484;1111.356689453125
485;1111.0213623046875
486;1110.6866455078125
487;1110.3524169921875
488;1110.0186767578125
489;1109.6849365234375
490;1109.3519287109375
491;1109.0191650390625
492;1108.687744140625
493;1108.3568115234375
494;1108.0269775390625
495;1107.697265625
496;1107.3675537109375
497;1107.0384521484375
498;1106.709716796875
499;1106.38134765625
500;1106.053466796875
501;1105.7257080078125
502;1105.3985595703125
503;1105.0716552734375
504;1104.7451171875
505;1104.4190673828125
506;1104.0938720703125
507;1103.768798828125
508;1103.444580078125
509;1103.1219482421875
510;1102.799560546875
511;1102.4776611328125
512;1102.15625
513;1101.8367919921875
514;1101.5179443359375
515;1101.1995849609375
516;1100.8817138671875
517;1100.5770263671875
518;1100.2742919921875
519;1099.97265625
520;1099.671875
521;1099.3721923828125
522;1099.0738525390625
523;1098.776123046875
524;1098.4793701171875
525;1098.183349609375
526;1097.887939453125
527;1097.59326171875
528;1097.300048828125
529;1097.0081787109375
530;1096.71728515625
531;1096.4268798828125
532;1096.1370849609375
533;1095.847900390625
534;1095.5592041015625
535;1095.2706298828125
536;1094.982666015625
537;1094.6951904296875
538;1094.408203125
539;1094.1217041015625
540;1093.8353271484375
541;1093.5496826171875
542;1093.264892578125
543;1092.980224609375
544;1092.6959228515625
545;1092.412109375
546;1092.1287841796875
547;1091.8458251953125
548;1091.563232421875
549;1091.28076171875
550;1090.9989013671875
551;1090.72314453125
552;1090.4482421875
553;1090.173828125
554;1089.8997802734375
555;1089.6260986328125
556;1089.3531494140625
557;1089.08056640625
558;1088.8082275390625
559;1088.5362548828125
560;1088.264892578125
561;1087.9937744140625
562;1087.7230224609375
563;1087.4525146484375
564;1087.1822509765625
565;1086.9124755859375
566;1086.642822265625
567;1086.3736572265625
568;1086.104736328125
569;1085.836181640625
570;1085.568115234375
571;1085.3001708984375
572;1085.032470703125
573;1084.765869140625
574;1084.5045166015625
575;1084.2435302734375
576;1083.9832763671875
577;1083.723388671875
578;1083.4642333984375
579;1083.2054443359375
580;1082.947265625
581;1082.6895751953125
582;1082.4320068359375
583;1082.175048828125
584;1081.91845703125
585;1081.6622314453125
586;1081.4063720703125
587;1081.15087890625
588;1080.8956298828125
589;1080.640869140625
590;1080.3861083984375
591;1080.1319580078125
592;1079.8780517578125
593;1079.6243896484375
594;1079.3712158203125
595;1079.118408203125
596;1078.8656005859375
597;1078.6131591796875
598;1078.3609619140625
599;1078.1090087890625
600;1077.857177734375
601;1077.60595703125
602;1077.3548583984375
603;1077.1041259765625
604;1076.8536376953125
605;1076.6033935546875
606;1076.353515625
607;1076.1041259765625
608;1075.854736328125
609;1075.6058349609375
610;1075.357177734375
611;1075.108642578125
612;1074.8603515625
613;1074.6123046875
614;1074.3646240234375
615;1074.1173095703125
616;1073.8699951171875
617;1073.6229248046875
618;1073.376220703125
619;1073.129638671875
620;1072.8834228515625
621;1072.637451171875
622;1072.3917236328125
623;1072.1463623046875
624;1071.901123046875
625;1071.65625
626;1071.4117431640625
627;1071.1673583984375
628;1070.9234619140625
629;1070.679443359375
630;1070.4359130859375
631;1070.192626953125
632;1069.9495849609375
633;1069.7066650390625
634;1069.4637451171875
635;1069.221435546875
636;1068.979248046875
637;1068.7374267578125
638;1068.495849609375
639;1068.2545166015625
640;1068.01318359375
641;1067.7723388671875
642;1067.5316162109375
643;1067.2911376953125
644;1067.0506591796875
645;1066.8104248046875
646;1066.5706787109375
647;1066.3309326171875
648;1066.091552734375
649;1065.8525390625
650;1065.6136474609375
651;1065.375
652;1065.13671875
653;1064.8984375
654;1064.6605224609375
655;1064.4227294921875
656;1064.1851806640625
657;1063.9476318359375
658;1063.7103271484375
659;1063.473388671875
660;1063.2364501953125
661;1063.0001220703125
662;1062.763671875
663;1062.5274658203125
664;1062.291748046875
665;1062.0562744140625
666;1061.8206787109375
667;1061.5855712890625
668;1061.3505859375
669;1061.1158447265625
670;1060.88134765625
671;1060.6470947265625
672;1060.4127197265625
673;1060.1788330078125
674;1059.9449462890625
675;1059.7113037109375
676;1059.477783203125
677;1059.2445068359375
678;1059.011474609375
679;1058.7784423828125
680;1058.545654296875
681;1058.3128662109375
682;1058.0806884765625
683;1057.8482666015625
684;1057.6162109375
685;1057.3841552734375
686;1057.1524658203125
687;1056.9207763671875
688;1056.6893310546875
689;1056.4581298828125
690;1056.2269287109375
691;1055.99609375
692;1055.765380859375
693;1055.5347900390625
694;1055.3043212890625
695;1055.073974609375
696;1054.843994140625
697;1054.6142578125
698;1054.3843994140625
699;1054.15478515625
700;1053.9251708984375
701;1053.696044921875
702;1053.4666748046875
703;1053.2376708984375
704;1053.0089111328125
705;1052.7801513671875
706;1052.5516357421875
707;1052.3232421875
708;1052.094970703125
709;1051.866943359375
710;1051.6390380859375
711;1051.4111328125
712;1051.1834716796875
713;1050.9560546875
714;1050.728759765625
715;1050.501708984375
716;1050.2747802734375
717;1050.0477294921875
718;1049.821044921875
719;1049.594482421875
720;1049.367919921875
721;1049.1417236328125
722;1048.9154052734375
723;1048.689453125
724;1048.463623046875
725;1048.238037109375
726;1048.0125732421875
727;1047.787109375
728;1047.5621337890625
729;1047.3370361328125
730;1047.1121826171875
731;1046.887451171875
732;1046.662841796875
733;1046.4383544921875
734;1046.2139892578125
735;1045.989990234375
736;1045.765869140625
737;1045.5418701171875
738;1045.318115234375
739;1045.0946044921875
740;1044.8709716796875
741;1044.647705078125
742;1044.4246826171875
743;1044.201904296875
744;1043.9793701171875
745;1043.757080078125
746;1043.53515625
747;1043.3128662109375
748;1043.0911865234375
749;1042.8692626953125
750;1042.647705078125
751;1042.4263916015625
752;1042.205078125
753;1041.9837646484375
754;1041.7626953125
755;1041.5419921875
756;1041.3211669921875
757;1041.1004638671875
758;1040.8800048828125
759;1040.6597900390625
760;1040.4395751953125
761;1040.219482421875
762;1039.9998779296875
763;1039.780029296875
764;1039.5604248046875
765;1039.3408203125
766;1039.1214599609375
767;1038.90234375
768;1038.6832275390625
769;1038.4642333984375
770;1038.2452392578125
771;1038.0264892578125
772;1037.8079833984375
773;1037.5894775390625
774;1037.3709716796875
775;1037.152587890625
776;1036.934326171875
777;1036.7161865234375
778;1036.498291015625
779;1036.2803955078125
780;1036.062744140625
781;1035.8450927734375
782;1035.6275634765625
783;1035.4102783203125
784;1035.1929931640625
785;1034.9757080078125
786;1034.7586669921875
787;1034.541748046875
788;1034.3248291015625
789;1034.108154296875
790;1033.891357421875
791;1033.6748046875
792;1033.4583740234375
793;1033.2420654296875
794;1033.02587890625
795;1032.809814453125
796;1032.59375
797;1032.3778076171875
798;1032.162109375
799;1031.9464111328125
800;1031.7314453125
801;1031.5164794921875
802;1031.3018798828125
803;1031.0872802734375
804;1030.8726806640625
805;1030.658203125
806;1030.444091796875
807;1030.2298583984375
808;1030.015869140625
809;1029.802001953125
810;1029.5882568359375
811;1029.374755859375
812;1029.1611328125
813;1028.9478759765625
814;1028.734619140625
815;1028.5216064453125
816;1028.308349609375
817;1028.095458984375
818;1027.882568359375
819;1027.6697998046875
820;1027.4571533203125
821;1027.24462890625
822;1027.0321044921875
823;1026.81982421875
824;1026.6075439453125
825;1026.3953857421875
826;1026.183349609375
827;1025.971435546875
828;1025.7596435546875
829;1025.5479736328125
830;1025.3363037109375
831;1025.124755859375
832;1024.9130859375
833;1024.7017822265625
834;1024.4906005859375
835;1024.279541015625
836;1024.0684814453125
837;1023.8575439453125
838;1023.6469116210938
839;1023.4361572265625
840;1023.2256469726562
841;1023.0151977539062
842;1022.8048095703125
843;1022.5945434570312
844;1022.3843383789062
845;1022.1742553710938
846;1021.9642944335938
847;1021.75439453125
848;1021.5446166992188
849;1021.3348999023438
850;1021.1253662109375
851;1020.9158935546875
852;1020.7063598632812
853;1020.4970703125
854;1020.2877807617188
855;1020.0786743164062
856;1019.8695068359375
857;1019.6605224609375
858;1019.4515991210938
859;1019.2427368164062
860;1019.0340576171875
861;1018.8253784179688
862;1018.6168823242188
863;1018.4085083007812
864;1018.2001342773438
865;1017.9918823242188
866;1017.7836303710938
867;1017.5755004882812
868;1017.3674926757812
869;1017.1595458984375
870;1016.9515991210938
871;1016.7438354492188
872;1016.5361938476562
873;1016.3285522460938
874;1016.12109375
875;1015.9137573242188
876;1015.7063598632812
877;1015.4991455078125
878;1015.2919921875
879;1015.0849609375
880;1014.8779296875
881;1014.6710815429688
882;1014.4640502929688
883;1014.2575073242188
884;1014.05078125
885;1013.84423828125
886;1013.6378173828125
887;1013.4315185546875
888;1013.2252197265625
889;1013.0189819335938
890;1012.8128051757812
891;1012.6066284179688
892;1012.4006958007812
893;1012.19482421875
894;1011.9889526367188
895;1011.783203125
896;1011.57763671875
897;1011.3720703125
898;1011.1666259765625
899;1010.9611206054688
900;1010.755859375
901;1010.5505981445312
902;1010.3453979492188
903;1010.1402587890625
904;1009.9351196289062
905;1009.7303466796875
906;1009.5254516601562
907;1009.3206787109375
908;1009.1159057617188
909;1008.9112548828125
910;1008.7066650390625
911;1008.5022583007812
912;1008.2978515625
913;1008.0934448242188
914;1007.8892211914062
915;1007.6849975585938
916;1007.4805908203125
917;1007.2767333984375
918;1007.07275390625
919;1006.8690185546875
920;1006.6651000976562
921;1006.4613647460938
922;1006.2577514648438
923;1006.05419921875
924;1005.8507080078125
925;1005.6471557617188
926;1005.4437866210938
927;1005.2404174804688
928;1005.0372314453125
929;1004.8340454101562
930;1004.630859375
931;1004.4278564453125
932;1004.2250366210938
933;1004.0221557617188
934;1003.8194580078125
935;1003.6166381835938
936;1003.4140625
937;1003.2114868164062
938;1003.0090942382812
939;1002.8067626953125
940;1002.6044921875
941;1002.4024047851562
942;1002.2002563476562
943;1001.9981689453125
944;1001.79638671875
945;1001.5944213867188
946;1001.3926391601562
947;1001.19091796875
948;1000.9892578125
949;1000.7876586914062
950;1000.5860595703125
951;1000.384765625
952;1000.1832885742188
953;999.9819946289062
954;999.78076171875
955;999.5795288085938
956;999.3784790039062
957;999.1774291992188
958;998.9764404296875
959;998.7755126953125
960;998.5747680664062
961;998.3740234375
962;998.1732788085938
963;997.97265625
964;997.7721557617188
965;997.5716552734375
966;997.37109375
967;997.1705932617188
968;996.9703979492188
969;996.7700805664062
970;996.5698852539062
971;996.3697509765625
972;996.1697998046875
973;995.9697265625
974;995.7698364257812
975;995.5700073242188
976;995.3702392578125
977;995.1704711914062
978;994.9707641601562
979;994.7711791992188
980;994.5716552734375
981;994.3721923828125
982;994.1727294921875
983;993.9732666015625
984;993.7739868164062
985;993.5747680664062
986;993.3756103515625
987;993.1763916015625
988;992.9773559570312
989;992.7783813476562
990;992.5795288085938
991;992.3805541992188
992;992.181640625
993;991.9828491210938
994;991.7841186523438
995;991.5855102539062
996;991.3868408203125
997;991.1883544921875
998;990.9898071289062
999;990.7914428710938
1000;990.5929565429688
1001;990.3949584960938
1002;990.1971435546875
1003;989.9994506835938
1004;989.8016967773438
1005;989.6041259765625
1006;989.4066772460938
1007;989.2091064453125
1008;989.0118408203125
1009;988.8147583007812
1010;988.6175537109375
1011;988.4205322265625
1012;988.2236328125
1013;988.0267944335938
1014;987.8299560546875
1015;987.63330078125
1016;987.4367065429688
1017;987.2401733398438
1018;987.0436401367188
1019;986.8473510742188
1020;986.6510009765625
1021;986.4546508789062
1022;986.2584838867188
1023;986.0621948242188
1024;985.8662109375
1025;985.6700439453125
1026;985.4741821289062
1027;985.2783203125
1028;985.0824584960938
1029;984.88671875
1030;984.6909790039062
1031;984.4951782226562
1032;984.2996215820312
1033;984.1040649414062
1034;983.9085693359375
1035;983.7130126953125
1036;983.5176391601562
1037;983.322265625
1038;983.126953125
1039;982.931640625
1040;982.7364501953125
1041;982.5413208007812
1042;982.3463134765625
1043;982.1513061523438
1044;981.9564819335938
1045;981.7614135742188
1046;981.5665283203125
1047;981.3719482421875
1048;981.1771850585938
1049;980.982421875
1050;980.7879028320312
1051;980.5933227539062
1052;980.3988647460938
1053;980.2042846679688
1054;980.0098266601562
1055;979.8154296875
1056;979.6212158203125
1057;979.4268798828125
1058;979.2327270507812
1059;979.03857421875
1060;978.8448486328125
1061;978.6513671875
1062;978.4581298828125
1063;978.2647705078125
1064;978.0717163085938
1065;977.8786010742188
1066;977.6854858398438
1067;977.4925537109375
1068;977.2994995117188
1069;977.1068725585938
1070;976.9139404296875
1071;976.7213134765625
1072;976.5286254882812
1073;976.3360595703125
1074;976.1435546875
1075;975.951171875
1076;975.7587890625
1077;975.56640625
1078;975.3741455078125
1079;975.1819458007812
1080;974.98974609375
1081;974.7975463867188
1082;974.6055908203125
1083;974.4135131835938
1084;974.2216796875
1085;974.0298461914062
1086;973.8380126953125
1087;973.6461791992188
1088;973.45458984375
1089;973.2630004882812
1090;973.0715942382812
1091;972.8800048828125
1092;972.6887817382812
1093;972.4974975585938
1094;972.3062133789062
1095;972.1151733398438
1096;971.9239501953125
1097;971.73291015625
1098;971.5418701171875
1099;971.3510131835938
1100;971.16015625
1101;970.9692993164062
1102;970.7785034179688
1103;970.5877685546875
1104;970.3970336914062
1105;970.2064819335938
1106;970.0157470703125
1107;969.8253173828125
1108;969.634765625
1109;969.4443969726562
1110;969.2540283203125
1111;969.0636596679688
1112;968.8734130859375
1113;968.6832275390625
1114;968.4930419921875
1115;968.3029174804688
1116;968.1129150390625
1117;967.9228515625
1118;967.73291015625
1119;967.54296875
1120;967.3531494140625
1121;967.1633911132812
1122;966.9736328125
1123;966.7838745117188
1124;966.5942993164062
1125;966.4046630859375
1126;966.2150268554688
1127;966.0256958007812
1128;965.8360595703125
1129;965.6466064453125
1130;965.4573364257812
1131;965.2679443359375
1132;965.0785522460938
1133;964.8893432617188
1134;964.7001953125
1135;964.5111083984375
1136;964.3219604492188
1137;964.1329345703125
1138;963.9439086914062
1139;963.7550048828125
1140;963.5661010742188
1141;963.3772583007812
1142;963.1883544921875
1143;962.9995727539062
1144;962.8108520507812
1145;962.6221923828125
1146;962.43359375
1147;962.2449951171875
1148;962.0565185546875
1149;961.8680419921875
1150;961.6796264648438
1151;961.4912109375
1152;961.302734375
1153;961.1143798828125
1154;960.9261474609375
1155;960.7379760742188
1156;960.5498046875
1157;960.3616333007812
1158;960.1735229492188
1159;959.9855346679688
1160;959.7975463867188
1161;959.6096801757812
1162;959.4218139648438
1163;959.23388671875
1164;959.0462036132812
1165;958.8582763671875
1166;958.6705932617188
1167;958.4828491210938
1168;958.2953491210938
1169;958.1077880859375
1170;957.9202880859375
1171;957.7327270507812
1172;957.5452880859375
1173;957.3578491210938
1174;957.1704711914062
1175;956.9832153320312
1176;956.7959594726562
1177;956.6087646484375
1178;956.4215698242188
1179;956.2344970703125
1180;956.04736328125
1181;955.8604125976562
1182;955.6734008789062
1183;955.4865112304688
1184;955.2996826171875
1185;955.1127319335938
1186;954.9260864257812
1187;954.7393188476562
1188;954.5526123046875
1189;954.3659057617188
1190;954.1793823242188
1191;953.9927978515625
1192;953.8063354492188
1193;953.6199340820312
1194;953.4334716796875
1195;953.2470703125
1196;953.0606689453125
1197;952.8743896484375
1198;952.6881103515625
1199;952.5018920898438
1200;952.3157958984375
1201;952.1295776367188
1202;951.9434814453125
1203;951.7574462890625
1204;951.5714111328125
1205;951.3856201171875
1206;951.1995849609375
1207;951.0137329101562
1208;950.8280029296875
1209;950.6421508789062
1210;950.4563598632812
1211;950.2706909179688
1212;950.0850830078125
1213;949.8993530273438
1214;949.7138671875
1215;949.5282592773438
1216;949.3427734375
1217;949.1573486328125
1218;948.9718017578125
1219;948.7865600585938
1220;948.6011962890625
1221;948.4159545898438
1222;948.2305908203125
1223;948.0454711914062
1224;947.8603515625
1225;947.6752319335938
1226;947.4901123046875
1227;947.3049926757812
1228;947.1200561523438
1229;946.9351196289062
1230;946.7503051757812
1231;946.5654296875
1232;946.3804321289062
1233;946.1957397460938
1234;946.0110473632812
1235;945.8262939453125
1236;945.6416015625
1237;945.4569702148438
1238;945.2723388671875
1239;945.0878295898438
1240;944.9033203125
1241;944.7188720703125
1242;944.5344848632812
1243;944.35009765625
1244;944.1657104492188
1245;943.9815063476562
1246;943.7973022460938
1247;943.6130981445312
1248;943.4288330078125
1249;943.24462890625
1250;943.0606079101562
1251;942.8765869140625
1252;942.6925659179688
1253;942.5086669921875
1254;942.3246459960938
1255;942.1407470703125
1256;941.9569091796875
1257;941.7730712890625
1258;941.58935546875
1259;941.4056396484375
1260;941.2219848632812
1261;941.0382080078125
1262;940.8546142578125
1263;940.6710205078125
1264;940.4874877929688
1265;940.3040161132812
1266;940.12060546875
1267;939.9371948242188
1268;939.7538452148438
1269;939.5704956054688
1270;939.3871459960938
1271;939.2039794921875
1272;939.0208129882812
1273;938.8375244140625
1274;938.6544189453125
1275;938.4713134765625
1276;938.2882080078125
1277;938.1051635742188
1278;937.9223022460938
1279;937.7393798828125
1280;937.5565185546875
1281;937.3735961914062
1282;937.1907958984375
1283;937.0079345703125
1284;936.8252563476562
1285;936.6426391601562
1286;936.4599609375
1287;936.27734375
1288;936.0947265625
1289;935.9122314453125
1290;935.7298583984375
1291;935.5473022460938
1292;935.3648071289062
1293;935.1824340820312
1294;935.0000610351562
1295;934.8178100585938
1296;934.6356201171875
1297;934.4532470703125
1298;934.2710571289062
1299;934.0888061523438
1300;933.90673828125
1301;933.7247314453125
1302;933.5426635742188
1303;933.3607177734375
1304;933.1787109375
1305;932.9967651367188
1306;932.8150024414062
1307;932.6331176757812
1308;932.4512329101562
1309;932.2694091796875
1310;932.0877075195312
1311;931.9060668945312
1312;931.7243041992188
1313;931.5426635742188
1314;931.3612060546875
1315;931.1796264648438
1316;930.9981079101562
1317;930.8165893554688
1318;930.6351928710938
1319;930.4537353515625
1320;930.2723388671875
1321;930.0910034179688
1322;929.9097290039062
1323;929.728515625
1324;929.5473022460938
1325;929.3661499023438
1326;929.18505859375
1327;929.0039672851562
1328;928.8228149414062
1329;928.6419067382812
1330;928.4608154296875
1331;928.2798461914062
1332;928.0989990234375
1333;927.9181518554688
1334;927.7373046875
1335;927.5565185546875
1336;927.3757934570312
1337;927.1950073242188
1338;927.0142822265625
1339;926.8336181640625
1340;926.6530151367188
1341;926.4723510742188
1342;926.2918701171875
1343;926.111328125
1344;925.9307861328125
1345;925.7504272460938
1346;925.5700073242188
1347;925.3896484375
1348;925.2093505859375
1349;925.0289306640625
1350;924.8486938476562
1351;924.6685180664062
1352;924.48828125
1353;924.30810546875
1354;924.1279296875
1355;923.9479370117188
1356;923.7678833007812
1357;923.5877685546875
1358;923.4077758789062
1359;923.2279052734375
1360;923.0479736328125
1361;922.8681030273438
1362;922.6883544921875
1363;922.5086059570312
1364;922.3289184570312
1365;922.1489868164062
1366;921.9692993164062
1367;921.7896728515625
1368;921.6101684570312
1369;921.4305419921875
1370;921.2509155273438
1371;921.0713500976562
1372;920.8919677734375
1373;920.7124633789062
1374;920.5331420898438
1375;920.3538818359375
1376;920.1744384765625
1377;919.9952392578125
1378;919.81591796875
1379;919.63671875
1380;919.45751953125
1381;919.2782592773438
1382;919.0991821289062
1383;918.9201049804688
1384;918.7410888671875
1385;918.5620727539062
1386;918.3831176757812
1387;918.2041015625
1388;918.0250854492188
1389;917.8462524414062
1390;917.66748046875
1391;917.4887084960938
1392;917.3098754882812
1393;917.1311645507812
1394;916.9525146484375
1395;916.7737426757812
1396;916.5951538085938
1397;916.4165649414062
1398;916.2379760742188
1399;916.0595092773438
1400;915.8809814453125
1401;915.7025756835938
1402;915.5240478515625
1403;915.3457641601562
1404;915.1674194335938
1405;914.9891357421875
1406;914.8107299804688
1407;914.6325073242188
1408;914.4542236328125
1409;914.2761840820312
1410;914.0978393554688
1411;913.9197998046875
1412;913.7417602539062
1413;913.5636596679688
1414;913.3856201171875
1415;913.2075805664062
1416;913.0297241210938
1417;912.8517456054688
1418;912.6738891601562
1419;912.49609375
1420;912.3182373046875
1421;912.1405029296875
1422;911.9627685546875
1423;911.7849731445312
1424;911.6072998046875
1425;911.4296264648438
1426;911.2520751953125
1427;911.0745239257812
1428;910.89697265625
1429;910.7193603515625
1430;910.5419311523438
1431;910.3643798828125
1432;910.1870727539062
1433;910.0096435546875
1434;909.8323364257812
1435;909.6549682617188
1436;909.4776611328125
1437;909.3004150390625
1438;909.1231689453125
1439;908.9462280273438
1440;908.7692260742188
1441;908.5924682617188
1442;908.4158325195312
1443;908.2389526367188
1444;908.0623779296875
1445;907.8856201171875
1446;907.7089233398438
1447;907.5323486328125
1448;907.3558959960938
1449;907.1793823242188
1450;907.0029296875
1451;906.8265380859375
1452;906.6500854492188
1453;906.4739379882812
1454;906.2974243164062
1455;906.1212158203125
1456;905.9448852539062
1457;905.7687377929688
1458;905.5926513671875
1459;905.4165649414062
1460;905.2405395507812
1461;905.0645141601562
1462;904.8884887695312
1463;904.7125854492188
1464;904.5366821289062
1465;904.36083984375
1466;904.1849975585938
1467;904.0090942382812
1468;903.8334350585938
1469;903.65771484375
1470;903.4819946289062
1471;903.3063354492188
1472;903.1307373046875
1473;902.9551391601562
1474;902.7796020507812
1475;902.6040649414062
1476;902.4285278320312
1477;902.2530517578125
1478;902.0775756835938
1479;901.9022216796875
1480;901.7268676757812
1481;901.5516357421875
1482;901.3762817382812
1483;901.2010498046875
1484;901.0258178710938
1485;900.8505859375
1486;900.6754150390625
1487;900.5003662109375
1488;900.3251953125
1489;900.1502075195312
1490;899.9751586914062
1491;899.8002319335938
1492;899.6253051757812
1493;899.4503173828125
1494;899.2755126953125
1495;899.1005859375
1496;898.92578125
1497;898.7510375976562
1498;898.5762939453125
1499;898.4015502929688
