;loss
0;1326.1807861328125
1;1325.993896484375
2;1325.7430419921875
3;1325.4921875
4;1325.2412109375
5;1324.9903564453125
6;1324.739501953125
7;1324.4884033203125
8;1324.237548828125
9;1323.988525390625
10;1323.73876953125
11;1323.48779296875
12;1323.2366943359375
13;1322.98486328125
14;1322.733642578125
15;1322.4822998046875
16;1322.231201171875
17;1321.977783203125
18;1321.7265625
19;1321.47509765625
20;1321.2237548828125
21;1320.969482421875
22;1320.7152099609375
23;1320.460693359375
24;1320.2091064453125
25;1319.95751953125
26;1319.70556640625
27;1319.45361328125
28;1319.20166015625
29;1318.9495849609375
30;1318.6973876953125
31;1318.445068359375
32;1318.1927490234375
33;1317.940185546875
34;1317.687744140625
35;1317.4349365234375
36;1317.1822509765625
37;1316.9293212890625
38;1316.6734619140625
39;1316.42041015625
40;1316.16455078125
41;1315.908447265625
42;1315.65478515625
43;1315.401123046875
44;1315.14501953125
45;1314.8909912109375
46;1314.63427734375
47;1314.380126953125
48;1314.1258544921875
49;1313.8714599609375
50;1313.6142578125
51;1313.357177734375
52;1313.10205078125
53;1312.8446044921875
54;1312.58935546875
55;1312.331787109375
56;1312.0760498046875
57;1311.8203125
58;1311.5643310546875
59;1311.30615234375
60;1311.0496826171875
61;1310.791259765625
62;1310.534423828125
63;1310.275634765625
64;1310.0184326171875
65;1309.76123046875
66;1309.501708984375
67;1309.2421875
68;1308.9842529296875
69;1308.72607421875
70;1308.4677734375
71;1308.20751953125
72;1307.94873046875
73;1307.68798828125
74;1307.42724609375
75;1307.166259765625
76;1306.9049072265625
77;1306.6435546875
78;1306.3818359375
79;1306.1214599609375
80;1305.8609619140625
81;1305.6002197265625
82;1305.3377685546875
83;1305.0748291015625
84;1304.8134765625
85;1304.5516357421875
86;1304.2882080078125
87;1304.0260009765625
88;1303.76220703125
89;1303.497802734375
90;1303.2335205078125
91;1302.97021484375
92;1302.705322265625
93;1302.4415283203125
94;1302.17626953125
95;1301.9117431640625
96;1301.64697265625
97;1301.38232421875
98;1301.11572265625
99;1300.84912109375
100;1300.5833740234375
101;1300.3173828125
102;1300.051025390625
103;1299.7845458984375
104;1299.517578125
105;1299.2491455078125
106;1298.9805908203125
107;1298.712890625
108;1298.44384765625
109;1298.1754150390625
110;1297.9068603515625
111;1297.6380615234375
112;1297.36767578125
113;1297.0970458984375
114;1296.8260498046875
115;1296.5560302734375
116;1296.28564453125
117;1296.0137939453125
118;1295.74169921875
119;1295.47021484375
120;1295.1986083984375
121;1294.926513671875
122;1294.654296875
123;1294.38037109375
124;1294.1063232421875
125;1293.8328857421875
126;1293.55810546875
127;1293.283935546875
128;1293.009521484375
129;1292.734619140625
130;1292.45947265625
131;1292.183837890625
132;1291.906982421875
133;1291.6295166015625
134;1291.3519287109375
135;1291.07373046875
136;1290.795166015625
137;1290.51708984375
138;1290.23876953125
139;1289.9598388671875
140;1289.6795654296875
141;1289.39892578125
142;1289.11865234375
143;1288.837890625
144;1288.5557861328125
145;1288.2730712890625
146;1287.990966796875
147;1287.708251953125
148;1287.4239501953125
149;1287.1392822265625
150;1286.85400390625
151;1286.569091796875
152;1286.2825927734375
153;1285.99560546875
154;1285.7078857421875
155;1285.419677734375
156;1285.131591796875
157;1284.8419189453125
158;1284.552490234375
159;1284.2615966796875
160;1283.9698486328125
161;1283.6783447265625
162;1283.3851318359375
163;1283.0911865234375
164;1282.79638671875
165;1282.5008544921875
166;1282.2044677734375
167;1281.907958984375
168;1281.610595703125
169;1281.3115234375
170;1281.011474609375
171;1280.710693359375
172;1280.409423828125
173;1280.106689453125
174;1279.8026123046875
175;1279.4976806640625
176;1279.1925048828125
177;1278.885498046875
178;1278.578125
179;1278.26953125
180;1277.9599609375
181;1277.6490478515625
182;1277.3369140625
183;1277.02392578125
184;1276.7093505859375
185;1276.3935546875
186;1276.0767822265625
187;1275.758544921875
188;1275.4390869140625
189;1275.118408203125
190;1274.79541015625
191;1274.47119140625
192;1274.1453857421875
193;1273.818359375
194;1273.49072265625
195;1273.16162109375
196;1272.8311767578125
197;1272.4991455078125
198;1272.1656494140625
199;1271.8306884765625
200;1271.494384765625
201;1271.1563720703125
202;1270.81689453125
203;1270.4759521484375
204;1270.13330078125
205;1269.789306640625
206;1269.4429931640625
207;1269.0950927734375
208;1268.7462158203125
209;1268.39599609375
210;1268.043212890625
211;1267.68896484375
212;1267.3328857421875
213;1266.97607421875
214;1266.616943359375
215;1266.257080078125
216;1265.894287109375
217;1265.5308837890625
218;1265.1650390625
219;1264.797607421875
220;1264.428466796875
221;1264.0576171875
222;1263.68505859375
223;1263.31103515625
224;1262.93505859375
225;1262.558349609375
226;1262.1796875
227;1261.79931640625
228;1261.41748046875
229;1261.03369140625
230;1260.6480712890625
231;1260.26025390625
232;1259.871337890625
233;1259.4808349609375
234;1259.0885009765625
235;1258.69384765625
236;1258.29736328125
237;1257.89990234375
238;1257.500732421875
239;1257.10009765625
240;1256.697509765625
241;1256.29248046875
242;1255.885986328125
243;1255.4776611328125
244;1255.067626953125
245;1254.65673828125
246;1254.2431640625
247;1253.8287353515625
248;1253.41259765625
249;1252.994873046875
250;1252.575439453125
251;1252.1534423828125
252;1251.7305908203125
253;1251.3060302734375
254;1250.879150390625
255;1250.4510498046875
256;1250.0216064453125
257;1249.59033203125
258;1249.157470703125
259;1248.72216796875
260;1248.285888671875
261;1247.847412109375
262;1247.4078369140625
263;1246.966552734375
264;1246.52392578125
265;1246.0794677734375
266;1245.63330078125
267;1245.1856689453125
268;1244.735595703125
269;1244.2838134765625
270;1243.8311767578125
271;1243.376220703125
272;1242.919677734375
273;1242.4615478515625
274;1242.0018310546875
275;1241.54052734375
276;1241.07763671875
277;1240.6129150390625
278;1240.1468505859375
279;1239.6795654296875
280;1239.2109375
281;1238.7398681640625
282;1238.2672119140625
283;1237.793212890625
284;1237.3172607421875
285;1236.8399658203125
286;1236.36181640625
287;1235.88134765625
288;1235.3990478515625
289;1234.9163818359375
290;1234.431640625
291;1233.9449462890625
292;1233.457275390625
293;1232.9681396484375
294;1232.4771728515625
295;1231.98486328125
296;1231.490966796875
297;1230.9954833984375
298;1230.4984130859375
299;1229.99951171875
300;1229.498779296875
301;1228.9969482421875
302;1228.4935302734375
303;1227.9886474609375
304;1227.4813232421875
305;1226.97314453125
306;1226.462646484375
307;1225.9512939453125
308;1225.4383544921875
309;1224.923095703125
310;1224.40673828125
311;1223.8887939453125
312;1223.3692626953125
313;1222.8482666015625
314;1222.3255615234375
315;1221.80126953125
316;1221.2755126953125
317;1220.7471923828125
318;1220.2178955078125
319;1219.687255859375
320;1219.15478515625
321;1218.6207275390625
322;1218.08447265625
323;1217.54638671875
324;1217.0064697265625
325;1216.4659423828125
326;1215.9234619140625
327;1215.378662109375
328;1214.8323974609375
329;1214.2843017578125
330;1213.7342529296875
331;1213.1827392578125
332;1212.6298828125
333;1212.0755615234375
334;1211.5186767578125
335;1210.9599609375
336;1210.4000244140625
337;1209.838623046875
338;1209.275146484375
339;1208.7100830078125
340;1208.14306640625
341;1207.57421875
342;1207.0025634765625
343;1206.429443359375
344;1205.85498046875
345;1205.27880859375
346;1204.6998291015625
347;1204.119873046875
348;1203.537109375
349;1202.953369140625
350;1202.36669921875
351;1201.7783203125
352;1201.18798828125
353;1200.5955810546875
354;1200.001220703125
355;1199.4049072265625
356;1198.8072509765625
357;1198.20703125
358;1197.60546875
359;1197.0018310546875
360;1196.3955078125
361;1195.787841796875
362;1195.17822265625
363;1194.56591796875
364;1193.9522705078125
365;1193.3359375
366;1192.717529296875
367;1192.09716796875
368;1191.4754638671875
369;1190.8516845703125
370;1190.2252197265625
371;1189.5968017578125
372;1188.9671630859375
373;1188.33544921875
374;1187.7017822265625
375;1187.0655517578125
376;1186.4276123046875
377;1185.78759765625
378;1185.14599609375
379;1184.5030517578125
380;1183.8582763671875
381;1183.211669921875
382;1182.562744140625
383;1181.9119873046875
384;1181.26025390625
385;1180.606201171875
386;1179.9505615234375
387;1179.2938232421875
388;1178.6358642578125
389;1177.9754638671875
390;1177.313720703125
391;1176.6505126953125
392;1175.9866943359375
393;1175.321533203125
394;1174.6549072265625
395;1173.9874267578125
396;1173.318603515625
397;1172.6488037109375
398;1171.977783203125
399;1171.30517578125
400;1170.6322021484375
401;1169.9583740234375
402;1169.28369140625
403;1168.607666015625
404;1167.931640625
405;1167.25439453125
406;1166.5765380859375
407;1165.9007568359375
408;1165.2255859375
409;1164.5498046875
410;1163.873779296875
411;1163.1978759765625
412;1162.52197265625
413;1161.8466796875
414;1161.1708984375
415;1160.4959716796875
416;1159.82080078125
417;1159.145751953125
418;1158.47119140625
419;1157.7974853515625
420;1157.1239013671875
421;1156.4515380859375
422;1155.779296875
423;1155.10791015625
424;1154.4371337890625
425;1153.767333984375
426;1153.0987548828125
427;1152.43115234375
428;1151.764892578125
429;1151.099609375
430;1150.4359130859375
431;1149.7734375
432;1149.112548828125
433;1148.4537353515625
434;1147.7962646484375
435;1147.1402587890625
436;1146.486083984375
437;1145.83447265625
438;1145.18408203125
439;1144.5364990234375
440;1143.89013671875
441;1143.246337890625
442;1142.6043701171875
443;1141.96484375
444;1141.32763671875
445;1140.69287109375
446;1140.061279296875
447;1139.431396484375
448;1138.804931640625
449;1138.1810302734375
450;1137.55908203125
451;1136.93994140625
452;1136.32373046875
453;1135.7108154296875
454;1135.100830078125
455;1134.4935302734375
456;1133.8887939453125
457;1133.2869873046875
458;1132.6888427734375
459;1132.093505859375
460;1131.5013427734375
461;1130.91162109375
462;1130.3253173828125
463;1129.742431640625
464;1129.1627197265625
465;1128.58642578125
466;1128.0130615234375
467;1127.44287109375
468;1126.87548828125
469;1126.3118896484375
470;1125.75146484375
471;1125.1942138671875
472;1124.64013671875
473;1124.08935546875
474;1123.54150390625
475;1122.99658203125
476;1122.45556640625
477;1121.9173583984375
478;1121.382568359375
479;1120.851318359375
480;1120.3228759765625
481;1119.7974853515625
482;1119.275146484375
483;1118.75634765625
484;1118.24072265625
485;1117.727783203125
486;1117.218017578125
487;1116.7115478515625
488;1116.2078857421875
489;1115.7076416015625
490;1115.2099609375
491;1114.7164306640625
492;1114.2254638671875
493;1113.7379150390625
494;1113.25341796875
495;1112.7718505859375
496;1112.293212890625
497;1111.8170166015625
498;1111.3438720703125
499;1110.87353515625
500;1110.40576171875
501;1109.9410400390625
502;1109.479248046875
503;1109.019775390625
504;1108.563232421875
505;1108.10888671875
506;1107.6573486328125
507;1107.20849609375
508;1106.76220703125
509;1106.318115234375
510;1105.87646484375
511;1105.4376220703125
512;1105.0010986328125
513;1104.56689453125
514;1104.13525390625
515;1103.7056884765625
516;1103.278564453125
517;1102.8536376953125
518;1102.430908203125
519;1102.0101318359375
520;1101.59130859375
521;1101.17529296875
522;1100.7613525390625
523;1100.3494873046875
524;1099.939453125
525;1099.5316162109375
526;1099.1259765625
527;1098.7220458984375
528;1098.31982421875
529;1097.9197998046875
530;1097.521484375
531;1097.1253662109375
532;1096.731201171875
533;1096.3387451171875
534;1095.9478759765625
535;1095.55908203125
536;1095.172119140625
537;1094.78662109375
538;1094.4027099609375
539;1094.0205078125
540;1093.64013671875
541;1093.26171875
542;1092.8846435546875
543;1092.50927734375
544;1092.1356201171875
545;1091.7633056640625
546;1091.3924560546875
547;1091.023193359375
548;1090.6556396484375
549;1090.2890625
550;1089.9241943359375
551;1089.560546875
552;1089.19873046875
553;1088.8380126953125
554;1088.47900390625
555;1088.121337890625
556;1087.76513671875
557;1087.4102783203125
558;1087.056640625
559;1086.7041015625
560;1086.3529052734375
561;1086.003173828125
562;1085.65478515625
563;1085.3074951171875
564;1084.96142578125
565;1084.61669921875
566;1084.2734375
567;1083.93115234375
568;1083.58984375
569;1083.249755859375
570;1082.910888671875
571;1082.573486328125
572;1082.237060546875
573;1081.9017333984375
574;1081.5675048828125
575;1081.234375
576;1080.9019775390625
577;1080.5709228515625
578;1080.24072265625
579;1079.9117431640625
580;1079.58349609375
581;1079.256591796875
582;1078.9305419921875
583;1078.6053466796875
584;1078.2811279296875
585;1077.9580078125
586;1077.635498046875
587;1077.3143310546875
588;1076.9942626953125
589;1076.67529296875
590;1076.357421875
591;1076.040283203125
592;1075.72412109375
593;1075.408935546875
594;1075.0948486328125
595;1074.78173828125
596;1074.469482421875
597;1074.158203125
598;1073.8477783203125
599;1073.5377197265625
600;1073.2288818359375
601;1072.9208984375
602;1072.6136474609375
603;1072.3070068359375
604;1072.001220703125
605;1071.6962890625
606;1071.391845703125
607;1071.0887451171875
608;1070.7864990234375
609;1070.4849853515625
610;1070.184326171875
611;1069.88427734375
612;1069.5850830078125
613;1069.2864990234375
614;1068.9884033203125
615;1068.691162109375
616;1068.3946533203125
617;1068.0989990234375
618;1067.803955078125
619;1067.509521484375
620;1067.2158203125
621;1066.9227294921875
622;1066.6300048828125
623;1066.338134765625
624;1066.0469970703125
625;1065.7562255859375
626;1065.4659423828125
627;1065.176513671875
628;1064.8878173828125
629;1064.5997314453125
630;1064.3118896484375
631;1064.0252685546875
632;1063.739013671875
633;1063.453369140625
634;1063.168212890625
635;1062.8839111328125
636;1062.5999755859375
637;1062.3167724609375
638;1062.033935546875
639;1061.751708984375
640;1061.4700927734375
641;1061.1890869140625
642;1060.9085693359375
643;1060.6285400390625
644;1060.3492431640625
645;1060.070556640625
646;1059.79248046875
647;1059.5146484375
648;1059.2373046875
649;1058.960693359375
650;1058.6846923828125
651;1058.4095458984375
652;1058.134765625
653;1057.860595703125
654;1057.5869140625
655;1057.3133544921875
656;1057.04052734375
657;1056.76806640625
658;1056.49609375
659;1056.224609375
660;1055.9534912109375
661;1055.6827392578125
662;1055.41259765625
663;1055.1429443359375
664;1054.873779296875
665;1054.60498046875
666;1054.33642578125
667;1054.0687255859375
668;1053.8011474609375
669;1053.5341796875
670;1053.2674560546875
671;1053.0013427734375
672;1052.7353515625
673;1052.4700927734375
674;1052.2052001953125
675;1051.9407958984375
676;1051.676513671875
677;1051.4127197265625
678;1051.149169921875
679;1050.8863525390625
680;1050.623779296875
681;1050.36181640625
682;1050.099853515625
683;1049.8382568359375
684;1049.5771484375
685;1049.3162841796875
686;1049.055908203125
687;1048.7960205078125
688;1048.53662109375
689;1048.277587890625
690;1048.0186767578125
691;1047.76025390625
692;1047.502197265625
693;1047.24462890625
694;1046.9876708984375
695;1046.7308349609375
696;1046.474365234375
697;1046.2183837890625
698;1045.962646484375
699;1045.7071533203125
700;1045.451904296875
701;1045.197021484375
702;1044.9427490234375
703;1044.6885986328125
704;1044.4349365234375
705;1044.181640625
706;1043.9285888671875
707;1043.67578125
708;1043.42333984375
709;1043.171142578125
710;1042.9193115234375
711;1042.6676025390625
712;1042.41650390625
713;1042.16552734375
714;1041.9150390625
715;1041.664794921875
716;1041.4149169921875
717;1041.1651611328125
718;1040.9158935546875
719;1040.666748046875
720;1040.41796875
721;1040.16943359375
722;1039.9212646484375
723;1039.67333984375
724;1039.425537109375
725;1039.17822265625
726;1038.93115234375
727;1038.6842041015625
728;1038.4376220703125
729;1038.1912841796875
730;1037.9451904296875
731;1037.6993408203125
732;1037.4537353515625
733;1037.20849609375
734;1036.96337890625
735;1036.718505859375
736;1036.47412109375
737;1036.2298583984375
738;1035.98583984375
739;1035.7420654296875
740;1035.4986572265625
741;1035.25537109375
742;1035.01220703125
743;1034.7694091796875
744;1034.52685546875
745;1034.28466796875
746;1034.04248046875
747;1033.80078125
748;1033.5592041015625
749;1033.31787109375
750;1033.07666015625
751;1032.8358154296875
752;1032.59521484375
753;1032.3546142578125
754;1032.1143798828125
755;1031.87451171875
756;1031.6346435546875
757;1031.3951416015625
758;1031.156005859375
759;1030.9171142578125
760;1030.6783447265625
761;1030.43994140625
762;1030.2017822265625
763;1029.9637451171875
764;1029.72607421875
765;1029.48876953125
766;1029.2513427734375
767;1029.01416015625
768;1028.777099609375
769;1028.54052734375
770;1028.3040771484375
771;1028.06787109375
772;1027.83154296875
773;1027.5955810546875
774;1027.3599853515625
775;1027.12451171875
776;1026.889404296875
777;1026.6541748046875
778;1026.4193115234375
779;1026.1845703125
780;1025.9500732421875
781;1025.7158203125
782;1025.4818115234375
783;1025.2479248046875
784;1025.0142822265625
785;1024.78076171875
786;1024.5474853515625
787;1024.314208984375
788;1024.081298828125
789;1023.8486328125
790;1023.6160888671875
791;1023.3836669921875
792;1023.151611328125
793;1022.9194946289062
794;1022.6876220703125
795;1022.4560546875
796;1022.224609375
797;1021.9932861328125
798;1021.7621459960938
799;1021.53125
800;1021.300537109375
801;1021.0698852539062
802;1020.839599609375
803;1020.609375
804;1020.3794555664062
805;1020.149658203125
806;1019.920166015625
807;1019.6907348632812
808;1019.4616088867188
809;1019.232421875
810;1019.0036010742188
811;1018.7749633789062
812;1018.5464477539062
813;1018.3182373046875
814;1018.090087890625
815;1017.8621826171875
816;1017.6344604492188
817;1017.4067993164062
818;1017.1792602539062
819;1016.9520263671875
820;1016.7249145507812
821;1016.498046875
822;1016.271240234375
823;1016.0444946289062
824;1015.818115234375
825;1015.591796875
826;1015.3655395507812
827;1015.1396484375
828;1014.9139404296875
829;1014.688232421875
830;1014.462646484375
831;1014.2374267578125
832;1014.0122680664062
833;1013.787109375
834;1013.5621948242188
835;1013.3374633789062
836;1013.1129760742188
837;1012.888671875
838;1012.6643676757812
839;1012.440185546875
840;1012.2163696289062
841;1011.9924926757812
842;1011.768798828125
843;1011.5452270507812
844;1011.3218383789062
845;1011.0986328125
846;1010.8756713867188
847;1010.6526489257812
848;1010.4299926757812
849;1010.2074584960938
850;1009.9850463867188
851;1009.7628173828125
852;1009.540771484375
853;1009.3189086914062
854;1009.0971069335938
855;1008.8756713867188
856;1008.6539916992188
857;1008.4327392578125
858;1008.2116088867188
859;1007.990478515625
860;1007.7696533203125
861;1007.549072265625
862;1007.3284301757812
863;1007.1079711914062
864;1006.8875732421875
865;1006.6675415039062
866;1006.4475708007812
867;1006.2278442382812
868;1006.0081176757812
869;1005.7887573242188
870;1005.5694580078125
871;1005.3502807617188
872;1005.1312866210938
873;1004.912353515625
874;1004.693603515625
875;1004.4750366210938
876;1004.2564086914062
877;1004.0379638671875
878;1003.8197631835938
879;1003.6016845703125
880;1003.3836669921875
881;1003.165771484375
882;1002.9481201171875
883;1002.730712890625
884;1002.5132446289062
885;1002.296142578125
886;1002.0789794921875
887;1001.8619995117188
888;1001.645263671875
889;1001.4285888671875
890;1001.2120361328125
891;1000.9954223632812
892;1000.7791748046875
893;1000.5629272460938
894;1000.3469848632812
895;1000.1309814453125
896;999.915283203125
897;999.6995239257812
898;999.4839477539062
899;999.2685546875
900;999.0530395507812
901;998.8377685546875
902;998.6226196289062
903;998.4077758789062
904;998.1926879882812
905;997.9780883789062
906;997.7635498046875
907;997.549072265625
908;997.3346557617188
909;997.120361328125
910;996.90625
911;996.6923828125
912;996.4788208007812
913;996.2650756835938
914;996.051513671875
915;995.838134765625
916;995.6248779296875
917;995.411865234375
918;995.1990966796875
919;994.9862060546875
920;994.773681640625
921;994.5609741210938
922;994.3486328125
923;994.1364135742188
924;993.9241333007812
925;993.7120361328125
926;993.5001220703125
927;993.2880859375
928;993.076416015625
929;992.8646850585938
930;992.6531982421875
931;992.4418334960938
932;992.2303466796875
933;992.019287109375
934;991.808349609375
935;991.597412109375
936;991.3865966796875
937;991.1759033203125
938;990.9652709960938
939;990.7548828125
940;990.5444946289062
941;990.334228515625
942;990.1241455078125
943;989.9140625
944;989.7041015625
945;989.494384765625
946;989.2847290039062
947;989.074951171875
948;988.8655395507812
949;988.65625
950;988.4469604492188
951;988.2378540039062
952;988.0286254882812
953;987.8197631835938
954;987.6109008789062
955;987.402099609375
956;987.193603515625
957;986.985107421875
958;986.7766723632812
959;986.568359375
960;986.360107421875
961;986.1520385742188
962;985.944091796875
963;985.736083984375
964;985.528564453125
965;985.3208618164062
966;985.1134033203125
967;984.9058227539062
968;984.698486328125
969;984.4912109375
970;984.2841796875
971;984.076904296875
972;983.8699951171875
973;983.6632080078125
974;983.456298828125
975;983.2495727539062
976;983.0428466796875
977;982.8363647460938
978;982.6297607421875
979;982.423583984375
980;982.2174682617188
981;982.0111694335938
982;981.8053588867188
983;981.5991821289062
984;981.393310546875
985;981.1876220703125
986;980.9818725585938
987;980.7762451171875
988;980.5706176757812
989;980.365234375
990;980.1598510742188
991;979.9546508789062
992;979.7493286132812
993;979.5442504882812
994;979.3392944335938
995;979.1343383789062
996;978.9296875
997;978.724853515625
998;978.5202026367188
999;978.3157348632812
