;loss
0;1323.876953125
1;1323.749755859375
2;1323.640625
3;1323.5135498046875
4;1323.38623046875
5;1323.2587890625
6;1323.1314697265625
7;1323.0037841796875
8;1322.876220703125
9;1322.7484130859375
10;1322.620361328125
11;1322.4923095703125
12;1322.3641357421875
13;1322.2352294921875
14;1322.10595703125
15;1321.9764404296875
16;1321.8463134765625
17;1321.7156982421875
18;1321.5860595703125
19;1321.45458984375
20;1321.32275390625
21;1321.191650390625
22;1321.06005859375
23;1320.9263916015625
24;1320.792236328125
25;1320.6588134765625
26;1320.524658203125
27;1320.38818359375
28;1320.2510986328125
29;1320.11474609375
30;1319.9757080078125
31;1319.837646484375
32;1319.69873046875
33;1319.55712890625
34;1319.4146728515625
35;1319.2713623046875
36;1319.127197265625
37;1318.98193359375
38;1318.8355712890625
39;1318.68994140625
40;1318.54345703125
41;1318.39599609375
42;1318.2474365234375
43;1318.09619140625
44;1317.94384765625
45;1317.7923583984375
46;1317.637939453125
47;1317.48388671875
48;1317.328857421875
49;1317.1728515625
50;1317.015625
51;1316.8572998046875
52;1316.696533203125
53;1316.53466796875
54;1316.37158203125
55;1316.20849609375
56;1316.04443359375
57;1315.87939453125
58;1315.7130126953125
59;1315.5455322265625
60;1315.3765869140625
61;1315.206787109375
62;1315.0357666015625
63;1314.8636474609375
64;1314.6888427734375
65;1314.5128173828125
66;1314.3370361328125
67;1314.15869140625
68;1313.980224609375
69;1313.8006591796875
70;1313.6197509765625
71;1313.4378662109375
72;1313.25439453125
73;1313.06982421875
74;1312.884033203125
75;1312.69580078125
76;1312.507568359375
77;1312.31787109375
78;1312.1270751953125
79;1311.9349365234375
80;1311.74072265625
81;1311.544677734375
82;1311.34765625
83;1311.150390625
84;1310.9508056640625
85;1310.749755859375
86;1310.5477294921875
87;1310.3443603515625
88;1310.1407470703125
89;1309.9345703125
90;1309.728271484375
91;1309.5208740234375
92;1309.3109130859375
93;1309.100830078125
94;1308.88818359375
95;1308.67431640625
96;1308.458984375
97;1308.24267578125
98;1308.02587890625
99;1307.8079833984375
100;1307.5875244140625
101;1307.3658447265625
102;1307.14306640625
103;1306.919677734375
104;1306.6951904296875
105;1306.46923828125
106;1306.241943359375
107;1306.0125732421875
108;1305.78173828125
109;1305.55078125
110;1305.317626953125
111;1305.083740234375
112;1304.847900390625
113;1304.611572265625
114;1304.3731689453125
115;1304.13330078125
116;1303.89208984375
117;1303.6497802734375
118;1303.4068603515625
119;1303.1619873046875
120;1302.916748046875
121;1302.670166015625
122;1302.42138671875
123;1302.1722412109375
124;1301.9208984375
125;1301.668212890625
126;1301.414306640625
127;1301.1593017578125
128;1300.9036865234375
129;1300.64697265625
130;1300.3890380859375
131;1300.1297607421875
132;1299.8692626953125
133;1299.6065673828125
134;1299.3427734375
135;1299.07763671875
136;1298.8111572265625
137;1298.54443359375
138;1298.2763671875
139;1298.00634765625
140;1297.7349853515625
141;1297.46240234375
142;1297.189453125
143;1296.91455078125
144;1296.63916015625
145;1296.36279296875
146;1296.085205078125
147;1295.805419921875
148;1295.524658203125
149;1295.24267578125
150;1294.96044921875
151;1294.6771240234375
152;1294.3919677734375
153;1294.1053466796875
154;1293.8177490234375
155;1293.5289306640625
156;1293.2401123046875
157;1292.9498291015625
158;1292.6578369140625
159;1292.365478515625
160;1292.072021484375
161;1291.77685546875
162;1291.481201171875
163;1291.18359375
164;1290.88525390625
165;1290.58544921875
166;1290.28466796875
167;1289.98291015625
168;1289.679931640625
169;1289.376220703125
170;1289.0712890625
171;1288.76513671875
172;1288.4583740234375
173;1288.1502685546875
174;1287.84130859375
175;1287.531982421875
176;1287.2210693359375
177;1286.9088134765625
178;1286.5958251953125
179;1286.2825927734375
180;1285.96826171875
181;1285.652099609375
182;1285.3350830078125
183;1285.01806640625
184;1284.6988525390625
185;1284.37890625
186;1284.058837890625
187;1283.737548828125
188;1283.414794921875
189;1283.091796875
190;1282.76708984375
191;1282.44189453125
192;1282.1160888671875
193;1281.7891845703125
194;1281.46142578125
195;1281.132568359375
196;1280.802978515625
197;1280.4718017578125
198;1280.1395263671875
199;1279.806396484375
200;1279.472412109375
201;1279.13818359375
202;1278.80322265625
203;1278.4674072265625
204;1278.1307373046875
205;1277.7923583984375
206;1277.4532470703125
207;1277.114013671875
208;1276.77392578125
209;1276.43212890625
210;1276.0897216796875
211;1275.7471923828125
212;1275.4036865234375
213;1275.05859375
214;1274.7135009765625
215;1274.3668212890625
216;1274.019287109375
217;1273.671142578125
218;1273.322021484375
219;1272.9730224609375
220;1272.6231689453125
221;1272.2724609375
222;1271.9212646484375
223;1271.569091796875
224;1271.2161865234375
225;1270.86181640625
226;1270.5074462890625
227;1270.1524658203125
228;1269.796630859375
229;1269.4403076171875
230;1269.083251953125
231;1268.7257080078125
232;1268.3673095703125
233;1268.007568359375
234;1267.6470947265625
235;1267.2861328125
236;1266.9244384765625
237;1266.5621337890625
238;1266.2000732421875
239;1265.83740234375
240;1265.473388671875
241;1265.10888671875
242;1264.74365234375
243;1264.3779296875
244;1264.0118408203125
245;1263.64501953125
246;1263.27783203125
247;1262.9107666015625
248;1262.543212890625
249;1262.1744384765625
250;1261.8052978515625
251;1261.4361572265625
252;1261.066162109375
253;1260.6961669921875
254;1260.32568359375
255;1259.954833984375
256;1259.5828857421875
257;1259.210693359375
258;1258.837890625
259;1258.465576171875
260;1258.0926513671875
261;1257.719482421875
262;1257.34521484375
263;1256.97119140625
264;1256.59619140625
265;1256.2215576171875
266;1255.8466796875
267;1255.4713134765625
268;1255.0958251953125
269;1254.7198486328125
270;1254.3431396484375
271;1253.9666748046875
272;1253.58984375
273;1253.2127685546875
274;1252.8355712890625
275;1252.4581298828125
276;1252.0804443359375
277;1251.7025146484375
278;1251.3243408203125
279;1250.9453125
280;1250.5662841796875
281;1250.1875
282;1249.80810546875
283;1249.428955078125
284;1249.0491943359375
285;1248.669677734375
286;1248.2901611328125
287;1247.909912109375
288;1247.5296630859375
289;1247.1490478515625
290;1246.76904296875
291;1246.3890380859375
292;1246.0087890625
293;1245.6280517578125
294;1245.247802734375
295;1244.86669921875
296;1244.486328125
297;1244.10595703125
298;1243.7252197265625
299;1243.343994140625
300;1242.962890625
301;1242.58154296875
302;1242.20068359375
303;1241.8194580078125
304;1241.438720703125
305;1241.057373046875
306;1240.676025390625
307;1240.2945556640625
308;1239.9130859375
309;1239.532470703125
310;1239.151123046875
311;1238.77001953125
312;1238.3885498046875
313;1238.00732421875
314;1237.6263427734375
315;1237.2452392578125
316;1236.86474609375
317;1236.4837646484375
318;1236.1029052734375
319;1235.7220458984375
320;1235.34130859375
321;1234.960693359375
322;1234.580078125
323;1234.1995849609375
324;1233.8194580078125
325;1233.439697265625
326;1233.0592041015625
327;1232.679443359375
328;1232.300048828125
329;1231.92041015625
330;1231.5411376953125
331;1231.161376953125
332;1230.78173828125
333;1230.402587890625
334;1230.0235595703125
335;1229.644287109375
336;1229.2650146484375
337;1228.8863525390625
338;1228.50732421875
339;1228.12890625
340;1227.7501220703125
341;1227.3719482421875
342;1226.993408203125
343;1226.614990234375
344;1226.23681640625
345;1225.8587646484375
346;1225.480712890625
347;1225.103271484375
348;1224.7257080078125
349;1224.34814453125
350;1223.97314453125
351;1223.599609375
352;1223.226318359375
353;1222.853271484375
354;1222.481201171875
355;1222.10888671875
356;1221.737060546875
357;1221.36572265625
358;1220.9942626953125
359;1220.623046875
360;1220.25244140625
361;1219.8817138671875
362;1219.51171875
363;1219.1416015625
364;1218.7716064453125
365;1218.402099609375
366;1218.03271484375
367;1217.66357421875
368;1217.294677734375
369;1216.92578125
370;1216.55712890625
371;1216.1883544921875
372;1215.8201904296875
373;1215.45166015625
374;1215.0833740234375
375;1214.7154541015625
376;1214.3480224609375
377;1213.9805908203125
378;1213.61279296875
379;1213.24560546875
380;1212.8787841796875
381;1212.5120849609375
382;1212.145263671875
383;1211.7789306640625
384;1211.4122314453125
385;1211.0458984375
386;1210.6796875
387;1210.3133544921875
388;1209.9473876953125
389;1209.58154296875
390;1209.2158203125
391;1208.851318359375
392;1208.4879150390625
393;1208.124267578125
394;1207.7608642578125
395;1207.3975830078125
396;1207.03466796875
397;1206.671875
398;1206.3094482421875
399;1205.947265625
400;1205.58544921875
401;1205.22412109375
402;1204.863037109375
403;1204.501953125
404;1204.14111328125
405;1203.7806396484375
406;1203.4200439453125
407;1203.059814453125
408;1202.7000732421875
409;1202.34033203125
410;1201.98046875
411;1201.6209716796875
412;1201.261962890625
413;1200.903076171875
414;1200.5443115234375
415;1200.185791015625
416;1199.827392578125
417;1199.46923828125
418;1199.1114501953125
419;1198.7537841796875
420;1198.396240234375
421;1198.0394287109375
422;1197.6822509765625
423;1197.32568359375
424;1196.96923828125
425;1196.61279296875
426;1196.2572021484375
427;1195.9014892578125
428;1195.5458984375
429;1195.1907958984375
430;1194.8358154296875
431;1194.48095703125
432;1194.1265869140625
433;1193.7728271484375
434;1193.4188232421875
435;1193.065185546875
436;1192.7117919921875
437;1192.3587646484375
438;1192.005859375
439;1191.6536865234375
440;1191.3013916015625
441;1190.9498291015625
442;1190.5982666015625
443;1190.247314453125
444;1189.896240234375
445;1189.54541015625
446;1189.195068359375
447;1188.8450927734375
448;1188.49560546875
449;1188.1461181640625
450;1187.797119140625
451;1187.4482421875
452;1187.0997314453125
453;1186.751953125
454;1186.404296875
455;1186.0567626953125
456;1185.7099609375
457;1185.3631591796875
458;1185.01708984375
459;1184.6712646484375
460;1184.325439453125
461;1183.980224609375
462;1183.6353759765625
463;1183.290771484375
464;1182.947998046875
465;1182.60693359375
466;1182.2666015625
467;1181.9266357421875
468;1181.587158203125
469;1181.248046875
470;1180.90966796875
471;1180.571533203125
472;1180.2340087890625
473;1179.89697265625
474;1179.5601806640625
475;1179.22412109375
476;1178.888427734375
477;1178.5535888671875
478;1178.2213134765625
479;1177.889892578125
480;1177.5587158203125
481;1177.22802734375
482;1176.8978271484375
483;1176.568359375
484;1176.239013671875
485;1175.91064453125
486;1175.5821533203125
487;1175.25439453125
488;1174.9268798828125
489;1174.60009765625
490;1174.27392578125
491;1173.9481201171875
492;1173.62255859375
493;1173.2974853515625
494;1172.973388671875
495;1172.64990234375
496;1172.3265380859375
497;1172.003662109375
498;1171.6815185546875
499;1171.3594970703125
