;loss
0;1404.1785888671875
1;1403.02783203125
2;1401.8846435546875
3;1400.7474365234375
4;1399.6153564453125
5;1398.53564453125
6;1397.444580078125
7;1396.320556640625
8;1395.195556640625
9;1394.0675048828125
10;1392.9393310546875
11;1391.7999267578125
12;1390.647705078125
13;1389.4847412109375
14;1388.30810546875
15;1387.107421875
16;1385.88671875
17;1384.643798828125
18;1383.3878173828125
19;1382.0921630859375
20;1380.76611328125
21;1379.4058837890625
22;1378.0234375
23;1376.5841064453125
24;1375.1156005859375
25;1373.597412109375
26;1372.0238037109375
27;1370.369384765625
28;1368.6661376953125
29;1366.88720703125
30;1365.0240478515625
31;1363.0675048828125
32;1361.0062255859375
33;1358.828369140625
34;1356.492919921875
35;1354.035888671875
36;1351.413330078125
37;1348.603271484375
38;1345.5462646484375
39;1342.277099609375
40;1338.688232421875
41;1334.76904296875
42;1330.464111328125
43;1325.75634765625
44;1320.521240234375
45;1314.59375
46;1307.8909912109375
47;1300.319580078125
48;1291.6077880859375
49;1281.4901123046875
50;1269.6346435546875
51;1255.645263671875
52;1239.081787109375
53;1219.53955078125
54;1196.636474609375
55;1171.0955810546875
56;1143.762939453125
57;1115.99609375
58;1089.827880859375
59;1066.024169921875
60;1044.89697265625
61;1026.3118896484375
62;1009.8941040039062
63;995.7813720703125
64;983.3035888671875
65;972.175048828125
66;962.0748901367188
67;952.9890747070312
68;944.6234130859375
69;936.9174194335938
70;929.7665405273438
71;923.083984375
72;916.8423461914062
73;910.947021484375
74;905.3221435546875
75;899.9722290039062
76;894.8994750976562
77;890.0126342773438
78;885.3540649414062
79;880.847412109375
80;876.5294189453125
81;872.332275390625
82;868.2919311523438
83;864.3453369140625
84;860.5042724609375
85;856.7776489257812
86;853.114990234375
87;849.5280151367188
88;846.0121459960938
89;842.580078125
90;839.2059936523438
91;835.8698120117188
92;832.5845947265625
93;829.3627319335938
94;826.168212890625
95;823.0307006835938
96;819.9317626953125
97;816.8545532226562
98;813.8273315429688
99;810.8194580078125
100;807.843994140625
101;804.8995971679688
102;801.998779296875
103;799.1136474609375
104;796.2694702148438
105;793.4521484375
106;790.6485595703125
107;787.8707275390625
108;785.1178588867188
109;782.3895874023438
110;779.6849975585938
111;777.0038452148438
112;774.3565673828125
113;771.7201538085938
114;769.1054077148438
115;766.5220336914062
116;763.948486328125
117;761.4052124023438
118;758.8804931640625
119;756.3642578125
120;753.8662719726562
121;751.3956909179688
122;748.9423217773438
123;746.5053100585938
124;744.0748901367188
125;741.66015625
126;739.2604370117188
127;736.8837280273438
128;734.5209350585938
129;732.1633911132812
130;729.8274536132812
131;727.5042724609375
132;725.1934814453125
133;722.8946533203125
134;720.6079711914062
135;718.3328247070312
136;716.070068359375
137;713.8192138671875
138;711.5731811523438
139;709.339599609375
140;707.1249389648438
141;704.9210205078125
142;702.727783203125
143;700.544921875
144;698.3666381835938
145;696.2008056640625
146;694.0462036132812
147;691.9032592773438
148;689.7706909179688
149;687.6549682617188
150;685.5487060546875
151;683.4456787109375
152;681.3523559570312
153;679.2749633789062
154;677.206787109375
155;675.1417846679688
156;673.0924682617188
157;671.0462036132812
158;669.0152587890625
159;666.9877319335938
160;664.9693603515625
161;662.9601440429688
162;660.9657592773438
163;658.9804077148438
164;657.0040283203125
165;655.0308837890625
166;653.0719604492188
167;651.1220703125
168;649.17578125
169;647.2381591796875
170;645.3092651367188
171;643.3939819335938
172;641.4820556640625
173;639.5838012695312
174;637.6937866210938
175;635.8121337890625
176;633.93359375
177;632.0679931640625
178;630.2102661132812
179;628.3558349609375
180;626.5139770507812
181;624.6796875
182;622.8529663085938
183;621.0293579101562
184;619.213134765625
185;617.409423828125
186;615.609375
187;613.821533203125
188;612.0410766601562
189;610.263427734375
190;608.4926147460938
191;606.7329711914062
192;604.9757690429688
193;603.2293090820312
194;601.4895629882812
195;599.7564086914062
196;598.0296020507812
197;596.3053588867188
198;594.5913696289062
199;592.8836059570312
200;591.1820068359375
201;589.4827880859375
202;587.7935791015625
203;586.1063842773438
204;584.4254150390625
205;582.750244140625
206;581.0810546875
207;579.417724609375
208;577.7637329101562
209;576.115478515625
210;574.472900390625
211;572.8324584960938
212;571.201171875
213;569.572021484375
214;567.9483032226562
215;566.3335571289062
216;564.7208251953125
217;563.113525390625
218;561.5116577148438
219;559.9183349609375
220;558.3272705078125
221;556.7446899414062
222;555.1640625
223;553.588623046875
224;552.0214233398438
225;550.4563598632812
226;548.8964233398438
227;547.3416748046875
228;545.7919311523438
229;544.250244140625
230;542.7134399414062
231;541.1786499023438
232;539.648681640625
233;538.1265869140625
234;536.6091918945312
235;535.0965576171875
236;533.5858154296875
237;532.0825805664062
238;530.583984375
239;529.0872192382812
240;527.5951538085938
241;526.107666015625
242;524.624755859375
243;523.1464233398438
244;521.672607421875
245;520.2032470703125
246;518.740966796875
247;517.2831420898438
248;515.8271484375
249;514.3755493164062
250;512.9282836914062
251;511.4879455566406
252;510.05181884765625
253;508.62005615234375
254;507.1900329589844
255;505.7667236328125
256;504.34765625
257;502.9327392578125
258;501.5196533203125
259;500.1107482910156
260;498.70599365234375
261;497.30767822265625
262;495.9111633300781
263;494.5210266113281
264;493.1349182128906
265;491.7529296875
266;490.3749084472656
267;488.9986267089844
268;487.6285705566406
269;486.26251220703125
270;484.9003601074219
271;483.53997802734375
272;482.1856689453125
273;480.8352355957031
274;479.48870849609375
275;478.14599609375
276;476.8050842285156
277;475.4700012207031
278;474.1387939453125
279;472.8114013671875
280;471.48773193359375
281;470.1678466796875
282;468.8516540527344
283;467.5372314453125
284;466.22857666015625
285;464.9216003417969
286;463.6202697753906
287;462.3206481933594
288;461.02667236328125
289;459.7363586425781
290;458.4477233886719
291;457.1627197265625
292;455.88330078125
293;454.60748291015625
294;453.3334045410156
295;452.0647277832031
296;450.7977294921875
297;449.53436279296875
298;448.2744445800781
299;447.0199279785156
300;445.7671203613281
301;444.51959228515625
302;443.2738342285156
303;442.0332946777344
304;440.7944641113281
305;439.5608825683594
306;438.32891845703125
307;437.1004638671875
308;435.8771057128906
309;434.6553955078125
310;433.4387512207031
311;432.2237854003906
312;431.0139465332031
313;429.8056640625
314;428.60076904296875
315;427.39923095703125
316;426.2009582519531
317;425.0075378417969
318;423.8159484863281
319;422.6290588378906
320;421.4439392089844
321;420.2635498046875
322;419.08636474609375
323;417.9110107421875
324;416.740234375
325;415.5712585449219
326;414.40533447265625
327;413.2427062988281
328;412.08319091796875
329;410.9283142089844
330;409.7766418457031
331;408.6265563964844
332;407.4810791015625
333;406.3387756347656
334;405.1981201171875
335;404.06048583984375
336;402.9273376464844
337;401.79736328125
338;400.6703796386719
339;399.5465393066406
340;398.42584228515625
341;397.3069152832031
342;396.1911315917969
343;395.07843017578125
344;393.9688720703125
345;392.86370849609375
346;391.7602233886719
347;390.6611022949219
348;389.5649108886719
349;388.4717712402344
350;387.3815002441406
351;386.29296875
352;385.20867919921875
353;384.12725830078125
354;383.0475158691406
355;381.9719543457031
356;380.8980407714844
357;379.82708740234375
358;378.7602844238281
359;377.6950378417969
360;376.63275146484375
361;375.5733337402344
362;374.5168762207031
363;373.4632263183594
364;372.4123840332031
365;371.3656921386719
366;370.3218078613281
367;369.2806701660156
368;368.2412109375
369;367.2057189941406
370;366.1729736328125
371;365.14300537109375
372;364.1158752441406
373;363.0903625488281
374;362.0687255859375
375;361.0498046875
376;360.0325622558594
377;359.0190124511719
378;358.00726318359375
379;356.9981689453125
380;355.9917907714844
381;354.98919677734375
382;353.98822021484375
383;352.9898986816406
384;351.9942932128906
385;351.00244140625
386;350.0121765136719
387;349.0245361328125
388;348.0406188964844
389;347.0592956542969
390;346.0796813964844
391;345.1026916503906
392;344.1292724609375
393;343.1584777832031
394;342.1903076171875
395;341.2247314453125
396;340.2607421875
397;339.2993469238281
398;338.3405456542969
399;337.38531494140625
400;336.4316711425781
401;335.4815673828125
402;334.53399658203125
403;333.5879821777344
404;332.64453125
405;331.70367431640625
406;330.7662048339844
407;329.8303527832031
408;328.8979797363281
409;327.9680480957031
410;327.0406799316406
411;326.1148681640625
412;325.1924133300781
413;324.2724304199219
414;323.3550109863281
415;322.44000244140625
416;321.5265808105469
417;320.61651611328125
418;319.7088623046875
419;318.80279541015625
420;317.8999938964844
421;316.99969482421875
422;316.1018371582031
423;315.2063293457031
424;314.3132019042969
425;313.4217529296875
426;312.53265380859375
427;311.6467590332031
428;310.76324462890625
429;309.88134765625
430;309.0018310546875
431;308.12542724609375
432;307.2506408691406
433;306.3790283203125
434;305.5089111328125
435;304.6419982910156
436;303.7774658203125
437;302.9144287109375
438;302.05450439453125
439;301.1961364746094
440;300.3408508300781
441;299.4871520996094
442;298.63653564453125
443;297.7873840332031
444;296.9405212402344
445;296.0960693359375
446;295.25457763671875
447;294.4146728515625
448;293.5769958496094
449;292.7424011230469
450;291.9100036621094
451;291.07916259765625
452;290.2513122558594
453;289.4256591796875
454;288.6015930175781
455;287.78045654296875
456;286.9608459472656
457;286.1441345214844
458;285.3289794921875
459;284.5167541503906
460;283.7060241699219
461;282.89752197265625
462;282.0911560058594
463;281.2877502441406
464;280.48651123046875
465;279.6868591308594
466;278.88995361328125
467;278.0946044921875
468;277.30206298828125
469;276.5110778808594
470;275.72216796875
471;274.93548583984375
472;274.1509094238281
473;273.36920166015625
474;272.5888977050781
475;271.8114013671875
476;271.03607177734375
477;270.26226806640625
478;269.4911804199219
479;268.7221374511719
480;267.95465087890625
481;267.18988037109375
482;266.42718505859375
483;265.6666259765625
484;264.9081115722656
485;264.151123046875
486;263.3968200683594
487;262.64459228515625
488;261.89434814453125
489;261.1455993652344
490;260.3990173339844
491;259.6549987792969
492;258.9124450683594
493;258.1725769042969
494;257.4347229003906
495;256.6989440917969
496;255.9645233154297
497;255.23277282714844
498;254.50247192382812
499;253.77476501464844
