;loss
0;1393.3765869140625
1;1391.7874755859375
2;1390.1781005859375
3;1388.545654296875
4;1386.8873291015625
5;1385.27392578125
6;1383.5574951171875
7;1381.84375
8;1380.081298828125
9;1378.267822265625
10;1376.4000244140625
11;1374.4705810546875
12;1372.479736328125
13;1370.425048828125
14;1368.28564453125
15;1366.0604248046875
16;1363.739990234375
17;1361.3150634765625
18;1358.7757568359375
19;1356.110107421875
20;1353.3055419921875
21;1350.3807373046875
22;1347.29248046875
23;1344.02392578125
24;1340.51611328125
25;1336.7855224609375
26;1332.85595703125
27;1328.6605224609375
28;1324.17236328125
29;1319.30078125
30;1314.059326171875
31;1308.4749755859375
32;1302.3680419921875
33;1295.745361328125
34;1288.6265869140625
35;1280.8660888671875
36;1272.3768310546875
37;1263.05810546875
38;1252.7889404296875
39;1241.4271240234375
40;1228.6610107421875
41;1214.3984375
42;1198.397705078125
43;1180.386962890625
44;1160.3099365234375
45;1137.8038330078125
46;1112.6671142578125
47;1085.694580078125
48;1058.410888671875
49;1032.1756591796875
50;1008.232666015625
51;987.0218505859375
52;968.4243774414062
53;951.9631958007812
54;937.5866088867188
55;924.8193969726562
56;913.4231567382812
57;903.16796875
58;893.9054565429688
59;885.425048828125
60;877.6866455078125
61;870.587646484375
62;864.0750732421875
63;858.0169677734375
64;852.3082275390625
65;846.9829711914062
66;841.9192504882812
67;837.1193237304688
68;832.549560546875
69;828.2116088867188
70;824.025146484375
71;820.0260620117188
72;816.1441040039062
73;812.4161987304688
74;808.7816772460938
75;805.2530517578125
76;801.8410034179688
77;798.5137329101562
78;795.243896484375
79;792.0635375976562
80;788.929931640625
81;785.856201171875
82;782.8384399414062
83;779.873046875
84;776.955322265625
85;774.082275390625
86;771.2509155273438
87;768.4739379882812
88;765.7186279296875
89;762.9984130859375
90;760.3252563476562
91;757.6690063476562
92;755.0557250976562
93;752.4569091796875
94;749.8848876953125
95;747.3508911132812
96;744.8412475585938
97;742.3425903320312
98;739.8781127929688
99;737.4351806640625
100;735.0133056640625
101;732.611572265625
102;730.2179565429688
103;727.8434448242188
104;725.497802734375
105;723.1698608398438
106;720.8590087890625
107;718.5648803710938
108;716.2872314453125
109;714.015380859375
110;711.7687377929688
111;709.5275268554688
112;707.3104858398438
113;705.0985717773438
114;702.9099731445312
115;700.7258911132812
116;698.5640869140625
117;696.415283203125
118;694.279052734375
119;692.1552124023438
120;690.0349731445312
121;687.9268188476562
122;685.8385620117188
123;683.7618408203125
124;681.6885375976562
125;679.6261596679688
126;677.5748901367188
127;675.5341186523438
128;673.5111694335938
129;671.4984130859375
130;669.4884033203125
131;667.4882202148438
132;665.497802734375
133;663.5167846679688
134;661.5451049804688
135;659.582763671875
136;657.6361083984375
137;655.6986694335938
138;653.763427734375
139;651.8434448242188
140;649.9318237304688
141;648.0223388671875
142;646.1212158203125
143;644.2282104492188
144;642.3433837890625
145;640.466552734375
146;638.603515625
147;636.748046875
148;634.900390625
149;633.0601806640625
150;631.2273559570312
151;629.4017944335938
152;627.5836181640625
153;625.7725219726562
154;623.9632568359375
155;622.1610717773438
156;620.3659057617188
157;618.5828247070312
158;616.8065795898438
159;615.0370483398438
160;613.274169921875
161;611.517822265625
162;609.7631225585938
163;608.019775390625
164;606.2780151367188
165;604.5426025390625
166;602.8134155273438
167;601.0952758789062
168;599.378662109375
169;597.6681518554688
170;595.9683227539062
171;594.2698974609375
172;592.5819702148438
173;590.9000244140625
174;589.2236938476562
175;587.5489501953125
176;585.8798828125
177;584.2208862304688
178;582.5675048828125
179;580.919677734375
180;579.2774047851562
181;577.6365356445312
182;576.0011596679688
183;574.3751831054688
184;572.7548217773438
185;571.1356201171875
186;569.5257568359375
187;567.9172973632812
188;566.3140258789062
189;564.7197875976562
190;563.1270141601562
191;561.539306640625
192;559.9603881835938
193;558.3829956054688
194;556.814208984375
195;555.2504272460938
196;553.6880493164062
197;552.1304931640625
198;550.577880859375
199;549.0302124023438
200;547.4873657226562
201;545.9528198242188
202;544.4231567382812
203;542.894775390625
204;541.3744506835938
205;539.8555908203125
206;538.3445434570312
207;536.8381958007812
208;535.3331909179688
209;533.8327026367188
210;532.3367919921875
211;530.8485717773438
212;529.3616943359375
213;527.8793334960938
214;526.4044799804688
215;524.9342041015625
216;523.4680786132812
217;522.0034790039062
218;520.5431518554688
219;519.0901489257812
220;517.6414184570312
221;516.1969604492188
222;514.7538452148438
223;513.3179321289062
224;511.8833312988281
225;510.45562744140625
226;509.0322265625
227;507.6128845214844
228;506.1949462890625
229;504.78106689453125
230;503.3741149902344
231;501.9684753417969
232;500.56951904296875
233;499.1719970703125
234;497.7810974121094
235;496.3915710449219
236;495.00604248046875
237;493.62445068359375
238;492.2467956542969
239;490.8757019042969
240;489.5059509277344
241;488.14263916015625
242;486.783203125
243;485.4274597167969
244;484.0732116699219
245;482.72283935546875
246;481.3786315917969
247;480.0357971191406
248;478.6991271972656
249;477.3638000488281
250;476.0345764160156
251;474.7091064453125
252;473.38494873046875
253;472.0645446777344
254;470.74786376953125
255;469.43701171875
256;468.1298522949219
257;466.8262634277344
258;465.5262451171875
259;464.2276916503906
260;462.9349365234375
261;461.6456298828125
262;460.3578796386719
263;459.0756530761719
264;457.7970275878906
265;456.5199279785156
266;455.2462158203125
267;453.9760437011719
268;452.7093200683594
269;451.44805908203125
270;450.1903076171875
271;448.9339294433594
272;447.6810607910156
273;446.43359375
274;445.1875
275;443.9447937011719
276;442.70745849609375
277;441.4734802246094
278;440.2408752441406
279;439.01177978515625
280;437.78582763671875
281;436.56524658203125
282;435.3460388183594
283;434.1300354003906
284;432.9175109863281
285;431.7081298828125
286;430.5038757324219
287;429.3011474609375
288;428.1015930175781
289;426.90716552734375
290;425.7158508300781
291;424.5260314941406
292;423.3412170410156
293;422.1578063964844
294;420.9775390625
295;419.8005676269531
296;418.6266784667969
297;417.4559326171875
298;416.2900085449219
299;415.1255798339844
300;413.9642333984375
301;412.8060607910156
302;411.6526184082031
303;410.50054931640625
304;409.3531799316406
305;408.20892333984375
306;407.0660705566406
307;405.92633056640625
308;404.79119873046875
309;403.6590576171875
310;402.53009033203125
311;401.40234375
312;400.2792663574219
313;399.15911865234375
314;398.04046630859375
315;396.92486572265625
316;395.8121032714844
317;394.7024230957031
318;393.5971374511719
319;392.49322509765625
320;391.39239501953125
321;390.2944030761719
322;389.1994934082031
323;388.1072692871094
324;387.01953125
325;385.9345397949219
326;384.8511657714844
327;383.7705993652344
328;382.69427490234375
329;381.6194763183594
330;380.54888916015625
331;379.4797668457031
332;378.4134826660156
333;377.3500671386719
334;376.2893981933594
335;375.2315673828125
336;374.1778259277344
337;373.1270446777344
338;372.0776062011719
339;371.03094482421875
340;369.9870910644531
341;368.9460144042969
342;367.9077453613281
343;366.8733825683594
344;365.84185791015625
345;364.81298828125
346;363.7856750488281
347;362.7622375488281
348;361.7415466308594
349;360.72357177734375
350;359.7070617675781
351;358.6932678222656
352;357.6821594238281
353;356.67376708984375
354;355.6692199707031
355;354.66607666015625
356;353.6656494140625
357;352.66790771484375
358;351.67388916015625
359;350.68145751953125
360;349.6915588378906
361;348.70550537109375
362;347.7220764160156
363;346.7412109375
364;345.7629699707031
365;344.7861633300781
366;343.8119812011719
367;342.8403625488281
368;341.8724365234375
369;340.9071044921875
370;339.94329833984375
371;338.9830017089844
372;338.02532958984375
373;337.0701904296875
374;336.1175842285156
375;335.16644287109375
376;334.2188720703125
377;333.2738952636719
378;332.3313903808594
379;331.3913269042969
380;330.4528503417969
381;329.51678466796875
382;328.5841979980469
383;327.6532287597656
384;326.72467041015625
385;325.7985534667969
386;324.8758544921875
387;323.9546813964844
388;323.0360107421875
389;322.1197204589844
390;321.2059631347656
391;320.2945861816406
392;319.3856201171875
393;318.4791564941406
394;317.5750427246094
395;316.67431640625
396;315.7749938964844
397;314.8791198730469
398;313.9846496582031
399;313.0925598144531
400;312.2037353515625
401;311.3173522949219
402;310.43243408203125
403;309.5507507324219
404;308.6714172363281
405;307.79449462890625
406;306.9189453125
407;306.04583740234375
408;305.17498779296875
409;304.30657958984375
410;303.4412841796875
411;302.5782775878906
412;301.7176513671875
413;300.85931396484375
414;300.0024108886719
415;299.1478576660156
416;298.29559326171875
417;297.4464111328125
418;296.5995788574219
419;295.7541198730469
420;294.9110107421875
421;294.07098388671875
422;293.23236083984375
423;292.3968200683594
424;291.56353759765625
425;290.7317199707031
426;289.90216064453125
427;289.0747985839844
428;288.25048828125
429;287.4283752441406
430;286.60772705078125
431;285.78924560546875
432;284.97381591796875
433;284.16058349609375
434;283.3495178222656
435;282.5406188964844
436;281.7339172363281
437;280.92950439453125
438;280.1263732910156
439;279.3255615234375
440;278.5268249511719
441;277.7310485839844
442;276.9373779296875
443;276.1451721191406
444;275.3551940917969
445;274.5672607421875
446;273.7815246582031
447;272.9979248046875
448;272.2164306640625
449;271.4371032714844
450;270.6598815917969
451;269.885498046875
452;269.1131896972656
453;268.34295654296875
454;267.57421875
455;266.80755615234375
456;266.0429992675781
457;265.2805480957031
458;264.5201110839844
459;263.76251220703125
460;263.0069274902344
461;262.2528076171875
462;261.5013732910156
463;260.7513122558594
464;260.00335693359375
465;259.2574462890625
466;258.5142822265625
467;257.7724914550781
468;257.0333251953125
469;256.2956237792969
470;255.560546875
471;254.82688903808594
472;254.0959014892578
473;253.36688232421875
474;252.6393280029297
475;251.91371154785156
476;251.19012451171875
477;250.46917724609375
478;249.7495574951172
479;249.03257751464844
480;248.31698608398438
481;247.60336303710938
482;246.892333984375
483;246.18319702148438
484;245.47552490234375
485;244.76976013183594
486;244.06654357910156
487;243.36474609375
488;242.6654510498047
489;241.96807861328125
490;241.27210998535156
491;240.57809448242188
492;239.88597106933594
493;239.1963653564453
494;238.5081024169922
495;237.82232666015625
496;237.13792419433594
497;236.45541381835938
498;235.77484130859375
499;235.09669494628906
500;234.41989135742188
501;233.74554443359375
502;233.07310485839844
503;232.4020233154297
504;231.73277282714844
505;231.0654296875
506;230.39999389648438
507;229.73687744140625
508;229.0751495361328
509;228.4158172607422
510;227.75830078125
511;227.10267639160156
512;226.4483184814453
513;225.79640197753906
514;225.14625549316406
515;224.49794006347656
516;223.85147094726562
517;223.20635986328125
518;222.56350708007812
519;221.9220428466797
520;221.28282165527344
521;220.6455078125
522;220.00990295410156
523;219.37612915039062
524;218.74420166015625
525;218.11398315429688
526;217.4851531982422
527;216.85853576660156
528;216.23333740234375
529;215.60983276367188
530;214.98855590820312
531;214.36904907226562
532;213.75091552734375
533;213.13450622558594
534;212.52029418945312
535;211.9073944091797
536;211.2967071533203
537;210.6873321533203
538;210.0801239013672
539;209.47425842285156
540;208.87049865722656
541;208.26809692382812
542;207.66738891601562
543;207.06883239746094
544;206.4716033935547
545;205.87608337402344
546;205.28225708007812
547;204.69020080566406
548;204.10018920898438
549;203.51148986816406
550;202.92494201660156
551;202.3396453857422
552;201.75643920898438
553;201.17454528808594
554;200.59432983398438
555;200.0157928466797
556;199.4388885498047
557;198.86370849609375
558;198.29058837890625
559;197.7190704345703
560;197.1492462158203
561;196.58071899414062
562;196.01385498046875
563;195.44898986816406
564;194.88575744628906
565;194.32418823242188
566;193.763916015625
567;193.20559692382812
568;192.64859008789062
569;192.09353637695312
570;191.53977966308594
571;190.98757934570312
572;190.43740844726562
573;189.8888702392578
574;189.34152221679688
575;188.79615783691406
576;188.2523956298828
577;187.71026611328125
578;187.16969299316406
579;186.63037109375
580;186.0926055908203
581;185.55682373046875
582;185.0222625732422
583;184.4893035888672
584;183.95790100097656
585;183.42807006835938
586;182.89979553222656
587;182.37307739257812
588;181.8479461669922
589;181.3246612548828
590;180.80296325683594
591;180.282470703125
592;179.76356506347656
593;179.2465057373047
594;178.7306365966797
595;178.21630859375
596;177.70384216308594
597;177.19288635253906
598;176.68350219726562
599;176.1752471923828
600;175.66888427734375
601;175.16368103027344
602;174.66006469726562
603;174.15818786621094
604;173.6575164794922
605;173.1583709716797
606;172.66070556640625
607;172.16455078125
608;171.66990661621094
609;171.17701721191406
610;170.685302734375
611;170.19509887695312
612;169.70635986328125
613;169.21910095214844
614;168.7335968017578
615;168.24928283691406
616;167.7666778564453
617;167.28555297851562
618;166.8056182861328
619;166.32716369628906
620;165.85035705566406
621;165.37506103515625
622;164.9011993408203
623;164.4285125732422
624;163.95750427246094
625;163.48789978027344
626;163.01979064941406
627;162.5528106689453
628;162.0872344970703
629;161.6233673095703
630;161.16065979003906
631;160.69937133789062
632;160.23974609375
633;159.78125
634;159.3244171142578
635;158.8687286376953
636;158.4144744873047
637;157.9615936279297
638;157.51007080078125
639;157.06024169921875
640;156.61172485351562
641;156.16439819335938
642;155.7186737060547
643;155.27432250976562
644;154.8313751220703
645;154.38973999023438
646;153.94931030273438
647;153.51016235351562
648;153.07261657714844
649;152.63645935058594
650;152.20140075683594
651;151.76792907714844
652;151.33583068847656
653;150.90478515625
654;150.47512817382812
655;150.04678344726562
656;149.61978149414062
657;149.19410705566406
658;148.76995849609375
659;148.34716796875
660;147.9254608154297
661;147.50531005859375
662;147.08645629882812
663;146.66891479492188
664;146.25245666503906
665;145.8373260498047
666;145.42369079589844
667;145.01116943359375
668;144.60012817382812
669;144.19039916992188
670;143.78192138671875
671;143.374755859375
672;142.96888732910156
673;142.5640411376953
674;142.16050720214844
675;141.75827026367188
676;141.35728454589844
677;140.95777893066406
678;140.55950927734375
679;140.16232299804688
680;139.766357421875
681;139.3718719482422
682;138.97869873046875
683;138.5864715576172
684;138.1957550048828
685;137.80606079101562
686;137.41781616210938
687;137.03062438964844
688;136.64463806152344
689;136.26014709472656
690;135.87661743164062
691;135.49435424804688
692;135.1134796142578
693;134.7338409423828
694;134.3553924560547
695;133.9781951904297
696;133.60195922851562
697;133.2270050048828
698;132.85321044921875
699;132.4806365966797
700;132.10926818847656
701;131.73928833007812
702;131.37030029296875
703;131.0024871826172
704;130.6358642578125
705;130.27061462402344
706;129.90660095214844
707;129.54368591308594
708;129.1818084716797
709;128.82110595703125
710;128.4615936279297
711;128.10321044921875
712;127.74600982666016
713;127.39010620117188
714;127.03541564941406
715;126.68187713623047
716;126.3294448852539
717;125.97817993164062
718;125.62791442871094
719;125.27896881103516
720;124.93098449707031
721;124.58411407470703
722;124.23839569091797
723;123.89397430419922
724;123.55073547363281
725;123.20854187011719
726;122.86735534667969
727;122.52743530273438
728;122.18864440917969
729;121.8509750366211
730;121.51439666748047
731;121.17877960205078
732;120.8442611694336
733;120.51101684570312
734;120.17888641357422
735;119.84770202636719
736;119.51773834228516
737;119.188720703125
738;118.86094665527344
739;118.53430938720703
740;118.20870971679688
741;117.88420867919922
742;117.56077575683594
743;117.23844146728516
744;116.9170150756836
745;116.59679412841797
746;116.27751922607422
747;115.95932006835938
748;115.64217376708984
749;115.32624053955078
750;115.0113296508789
751;114.69752502441406
752;114.38471984863281
753;114.072998046875
754;113.7623062133789
755;113.45254516601562
756;113.14381408691406
757;112.83622741699219
758;112.52971649169922
759;112.22412109375
760;111.91952514648438
761;111.61595153808594
762;111.31343078613281
763;111.01193237304688
764;110.7115478515625
765;110.41207885742188
766;110.11376953125
767;109.81647491455078
768;109.52003479003906
769;109.2247314453125
770;108.93047332763672
771;108.63703155517578
772;108.34479522705078
773;108.0533676147461
774;107.76307678222656
775;107.4737777709961
776;107.18533325195312
777;106.89801788330078
778;106.61155700683594
779;106.32606506347656
780;106.04167938232422
781;105.75828552246094
782;105.47584533691406
783;105.19429016113281
784;104.91365814208984
785;104.63401794433594
786;104.35546875
787;104.07787322998047
788;103.80121612548828
789;103.52543640136719
790;103.25059509277344
791;102.97679138183594
792;102.70398712158203
793;102.4319839477539
794;102.1610336303711
795;101.8910140991211
796;101.62184143066406
797;101.35374450683594
798;101.08654022216797
799;100.82026672363281
800;100.55496215820312
801;100.2904281616211
802;100.0268325805664
803;99.76416015625
804;99.50243377685547
805;99.24156951904297
806;98.9817886352539
807;98.7227554321289
808;98.46475982666016
809;98.20767974853516
810;97.95149993896484
811;97.6961441040039
812;97.441650390625
813;97.18814849853516
814;96.93545532226562
815;96.68375396728516
816;96.43295288085938
817;96.18289184570312
818;95.93375396728516
819;95.68551635742188
820;95.43814849853516
821;95.19164276123047
822;94.94601440429688
823;94.70127868652344
824;94.45738983154297
825;94.2144546508789
826;93.972412109375
827;93.73112487792969
828;93.49077606201172
829;93.25132751464844
830;93.01270294189453
831;92.77484893798828
832;92.53794860839844
833;92.30178833007812
834;92.06656646728516
835;91.83219909667969
836;91.59858703613281
837;91.36579895019531
838;91.13387298583984
839;90.9028549194336
840;90.6725845336914
841;90.44322967529297
842;90.2146987915039
843;89.98690795898438
844;89.76000213623047
845;89.53386688232422
846;89.30854797363281
847;89.08403778076172
848;88.8603515625
849;88.6374740600586
850;88.41547393798828
851;88.19420623779297
852;87.97374725341797
853;87.75418853759766
854;87.53531646728516
855;87.31727600097656
856;87.10001373291016
857;86.88355255126953
858;86.66796112060547
859;86.45313262939453
860;86.23912048339844
861;86.02579498291016
862;85.8133316040039
863;85.60159301757812
864;85.390625
865;85.18043518066406
866;84.9710922241211
867;84.76243591308594
868;84.5545425415039
869;84.34744262695312
870;84.14110565185547
871;83.93557739257812
872;83.7308120727539
873;83.5268325805664
874;83.32361602783203
875;83.12102508544922
876;82.91930389404297
877;82.71830749511719
878;82.5180892944336
879;82.318603515625
880;82.1198501586914
881;81.92184448242188
882;81.7245101928711
883;81.52796173095703
884;81.33208465576172
885;81.13703155517578
886;80.94263458251953
887;80.74894714355469
888;80.55607604980469
889;80.36385345458984
890;80.17233276367188
891;79.9815673828125
892;79.79149627685547
893;79.60213470458984
894;79.41350555419922
895;79.22559356689453
896;79.03843688964844
897;78.8519058227539
898;78.66617584228516
899;78.48107147216797
900;78.29673767089844
901;78.11304473876953
902;77.93002319335938
903;77.74771118164062
904;77.56616973876953
905;77.38523864746094
906;77.20504760742188
907;77.02555084228516
908;76.84674835205078
909;76.66857147216797
910;76.4910659790039
911;76.31421661376953
912;76.13813781738281
913;75.96266174316406
914;75.78785705566406
915;75.61377716064453
916;75.44032287597656
917;75.26750183105469
918;75.09545135498047
919;74.92396545410156
920;74.75320434570312
921;74.58311462402344
922;74.41365814208984
923;74.24480438232422
924;74.07662963867188
925;73.90908813476562
926;73.74224090576172
927;73.57604217529297
928;73.41045379638672
929;73.24546813964844
930;73.0811996459961
931;72.91756439208984
932;72.75457000732422
933;72.59221649169922
934;72.43049621582031
935;72.26935577392578
936;72.10887145996094
937;71.9489974975586
938;71.78976440429688
939;71.63111877441406
940;71.47311401367188
941;71.31574249267578
942;71.15895080566406
943;71.0028305053711
944;70.84730529785156
945;70.69236755371094
946;70.53800964355469
947;70.38428497314453
948;70.231201171875
949;70.07872772216797
950;69.92684936523438
951;69.77555084228516
952;69.62482452392578
953;69.47469329833984
954;69.32520294189453
955;69.17625427246094
956;69.0279541015625
957;68.8802490234375
958;68.73307800292969
959;68.58647155761719
960;68.44047546386719
961;68.2950439453125
962;68.15019989013672
963;68.00593566894531
964;67.86231231689453
965;67.7192153930664
966;67.57669067382812
967;67.43474578857422
968;67.2933578491211
969;67.15251159667969
970;67.01224517822266
971;66.87252807617188
972;66.73338317871094
973;66.59479522705078
974;66.45681762695312
975;66.31938171386719
976;66.18251037597656
977;66.04613494873047
978;65.91032409667969
979;65.77510070800781
980;65.64039611816406
981;65.5062026977539
982;65.37261962890625
983;65.23957824707031
984;65.10707092285156
985;64.97510528564453
986;64.84365844726562
987;64.7127685546875
988;64.58240509033203
989;64.45252227783203
990;64.3232192993164
991;64.19441223144531
992;64.06611633300781
993;63.93838119506836
994;63.81119918823242
995;63.68449401855469
996;63.558349609375
997;63.43269348144531
998;63.30752944946289
999;63.18291473388672
1000;63.05878829956055
1001;62.93513870239258
1002;62.81206130981445
1003;62.68950653076172
1004;62.56739044189453
1005;62.44579315185547
1006;62.32469940185547
1007;62.20414352416992
1008;62.08407211303711
1009;61.96446990966797
1010;61.84538650512695
1011;61.72684097290039
1012;61.608741760253906
1013;61.49113845825195
1014;61.37405776977539
1015;61.25739669799805
1016;61.14122772216797
1017;61.025550842285156
1018;60.91040802001953
1019;60.795719146728516
1020;60.68151092529297
1021;60.567806243896484
1022;60.45451736450195
1023;60.34174728393555
1024;60.22941970825195
1025;60.1175537109375
1026;60.00621032714844
1027;59.89527893066406
1028;59.784828186035156
1029;59.67485427856445
1030;59.565330505371094
1031;59.45629119873047
1032;59.347713470458984
1033;59.239566802978516
1034;59.131874084472656
1035;59.024658203125
1036;58.917869567871094
1037;58.81157302856445
1038;58.70573043823242
1039;58.60030746459961
1040;58.4953727722168
1041;58.39086151123047
1042;58.28681564331055
1043;58.18319320678711
1044;58.080055236816406
1045;57.97731018066406
1046;57.87498474121094
1047;57.77315139770508
1048;57.671730041503906
1049;57.570735931396484
1050;57.470176696777344
1051;57.37004089355469
1052;57.27033615112305
1053;57.17105484008789
1054;57.07219314575195
1055;56.97377014160156
1056;56.87578201293945
1057;56.7782096862793
1058;56.681068420410156
1059;56.58434295654297
1060;56.488037109375
1061;56.39216995239258
1062;56.29668426513672
1063;56.201637268066406
1064;56.106956481933594
1065;56.01274490356445
1066;55.91889572143555
1067;55.82548141479492
1068;55.73246383666992
1069;55.63985824584961
1070;55.54764175415039
1071;55.455833435058594
1072;55.36445236206055
1073;55.27345275878906
1074;55.182861328125
1075;55.09264373779297
1076;55.00284194946289
1077;54.91341018676758
1078;54.82440185546875
1079;54.7357177734375
1080;54.6474494934082
1081;54.55961227416992
1082;54.47216796875
1083;54.385066986083984
1084;54.298336029052734
1085;54.21200180053711
1086;54.12605667114258
1087;54.04049301147461
1088;53.95528030395508
1089;53.8704948425293
1090;53.786033630371094
1091;53.70201110839844
1092;53.6182975769043
1093;53.534969329833984
1094;53.45203399658203
1095;53.369468688964844
1096;53.28727722167969
1097;53.205421447753906
1098;53.12397384643555
1099;53.04283142089844
1100;52.96211624145508
1101;52.88173294067383
1102;52.80171203613281
1103;52.72205352783203
1104;52.64273452758789
1105;52.56377029418945
1106;52.485164642333984
1107;52.40692901611328
1108;52.32902145385742
1109;52.251461029052734
1110;52.17426681518555
1111;52.097412109375
1112;52.020931243896484
1113;51.944766998291016
1114;51.868953704833984
1115;51.79345703125
1116;51.718318939208984
1117;51.64354705810547
1118;51.569091796875
1119;51.49497985839844
1120;51.42120361328125
1121;51.34774398803711
1122;51.27463150024414
1123;51.20186996459961
1124;51.12944030761719
1125;51.05730438232422
1126;50.98553466796875
1127;50.91410446166992
1128;50.842952728271484
1129;50.77216720581055
1130;50.70170211791992
1131;50.63154220581055
1132;50.561710357666016
1133;50.49219512939453
1134;50.42302703857422
1135;50.35413360595703
1136;50.28557205200195
1137;50.217323303222656
1138;50.14939880371094
1139;50.081764221191406
1140;50.014461517333984
1141;49.94746017456055
1142;49.880794525146484
1143;49.81440734863281
1144;49.748355865478516
1145;49.682594299316406
1146;49.617130279541016
1147;49.55199432373047
1148;49.48714065551758
1149;49.422607421875
1150;49.358341217041016
1151;49.29438400268555
1152;49.23073196411133
1153;49.167381286621094
1154;49.10432434082031
1155;49.04154586791992
1156;48.97908401489258
1157;48.91691589355469
1158;48.85503005981445
1159;48.79344940185547
1160;48.732139587402344
1161;48.67110061645508
1162;48.61037063598633
1163;48.54988098144531
1164;48.48975372314453
1165;48.429866790771484
1166;48.37025451660156
1167;48.310935974121094
1168;48.251895904541016
1169;48.19314956665039
1170;48.134666442871094
1171;48.07645797729492
1172;48.018550872802734
1173;47.960872650146484
1174;47.90350341796875
1175;47.84641647338867
1176;47.78956985473633
1177;47.73298263549805
1178;47.676700592041016
1179;47.620670318603516
1180;47.56491470336914
1181;47.509456634521484
1182;47.45420837402344
1183;47.39924621582031
1184;47.34455490112305
1185;47.29011154174805
1186;47.235939025878906
1187;47.18202209472656
1188;47.12834548950195
1189;47.07494354248047
1190;47.02180862426758
1191;46.96890640258789
1192;46.916263580322266
1193;46.86386489868164
1194;46.811744689941406
1195;46.75987243652344
1196;46.70824432373047
1197;46.6568717956543
1198;46.60576248168945
1199;46.55488204956055
1200;46.50422668457031
1201;46.45382308959961
1202;46.40367889404297
1203;46.353759765625
1204;46.30411148071289
1205;46.254695892333984
1206;46.20550537109375
1207;46.15657043457031
1208;46.10787582397461
1209;46.0594367980957
1210;46.011192321777344
1211;45.96320724487305
1212;45.91545486450195
1213;45.86796188354492
1214;45.82065200805664
1215;45.773597717285156
1216;45.72677993774414
1217;45.68019104003906
1218;45.63382339477539
1219;45.58768081665039
1220;45.54179763793945
1221;45.49611282348633
1222;45.45063781738281
1223;45.40541076660156
1224;45.36039352416992
1225;45.31559371948242
1226;45.27103805541992
1227;45.22667694091797
1228;45.182559967041016
1229;45.138648986816406
1230;45.094970703125
1231;45.05149459838867
1232;45.008235931396484
1233;44.96517562866211
1234;44.922340393066406
1235;44.879737854003906
1236;44.83734130859375
1237;44.795169830322266
1238;44.75318908691406
1239;44.71141815185547
1240;44.66986846923828
1241;44.62851333618164
1242;44.58734893798828
1243;44.546409606933594
1244;44.505672454833984
1245;44.46513366699219
1246;44.4248161315918
1247;44.384700775146484
1248;44.344764709472656
1249;44.30503845214844
1250;44.26551055908203
1251;44.22618103027344
1252;44.18708038330078
1253;44.14815902709961
1254;44.109432220458984
1255;44.07089614868164
1256;44.032569885253906
1257;43.99442672729492
1258;43.95647430419922
1259;43.918724060058594
1260;43.88118362426758
1261;43.84380340576172
1262;43.80663299560547
1263;43.76963806152344
1264;43.732852935791016
1265;43.696224212646484
1266;43.65980911254883
1267;43.62358093261719
1268;43.5875244140625
1269;43.551639556884766
1270;43.51597213745117
1271;43.48046112060547
1272;43.44512939453125
1273;43.40999221801758
1274;43.37501907348633
1275;43.34024429321289
1276;43.3056526184082
1277;43.27123260498047
1278;43.23698425292969
1279;43.202919006347656
1280;43.16902542114258
1281;43.13530731201172
1282;43.10177230834961
1283;43.06840896606445
1284;43.035194396972656
1285;43.002159118652344
1286;42.96933364868164
1287;42.9366455078125
1288;42.90414047241211
1289;42.87179183959961
1290;42.83961868286133
1291;42.80760955810547
1292;42.77577209472656
1293;42.744117736816406
1294;42.712608337402344
1295;42.68125915527344
1296;42.650081634521484
1297;42.61907196044922
1298;42.58820343017578
1299;42.5575065612793
1300;42.5269775390625
1301;42.496604919433594
1302;42.46641159057617
1303;42.43635177612305
1304;42.40645217895508
1305;42.37671661376953
1306;42.34712219238281
1307;42.31769943237305
1308;42.288448333740234
1309;42.25932693481445
1310;42.23038101196289
1311;42.20155715942383
1312;42.172916412353516
1313;42.1443977355957
1314;42.11604690551758
1315;42.08784103393555
1316;42.059791564941406
1317;42.031898498535156
1318;42.00414276123047
1319;41.976539611816406
1320;41.94906997680664
1321;41.92177200317383
1322;41.89459991455078
1323;41.867576599121094
1324;41.84069061279297
1325;41.813968658447266
1326;41.787391662597656
1327;41.760948181152344
1328;41.73463439941406
1329;41.70846939086914
1330;41.682437896728516
1331;41.65656661987305
1332;41.63080596923828
1333;41.60520553588867
1334;41.57972717285156
1335;41.55439376831055
1336;41.52921676635742
1337;41.50414276123047
1338;41.47922134399414
1339;41.454463958740234
1340;41.42980194091797
1341;41.4052734375
1342;41.38089370727539
1343;41.35663986206055
1344;41.33251190185547
1345;41.30851745605469
1346;41.28465270996094
1347;41.26091384887695
1348;41.23733901977539
1349;41.21385192871094
1350;41.19050979614258
1351;41.167293548583984
1352;41.144203186035156
1353;41.121238708496094
1354;41.09840393066406
1355;41.07569885253906
1356;41.053096771240234
1357;41.0306282043457
1358;41.00827407836914
1359;40.98607635498047
1360;40.96396255493164
1361;40.94200897216797
1362;40.92013168334961
1363;40.898414611816406
1364;40.87678527832031
1365;40.85530471801758
1366;40.833927154541016
1367;40.81266403198242
1368;40.79151916503906
1369;40.770511627197266
1370;40.74958419799805
1371;40.728816986083984
1372;40.70813751220703
1373;40.68756866455078
1374;40.66713333129883
1375;40.646793365478516
1376;40.62657928466797
1377;40.606468200683594
1378;40.58646774291992
1379;40.566593170166016
1380;40.54681396484375
1381;40.527164459228516
1382;40.50758743286133
1383;40.48815155029297
1384;40.468814849853516
1385;40.4495964050293
1386;40.43046951293945
1387;40.41147232055664
1388;40.392574310302734
1389;40.373775482177734
1390;40.35507583618164
1391;40.33649826049805
1392;40.31801986694336
1393;40.299625396728516
1394;40.281375885009766
1395;40.2631950378418
1396;40.245121002197266
1397;40.227176666259766
1398;40.20930480957031
1399;40.19154357910156
1400;40.17387771606445
1401;40.15632247924805
1402;40.13885498046875
1403;40.12150955200195
1404;40.10423278808594
1405;40.08708572387695
1406;40.07000732421875
1407;40.05303955078125
1408;40.03615188598633
1409;40.019386291503906
1410;40.00271224975586
1411;39.98611068725586
1412;39.96963882446289
1413;39.9532470703125
1414;39.93693161010742
1415;39.92071533203125
1416;39.904598236083984
1417;39.88859176635742
1418;39.87265396118164
1419;39.8568115234375
1420;39.84105682373047
1421;39.82538986206055
1422;39.80982208251953
1423;39.79436492919922
1424;39.77897262573242
1425;39.763671875
1426;39.74845504760742
1427;39.73334503173828
1428;39.71829605102539
1429;39.70336151123047
1430;39.688499450683594
1431;39.6737174987793
1432;39.65904235839844
1433;39.64444351196289
1434;39.629905700683594
1435;39.615478515625
1436;39.601139068603516
1437;39.58686447143555
1438;39.572689056396484
1439;39.5585823059082
1440;39.54457473754883
1441;39.530635833740234
1442;39.51677703857422
1443;39.50300216674805
1444;39.489315032958984
1445;39.4757080078125
1446;39.46216583251953
1447;39.44872283935547
1448;39.43535232543945
1449;39.422054290771484
1450;39.408836364746094
1451;39.39569854736328
1452;39.38264083862305
1453;39.36967849731445
1454;39.356754302978516
1455;39.343929290771484
1456;39.331172943115234
1457;39.31848907470703
1458;39.30589294433594
1459;39.29336166381836
1460;39.28090286254883
1461;39.26852798461914
1462;39.2562141418457
1463;39.24396896362305
1464;39.2318115234375
1465;39.21973419189453
1466;39.20771408081055
1467;39.19578552246094
1468;39.18389129638672
1469;39.17208480834961
1470;39.160362243652344
1471;39.148704528808594
1472;39.13710021972656
1473;39.12559127807617
1474;39.1141357421875
1475;39.10273742675781
1476;39.0914306640625
1477;39.08016586303711
1478;39.069007873535156
1479;39.05788040161133
1480;39.04684066772461
1481;39.035865783691406
1482;39.024940490722656
1483;39.014102935791016
1484;39.00331115722656
1485;38.992591857910156
1486;38.981956481933594
1487;38.97135543823242
1488;38.9608268737793
1489;38.95037841796875
1490;38.93998336791992
1491;38.929649353027344
1492;38.919376373291016
1493;38.9091682434082
1494;38.89903259277344
1495;38.88893127441406
1496;38.87891387939453
1497;38.868953704833984
1498;38.85905075073242
1499;38.849205017089844
1500;38.83942413330078
1501;38.82969665527344
1502;38.820045471191406
1503;38.81044387817383
1504;38.8009033203125
1505;38.79142379760742
1506;38.781982421875
1507;38.77263259887695
1508;38.76332473754883
1509;38.75406265258789
1510;38.744869232177734
1511;38.73573303222656
1512;38.72664260864258
1513;38.71762466430664
1514;38.70864486694336
1515;38.699729919433594
1516;38.69086456298828
1517;38.682071685791016
1518;38.673316955566406
1519;38.66461181640625
1520;38.65597915649414
1521;38.647377014160156
1522;38.638851165771484
1523;38.63036346435547
1524;38.6219482421875
1525;38.61356735229492
1526;38.60523986816406
1527;38.59696960449219
1528;38.5887451171875
1529;38.58057403564453
1530;38.572444915771484
1531;38.56439208984375
1532;38.55636215209961
1533;38.54838943481445
1534;38.54047775268555
1535;38.53260803222656
1536;38.52478790283203
1537;38.51700973510742
1538;38.50928497314453
1539;38.501609802246094
1540;38.4940071105957
1541;38.48641586303711
1542;38.47888946533203
1543;38.471412658691406
1544;38.46397399902344
1545;38.456600189208984
1546;38.449241638183594
1547;38.441951751708984
1548;38.43470764160156
1549;38.42749786376953
1550;38.42035675048828
1551;38.41324996948242
1552;38.40617752075195
1553;38.39916229248047
1554;38.39217758178711
1555;38.385250091552734
1556;38.378379821777344
1557;38.371517181396484
1558;38.364723205566406
1559;38.357967376708984
1560;38.35124588012695
1561;38.34458541870117
1562;38.337955474853516
1563;38.33137512207031
1564;38.3248291015625
1565;38.31831741333008
1566;38.311866760253906
1567;38.305442810058594
1568;38.299072265625
1569;38.29273986816406
1570;38.28644943237305
1571;38.28019714355469
1572;38.27396774291992
1573;38.26778793334961
1574;38.26166915893555
1575;38.25556945800781
1576;38.24951171875
1577;38.24349594116211
1578;38.23751449584961
1579;38.23158645629883
1580;38.22568130493164
1581;38.219825744628906
1582;38.21399688720703
1583;38.208213806152344
1584;38.202457427978516
1585;38.196754455566406
1586;38.19108963012695
1587;38.185447692871094
1588;38.17984390258789
1589;38.17427444458008
1590;38.16875076293945
1591;38.163272857666016
1592;38.15781021118164
1593;38.15239334106445
1594;38.14698791503906
1595;38.14165496826172
1596;38.1363410949707
1597;38.13106918334961
1598;38.12580490112305
1599;38.12060546875
1600;38.11543273925781
1601;38.11027908325195
1602;38.105186462402344
1603;38.100120544433594
1604;38.095069885253906
1605;38.09006881713867
1606;38.0850830078125
1607;38.080135345458984
1608;38.075233459472656
1609;38.07036209106445
1610;38.06552505493164
1611;38.06070327758789
1612;38.05594253540039
1613;38.05118179321289
1614;38.046451568603516
1615;38.04178237915039
1616;38.03711700439453
1617;38.03250503540039
1618;38.027896881103516
1619;38.023353576660156
1620;38.018836975097656
1621;38.01432418823242
1622;38.00983810424805
1623;38.00539779663086
1624;38.00099563598633
1625;37.99660873413086
1626;37.99226379394531
1627;37.9879264831543
1628;37.983638763427734
1629;37.9793701171875
1630;37.97514343261719
1631;37.970924377441406
1632;37.966739654541016
1633;37.96259307861328
1634;37.958473205566406
1635;37.95436096191406
1636;37.95030975341797
1637;37.94626998901367
1638;37.9422492980957
1639;37.93826675415039
1640;37.93429946899414
1641;37.93035888671875
1642;37.926456451416016
1643;37.92259216308594
1644;37.91872787475586
1645;37.91489791870117
1646;37.91109848022461
1647;37.90732955932617
1648;37.90357208251953
1649;37.89985275268555
1650;37.89614486694336
1651;37.89247512817383
1652;37.88882827758789
1653;37.88520050048828
1654;37.881595611572266
1655;37.87803649902344
1656;37.874473571777344
1657;37.8709602355957
1658;37.867454528808594
1659;37.86397171020508
1660;37.86051559448242
1661;37.857093811035156
1662;37.853675842285156
1663;37.85029602050781
1664;37.84693145751953
1665;37.84359359741211
1666;37.84028625488281
1667;37.83700180053711
1668;37.833717346191406
1669;37.83046340942383
1670;37.82724380493164
1671;37.82405471801758
1672;37.820865631103516
1673;37.81771469116211
1674;37.814571380615234
1675;37.811458587646484
1676;37.808372497558594
1677;37.80530548095703
1678;37.8022575378418
1679;37.79923629760742
1680;37.796226501464844
1681;37.79322814941406
1682;37.79027557373047
1683;37.78732681274414
1684;37.784400939941406
1685;37.781490325927734
1686;37.77861404418945
1687;37.77574157714844
1688;37.77290344238281
1689;37.77008056640625
1690;37.76726531982422
1691;37.76450729370117
1692;37.76172637939453
1693;37.758975982666016
1694;37.756248474121094
1695;37.75355529785156
1696;37.750850677490234
1697;37.74818801879883
1698;37.74553298950195
1699;37.7429084777832
1700;37.740291595458984
1701;37.73770523071289
1702;37.73512268066406
1703;37.73255157470703
1704;37.73002243041992
1705;37.727500915527344
1706;37.724998474121094
1707;37.722496032714844
1708;37.72003936767578
1709;37.717594146728516
1710;37.715145111083984
1711;37.71273422241211
1712;37.71034240722656
1713;37.70795440673828
1714;37.70560073852539
1715;37.7032470703125
1716;37.700904846191406
1717;37.698585510253906
1718;37.6962890625
1719;37.69401168823242
1720;37.69173049926758
1721;37.68948745727539
1722;37.687252044677734
1723;37.68504333496094
1724;37.68282699584961
1725;37.68064880371094
1726;37.67847442626953
1727;37.676334381103516
1728;37.67417907714844
1729;37.672054290771484
1730;37.66993713378906
1731;37.66785430908203
1732;37.665771484375
1733;37.663700103759766
1734;37.66164779663086
1735;37.65960693359375
1736;37.657596588134766
1737;37.65559005737305
1738;37.65359878540039
1739;37.65161895751953
1740;37.649658203125
1741;37.64771270751953
1742;37.64578628540039
1743;37.64385223388672
1744;37.641944885253906
1745;37.640052795410156
1746;37.6381721496582
1747;37.63630294799805
1748;37.634464263916016
1749;37.63261795043945
1750;37.630794525146484
1751;37.62897872924805
1752;37.62718200683594
1753;37.625389099121094
1754;37.62362289428711
1755;37.62186813354492
1756;37.62012481689453
1757;37.618385314941406
1758;37.61666488647461
1759;37.61494064331055
1760;37.61326599121094
1761;37.611568450927734
1762;37.60988998413086
1763;37.60823059082031
1764;37.606590270996094
1765;37.60493850708008
1766;37.60331726074219
1767;37.60170364379883
1768;37.60010528564453
1769;37.598506927490234
1770;37.596946716308594
1771;37.59537887573242
1772;37.59382247924805
1773;37.59227752685547
1774;37.59073257446289
1775;37.5892333984375
1776;37.58772659301758
1777;37.58621597290039
1778;37.584716796875
1779;37.583251953125
1780;37.58177947998047
1781;37.58032989501953
1782;37.57889175415039
1783;37.57746505737305
1784;37.576026916503906
1785;37.57461929321289
1786;37.57320785522461
1787;37.57181167602539
1788;37.5704345703125
1789;37.569068908691406
1790;37.567691802978516
1791;37.56633758544922
1792;37.56498718261719
1793;37.56365203857422
1794;37.56231689453125
1795;37.560997009277344
1796;37.55968475341797
1797;37.55838394165039
1798;37.55707550048828
1799;37.55579376220703
1800;37.55448532104492
1801;37.5532112121582
1802;37.55192184448242
1803;37.55065155029297
1804;37.54936981201172
1805;37.54808807373047
1806;37.54679489135742
1807;37.54549026489258
1808;37.5441780090332
1809;37.54285430908203
1810;37.54149627685547
1811;37.540138244628906
1812;37.538719177246094
1813;37.53718185424805
1814;37.535457611083984
1815;37.53341293334961
1816;37.53083419799805
1817;37.527469635009766
1818;37.52294921875
1819;37.5159797668457
1820;37.50312423706055
1821;37.48246383666992
1822;37.46668243408203
1823;37.46009826660156
1824;37.46455764770508
1825;37.471046447753906
1826;37.465267181396484
1827;37.4536018371582
1828;37.44357681274414
1829;37.43882369995117
1830;37.437435150146484
1831;37.435604095458984
1832;37.43315505981445
1833;37.429115295410156
1834;37.42333221435547
1835;37.41672134399414
1836;37.408897399902344
1837;37.40143966674805
1838;37.39615249633789
1839;37.3917350769043
1840;37.385719299316406
1841;37.380367279052734
1842;37.373146057128906
1843;37.36404037475586
1844;37.35616683959961
1845;37.34981155395508
1846;37.34257888793945
1847;37.33350372314453
1848;37.32415771484375
1849;37.316429138183594
1850;37.30906677246094
1851;37.30085372924805
1852;37.29222106933594
1853;37.283390045166016
1854;37.27419662475586
1855;37.26456832885742
1856;37.25453186035156
1857;37.245216369628906
1858;37.23543167114258
1859;37.225467681884766
1860;37.21574020385742
1861;37.20509338378906
1862;37.193748474121094
1863;37.18273162841797
1864;37.171669006347656
1865;37.16009521484375
1866;37.14666748046875
1867;37.134849548339844
1868;37.12156295776367
1869;37.109130859375
1870;37.09705352783203
1871;37.084529876708984
1872;37.07078552246094
1873;37.05745315551758
1874;37.043724060058594
1875;37.02944564819336
1876;37.01476287841797
1877;36.9996337890625
1878;36.9837646484375
1879;36.96645736694336
1880;36.94575881958008
1881;36.923683166503906
1882;36.90515899658203
1883;36.88606643676758
1884;36.86140823364258
1885;36.8405876159668
1886;36.819801330566406
1887;36.79499053955078
1888;36.76884078979492
1889;36.74531173706055
1890;36.719444274902344
1891;36.69100570678711
1892;36.66517639160156
1893;36.63737106323242
1894;36.60872268676758
1895;36.583011627197266
1896;36.55299377441406
1897;36.52729797363281
1898;36.499183654785156
1899;36.47001647949219
1900;36.441162109375
1901;36.411888122558594
1902;36.3835563659668
1903;36.35118865966797
1904;36.32088088989258
1905;36.28977966308594
1906;36.25719451904297
1907;36.22633743286133
1908;36.1943359375
1909;36.16026306152344
1910;36.12983322143555
1911;36.097740173339844
1912;36.062339782714844
1913;36.03001403808594
1914;35.99836349487305
1915;35.96577835083008
1916;35.93330764770508
1917;35.9012336730957
1918;35.870018005371094
1919;35.83911895751953
1920;35.80759811401367
1921;35.777217864990234
1922;35.746742248535156
1923;35.72164535522461
1924;35.68931198120117
1925;35.65796661376953
1926;35.63179397583008
1927;35.60584259033203
1928;35.579097747802734
1929;35.55139923095703
1930;35.52235794067383
1931;35.4991340637207
1932;35.47736740112305
1933;35.453208923339844
1934;35.42784118652344
1935;35.40224838256836
1936;35.38344955444336
1937;35.364078521728516
1938;35.34040451049805
1939;35.31673812866211
1940;35.29835510253906
1941;35.27928924560547
1942;35.26005935668945
1943;35.24071502685547
1944;35.22138977050781
1945;35.202308654785156
1946;35.18382263183594
1947;35.16700744628906
1948;35.150184631347656
1949;35.1329231262207
1950;35.114990234375
1951;35.09781265258789
1952;35.08122634887695
1953;35.06410598754883
1954;35.045921325683594
1955;35.026241302490234
1956;35.0045051574707
1957;34.980289459228516
1958;34.95040512084961
1959;34.9157829284668
1960;34.86803436279297
1961;34.82633590698242
1962;34.7823486328125
1963;34.75642013549805
1964;34.73068618774414
1965;34.710628509521484
1966;34.68937301635742
1967;34.66508102416992
1968;34.63322448730469
1969;34.60267639160156
1970;34.56848907470703
1971;34.53666305541992
1972;34.50011444091797
1973;34.46286392211914
1974;34.4217643737793
1975;34.381893157958984
1976;34.35149002075195
1977;34.318992614746094
1978;34.28272247314453
1979;34.25142288208008
1980;34.21714401245117
1981;34.181209564208984
1982;34.14280319213867
1983;34.100589752197266
1984;34.06227111816406
1985;34.0264778137207
1986;33.991947174072266
1987;33.95559310913086
1988;33.91511154174805
1989;33.88064193725586
1990;33.84040069580078
1991;33.801761627197266
1992;33.76211929321289
1993;33.72236251831055
1994;33.683311462402344
1995;33.64326477050781
1996;33.60051727294922
1997;33.56092071533203
1998;33.519630432128906
1999;33.47698974609375
