;loss
0;1401.76220703125
1;1400.7650146484375
2;1399.4322509765625
3;1398.1065673828125
4;1396.7857666015625
5;1395.4671630859375
6;1394.1876220703125
7;1392.8643798828125
8;1391.5535888671875
9;1390.21435546875
10;1388.8692626953125
11;1387.5023193359375
12;1386.11669921875
13;1384.708984375
14;1383.2681884765625
15;1381.80517578125
16;1380.3084716796875
17;1378.774169921875
18;1377.18310546875
19;1375.543212890625
20;1373.86767578125
21;1372.1348876953125
22;1370.3189697265625
23;1368.4322509765625
24;1366.4908447265625
25;1364.441650390625
26;1362.299072265625
27;1360.0806884765625
28;1357.7520751953125
29;1355.3018798828125
30;1352.686767578125
31;1349.9205322265625
32;1347.022705078125
33;1343.9078369140625
34;1340.5887451171875
35;1337.0836181640625
36;1333.2862548828125
37;1329.2510986328125
38;1324.90380859375
39;1320.15234375
40;1315.0523681640625
41;1309.500244140625
42;1303.366943359375
43;1296.7015380859375
44;1289.2733154296875
45;1281.0338134765625
46;1271.842529296875
47;1261.5286865234375
48;1249.87939453125
49;1236.7598876953125
50;1221.7440185546875
51;1204.4346923828125
52;1184.3587646484375
53;1161.0303955078125
54;1133.9212646484375
55;1103.6607666015625
56;1072.352783203125
57;1042.7052001953125
58;1016.9307250976562
59;995.1668090820312
60;976.9185180664062
61;961.4195556640625
62;948.1535034179688
63;936.494140625
64;926.3065185546875
65;917.1715087890625
66;908.9987182617188
67;901.5706787109375
68;894.7530517578125
69;888.4467163085938
70;882.5184936523438
71;876.939453125
72;871.6900634765625
73;866.6923217773438
74;861.9122314453125
75;857.2991943359375
76;852.8587036132812
77;848.5960693359375
78;844.468505859375
79;840.4622192382812
80;836.5437622070312
81;832.7506713867188
82;829.0513305664062
83;825.4183959960938
84;821.867431640625
85;818.4117431640625
86;815.0267944335938
87;811.70703125
88;808.4312133789062
89;805.2117919921875
90;802.0617065429688
91;798.9437866210938
92;795.8881225585938
93;792.860595703125
94;789.8889770507812
95;786.956298828125
96;784.0459594726562
97;781.1837158203125
98;778.3540649414062
99;775.5427856445312
100;772.7637939453125
101;770.0266723632812
102;767.3170776367188
103;764.6218872070312
104;761.9534912109375
105;759.3220825195312
106;756.7146606445312
107;754.1304931640625
108;751.5580444335938
109;749.0086059570312
110;746.4916381835938
111;743.9951171875
112;741.51953125
113;739.0552368164062
114;736.62109375
115;734.1968383789062
116;731.7914428710938
117;729.4048461914062
118;727.0365600585938
119;724.6863403320312
120;722.3534545898438
121;720.046630859375
122;717.7564086914062
123;715.4735717773438
124;713.2151489257812
125;710.9637451171875
126;708.7356567382812
127;706.5223388671875
128;704.3232421875
129;702.1378173828125
130;699.9658813476562
131;697.7994995117188
132;695.6535034179688
133;693.5198974609375
134;691.398681640625
135;689.289306640625
136;687.191162109375
137;685.1039428710938
138;683.0274047851562
139;680.9542846679688
140;678.8912963867188
141;676.8447875976562
142;674.801025390625
143;672.7666625976562
144;670.7476806640625
145;668.730712890625
146;666.728515625
147;664.7281494140625
148;662.741943359375
149;660.7571411132812
150;658.7805786132812
151;656.8176879882812
152;654.8561401367188
153;652.9013061523438
154;650.959228515625
155;649.0238037109375
156;647.0947265625
157;645.1719360351562
158;643.2551879882812
159;641.344482421875
160;639.4400634765625
161;637.541259765625
162;635.6427001953125
163;633.7554931640625
164;631.8742065429688
165;629.9990844726562
166;628.1292724609375
167;626.2651977539062
168;624.40625
169;622.5528564453125
170;620.6997680664062
171;618.8567504882812
172;617.019775390625
173;615.183837890625
174;613.3589477539062
175;611.5397338867188
176;609.7264404296875
177;607.9187622070312
178;606.1163940429688
179;604.3162841796875
180;602.5264282226562
181;600.7423095703125
182;598.9639282226562
183;597.1868286132812
184;595.4208984375
185;593.6610107421875
186;591.902587890625
187;590.1544799804688
188;588.412353515625
189;586.672119140625
190;584.9378662109375
191;583.2139282226562
192;581.4959106445312
193;579.7799682617188
194;578.0741577148438
195;576.3704223632812
196;574.6729125976562
197;572.9852905273438
198;571.2999877929688
199;569.6245727539062
200;567.951416015625
201;566.2843627929688
202;564.6234130859375
203;562.968505859375
204;561.3232421875
205;559.6803588867188
206;558.0433349609375
207;556.4122924804688
208;554.7907104492188
209;553.1749877929688
210;551.5618286132812
211;549.9545288085938
212;548.3530883789062
213;546.7605590820312
214;545.1703491210938
215;543.5858764648438
216;542.0103759765625
217;540.4369506835938
218;538.8690795898438
219;537.3099365234375
220;535.7561645507812
221;534.2046508789062
222;532.6585693359375
223;531.1209106445312
224;529.5884399414062
225;528.0581665039062
226;526.5330200195312
227;525.0131225585938
228;523.4983520507812
229;521.9915771484375
230;520.4899291992188
231;518.9932250976562
232;517.5014038085938
233;516.0145263671875
234;514.5297241210938
235;513.0499267578125
236;511.5776062011719
237;510.10736083984375
238;508.64459228515625
239;507.1866149902344
240;505.7332458496094
241;504.28460693359375
242;502.8405456542969
243;501.4010925292969
244;499.9662780761719
245;498.5334167480469
246;497.10760498046875
247;495.6864013671875
248;494.2696838378906
249;492.85736083984375
250;491.44940185546875
251;490.0459289550781
252;488.6467590332031
253;487.2519226074219
254;485.86138916015625
255;484.47509765625
256;483.09307861328125
257;481.7130126953125
258;480.3393859863281
259;478.97003173828125
260;477.60479736328125
261;476.2437744140625
262;474.88677978515625
263;473.53399658203125
264;472.1852722167969
265;470.83837890625
266;469.49554443359375
267;468.1566467285156
268;466.82403564453125
269;465.49530029296875
270;464.1685485839844
271;462.84771728515625
272;461.5309143066406
273;460.2158508300781
274;458.9067687988281
275;457.5994873046875
276;456.29608154296875
277;454.9964904785156
278;453.70068359375
279;452.4087219238281
280;451.1225891113281
281;449.8381652832031
282;448.55950927734375
283;447.2845764160156
284;446.0113220214844
285;444.74188232421875
286;443.4760437011719
287;442.21588134765625
288;440.9593200683594
289;439.70635986328125
290;438.45709228515625
291;437.2112731933594
292;435.9673156738281
293;434.72686767578125
294;433.4918518066406
295;432.2585144042969
296;431.0287780761719
297;429.8042907714844
298;428.5833435058594
299;427.36407470703125
300;426.1483154296875
301;424.9376525878906
302;423.7287902832031
303;422.5250244140625
304;421.32305908203125
305;420.1261291503906
306;418.9309387207031
307;417.7391357421875
308;416.5506591796875
309;415.3671875
310;414.1855163574219
311;413.0071716308594
312;411.8336486816406
313;410.6634216308594
314;409.4965515136719
315;408.3330078125
316;407.1710205078125
317;406.0139465332031
318;404.8585205078125
319;403.70635986328125
320;402.5589599609375
321;401.4147033691406
322;400.2722473144531
323;399.13287353515625
324;397.99822998046875
325;396.8667907714844
326;395.7369689941406
327;394.61175537109375
328;393.48974609375
329;392.3706970214844
330;391.2534484863281
331;390.1393127441406
332;389.0296325683594
333;387.9230041503906
334;386.8194885253906
335;385.71771240234375
336;384.6202392578125
337;383.52447509765625
338;382.4331359863281
339;381.3434753417969
340;380.2582092285156
341;379.1745300292969
342;378.0938720703125
343;377.0162658691406
344;375.9428405761719
345;374.8724060058594
346;373.8036804199219
347;372.7378845214844
348;371.6750793457031
349;370.61639404296875
350;369.55938720703125
351;368.5066223144531
352;367.45538330078125
353;366.4071044921875
354;365.3617248535156
355;364.31927490234375
356;363.2796325683594
357;362.2439880371094
358;361.2113037109375
359;360.1814270019531
360;359.1531982421875
361;358.12896728515625
362;357.1075439453125
363;356.0888671875
364;355.0718994140625
365;354.0588684082031
366;353.0485534667969
367;352.0411376953125
368;351.0352478027344
369;350.0332946777344
370;349.0329284667969
371;348.03533935546875
372;347.0405578613281
373;346.0494689941406
374;345.0600891113281
375;344.0733642578125
376;343.0904235839844
377;342.10919189453125
378;341.1317138671875
379;340.1557922363281
380;339.18255615234375
381;338.2130432128906
382;337.24517822265625
383;336.28094482421875
384;335.318359375
385;334.35943603515625
386;333.4021301269531
387;332.44744873046875
388;331.4964294433594
389;330.54791259765625
390;329.60205078125
391;328.6577453613281
392;327.7161560058594
393;326.7769470214844
394;325.8405456542969
395;324.9075012207031
396;323.97613525390625
397;323.0483093261719
398;322.1229553222656
399;321.19921875
400;320.2789306640625
401;319.36029052734375
402;318.4450988769531
403;317.5313720703125
404;316.62030029296875
405;315.7116394042969
406;314.80645751953125
407;313.9028015136719
408;313.0025329589844
409;312.1047058105469
410;311.2085266113281
411;310.3148193359375
412;309.4234313964844
413;308.5354919433594
414;307.64910888671875
415;306.7660217285156
416;305.8844909667969
417;305.00537109375
418;304.1295166015625
419;303.2552185058594
420;302.3841857910156
421;301.5155029296875
422;300.6484375
423;299.78375244140625
424;298.9214782714844
425;298.06231689453125
426;297.2047424316406
427;296.35040283203125
428;295.4983215332031
429;294.64862060546875
430;293.8004455566406
431;292.9554443359375
432;292.1119689941406
433;291.2716064453125
434;290.43280029296875
435;289.59625244140625
436;288.76287841796875
437;287.93170166015625
438;287.10211181640625
439;286.2748107910156
440;285.4505920410156
441;284.62860107421875
442;283.80810546875
443;282.9906921386719
444;282.1755065917969
445;281.3625793457031
446;280.5511779785156
447;279.7420654296875
448;278.9350891113281
449;278.1304016113281
450;277.3280334472656
451;276.5278625488281
452;275.7298889160156
453;274.93475341796875
454;274.14190673828125
455;273.3512268066406
456;272.5627746582031
457;271.77587890625
458;270.9917297363281
459;270.2098083496094
460;269.42950439453125
461;268.6518859863281
462;267.87579345703125
463;267.10260009765625
464;266.33087158203125
465;265.5618896484375
466;264.79443359375
467;264.02978515625
468;263.2673034667969
469;262.50689697265625
470;261.74798583984375
471;260.9912414550781
472;260.2372131347656
473;259.4846496582031
474;258.73480224609375
475;257.98712158203125
476;257.2414855957031
477;256.4979553222656
478;255.75648498535156
479;255.01654052734375
480;254.2786407470703
481;253.54339599609375
482;252.80966186523438
483;252.0785675048828
484;251.34893798828125
485;250.62193298339844
486;249.89700317382812
487;249.17405700683594
488;248.45315551757812
489;247.73428344726562
490;247.0168914794922
491;246.30213928222656
492;245.58877563476562
493;244.87744140625
494;244.16810607910156
495;243.4613494873047
496;242.75656127929688
497;242.05377197265625
498;241.35244750976562
499;240.65310668945312
500;239.9557342529297
501;239.26087951660156
502;238.56797790527344
503;237.87701416015625
504;237.18804931640625
505;236.50054931640625
506;235.81549072265625
507;235.1324005126953
508;234.45065307617188
509;233.7709197998047
510;233.0930938720703
511;232.4177703857422
512;231.74429321289062
513;231.07272338867188
514;230.4031219482422
515;229.73541259765625
516;229.06912231445312
517;228.40524291992188
518;227.7427520751953
519;227.08213806152344
520;226.42340087890625
521;225.7666015625
522;225.11170959472656
523;224.45907592773438
524;223.8083953857422
525;223.15911865234375
526;222.51206970214844
527;221.8665008544922
528;221.22274780273438
529;220.5813446044922
530;219.94180297851562
531;219.30401611328125
532;218.66770935058594
533;218.0336456298828
534;217.40097045898438
535;216.77005004882812
536;216.14105224609375
537;215.51380920410156
538;214.88841247558594
539;214.2648162841797
540;213.64300537109375
541;213.02301025390625
542;212.40484619140625
543;211.78843688964844
544;211.173828125
545;210.56143188476562
546;209.95077514648438
547;209.3415069580078
548;208.73443603515625
549;208.1287078857422
550;207.52516174316406
551;206.92333984375
552;206.32327270507812
553;205.72503662109375
554;205.12847900390625
555;204.53323364257812
556;203.94020080566406
557;203.34841918945312
558;202.7587890625
559;202.1709442138672
560;201.58474731445312
561;201.0002899169922
562;200.41717529296875
563;199.83580017089844
564;199.25645446777344
565;198.67845153808594
566;198.10255432128906
567;197.52830505371094
568;196.9557647705078
569;196.38490295410156
570;195.81570434570312
571;195.24822998046875
572;194.68240356445312
573;194.117919921875
574;193.55506896972656
575;192.99388122558594
576;192.43470764160156
577;191.87718200683594
578;191.32131958007812
579;190.76673889160156
580;190.2141571044922
581;189.66290283203125
582;189.1135711669922
583;188.56556701660156
584;188.01919555664062
585;187.47442626953125
586;186.93162536621094
587;186.39047241210938
588;185.85055541992188
589;185.3125762939453
590;184.77593994140625
591;184.2407989501953
592;183.70765686035156
593;183.17575073242188
594;182.64547729492188
595;182.1171112060547
596;181.5902862548828
597;181.06507873535156
598;180.54110717773438
599;180.01901245117188
600;179.49850463867188
601;178.97926330566406
602;178.4618682861328
603;177.94601440429688
604;177.43141174316406
605;176.9187469482422
606;176.40724182128906
607;175.8972930908203
608;175.38919067382812
609;174.88262939453125
610;174.37757873535156
611;173.87408447265625
612;173.37210083007812
613;172.871337890625
614;172.37210083007812
615;171.87469482421875
616;171.3787078857422
617;170.88433837890625
618;170.39111328125
619;169.89971923828125
620;169.40948486328125
621;168.92108154296875
622;168.43414306640625
623;167.94839477539062
624;167.4644317626953
625;166.98191833496094
626;166.50094604492188
627;166.02134704589844
628;165.54327392578125
629;165.06640625
630;164.59124755859375
631;164.11753845214844
632;163.64529418945312
633;163.1744842529297
634;162.7048797607422
635;162.23672485351562
636;161.76998901367188
637;161.30470275878906
638;160.84112548828125
639;160.37893676757812
640;159.91796875
641;159.45838928222656
642;159.00048828125
643;158.5437774658203
644;158.0886993408203
645;157.63479614257812
646;157.18226623535156
647;156.73118591308594
648;156.28172302246094
649;155.8334503173828
650;155.38677978515625
651;154.94149780273438
652;154.4976348876953
653;154.0548858642578
654;153.61378479003906
655;153.17404174804688
656;152.7353973388672
657;152.2984161376953
658;151.86276245117188
659;151.42848205566406
660;150.99557495117188
661;150.5637969970703
662;150.1336212158203
663;149.70474243164062
664;149.27725219726562
665;148.85104370117188
666;148.42628479003906
667;148.00274658203125
668;147.5803680419922
669;147.15953063964844
670;146.7400665283203
671;146.3218536376953
672;145.9048309326172
673;145.48928833007812
674;145.07505798339844
675;144.66213989257812
676;144.2505645751953
677;143.8400421142578
678;143.43104553222656
679;143.02334594726562
680;142.61695861816406
681;142.21165466308594
682;141.80780029296875
683;141.4052734375
684;141.00384521484375
685;140.6038360595703
686;140.20494079589844
687;139.80752563476562
688;139.41116333007812
689;139.0162811279297
690;138.62265014648438
691;138.23008728027344
692;137.83900451660156
693;137.44895935058594
694;137.06015014648438
695;136.67263793945312
696;136.2863311767578
697;135.90147399902344
698;135.51785278320312
699;135.13528442382812
700;134.7539520263672
701;134.37403869628906
702;133.99534606933594
703;133.61767578125
704;133.24122619628906
705;132.86618041992188
706;132.4923858642578
707;132.11959838867188
708;131.74803161621094
709;131.37783813476562
710;131.00868225097656
711;130.64089965820312
712;130.27430725097656
713;129.90890502929688
714;129.54449462890625
715;129.1813201904297
716;128.8195037841797
717;128.45884704589844
718;128.09939575195312
719;127.74109649658203
720;127.38380432128906
721;127.02770233154297
722;126.67288208007812
723;126.31910705566406
724;125.9666519165039
725;125.6153793334961
726;125.26506805419922
727;124.91609954833984
728;124.56806945800781
729;124.22122955322266
730;123.87551879882812
731;123.53108978271484
732;123.18782806396484
733;122.84552764892578
734;122.50453186035156
735;122.16448211669922
736;121.8255844116211
737;121.48783874511719
738;121.15132141113281
739;120.8157730102539
740;120.48152923583984
741;120.14823150634766
742;119.8160171508789
743;119.48494720458984
744;119.15510559082031
745;118.82638549804688
746;118.49873352050781
747;118.17220306396484
748;117.84676361083984
749;117.52238464355469
750;117.1991195678711
751;116.87679290771484
752;116.55554962158203
753;116.23551177978516
754;115.91638946533203
755;115.59851837158203
756;115.28157043457031
757;114.96570587158203
758;114.6510238647461
759;114.3372573852539
760;114.02457427978516
761;113.71308135986328
762;113.40250396728516
763;113.09313201904297
764;112.78465270996094
765;112.47732543945312
766;112.17094421386719
767;111.86572265625
768;111.56143951416016
769;111.25818634033203
770;110.95594024658203
771;110.65483856201172
772;110.35466766357422
773;110.05563354492188
774;109.75765228271484
775;109.46062469482422
776;109.16468048095703
777;108.86958312988281
778;108.57552337646484
779;108.28256225585938
780;107.99049377441406
781;107.6994400024414
782;107.40938568115234
783;107.12044525146484
784;106.8324966430664
785;106.54553985595703
786;106.25945281982422
787;105.97435760498047
788;105.69038391113281
789;105.4073715209961
790;105.12532806396484
791;104.84415435791016
792;104.56409454345703
793;104.28495788574219
794;104.00670623779297
795;103.72940826416016
796;103.45321655273438
797;103.17784881591797
798;102.9034423828125
799;102.63011169433594
800;102.35771179199219
801;102.08615112304688
802;101.8155288696289
803;101.54589080810547
804;101.27727508544922
805;101.00950622558594
806;100.74269104003906
807;100.47679138183594
808;100.2119140625
809;99.947998046875
810;99.68500518798828
811;99.42284393310547
812;99.16155242919922
813;98.90123748779297
814;98.64183044433594
815;98.38331604003906
816;98.12581634521484
817;97.86915588378906
818;97.61349487304688
819;97.35862731933594
820;97.10466003417969
821;96.85169219970703
822;96.59951782226562
823;96.3483657836914
824;96.09798431396484
825;95.8484878540039
826;95.60000610351562
827;95.35227966308594
828;95.10545349121094
829;94.8595962524414
830;94.61463928222656
831;94.37052917480469
832;94.12720489501953
833;93.88487243652344
834;93.64326477050781
835;93.40266418457031
836;93.16288757324219
837;92.92391204833984
838;92.68586730957031
839;92.44869232177734
840;92.21235656738281
841;91.97684478759766
842;91.74225616455078
843;91.50838470458984
844;91.27545928955078
845;91.04325866699219
846;90.81201171875
847;90.58149719238281
848;90.35182189941406
849;90.12307739257812
850;89.89514923095703
851;89.66796112060547
852;89.44168853759766
853;89.21615600585938
854;88.99147033691406
855;88.76765441894531
856;88.5445785522461
857;88.32231140136719
858;88.10095977783203
859;87.88040924072266
860;87.66065979003906
861;87.44169616699219
862;87.22348022460938
863;87.00614929199219
864;86.78953552246094
865;86.57376098632812
866;86.35881042480469
867;86.14456939697266
868;85.9311752319336
869;85.71852111816406
870;85.50666046142578
871;85.29562377929688
872;85.08529663085938
873;84.87577819824219
874;84.66707611083984
875;84.45914459228516
876;84.25192260742188
877;84.04546356201172
878;83.83985137939453
879;83.63493347167969
880;83.43081665039062
881;83.22750854492188
882;83.0249252319336
883;82.82306671142578
884;82.62191009521484
885;82.42161560058594
886;82.22196960449219
887;82.02316284179688
888;81.8250732421875
889;81.62767791748047
890;81.4310302734375
891;81.23516082763672
892;81.03997039794922
893;80.84557342529297
894;80.65193176269531
895;80.45893096923828
896;80.26673889160156
897;80.07521057128906
898;79.8843765258789
899;79.69428253173828
900;79.50489807128906
901;79.31629943847656
902;79.12842559814453
903;78.94126892089844
904;78.7547378540039
905;78.56892395019531
906;78.38385772705078
907;78.19953155517578
908;78.01588439941406
909;77.83292388916016
910;77.65068054199219
911;77.4691390991211
912;77.28828430175781
913;77.10810852050781
914;76.92862701416016
915;76.7497787475586
916;76.57166290283203
917;76.39425659179688
918;76.21749877929688
919;76.04143524169922
920;75.86604309082031
921;75.69125366210938
922;75.51722717285156
923;75.3438491821289
924;75.17113494873047
925;74.99905395507812
926;74.82768249511719
927;74.65696716308594
928;74.48690795898438
929;74.31745910644531
930;74.1486587524414
931;73.98053741455078
932;73.81307983398438
933;73.64630889892578
934;73.48017883300781
935;73.31468200683594
936;73.14985656738281
937;72.98564147949219
938;72.82201385498047
939;72.65909576416016
940;72.496826171875
941;72.33509826660156
942;72.1740951538086
943;72.0136947631836
944;71.8538818359375
945;71.69468688964844
946;71.53612518310547
947;71.37820434570312
948;71.22087097167969
949;71.06422424316406
950;70.90813446044922
951;70.75267791748047
952;70.5978775024414
953;70.4436264038086
954;70.29005432128906
955;70.1370620727539
956;69.9847183227539
957;69.83293914794922
958;69.6817626953125
959;69.53115844726562
960;69.38117980957031
961;69.2318115234375
962;69.08299255371094
963;68.93476104736328
964;68.78713989257812
965;68.64009857177734
966;68.49365997314453
967;68.34783172607422
968;68.20254516601562
969;68.05782318115234
970;67.9137191772461
971;67.77021026611328
972;67.62722778320312
973;67.48486328125
974;67.34306335449219
975;67.20183563232422
976;67.06114196777344
977;66.92103576660156
978;66.78152465820312
979;66.64249420166016
980;66.50409698486328
981;66.3662109375
982;66.22891998291016
983;66.09214782714844
984;65.95597076416016
985;65.8203125
986;65.68523406982422
987;65.55067443847656
988;65.41666412353516
989;65.283203125
990;65.15028381347656
991;65.01786804199219
992;64.88609313964844
993;64.7547607421875
994;64.62397766113281
995;64.49372863769531
996;64.36402130126953
997;64.23487854003906
998;64.10627746582031
999;63.978153228759766
