;loss
0;1322.4915771484375
1;1321.6356201171875
2;1320.4910888671875
3;1319.3526611328125
4;1318.2188720703125
5;1317.0877685546875
6;1315.956298828125
7;1314.8218994140625
8;1313.69775390625
9;1312.55859375
10;1311.4027099609375
11;1310.2271728515625
12;1309.030517578125
13;1307.810302734375
14;1306.5628662109375
15;1305.28369140625
16;1303.9580078125
17;1302.5888671875
18;1301.1842041015625
19;1299.72607421875
20;1298.2083740234375
21;1296.62255859375
22;1294.9609375
23;1293.2138671875
24;1291.348876953125
25;1289.3724365234375
26;1287.2686767578125
27;1285.0474853515625
28;1282.6640625
29;1280.06298828125
30;1277.2423095703125
31;1274.203857421875
32;1270.875244140625
33;1267.20751953125
34;1263.139404296875
35;1258.5970458984375
36;1253.4859619140625
37;1247.618408203125
38;1240.9652099609375
39;1233.170166015625
40;1224.122802734375
41;1213.2562255859375
42;1200.156005859375
43;1184.3543701171875
44;1164.999267578125
45;1141.2371826171875
46;1113.30078125
47;1082.935302734375
48;1052.6512451171875
49;1025.2547607421875
50;1002.040283203125
51;982.6438598632812
52;966.492919921875
53;952.8162841796875
54;941.130859375
55;930.8999633789062
56;921.7452392578125
57;913.587890625
58;906.1753540039062
59;899.3239135742188
60;893.032958984375
61;887.1181640625
62;881.567626953125
63;876.3217163085938
64;871.375244140625
65;866.6231689453125
66;862.1002807617188
67;857.7485961914062
68;853.5149536132812
69;849.4393920898438
70;845.4783325195312
71;841.624267578125
72;837.8418579101562
73;834.1487426757812
74;830.5353393554688
75;827.0131225585938
76;823.5318603515625
77;820.1072387695312
78;816.7342529296875
79;813.4290161132812
80;810.1656494140625
81;806.9198608398438
82;803.7266235351562
83;800.5654296875
84;797.4172973632812
85;794.316650390625
86;791.2274780273438
87;788.1656494140625
88;785.1307983398438
89;782.1399536132812
90;779.1755981445312
91;776.237060546875
92;773.3251342773438
93;770.424560546875
94;767.564453125
95;764.7158203125
96;761.9071044921875
97;759.1234741210938
98;756.3654174804688
99;753.6194458007812
100;750.9111938476562
101;748.2150268554688
102;745.5560913085938
103;742.9096069335938
104;740.2882080078125
105;737.7027587890625
106;735.1298217773438
107;732.5928955078125
108;730.0798950195312
109;727.5786743164062
110;725.111572265625
111;722.6660766601562
112;720.2427368164062
113;717.8411254882812
114;715.45166015625
115;713.0836791992188
116;710.7453002929688
117;708.4266357421875
118;706.1259765625
119;703.8429565429688
120;701.5771484375
121;699.3286743164062
122;697.088134765625
123;694.8639526367188
124;692.663818359375
125;690.478759765625
126;688.3001098632812
127;686.143798828125
128;683.9935913085938
129;681.8645629882812
130;679.7485961914062
131;677.6378173828125
132;675.546875
133;673.4682006835938
134;671.4013061523438
135;669.3458862304688
136;667.3018188476562
137;665.261962890625
138;663.233154296875
139;661.215087890625
140;659.2075805664062
141;657.21044921875
142;655.22998046875
143;653.2593994140625
144;651.2986450195312
145;649.347412109375
146;647.405517578125
147;645.46728515625
148;643.5445556640625
149;641.6251831054688
150;639.7213745117188
151;637.8206176757812
152;635.9288940429688
153;634.0458984375
154;632.1714477539062
155;630.3106689453125
156;628.4580688476562
157;626.60791015625
158;624.7655639648438
159;622.9310302734375
160;621.109375
161;619.2901611328125
162;617.4783935546875
163;615.674072265625
164;613.882080078125
165;612.0972290039062
166;610.3145751953125
167;608.5389404296875
168;606.775146484375
169;605.018310546875
170;603.2633666992188
171;601.5198974609375
172;599.783203125
173;598.052978515625
174;596.3292846679688
175;594.6075439453125
176;592.8922729492188
177;591.183349609375
178;589.4807739257812
179;587.788818359375
180;586.1028442382812
181;584.423095703125
182;582.7493286132812
183;581.077392578125
184;579.411376953125
185;577.751220703125
186;576.0969848632812
187;574.4525756835938
188;572.8137817382812
189;571.1806640625
190;569.5531005859375
191;567.9273681640625
192;566.3070068359375
193;564.696044921875
194;563.086669921875
195;561.4864501953125
196;559.8878173828125
197;558.2946166992188
198;556.7103271484375
199;555.1311645507812
200;553.5536499023438
201;551.9849243164062
202;550.4212036132812
203;548.859130859375
204;547.3056030273438
205;545.757080078125
206;544.2134399414062
207;542.6715698242188
208;541.134521484375
209;539.6056518554688
210;538.078369140625
211;536.555908203125
212;535.0415649414062
213;533.5319213867188
214;532.0238647460938
215;530.523681640625
216;529.0250244140625
217;527.5339965820312
218;526.0476684570312
219;524.56591796875
220;523.0858154296875
221;521.6131591796875
222;520.14208984375
223;518.675537109375
224;517.2135009765625
225;515.7587890625
226;514.3084716796875
227;512.862548828125
228;511.4181213378906
229;509.9781494140625
230;508.5451965332031
231;507.11383056640625
232;505.6866760253906
233;504.2639465332031
234;502.8479919433594
235;501.43365478515625
236;500.0235595703125
237;498.62017822265625
238;497.2184143066406
239;495.8233642578125
240;494.42974853515625
241;493.0403747558594
242;491.6549377441406
243;490.2762145996094
244;488.9013671875
245;487.5281066894531
246;486.1588439941406
247;484.7960205078125
248;483.4347229003906
249;482.0797424316406
250;480.7262878417969
251;479.3767395019531
252;478.0334167480469
253;476.69390869140625
254;475.35833740234375
255;474.0264892578125
256;472.6985168457031
257;471.3742370605469
258;470.0516052246094
259;468.73486328125
260;467.4197082519531
261;466.11041259765625
262;464.8048400878906
263;463.5030517578125
264;462.20263671875
265;460.908203125
266;459.61517333984375
267;458.3279113769531
268;457.0442810058594
269;455.76220703125
270;454.4857177734375
271;453.2108154296875
272;451.93951416015625
273;450.6737060546875
274;449.4094543457031
275;448.1507568359375
276;446.8935241699219
277;445.6418151855469
278;444.39166259765625
279;443.1468200683594
280;441.9035949707031
281;440.663818359375
282;439.42742919921875
283;438.1963806152344
284;436.9687194824219
285;435.7444763183594
286;434.52178955078125
287;433.3042297363281
288;432.090087890625
289;430.8774719238281
290;429.668212890625
291;428.4622802734375
292;427.2614440917969
293;426.0621643066406
294;424.8678894042969
295;423.6769104003906
296;422.4892578125
297;421.3031005859375
298;420.1219177246094
299;418.94219970703125
300;417.7657775878906
301;416.59259033203125
302;415.4242858886719
303;414.2575378417969
304;413.093994140625
305;411.93359375
306;410.77642822265625
307;409.6224060058594
308;408.4715270996094
309;407.3253479003906
310;406.18231201171875
311;405.0408935546875
312;403.9025573730469
313;402.7672424316406
314;401.6366271972656
315;400.5075988769531
316;399.38165283203125
317;398.2586669921875
318;397.1388244628906
319;396.0219421386719
320;394.9082336425781
321;393.7974853515625
322;392.689697265625
323;391.5849914550781
324;390.4846496582031
325;389.3873596191406
326;388.29156494140625
327;387.19879150390625
328;386.10894775390625
329;385.0234375
330;383.9408264160156
331;382.8597412109375
332;381.7830810546875
333;380.7078552246094
334;379.6369934082031
335;378.5688781738281
336;377.50238037109375
337;376.4400634765625
338;375.38067626953125
339;374.32275390625
340;373.2689208984375
341;372.2167663574219
342;371.1673889160156
343;370.120849609375
344;369.0783996582031
345;368.0375671386719
346;367.0007019042969
347;365.96539306640625
348;364.9341125488281
349;363.9056396484375
350;362.87860107421875
351;361.8556823730469
352;360.8354797363281
353;359.8167724609375
354;358.80206298828125
355;357.78997802734375
356;356.779541015625
357;355.7729187011719
358;354.76788330078125
359;353.7655029296875
360;352.76708984375
361;351.771240234375
362;350.7781066894531
363;349.7865295410156
364;348.797607421875
365;347.8113708496094
366;346.8288879394531
367;345.8489990234375
368;344.871826171875
369;343.8971862792969
370;342.9252624511719
371;341.9558410644531
372;340.9880676269531
373;340.0227966308594
374;339.0601806640625
375;338.1002197265625
376;337.1427307128906
377;336.1878662109375
378;335.2356262207031
379;334.28594970703125
380;333.3397521972656
381;332.3951416015625
382;331.45318603515625
383;330.5146484375
384;329.57769775390625
385;328.643310546875
386;327.7113342285156
387;326.78192138671875
388;325.8560485839844
389;324.9326171875
390;324.0116271972656
391;323.09228515625
392;322.17633056640625
393;321.2628173828125
394;320.3507995605469
395;319.4422302246094
396;318.5351867675781
397;317.630615234375
398;316.7294006347656
399;315.8305969238281
400;314.93426513671875
401;314.040283203125
402;313.1478576660156
403;312.25872802734375
404;311.37200927734375
405;310.48687744140625
406;309.60491943359375
407;308.7254333496094
408;307.8473815917969
409;306.97265625
410;306.1002197265625
411;305.2301940917969
412;304.3624572753906
413;303.496337890625
414;302.63336181640625
415;301.772705078125
416;300.9144287109375
417;300.0576171875
418;299.2039794921875
419;298.3518371582031
420;297.5020751953125
421;296.65447998046875
422;295.809326171875
423;294.9664306640625
424;294.1266174316406
425;293.288330078125
426;292.45306396484375
427;291.6201171875
428;290.7894287109375
429;289.9602966308594
430;289.13330078125
431;288.30938720703125
432;287.4877624511719
433;286.66754150390625
434;285.849609375
435;285.033935546875
436;284.2205505371094
437;283.4100341796875
438;282.60101318359375
439;281.7949523925781
440;280.9903259277344
441;280.188720703125
442;279.38922119140625
443;278.59124755859375
444;277.79547119140625
445;277.0018615722656
446;276.21112060546875
447;275.4219055175781
448;274.63555908203125
449;273.8506164550781
450;273.068603515625
451;272.2879638671875
452;271.5102233886719
453;270.73394775390625
454;269.9604187011719
455;269.1884460449219
456;268.41851806640625
457;267.65142822265625
458;266.886474609375
459;266.12359619140625
460;265.3621520996094
461;264.6028137207031
462;263.84625244140625
463;263.091796875
464;262.3393859863281
465;261.5890808105469
466;260.8402099609375
467;260.09344482421875
468;259.3487548828125
469;258.6061096191406
470;257.8661193847656
471;257.1282653808594
472;256.3917541503906
473;255.65802001953125
474;254.92623901367188
475;254.19650268554688
476;253.46875
477;252.7425079345703
478;252.0188751220703
479;251.296630859375
480;250.57644653320312
481;249.85877990722656
482;249.1432342529297
483;248.42962646484375
484;247.71798706054688
485;247.00778198242188
486;246.29953002929688
487;245.59332275390625
488;244.8896484375
489;244.1879119873047
490;243.48760986328125
491;242.78927612304688
492;242.093505859375
493;241.39962768554688
494;240.70773315429688
495;240.01719665527344
496;239.32861328125
497;238.64251708984375
498;237.95835876464844
499;237.27560424804688
