;loss
0;1321.5035400390625
1;1320.72509765625
2;1319.829345703125
3;1318.7884521484375
4;1317.74951171875
5;1316.711181640625
6;1315.703369140625
7;1314.661865234375
8;1313.6165771484375
9;1312.5655517578125
10;1311.50732421875
11;1310.441650390625
12;1309.36376953125
13;1308.2696533203125
14;1307.15869140625
15;1306.029296875
16;1304.887939453125
17;1303.71484375
18;1302.516357421875
19;1301.302001953125
20;1300.045166015625
21;1298.768798828125
22;1297.45751953125
23;1296.09228515625
24;1294.6844482421875
25;1293.2305908203125
26;1291.7440185546875
27;1290.20458984375
28;1288.5887451171875
29;1286.9300537109375
30;1285.18359375
31;1283.3631591796875
32;1281.463134765625
33;1279.47705078125
34;1277.397216796875
35;1275.216064453125
36;1272.9246826171875
37;1270.5133056640625
38;1267.999267578125
39;1265.3450927734375
40;1262.507080078125
41;1259.4986572265625
42;1256.30322265625
43;1252.9027099609375
44;1249.27587890625
45;1245.39990234375
46;1241.24853515625
47;1236.792236328125
48;1231.998779296875
49;1226.83154296875
50;1221.2484130859375
51;1215.20361328125
52;1208.6441650390625
53;1201.51123046875
54;1193.8094482421875
55;1185.333740234375
56;1176.0667724609375
57;1165.923583984375
58;1154.8114013671875
59;1142.63916015625
60;1129.31787109375
61;1114.768310546875
62;1098.941162109375
63;1081.9581298828125
64;1063.623779296875
65;1044.212890625
66;1023.9945678710938
67;1003.5135498046875
68;982.9967651367188
69;963.1845703125
70;944.6674194335938
71;927.9295654296875
72;913.357177734375
73;900.893310546875
74;890.37255859375
75;881.3954467773438
76;873.6092529296875
77;866.69482421875
78;860.4248657226562
79;854.5151977539062
80;848.80712890625
81;843.2724609375
82;837.917724609375
83;832.6663818359375
84;827.547607421875
85;822.5694580078125
86;817.7347412109375
87;813.045166015625
88;808.500244140625
89;804.1029052734375
90;799.84814453125
91;795.7267456054688
92;791.7318115234375
93;787.8524169921875
94;784.082275390625
95;780.4127807617188
96;776.83935546875
97;773.3550415039062
98;769.9518432617188
99;766.6416625976562
100;763.387939453125
101;760.20458984375
102;757.1010131835938
103;754.0578002929688
104;751.0578002929688
105;748.1123657226562
106;745.2183837890625
107;742.3855590820312
108;739.586181640625
109;736.8416748046875
110;734.125244140625
111;731.4464111328125
112;728.8133544921875
113;726.2125244140625
114;723.641357421875
115;721.0870361328125
116;718.5579833984375
117;716.052001953125
118;713.5673217773438
119;711.1023559570312
120;708.655517578125
121;706.23486328125
122;703.8203125
123;701.4204711914062
124;699.0433959960938
125;696.678955078125
126;694.3265991210938
127;691.9771118164062
128;689.6386108398438
129;687.310546875
130;684.992919921875
131;682.6845703125
132;680.3856811523438
133;678.0957641601562
134;675.82177734375
135;673.5476684570312
136;671.281005859375
137;669.02880859375
138;666.7754516601562
139;664.528564453125
140;662.2884521484375
141;660.0548095703125
142;657.8351440429688
143;655.6216430664062
144;653.407470703125
145;651.1987915039062
146;648.9959106445312
147;646.799072265625
148;644.6079711914062
149;642.4228515625
150;640.250244140625
151;638.076904296875
152;635.9159545898438
153;633.7608642578125
154;631.6065063476562
155;629.4611206054688
156;627.3334350585938
157;625.216064453125
158;623.1008911132812
159;620.99365234375
160;618.8939819335938
161;616.807373046875
162;614.7221069335938
163;612.64453125
164;610.5747680664062
165;608.5126953125
166;606.4586791992188
167;604.41259765625
168;602.3744506835938
169;600.3502807617188
170;598.3287353515625
171;596.321044921875
172;594.3168334960938
173;592.328369140625
174;590.3452758789062
175;588.3716430664062
176;586.407470703125
177;584.4527587890625
178;582.5125122070312
179;580.5765991210938
180;578.6552124023438
181;576.738037109375
182;574.8298950195312
183;572.93115234375
184;571.0467529296875
185;569.1716918945312
186;567.3013305664062
187;565.4397583007812
188;563.5872802734375
189;561.743408203125
190;559.9127807617188
191;558.08642578125
192;556.268798828125
193;554.4598388671875
194;552.6596069335938
195;550.8677368164062
196;549.0843505859375
197;547.309326171875
198;545.5465698242188
199;543.7879028320312
200;542.0375366210938
201;540.299072265625
202;538.5648193359375
203;536.8384399414062
204;535.123779296875
205;533.416748046875
206;531.713623046875
207;530.018310546875
208;528.3305053710938
209;526.6502685546875
210;524.9811401367188
211;523.315673828125
212;521.6611328125
213;520.013916015625
214;518.373779296875
215;516.7373046875
216;515.10791015625
217;513.485595703125
218;511.8701171875
219;510.26470947265625
220;508.66607666015625
221;507.0738525390625
222;505.4884033203125
223;503.9093933105469
224;502.3337097167969
225;500.7645263671875
226;499.20159912109375
227;497.64508056640625
228;496.0977783203125
229;494.55364990234375
230;493.01861572265625
231;491.4865417480469
232;489.9635925292969
233;488.4435729980469
234;486.9294738769531
235;485.4212341308594
236;483.91888427734375
237;482.4250793457031
238;480.93408203125
239;479.4488525390625
240;477.9718933105469
241;476.4977722167969
242;475.02923583984375
243;473.56884765625
244;472.11126708984375
245;470.66168212890625
246;469.21484375
247;467.7733154296875
248;466.3370666503906
249;464.9085693359375
250;463.48529052734375
251;462.0646667480469
252;460.6515808105469
253;459.24365234375
254;457.8406982421875
255;456.4403076171875
256;455.044921875
257;453.6544494628906
258;452.26898193359375
259;450.8907165527344
260;449.5172119140625
261;448.14849853515625
262;446.7845764160156
263;445.42315673828125
264;444.0664367675781
265;442.71661376953125
266;441.36920166015625
267;440.0264892578125
268;438.6883544921875
269;437.35699462890625
270;436.0301818847656
271;434.70782470703125
272;433.38995361328125
273;432.0765380859375
274;430.76751708984375
275;429.4629211425781
276;428.16265869140625
277;426.8668212890625
278;425.5752258300781
279;424.2879638671875
280;423.0030212402344
281;421.7242431640625
282;420.44769287109375
283;419.1774597167969
284;417.91131591796875
285;416.64935302734375
286;415.3914794921875
287;414.13775634765625
288;412.88812255859375
289;411.64251708984375
290;410.4010314941406
291;409.16168212890625
292;407.92816162109375
293;406.69873046875
294;405.47320556640625
295;404.2515869140625
296;403.0321960449219
297;401.816650390625
298;400.6068115234375
299;399.4008483886719
300;398.1969909667969
301;396.9986877441406
302;395.8041687011719
303;394.6134948730469
304;393.42657470703125
305;392.243408203125
306;391.0639953613281
307;389.88665771484375
308;388.7131042480469
309;387.5447998046875
310;386.3786315917969
311;385.216064453125
312;384.0587463378906
313;382.9051513671875
314;381.7535400390625
315;380.6054992675781
316;379.4610595703125
317;378.32183837890625
318;377.1844787597656
319;376.05224609375
320;374.9220886230469
321;373.79534912109375
322;372.6737365722656
323;371.55548095703125
324;370.4407043457031
325;369.32940673828125
326;368.2215270996094
327;367.1156005859375
328;366.0130920410156
329;364.91552734375
330;363.8211669921875
331;362.7303466796875
332;361.64141845703125
333;360.5557861328125
334;359.47357177734375
335;358.39599609375
336;357.32037353515625
337;356.2493591308594
338;355.181640625
339;354.1171875
340;353.0546875
341;351.9967041015625
342;350.94195556640625
343;349.8891296386719
344;348.8408203125
345;347.7944030761719
346;346.7511901855469
347;345.7123107910156
348;344.6767578125
349;343.6429748535156
350;342.6123962402344
351;341.5861511230469
352;340.56182861328125
353;339.54058837890625
354;338.5224914550781
355;337.5074462890625
356;336.4954833984375
357;335.486572265625
358;334.4807434082031
359;333.4779357910156
360;332.4793395996094
361;331.48260498046875
362;330.48883056640625
363;329.4980773925781
364;328.5103759765625
365;327.5267333984375
366;326.5460510253906
367;325.5672302246094
368;324.5923767089844
369;323.6194152832031
370;322.6505126953125
371;321.6834716796875
372;320.7203063964844
373;319.75897216796875
374;318.8006286621094
375;317.8460998535156
376;316.8945007324219
377;315.94573974609375
378;314.999755859375
379;314.0567626953125
380;313.115478515625
381;312.1780090332031
382;311.2423400878906
383;310.3095397949219
384;309.3795166015625
385;308.4522705078125
386;307.5277404785156
387;306.6060791015625
388;305.68804931640625
389;304.7728271484375
390;303.8603210449219
391;302.9495849609375
392;302.04156494140625
393;301.13720703125
394;300.23553466796875
395;299.3365783691406
396;298.4402770996094
397;297.54669189453125
398;296.6548156738281
399;295.76654052734375
400;294.8799743652344
401;293.9969482421875
402;293.1165771484375
403;292.23883056640625
404;291.3628234863281
405;290.48944091796875
406;289.6186218261719
407;288.75048828125
408;287.88568115234375
409;287.0226745605469
410;286.1622619628906
411;285.30523681640625
412;284.44989013671875
413;283.59716796875
414;282.7469482421875
415;281.8992919921875
416;281.0541687011719
417;280.2115478515625
418;279.3714599609375
419;278.53387451171875
420;277.6995544433594
421;276.8677673339844
422;276.03765869140625
423;275.21002197265625
424;274.3848571777344
425;273.5621337890625
426;272.7427062988281
427;271.9248962402344
428;271.11029052734375
429;270.2973937988281
430;269.4869384765625
431;268.67962646484375
432;267.8747253417969
433;267.0714416503906
434;266.2706604003906
435;265.47222900390625
436;264.67694091796875
437;263.88397216796875
438;263.0934143066406
439;262.30523681640625
440;261.5193786621094
441;260.73516845703125
442;259.9539489746094
443;259.1751708984375
444;258.3986511230469
445;257.6245422363281
446;256.8526611328125
447;256.0831298828125
448;255.315185546875
449;254.55029296875
450;253.78762817382812
451;253.026611328125
452;252.2678985595703
453;251.51144409179688
454;250.7572479248047
455;250.00596618652344
456;249.25694274902344
457;248.509521484375
458;247.76499938964844
459;247.02210998535156
460;246.28201293945312
461;245.5435333251953
462;244.80731201171875
463;244.07327270507812
464;243.34149169921875
465;242.6124725341797
466;241.8850860595703
467;241.1598358154297
468;240.43682861328125
469;239.71595764160156
470;238.997314453125
471;238.28076171875
472;237.56643676757812
473;236.85484313964844
474;236.1448516845703
475;235.43695068359375
476;234.73117065429688
477;234.0281524658203
478;233.32666015625
479;232.62786865234375
480;231.93060302734375
481;231.23611450195312
482;230.54359436035156
483;229.85321044921875
484;229.1643829345703
485;228.4776153564453
486;227.7935333251953
487;227.11094665527344
488;226.4310302734375
489;225.7531280517578
490;225.07675170898438
491;224.40293884277344
492;223.731201171875
493;223.06097412109375
494;222.39334106445312
495;221.72772216796875
496;221.06410217285156
497;220.4025115966797
498;219.74295043945312
499;219.08535766601562
