;loss
0;1319.7623291015625
1;1318.8770751953125
2;1317.85791015625
3;1316.6707763671875
4;1315.554443359375
5;1314.36083984375
6;1313.1595458984375
7;1311.9727783203125
8;1310.7635498046875
9;1309.5189208984375
10;1308.2586669921875
11;1306.96728515625
12;1305.64501953125
13;1304.2911376953125
14;1302.8924560546875
15;1301.448974609375
16;1299.9554443359375
17;1298.4063720703125
18;1296.79541015625
19;1295.13232421875
20;1293.39501953125
21;1291.5748291015625
22;1289.662109375
23;1287.6219482421875
24;1285.4879150390625
25;1283.1966552734375
26;1280.7841796875
27;1278.174560546875
28;1275.406982421875
29;1272.42626953125
30;1269.20166015625
31;1265.6546630859375
32;1261.77587890625
33;1257.510986328125
34;1252.791748046875
35;1247.5323486328125
36;1241.625732421875
37;1234.935302734375
38;1227.37109375
39;1218.6390380859375
40;1208.32666015625
41;1196.122802734375
42;1181.5079345703125
43;1163.8521728515625
44;1142.469970703125
45;1116.87060546875
46;1087.2510986328125
47;1055.099609375
48;1023.424560546875
49;994.5985107421875
50;969.7586669921875
51;949.0989379882812
52;931.8525390625
53;917.3458251953125
54;904.7079467773438
55;893.6231079101562
56;883.7681274414062
57;874.9484252929688
58;867.1033325195312
59;859.9740600585938
60;853.373291015625
61;847.2133178710938
62;841.4088134765625
63;835.9534301757812
64;830.7847290039062
65;825.8727416992188
66;821.186767578125
67;816.702392578125
68;812.4273071289062
69;808.2830200195312
70;804.2830200195312
71;800.4404296875
72;796.71630859375
73;793.1010131835938
74;789.584716796875
75;786.140380859375
76;782.80322265625
77;779.543701171875
78;776.3359375
79;773.2130126953125
80;770.1316528320312
81;767.1229858398438
82;764.1471557617188
83;761.218017578125
84;758.3494262695312
85;755.5217895507812
86;752.7174072265625
87;749.9500122070312
88;747.2177734375
89;744.5330810546875
90;741.879638671875
91;739.256103515625
92;736.6614379882812
93;734.09423828125
94;731.5535888671875
95;729.037841796875
96;726.53369140625
97;724.064697265625
98;721.6061401367188
99;719.1804809570312
100;716.76416015625
101;714.3677978515625
102;711.99072265625
103;709.6322021484375
104;707.2916870117188
105;704.9686889648438
106;702.662841796875
107;700.3735961914062
108;698.100341796875
109;695.8427124023438
110;693.6005859375
111;691.3829345703125
112;689.17041015625
113;686.972412109375
114;684.79736328125
115;682.6356811523438
116;680.478759765625
117;678.3435668945312
118;676.2213134765625
119;674.111572265625
120;672.0143432617188
121;669.9210205078125
122;667.847412109375
123;665.7852783203125
124;663.726318359375
125;661.6859741210938
126;659.65625
127;657.6369018554688
128;655.6204833984375
129;653.6215209960938
130;651.6253662109375
131;649.6390991210938
132;647.6627807617188
133;645.6961669921875
134;643.7459716796875
135;641.8054809570312
136;639.8681640625
137;637.9468383789062
138;636.0280151367188
139;634.1245727539062
140;632.2235717773438
141;630.3310546875
142;628.4468994140625
143;626.571044921875
144;624.7093505859375
145;622.8495483398438
146;620.997802734375
147;619.1539306640625
148;617.3176879882812
149;615.4947509765625
150;613.6792602539062
151;611.8712158203125
152;610.0650024414062
153;608.2659301757812
154;606.4743041992188
155;604.6896362304688
156;602.9172973632812
157;601.1466674804688
158;599.383056640625
159;597.626220703125
160;595.8811645507812
161;594.142822265625
162;592.4061889648438
163;590.6762084960938
164;588.9575805664062
165;587.240478515625
166;585.5346069335938
167;583.8302612304688
168;582.136962890625
169;580.445068359375
170;578.7594604492188
171;577.0844116210938
172;575.41552734375
173;573.748046875
174;572.0909423828125
175;570.439697265625
176;568.794189453125
177;567.1503295898438
178;565.51220703125
179;563.8839721679688
180;562.2612915039062
181;560.6401977539062
182;559.0247802734375
183;557.4189453125
184;555.8184204101562
185;554.2194213867188
186;552.6259155273438
187;551.0377807617188
188;549.4549560546875
189;547.881103515625
190;546.308837890625
191;544.7454223632812
192;543.187255859375
193;541.6304931640625
194;540.0824584960938
195;538.5394897460938
196;536.9979858398438
197;535.465087890625
198;533.9337158203125
199;532.41064453125
200;530.8890991210938
201;529.3723754882812
202;527.8639526367188
203;526.3601684570312
204;524.8580932617188
205;523.3638916015625
206;521.871337890625
207;520.3865966796875
208;518.9066772460938
209;517.4282836914062
210;515.9578857421875
211;514.4921264648438
212;513.0280151367188
213;511.5715026855469
214;510.1194763183594
215;508.66900634765625
216;507.2259521484375
217;505.7873229980469
218;504.3502197265625
219;502.9173278808594
220;501.4889831542969
221;500.06781005859375
222;498.65087890625
223;497.23822021484375
224;495.8298645019531
225;494.42578125
226;493.0257568359375
227;491.6272888183594
228;490.2327880859375
229;488.8426513671875
230;487.4564208984375
231;486.07720947265625
232;484.69927978515625
233;483.3280029296875
234;481.9608154296875
235;480.5950012207031
236;479.2357177734375
237;477.87786865234375
238;476.5264892578125
239;475.1766052246094
240;473.8331298828125
241;472.4934997558594
242;471.1552734375
243;469.8210144042969
244;468.49066162109375
245;467.16412353515625
246;465.8415832519531
247;464.5227966308594
248;463.2101745605469
249;461.8991394042969
250;460.5941162109375
251;459.29058837890625
252;457.99310302734375
253;456.6993408203125
254;455.4070739746094
255;454.1206970214844
256;452.83575439453125
257;451.5544128417969
258;450.2767639160156
259;449.0027770996094
260;447.7322998046875
261;446.46759033203125
262;445.20428466796875
263;443.9446105957031
264;442.69049072265625
265;441.43988037109375
266;440.1907653808594
267;438.9471435546875
268;437.70697021484375
269;436.4682922363281
270;435.23504638671875
271;434.0052490234375
272;432.7768859863281
273;431.55194091796875
274;430.3304443359375
275;429.1123352050781
276;427.8975830078125
277;426.686279296875
278;425.4801940917969
279;424.2754821777344
280;423.0741271972656
281;421.8780822753906
282;420.68341064453125
283;419.4938659667969
284;418.3058166503906
285;417.12109375
286;415.94134521484375
287;414.7649230957031
288;413.5899963378906
289;412.419921875
290;411.25146484375
291;410.087890625
292;408.92578125
293;407.76861572265625
294;406.6146240234375
295;405.4637451171875
296;404.3144226074219
297;403.16827392578125
298;402.0268859863281
299;400.88702392578125
300;399.7518615722656
301;398.6197509765625
302;397.4892883300781
303;396.3634338378906
304;395.2406005859375
305;394.1208801269531
306;393.0042724609375
307;391.89068603515625
308;390.7784423828125
309;389.6694030761719
310;388.5633544921875
311;387.4603271484375
312;386.36029052734375
313;385.2647399902344
314;384.1722412109375
315;383.08270263671875
316;381.99609375
317;380.9124450683594
318;379.8303527832031
319;378.7525634765625
320;377.6763000488281
321;376.6029968261719
322;375.53399658203125
323;374.46649169921875
324;373.4032897949219
325;372.3429870605469
326;371.2856140136719
327;370.23095703125
328;369.17926025390625
329;368.1290588378906
330;367.08172607421875
331;366.0372314453125
332;364.99560546875
333;363.9580383300781
334;362.92205810546875
335;361.89019775390625
336;360.8597717285156
337;359.8321533203125
338;358.807373046875
339;357.7853698730469
340;356.7661437988281
341;355.7508544921875
342;354.7372131347656
343;353.7261962890625
344;352.7179870605469
345;351.7137145996094
346;350.7121887207031
347;349.712158203125
348;348.7148742675781
349;347.721435546875
350;346.7294616699219
351;345.7403259277344
352;344.7549133300781
353;343.7722473144531
354;342.792236328125
355;341.8137512207031
356;340.837890625
357;339.8658142089844
358;338.8963623046875
359;337.9295654296875
360;336.9642333984375
361;336.0015869140625
362;335.0426025390625
363;334.0862731933594
364;333.13250732421875
365;332.1802978515625
366;331.2317199707031
367;330.2845458984375
368;329.3400573730469
369;328.399169921875
370;327.4608154296875
371;326.5240478515625
372;325.58978271484375
373;324.65911865234375
374;323.7309265136719
375;322.8042907714844
376;321.881103515625
377;320.96051025390625
378;320.04241943359375
379;319.1268310546875
380;318.21270751953125
381;317.30206298828125
382;316.3939514160156
383;315.4872741699219
384;314.5830993652344
385;313.6814270019531
386;312.7831115722656
387;311.88726806640625
388;310.992919921875
389;310.1009826660156
390;309.2115783691406
391;308.325439453125
392;307.4417724609375
393;306.56048583984375
394;305.681640625
395;304.8042907714844
396;303.9293212890625
397;303.0567626953125
398;302.1865539550781
399;301.3187561035156
400;300.4533996582031
401;299.5911865234375
402;298.7305603027344
403;297.8730773925781
404;297.0179748535156
405;296.16522216796875
406;295.3148193359375
407;294.4666748046875
408;293.6209716796875
409;292.7774658203125
410;291.935546875
411;291.09674072265625
412;290.26025390625
413;289.42523193359375
414;288.592529296875
415;287.76287841796875
416;286.935546875
417;286.1097106933594
418;285.2861328125
419;284.46484375
420;283.645751953125
421;282.82977294921875
422;282.0160217285156
423;281.2037353515625
424;280.393798828125
425;279.5867614746094
426;278.7818908691406
427;277.9786376953125
428;277.17828369140625
429;276.3800964355469
430;275.5841979980469
431;274.7897644042969
432;273.99822998046875
433;273.20892333984375
434;272.4210510253906
435;271.6353759765625
436;270.8518981933594
437;270.0712585449219
438;269.2921447753906
439;268.5151672363281
440;267.7410583496094
441;266.9683837890625
442;266.1978759765625
443;265.4295654296875
444;264.6633605957031
445;263.8992919921875
446;263.1380310058594
447;262.3788757324219
448;261.6219177246094
449;260.8663024902344
450;260.1128845214844
451;259.3621826171875
452;258.6129150390625
453;257.86578369140625
454;257.12139892578125
455;256.3783874511719
456;255.63755798339844
457;254.89874267578125
458;254.16200256347656
459;253.427978515625
460;252.69598388671875
461;251.9661407470703
462;251.23765563964844
463;250.51123046875
464;249.7874298095703
465;249.0651092529297
466;248.3448028564453
467;247.62716674804688
468;246.91151428222656
469;246.19789123535156
470;245.48570251464844
471;244.77549743652344
472;244.06735229492188
473;243.3611602783203
474;242.65701293945312
475;241.954833984375
476;241.2552032470703
477;240.55702209472656
478;239.8614044189453
479;239.16720581054688
480;238.4749298095703
481;237.78463745117188
482;237.09640502929688
483;236.41061401367188
484;235.726806640625
485;235.04437255859375
486;234.3639373779297
487;233.68544006347656
488;233.0093536376953
489;232.33474731445312
490;231.66207885742188
491;230.9918670654297
492;230.322998046875
493;229.6565704345703
494;228.9921112060547
495;228.32899475097656
496;227.66831970214844
497;227.00900268554688
498;226.35211181640625
499;225.69659423828125
500;225.04342651367188
501;224.3917236328125
502;223.74183654785156
503;223.09381103515625
504;222.4476776123047
505;221.80340576171875
506;221.16098022460938
507;220.5209197998047
508;219.8822021484375
509;219.24530029296875
510;218.61029052734375
511;217.97760009765625
512;217.34666442871094
513;216.71714782714844
514;216.08990478515625
515;215.4644775390625
516;214.84083557128906
517;214.21861267089844
518;213.59861755371094
519;212.97994995117188
520;212.36354064941406
521;211.74853515625
522;211.13568115234375
523;210.52468872070312
524;209.9149627685547
525;209.30703735351562
526;208.70086669921875
527;208.0970001220703
528;207.49481201171875
529;206.8944091796875
530;206.29531860351562
531;205.697998046875
532;205.10240173339844
533;204.5089874267578
534;203.9169158935547
535;203.32696533203125
536;202.73876953125
537;202.1522979736328
538;201.567138671875
539;200.98406982421875
540;200.40280151367188
541;199.8227996826172
542;199.2444610595703
543;198.66790771484375
544;198.09304809570312
545;197.52023315429688
546;196.9491424560547
547;196.37969970703125
548;195.81161499023438
549;195.24520874023438
550;194.6804656982422
551;194.11737060546875
552;193.55596923828125
553;192.99627685546875
554;192.43853759765625
555;191.88250732421875
556;191.32777404785156
557;190.7750244140625
558;190.2239532470703
559;189.67449951171875
560;189.12672424316406
561;188.58018493652344
562;188.03567504882812
563;187.49278259277344
564;186.9514923095703
565;186.41148376464844
566;185.87342834472656
567;185.33700561523438
568;184.8021697998047
569;184.2686309814453
570;183.73703002929688
571;183.20701599121094
572;182.67855834960938
573;182.1514129638672
574;181.62615966796875
575;181.10215759277344
576;180.58010864257812
577;180.0595703125
578;179.54034423828125
579;179.0226287841797
580;178.50650024414062
581;177.99227905273438
582;177.47958374023438
583;176.9681396484375
584;176.45823669433594
585;175.9499053955078
586;175.44309997558594
587;174.9378204345703
588;174.43446350097656
589;173.93255615234375
590;173.43223571777344
591;172.93341064453125
592;172.43612670898438
593;171.94003295898438
594;171.4457550048828
595;170.9530029296875
596;170.46148681640625
597;169.97140502929688
598;169.48291015625
599;168.99615478515625
600;168.51063537597656
601;168.0265655517578
602;167.54400634765625
603;167.06292724609375
604;166.5836181640625
605;166.10581970214844
606;165.6291961669922
607;165.15399169921875
608;164.68055725097656
609;164.20860290527344
610;163.73782348632812
611;163.26882934570312
612;162.80096435546875
613;162.3347930908203
614;161.86984252929688
615;161.40660095214844
616;160.9445037841797
617;160.48382568359375
618;160.02488708496094
619;159.5673828125
620;159.1110076904297
621;158.6563262939453
622;158.20281982421875
623;157.75074768066406
624;157.300048828125
625;156.85076904296875
626;156.4031219482422
627;155.95689392089844
628;155.51185607910156
629;155.06817626953125
630;154.6261444091797
631;154.1852264404297
632;153.74598693847656
633;153.30787658691406
634;152.87136840820312
635;152.43600463867188
636;152.00201416015625
637;151.56936645507812
638;151.13812255859375
639;150.70848083496094
640;150.27993774414062
641;149.85301208496094
642;149.42718505859375
643;149.00291442871094
644;148.5800323486328
645;148.15826416015625
646;147.73779296875
647;147.31869506835938
648;146.9009246826172
649;146.4846954345703
650;146.069580078125
651;145.656005859375
652;145.2437286376953
653;144.8325958251953
654;144.4229736328125
655;144.0146942138672
656;143.60769653320312
657;143.20176696777344
658;142.79713439941406
659;142.39404296875
660;141.9920196533203
661;141.59127807617188
662;141.19204711914062
663;140.79388427734375
664;140.39698791503906
665;140.0014190673828
666;139.60728454589844
667;139.21446228027344
668;138.8226776123047
669;138.43218994140625
670;138.04293823242188
671;137.65496826171875
672;137.2682342529297
673;136.8827362060547
674;136.49871826171875
675;136.1157684326172
676;135.73423767089844
677;135.353759765625
678;134.97470092773438
679;134.59686279296875
680;134.2200927734375
681;133.8445587158203
682;133.47042846679688
683;133.09751892089844
684;132.72564697265625
685;132.35519409179688
686;131.98593139648438
687;131.61785888671875
688;131.25082397460938
689;130.885009765625
690;130.52059936523438
691;130.15716552734375
692;129.79515075683594
693;129.43426513671875
694;129.07444763183594
695;128.71600341796875
696;128.3586883544922
697;128.00241088867188
698;127.64732360839844
699;127.29337310791016
700;126.94081115722656
701;126.58938598632812
702;126.23896026611328
703;125.88967895507812
704;125.54158782958984
705;125.19482421875
706;124.84902954101562
707;124.50440979003906
708;124.16091918945312
709;123.81857299804688
710;123.47755432128906
711;123.13748931884766
712;122.798583984375
713;122.46097564697266
714;122.12429809570312
715;121.788818359375
716;121.45439910888672
717;121.12128448486328
718;120.78914642333984
719;120.45811462402344
720;120.12834930419922
721;119.79953002929688
722;119.47183990478516
723;119.14537048339844
724;118.82003784179688
725;118.49579620361328
726;118.17269134521484
727;117.85060119628906
728;117.52964782714844
729;117.20963287353516
730;116.89085388183594
731;116.57315063476562
732;116.25650787353516
733;115.94082641601562
734;115.62619018554688
735;115.3126220703125
736;115.00029754638672
737;114.68888092041016
738;114.37869262695312
739;114.06952667236328
740;113.76129150390625
741;113.45413208007812
742;113.14797973632812
743;112.84292602539062
744;112.53889465332031
745;112.23592376708984
746;111.9339828491211
747;111.63319396972656
748;111.33334350585938
749;111.03448486328125
750;110.7366943359375
751;110.4399185180664
752;110.14429473876953
753;109.84971618652344
754;109.55599212646484
755;109.263427734375
756;108.97187042236328
757;108.68133544921875
758;108.39179229736328
759;108.1031723022461
760;107.8156509399414
761;107.52900695800781
762;107.24334716796875
763;106.95880889892578
764;106.67515563964844
765;106.3924560546875
766;106.11090850830078
767;105.83033752441406
768;105.55074310302734
769;105.27201080322266
770;104.9942398071289
771;104.71755981445312
772;104.44186401367188
773;104.16702270507812
774;103.89326477050781
775;103.62047576904297
776;103.34852600097656
777;103.0776138305664
778;102.80757904052734
779;102.53860473632812
780;102.27059173583984
781;102.00350952148438
782;101.73726654052734
783;101.47195434570312
784;101.20770263671875
785;100.94439697265625
786;100.68192291259766
787;100.42047119140625
788;100.15985107421875
789;99.90013885498047
790;99.64137268066406
791;99.38363647460938
792;99.12672424316406
793;98.87081909179688
794;98.61571502685547
795;98.36151123046875
796;98.10824584960938
797;97.85598754882812
798;97.60453033447266
799;97.35405731201172
800;97.10440063476562
801;96.85575103759766
802;96.60799407958984
803;96.3611068725586
804;96.11514282226562
805;95.8700180053711
806;95.62571716308594
807;95.38238525390625
808;95.13985443115234
809;94.89816284179688
810;94.6573715209961
811;94.41753387451172
812;94.17858123779297
813;93.94041442871094
814;93.70307159423828
815;93.46661376953125
816;93.23103332519531
817;92.99629974365234
818;92.76251220703125
819;92.52955627441406
820;92.29747772216797
821;92.06615447998047
822;91.83566284179688
823;91.60602569580078
824;91.37731170654297
825;91.14945983886719
826;90.92231750488281
827;90.69605255126953
828;90.4706039428711
829;90.24605560302734
830;90.02224731445312
831;89.79927825927734
832;89.57711791992188
833;89.35578155517578
834;89.13526916503906
835;88.91558074951172
836;88.69670867919922
837;88.47869110107422
838;88.26151275634766
839;88.04505157470703
840;87.82939147949219
841;87.61461639404297
842;87.40064239501953
843;87.1873779296875
844;86.9749984741211
845;86.76333618164062
846;86.5525131225586
847;86.3425064086914
848;86.1332778930664
849;85.92481231689453
850;85.71715545654297
851;85.51025390625
852;85.30406188964844
853;85.09872436523438
854;84.89414978027344
855;84.69033813476562
856;84.48721313476562
857;84.28494262695312
858;84.08334350585938
859;83.88259887695312
860;83.68254852294922
861;83.48330688476562
862;83.28477478027344
863;83.08702850341797
864;82.89004516601562
865;82.69377899169922
866;82.49829864501953
867;82.30347442626953
868;82.10946655273438
869;81.91612243652344
870;81.72358703613281
871;81.53176879882812
872;81.34069061279297
873;81.15034484863281
874;80.96066284179688
875;80.77169799804688
876;80.5835189819336
877;80.39608764648438
878;80.20927429199219
879;80.02327728271484
880;79.83790588378906
881;79.65331268310547
882;79.46943664550781
883;79.28619384765625
884;79.1036376953125
885;78.92179870605469
886;78.74069213867188
887;78.56024169921875
888;78.38057708740234
889;78.20153045654297
890;78.02325439453125
891;77.84567260742188
892;77.66876220703125
893;77.4925537109375
894;77.3170166015625
895;77.14215850830078
896;76.96797180175781
897;76.79449462890625
898;76.62161254882812
899;76.44943237304688
900;76.27790832519531
901;76.10710144042969
902;75.93694305419922
903;75.7674331665039
904;75.59862518310547
905;75.43040466308594
906;75.26287841796875
907;75.09600067138672
908;74.92976379394531
909;74.76419067382812
910;74.59933471679688
911;74.43509674072266
912;74.27149200439453
913;74.10857391357422
914;73.94627380371094
915;73.78459930419922
916;73.62354278564453
917;73.46317291259766
918;73.30337524414062
919;73.14423370361328
920;72.98575592041016
921;72.82789611816406
922;72.67068481445312
923;72.51409912109375
924;72.3581314086914
925;72.20279693603516
926;72.04808044433594
927;71.89397430419922
928;71.7405014038086
929;71.58763122558594
930;71.43535614013672
931;71.28372192382812
932;71.1326675415039
933;70.98223114013672
934;70.83240509033203
935;70.68312072753906
936;70.53443908691406
937;70.3863525390625
938;70.23887634277344
939;70.092041015625
940;69.94575500488281
941;69.80010986328125
942;69.65501403808594
943;69.51052856445312
944;69.3666000366211
945;69.2232894897461
946;69.08049774169922
947;68.93836212158203
948;68.7967758178711
949;68.65572357177734
950;68.5152587890625
951;68.37537384033203
952;68.23606872558594
953;68.09729766845703
954;67.95915985107422
955;67.82152557373047
956;67.68450164794922
957;67.54800415039062
958;67.41210174560547
959;67.27674865722656
960;67.14191436767578
961;67.00767517089844
962;66.87394714355469
963;66.74081420898438
964;66.60823059082031
965;66.47618103027344
966;66.34463500976562
967;66.21363830566406
968;66.08322143554688
969;65.95332336425781
970;65.82394409179688
971;65.69514465332031
972;65.56683349609375
973;65.43907165527344
974;65.3118667602539
975;65.1851806640625
976;65.05899810791016
977;64.93333435058594
978;64.80823516845703
979;64.68363189697266
980;64.55955505371094
981;64.43597412109375
982;64.31295776367188
983;64.1904525756836
984;64.06845092773438
985;63.94695281982422
986;63.82598114013672
987;63.70550537109375
988;63.58551788330078
989;63.46602249145508
990;63.34706115722656
991;63.22858428955078
992;63.11058044433594
993;62.99312210083008
994;62.87611770629883
995;62.75963592529297
996;62.64361572265625
997;62.52812957763672
998;62.41314697265625
999;62.298583984375
1000;62.18452835083008
1001;62.07101058959961
1002;61.95792007446289
1003;61.84534454345703
1004;61.73320770263672
1005;61.62158203125
1006;61.51041793823242
1007;61.39972686767578
1008;61.28953170776367
1009;61.17976760864258
1010;61.07051086425781
1011;60.96171569824219
1012;60.85341262817383
1013;60.74552917480469
1014;60.63810348510742
1015;60.53112030029297
1016;60.42462921142578
1017;60.31861114501953
1018;60.21305465698242
1019;60.10793685913086
1020;60.00325393676758
1021;59.89902114868164
1022;59.79530334472656
1023;59.69197463989258
1024;59.58913040161133
1025;59.4866943359375
1026;59.38473129272461
1027;59.28318786621094
1028;59.18207550048828
1029;59.0814208984375
1030;58.98119354248047
1031;58.88142776489258
1032;58.78207015991211
1033;58.68317413330078
1034;58.58468246459961
1035;58.48662567138672
1036;58.38902282714844
1037;58.29183578491211
1038;58.19508743286133
1039;58.09874725341797
1040;58.00281524658203
1041;57.90730285644531
1042;57.81220245361328
1043;57.71755599975586
1044;57.62333679199219
1045;57.52950668334961
1046;57.43611526489258
1047;57.34310531616211
1048;57.25050354003906
1049;57.15833282470703
1050;57.06654357910156
1051;56.97515869140625
1052;56.88420104980469
1053;56.79363250732422
1054;56.7035026550293
1055;56.61372375488281
1056;56.52437973022461
1057;56.43544006347656
1058;56.34685134887695
1059;56.25867462158203
1060;56.17089080810547
1061;56.08349609375
1062;55.99648666381836
1063;55.90986251831055
1064;55.823646545410156
1065;55.737796783447266
1066;55.652347564697266
1067;55.567291259765625
1068;55.48259353637695
1069;55.3983154296875
1070;55.31437683105469
1071;55.23082733154297
1072;55.147666931152344
1073;55.06486129760742
1074;54.98244094848633
1075;54.90038299560547
1076;54.81870651245117
1077;54.73741149902344
1078;54.65646743774414
1079;54.575904846191406
1080;54.49568176269531
1081;54.41585922241211
1082;54.33637619018555
1083;54.25726318359375
1084;54.178497314453125
1085;54.10008239746094
1086;54.022056579589844
1087;53.94435501098633
1088;53.86704635620117
1089;53.790077209472656
1090;53.71343994140625
1091;53.63716125488281
1092;53.56122970581055
1093;53.48564529418945
1094;53.41041564941406
1095;53.33553695678711
1096;53.260982513427734
1097;53.18680191040039
1098;53.112953186035156
1099;53.03944396972656
1100;52.96624755859375
1101;52.8934326171875
1102;52.82090759277344
1103;52.74874496459961
1104;52.67689895629883
1105;52.60542678833008
1106;52.534244537353516
1107;52.46337127685547
1108;52.39287185668945
1109;52.32269287109375
1110;52.25284194946289
1111;52.18333053588867
1112;52.11410140991211
1113;52.04521179199219
1114;51.976654052734375
1115;51.90838623046875
1116;51.84044647216797
1117;51.77287292480469
1118;51.705589294433594
1119;51.63859939575195
1120;51.571929931640625
1121;51.50558090209961
1122;51.43954849243164
1123;51.37384033203125
1124;51.30842590332031
1125;51.24330520629883
1126;51.17850875854492
1127;51.11399841308594
1128;51.04979705810547
1129;50.98591613769531
1130;50.92231369018555
1131;50.85902404785156
1132;50.79603576660156
1133;50.73332977294922
1134;50.67094039916992
1135;50.608829498291016
1136;50.547035217285156
1137;50.485538482666016
1138;50.424320220947266
1139;50.363407135009766
1140;50.30278015136719
1141;50.242431640625
1142;50.18236541748047
1143;50.12259292602539
1144;50.06310272216797
1145;50.00390625
1146;49.944984436035156
1147;49.8863639831543
1148;49.8280143737793
1149;49.76995849609375
1150;49.71216583251953
1151;49.65464782714844
1152;49.597408294677734
1153;49.54043960571289
1154;49.48374938964844
1155;49.427330017089844
1156;49.37120056152344
1157;49.315330505371094
1158;49.25971984863281
1159;49.20438766479492
1160;49.14932632446289
1161;49.09454345703125
1162;49.04001235961914
1163;48.98575210571289
1164;48.93175506591797
1165;48.878013610839844
1166;48.82453918457031
1167;48.77132034301758
1168;48.718379974365234
1169;48.66567611694336
1170;48.61323547363281
1171;48.56105422973633
1172;48.50912094116211
1173;48.45743942260742
1174;48.40602111816406
1175;48.35484313964844
1176;48.30392074584961
1177;48.25328063964844
1178;48.20286560058594
1179;48.1526985168457
1180;48.102745056152344
1181;48.0531120300293
1182;48.00367736816406
1183;47.954471588134766
1184;47.9055290222168
1185;47.85682678222656
1186;47.80836486816406
1187;47.76014709472656
1188;47.71216583251953
1189;47.66440963745117
1190;47.61688232421875
1191;47.56962585449219
1192;47.52259826660156
1193;47.47578048706055
1194;47.42921447753906
1195;47.382869720458984
1196;47.33676528930664
1197;47.2908821105957
1198;47.24525451660156
1199;47.1998176574707
1200;47.154624938964844
1201;47.10966491699219
1202;47.064918518066406
1203;47.02039337158203
1204;46.97611999511719
1205;46.93204116821289
1206;46.8881950378418
1207;46.84453582763672
1208;46.80113983154297
1209;46.75796127319336
1210;46.71499252319336
1211;46.67223358154297
1212;46.62969207763672
1213;46.58738708496094
1214;46.54526901245117
1215;46.50337219238281
1216;46.46170425415039
1217;46.42021560668945
1218;46.37895202636719
1219;46.33791732788086
1220;46.29708480834961
1221;46.25643539428711
1222;46.21603775024414
1223;46.175785064697266
1224;46.135772705078125
1225;46.09596633911133
1226;46.05634689331055
1227;46.01694869995117
1228;45.97772979736328
1229;45.938720703125
1230;45.899925231933594
1231;45.861297607421875
1232;45.82290267944336
1233;45.784698486328125
1234;45.74668884277344
1235;45.708858489990234
1236;45.671241760253906
1237;45.63382339477539
1238;45.59657669067383
1239;45.55952453613281
1240;45.52267074584961
1241;45.48600769042969
1242;45.449546813964844
1243;45.41326141357422
1244;45.37717819213867
1245;45.34126281738281
1246;45.305538177490234
1247;45.27000427246094
1248;45.23465347290039
1249;45.19948959350586
1250;45.164512634277344
1251;45.12969970703125
1252;45.09508514404297
1253;45.0606575012207
1254;45.026397705078125
1255;44.992305755615234
1256;44.95842361450195
1257;44.92469787597656
1258;44.89114761352539
1259;44.85776901245117
1260;44.82457733154297
1261;44.791561126708984
1262;44.75872802734375
1263;44.726036071777344
1264;44.69355010986328
1265;44.66120147705078
1266;44.62904357910156
1267;44.59707260131836
1268;44.56525421142578
1269;44.53359603881836
1270;44.50210952758789
1271;44.47077941894531
1272;44.43962097167969
1273;44.40863800048828
1274;44.3778190612793
1275;44.34716033935547
1276;44.316654205322266
1277;44.28632736206055
1278;44.25615692138672
1279;44.22613525390625
1280;44.196285247802734
1281;44.16658401489258
1282;44.13705062866211
1283;44.10768508911133
1284;44.07844543457031
1285;44.04939651489258
1286;44.02049255371094
1287;43.99174118041992
1288;43.963172912597656
1289;43.93471145629883
1290;43.90642166137695
1291;43.8782958984375
1292;43.850303649902344
1293;43.822471618652344
1294;43.79478454589844
1295;43.76723861694336
1296;43.73985290527344
1297;43.71263885498047
1298;43.685546875
1299;43.65861129760742
1300;43.63179397583008
1301;43.60515594482422
1302;43.57866668701172
1303;43.55229187011719
1304;43.52606201171875
1305;43.49998474121094
1306;43.47407150268555
1307;43.44825744628906
1308;43.422603607177734
1309;43.3970832824707
1310;43.3717155456543
1311;43.34646987915039
1312;43.32136535644531
1313;43.29640197753906
1314;43.27159118652344
1315;43.246910095214844
1316;43.22236633300781
1317;43.19793701171875
1318;43.17367172241211
1319;43.14950180053711
1320;43.125492095947266
1321;43.10160827636719
1322;43.07786560058594
1323;43.05424880981445
1324;43.03075408935547
1325;43.00740051269531
1326;42.98417663574219
1327;42.961055755615234
1328;42.93809127807617
1329;42.91524124145508
1330;42.89252853393555
1331;42.86991882324219
1332;42.84745407104492
1333;42.825111389160156
1334;42.80290222167969
1335;42.78080368041992
1336;42.758811950683594
1337;42.73698043823242
1338;42.715240478515625
1339;42.69364547729492
1340;42.67214584350586
1341;42.65078353881836
1342;42.629539489746094
1343;42.60841751098633
1344;42.58741760253906
1345;42.56653594970703
1346;42.54574966430664
1347;42.52510070800781
1348;42.50458908081055
1349;42.4841423034668
1350;42.463836669921875
1351;42.44364929199219
1352;42.42356491088867
1353;42.403602600097656
1354;42.38374710083008
1355;42.36399841308594
1356;42.344390869140625
1357;42.324851989746094
1358;42.30546188354492
1359;42.28615188598633
1360;42.266963958740234
1361;42.24787521362305
1362;42.22892761230469
1363;42.210052490234375
1364;42.19130325317383
1365;42.17263412475586
1366;42.154109954833984
1367;42.135684967041016
1368;42.11735534667969
1369;42.09912872314453
1370;42.08100128173828
1371;42.06299591064453
1372;42.045074462890625
1373;42.02726364135742
1374;42.009544372558594
1375;41.99195098876953
1376;41.97443771362305
1377;41.95704650878906
1378;41.939727783203125
1379;41.92251205444336
1380;41.905418395996094
1381;41.88840866088867
1382;41.871517181396484
1383;41.85469436645508
1384;41.837989807128906
1385;41.82136535644531
1386;41.80485153198242
1387;41.78843688964844
1388;41.772090911865234
1389;41.75586700439453
1390;41.73972702026367
1391;41.72367858886719
1392;41.70771789550781
1393;41.69186782836914
1394;41.67609786987305
1395;41.660430908203125
1396;41.64485168457031
1397;41.62935256958008
1398;41.61396026611328
1399;41.59865188598633
1400;41.58343505859375
1401;41.56827926635742
1402;41.55323791503906
1403;41.538291931152344
1404;41.52341842651367
1405;41.50864791870117
1406;41.49395751953125
1407;41.47935485839844
1408;41.46482849121094
1409;41.45039367675781
1410;41.43604278564453
1411;41.42177200317383
1412;41.4076042175293
1413;41.393489837646484
1414;41.37948989868164
1415;41.365562438964844
1416;41.35171127319336
1417;41.337955474853516
1418;41.32426452636719
1419;41.31066131591797
1420;41.297157287597656
1421;41.283714294433594
1422;41.27033996582031
1423;41.257057189941406
1424;41.24385070800781
1425;41.230735778808594
1426;41.217689514160156
1427;41.20473861694336
1428;41.19184494018555
1429;41.17903518676758
1430;41.16630554199219
1431;41.15364456176758
1432;41.14106750488281
1433;41.12855529785156
1434;41.116119384765625
1435;41.103759765625
1436;41.091487884521484
1437;41.07926940917969
1438;41.06714630126953
1439;41.05507278442383
1440;41.0430908203125
1441;41.03117370605469
1442;41.01932907104492
1443;41.00755310058594
1444;40.9958610534668
1445;40.98423385620117
1446;40.97267150878906
1447;40.961181640625
1448;40.94976806640625
1449;40.938419342041016
1450;40.9271354675293
1451;40.91592025756836
1452;40.90476989746094
1453;40.89371109008789
1454;40.8826904296875
1455;40.87175369262695
1456;40.86088943481445
1457;40.85007095336914
1458;40.83932876586914
1459;40.828651428222656
1460;40.81804656982422
1461;40.80750274658203
1462;40.797027587890625
1463;40.78661346435547
1464;40.7762565612793
1465;40.76596450805664
1466;40.75575256347656
1467;40.74557876586914
1468;40.73548126220703
1469;40.725440979003906
1470;40.71546936035156
1471;40.7055549621582
1472;40.69570541381836
1473;40.68592071533203
1474;40.67618942260742
1475;40.66651153564453
1476;40.65692138671875
1477;40.64734649658203
1478;40.63787078857422
1479;40.62845230102539
1480;40.61907196044922
1481;40.6097526550293
1482;40.60049057006836
1483;40.59130096435547
1484;40.5821533203125
1485;40.57307052612305
1486;40.56405258178711
1487;40.555084228515625
1488;40.546165466308594
1489;40.53730392456055
1490;40.528499603271484
1491;40.51976013183594
1492;40.51105880737305
1493;40.50242233276367
1494;40.49383544921875
1495;40.48530197143555
1496;40.476829528808594
1497;40.46840286254883
1498;40.460052490234375
1499;40.45172119140625
1500;40.443458557128906
1501;40.43524932861328
1502;40.42707824707031
1503;40.418968200683594
1504;40.41092300415039
1505;40.40291976928711
1506;40.394962310791016
1507;40.387054443359375
1508;40.37920379638672
1509;40.371395111083984
1510;40.36363983154297
1511;40.35594177246094
1512;40.34828567504883
1513;40.34067153930664
1514;40.33311462402344
1515;40.32560348510742
1516;40.31815719604492
1517;40.31072998046875
1518;40.3033561706543
1519;40.296043395996094
1520;40.28877258300781
1521;40.28154754638672
1522;40.27436447143555
1523;40.26723861694336
1524;40.26013946533203
1525;40.25309753417969
1526;40.246116638183594
1527;40.23915100097656
1528;40.232242584228516
1529;40.225379943847656
1530;40.218570709228516
1531;40.21178436279297
1532;40.2050666809082
1533;40.19838333129883
1534;40.191734313964844
1535;40.185142517089844
1536;40.17857360839844
1537;40.17205047607422
1538;40.16560363769531
1539;40.1591682434082
1540;40.15276336669922
1541;40.14643478393555
1542;40.14012145996094
1543;40.13385772705078
1544;40.12764358520508
1545;40.12144470214844
1546;40.115299224853516
1547;40.10920715332031
1548;40.103153228759766
1549;40.09711837768555
1550;40.09113693237305
1551;40.08519744873047
1552;40.07929611206055
1553;40.07342529296875
1554;40.067604064941406
1555;40.061805725097656
1556;40.05605697631836
1557;40.05034637451172
1558;40.0446662902832
1559;40.03903579711914
1560;40.03343963623047
1561;40.027862548828125
1562;40.02233123779297
1563;40.016841888427734
1564;40.01139831542969
1565;40.00597381591797
1566;40.00059509277344
1567;39.995243072509766
1568;39.98994445800781
1569;39.98466491699219
1570;39.97942352294922
1571;39.97422790527344
1572;39.96904754638672
1573;39.96391296386719
1574;39.95882034301758
1575;39.95375061035156
1576;39.94870376586914
1577;39.94371032714844
1578;39.93873596191406
1579;39.93381881713867
1580;39.92890930175781
1581;39.924041748046875
1582;39.91920471191406
1583;39.91440963745117
1584;39.90963363647461
1585;39.904903411865234
1586;39.90019226074219
1587;39.8955192565918
1588;39.8908805847168
1589;39.88625717163086
1590;39.881683349609375
1591;39.87711715698242
1592;39.87260437011719
1593;39.868125915527344
1594;39.86367416381836
1595;39.85923767089844
1596;39.85483932495117
1597;39.85047912597656
1598;39.84613800048828
1599;39.84183120727539
1600;39.83755111694336
1601;39.833309173583984
1602;39.82908248901367
1603;39.824886322021484
1604;39.82072448730469
1605;39.81659698486328
1606;39.81246566772461
1607;39.80839920043945
1608;39.80433654785156
1609;39.80031204223633
1610;39.796321868896484
1611;39.79235076904297
1612;39.78841781616211
1613;39.78450012207031
1614;39.78061294555664
1615;39.776756286621094
1616;39.772918701171875
1617;39.76911544799805
1618;39.76533889770508
1619;39.76158142089844
1620;39.757850646972656
1621;39.75414276123047
1622;39.750465393066406
1623;39.74681091308594
1624;39.74317932128906
1625;39.73957443237305
1626;39.736000061035156
1627;39.73245620727539
1628;39.72892379760742
1629;39.72542190551758
1630;39.72194290161133
1631;39.718482971191406
1632;39.71506118774414
1633;39.71165466308594
1634;39.708251953125
1635;39.70491027832031
1636;39.70155715942383
1637;39.698246002197266
1638;39.69496154785156
1639;39.69169616699219
1640;39.688453674316406
1641;39.68522644042969
1642;39.68203353881836
1643;39.678855895996094
1644;39.675697326660156
1645;39.67256164550781
1646;39.669456481933594
1647;39.66636657714844
1648;39.663291931152344
1649;39.66025924682617
1650;39.6572380065918
1651;39.65424346923828
1652;39.65126037597656
1653;39.64829635620117
1654;39.64535140991211
1655;39.64242172241211
1656;39.63954162597656
1657;39.63666915893555
1658;39.63381576538086
1659;39.6309700012207
1660;39.62814712524414
1661;39.62535858154297
1662;39.62257766723633
1663;39.61981964111328
1664;39.61708068847656
1665;39.61436080932617
1666;39.61166000366211
1667;39.60899353027344
1668;39.60633087158203
1669;39.60368347167969
1670;39.60106658935547
1671;39.59846496582031
1672;39.59588623046875
1673;39.59331130981445
1674;39.59076690673828
1675;39.58823776245117
1676;39.585731506347656
1677;39.583229064941406
1678;39.58076477050781
1679;39.57829666137695
1680;39.57585906982422
1681;39.57344055175781
1682;39.57101821899414
1683;39.56864929199219
1684;39.566280364990234
1685;39.56391143798828
1686;39.56159210205078
1687;39.559268951416016
1688;39.556976318359375
1689;39.5546875
1690;39.55241775512695
1691;39.550167083740234
1692;39.54792404174805
1693;39.545692443847656
1694;39.543495178222656
1695;39.54130554199219
1696;39.53913879394531
1697;39.5369873046875
1698;39.53484344482422
1699;39.53273010253906
1700;39.53062057495117
1701;39.52851486206055
1702;39.52642822265625
1703;39.52436828613281
1704;39.52233123779297
1705;39.520286560058594
1706;39.51826858520508
1707;39.51626205444336
1708;39.5142822265625
1709;39.51231384277344
1710;39.51034164428711
1711;39.50840759277344
1712;39.5064697265625
1713;39.504539489746094
1714;39.50264358520508
1715;39.500755310058594
1716;39.498897552490234
1717;39.49702835083008
1718;39.49517822265625
1719;39.493343353271484
1720;39.49153137207031
1721;39.48971939086914
1722;39.487918853759766
1723;39.486141204833984
1724;39.484378814697266
1725;39.48262023925781
1726;39.48088073730469
1727;39.479164123535156
1728;39.477439880371094
1729;39.475746154785156
1730;39.474056243896484
1731;39.472381591796875
1732;39.47071838378906
1733;39.46907043457031
1734;39.46742248535156
1735;39.46578598022461
1736;39.46418762207031
1737;39.46257781982422
1738;39.46098327636719
1739;39.459407806396484
1740;39.45783996582031
1741;39.456298828125
1742;39.45475387573242
1743;39.453216552734375
1744;39.45169448852539
1745;39.4501838684082
1746;39.44871139526367
1747;39.44719696044922
1748;39.44573211669922
1749;39.44425964355469
1750;39.44281768798828
1751;39.44135665893555
1752;39.43994140625
1753;39.43852233886719
1754;39.43711853027344
1755;39.435707092285156
1756;39.434326171875
1757;39.432960510253906
1758;39.43157196044922
1759;39.43021774291992
1760;39.42886734008789
1761;39.42753982543945
1762;39.42621994018555
1763;39.424903869628906
1764;39.42359161376953
1765;39.422306060791016
1766;39.421016693115234
1767;39.41973876953125
1768;39.41847229003906
1769;39.41721725463867
1770;39.41596603393555
1771;39.414730072021484
1772;39.41349792480469
1773;39.41228103637695
1774;39.41108322143555
1775;39.409873962402344
1776;39.40868377685547
1777;39.407501220703125
1778;39.40633773803711
1779;39.40516662597656
1780;39.40401840209961
1781;39.402862548828125
1782;39.40174102783203
1783;39.400604248046875
1784;39.39949035644531
1785;39.39836883544922
1786;39.397274017333984
1787;39.39619064331055
1788;39.39509963989258
1789;39.394012451171875
1790;39.392948150634766
1791;39.39189147949219
1792;39.39082717895508
1793;39.389793395996094
1794;39.38875961303711
1795;39.38774108886719
1796;39.386722564697266
1797;39.38570022583008
1798;39.38470458984375
1799;39.38370895385742
1800;39.382720947265625
1801;39.38172912597656
1802;39.38076400756836
1803;39.379817962646484
1804;39.378849029541016
1805;39.37790298461914
1806;39.3769645690918
1807;39.37602996826172
1808;39.375091552734375
1809;39.37417221069336
1810;39.37326431274414
1811;39.37234878540039
1812;39.3714599609375
1813;39.37056350708008
1814;39.36968231201172
1815;39.368804931640625
1816;39.36792755126953
1817;39.36708068847656
1818;39.366214752197266
1819;39.365360260009766
1820;39.364532470703125
1821;39.36367416381836
1822;39.36286163330078
1823;39.36202621459961
1824;39.36121368408203
1825;39.36039733886719
1826;39.35961151123047
1827;39.35880661010742
1828;39.35801315307617
1829;39.35721969604492
1830;39.35645294189453
1831;39.35567092895508
1832;39.35490417480469
1833;39.35414505004883
1834;39.35340881347656
1835;39.35265350341797
1836;39.35191345214844
1837;39.35118103027344
1838;39.3504524230957
1839;39.3497200012207
1840;39.349002838134766
1841;39.34828186035156
1842;39.34758758544922
1843;39.34687805175781
1844;39.346187591552734
1845;39.345497131347656
1846;39.34481430053711
1847;39.344139099121094
1848;39.34346008300781
1849;39.34280014038086
1850;39.342140197753906
1851;39.34147644042969
1852;39.34082794189453
1853;39.340179443359375
1854;39.339542388916016
1855;39.33890151977539
1856;39.33827209472656
1857;39.33765411376953
1858;39.3370246887207
1859;39.33640670776367
1860;39.33580017089844
1861;39.33518981933594
1862;39.3345947265625
1863;39.33399200439453
1864;39.333412170410156
1865;39.33281326293945
1866;39.332237243652344
1867;39.33165740966797
1868;39.33109664916992
1869;39.33052062988281
1870;39.32996368408203
1871;39.329402923583984
1872;39.328853607177734
1873;39.32830810546875
1874;39.327754974365234
1875;39.32722473144531
1876;39.326690673828125
1877;39.32615661621094
1878;39.325626373291016
1879;39.32509994506836
1880;39.32459259033203
1881;39.32406234741211
1882;39.323570251464844
1883;39.323055267333984
1884;39.32255554199219
1885;39.32204818725586
1886;39.32156753540039
1887;39.321067810058594
1888;39.32059097290039
1889;39.32011413574219
1890;39.31964874267578
1891;39.31917190551758
1892;39.318702697753906
1893;39.318241119384766
1894;39.31776428222656
1895;39.31731033325195
1896;39.316864013671875
1897;39.31641387939453
1898;39.31597137451172
1899;39.315521240234375
1900;39.315086364746094
1901;39.314659118652344
1902;39.31422424316406
1903;39.31380081176758
1904;39.31338119506836
1905;39.312957763671875
1906;39.312530517578125
1907;39.3121223449707
1908;39.31172180175781
1909;39.311302185058594
1910;39.31089782714844
1911;39.31050109863281
1912;39.31011199951172
1913;39.30971908569336
1914;39.30934143066406
1915;39.30894470214844
1916;39.30855941772461
1917;39.30817413330078
1918;39.30780029296875
1919;39.307437896728516
1920;39.30706024169922
1921;39.30669021606445
1922;39.306331634521484
1923;39.30596160888672
1924;39.30561447143555
1925;39.30525207519531
1926;39.304908752441406
1927;39.3045539855957
1928;39.30419921875
1929;39.303855895996094
1930;39.303531646728516
1931;39.30319595336914
1932;39.3028564453125
1933;39.302528381347656
1934;39.30219268798828
1935;39.30186462402344
1936;39.30154800415039
1937;39.30121994018555
1938;39.30091094970703
1939;39.30059814453125
1940;39.30028533935547
1941;39.29997634887695
1942;39.29966735839844
1943;39.29936981201172
1944;39.29905700683594
1945;39.29875946044922
1946;39.29847717285156
1947;39.298179626464844
1948;39.297882080078125
1949;39.297603607177734
1950;39.29731750488281
1951;39.29703140258789
1952;39.2967414855957
1953;39.29647445678711
1954;39.29618835449219
1955;39.29591751098633
1956;39.295654296875
1957;39.295387268066406
1958;39.29512023925781
1959;39.294837951660156
1960;39.29458236694336
1961;39.294334411621094
1962;39.294063568115234
1963;39.2938117980957
1964;39.29356002807617
1965;39.293304443359375
1966;39.293067932128906
1967;39.29281234741211
1968;39.292572021484375
1969;39.29233169555664
1970;39.292083740234375
1971;39.29185104370117
1972;39.29161071777344
1973;39.2913818359375
1974;39.2911376953125
1975;39.290916442871094
1976;39.29069519042969
1977;39.290462493896484
1978;39.290245056152344
1979;39.290016174316406
1980;39.289791107177734
1981;39.289588928222656
1982;39.28937530517578
1983;39.289154052734375
1984;39.2889404296875
1985;39.28873062133789
1986;39.28852081298828
1987;39.28831481933594
1988;39.28810501098633
1989;39.287906646728516
1990;39.287696838378906
1991;39.28750991821289
1992;39.28731918334961
1993;39.2871208190918
1994;39.28691101074219
1995;39.2867431640625
1996;39.28653335571289
1997;39.28634262084961
1998;39.28615951538086
1999;39.285972595214844
