;loss
0;1403.32373046875
1;1401.9124755859375
2;1400.505615234375
3;1399.227294921875
4;1397.9078369140625
5;1396.5587158203125
6;1395.1427001953125
7;1393.7469482421875
8;1392.308837890625
9;1390.8548583984375
10;1389.388671875
11;1387.89599609375
12;1386.3739013671875
13;1384.825439453125
14;1383.2364501953125
15;1381.61962890625
16;1379.9625244140625
17;1378.2608642578125
18;1376.5096435546875
19;1374.703857421875
20;1372.8380126953125
21;1370.906005859375
22;1368.9014892578125
23;1366.8177490234375
24;1364.6473388671875
25;1362.382568359375
26;1360.0145263671875
27;1357.534423828125
28;1354.930908203125
29;1352.16064453125
30;1349.2757568359375
31;1346.195068359375
32;1342.9366455078125
33;1339.483642578125
34;1335.8607177734375
35;1332.0098876953125
36;1327.9088134765625
37;1323.48388671875
38;1318.7518310546875
39;1313.7384033203125
40;1308.3604736328125
41;1302.582275390625
42;1296.3629150390625
43;1289.6558837890625
44;1282.4112548828125
45;1274.495361328125
46;1265.9168701171875
47;1256.6087646484375
48;1246.5948486328125
49;1235.606689453125
50;1223.7606201171875
51;1210.8709716796875
52;1196.8485107421875
53;1181.464111328125
54;1164.8975830078125
55;1146.9453125
56;1127.5535888671875
57;1106.5269775390625
58;1084.0496826171875
59;1060.4156494140625
60;1035.635498046875
61;1009.7857055664062
62;983.4567260742188
63;957.327392578125
64;931.5357055664062
65;906.8274536132812
66;883.8336181640625
67;862.7266845703125
68;843.5910034179688
69;826.6742553710938
70;811.8433837890625
71;798.8998413085938
72;787.6287841796875
73;777.8402709960938
74;769.3143310546875
75;761.6967163085938
76;754.8656005859375
77;748.701904296875
78;743.0248413085938
79;737.7941284179688
80;732.9315795898438
81;728.3772583007812
82;724.0829467773438
83;720.0343627929688
84;716.1746826171875
85;712.4761352539062
86;708.8968505859375
87;705.439697265625
88;702.1077880859375
89;698.8706665039062
90;695.700927734375
91;692.6232299804688
92;689.6136474609375
93;686.6511840820312
94;683.7606811523438
95;680.9223022460938
96;678.1322631835938
97;675.3737182617188
98;672.6571655273438
99;669.9797973632812
100;667.3516235351562
101;664.7577514648438
102;662.1964721679688
103;659.666015625
104;657.1649780273438
105;654.6807861328125
106;652.234375
107;649.8135375976562
108;647.4170532226562
109;645.033935546875
110;642.6737060546875
111;640.3451538085938
112;638.0377807617188
113;635.740966796875
114;633.4732666015625
115;631.2151489257812
116;628.9756469726562
117;626.7540893554688
118;624.55859375
119;622.3797607421875
120;620.2171630859375
121;618.0704956054688
122;615.9391479492188
123;613.8226928710938
124;611.720947265625
125;609.6334838867188
126;607.559814453125
127;605.4998168945312
128;603.453125
129;601.4194946289062
130;599.3984985351562
131;597.3899536132812
132;595.3936157226562
133;593.40234375
134;591.4296875
135;589.468505859375
136;587.5187377929688
137;585.5799560546875
138;583.652099609375
139;581.7284545898438
140;579.8153686523438
141;577.9126586914062
142;576.0263671875
143;574.1500244140625
144;572.2833862304688
145;570.4264526367188
146;568.5731201171875
147;566.7349853515625
148;564.906005859375
149;563.0861206054688
150;561.2695922851562
151;559.4674682617188
152;557.6739501953125
153;555.8889770507812
154;554.1123657226562
155;552.3389282226562
156;550.5736694335938
157;548.816650390625
158;547.0676879882812
159;545.3265991210938
160;543.5934448242188
161;541.8680419921875
162;540.1550903320312
163;538.4449462890625
164;536.7470703125
165;535.0518798828125
166;533.3641967773438
167;531.6883544921875
168;530.0150756835938
169;528.3489990234375
170;526.6944580078125
171;525.0468139648438
172;523.401611328125
173;521.763427734375
174;520.1318969726562
175;518.507080078125
176;516.8888549804688
177;515.2772216796875
178;513.6760864257812
179;512.077392578125
180;510.48492431640625
181;508.8988342285156
182;507.32275390625
183;505.7490234375
184;504.1813049316406
185;502.6234436035156
186;501.0677185058594
187;499.52166748046875
188;497.9815368652344
189;496.4471740722656
190;494.9147644042969
191;493.3882751464844
192;491.8709716796875
193;490.3592529296875
194;488.84954833984375
195;487.3489685058594
196;485.8538513183594
197;484.3608093261719
198;482.8730163574219
199;481.39410400390625
200;479.9205017089844
201;478.4521484375
202;476.9891357421875
203;475.5313415527344
204;474.0787658691406
205;472.6312561035156
206;471.18896484375
207;469.7486877441406
208;468.3165283203125
209;466.8894958496094
210;465.4642639160156
211;464.0469970703125
212;462.6317138671875
213;461.2212219238281
214;459.8186340332031
215;458.41790771484375
216;457.0248107910156
217;455.6336669921875
218;454.2499694824219
219;452.87103271484375
220;451.4966125488281
221;450.1241455078125
222;448.75897216796875
223;447.39837646484375
224;446.0395812988281
225;444.68798828125
226;443.3381042480469
227;441.9927978515625
228;440.6518859863281
229;439.3153991699219
230;437.9832458496094
231;436.65545654296875
232;435.33203125
233;434.01544189453125
234;432.7005920410156
235;431.392578125
236;430.08612060546875
237;428.7840576171875
238;427.4862060546875
239;426.19244384765625
240;424.9028625488281
241;423.61968994140625
242;422.33843994140625
243;421.0634765625
244;419.7901916503906
245;418.52337646484375
246;417.26055908203125
247;415.9994201660156
248;414.7423095703125
249;413.4891662597656
250;412.2420654296875
251;410.9967956542969
252;409.7554016113281
253;408.5179138183594
254;407.2864685058594
255;406.05877685546875
256;404.8349609375
257;403.6149597167969
258;402.3966369628906
259;401.1841735839844
260;399.9733581542969
261;398.7684326171875
262;397.5672302246094
263;396.36962890625
264;395.1737060546875
265;393.9815673828125
266;392.7950134277344
267;391.61016845703125
268;390.4289855957031
269;389.2514343261719
270;388.0794372558594
271;386.91094970703125
272;385.74603271484375
273;384.5846862792969
274;383.42694091796875
275;382.27264404296875
276;381.1219482421875
277;379.97296142578125
278;378.8274230957031
279;377.6871032714844
280;376.5502624511719
281;375.4169006347656
282;374.28692626953125
283;373.16033935546875
284;372.03717041015625
285;370.9174499511719
286;369.8010559082031
287;368.6880187988281
288;367.5783386230469
289;366.4703369140625
290;365.3673095703125
291;364.26763916015625
292;363.1712341308594
293;362.0765075683594
294;360.9850769042969
295;359.8968811035156
296;358.8135070800781
297;357.7333984375
298;356.65496826171875
299;355.58123779296875
300;354.51080322265625
301;353.4419860839844
302;352.3778991699219
303;351.31549072265625
304;350.2561950683594
305;349.20013427734375
306;348.1470642089844
307;347.0987243652344
308;346.0520324707031
309;345.0083923339844
310;343.9693908691406
311;342.9333190917969
312;341.9004211425781
313;340.869140625
314;339.8409729003906
315;338.8158874511719
316;337.79510498046875
317;336.7760314941406
318;335.7613830566406
319;334.7496643066406
320;333.7409362792969
321;332.7352294921875
322;331.732421875
323;330.73260498046875
324;329.7345275878906
325;328.73931884765625
326;327.7483825683594
327;326.76031494140625
328;325.7738952636719
329;324.7904357910156
330;323.8098449707031
331;322.8321228027344
332;321.857421875
333;320.88543701171875
334;319.9176025390625
335;318.9514465332031
336;317.9881591796875
337;317.0276794433594
338;316.0700378417969
339;315.115234375
340;314.16326904296875
341;313.2140808105469
342;312.26885986328125
343;311.3253173828125
344;310.3844909667969
345;309.44647216796875
346;308.5123596191406
347;307.58099365234375
348;306.6512451171875
349;305.72528076171875
350;304.8021545410156
351;303.8817443847656
352;302.96392822265625
353;302.0478515625
354;301.1343994140625
355;300.2237243652344
356;299.31671142578125
357;298.4123840332031
358;297.5107421875
359;296.6107177734375
360;295.7143249511719
361;294.8196105957031
362;293.9274597167969
363;293.0380554199219
364;292.15118408203125
365;291.2669372558594
366;290.38629150390625
367;289.5072937011719
368;288.6318664550781
369;287.7590026855469
370;286.8878173828125
371;286.02008056640625
372;285.1539306640625
373;284.2904357910156
374;283.42938232421875
375;282.5718994140625
376;281.7169189453125
377;280.8635559082031
378;280.01361083984375
379;279.16522216796875
380;278.3203125
381;277.4778747558594
382;276.6370544433594
383;275.7995910644531
384;274.96368408203125
385;274.1310729980469
386;273.3001708984375
387;272.4725341796875
388;271.646484375
389;270.8229064941406
390;270.0025939941406
391;269.18389892578125
392;268.36761474609375
393;267.5537414550781
394;266.74224853515625
395;265.9331970214844
396;265.1265563964844
397;264.322265625
398;263.5203857421875
399;262.7217102050781
400;261.9245910644531
401;261.1305847167969
402;260.33819580078125
403;259.5481262207031
404;258.76043701171875
405;257.9750671386719
406;257.1920166015625
407;256.41131591796875
408;255.63372802734375
409;254.85836791992188
410;254.0846405029297
411;253.31312561035156
412;252.54400634765625
413;251.7771453857422
414;251.0125274658203
415;250.25094604492188
416;249.4909210205078
417;248.73312377929688
418;247.97763061523438
419;247.2243194580078
420;246.47337341308594
421;245.7252655029297
422;244.9794921875
423;244.23519897460938
424;243.49383544921875
425;242.75465393066406
426;242.01766967773438
427;241.28219604492188
428;240.54901123046875
429;239.81796264648438
430;239.08912658691406
431;238.36244201660156
432;237.63795471191406
433;236.9163055419922
434;236.1968536376953
435;235.47886657714844
436;234.76370239257812
437;234.04998779296875
438;233.33909606933594
439;232.62979125976562
440;231.92245483398438
441;231.21734619140625
442;230.5143585205078
443;229.8134765625
444;229.11471557617188
445;228.41802978515625
446;227.72354125976562
447;227.0316619873047
448;226.3418731689453
449;225.65423583984375
450;224.96861267089844
451;224.28512573242188
452;223.60304260253906
453;222.9236297607422
454;222.24632263183594
455;221.5709991455078
456;220.89776611328125
457;220.2265625
458;219.5574188232422
459;218.88966369628906
460;218.2239532470703
461;217.5603485107422
462;216.89926147460938
463;216.23960876464844
464;215.58255004882812
465;214.9269256591797
466;214.2738800048828
467;213.6222381591797
468;212.9725799560547
469;212.32493591308594
470;211.67974853515625
471;211.0360870361328
472;210.3948516845703
473;209.75563049316406
474;209.1183319091797
475;208.48245239257812
476;207.84909057617188
477;207.2175750732422
478;206.58811950683594
479;205.96047973632812
480;205.33432006835938
481;204.71009826660156
482;204.08819580078125
483;203.46832275390625
484;202.85032653808594
485;202.2342071533203
486;201.62001037597656
487;201.0076446533203
488;200.39723205566406
489;199.78868103027344
490;199.18202209472656
491;198.57672119140625
492;197.97381591796875
493;197.3727264404297
494;196.77308654785156
495;196.1752166748047
496;195.57974243164062
497;194.98609924316406
498;194.39427185058594
499;193.80426025390625
500;193.2156524658203
501;192.62893676757812
502;192.04397583007812
503;191.46084594726562
504;190.87998962402344
505;190.3009490966797
506;189.72364807128906
507;189.14820861816406
508;188.57456970214844
509;188.00267028808594
510;187.4326171875
511;186.86390686035156
512;186.2969512939453
513;185.7322235107422
514;185.16920471191406
515;184.60804748535156
516;184.0481414794922
517;183.4900360107422
518;182.93365478515625
519;182.37908935546875
520;181.82662963867188
521;181.27552795410156
522;180.72650146484375
523;180.17884826660156
524;179.6329803466797
525;179.0891571044922
526;178.54661560058594
527;178.0059051513672
528;177.46681213378906
529;176.92990112304688
530;176.39422607421875
531;175.86065673828125
532;175.32838439941406
533;174.79783630371094
534;174.26898193359375
535;173.74176025390625
536;173.21624755859375
537;172.6923828125
538;172.1705780029297
539;171.65042114257812
540;171.1315460205078
541;170.61471557617188
542;170.09951782226562
543;169.58563232421875
544;169.07371520996094
545;168.5630645751953
546;168.054443359375
547;167.54708862304688
548;167.04136657714844
549;166.53724670410156
550;166.0347442626953
551;165.5338897705078
552;165.0346221923828
553;164.53697204589844
554;164.041259765625
555;163.54710388183594
556;163.05462646484375
557;162.5636749267578
558;162.0742950439453
559;161.58651733398438
560;161.10032653808594
561;160.61570739746094
562;160.1326141357422
563;159.65113830566406
564;159.17088317871094
565;158.69247436523438
566;158.21534729003906
567;157.74008178710938
568;157.2663116455078
569;156.7941436767578
570;156.323486328125
571;155.8540496826172
572;155.3861541748047
573;154.91973876953125
574;154.45521545410156
575;153.99221801757812
576;153.53070068359375
577;153.0703582763672
578;152.61187744140625
579;152.15452575683594
580;151.69879150390625
581;151.24444580078125
582;150.79164123535156
583;150.34033203125
584;149.8907928466797
585;149.4427032470703
586;148.99612426757812
587;148.55101013183594
588;148.1073760986328
589;147.6648712158203
590;147.22389221191406
591;146.78436279296875
592;146.34649658203125
593;145.91012573242188
594;145.47518920898438
595;145.04147338867188
596;144.609130859375
597;144.17825317382812
598;143.74908447265625
599;143.3210906982422
600;142.89476013183594
601;142.4695587158203
602;142.04580688476562
603;141.6234893798828
604;141.20281982421875
605;140.78353881835938
606;140.3654327392578
607;139.948974609375
608;139.53390502929688
609;139.11997985839844
610;138.70767211914062
611;138.29649353027344
612;137.88671875
613;137.4783477783203
614;137.0713348388672
615;136.66590881347656
616;136.26162719726562
617;135.8586883544922
618;135.45716857910156
619;135.0569305419922
620;134.65806579589844
621;134.26055908203125
622;133.86463928222656
623;133.47006225585938
624;133.07684326171875
625;132.6848907470703
626;132.29409790039062
627;131.90463256835938
628;131.51646423339844
629;131.12962341308594
630;130.74412536621094
631;130.3599090576172
632;129.9770050048828
633;129.59544372558594
634;129.21539306640625
635;128.8366241455078
636;128.45913696289062
637;128.0829620361328
638;127.70805358886719
639;127.33448791503906
640;126.96195983886719
641;126.59090423583984
642;126.22113800048828
643;125.85262298583984
644;125.48543548583984
645;125.11945343017578
646;124.75476837158203
647;124.39134216308594
648;124.02912902832031
649;123.66819763183594
650;123.30850982666016
651;122.9500732421875
652;122.59266662597656
653;122.2366943359375
654;121.8819808959961
655;121.52848052978516
656;121.17620086669922
657;120.82518005371094
658;120.47518157958984
659;120.12638092041016
660;119.77881622314453
661;119.4326400756836
662;119.08766174316406
663;118.74373626708984
664;118.40099334716797
665;118.05966186523438
666;117.719482421875
667;117.38033294677734
668;117.04256439208984
669;116.70598602294922
670;116.37039947509766
671;116.03614807128906
672;115.70292663574219
673;115.37088775634766
674;115.04000854492188
675;114.71044921875
676;114.38188934326172
677;114.0545425415039
678;113.728271484375
679;113.40324401855469
680;113.07947540283203
681;112.75687408447266
682;112.43541717529297
683;112.11510467529297
684;111.79593658447266
685;111.47787475585938
686;111.1609878540039
687;110.84519958496094
688;110.53052520751953
689;110.21702575683594
690;109.90458679199219
691;109.59314727783203
692;109.28296661376953
693;108.9738998413086
694;108.66593170166016
695;108.35891723632812
696;108.05302429199219
697;107.74820709228516
698;107.44461822509766
699;107.14200592041016
700;106.84050750732422
701;106.54016876220703
702;106.24099731445312
703;105.9428482055664
704;105.64579772949219
705;105.34968566894531
706;105.05463409423828
707;104.76079559326172
708;104.46788024902344
709;104.17615509033203
710;103.88538360595703
711;103.59577178955078
712;103.30725860595703
713;103.01960754394531
714;102.7331771850586
715;102.44776916503906
716;102.1634292602539
717;101.88009643554688
718;101.59781646728516
719;101.31643676757812
720;101.03609466552734
721;100.75688171386719
722;100.47858428955078
723;100.2012939453125
724;99.9251937866211
725;99.65007781982422
726;99.37596893310547
727;99.10283660888672
728;98.83065032958984
729;98.55944061279297
730;98.28935241699219
731;98.02017974853516
732;97.751953125
733;97.48486328125
734;97.21875762939453
735;96.95362854003906
736;96.68950653076172
737;96.4263687133789
738;96.16417694091797
739;95.90299224853516
740;95.64266204833984
741;95.3832778930664
742;95.12499237060547
743;94.8675308227539
744;94.61106872558594
745;94.35554504394531
746;94.10095977783203
747;93.84734344482422
748;93.59481048583984
749;93.34321594238281
750;93.09247589111328
751;92.84263610839844
752;92.59375
753;92.3458023071289
754;92.09889221191406
755;91.85282135009766
756;91.60768127441406
757;91.36344909667969
758;91.12015533447266
759;90.87789916992188
760;90.63640594482422
761;90.3959732055664
762;90.15636444091797
763;89.91775512695312
764;89.679931640625
765;89.443115234375
766;89.20712280273438
767;88.97209930419922
768;88.73798370361328
769;88.5046615600586
770;88.2723388671875
771;88.04081726074219
772;87.81023406982422
773;87.58059692382812
774;87.35179138183594
775;87.1238784790039
776;86.89674377441406
777;86.67056274414062
778;86.44518280029297
779;86.22065734863281
780;85.99701690673828
781;85.77418518066406
782;85.55237579345703
783;85.33128356933594
784;85.1110610961914
785;84.89177703857422
786;84.6732406616211
787;84.4556655883789
788;84.23892211914062
789;84.02303314208984
790;83.8079605102539
791;83.5937271118164
792;83.38033294677734
793;83.16769409179688
794;82.95586395263672
795;82.74488830566406
796;82.53469848632812
797;82.32535552978516
798;82.11683654785156
799;81.9092025756836
800;81.70230865478516
801;81.49620819091797
802;81.29102325439453
803;81.08655548095703
804;80.88298034667969
805;80.68013000488281
806;80.47813415527344
807;80.27693176269531
808;80.07654571533203
809;79.8768539428711
810;79.677978515625
811;79.47985076904297
812;79.28251647949219
813;79.08598327636719
814;78.89022827148438
815;78.69524383544922
816;78.50110626220703
817;78.30767059326172
818;78.114990234375
819;77.92310333251953
820;77.73194885253906
821;77.5416488647461
822;77.35205841064453
823;77.16320037841797
824;76.97510528564453
825;76.78782653808594
826;76.6012954711914
827;76.41544342041016
828;76.23033905029297
829;76.04605102539062
830;75.86243438720703
831;75.67964172363281
832;75.49748229980469
833;75.31607818603516
834;75.13549041748047
835;74.95561981201172
836;74.77647399902344
837;74.59795379638672
838;74.42020416259766
839;74.24315643310547
840;74.06687927246094
841;73.89134216308594
842;73.71649932861328
843;73.54228973388672
844;73.36882019042969
845;73.19605255126953
846;73.0240249633789
847;72.8526611328125
848;72.68199920654297
849;72.51207733154297
850;72.3428726196289
851;72.17434692382812
852;72.00645446777344
853;71.83924865722656
854;71.67279815673828
855;71.50696563720703
856;71.34181213378906
857;71.17733001708984
858;71.01359558105469
859;70.8504638671875
860;70.68801879882812
861;70.52622985839844
862;70.36520385742188
863;70.20481872558594
864;70.04503631591797
865;69.88594055175781
866;69.7275161743164
867;69.56979370117188
868;69.41268920898438
869;69.2562026977539
870;69.10037231445312
871;68.94518280029297
872;68.79063415527344
873;68.63673400878906
874;68.4835433959961
875;68.33097076416016
876;68.17906951904297
877;68.02770233154297
878;67.87702941894531
879;67.72694396972656
880;67.5774917602539
881;67.42868041992188
882;67.28048706054688
883;67.1329116821289
884;66.9859848022461
885;66.83965301513672
886;66.69398498535156
887;66.54896545410156
888;66.40452575683594
889;66.26071166992188
890;66.11748504638672
891;65.9748764038086
892;65.83283996582031
893;65.69139099121094
894;65.55059051513672
895;65.41039276123047
896;65.270751953125
897;65.1316909790039
898;64.99323272705078
899;64.8553695678711
900;64.71809387207031
901;64.5814437866211
902;64.44538116455078
903;64.30989837646484
904;64.1749496459961
905;64.04056549072266
906;63.90683364868164
907;63.77360916137695
908;63.64095687866211
909;63.5088996887207
910;63.37740707397461
911;63.24645233154297
912;63.11613082885742
913;62.9863166809082
914;62.85706329345703
915;62.72838592529297
916;62.60024642944336
917;62.47267150878906
918;62.34564208984375
919;62.219215393066406
920;62.09328079223633
921;61.967960357666016
922;61.8431282043457
923;61.71888732910156
924;61.59519958496094
925;61.47201156616211
926;61.349388122558594
927;61.22725296020508
928;61.105674743652344
929;60.984642028808594
930;60.86417007446289
931;60.74418258666992
932;60.62470245361328
933;60.50578689575195
934;60.38740158081055
935;60.26948547363281
936;60.152137756347656
937;60.03529739379883
938;59.91898727416992
939;59.80318069458008
940;59.68785095214844
941;59.57307052612305
942;59.45880889892578
943;59.345027923583984
944;59.231746673583984
945;59.118995666503906
946;59.00669860839844
947;58.89488983154297
948;58.78362274169922
949;58.672828674316406
950;58.56254196166992
951;58.45277404785156
952;58.34349060058594
953;58.234676361083984
954;58.12635040283203
955;58.018489837646484
956;57.91112518310547
957;57.80424118041992
958;57.69780349731445
959;57.59186935424805
960;57.48639678955078
961;57.38142013549805
962;57.276878356933594
963;57.172828674316406
964;57.06926727294922
965;56.96615982055664
966;56.863525390625
967;56.7613410949707
968;56.65962600708008
969;56.55842208862305
970;56.4576416015625
971;56.35734939575195
972;56.2574462890625
973;56.158016204833984
974;56.05904006958008
975;55.96052169799805
976;55.86247634887695
977;55.76483154296875
978;55.66764450073242
979;55.57088851928711
980;55.47466278076172
981;55.37880325317383
982;55.28343200683594
983;55.188453674316406
984;55.09395217895508
985;54.99985885620117
986;54.90620803833008
987;54.813011169433594
988;54.7202033996582
989;54.62786102294922
990;54.53593826293945
991;54.44435501098633
992;54.35325622558594
993;54.26261520385742
994;54.17237091064453
995;54.082542419433594
996;53.99311447143555
997;53.904117584228516
998;53.81553649902344
999;53.727352142333984
1000;53.63957977294922
1001;53.552242279052734
1002;53.46525955200195
1003;53.37872314453125
1004;53.29258728027344
1005;53.20682144165039
1006;53.1214599609375
1007;53.0364875793457
1008;52.95195388793945
1009;52.867774963378906
1010;52.78400802612305
1011;52.700660705566406
1012;52.61767578125
1013;52.53507614135742
1014;52.45286560058594
1015;52.37102127075195
1016;52.28963088989258
1017;52.2086181640625
1018;52.127986907958984
1019;52.04769515991211
1020;51.967796325683594
1021;51.88829803466797
1022;51.80918884277344
1023;51.730411529541016
1024;51.652034759521484
1025;51.57401657104492
1026;51.49637222290039
1027;51.41910934448242
1028;51.34220504760742
1029;51.26567840576172
1030;51.1894645690918
1031;51.113651275634766
1032;51.03819274902344
1033;50.96311950683594
1034;50.88838577270508
1035;50.814029693603516
1036;50.74000549316406
1037;50.666343688964844
1038;50.59300994873047
1039;50.52006149291992
1040;50.44745635986328
1041;50.375244140625
1042;50.303321838378906
1043;50.23176193237305
1044;50.160587310791016
1045;50.08974838256836
1046;50.01923751831055
1047;49.94904327392578
1048;49.87919235229492
1049;49.80970001220703
1050;49.74054718017578
1051;49.671695709228516
1052;49.60320281982422
1053;49.53504180908203
1054;49.46720886230469
1055;49.399715423583984
1056;49.332542419433594
1057;49.26572036743164
1058;49.19918441772461
1059;49.132999420166016
1060;49.06713104248047
1061;49.001609802246094
1062;48.93639373779297
1063;48.871482849121094
1064;48.80691909790039
1065;48.74264144897461
1066;48.67869567871094
1067;48.61507034301758
1068;48.55175018310547
1069;48.488746643066406
1070;48.426025390625
1071;48.36366271972656
1072;48.301578521728516
1073;48.23979949951172
1074;48.17836380004883
1075;48.117225646972656
1076;48.05638122558594
1077;47.9958381652832
1078;47.935569763183594
1079;47.87565231323242
1080;47.815982818603516
1081;47.756614685058594
1082;47.69758605957031
1083;47.63882827758789
1084;47.58035659790039
1085;47.522216796875
1086;47.46431350708008
1087;47.40673828125
1088;47.34941482543945
1089;47.292415618896484
1090;47.23566818237305
1091;47.17921447753906
1092;47.12309265136719
1093;47.067203521728516
1094;47.01160430908203
1095;46.956302642822266
1096;46.901248931884766
1097;46.84650421142578
1098;46.79204177856445
1099;46.73783493041992
1100;46.68388748168945
1101;46.63024139404297
1102;46.57687759399414
1103;46.52373504638672
1104;46.47087478637695
1105;46.418296813964844
1106;46.365989685058594
1107;46.31395721435547
1108;46.262168884277344
1109;46.21062469482422
1110;46.15938186645508
1111;46.1084098815918
1112;46.05768585205078
1113;46.00721740722656
1114;45.957008361816406
1115;45.90707015991211
1116;45.85738754272461
1117;45.80794143676758
1118;45.75876235961914
1119;45.70985412597656
1120;45.66115951538086
1121;45.61274337768555
1122;45.56455993652344
1123;45.51664352416992
1124;45.46894454956055
1125;45.421531677246094
1126;45.374332427978516
1127;45.327369689941406
1128;45.280677795410156
1129;45.234214782714844
1130;45.18799591064453
1131;45.14199447631836
1132;45.096256256103516
1133;45.05073165893555
1134;45.00547409057617
1135;44.96045684814453
1136;44.91566467285156
1137;44.87109375
1138;44.82679748535156
1139;44.7827033996582
1140;44.738853454589844
1141;44.69519805908203
1142;44.65180206298828
1143;44.60862731933594
1144;44.56568908691406
1145;44.52294921875
1146;44.48047637939453
1147;44.43819808959961
1148;44.39616012573242
1149;44.35432815551758
1150;44.31270217895508
1151;44.27132034301758
1152;44.23014450073242
1153;44.1891975402832
1154;44.148460388183594
1155;44.10794448852539
1156;44.0676383972168
1157;44.02755355834961
1158;43.9876708984375
1159;43.94798278808594
1160;43.90855026245117
1161;43.86931228637695
1162;43.83027648925781
1163;43.791439056396484
1164;43.75282669067383
1165;43.71440124511719
1166;43.676204681396484
1167;43.63821029663086
1168;43.60042190551758
1169;43.562801361083984
1170;43.52540588378906
1171;43.48821258544922
1172;43.451236724853516
1173;43.4144287109375
1174;43.377845764160156
1175;43.3414421081543
1176;43.30524826049805
1177;43.26923370361328
1178;43.23341369628906
1179;43.19778060913086
1180;43.162376403808594
1181;43.12714385986328
1182;43.09208297729492
1183;43.05724334716797
1184;43.02256774902344
1185;42.988101959228516
1186;42.953834533691406
1187;42.919715881347656
1188;42.885807037353516
1189;42.85206985473633
1190;42.818538665771484
1191;42.78517532348633
1192;42.75200271606445
1193;42.71901321411133
1194;42.68618392944336
1195;42.65354919433594
1196;42.621097564697266
1197;42.58880615234375
1198;42.55671310424805
1199;42.52478790283203
1200;42.493038177490234
1201;42.46146011352539
1202;42.43004608154297
1203;42.398826599121094
1204;42.36778259277344
1205;42.33687973022461
1206;42.30618667602539
1207;42.275634765625
1208;42.24524688720703
1209;42.21502685546875
1210;42.185001373291016
1211;42.15513610839844
1212;42.125423431396484
1213;42.095882415771484
1214;42.06649398803711
1215;42.03730010986328
1216;42.00822830200195
1217;41.97935485839844
1218;41.950626373291016
1219;41.922054290771484
1220;41.8936653137207
1221;41.865413665771484
1222;41.83732986450195
1223;41.80939483642578
1224;41.781620025634766
1225;41.754005432128906
1226;41.72654724121094
1227;41.69923782348633
1228;41.67207717895508
1229;41.64507293701172
1230;41.61821746826172
1231;41.59151840209961
1232;41.564998626708984
1233;41.53858184814453
1234;41.51233673095703
1235;41.48623275756836
1236;41.460289001464844
1237;41.43448257446289
1238;41.408851623535156
1239;41.38331604003906
1240;41.35795593261719
1241;41.33273696899414
1242;41.307674407958984
1243;41.2827262878418
1244;41.25794219970703
1245;41.23328399658203
1246;41.20876693725586
1247;41.18439483642578
1248;41.1601676940918
1249;41.136085510253906
1250;41.112125396728516
1251;41.08829879760742
1252;41.06460952758789
1253;41.04106521606445
1254;41.01766586303711
1255;40.9943733215332
1256;40.97124099731445
1257;40.9482307434082
1258;40.92535400390625
1259;40.902610778808594
1260;40.88001251220703
1261;40.85750961303711
1262;40.83517074584961
1263;40.81294631958008
1264;40.79085159301758
1265;40.76891326904297
1266;40.74705123901367
1267;40.72533416748047
1268;40.70375061035156
1269;40.68229675292969
1270;40.66095733642578
1271;40.63975524902344
1272;40.61866760253906
1273;40.597694396972656
1274;40.57686996459961
1275;40.5561637878418
1276;40.53555679321289
1277;40.51508712768555
1278;40.49472427368164
1279;40.47447967529297
1280;40.454368591308594
1281;40.434383392333984
1282;40.414493560791016
1283;40.39474105834961
1284;40.37507629394531
1285;40.35554122924805
1286;40.33612823486328
1287;40.31682586669922
1288;40.29764175415039
1289;40.278568267822266
1290;40.25960159301758
1291;40.24074935913086
1292;40.22200393676758
1293;40.20338821411133
1294;40.184871673583984
1295;40.16645812988281
1296;40.14817810058594
1297;40.12997817993164
1298;40.11190414428711
1299;40.09394073486328
1300;40.076053619384766
1301;40.05830001831055
1302;40.04064178466797
1303;40.02310562133789
1304;40.00566482543945
1305;39.98833084106445
1306;39.97109603881836
1307;39.953956604003906
1308;39.93693161010742
1309;39.92000961303711
1310;39.90317916870117
1311;39.886451721191406
1312;39.86982727050781
1313;39.85331344604492
1314;39.83688735961914
1315;39.82056427001953
1316;39.80433654785156
1317;39.788204193115234
1318;39.77218246459961
1319;39.756263732910156
1320;39.740421295166016
1321;39.72468185424805
1322;39.70902633666992
1323;39.69351577758789
1324;39.678043365478516
1325;39.66267776489258
1326;39.647396087646484
1327;39.63223648071289
1328;39.61717224121094
1329;39.60216522216797
1330;39.58727264404297
1331;39.57246398925781
1332;39.5577507019043
1333;39.54312515258789
1334;39.528587341308594
1335;39.51415252685547
1336;39.49980545043945
1337;39.48551559448242
1338;39.471336364746094
1339;39.45724105834961
1340;39.44324493408203
1341;39.429325103759766
1342;39.41547393798828
1343;39.40174102783203
1344;39.3880615234375
1345;39.374488830566406
1346;39.36100769042969
1347;39.34757614135742
1348;39.334251403808594
1349;39.32099914550781
1350;39.307838439941406
1351;39.29475784301758
1352;39.281761169433594
1353;39.26884078979492
1354;39.25599670410156
1355;39.243228912353516
1356;39.23054504394531
1357;39.21794509887695
1358;39.20542526245117
1359;39.19295120239258
1360;39.18060302734375
1361;39.16831588745117
1362;39.15611267089844
1363;39.14396286010742
1364;39.131900787353516
1365;39.11991500854492
1366;39.10800552368164
1367;39.09617614746094
1368;39.08441925048828
1369;39.07272720336914
1370;39.06111526489258
1371;39.049564361572266
1372;39.03810119628906
1373;39.026710510253906
1374;39.01538848876953
1375;39.004127502441406
1376;38.992958068847656
1377;38.98185348510742
1378;38.97080612182617
1379;38.9598388671875
1380;38.94894790649414
1381;38.93811798095703
1382;38.92736053466797
1383;38.91666030883789
1384;38.90603256225586
1385;38.895484924316406
1386;38.88499069213867
1387;38.87458419799805
1388;38.86421585083008
1389;38.853919982910156
1390;38.843711853027344
1391;38.83354949951172
1392;38.82344436645508
1393;38.81342315673828
1394;38.803466796875
1395;38.79356384277344
1396;38.78373336791992
1397;38.77396011352539
1398;38.76425552368164
1399;38.75459671020508
1400;38.7450065612793
1401;38.73548889160156
1402;38.72602462768555
1403;38.71662902832031
1404;38.70728302001953
1405;38.69800567626953
1406;38.688785552978516
1407;38.67961883544922
1408;38.67053985595703
1409;38.6614875793457
1410;38.65250778198242
1411;38.64358901977539
1412;38.634708404541016
1413;38.62590408325195
1414;38.61716079711914
1415;38.608455657958984
1416;38.59983825683594
1417;38.591243743896484
1418;38.582740783691406
1419;38.574241638183594
1420;38.56583786010742
1421;38.55747604370117
1422;38.54918670654297
1423;38.54093551635742
1424;38.53274154663086
1425;38.524600982666016
1426;38.51652526855469
1427;38.508487701416016
1428;38.50050354003906
1429;38.492576599121094
1430;38.48469161987305
1431;38.47687530517578
1432;38.46910095214844
1433;38.461387634277344
1434;38.45370864868164
1435;38.44609451293945
1436;38.43851852416992
1437;38.43101119995117
1438;38.42355728149414
1439;38.41613006591797
1440;38.40876388549805
1441;38.40142822265625
1442;38.394161224365234
1443;38.38694763183594
1444;38.3797721862793
1445;38.372642517089844
1446;38.36555480957031
1447;38.35851287841797
1448;38.35154342651367
1449;38.344600677490234
1450;38.337703704833984
1451;38.330867767333984
1452;38.32406234741211
1453;38.317317962646484
1454;38.31060028076172
1455;38.3039436340332
1456;38.29731750488281
1457;38.29075622558594
1458;38.28422546386719
1459;38.27772521972656
1460;38.27129364013672
1461;38.264892578125
1462;38.25853729248047
1463;38.25221633911133
1464;38.24595642089844
1465;38.23973083496094
1466;38.233543395996094
1467;38.22740173339844
1468;38.22129821777344
1469;38.215248107910156
1470;38.2092170715332
1471;38.203243255615234
1472;38.19730758666992
1473;38.19141387939453
1474;38.18556213378906
1475;38.179744720458984
1476;38.173973083496094
1477;38.16822814941406
1478;38.16252899169922
1479;38.15686798095703
1480;38.151248931884766
1481;38.14567565917969
1482;38.14012145996094
1483;38.13461685180664
1484;38.129150390625
1485;38.123722076416016
1486;38.11833190917969
1487;38.112972259521484
1488;38.107662200927734
1489;38.10237121582031
1490;38.09712600708008
1491;38.09192657470703
1492;38.086753845214844
1493;38.08161544799805
1494;38.076499938964844
1495;38.071449279785156
1496;38.0664176940918
1497;38.06140899658203
1498;38.056453704833984
1499;38.05152130126953
