;loss
0;1328.72412109375
1;1327.1937255859375
2;1325.8804931640625
3;1324.350830078125
4;1322.8203125
5;1321.2880859375
6;1319.798828125
7;1318.290283203125
8;1316.7640380859375
9;1315.2193603515625
10;1313.6478271484375
11;1312.06201171875
12;1310.453857421875
13;1308.816162109375
14;1307.1475830078125
15;1305.454345703125
16;1303.71044921875
17;1301.92138671875
18;1300.0994873046875
19;1298.22412109375
20;1296.26806640625
21;1294.2442626953125
22;1292.1448974609375
23;1289.9625244140625
24;1287.7159423828125
25;1285.3712158203125
26;1282.8892822265625
27;1280.286865234375
28;1277.5521240234375
29;1274.6712646484375
30;1271.630615234375
31;1268.4139404296875
32;1265.00244140625
33;1261.41796875
34;1257.5999755859375
35;1253.4759521484375
36;1249.0574951171875
37;1244.3638916015625
38;1239.252197265625
39;1233.7269287109375
40;1227.73681640625
41;1221.2906494140625
42;1214.2559814453125
43;1206.55224609375
44;1197.9932861328125
45;1188.5377197265625
46;1178.1519775390625
47;1166.5850830078125
48;1153.646728515625
49;1139.11181640625
50;1122.72705078125
51;1104.051513671875
52;1083.2022705078125
53;1059.9765625
54;1034.5380859375
55;1008.161865234375
56;982.747802734375
57;959.5464477539062
58;939.0913696289062
59;921.4918823242188
60;906.4765625
61;893.3981323242188
62;881.9745483398438
63;871.8856811523438
64;862.902587890625
65;854.8035888671875
66;847.4452514648438
67;840.7406005859375
68;834.495849609375
69;828.6780395507812
70;823.2232055664062
71;818.108642578125
72;813.2271728515625
73;808.5999145507812
74;804.156982421875
75;799.8432006835938
76;795.6909790039062
77;791.6549682617188
78;787.722412109375
79;783.859130859375
80;780.1013793945312
81;776.4183959960938
82;772.802490234375
83;769.2479858398438
84;765.7294311523438
85;762.2630615234375
86;758.8643798828125
87;755.4937744140625
88;752.1673583984375
89;748.8834838867188
90;745.657958984375
91;742.455322265625
92;739.2923583984375
93;736.1685791015625
94;733.0833740234375
95;730.0361938476562
96;727.0413208007812
97;724.0684204101562
98;721.1287841796875
99;718.221435546875
100;715.360595703125
101;712.5184326171875
102;709.721923828125
103;706.9427490234375
104;704.1919555664062
105;701.4693603515625
106;698.7742309570312
107;696.105224609375
108;693.4727172851562
109;690.864013671875
110;688.2679443359375
111;685.7053833007812
112;683.1646118164062
113;680.6470336914062
114;678.152099609375
115;675.6781005859375
116;673.2154541015625
117;670.783447265625
118;668.3629150390625
119;665.963623046875
120;663.5935668945312
121;661.240966796875
122;658.8980712890625
123;656.582763671875
124;654.284912109375
125;651.9951171875
126;649.7220458984375
127;647.4730834960938
128;645.2396240234375
129;643.0133056640625
130;640.8021240234375
131;638.6130981445312
132;636.4385986328125
133;634.2699584960938
134;632.1232299804688
135;629.9819946289062
136;627.853515625
137;625.7444458007812
138;623.6409301757812
139;621.549560546875
140;619.4697875976562
141;617.40771484375
142;615.356201171875
143;613.3150634765625
144;611.2772216796875
145;609.2489624023438
146;607.2364501953125
147;605.2328491210938
148;603.2378540039062
149;601.244873046875
150;599.2661743164062
151;597.289306640625
152;595.3265991210938
153;593.3658447265625
154;591.4187622070312
155;589.473876953125
156;587.5427856445312
157;585.6195678710938
158;583.69873046875
159;581.7861328125
160;579.8872680664062
161;577.9913940429688
162;576.1041870117188
163;574.230712890625
164;572.36572265625
165;570.5043334960938
166;568.6571044921875
167;566.8138427734375
168;564.9846801757812
169;563.1649169921875
170;561.354736328125
171;559.5489501953125
172;557.75244140625
173;555.9652709960938
174;554.1875
175;552.4188842773438
176;550.6596069335938
177;548.9140625
178;547.1780395507812
179;545.4466552734375
180;543.728515625
181;542.0192260742188
182;540.3186645507812
183;538.626708984375
184;536.9432373046875
185;535.2681884765625
186;533.5973510742188
187;531.938720703125
188;530.2841796875
189;528.6378173828125
190;527.0032348632812
191;525.3762817382812
192;523.753173828125
193;522.1411743164062
194;520.5364379882812
195;518.9390869140625
196;517.3451538085938
197;515.7618408203125
198;514.185302734375
199;512.6119384765625
200;511.0451354980469
201;509.4884033203125
202;507.93798828125
203;506.39056396484375
204;504.8494873046875
205;503.3179931640625
206;501.79248046875
207;500.2731628417969
208;498.7596435546875
209;497.2521057128906
210;495.7471923828125
211;494.2513122558594
212;492.7610778808594
213;491.2765197753906
214;489.79437255859375
215;488.3210144042969
216;486.85003662109375
217;485.3844909667969
218;483.9244689941406
219;482.4698486328125
220;481.0234375
221;479.5823059082031
222;478.1434020996094
223;476.7125549316406
224;475.2867736816406
225;473.86334228515625
226;472.44488525390625
227;471.03424072265625
228;469.6285400390625
229;468.2249450683594
230;466.8262939453125
231;465.4324951171875
232;464.04345703125
233;462.6617736816406
234;461.28228759765625
235;459.9073791503906
236;458.5398254394531
237;457.17431640625
238;455.81591796875
239;454.46209716796875
240;453.1127014160156
241;451.767822265625
242;450.42742919921875
243;449.0914306640625
244;447.75982666015625
245;446.4325256347656
246;445.109619140625
247;443.79095458984375
248;442.4742736816406
249;441.1641845703125
250;439.8583068847656
251;438.55657958984375
252;437.2591552734375
253;435.9657287597656
254;434.6743469238281
255;433.38922119140625
256;432.10595703125
257;430.8289794921875
258;429.5539245605469
259;428.2850341796875
260;427.0179748535156
261;425.7548828125
262;424.495849609375
263;423.2428283691406
264;421.99163818359375
265;420.746337890625
266;419.5050354003906
267;418.2655029296875
268;417.0299377441406
269;415.80010986328125
270;414.5720520019531
271;413.34783935546875
272;412.1294250488281
273;410.9146728515625
274;409.7037353515625
275;408.4963684082031
276;407.2928161621094
277;406.09283447265625
278;404.8946838378906
279;403.70208740234375
280;402.5113525390625
281;401.3240966796875
282;400.1404724121094
283;398.9622802734375
284;397.7858581542969
285;396.6129455566406
286;395.4454040527344
287;394.2813415527344
288;393.1207580566406
289;391.9637451171875
290;390.80841064453125
291;389.6582946777344
292;388.5116271972656
293;387.3682556152344
294;386.2284240722656
295;385.09033203125
296;383.95562744140625
297;382.8243103027344
298;381.69793701171875
299;380.5733337402344
300;379.45208740234375
301;378.3341369628906
302;377.2210998535156
303;376.1097717285156
304;375.00335693359375
305;373.900146484375
306;372.7986755371094
307;371.7020263671875
308;370.6085205078125
309;369.51824951171875
310;368.4312744140625
311;367.3459167480469
312;366.2637939453125
313;365.1847839355469
314;364.1104736328125
315;363.0379638671875
316;361.9698486328125
317;360.90350341796875
318;359.8417053222656
319;358.7816162109375
320;357.72467041015625
321;356.6707763671875
322;355.61993408203125
323;354.5721740722656
324;353.5274658203125
325;352.48577880859375
326;351.4486083984375
327;350.41302490234375
328;349.38043212890625
329;348.3508605957031
330;347.3243408203125
331;346.30206298828125
332;345.281494140625
333;344.2638854980469
334;343.249267578125
335;342.23760986328125
336;341.2288513183594
337;340.2230529785156
338;339.22015380859375
339;338.2201232910156
340;337.2230529785156
341;336.2289123535156
342;335.2376403808594
343;334.2503662109375
344;333.2647705078125
345;332.2833251953125
346;331.3045959472656
347;330.3287658691406
348;329.3557434082031
349;328.3843688964844
350;327.4169006347656
351;326.451171875
352;325.48931884765625
353;324.5291442871094
354;323.5716552734375
355;322.6181335449219
356;321.6673583984375
357;320.7193603515625
358;319.7740173339844
359;318.8303527832031
360;317.8904724121094
361;316.9522399902344
362;316.0177307128906
363;315.08599853515625
364;314.15692138671875
365;313.22943115234375
366;312.3057556152344
367;311.3846435546875
368;310.4652099609375
369;309.5494384765625
370;308.63525390625
371;307.7237548828125
372;306.81488037109375
373;305.9085998535156
374;305.0059814453125
375;304.10595703125
376;303.20843505859375
377;302.3126220703125
378;301.4203186035156
379;300.5296630859375
380;299.64154052734375
381;298.7569274902344
382;297.8748779296875
383;296.9945068359375
384;296.1165466308594
385;295.2412109375
386;294.3692932128906
387;293.4998779296875
388;292.6320495605469
389;291.7667236328125
390;290.90399169921875
391;290.0445556640625
392;289.18768310546875
393;288.3332214355469
394;287.48040771484375
395;286.6300048828125
396;285.78289794921875
397;284.93743896484375
398;284.09527587890625
399;283.2555236816406
400;282.4173583984375
401;281.5824279785156
402;280.7499694824219
403;279.91986083984375
404;279.09136962890625
405;278.2652893066406
406;277.4415283203125
407;276.62109375
408;275.8021240234375
409;274.9863586425781
410;274.1721496582031
411;273.36029052734375
412;272.55084228515625
413;271.74444580078125
414;270.93963623046875
415;270.1379699707031
416;269.33782958984375
417;268.5400085449219
418;267.7445373535156
419;266.9513854980469
420;266.1612548828125
421;265.3727111816406
422;264.58648681640625
423;263.80322265625
424;263.0215148925781
425;262.2428283691406
426;261.46563720703125
427;260.6914978027344
428;259.9195556640625
429;259.1498718261719
430;258.3824462890625
431;257.6165771484375
432;256.8529357910156
433;256.0914306640625
434;255.33294677734375
435;254.57659912109375
436;253.82188415527344
437;253.0699920654297
438;252.32028198242188
439;251.57278442382812
440;250.82679748535156
441;250.0836639404297
442;249.34201049804688
443;248.60321044921875
444;247.865966796875
445;247.13082885742188
446;246.39846801757812
447;245.6676483154297
448;244.93963623046875
449;244.2130584716797
450;243.48931884765625
451;242.76768493652344
452;242.04750061035156
453;241.33013916015625
454;240.61480712890625
455;239.901611328125
456;239.1905059814453
457;238.4808807373047
458;237.7740020751953
459;237.06854248046875
460;236.36517333984375
461;235.66448974609375
462;234.96592712402344
463;234.26876831054688
464;233.57427978515625
465;232.8812713623047
466;232.19085693359375
467;231.50250244140625
468;230.81622314453125
469;230.13134765625
470;229.44911193847656
471;228.76885986328125
472;228.09068298339844
473;227.41387939453125
474;226.73912048339844
475;226.06634521484375
476;225.3961944580078
477;224.72799682617188
478;224.06121826171875
479;223.39698791503906
480;222.7347412109375
481;222.07440185546875
482;221.41612243652344
483;220.75921630859375
484;220.1048126220703
485;219.45237731933594
486;218.80186462402344
487;218.15280151367188
488;217.5061492919922
489;216.86148071289062
490;216.21871948242188
491;215.57789611816406
492;214.93844604492188
493;214.30096435546875
494;213.66539001464844
495;213.03221130371094
496;212.40042114257812
497;211.77105712890625
498;211.14356994628906
499;210.51747131347656
500;209.89369201660156
501;209.27183532714844
502;208.6513671875
503;208.0328369140625
504;207.41659545898438
505;206.80174255371094
506;206.18873596191406
507;205.5775909423828
508;204.96829223632812
509;204.36087036132812
510;203.7557373046875
511;203.1519317626953
512;202.5504150390625
513;201.9503173828125
514;201.35203552246094
515;200.7555694580078
516;200.16087341308594
517;199.56846618652344
518;198.9778289794922
519;198.3885955810547
520;197.80111694335938
521;197.21546936035156
522;196.6316375732422
523;196.04991149902344
524;195.4700469970703
525;194.89144897460938
526;194.314697265625
527;193.7397003173828
528;193.1664581298828
529;192.5953369140625
530;192.02561950683594
531;191.45758056640625
532;190.89137268066406
533;190.32684326171875
534;189.76406860351562
535;189.20301818847656
536;188.64410400390625
537;188.08689880371094
538;187.53102111816406
539;186.97723388671875
540;186.42514038085938
541;185.87474060058594
542;185.32574462890625
543;184.77874755859375
544;184.2334442138672
545;183.68984985351562
546;183.14793395996094
547;182.607666015625
548;182.06910705566406
549;181.53221130371094
550;180.99693298339844
551;180.46302795410156
552;179.93075561523438
553;179.40011596679688
554;178.8711700439453
555;178.34385681152344
556;177.81817626953125
557;177.29449462890625
558;176.77207946777344
559;176.25164794921875
560;175.73251342773438
561;175.21499633789062
562;174.69906616210938
563;174.18475341796875
564;173.6720733642578
565;173.16140747070312
566;172.6522674560547
567;172.14437866210938
568;171.63844299316406
569;171.13380432128906
570;170.6306915283203
571;170.12918090820312
572;169.6292724609375
573;169.13124084472656
574;168.63446044921875
575;168.13958740234375
576;167.646240234375
577;167.15447998046875
578;166.66427612304688
579;166.17559814453125
580;165.6885223388672
581;165.20291137695312
582;164.7189178466797
583;164.23609924316406
584;163.75514221191406
585;163.2756805419922
586;162.79779052734375
587;162.32139587402344
588;161.8465118408203
589;161.3728790283203
590;160.90101623535156
591;160.4306640625
592;159.9617919921875
593;159.49444580078125
594;159.02833557128906
595;158.56393432617188
596;158.1007843017578
597;157.63909912109375
598;157.17919921875
599;156.72076416015625
600;156.26351928710938
601;155.80776977539062
602;155.3534393310547
603;154.90086364746094
604;154.449462890625
605;153.9995574951172
606;153.55136108398438
607;153.1045684814453
608;152.65924072265625
609;152.21539306640625
610;151.77296447753906
611;151.33164978027344
612;150.89208984375
613;150.45391845703125
614;150.01693725585938
615;149.58135986328125
616;149.14723205566406
617;148.71441650390625
618;148.2831268310547
619;147.85313415527344
620;147.4248809814453
621;146.99798583984375
622;146.57228088378906
623;146.1481475830078
624;145.7254180908203
625;145.30386352539062
626;144.88388061523438
627;144.46510314941406
628;144.04791259765625
629;143.6320343017578
630;143.2173309326172
631;142.80421447753906
632;142.39244079589844
633;141.98184204101562
634;141.57257080078125
635;141.16485595703125
636;140.75848388671875
637;140.3532257080078
638;139.9495849609375
639;139.54701232910156
640;139.14576721191406
641;138.74606323242188
642;138.34750366210938
643;137.95046997070312
644;137.5545196533203
645;137.15988159179688
646;136.76657104492188
647;136.37457275390625
648;135.9840850830078
649;135.59469604492188
650;135.20680236816406
651;134.82020568847656
652;134.43470764160156
653;134.05047607421875
654;133.6675262451172
655;133.28587341308594
656;132.90550231933594
657;132.52658081054688
658;132.14895629882812
659;131.7723846435547
660;131.39710998535156
661;131.0230712890625
662;130.65028381347656
663;130.2789764404297
664;129.90887451171875
665;129.54006958007812
666;129.17247009277344
667;128.80613708496094
668;128.44085693359375
669;128.07681274414062
670;127.71416473388672
671;127.35272979736328
672;126.9925537109375
673;126.63340759277344
674;126.27567291259766
675;125.91917419433594
676;125.5638427734375
677;125.20974731445312
678;124.85665130615234
679;124.50481414794922
680;124.15410614013672
681;123.8048095703125
682;123.45669555664062
683;123.10977935791016
684;122.76407623291016
685;122.41952514648438
686;122.07601928710938
687;121.73384857177734
688;121.39264678955078
689;121.05262756347656
690;120.71393585205078
691;120.37644958496094
692;120.03993225097656
693;119.70458984375
694;119.37039184570312
695;119.03736877441406
696;118.70563507080078
697;118.37503814697266
698;118.04547882080078
699;117.71719360351562
700;117.38986206054688
701;117.06385803222656
702;116.73897552490234
703;116.41505432128906
704;116.09228515625
705;115.77061462402344
706;115.45004272460938
707;115.13080596923828
708;114.81248474121094
709;114.49529266357422
710;114.17935943603516
711;113.86436462402344
712;113.55065155029297
713;113.23787689208984
714;112.92635345458984
715;112.61589813232422
716;112.30638885498047
717;111.99797058105469
718;111.6907958984375
719;111.38455200195312
720;111.07937622070312
721;110.77545166015625
722;110.47244262695312
723;110.17049407958984
724;109.86959838867188
725;109.5699234008789
726;109.27129364013672
727;108.97361755371094
728;108.67695617675781
729;108.38139343261719
730;108.08697509765625
731;107.79349517822266
732;107.50106048583984
733;107.20965576171875
734;106.91942596435547
735;106.6302261352539
736;106.34192657470703
737;106.05477905273438
738;105.7685317993164
739;105.48346710205078
740;105.19940185546875
741;104.91620635986328
742;104.63407135009766
743;104.3530502319336
744;104.07290649414062
745;103.79391479492188
746;103.51591491699219
747;103.2388916015625
748;102.9627914428711
749;102.68777465820312
750;102.41373443603516
751;102.14073181152344
752;101.86869049072266
753;101.59750366210938
754;101.32730865478516
755;101.05810546875
756;100.78988647460938
757;100.52272033691406
758;100.25643920898438
759;99.99124908447266
760;99.72688293457031
761;99.46359252929688
762;99.20116424560547
763;98.93966674804688
764;98.67916107177734
765;98.41961669921875
766;98.16110229492188
767;97.9035415649414
768;97.64683532714844
769;97.3911361694336
770;97.13627624511719
771;96.88249206542969
772;96.62950897216797
773;96.3775634765625
774;96.12647247314453
775;95.87625122070312
776;95.62711334228516
777;95.37885284423828
778;95.13143157958984
779;94.88492584228516
780;94.63929748535156
781;94.39471435546875
782;94.15103149414062
783;93.90813446044922
784;93.66616821289062
785;93.42517852783203
786;93.1850814819336
787;92.94589233398438
788;92.70748901367188
789;92.47010040283203
790;92.23344421386719
791;91.99779510498047
792;91.76294708251953
793;91.52906036376953
794;91.29605865478516
795;91.0638198852539
796;90.83255004882812
797;90.60214233398438
798;90.37249755859375
799;90.14374542236328
800;89.91592407226562
801;89.68900299072266
802;89.4627914428711
803;89.23753356933594
804;89.01315307617188
805;88.78949737548828
806;88.56681060791016
807;88.34494018554688
808;88.12384033203125
809;87.90364074707031
810;87.68428039550781
811;87.46577453613281
812;87.24799346923828
813;87.03104400634766
814;86.81494140625
815;86.59972381591797
816;86.38534545898438
817;86.17166137695312
818;85.95890808105469
819;85.74689483642578
820;85.5357437133789
821;85.32544708251953
822;85.11591339111328
823;84.90713500976562
824;84.69921875
825;84.49201965332031
826;84.28569030761719
827;84.08010864257812
828;83.87527465820312
829;83.67124938964844
830;83.46810150146484
831;83.2656478881836
832;83.06398010253906
833;82.86309051513672
834;82.66297912597656
835;82.46370697021484
836;82.26512908935547
837;82.06735229492188
838;81.87032318115234
839;81.67413330078125
840;81.47872161865234
841;81.28398132324219
842;81.09007263183594
843;80.8969497680664
844;80.70454406738281
845;80.51290130615234
846;80.32193756103516
847;80.13179779052734
848;79.9424057006836
849;79.75366973876953
850;79.56576538085938
851;79.3785171508789
852;79.19207000732422
853;79.00636291503906
854;78.82139587402344
855;78.6370620727539
856;78.45352172851562
857;78.27066040039062
858;78.08857727050781
859;77.9072265625
860;77.72653198242188
861;77.5465316772461
862;77.3673095703125
863;77.18875122070312
864;77.01094818115234
865;76.83380889892578
866;76.65743255615234
867;76.48175048828125
868;76.30674743652344
869;76.1324691772461
870;75.95882415771484
871;75.78594207763672
872;75.61370849609375
873;75.44220733642578
874;75.27139282226562
875;75.10124206542969
876;74.93177032470703
877;74.76298522949219
878;74.59483337402344
879;74.42733764648438
880;74.2605209350586
881;74.09444427490234
882;73.92897033691406
883;73.76422882080078
884;73.60014343261719
885;73.43670654296875
886;73.27389526367188
887;73.11178588867188
888;72.9503402709961
889;72.78958129882812
890;72.62936401367188
891;72.46983337402344
892;72.31100463867188
893;72.15275573730469
894;71.99519348144531
895;71.8382568359375
896;71.68197631835938
897;71.52629852294922
898;71.37125396728516
899;71.21688842773438
900;71.06315612792969
901;70.91006469726562
902;70.7575454711914
903;70.60563659667969
904;70.45443725585938
905;70.30379486083984
906;70.1537857055664
907;70.00442504882812
908;69.8556137084961
909;69.70748901367188
910;69.55996704101562
911;69.41300964355469
912;69.2667007446289
913;69.12100219726562
914;68.97590637207031
915;68.83136749267578
916;68.68740844726562
917;68.54412841796875
918;68.40135955810547
919;68.25921630859375
920;68.11767578125
921;67.9767074584961
922;67.83637237548828
923;67.69656372070312
924;67.55738067626953
925;67.41873168945312
926;67.28068542480469
927;67.14320373535156
928;67.00636291503906
929;66.87002563476562
930;66.73432159423828
931;66.59913635253906
932;66.46455383300781
933;66.33055114746094
934;66.19705200195312
935;66.06417846679688
936;65.93180847167969
937;65.80001831054688
938;65.66875457763672
939;65.53805541992188
940;65.4079818725586
941;65.27837371826172
942;65.14933776855469
943;65.02086639404297
944;64.89295196533203
945;64.76554107666016
946;64.6386947631836
947;64.51242065429688
948;64.38664245605469
949;64.26139068603516
950;64.13671875
951;64.01254272460938
952;63.88893508911133
953;63.765869140625
954;63.64327621459961
955;63.52120590209961
956;63.39972686767578
957;63.2786865234375
958;63.15823745727539
959;63.03830337524414
960;62.91886901855469
961;62.79996109008789
962;62.68156433105469
963;62.56365966796875
964;62.44625473022461
965;62.32938003540039
966;62.2130126953125
967;62.09715270996094
968;61.98178482055664
969;61.86692428588867
970;61.75257110595703
971;61.63867950439453
972;61.52531051635742
973;61.41244125366211
974;61.30002975463867
975;61.18813705444336
976;61.07669448852539
977;60.96574401855469
978;60.85531997680664
979;60.74537658691406
980;60.63590621948242
981;60.52688217163086
982;60.41838836669922
983;60.31034469604492
984;60.20280075073242
985;60.09571075439453
986;59.98908996582031
987;59.88296127319336
988;59.77728271484375
989;59.67205810546875
990;59.56732177734375
991;59.46303939819336
992;59.35917663574219
993;59.25579833984375
994;59.15285873413086
995;59.05038070678711
996;58.94837188720703
997;58.84680938720703
998;58.74574279785156
999;58.64509582519531
1000;58.54491424560547
1001;58.44516372680664
1002;58.34584045410156
1003;58.24698257446289
1004;58.14854431152344
1005;58.05057907104492
1006;57.9530029296875
1007;57.85590362548828
1008;57.75924301147461
1009;57.66298294067383
1010;57.56716537475586
1011;57.47178268432617
1012;57.3768310546875
1013;57.28232192993164
1014;57.18820571899414
1015;57.09455108642578
1016;57.00132369995117
1017;56.90849304199219
1018;56.816097259521484
1019;56.72412872314453
1020;56.632530212402344
1021;56.541358947753906
1022;56.450618743896484
1023;56.36025619506836
1024;56.27033615112305
1025;56.18079376220703
1026;56.0916748046875
1027;56.002994537353516
1028;55.91471862792969
1029;55.82682800292969
1030;55.739356994628906
1031;55.65229034423828
1032;55.56557083129883
1033;55.47929382324219
1034;55.39337921142578
1035;55.30785369873047
1036;55.22274398803711
1037;55.13804244995117
1038;55.053688049316406
1039;54.96975326538086
1040;54.88622283935547
1041;54.80302429199219
1042;54.72026062011719
1043;54.63785934448242
1044;54.55584716796875
1045;54.47422790527344
1046;54.39295196533203
1047;54.312068939208984
1048;54.23154830932617
1049;54.15141296386719
1050;54.07167053222656
1051;53.992244720458984
1052;53.913211822509766
1053;53.83455276489258
1054;53.75624084472656
1055;53.67832946777344
1056;53.600765228271484
1057;53.52357482910156
1058;53.44675064086914
1059;53.37026596069336
1060;53.29414367675781
1061;53.21839904785156
1062;53.143001556396484
1063;53.06794738769531
1064;52.993247985839844
1065;52.918907165527344
1066;52.84491729736328
1067;52.77127456665039
1068;52.697975158691406
1069;52.62498474121094
1070;52.55238342285156
1071;52.48012924194336
1072;52.408180236816406
1073;52.336578369140625
1074;52.26532745361328
1075;52.19443893432617
1076;52.123863220214844
1077;52.053627014160156
1078;51.98369598388672
1079;51.91411209106445
1080;51.844844818115234
1081;51.77595520019531
1082;51.70734405517578
1083;51.63908386230469
1084;51.57115936279297
1085;51.503570556640625
1086;51.4362678527832
1087;51.36930847167969
1088;51.30269241333008
1089;51.23636245727539
1090;51.17034912109375
1091;51.10466766357422
1092;51.03929901123047
1093;50.97426223754883
1094;50.90950012207031
1095;50.8450813293457
1096;50.78099060058594
1097;50.71715545654297
1098;50.65365219116211
1099;50.59046936035156
1100;50.52760314941406
1101;50.465023040771484
1102;50.40275955200195
1103;50.34077072143555
1104;50.279117584228516
1105;50.21774673461914
1106;50.15666198730469
1107;50.09588623046875
1108;50.0354118347168
1109;49.97523498535156
1110;49.915340423583984
1111;49.85574722290039
1112;49.79643249511719
1113;49.73741149902344
1114;49.678688049316406
1115;49.620262145996094
1116;49.56211471557617
1117;49.50423812866211
1118;49.4466552734375
1119;49.38935089111328
1120;49.33235549926758
1121;49.275611877441406
1122;49.21916580200195
1123;49.16297912597656
1124;49.107078552246094
1125;49.05146789550781
1126;48.99610900878906
1127;48.941043853759766
1128;48.88623046875
1129;48.83169937133789
1130;48.777442932128906
1131;48.72344970703125
1132;48.66972732543945
1133;48.616275787353516
1134;48.56306838989258
1135;48.51015853881836
1136;48.45750427246094
1137;48.40511703491211
1138;48.35300064086914
1139;48.30112838745117
1140;48.24951171875
1141;48.198158264160156
1142;48.147056579589844
1143;48.09620666503906
1144;48.04561996459961
1145;47.99531555175781
1146;47.94523620605469
1147;47.8953742980957
1148;47.845821380615234
1149;47.796512603759766
1150;47.747413635253906
1151;47.69860076904297
1152;47.65000915527344
1153;47.601680755615234
1154;47.55359649658203
1155;47.505760192871094
1156;47.458152770996094
1157;47.41079330444336
1158;47.36366271972656
1159;47.31678009033203
1160;47.27016067504883
1161;47.22372817993164
1162;47.177555084228516
1163;47.13161087036133
1164;47.085914611816406
1165;47.040470123291016
1166;46.99523162841797
1167;46.95022964477539
1168;46.90544509887695
1169;46.86091232299805
1170;46.81660461425781
1171;46.77250671386719
1172;46.728660583496094
1173;46.68501663208008
1174;46.64164352416992
1175;46.59843826293945
1176;46.55550765991211
1177;46.51277542114258
1178;46.470245361328125
1179;46.42795944213867
1180;46.38587951660156
1181;46.34402084350586
1182;46.30236053466797
1183;46.260948181152344
1184;46.2197380065918
1185;46.17871856689453
1186;46.13792037963867
1187;46.09734344482422
1188;46.056983947753906
1189;46.016841888427734
1190;45.97688293457031
1191;45.937164306640625
1192;45.89762496948242
1193;45.85829544067383
1194;45.81919860839844
1195;45.780296325683594
1196;45.741580963134766
1197;45.70305633544922
1198;45.6647834777832
1199;45.626678466796875
1200;45.58879089355469
1201;45.551090240478516
1202;45.513580322265625
1203;45.47627639770508
1204;45.439170837402344
1205;45.40228271484375
1206;45.365562438964844
1207;45.32905578613281
1208;45.29270935058594
1209;45.25657272338867
1210;45.22064971923828
1211;45.18489074707031
1212;45.14933395385742
1213;45.11396789550781
1214;45.078765869140625
1215;45.04377365112305
1216;45.008934020996094
1217;44.97433853149414
1218;44.93989562988281
1219;44.905635833740234
1220;44.87154769897461
1221;44.837669372558594
1222;44.80393981933594
1223;44.77040481567383
1224;44.7370719909668
1225;44.70387268066406
1226;44.67088317871094
1227;44.63807678222656
1228;44.60545349121094
1229;44.572998046875
1230;44.54069519042969
1231;44.50859069824219
1232;44.47664260864258
1233;44.44486999511719
1234;44.41325759887695
1235;44.38184356689453
1236;44.350589752197266
1237;44.31949996948242
1238;44.2885856628418
1239;44.25782012939453
1240;44.22725296020508
1241;44.19682693481445
1242;44.16658020019531
1243;44.13648986816406
1244;44.10655212402344
1245;44.076812744140625
1246;44.04721450805664
1247;44.017757415771484
1248;43.98850631713867
1249;43.959388732910156
1250;43.93044662475586
1251;43.90162658691406
1252;43.87299728393555
1253;43.84452819824219
1254;43.816200256347656
1255;43.788028717041016
1256;43.760009765625
1257;43.732139587402344
1258;43.704444885253906
1259;43.6768798828125
1260;43.64949417114258
1261;43.62223815917969
1262;43.595130920410156
1263;43.568172454833984
1264;43.54138946533203
1265;43.51474380493164
1266;43.48824691772461
1267;43.46187973022461
1268;43.4356803894043
1269;43.409603118896484
1270;43.38368225097656
1271;43.357913970947266
1272;43.332279205322266
1273;43.30677795410156
1274;43.281436920166016
1275;43.25624465942383
1276;43.23115921020508
1277;43.20625305175781
1278;43.181461334228516
1279;43.156822204589844
1280;43.13231658935547
1281;43.10794448852539
1282;43.08372116088867
1283;43.05960464477539
1284;43.0356559753418
1285;43.01182556152344
1286;42.98813247680664
1287;42.96458435058594
1288;42.94114303588867
1289;42.91785430908203
1290;42.89469528198242
1291;42.87166976928711
1292;42.8487663269043
1293;42.826011657714844
1294;42.80337142944336
1295;42.78084945678711
1296;42.758480072021484
1297;42.73621368408203
1298;42.71408462524414
1299;42.69207763671875
1300;42.67019271850586
1301;42.648433685302734
1302;42.62681579589844
1303;42.60530471801758
1304;42.58391571044922
1305;42.562660217285156
1306;42.54151916503906
1307;42.5205078125
1308;42.499610900878906
1309;42.47884750366211
1310;42.45818328857422
1311;42.43763732910156
1312;42.41721725463867
1313;42.39691925048828
1314;42.37672424316406
1315;42.356658935546875
1316;42.33669662475586
1317;42.31686782836914
1318;42.2971305847168
1319;42.27753829956055
1320;42.258033752441406
1321;42.2386589050293
1322;42.219364166259766
1323;42.20021057128906
1324;42.18115997314453
1325;42.162235260009766
1326;42.143394470214844
1327;42.12467575073242
1328;42.10606384277344
1329;42.08757400512695
1330;42.06918716430664
1331;42.050880432128906
1332;42.03272247314453
1333;42.014644622802734
1334;41.99668884277344
1335;41.97880554199219
1336;41.9610595703125
1337;41.94340515136719
1338;41.92584991455078
1339;41.90840148925781
1340;41.89105987548828
1341;41.87382125854492
1342;41.856689453125
1343;41.83964538574219
1344;41.82270431518555
1345;41.80586242675781
1346;41.78913497924805
1347;41.77248764038086
1348;41.75596237182617
1349;41.739501953125
1350;41.72315979003906
1351;41.7069206237793
1352;41.69076156616211
1353;41.67469787597656
1354;41.65873718261719
1355;41.64286422729492
1356;41.62710189819336
1357;41.61142349243164
1358;41.59584045410156
1359;41.58033752441406
1360;41.564937591552734
1361;41.549652099609375
1362;41.534423828125
1363;41.519287109375
1364;41.50425720214844
1365;41.48932647705078
1366;41.47445297241211
1367;41.45969772338867
1368;41.44501495361328
1369;41.43043899536133
1370;41.415931701660156
1371;41.40151596069336
1372;41.38719177246094
1373;41.372955322265625
1374;41.358802795410156
1375;41.344722747802734
1376;41.33074188232422
1377;41.31684875488281
1378;41.303035736083984
1379;41.289306640625
1380;41.27565002441406
1381;41.2620849609375
1382;41.24861145019531
1383;41.23521423339844
1384;41.22189712524414
1385;41.20866012573242
1386;41.19550323486328
1387;41.18241500854492
1388;41.1694221496582
1389;41.15650939941406
1390;41.1436767578125
1391;41.13090133666992
1392;41.11822509765625
1393;41.10560989379883
1394;41.09311294555664
1395;41.08065414428711
1396;41.068275451660156
1397;41.05598068237305
1398;41.04376220703125
1399;41.0316047668457
1400;41.01953887939453
1401;41.00753402709961
1402;40.995609283447266
1403;40.98377227783203
1404;40.97198486328125
1405;40.96028137207031
1406;40.94865036010742
1407;40.93709945678711
1408;40.92560577392578
1409;40.91419982910156
1410;40.9028434753418
1411;40.89158630371094
1412;40.8803596496582
1413;40.869239807128906
1414;40.85816955566406
1415;40.84716033935547
1416;40.83624267578125
1417;40.82538604736328
1418;40.81459045410156
1419;40.803863525390625
1420;40.793212890625
1421;40.782615661621094
1422;40.77208709716797
1423;40.76163101196289
1424;40.75123977661133
1425;40.74090576171875
1426;40.73065185546875
1427;40.72045135498047
1428;40.71031951904297
1429;40.70027542114258
1430;40.69024658203125
1431;40.680294036865234
1432;40.67041778564453
1433;40.66059112548828
1434;40.65083312988281
1435;40.64115524291992
1436;40.631507873535156
1437;40.62193298339844
1438;40.6124267578125
1439;40.602962493896484
1440;40.59357833862305
1441;40.58424377441406
1442;40.57497787475586
1443;40.565765380859375
1444;40.556617736816406
1445;40.54750442504883
1446;40.53846740722656
1447;40.52949523925781
1448;40.52055358886719
1449;40.51169967651367
1450;40.50288772583008
1451;40.494136810302734
1452;40.48543167114258
1453;40.476806640625
1454;40.46821594238281
1455;40.45967102050781
1456;40.45121383666992
1457;40.442779541015625
1458;40.43442153930664
1459;40.42610549926758
1460;40.4178466796875
1461;40.409629821777344
1462;40.4014892578125
1463;40.39339065551758
1464;40.38533020019531
1465;40.37733459472656
1466;40.36940002441406
1467;40.36149215698242
1468;40.35366439819336
1469;40.34587097167969
1470;40.33811950683594
1471;40.33042526245117
1472;40.32279586791992
1473;40.315208435058594
1474;40.30767059326172
1475;40.3001594543457
1476;40.292724609375
1477;40.285335540771484
1478;40.27798843383789
1479;40.270694732666016
1480;40.26344299316406
1481;40.25624084472656
1482;40.24909210205078
1483;40.241973876953125
1484;40.23491287231445
1485;40.22789764404297
1486;40.22092056274414
1487;40.21400451660156
1488;40.20711135864258
1489;40.20029830932617
1490;40.19350051879883
1491;40.1867561340332
1492;40.1800537109375
1493;40.17341613769531
1494;40.166805267333984
1495;40.16023254394531
1496;40.15370178222656
1497;40.14723205566406
1498;40.14078903198242
1499;40.1344108581543
