;loss
0;1331.568359375
1;1330.0523681640625
2;1328.02392578125
3;1326.004150390625
4;1323.9910888671875
5;1321.982421875
6;1319.9761962890625
7;1317.970703125
8;1315.9635009765625
9;1313.9705810546875
10;1311.9635009765625
11;1309.9417724609375
12;1307.903564453125
13;1305.8475341796875
14;1303.7821044921875
15;1301.684326171875
16;1299.577880859375
17;1297.42822265625
18;1295.2481689453125
19;1293.0341796875
20;1290.7828369140625
21;1288.51513671875
22;1286.1778564453125
23;1283.790771484375
24;1281.3494873046875
25;1278.849609375
26;1276.2855224609375
27;1273.6514892578125
28;1270.9420166015625
29;1268.150634765625
30;1265.2705078125
31;1262.29541015625
32;1259.21826171875
33;1256.0302734375
34;1252.7618408203125
35;1249.3289794921875
36;1245.7984619140625
37;1242.08251953125
38;1238.2510986328125
39;1234.2100830078125
40;1229.98876953125
41;1225.5731201171875
42;1220.949951171875
43;1216.1544189453125
44;1211.074462890625
45;1205.795654296875
46;1200.196044921875
47;1194.364990234375
48;1188.232421875
49;1181.7791748046875
50;1174.9857177734375
51;1167.829833984375
52;1160.2918701171875
53;1152.2825927734375
54;1143.84521484375
55;1134.9608154296875
56;1125.6163330078125
57;1115.87939453125
58;1105.57373046875
59;1094.7740478515625
60;1083.56591796875
61;1071.7816162109375
62;1059.517822265625
63;1046.89794921875
64;1033.7662353515625
65;1020.2642211914062
66;1006.4419555664062
67;992.369873046875
68;978.230712890625
69;964.022705078125
70;949.751708984375
71;935.6199951171875
72;921.7283935546875
73;908.2689819335938
74;895.2495727539062
75;882.6493530273438
76;870.7032470703125
77;859.3271484375
78;848.62646484375
79;838.6217041015625
80;829.31884765625
81;820.6328125
82;812.450927734375
83;804.8616943359375
84;797.70361328125
85;790.9944458007812
86;784.6837768554688
87;778.752197265625
88;773.1270141601562
89;767.775390625
90;762.6709594726562
91;757.7734985351562
92;753.0780639648438
93;748.5533447265625
94;744.187255859375
95;739.9715576171875
96;735.8876342773438
97;731.9579467773438
98;728.140380859375
99;724.4171752929688
100;720.7658081054688
101;717.214599609375
102;713.723388671875
103;710.3200073242188
104;706.985595703125
105;703.716552734375
106;700.4935302734375
107;697.3304443359375
108;694.225830078125
109;691.1754760742188
110;688.1748657226562
111;685.2334594726562
112;682.3268432617188
113;679.4650268554688
114;676.6450805664062
115;673.8772583007812
116;671.1351318359375
117;668.4395751953125
118;665.768798828125
119;663.132080078125
120;660.5381469726562
121;657.9624633789062
122;655.4237670898438
123;652.90234375
124;650.406005859375
125;647.9429931640625
126;645.4935913085938
127;643.0753784179688
128;640.6702270507812
129;638.2860107421875
130;635.922119140625
131;633.5779418945312
132;631.2610473632812
133;628.9627685546875
134;626.6826782226562
135;624.4205932617188
136;622.1757202148438
137;619.9481201171875
138;617.7299194335938
139;615.5284423828125
140;613.3502807617188
141;611.1806030273438
142;609.0335693359375
143;606.9019775390625
144;604.7852172851562
145;602.6829223632812
146;600.5881958007812
147;598.5140991210938
148;596.453857421875
149;594.4071044921875
150;592.367431640625
151;590.3409423828125
152;588.3273315429688
153;586.3262939453125
154;584.3436279296875
155;582.367431640625
156;580.4033813476562
157;578.4566040039062
158;576.5156860351562
159;574.5916137695312
160;572.6785888671875
161;570.7765502929688
162;568.8850708007812
163;566.998779296875
164;565.128173828125
165;563.2625122070312
166;561.4067993164062
167;559.566162109375
168;557.730224609375
169;555.9037475585938
170;554.0867919921875
171;552.283935546875
172;550.490234375
173;548.70068359375
174;546.9201049804688
175;545.1482543945312
176;543.385009765625
177;541.6302490234375
178;539.8839111328125
179;538.1458129882812
180;536.416015625
181;534.6942138671875
182;532.9804077148438
183;531.27880859375
184;529.5807495117188
185;527.8902587890625
186;526.2114868164062
187;524.540283203125
188;522.872314453125
189;521.211669921875
190;519.5582885742188
191;517.9158935546875
192;516.2807006835938
193;514.6486206054688
194;513.0235595703125
195;511.4089660644531
196;509.80120849609375
197;508.1964416503906
198;506.6018981933594
199;505.0140075683594
200;503.4288635253906
201;501.8502502441406
202;500.2814636230469
203;498.7156677246094
204;497.1593933105469
205;495.60595703125
206;494.06195068359375
207;492.5207824707031
208;490.9856262207031
209;489.4564208984375
210;487.93316650390625
211;486.4156799316406
212;484.9041442871094
213;483.3984375
214;481.9015808105469
215;480.4104309082031
216;478.9248046875
217;477.44482421875
218;475.96734619140625
219;474.4953918457031
220;473.02880859375
221;471.5705871582031
222;470.1148681640625
223;468.6644287109375
224;467.22216796875
225;465.7850341796875
226;464.3503723144531
227;462.9236755371094
228;461.4992980957031
229;460.080078125
230;458.6658935546875
231;457.25677490234375
232;455.85260009765625
233;454.4534912109375
234;453.0592956542969
235;451.6699523925781
236;450.2855224609375
237;448.908447265625
238;447.5361022949219
239;446.1661376953125
240;444.80084228515625
241;443.44281005859375
242;442.0870361328125
243;440.73834228515625
244;439.3942565917969
245;438.05474853515625
246;436.7174072265625
247;435.38458251953125
248;434.0562744140625
249;432.7324523925781
250;431.4131164550781
251;430.09814453125
252;428.78765869140625
253;427.4814453125
254;426.18194580078125
255;424.88446044921875
256;423.5912780761719
257;422.3023681640625
258;421.01995849609375
259;419.7417297363281
260;418.4677429199219
261;417.1957702636719
262;415.9300842285156
263;414.66644287109375
264;413.4068908691406
265;412.1514892578125
266;410.9001770019531
267;409.6549072265625
268;408.41363525390625
269;407.1763916015625
270;405.9432067871094
271;404.71197509765625
272;403.4866943359375
273;402.2652893066406
274;401.0459289550781
275;399.8304443359375
276;398.6188049316406
277;397.4110412597656
278;396.2091064453125
279;395.0090637207031
280;393.81280517578125
281;392.6203918457031
282;391.4316711425781
283;390.24676513671875
284;389.06744384765625
285;387.8899841308594
286;386.7161865234375
287;385.5479736328125
288;384.3816223144531
289;383.2188720703125
290;382.059814453125
291;380.9061279296875
292;379.7542724609375
293;378.60601806640625
294;377.46136474609375
295;376.3202819824219
296;375.18280029296875
297;374.04876708984375
298;372.9183349609375
299;371.79302978515625
300;370.671142578125
301;369.552734375
302;368.43621826171875
303;367.3246765136719
304;366.216552734375
305;365.1119079589844
306;364.0105285644531
307;362.9126892089844
308;361.8165283203125
309;360.7253723144531
310;359.63751220703125
311;358.5529479980469
312;357.4717712402344
313;356.3939208984375
314;355.3177490234375
315;354.2464599609375
316;353.1783752441406
317;352.1135559082031
318;351.05194091796875
319;349.9935302734375
320;348.9383544921875
321;347.886474609375
322;346.83770751953125
323;345.7921447753906
324;344.749755859375
325;343.7104797363281
326;342.67303466796875
327;341.6387939453125
328;340.607666015625
329;339.57965087890625
330;338.5560302734375
331;337.5341796875
332;336.51544189453125
333;335.4997863769531
334;334.4872131347656
335;333.47772216796875
336;332.47247314453125
337;331.4703063964844
338;330.4698791503906
339;329.47247314453125
340;328.4781494140625
341;327.4879455566406
342;326.4995422363281
343;325.51409912109375
344;324.5328369140625
345;323.55450439453125
346;322.5791015625
347;321.6054382324219
348;320.63592529296875
349;319.6693115234375
350;318.7044372558594
351;317.742431640625
352;316.7833251953125
353;315.8271484375
354;314.8737487792969
355;313.9232482910156
356;312.97564697265625
357;312.0308532714844
358;311.0888671875
359;310.1497497558594
360;309.21343994140625
361;308.2798767089844
362;307.3502197265625
363;306.42230224609375
364;305.4981689453125
365;304.5758361816406
366;303.6572570800781
367;302.74139404296875
368;301.8273010253906
369;300.9158935546875
370;300.0082092285156
371;299.10235595703125
372;298.1990966796875
373;297.2995910644531
374;296.40179443359375
375;295.5066223144531
376;294.6142272949219
377;293.72540283203125
378;292.8392333984375
379;291.954833984375
380;291.0739440917969
381;290.1956787109375
382;289.3191223144531
383;288.44525146484375
384;287.5739440917969
385;286.7052307128906
386;285.83917236328125
387;284.9765625
388;284.1165771484375
389;283.2582092285156
390;282.4033203125
391;281.551025390625
392;280.7012939453125
393;279.85308837890625
394;279.00762939453125
395;278.1653747558594
396;277.32489013671875
397;276.48687744140625
398;275.6513671875
399;274.8183898925781
400;273.9887390136719
401;273.1607971191406
402;272.3360900878906
403;271.5130615234375
404;270.6925048828125
405;269.8743896484375
406;269.0587158203125
407;268.24554443359375
408;267.435546875
409;266.6271667480469
410;265.8213195800781
411;265.0177917480469
412;264.2174987792969
413;263.4188232421875
414;262.62335205078125
415;261.8294372558594
416;261.0379638671875
417;260.2488708496094
418;259.4620666503906
419;258.6777038574219
420;257.8957214355469
421;257.1167907714844
422;256.3394775390625
423;255.565185546875
424;254.7925567626953
425;254.022216796875
426;253.25421142578125
427;252.48855590820312
428;251.72515869140625
429;250.9640350341797
430;250.20529174804688
431;249.44879150390625
432;248.69461059570312
433;247.94265747070312
434;247.1930389404297
435;246.44561767578125
436;245.70114135742188
437;244.95828247070312
438;244.2176055908203
439;243.47991943359375
440;242.74375915527344
441;242.01043701171875
442;241.2794647216797
443;240.54998779296875
444;239.82272338867188
445;239.09765625
446;238.37481689453125
447;237.65481567382812
448;236.93634033203125
449;236.22064208984375
450;235.506591796875
451;234.794677734375
452;234.08493041992188
453;233.37733459472656
454;232.671875
455;231.9685821533203
456;231.26744079589844
457;230.56849670410156
458;229.87155151367188
459;229.17681884765625
460;228.4842071533203
461;227.7942657470703
462;227.10643005371094
463;226.4207000732422
464;225.73707580566406
465;225.05548095703125
466;224.37548828125
467;223.69747924804688
468;223.02157592773438
469;222.34779357910156
470;221.67599487304688
471;221.00628662109375
472;220.33868408203125
473;219.67364501953125
474;219.0100555419922
475;218.3490447998047
476;217.68954467773438
477;217.03208923339844
478;216.37661743164062
479;215.72320556640625
480;215.072265625
481;214.4228973388672
482;213.77542114257812
483;213.13055419921875
484;212.48712158203125
485;211.84613037109375
486;211.20664978027344
487;210.5691375732422
488;209.93411254882812
489;209.30099487304688
490;208.66943359375
491;208.03973388671875
492;207.41200256347656
493;206.78623962402344
494;206.16238403320312
495;205.5404510498047
496;204.9205322265625
497;204.30294799804688
498;203.6868133544922
499;203.0725555419922
500;202.46026611328125
501;201.84982299804688
502;201.24131774902344
503;200.63470458984375
504;200.02996826171875
505;199.42709350585938
506;198.82659912109375
507;198.22747802734375
508;197.63021850585938
509;197.03488159179688
510;196.44137573242188
511;195.85018920898438
512;195.2608184814453
513;194.6728515625
514;194.08673095703125
515;193.50250244140625
516;192.92001342773438
517;192.3394012451172
518;191.76101684570312
519;191.1840362548828
520;190.60931396484375
521;190.03590393066406
522;189.46478271484375
523;188.89544677734375
524;188.32786560058594
525;187.7616729736328
526;187.1977081298828
527;186.63511657714844
528;186.07427978515625
529;185.51519775390625
530;184.9578857421875
531;184.4027557373047
532;183.84938049316406
533;183.2973175048828
534;182.7470245361328
535;182.19854736328125
536;181.65174865722656
537;181.10667419433594
538;180.56333923339844
539;180.02174377441406
540;179.4818572998047
541;178.9437255859375
542;178.40724182128906
543;177.87249755859375
544;177.33982849121094
545;176.8085174560547
546;176.27886962890625
547;175.75096130371094
548;175.22467041015625
549;174.70050048828125
550;174.17755126953125
551;173.65634155273438
552;173.1371307373047
553;172.6195831298828
554;172.1033935546875
555;171.5891571044922
556;171.07659912109375
557;170.565673828125
558;170.05641174316406
559;169.54872131347656
560;169.042724609375
561;168.53802490234375
562;168.034912109375
563;167.53346252441406
564;167.03363037109375
565;166.53541564941406
566;166.0387725830078
567;165.54408264160156
568;165.05068969726562
569;164.5588836669922
570;164.06895446777344
571;163.5803680419922
572;163.0933380126953
573;162.608154296875
574;162.12429809570312
575;161.64198303222656
576;161.16123962402344
577;160.682373046875
578;160.20477294921875
579;159.728759765625
580;159.25421142578125
581;158.78126525878906
582;158.3101806640625
583;157.84033203125
584;157.37200927734375
585;156.90548706054688
586;156.44024658203125
587;155.97650146484375
588;155.51429748535156
589;155.0538787841797
590;154.59500122070312
591;154.13758850097656
592;153.6814422607422
593;153.22677612304688
594;152.77362060546875
595;152.3219451904297
596;151.8717803955078
597;151.42306518554688
598;150.9758758544922
599;150.53041076660156
600;150.08644104003906
601;149.64366149902344
602;149.20233154296875
603;148.762451171875
604;148.32408142089844
605;147.8874053955078
606;147.45217895507812
607;147.01812744140625
608;146.58558654785156
609;146.1544189453125
610;145.7246856689453
611;145.29641723632812
612;144.8695831298828
613;144.44415283203125
614;144.0201416015625
615;143.5978240966797
616;143.1769256591797
617;142.75714111328125
618;142.33905029296875
619;141.92208862304688
620;141.50656127929688
621;141.09237670898438
622;140.67962646484375
623;140.2682647705078
624;139.8582763671875
625;139.4496612548828
626;139.04270935058594
627;138.63687133789062
628;138.23239135742188
629;137.82928466796875
630;137.42752075195312
631;137.02716064453125
632;136.62808227539062
633;136.23043823242188
634;135.83409118652344
635;135.43914794921875
636;135.04571533203125
637;134.65362548828125
638;134.26268005371094
639;133.87301635742188
640;133.48477172851562
641;133.09774780273438
642;132.7123260498047
643;132.32797241210938
644;131.94496154785156
645;131.563232421875
646;131.1828155517578
647;130.80374145507812
648;130.4261016845703
649;130.04962158203125
650;129.67440795898438
651;129.3007049560547
652;128.9280548095703
653;128.55667114257812
654;128.1868133544922
655;127.8179931640625
656;127.45049285888672
657;127.08441925048828
658;126.71941375732422
659;126.35568237304688
660;125.99323272705078
661;125.63199615478516
662;125.272216796875
663;124.91368103027344
664;124.55623626708984
665;124.19998931884766
666;123.84517669677734
667;123.49141693115234
668;123.138916015625
669;122.78762817382812
670;122.43753051757812
671;122.08885192871094
672;121.74140167236328
673;121.39501953125
674;121.0498046875
675;120.705810546875
676;120.36300659179688
677;120.02143096923828
678;119.6810302734375
679;119.34202575683594
680;119.0040283203125
681;118.66720581054688
682;118.33159637451172
683;117.99710845947266
684;117.66404724121094
685;117.33193969726562
686;117.00119018554688
687;116.671630859375
688;116.34303283691406
689;116.01560974121094
690;115.68953704833984
691;115.36441802978516
692;115.04048919677734
693;114.71772003173828
694;114.39603424072266
695;114.07553100585938
696;113.75615692138672
697;113.43794250488281
698;113.1209945678711
699;112.80506134033203
700;112.49020385742188
701;112.17650604248047
702;111.86408233642578
703;111.55260467529297
704;111.2422866821289
705;110.93303680419922
706;110.62490844726562
707;110.3178939819336
708;110.011962890625
709;109.70716857910156
710;109.40357971191406
711;109.10093688964844
712;108.79940795898438
713;108.49908447265625
714;108.19973754882812
715;107.90148162841797
716;107.60427856445312
717;107.30813598632812
718;107.01306915283203
719;106.71922302246094
720;106.42646026611328
721;106.1347427368164
722;105.84407043457031
723;105.55448150634766
724;105.26596069335938
725;104.97844696044922
726;104.69200897216797
727;104.40648651123047
728;104.12210845947266
729;103.83879852294922
730;103.55636596679688
731;103.2751235961914
732;102.9947509765625
733;102.71543884277344
734;102.43728637695312
735;102.15998840332031
736;101.88385772705078
737;101.60875701904297
738;101.33463287353516
739;101.06153869628906
740;100.78934478759766
741;100.51824951171875
742;100.24805450439453
743;99.9788589477539
744;99.71073913574219
745;99.44364166259766
746;99.17755889892578
747;98.91230773925781
748;98.64804077148438
749;98.3847885131836
750;98.12258911132812
751;97.86127471923828
752;97.60095977783203
753;97.341552734375
754;97.08328247070312
755;96.82593536376953
756;96.569580078125
757;96.31417083740234
758;96.05970764160156
759;95.80621337890625
760;95.55365753173828
761;95.30208587646484
762;95.05142211914062
763;94.80158996582031
764;94.5527114868164
765;94.30475616455078
766;94.05784606933594
767;93.81185150146484
768;93.56680297851562
769;93.32266998291016
770;93.07947540283203
771;92.83710479736328
772;92.59573364257812
773;92.35515594482422
774;92.1156234741211
775;91.87698364257812
776;91.6392593383789
777;91.40243530273438
778;91.1665267944336
779;90.93138885498047
780;90.6971664428711
781;90.46392059326172
782;90.2315673828125
783;90.00010681152344
784;89.76953125
785;89.53976440429688
786;89.31086730957031
787;89.08283233642578
788;88.85566711425781
789;88.62939453125
790;88.40397644042969
791;88.1794204711914
792;87.95574188232422
793;87.7329330444336
794;87.51097869873047
795;87.28997039794922
796;87.0697250366211
797;86.85031127929688
798;86.63176727294922
799;86.41405487060547
800;86.19727325439453
801;85.98135375976562
802;85.76624298095703
803;85.55191040039062
804;85.33849334716797
805;85.12590026855469
806;84.91411590576172
807;84.70309448242188
808;84.49298095703125
809;84.28360748291016
810;84.07512664794922
811;83.86746215820312
812;83.66051483154297
813;83.45447540283203
814;83.24923706054688
815;83.04483032226562
816;82.84117889404297
817;82.63837432861328
818;82.43624877929688
819;82.23503112792969
820;82.03457641601562
821;81.83492279052734
822;81.63606262207031
823;81.43798065185547
824;81.24069213867188
825;81.044189453125
826;80.84845733642578
827;80.65341186523438
828;80.45915985107422
829;80.26566314697266
830;80.07293701171875
831;79.88105773925781
832;79.68986511230469
833;79.49942016601562
834;79.30976867675781
835;79.120849609375
836;78.93267822265625
837;78.745361328125
838;78.55870056152344
839;78.37287139892578
840;78.18777465820312
841;78.00341033935547
842;77.81982421875
843;77.63693237304688
844;77.45479583740234
845;77.27340698242188
846;77.09269714355469
847;76.91268920898438
848;76.73342895507812
849;76.55485534667969
850;76.37700653076172
851;76.19987487792969
852;76.02354431152344
853;75.8479232788086
854;75.67294311523438
855;75.4986801147461
856;75.32518768310547
857;75.15238952636719
858;74.98027801513672
859;74.80890655517578
860;74.63824462890625
861;74.46817016601562
862;74.29885864257812
863;74.1302490234375
864;73.96234893798828
865;73.79513549804688
866;73.62850952148438
867;73.462646484375
868;73.29739379882812
869;73.13288879394531
870;72.96902465820312
871;72.8057861328125
872;72.64325714111328
873;72.48139190673828
874;72.32018280029297
875;72.15963745117188
876;71.99978637695312
877;71.84060668945312
878;71.68212127685547
879;71.52422332763672
880;71.36703491210938
881;71.21044158935547
882;71.05451202392578
883;70.89920806884766
884;70.74461364746094
885;70.59060668945312
886;70.43731689453125
887;70.2846450805664
888;70.13261413574219
889;69.9811782836914
890;69.83037567138672
891;69.6801986694336
892;69.53063201904297
893;69.38169860839844
894;69.23345184326172
895;69.0858383178711
896;68.93883514404297
897;68.79244995117188
898;68.64665985107422
899;68.50149536132812
900;68.35690307617188
901;68.21289825439453
902;68.06953430175781
903;67.92676544189453
904;67.78458404541016
905;67.64302825927734
906;67.5020523071289
907;67.36168670654297
908;67.22195434570312
909;67.08277893066406
910;66.94420623779297
911;66.80619049072266
912;66.66879272460938
913;66.53196716308594
914;66.39572143554688
915;66.26007843017578
916;66.12499237060547
917;65.99050903320312
918;65.85661315917969
919;65.7232666015625
920;65.59054565429688
921;65.45838928222656
922;65.3268051147461
923;65.19572448730469
924;65.06524658203125
925;64.93529510498047
926;64.80593872070312
927;64.67713165283203
928;64.54885864257812
929;64.42118072509766
930;64.29403686523438
931;64.16748046875
932;64.0414047241211
933;63.91591262817383
934;63.79093933105469
935;63.66654968261719
936;63.54266357421875
937;63.41935729980469
938;63.29658508300781
939;63.17430114746094
940;63.05257034301758
941;62.931396484375
942;62.81071472167969
943;62.6905517578125
944;62.5709228515625
945;62.45186233520508
946;62.33332061767578
947;62.21529769897461
948;62.09779739379883
949;61.98080062866211
950;61.86428451538086
951;61.74833297729492
952;61.63286590576172
953;61.51790237426758
954;61.4034423828125
955;61.28950500488281
956;61.17605209350586
957;61.06311798095703
958;60.95066833496094
959;60.83870315551758
960;60.72727966308594
961;60.61631774902344
962;60.50587463378906
963;60.39594268798828
964;60.28647232055664
965;60.17750549316406
966;60.06901550292969
967;59.96100616455078
968;59.85350799560547
969;59.74643325805664
970;59.63984680175781
971;59.53376007080078
972;59.42811965942383
973;59.32298278808594
974;59.21833801269531
975;59.11411666870117
976;59.01039123535156
977;58.90714645385742
978;58.80434799194336
979;58.70203399658203
980;58.60016632080078
981;58.49876022338867
982;58.39781188964844
983;58.29732894897461
984;58.19729232788086
985;58.09770202636719
986;57.99856185913086
987;57.89985656738281
988;57.80162048339844
989;57.70383071899414
990;57.60649108886719
991;57.50959014892578
992;57.41313171386719
993;57.31712341308594
994;57.22154235839844
995;57.12637710571289
996;57.03165817260742
997;56.93739318847656
998;56.84356689453125
999;56.75014877319336
1000;56.65717315673828
1001;56.564605712890625
1002;56.47248458862305
1003;56.38078308105469
1004;56.28947067260742
1005;56.19861602783203
1006;56.108150482177734
1007;56.01810836791992
1008;55.92848205566406
1009;55.83927917480469
1010;55.75050735473633
1011;55.66213607788086
1012;55.574195861816406
1013;55.486610412597656
1014;55.39947509765625
1015;55.31273651123047
1016;55.22641372680664
1017;55.14044189453125
1018;55.05488967895508
1019;54.96974563598633
1020;54.88500213623047
1021;54.80067443847656
1022;54.716712951660156
1023;54.63313293457031
1024;54.549983978271484
1025;54.46718215942383
1026;54.384788513183594
1027;54.30281066894531
1028;54.22119903564453
1029;54.13996887207031
1030;54.059120178222656
1031;53.97862243652344
1032;53.89852523803711
1033;53.818809509277344
1034;53.73946762084961
1035;53.660499572753906
1036;53.5819091796875
1037;53.5036735534668
1038;53.425846099853516
1039;53.34838104248047
1040;53.27128601074219
1041;53.194557189941406
1042;53.11817169189453
1043;53.04217529296875
1044;52.96650314331055
1045;52.89120864868164
1046;52.816287994384766
1047;52.74168395996094
1048;52.66747283935547
1049;52.59361267089844
1050;52.520118713378906
1051;52.44697570800781
1052;52.374183654785156
1053;52.30174255371094
1054;52.229637145996094
1055;52.15789031982422
1056;52.08648681640625
1057;52.015419006347656
1058;51.9447135925293
1059;51.87433624267578
1060;51.8043098449707
1061;51.73457717895508
1062;51.66519546508789
1063;51.596153259277344
1064;51.5274543762207
1065;51.4590950012207
1066;51.39105224609375
1067;51.323368072509766
1068;51.25599670410156
1069;51.18896484375
1070;51.122230529785156
1071;51.05583190917969
1072;50.989742279052734
1073;50.92399215698242
1074;50.85858917236328
1075;50.79347610473633
1076;50.72868347167969
1077;50.664207458496094
1078;50.600032806396484
1079;50.53618240356445
1080;50.47267150878906
1081;50.40943908691406
1082;50.34654235839844
1083;50.28395080566406
1084;50.22166442871094
1085;50.15969467163086
1086;50.098026275634766
1087;50.03666305541992
1088;49.97560119628906
1089;49.91484451293945
1090;49.8543701171875
1091;49.79422378540039
1092;49.73435592651367
1093;49.674800872802734
1094;49.61552429199219
1095;49.55656433105469
1096;49.497886657714844
1097;49.43950653076172
1098;49.38142013549805
1099;49.32360076904297
1100;49.26606750488281
1101;49.20885467529297
1102;49.151885986328125
1103;49.095218658447266
1104;49.03885269165039
1105;48.98276901245117
1106;48.92695617675781
1107;48.87141418457031
1108;48.81618118286133
1109;48.76119613647461
1110;48.70648956298828
1111;48.652099609375
1112;48.59794616699219
1113;48.5440788269043
1114;48.4904670715332
1115;48.437137603759766
1116;48.38407897949219
1117;48.33128356933594
1118;48.27877426147461
1119;48.22649383544922
1120;48.174522399902344
1121;48.1227912902832
1122;48.07133483886719
1123;48.02012252807617
1124;47.96916961669922
1125;47.918460845947266
1126;47.86806106567383
1127;47.817901611328125
1128;47.76796340942383
1129;47.71833038330078
1130;47.668914794921875
1131;47.61976623535156
1132;47.570884704589844
1133;47.52223205566406
1134;47.47382354736328
1135;47.4256591796875
1136;47.37778091430664
1137;47.330135345458984
1138;47.282737731933594
1139;47.23556900024414
1140;47.18864440917969
1141;47.141963958740234
1142;47.09552001953125
1143;47.04933166503906
1144;47.00338363647461
1145;46.95766830444336
1146;46.91216278076172
1147;46.86691665649414
1148;46.821895599365234
1149;46.777095794677734
1150;46.732566833496094
1151;46.68825149536133
1152;46.64414978027344
1153;46.600303649902344
1154;46.556671142578125
1155;46.51329040527344
1156;46.47011947631836
1157;46.42716979980469
1158;46.38447570800781
1159;46.34197235107422
1160;46.29969787597656
1161;46.25764465332031
1162;46.21583557128906
1163;46.17423629760742
1164;46.13282775878906
1165;46.091651916503906
1166;46.05070495605469
1167;46.00999450683594
1168;45.96947479248047
1169;45.92916488647461
1170;45.889068603515625
1171;45.84919357299805
1172;45.80951690673828
1173;45.77006149291992
1174;45.73081588745117
1175;45.69178771972656
1176;45.652957916259766
1177;45.61430358886719
1178;45.57589340209961
1179;45.53767395019531
1180;45.49966812133789
1181;45.46184158325195
1182;45.42424011230469
1183;45.3868522644043
1184;45.34963607788086
1185;45.31263732910156
1186;45.27581787109375
1187;45.239219665527344
1188;45.20281219482422
1189;45.16658401489258
1190;45.13056182861328
1191;45.0947265625
1192;45.0590934753418
1193;45.02363967895508
1194;44.9883918762207
1195;44.95332336425781
1196;44.9184455871582
1197;44.883758544921875
1198;44.849273681640625
1199;44.814945220947266
1200;44.78083038330078
1201;44.74689865112305
1202;44.713134765625
1203;44.6795654296875
1204;44.64615249633789
1205;44.61296081542969
1206;44.5799446105957
1207;44.54707717895508
1208;44.514427185058594
1209;44.48194122314453
1210;44.44962692260742
1211;44.41749572753906
1212;44.38553237915039
1213;44.353736877441406
1214;44.322120666503906
1215;44.290687561035156
1216;44.25941467285156
1217;44.22833251953125
1218;44.197418212890625
1219;44.16666793823242
1220;44.13608932495117
1221;44.10566711425781
1222;44.075439453125
1223;44.04536056518555
1224;44.015445709228516
1225;43.9857177734375
1226;43.95612335205078
1227;43.92671203613281
1228;43.8974609375
1229;43.868370056152344
1230;43.83943557739258
1231;43.8106803894043
1232;43.78207015991211
1233;43.75362777709961
1234;43.725311279296875
1235;43.69718933105469
1236;43.669212341308594
1237;43.64140701293945
1238;43.61375045776367
1239;43.58622741699219
1240;43.558876037597656
1241;43.53166198730469
1242;43.50462341308594
1243;43.47772216796875
1244;43.45097732543945
1245;43.424381256103516
1246;43.39793395996094
1247;43.37162399291992
1248;43.345481872558594
1249;43.31947708129883
1250;43.29362106323242
1251;43.267913818359375
1252;43.24235534667969
1253;43.21694564819336
1254;43.19166564941406
1255;43.166542053222656
1256;43.14154815673828
1257;43.11669921875
1258;43.09199523925781
1259;43.067440032958984
1260;43.043006896972656
1261;43.01872634887695
1262;42.99458312988281
1263;42.97054672241211
1264;42.946678161621094
1265;42.92295837402344
1266;42.89936447143555
1267;42.87588882446289
1268;42.8525505065918
1269;42.8293571472168
1270;42.80628204345703
1271;42.783363342285156
1272;42.760562896728516
1273;42.73788070678711
1274;42.71533966064453
1275;42.69293212890625
1276;42.670658111572266
1277;42.64849853515625
1278;42.626487731933594
1279;42.604583740234375
1280;42.582794189453125
1281;42.561153411865234
1282;42.53963851928711
1283;42.518245697021484
1284;42.49696731567383
1285;42.47582244873047
1286;42.454795837402344
1287;42.433895111083984
1288;42.41311264038086
1289;42.3924560546875
1290;42.37192153930664
1291;42.35151290893555
1292;42.33119201660156
1293;42.31101989746094
1294;42.29095458984375
1295;42.2710075378418
1296;42.25117111206055
1297;42.23146438598633
1298;42.21185302734375
1299;42.19237518310547
1300;42.173011779785156
1301;42.15374755859375
1302;42.13459777832031
1303;42.115577697753906
1304;42.096656799316406
1305;42.07786560058594
1306;42.05915832519531
1307;42.04056930541992
1308;42.0220832824707
1309;42.00370788574219
1310;41.98545837402344
1311;41.967323303222656
1312;41.94927215576172
1313;41.93133544921875
1314;41.913516998291016
1315;41.895774841308594
1316;41.8781623840332
1317;41.86065673828125
1318;41.84324645996094
1319;41.825931549072266
1320;41.80873107910156
1321;41.79161834716797
1322;41.774635314941406
1323;41.757728576660156
1324;41.740936279296875
1325;41.72425079345703
1326;41.7076416015625
1327;41.691162109375
1328;41.67475891113281
1329;41.65846252441406
1330;41.64225769042969
1331;41.62614440917969
1332;41.610145568847656
1333;41.59423828125
1334;41.57842254638672
1335;41.56271743774414
1336;41.547088623046875
1337;41.53154754638672
1338;41.5161247253418
1339;41.50077819824219
1340;41.48554229736328
1341;41.47038269042969
1342;41.4553108215332
1343;41.44034957885742
1344;41.42546844482422
1345;41.41065979003906
1346;41.39596939086914
1347;41.38135528564453
1348;41.36684036254883
1349;41.35240173339844
1350;41.33805847167969
1351;41.32379913330078
1352;41.30962371826172
1353;41.2955436706543
1354;41.28154754638672
1355;41.267642974853516
1356;41.25379943847656
1357;41.24006652832031
1358;41.226402282714844
1359;41.212825775146484
1360;41.1993293762207
1361;41.18592071533203
1362;41.1725959777832
1363;41.15935516357422
1364;41.14619445800781
1365;41.13310241699219
1366;41.12010192871094
1367;41.1071891784668
1368;41.09434509277344
1369;41.08158493041992
1370;41.06889343261719
1371;41.05630111694336
1372;41.04377746582031
1373;41.03132629394531
1374;41.01894760131836
1375;41.00666046142578
1376;40.994441986083984
1377;40.982295989990234
1378;40.970237731933594
1379;40.95824432373047
1380;40.94633102416992
1381;40.934478759765625
1382;40.9227180480957
1383;40.9110221862793
1384;40.89939880371094
1385;40.88785171508789
1386;40.87637710571289
1387;40.86497497558594
1388;40.8536491394043
1389;40.84239196777344
1390;40.83119201660156
1391;40.820091247558594
1392;40.80901336669922
1393;40.79803466796875
1394;40.78713607788086
1395;40.77629470825195
1396;40.7655143737793
1397;40.75480651855469
1398;40.744163513183594
1399;40.73359298706055
1400;40.72309494018555
1401;40.712669372558594
1402;40.70228958129883
1403;40.69198989868164
1404;40.681758880615234
1405;40.67157745361328
1406;40.661476135253906
1407;40.65141296386719
1408;40.64143371582031
1409;40.63151550292969
1410;40.62165832519531
1411;40.61186599731445
1412;40.60213088989258
1413;40.59248352050781
1414;40.58286666870117
1415;40.57332229614258
1416;40.56383514404297
1417;40.55442810058594
1418;40.54505157470703
1419;40.5357666015625
1420;40.52651596069336
1421;40.51732635498047
1422;40.508209228515625
1423;40.49915313720703
1424;40.49012756347656
1425;40.481178283691406
1426;40.4722900390625
1427;40.463470458984375
1428;40.454681396484375
1429;40.44596862792969
1430;40.43730163574219
1431;40.42869567871094
1432;40.42012405395508
1433;40.41164016723633
1434;40.40321350097656
1435;40.39481735229492
1436;40.386478424072266
1437;40.378204345703125
1438;40.36997985839844
1439;40.36180114746094
1440;40.35368347167969
1441;40.345619201660156
1442;40.33761215209961
1443;40.329654693603516
1444;40.32173538208008
1445;40.31387710571289
1446;40.30608367919922
1447;40.29832077026367
1448;40.29060745239258
1449;40.282962799072266
1450;40.27536392211914
1451;40.267799377441406
1452;40.26030731201172
1453;40.25284957885742
1454;40.24546432495117
1455;40.23810577392578
1456;40.23078536987305
1457;40.22352600097656
1458;40.21630859375
1459;40.20915222167969
1460;40.20204162597656
1461;40.19496154785156
1462;40.18793487548828
1463;40.18096160888672
1464;40.174034118652344
1465;40.16715621948242
1466;40.16030502319336
1467;40.15351104736328
1468;40.14677047729492
1469;40.14006805419922
1470;40.13340377807617
1471;40.12679672241211
1472;40.12022399902344
1473;40.11367416381836
1474;40.10721206665039
1475;40.10076904296875
1476;40.0943603515625
1477;40.0880126953125
1478;40.081695556640625
1479;40.07542037963867
1480;40.06919860839844
1481;40.06300735473633
1482;40.05686950683594
1483;40.05074691772461
1484;40.04469299316406
1485;40.03867721557617
1486;40.03268051147461
1487;40.02674865722656
1488;40.02083969116211
1489;40.014984130859375
1490;40.0091552734375
1491;40.003360748291016
1492;39.99760437011719
1493;39.991912841796875
1494;39.98624801635742
1495;39.98060989379883
1496;39.975013732910156
1497;39.96946334838867
1498;39.96395492553711
1499;39.95846176147461
1500;39.95301055908203
1501;39.94761657714844
1502;39.94224548339844
1503;39.9369010925293
1504;39.931610107421875
1505;39.92634582519531
1506;39.92110824584961
1507;39.91593933105469
1508;39.9107780456543
1509;39.9056510925293
1510;39.90055847167969
1511;39.89551544189453
1512;39.8905029296875
1513;39.8855094909668
1514;39.88056182861328
1515;39.87565994262695
1516;39.870765686035156
1517;39.86591339111328
1518;39.86110305786133
1519;39.856327056884766
1520;39.85157775878906
1521;39.84685516357422
1522;39.84218215942383
1523;39.8375244140625
1524;39.83289337158203
1525;39.828304290771484
1526;39.82374954223633
1527;39.81922912597656
1528;39.814727783203125
1529;39.810264587402344
1530;39.80583572387695
1531;39.80142593383789
1532;39.79706573486328
1533;39.79271697998047
1534;39.78840255737305
1535;39.784114837646484
1536;39.779869079589844
1537;39.775638580322266
1538;39.77144241333008
1539;39.76728820800781
1540;39.76313018798828
1541;39.75902557373047
1542;39.754947662353516
1543;39.75089645385742
1544;39.74687957763672
1545;39.74287414550781
1546;39.7389030456543
1547;39.73497009277344
1548;39.731048583984375
1549;39.72715759277344
1550;39.72330093383789
1551;39.7194709777832
1552;39.715667724609375
1553;39.71189498901367
1554;39.7081298828125
1555;39.70440673828125
1556;39.70069885253906
1557;39.697017669677734
1558;39.69337463378906
1559;39.68974304199219
1560;39.6861457824707
1561;39.68256759643555
1562;39.67901611328125
1563;39.67549133300781
1564;39.6719856262207
1565;39.66850662231445
1566;39.66505432128906
1567;39.66162872314453
1568;39.65823745727539
1569;39.654842376708984
1570;39.6514892578125
1571;39.64815902709961
1572;39.64485168457031
1573;39.641563415527344
1574;39.63829040527344
1575;39.63505554199219
1576;39.6318244934082
1577;39.628639221191406
1578;39.625465393066406
1579;39.6223030090332
1580;39.61918258666992
1581;39.616065979003906
1582;39.61299514770508
1583;39.60990905761719
1584;39.606876373291016
1585;39.60386276245117
1586;39.60084533691406
1587;39.59788131713867
1588;39.59490203857422
1589;39.59197235107422
1590;39.58905792236328
1591;39.586158752441406
1592;39.583282470703125
1593;39.58042907714844
1594;39.57759094238281
1595;39.57476806640625
1596;39.57197570800781
1597;39.5692024230957
1598;39.56643295288086
1599;39.563690185546875
1600;39.56096649169922
1601;39.55828094482422
1602;39.55559158325195
1603;39.55291748046875
1604;39.55028533935547
1605;39.54765701293945
1606;39.5450553894043
1607;39.5424690246582
1608;39.53989791870117
1609;39.537330627441406
1610;39.5348014831543
1611;39.532283782958984
1612;39.529781341552734
1613;39.52730178833008
1614;39.524837493896484
1615;39.52238464355469
1616;39.51995086669922
1617;39.51753234863281
1618;39.515132904052734
1619;39.51277160644531
1620;39.51038360595703
1621;39.50804138183594
1622;39.505706787109375
1623;39.50340270996094
1624;39.5010986328125
1625;39.49881362915039
1626;39.496551513671875
1627;39.494293212890625
1628;39.49205017089844
1629;39.48984146118164
1630;39.487632751464844
1631;39.48543930053711
1632;39.4832649230957
1633;39.48110580444336
1634;39.47895812988281
1635;39.47682571411133
1636;39.47470474243164
1637;39.47260665893555
1638;39.47052001953125
1639;39.468441009521484
1640;39.46638870239258
1641;39.46434020996094
1642;39.46231460571289
1643;39.460304260253906
1644;39.45829772949219
1645;39.456302642822266
1646;39.45433044433594
1647;39.45237350463867
1648;39.4504280090332
1649;39.4484977722168
1650;39.44655990600586
1651;39.44465255737305
1652;39.4427490234375
1653;39.44087219238281
1654;39.43899917602539
1655;39.437137603759766
1656;39.43528747558594
1657;39.43345642089844
1658;39.431644439697266
1659;39.4298210144043
1660;39.42802810668945
1661;39.426231384277344
1662;39.424461364746094
1663;39.42271041870117
1664;39.42094421386719
1665;39.41920471191406
1666;39.417484283447266
1667;39.4157600402832
1668;39.4140625
1669;39.41236877441406
1670;39.410675048828125
1671;39.40900802612305
1672;39.40734100341797
1673;39.405677795410156
1674;39.4040412902832
1675;39.40242004394531
1676;39.400787353515625
1677;39.39918518066406
1678;39.397579193115234
1679;39.3959846496582
1680;39.39440155029297
1681;39.39283752441406
1682;39.391273498535156
1683;39.38972091674805
1684;39.38818359375
1685;39.386653900146484
1686;39.385128021240234
1687;39.38360595703125
1688;39.38210678100586
1689;39.380611419677734
1690;39.379127502441406
1691;39.37763977050781
1692;39.37617492675781
1693;39.37471008300781
1694;39.373260498046875
1695;39.371826171875
1696;39.37038040161133
1697;39.36894989013672
1698;39.36753463745117
1699;39.366111755371094
1700;39.36471939086914
1701;39.363319396972656
1702;39.3619270324707
1703;39.36054611206055
1704;39.35917663574219
1705;39.35780715942383
1706;39.35643768310547
1707;39.35509490966797
1708;39.35374450683594
1709;39.3524055480957
1710;39.3510627746582
1711;39.349754333496094
1712;39.34843444824219
1713;39.34712219238281
1714;39.34580993652344
1715;39.34449768066406
1716;39.343204498291016
1717;39.3419189453125
1718;39.34062576293945
1719;39.339351654052734
1720;39.338096618652344
1721;39.336814880371094
1722;39.33555603027344
1723;39.334293365478516
1724;39.33304214477539
1725;39.331790924072266
1726;39.33053970336914
1727;39.32931137084961
1728;39.32807922363281
1729;39.32684326171875
1730;39.32560729980469
1731;39.324405670166016
1732;39.32316589355469
1733;39.32195281982422
1734;39.32073974609375
1735;39.31951904296875
1736;39.318321228027344
1737;39.317100524902344
1738;39.31590270996094
1739;39.31468963623047
1740;39.31349182128906
1741;39.31230163574219
1742;39.31108856201172
1743;39.30989074707031
1744;39.30868148803711
1745;39.3074951171875
1746;39.30629348754883
1747;39.30508804321289
1748;39.30388641357422
1749;39.30269241333008
1750;39.301475524902344
1751;39.30028533935547
1752;39.299076080322266
1753;39.29787826538086
1754;39.29665756225586
1755;39.29544448852539
1756;39.294227600097656
1757;39.29299545288086
1758;39.29176330566406
1759;39.29054260253906
1760;39.2892951965332
1761;39.28807067871094
1762;39.286800384521484
1763;39.28554153442383
1764;39.284271240234375
1765;39.28300094604492
1766;39.281707763671875
1767;39.28042221069336
1768;39.279090881347656
1769;39.27777862548828
1770;39.27642822265625
1771;39.27506637573242
1772;39.27369689941406
1773;39.272315979003906
1774;39.27091598510742
1775;39.26948547363281
1776;39.268043518066406
1777;39.26655960083008
1778;39.26506042480469
1779;39.2635498046875
1780;39.26199722290039
1781;39.26041030883789
1782;39.2587890625
1783;39.25712585449219
1784;39.25543212890625
1785;39.25369644165039
1786;39.25190734863281
1787;39.25007629394531
1788;39.24817657470703
1789;39.24622344970703
1790;39.244205474853516
1791;39.24211502075195
1792;39.239959716796875
1793;39.23769760131836
1794;39.23535919189453
1795;39.23291778564453
1796;39.23036575317383
1797;39.227699279785156
1798;39.22486877441406
1799;39.221920013427734
1800;39.218788146972656
1801;39.21547317504883
1802;39.211971282958984
1803;39.20820617675781
1804;39.2042121887207
1805;39.19991683959961
1806;39.19529342651367
1807;39.19029998779297
1808;39.18487548828125
1809;39.17898178100586
1810;39.17253112792969
1811;39.165443420410156
1812;39.1576042175293
1813;39.14890670776367
1814;39.13919448852539
1815;39.12828826904297
1816;39.11595153808594
1817;39.101924896240234
1818;39.08586120605469
1819;39.06733703613281
1820;39.04579162597656
1821;39.02053451538086
1822;38.99070739746094
1823;38.955162048339844
1824;38.912452697753906
1825;38.860748291015625
1826;38.79765319824219
1827;38.72026062011719
1828;38.62495040893555
1829;38.50764083862305
1830;38.36393737792969
1831;38.189945220947266
1832;37.98351287841797
1833;37.74600601196289
1834;37.48439025878906
1835;37.21345138549805
1836;36.95652770996094
1837;36.74422836303711
1838;36.602760314941406
1839;36.54608917236328
1840;36.55988311767578
1841;36.609344482421875
1842;36.6484260559082
1843;36.64744567871094
1844;36.59716033935547
1845;36.506473541259766
1846;36.392913818359375
1847;36.275634765625
1848;36.1704216003418
1849;36.08676528930664
1850;36.02688217163086
1851;35.987030029296875
1852;35.95992660522461
1853;35.93745422363281
1854;35.91278076171875
1855;35.88145446777344
1856;35.84160614013672
1857;35.79365539550781
1858;35.73963928222656
1859;35.68251419067383
1860;35.625667572021484
1861;35.57202911376953
1862;35.523529052734375
1863;35.48101806640625
1864;35.444026947021484
1865;35.411041259765625
1866;35.38003921508789
1867;35.349002838134766
1868;35.3165283203125
1869;35.28190231323242
1870;35.24523162841797
1871;35.207191467285156
1872;35.168800354003906
1873;35.131072998046875
1874;35.094810485839844
1875;35.060386657714844
1876;35.027889251708984
1877;34.99697494506836
1878;34.96715545654297
1879;34.93791961669922
1880;34.908790588378906
1881;34.87946319580078
1882;34.84983825683594
1883;34.820011138916016
1884;34.79013442993164
1885;34.760498046875
1886;34.73131561279297
1887;34.70278549194336
1888;34.675045013427734
1889;34.64803695678711
1890;34.62166213989258
1891;34.59572219848633
1892;34.57006072998047
1893;34.54457092285156
1894;34.5191764831543
1895;34.493858337402344
1896;34.46867370605469
1897;34.443634033203125
1898;34.41881561279297
1899;34.3942756652832
1900;34.37006378173828
1901;34.34617233276367
1902;34.322574615478516
1903;34.29926300048828
1904;34.27617645263672
1905;34.25326919555664
1906;34.23051834106445
1907;34.20792007446289
1908;34.185447692871094
1909;34.16313171386719
1910;34.14095687866211
1911;34.11894226074219
1912;34.09710693359375
1913;34.07545471191406
1914;34.05400085449219
1915;34.0327033996582
1916;34.01155090332031
1917;33.99051284790039
1918;33.9695930480957
1919;33.948787689208984
1920;33.92805862426758
1921;33.90744400024414
1922;33.88689422607422
1923;33.86642074584961
1924;33.846038818359375
1925;33.82571029663086
1926;33.80543899536133
1927;33.785221099853516
1928;33.76506805419922
1929;33.74491500854492
1930;33.72478485107422
1931;33.70466613769531
1932;33.68449783325195
1933;33.664306640625
1934;33.64406967163086
1935;33.623756408691406
1936;33.603363037109375
1937;33.582855224609375
1938;33.562198638916016
1939;33.5413703918457
1940;33.52033996582031
1941;33.49906539916992
1942;33.477481842041016
1943;33.455589294433594
1944;33.43327331542969
1945;33.41049575805664
1946;33.38717269897461
1947;33.36321258544922
1948;33.33849334716797
1949;33.312923431396484
1950;33.286319732666016
1951;33.258514404296875
1952;33.22929382324219
1953;33.19841003417969
1954;33.165550231933594
1955;33.13034439086914
1956;33.09231948852539
1957;33.050960540771484
1958;33.00557327270508
1959;32.95537567138672
1960;32.899349212646484
1961;32.83637619018555
1962;32.76736068725586
1963;32.688865661621094
1964;32.59889602661133
1965;32.49567794799805
1966;32.37745666503906
1967;32.24251937866211
1968;32.08958053588867
1969;31.91811180114746
1970;31.72880744934082
1971;31.52464485168457
1972;31.31112289428711
1973;31.096351623535156
1974;30.89146614074707
1975;30.706947326660156
1976;30.55391502380371
1977;30.436758041381836
1978;30.351205825805664
1979;30.291015625
1980;30.24546241760254
1981;30.19508934020996
1982;30.13076400756836
1983;30.05870819091797
1984;29.98625373840332
1985;29.90677261352539
1986;29.82359504699707
1987;29.74032211303711
1988;29.649837493896484
1989;29.552690505981445
1990;29.449249267578125
1991;29.33894157409668
1992;29.22740364074707
1993;29.123291015625
1994;29.029781341552734
1995;28.94527244567871
1996;28.87021255493164
1997;28.796518325805664
1998;28.7235107421875
1999;28.651010513305664
