;loss
0;1393.5440673828125
1;1392.2489013671875
2;1390.498291015625
3;1388.893798828125
4;1387.2242431640625
5;1385.4278564453125
6;1383.6651611328125
7;1381.8228759765625
8;1379.9786376953125
9;1378.0914306640625
10;1376.14892578125
11;1374.1654052734375
12;1372.129150390625
13;1370.0369873046875
14;1367.8714599609375
15;1365.6470947265625
16;1363.3277587890625
17;1360.9193115234375
18;1358.4129638671875
19;1355.82421875
20;1353.1202392578125
21;1350.25732421875
22;1347.249267578125
23;1344.0809326171875
24;1340.7755126953125
25;1337.2791748046875
26;1333.526611328125
27;1329.58154296875
28;1325.374267578125
29;1320.8756103515625
30;1316.05126953125
31;1310.7989501953125
32;1305.1937255859375
33;1299.0518798828125
34;1292.3739013671875
35;1285.08642578125
36;1277.1019287109375
37;1268.417236328125
38;1258.7196044921875
39;1247.956298828125
40;1235.9530029296875
41;1222.5020751953125
42;1207.35888671875
43;1190.427734375
44;1171.0726318359375
45;1149.16552734375
46;1124.56591796875
47;1097.5018310546875
48;1068.850341796875
49;1040.20556640625
50;1013.2477416992188
51;989.0338134765625
52;967.9398193359375
53;949.4794311523438
54;933.158203125
55;918.8427124023438
56;906.0104370117188
57;894.5181884765625
58;884.224365234375
59;874.7996215820312
60;866.26171875
61;858.423583984375
62;851.140625
63;844.3919677734375
64;838.158203125
65;832.3348388671875
66;826.8739013671875
67;821.6940307617188
68;816.8311767578125
69;812.218505859375
70;807.822265625
71;803.5858154296875
72;799.513671875
73;795.5889892578125
74;791.820556640625
75;788.1463623046875
76;784.6024780273438
77;781.1585693359375
78;777.7866821289062
79;774.5183715820312
80;771.3273315429688
81;768.207275390625
82;765.1531372070312
83;762.1594848632812
84;759.2047119140625
85;756.3015747070312
86;753.447265625
87;750.653564453125
88;747.886474609375
89;745.1726684570312
90;742.4801635742188
91;739.8217163085938
92;737.2086791992188
93;734.6258544921875
94;732.0713500976562
95;729.531494140625
96;727.017822265625
97;724.529052734375
98;722.0639038085938
99;719.6212768554688
100;717.2007446289062
101;714.812744140625
102;712.4341430664062
103;710.074951171875
104;707.7349243164062
105;705.4235229492188
106;703.1299438476562
107;700.8533935546875
108;698.5836791992188
109;696.3301391601562
110;694.1018676757812
111;691.8795166015625
112;689.6810302734375
113;687.4877319335938
114;685.3179931640625
115;683.1530151367188
116;681.0014038085938
117;678.8627319335938
118;676.7366943359375
119;674.6231689453125
120;672.5216064453125
121;670.440185546875
122;668.3623657226562
123;666.2960815429688
124;664.2410278320312
125;662.1968994140625
126;660.1636962890625
127;658.1484375
128;656.1436157226562
129;654.1488037109375
130;652.1570434570312
131;650.1819458007812
132;648.2096557617188
133;646.253662109375
134;644.306884765625
135;642.3626098632812
136;640.4274291992188
137;638.5010986328125
138;636.5836181640625
139;634.6748657226562
140;632.781005859375
141;630.8892822265625
142;629.011962890625
143;627.1367797851562
144;625.2696533203125
145;623.4105224609375
146;621.5651245117188
147;619.7216796875
148;617.8916015625
149;616.0634155273438
150;614.2427368164062
151;612.4293823242188
152;610.6288452148438
153;608.8353881835938
154;607.0438232421875
155;605.2645874023438
156;603.4869995117188
157;601.7164306640625
158;599.9578857421875
159;598.2011108398438
160;596.4560546875
161;594.7175903320312
162;592.980712890625
163;591.2505493164062
164;589.5266723632812
165;587.8140869140625
166;586.1077880859375
167;584.4077758789062
168;582.7138061523438
169;581.021484375
170;579.3399047851562
171;577.6642456054688
172;575.9948120117188
173;574.3311157226562
174;572.6732788085938
175;571.0169677734375
176;569.370849609375
177;567.7302856445312
178;566.095458984375
179;564.4661865234375
180;562.8425903320312
181;561.2203369140625
182;559.6036376953125
183;557.9964599609375
184;556.3945922851562
185;554.7981567382812
186;553.2069091796875
187;551.62109375
188;550.0365600585938
189;548.4572143554688
190;546.883056640625
191;545.3179321289062
192;543.7540283203125
193;542.198974609375
194;540.6452026367188
195;539.1000366210938
196;537.556396484375
197;536.0175170898438
198;534.4872436523438
199;532.9617309570312
200;531.441162109375
201;529.9219970703125
202;528.4110717773438
203;526.9014892578125
204;525.3968505859375
205;523.896728515625
206;522.4015502929688
207;520.9141235351562
208;519.4281616210938
209;517.9468383789062
210;516.4700317382812
211;515.0009155273438
212;513.536376953125
213;512.0732421875
214;510.6177062988281
215;509.1665954589844
216;507.71990966796875
217;506.27471923828125
218;504.83392333984375
219;503.39752197265625
220;501.9683532714844
221;500.5435485839844
222;499.123046875
223;497.7039794921875
224;496.2891845703125
225;494.8786926269531
226;493.4751281738281
227;492.0758056640625
228;490.6806640625
229;489.28692626953125
230;487.8973083496094
231;486.5117492675781
232;485.1330871582031
233;483.7557373046875
234;482.38507080078125
235;481.0184326171875
236;479.6558532714844
237;478.2972412109375
238;476.9425048828125
239;475.5893249511719
240;474.24005126953125
241;472.8971252441406
242;471.5580749511719
243;470.2205810546875
244;468.88690185546875
245;467.55938720703125
246;466.23345947265625
247;464.91131591796875
248;463.5954284667969
249;462.283203125
250;460.9747314453125
251;459.6700439453125
252;458.3667297363281
253;457.06951904296875
254;455.7736511230469
255;454.4836730957031
256;453.1973876953125
257;451.9146423339844
258;450.6335144042969
259;449.35809326171875
260;448.0840759277344
261;446.81378173828125
262;445.54693603515625
263;444.2837829589844
264;443.0240783691406
265;441.7700500488281
266;440.51953125
267;439.27044677734375
268;438.02691650390625
269;436.7867126464844
270;435.5501403808594
271;434.31500244140625
272;433.0832824707031
273;431.8550109863281
274;430.63201904296875
275;429.4125061035156
276;428.1962890625
277;426.98162841796875
278;425.7721862792969
279;424.5641784667969
280;423.35955810546875
281;422.1601257324219
282;420.9639892578125
283;419.77117919921875
284;418.57989501953125
285;417.3917541503906
286;416.20697021484375
287;415.02728271484375
288;413.85064697265625
289;412.67742919921875
290;411.5073547363281
291;410.3404846191406
292;409.17510986328125
293;408.01458740234375
294;406.8556213378906
295;405.7015075683594
296;404.55047607421875
297;403.4009094238281
298;402.25457763671875
299;401.1114196777344
300;399.9712829589844
301;398.83599853515625
302;397.7020568847656
303;396.5712890625
304;395.4451904296875
305;394.3221435546875
306;393.2021484375
307;392.08367919921875
308;390.96820068359375
309;389.857421875
310;388.7496337890625
311;387.6448669433594
312;386.5415954589844
313;385.44140625
314;384.3455810546875
315;383.2513122558594
316;382.1599426269531
317;381.0716247558594
318;379.9862976074219
319;378.90533447265625
320;377.82598876953125
321;376.7494201660156
322;375.6772766113281
323;374.6080627441406
324;373.5403137207031
325;372.4768371582031
326;371.4162902832031
327;370.35858154296875
328;369.3024597167969
329;368.2506103515625
330;367.2015686035156
331;366.15411376953125
332;365.1094665527344
333;364.0676574707031
334;363.02862548828125
335;361.9924621582031
336;360.9591064453125
337;359.9298400878906
338;358.9020080566406
339;357.8783874511719
340;356.85614013671875
341;355.8379821777344
342;354.8212890625
343;353.80859375
344;352.7975158691406
345;351.7903137207031
346;350.7846374511719
347;349.7828063964844
348;348.7826843261719
349;347.78631591796875
350;346.7926940917969
351;345.80059814453125
352;344.8111877441406
353;343.8244934082031
354;342.8415832519531
355;341.861328125
356;340.88372802734375
357;339.9087829589844
358;338.93646240234375
359;337.966796875
360;336.9986572265625
361;336.0341796875
362;335.0712890625
363;334.1109313964844
364;333.1543884277344
365;332.2003173828125
366;331.2489318847656
367;330.2989807128906
368;329.3515625
369;328.4078674316406
370;327.46563720703125
371;326.5259094238281
372;325.5888671875
373;324.65423583984375
374;323.7222595214844
375;322.7937316894531
376;321.8677062988281
377;320.94427490234375
378;320.0223388671875
379;319.1038513183594
380;318.1869201660156
381;317.2734069824219
382;316.3614501953125
383;315.4529724121094
384;314.546875
385;313.6432800292969
386;312.74212646484375
387;311.8424987792969
388;310.94525146484375
389;310.0514831542969
390;309.1591796875
391;308.2702331542969
392;307.3827819824219
393;306.4977111816406
394;305.61517333984375
395;304.73583984375
396;303.85894775390625
397;302.9835205078125
398;302.1105651855469
399;301.2399597167969
400;300.3716735839844
401;299.5058288574219
402;298.6432189941406
403;297.7821044921875
404;296.9233703613281
405;296.0677795410156
406;295.2137145996094
407;294.3628234863281
408;293.5142517089844
409;292.6672668457031
410;291.8224792480469
411;290.9801025390625
412;290.1400146484375
413;289.3030700683594
414;288.46759033203125
415;287.6351623535156
416;286.80426025390625
417;285.97564697265625
418;285.15008544921875
419;284.3260192871094
420;283.5050048828125
421;282.6863098144531
422;281.8689880371094
423;281.0546875
424;280.2419128417969
425;279.4313049316406
426;278.623046875
427;277.8169250488281
428;277.0137939453125
429;276.212890625
430;275.4141845703125
431;274.61773681640625
432;273.8227233886719
433;273.03057861328125
434;272.2399597167969
435;271.45220947265625
436;270.6666564941406
437;269.8833312988281
438;269.1020812988281
439;268.32232666015625
440;267.5447082519531
441;266.7699890136719
442;265.9966735839844
443;265.22552490234375
444;264.4572448730469
445;263.69110107421875
446;262.9270324707031
447;262.1651306152344
448;261.4046325683594
449;260.6468811035156
450;259.8913269042969
451;259.1371765136719
452;258.3851318359375
453;257.63519287109375
454;256.8873596191406
455;256.1416015625
456;255.39857482910156
457;254.65762329101562
458;253.91871643066406
459;253.18186950683594
460;252.44711303710938
461;251.71441650390625
462;250.9831085205078
463;250.25454711914062
464;249.52796936035156
465;248.8034210205078
466;248.08091735839844
467;247.35980224609375
468;246.6414031982422
469;245.92489624023438
470;245.20989990234375
471;244.4975128173828
472;243.78709411621094
473;243.07861328125
474;242.37164306640625
475;241.66722106933594
476;240.96484375
477;240.26382446289062
478;239.56529235839844
479;238.8688201904297
480;238.17373657226562
481;237.48060607910156
482;236.7894744873047
483;236.10081481933594
484;235.41354370117188
485;234.72821044921875
486;234.04486083984375
487;233.3634490966797
488;232.6840057373047
489;232.0063934326172
490;231.33132934570312
491;230.658203125
492;229.98638916015625
493;229.31655883789062
494;228.6491241455078
495;227.9831085205078
496;227.31893920898438
497;226.6566925048828
498;225.99684143066406
499;225.33837890625
500;224.68234252929688
501;224.0281524658203
502;223.3753204345703
503;222.7248992919922
504;222.07626342773438
505;221.42904663085938
506;220.78419494628906
507;220.14071655273438
508;219.49954223632812
509;218.8601837158203
510;218.22222900390625
511;217.5861053466797
512;216.9523162841797
513;216.31982421875
514;215.68966674804688
515;215.06088256835938
516;214.43434143066406
517;213.80963134765625
518;213.18624877929688
519;212.5651397705078
520;211.94537353515625
521;211.3274383544922
522;210.71128845214844
523;210.09690856933594
524;209.48477172851562
525;208.87437438964844
526;208.265380859375
527;207.65855407714844
528;207.0535125732422
529;206.4501953125
530;205.84823608398438
531;205.24847412109375
532;204.65005493164062
533;204.05374145507812
534;203.4588165283203
535;202.86558532714844
536;202.27452087402344
537;201.6852264404297
538;201.09719848632812
539;200.5109100341797
540;199.92630004882812
541;199.34384155273438
542;198.7627410888672
543;198.18328857421875
544;197.60556030273438
545;197.0299530029297
546;196.45562744140625
547;195.88299560546875
548;195.3124237060547
549;194.74319458007812
550;194.17601013183594
551;193.61048889160156
552;193.0462188720703
553;192.4840545654297
554;191.92320251464844
555;191.3639678955078
556;190.80677795410156
557;190.25120544433594
558;189.6969757080078
559;189.14476013183594
560;188.59378051757812
561;188.0448455810547
562;187.49713134765625
563;186.95143127441406
564;186.40696716308594
565;185.86416625976562
566;185.32330322265625
567;184.78411865234375
568;184.24652099609375
569;183.71017456054688
570;183.17578125
571;182.64297485351562
572;182.11146545410156
573;181.58184814453125
574;181.05384826660156
575;180.52740478515625
576;180.00257873535156
577;179.47894287109375
578;178.95692443847656
579;178.43649291992188
580;177.91761779785156
581;177.40029907226562
582;176.88482666015625
583;176.37094116210938
584;175.85836791992188
585;175.3472442626953
586;174.8376922607422
587;174.32968139648438
588;173.8235626220703
589;173.31893920898438
590;172.81556701660156
591;172.31369018554688
592;171.81365966796875
593;171.3151397705078
594;170.81785583496094
595;170.32237243652344
596;169.82843017578125
597;169.33596801757812
598;168.8450164794922
599;168.3552703857422
600;167.86729431152344
601;167.3805389404297
602;166.895263671875
603;166.41151428222656
604;165.9294891357422
605;165.44895935058594
606;164.96958923339844
607;164.49200439453125
608;164.01565551757812
609;163.54100036621094
610;163.06781005859375
611;162.5957794189453
612;162.1255340576172
613;161.65643310546875
614;161.1890411376953
615;160.72312927246094
616;160.25863647460938
617;159.79530334472656
618;159.33364868164062
619;158.87347412109375
620;158.41473388671875
621;157.9571075439453
622;157.50094604492188
623;157.04615783691406
624;156.5930938720703
625;156.14141845703125
626;155.6908721923828
627;155.2420196533203
628;154.79457092285156
629;154.34823608398438
630;153.90353393554688
631;153.4602508544922
632;153.01812744140625
633;152.5773468017578
634;152.1379852294922
635;151.69996643066406
636;151.2633514404297
637;150.82835388183594
638;150.39447021484375
639;149.962158203125
640;149.53099060058594
641;149.10147094726562
642;148.67323303222656
643;148.24635314941406
644;147.8208770751953
645;147.39646911621094
646;146.97340393066406
647;146.55191040039062
648;146.1315460205078
649;145.71253967285156
650;145.29501342773438
651;144.87864685058594
652;144.46353149414062
653;144.050048828125
654;143.63778686523438
655;143.22689819335938
656;142.81712341308594
657;142.40882873535156
658;142.00164794921875
659;141.59597778320312
660;141.1915740966797
661;140.7882843017578
662;140.3865203857422
663;139.98597717285156
664;139.58653259277344
665;139.18838500976562
666;138.79151916503906
667;138.39593505859375
668;138.00157165527344
669;137.60858154296875
670;137.21676635742188
671;136.82643127441406
672;136.43714904785156
673;136.04934692382812
674;135.66261291503906
675;135.27708435058594
676;134.89303588867188
677;134.51023864746094
678;134.12844848632812
679;133.7479248046875
680;133.36866760253906
681;132.99057006835938
682;132.6139373779297
683;132.23854064941406
684;131.86431884765625
685;131.49136352539062
686;131.11944580078125
687;130.74868774414062
688;130.3793487548828
689;130.01124572753906
690;129.64431762695312
691;129.27857971191406
692;128.91407775878906
693;128.55056762695312
694;128.18824768066406
695;127.82732391357422
696;127.46735382080078
697;127.10860443115234
698;126.75125122070312
699;126.39482116699219
700;126.03959655761719
701;125.68575286865234
702;125.3328628540039
703;124.98117065429688
704;124.63079071044922
705;124.28141021728516
706;123.93338012695312
707;123.58629608154297
708;123.24056243896484
709;122.89579772949219
710;122.55233001708984
711;122.21000671386719
712;121.86885070800781
713;121.52863311767578
714;121.18972778320312
715;120.85181427001953
716;120.51497650146484
717;120.17948913574219
718;119.84493255615234
719;119.51167297363281
720;119.17947387695312
721;118.84827423095703
722;118.51820373535156
723;118.189208984375
724;117.86148071289062
725;117.53487396240234
726;117.20935821533203
727;116.88478088378906
728;116.56129455566406
729;116.2389144897461
730;115.91761779785156
731;115.59752655029297
732;115.278564453125
733;114.96066284179688
734;114.6436767578125
735;114.32791137695312
736;114.01325225830078
737;113.69950866699219
738;113.38681030273438
739;113.07518005371094
740;112.7646484375
741;112.45510864257812
742;112.14679718017578
743;111.83956909179688
744;111.533203125
745;111.22791290283203
746;110.9238052368164
747;110.62060546875
748;110.31840515136719
749;110.01730346679688
750;109.71720123291016
751;109.41825866699219
752;109.12022399902344
753;108.8232192993164
754;108.52734375
755;108.23249053955078
756;107.93867492675781
757;107.64586639404297
758;107.35408782958984
759;107.0631332397461
760;106.77322387695312
761;106.48445892333984
762;106.19651794433594
763;105.90973663330078
764;105.62397003173828
765;105.33918762207031
766;105.05537414550781
767;104.77254486083984
768;104.49071502685547
769;104.2098617553711
770;103.92984771728516
771;103.6509780883789
772;103.37294006347656
773;103.09597778320312
774;102.81999206542969
775;102.54497528076172
776;102.27092742919922
777;101.99771881103516
778;101.72547149658203
779;101.45433044433594
780;101.18396759033203
781;100.9146957397461
782;100.64627838134766
783;100.37889099121094
784;100.11246490478516
785;99.84696960449219
786;99.58243560791016
787;99.31871032714844
788;99.05591583251953
789;98.79415893554688
790;98.53323364257812
791;98.27320861816406
792;98.01412963867188
793;97.75606536865234
794;97.49884796142578
795;97.24247741699219
796;96.9871826171875
797;96.73269653320312
798;96.47908782958984
799;96.22640991210938
800;95.9747085571289
801;95.72383117675781
802;95.47396087646484
803;95.22496795654297
804;94.97688293457031
805;94.72966766357422
806;94.48332977294922
807;94.23782348632812
808;93.9932861328125
809;93.74952697753906
810;93.5067367553711
811;93.26482391357422
812;93.02368927001953
813;92.78349304199219
814;92.54410552978516
815;92.30559539794922
816;92.06800842285156
817;91.83130645751953
818;91.5953598022461
819;91.36028289794922
820;91.12615203857422
821;90.89286804199219
822;90.66038513183594
823;90.42872619628906
824;90.19788360595703
825;89.96798706054688
826;89.73883819580078
827;89.51052856445312
828;89.28311920166016
829;89.05655670166016
830;88.83082580566406
831;88.60594177246094
832;88.3818588256836
833;88.1585922241211
834;87.93614959716797
835;87.71453094482422
836;87.49373626708984
837;87.27375793457031
838;87.05460357666016
839;86.83622741699219
840;86.61857604980469
841;86.40182495117188
842;86.18586730957031
843;85.97069549560547
844;85.75627899169922
845;85.54263305664062
846;85.32978820800781
847;85.11780548095703
848;84.90662384033203
849;84.69613647460938
850;84.48652648925781
851;84.27761840820312
852;84.06954956054688
853;83.86221313476562
854;83.65563201904297
855;83.44989776611328
856;83.24492645263672
857;83.0406723022461
858;82.83723449707031
859;82.63450622558594
860;82.43260192871094
861;82.23146057128906
862;82.03104400634766
863;81.83134460449219
864;81.6324691772461
865;81.4343490600586
866;81.23690795898438
867;81.04019165039062
868;80.84420776367188
869;80.64899444580078
870;80.45451354980469
871;80.26085662841797
872;80.06790161132812
873;79.87571716308594
874;79.68416595458984
875;79.49335479736328
876;79.30326843261719
877;79.11394500732422
878;78.92532348632812
879;78.73745727539062
880;78.55026245117188
881;78.36384582519531
882;78.17813873291016
883;77.99312591552734
884;77.80884552001953
885;77.6252670288086
886;77.44231414794922
887;77.26009368896484
888;77.07852935791016
889;76.89772033691406
890;76.71755981445312
891;76.53816986083984
892;76.3594741821289
893;76.1814193725586
894;76.00411987304688
895;75.82748413085938
896;75.6514663696289
897;75.47615051269531
898;75.30155944824219
899;75.12760162353516
900;74.95436096191406
901;74.78181457519531
902;74.60993957519531
903;74.43864440917969
904;74.26809692382812
905;74.09822845458984
906;73.92898559570312
907;73.76036834716797
908;73.5924301147461
909;73.42511749267578
910;73.25852966308594
911;73.09258270263672
912;72.92731475830078
913;72.76261138916016
914;72.59858703613281
915;72.43522644042969
916;72.27247619628906
917;72.11035919189453
918;71.94890594482422
919;71.78804779052734
920;71.62784576416016
921;71.46834564208984
922;71.30937957763672
923;71.15109252929688
924;70.99342346191406
925;70.8364028930664
926;70.6800308227539
927;70.52428436279297
928;70.36912536621094
929;70.21456146240234
930;70.0606460571289
931;69.9073715209961
932;69.754638671875
933;69.60255432128906
934;69.45103454589844
935;69.3001480102539
936;69.14981842041016
937;69.00019836425781
938;68.85107421875
939;68.70256805419922
940;68.55467987060547
941;68.40736389160156
942;68.26069641113281
943;68.11458587646484
944;67.96903228759766
945;67.82408905029297
946;67.67971801757812
947;67.53594207763672
948;67.39277648925781
949;67.25016784667969
950;67.10811614990234
951;66.9666976928711
952;66.8258056640625
953;66.68547821044922
954;66.54576873779297
955;66.40663146972656
956;66.26805877685547
957;66.13005065917969
958;65.99256896972656
959;65.85563659667969
960;65.71930694580078
961;65.58349609375
962;65.44827270507812
963;65.31362915039062
964;65.17951965332031
965;65.04597473144531
966;64.91291046142578
967;64.7804183959961
968;64.64848327636719
969;64.5171127319336
970;64.38628387451172
971;64.25599670410156
972;64.1261978149414
973;63.996986389160156
974;63.86824417114258
975;63.740047454833984
976;63.6124382019043
977;63.48530197143555
978;63.358741760253906
979;63.23265075683594
980;63.10710525512695
981;62.98209762573242
982;62.85757827758789
983;62.733585357666016
984;62.61012268066406
985;62.48716735839844
986;62.36474609375
987;62.24281311035156
988;62.12141036987305
989;62.00048065185547
990;61.88011169433594
991;61.760196685791016
992;61.64078140258789
993;61.521873474121094
994;61.40347671508789
995;61.28559494018555
996;61.16822052001953
997;61.051334381103516
998;60.934913635253906
999;60.8189697265625
1000;60.70353317260742
1001;60.58857345581055
1002;60.4741325378418
1003;60.36014175415039
1004;60.24665451049805
1005;60.133609771728516
1006;60.0211181640625
1007;59.90904998779297
1008;59.79750061035156
1009;59.68640899658203
1010;59.57582092285156
1011;59.46564865112305
1012;59.3559455871582
1013;59.24675369262695
1014;59.13803482055664
1015;59.02975082397461
1016;58.92195129394531
1017;58.814598083496094
1018;58.70770263671875
1019;58.601261138916016
1020;58.49528121948242
1021;58.38972473144531
1022;58.28470230102539
1023;58.1800537109375
1024;58.07589340209961
1025;57.97218704223633
1026;57.86890411376953
1027;57.76609802246094
1028;57.663734436035156
1029;57.56178283691406
1030;57.46029281616211
1031;57.3592529296875
1032;57.25862503051758
1033;57.158447265625
1034;57.0587043762207
1035;56.959388732910156
1036;56.86050796508789
1037;56.76205062866211
1038;56.66405487060547
1039;56.56648635864258
1040;56.46931838989258
1041;56.372596740722656
1042;56.27628707885742
1043;56.180397033691406
1044;56.08488082885742
1045;55.98983383178711
1046;55.89521789550781
1047;55.80101013183594
1048;55.707176208496094
1049;55.61378479003906
1050;55.52079391479492
1051;55.42823028564453
1052;55.33604431152344
1053;55.24430465698242
1054;55.152931213378906
1055;55.061988830566406
1056;54.9714469909668
1057;54.88127517700195
1058;54.791526794433594
1059;54.702205657958984
1060;54.61327362060547
1061;54.52471923828125
1062;54.43650817871094
1063;54.348777770996094
1064;54.261375427246094
1065;54.17438888549805
1066;54.08780288696289
1067;54.001564025878906
1068;53.91570281982422
1069;53.830265045166016
1070;53.74519729614258
1071;53.66054916381836
1072;53.57623291015625
1073;53.49231719970703
1074;53.408729553222656
1075;53.32556915283203
1076;53.24275207519531
1077;53.160335540771484
1078;53.07829666137695
1079;52.99662399291992
1080;52.915287017822266
1081;52.83433532714844
1082;52.75374984741211
1083;52.67354965209961
1084;52.593685150146484
1085;52.51420211791992
1086;52.43510818481445
1087;52.3563232421875
1088;52.277931213378906
1089;52.19986343383789
1090;52.12216567993164
1091;52.04480743408203
1092;51.967796325683594
1093;51.89112854003906
1094;51.81482696533203
1095;51.73885726928711
1096;51.663272857666016
1097;51.5880012512207
1098;51.513084411621094
1099;51.43854522705078
1100;51.364315032958984
1101;51.29042053222656
1102;51.216896057128906
1103;51.14368438720703
1104;51.070796966552734
1105;50.99830627441406
1106;50.92611312866211
1107;50.854248046875
1108;50.78269958496094
1109;50.71150588989258
1110;50.64064025878906
1111;50.57011032104492
1112;50.4998893737793
1113;50.43000411987305
1114;50.360416412353516
1115;50.291160583496094
1116;50.222267150878906
1117;50.15367889404297
1118;50.085365295410156
1119;50.017398834228516
1120;49.94978713989258
1121;49.88246536254883
1122;49.81543731689453
1123;49.74873352050781
1124;49.68233871459961
1125;49.616249084472656
1126;49.550479888916016
1127;49.48502731323242
1128;49.41986083984375
1129;49.35499572753906
1130;49.29048156738281
1131;49.226219177246094
1132;49.162269592285156
1133;49.098655700683594
1134;49.03532791137695
1135;48.97228240966797
1136;48.90953063964844
1137;48.847110748291016
1138;48.78495407104492
1139;48.723121643066406
1140;48.661563873291016
1141;48.60029220581055
1142;48.53932189941406
1143;48.47863006591797
1144;48.41822052001953
1145;48.358131408691406
1146;48.29832077026367
1147;48.23876953125
1148;48.17951202392578
1149;48.12053298950195
1150;48.06184387207031
1151;48.00342559814453
1152;47.94532012939453
1153;47.887454986572266
1154;47.829898834228516
1155;47.772621154785156
1156;47.71561050415039
1157;47.658870697021484
1158;47.60238265991211
1159;47.54618453979492
1160;47.49026870727539
1161;47.43458557128906
1162;47.37920379638672
1163;47.32408142089844
1164;47.26921463012695
1165;47.21461486816406
1166;47.1602783203125
1167;47.106224060058594
1168;47.05242156982422
1169;46.99885940551758
1170;46.94558334350586
1171;46.892555236816406
1172;46.83979415893555
1173;46.787288665771484
1174;46.73501968383789
1175;46.683048248291016
1176;46.63130187988281
1177;46.579811096191406
1178;46.52859115600586
1179;46.47758102416992
1180;46.42684555053711
1181;46.37636184692383
1182;46.32612609863281
1183;46.2761116027832
1184;46.22637176513672
1185;46.1768798828125
1186;46.127628326416016
1187;46.07860565185547
1188;46.02981948852539
1189;45.98128890991211
1190;45.93301010131836
1191;45.88495635986328
1192;45.83715057373047
1193;45.78955841064453
1194;45.74220657348633
1195;45.695091247558594
1196;45.648216247558594
1197;45.6015625
1198;45.55516052246094
1199;45.508968353271484
1200;45.46302795410156
1201;45.417293548583984
1202;45.371803283691406
1203;45.32652282714844
1204;45.281494140625
1205;45.23667526245117
1206;45.19208908081055
1207;45.14772033691406
1208;45.10359573364258
1209;45.05965805053711
1210;45.01596450805664
1211;44.97248458862305
1212;44.929222106933594
1213;44.88618469238281
1214;44.843360900878906
1215;44.80074691772461
1216;44.758338928222656
1217;44.716148376464844
1218;44.67418670654297
1219;44.632423400878906
1220;44.590885162353516
1221;44.5495491027832
1222;44.50840759277344
1223;44.46751403808594
1224;44.42677688598633
1225;44.38628005981445
1226;44.34599685668945
1227;44.3058967590332
1228;44.26600646972656
1229;44.226318359375
1230;44.186824798583984
1231;44.14753341674805
1232;44.108463287353516
1233;44.06958770751953
1234;44.03089904785156
1235;43.99241638183594
1236;43.95411682128906
1237;43.91603088378906
1238;43.87813949584961
1239;43.8404541015625
1240;43.802940368652344
1241;43.765625
1242;43.72850036621094
1243;43.69157409667969
1244;43.65484619140625
1245;43.618282318115234
1246;43.58192443847656
1247;43.54576873779297
1248;43.50978088378906
1249;43.47398376464844
1250;43.4383544921875
1251;43.4029541015625
1252;43.36769485473633
1253;43.332637786865234
1254;43.29775619506836
1255;43.263065338134766
1256;43.22855758666992
1257;43.194217681884766
1258;43.16006088256836
1259;43.126060485839844
1260;43.09226989746094
1261;43.05864334106445
1262;43.02519607543945
1263;42.99190139770508
1264;42.95881271362305
1265;42.9258918762207
1266;42.89312744140625
1267;42.860557556152344
1268;42.828147888183594
1269;42.79591369628906
1270;42.763832092285156
1271;42.73194122314453
1272;42.70020294189453
1273;42.66862869262695
1274;42.63722229003906
1275;42.60599899291992
1276;42.57493591308594
1277;42.54401779174805
1278;42.513282775878906
1279;42.48270034790039
1280;42.45227813720703
1281;42.42205047607422
1282;42.39195251464844
1283;42.36201095581055
1284;42.33225631713867
1285;42.30263900756836
1286;42.2731819152832
1287;42.243896484375
1288;42.21474075317383
1289;42.18575668334961
1290;42.15694808959961
1291;42.12826156616211
1292;42.0997314453125
1293;42.07136154174805
1294;42.04315948486328
1295;42.015079498291016
1296;41.98714828491211
1297;41.95939636230469
1298;41.93177032470703
1299;41.90433120727539
1300;41.87700271606445
1301;41.84983444213867
1302;41.822818756103516
1303;41.79594421386719
1304;41.76918411254883
1305;41.742618560791016
1306;41.71617126464844
1307;41.689884185791016
1308;41.66373825073242
1309;41.63771057128906
1310;41.61182403564453
1311;41.586116790771484
1312;41.56053161621094
1313;41.535057067871094
1314;41.5097541809082
1315;41.48456573486328
1316;41.459529876708984
1317;41.43464279174805
1318;41.40987777709961
1319;41.38523864746094
1320;41.36076354980469
1321;41.336387634277344
1322;41.312156677246094
1323;41.28807830810547
1324;41.26411819458008
1325;41.24029541015625
1326;41.21658706665039
1327;41.193016052246094
1328;41.16958999633789
1329;41.14627456665039
1330;41.12309646606445
1331;41.100040435791016
1332;41.07711410522461
1333;41.0543212890625
1334;41.03165054321289
1335;41.00910949707031
1336;40.986690521240234
1337;40.96440505981445
1338;40.94224166870117
1339;40.92015838623047
1340;40.89824676513672
1341;40.87644958496094
1342;40.85477066040039
1343;40.83320236206055
1344;40.81175994873047
1345;40.79043960571289
1346;40.76924514770508
1347;40.74814987182617
1348;40.72718811035156
1349;40.70634078979492
1350;40.68560028076172
1351;40.66498565673828
1352;40.644474029541016
1353;40.62409591674805
1354;40.60383224487305
1355;40.583683013916016
1356;40.56364440917969
1357;40.54371643066406
1358;40.5239143371582
1359;40.50419235229492
1360;40.484615325927734
1361;40.46513748168945
1362;40.44575500488281
1363;40.426513671875
1364;40.407344818115234
1365;40.388301849365234
1366;40.3693733215332
1367;40.35052490234375
1368;40.33182907104492
1369;40.313194274902344
1370;40.29470443725586
1371;40.27629852294922
1372;40.25799560546875
1373;40.239810943603516
1374;40.22172164916992
1375;40.2037353515625
1376;40.185848236083984
1377;40.168052673339844
1378;40.150390625
1379;40.132808685302734
1380;40.11532974243164
1381;40.097957611083984
1382;40.080684661865234
1383;40.06351089477539
1384;40.04643630981445
1385;40.02946090698242
1386;40.0125732421875
1387;39.995792388916016
1388;39.979103088378906
1389;39.96250534057617
1390;39.94600296020508
1391;39.92959976196289
1392;39.913307189941406
1393;39.89710235595703
1394;39.88098907470703
1395;39.86495590209961
1396;39.84904479980469
1397;39.83320236206055
1398;39.81745529174805
1399;39.80180740356445
1400;39.78624725341797
1401;39.77078628540039
1402;39.75537872314453
1403;39.74010467529297
1404;39.72490310668945
1405;39.709781646728516
1406;39.69476318359375
1407;39.679832458496094
1408;39.66499328613281
1409;39.65021896362305
1410;39.63554763793945
1411;39.620948791503906
1412;39.60646057128906
1413;39.59204864501953
1414;39.57771682739258
1415;39.5634765625
1416;39.549312591552734
1417;39.53522872924805
1418;39.52123260498047
1419;39.50730895996094
1420;39.49348831176758
1421;39.4797248840332
1422;39.466068267822266
1423;39.45248031616211
1424;39.4389762878418
1425;39.42555236816406
1426;39.412208557128906
1427;39.39893341064453
1428;39.385765075683594
1429;39.3726692199707
1430;39.359622955322266
1431;39.346675872802734
1432;39.333797454833984
1433;39.32099533081055
1434;39.30827713012695
1435;39.295631408691406
1436;39.28306579589844
1437;39.270565032958984
1438;39.25814437866211
1439;39.24580383300781
1440;39.23352813720703
1441;39.22133255004883
1442;39.20922088623047
1443;39.197166442871094
1444;39.18518829345703
1445;39.17327880859375
1446;39.16143035888672
1447;39.14968490600586
1448;39.138004302978516
1449;39.12636947631836
1450;39.11482238769531
1451;39.10334396362305
1452;39.09193420410156
1453;39.08059310913086
1454;39.069313049316406
1455;39.05810546875
1456;39.0469856262207
1457;39.03593063354492
1458;39.024906158447266
1459;39.013973236083984
1460;39.003108978271484
1461;38.99231719970703
1462;38.98158264160156
1463;38.970924377441406
1464;38.96031951904297
1465;38.94976806640625
1466;38.939308166503906
1467;38.928897857666016
1468;38.91855239868164
1469;38.908260345458984
1470;38.89803695678711
1471;38.88789367675781
1472;38.8777961730957
1473;38.867774963378906
1474;38.857791900634766
1475;38.84789276123047
1476;38.838050842285156
1477;38.828243255615234
1478;38.81852340698242
1479;38.80887222290039
1480;38.79924774169922
1481;38.78970718383789
1482;38.78022384643555
1483;38.77080154418945
1484;38.76142501831055
1485;38.75212097167969
1486;38.742862701416016
1487;38.73367691040039
1488;38.72452926635742
1489;38.715450286865234
1490;38.70641326904297
1491;38.69744873046875
1492;38.68854522705078
1493;38.67967987060547
1494;38.67088317871094
1495;38.66214370727539
1496;38.6534538269043
1497;38.64480972290039
1498;38.636234283447266
1499;38.62770080566406
