;loss
0;1395.739013671875
1;1394.8848876953125
2;1393.7406005859375
3;1392.600341796875
4;1391.4627685546875
5;1390.3267822265625
6;1389.1907958984375
7;1388.052978515625
8;1386.9117431640625
9;1385.7645263671875
10;1384.609619140625
11;1383.4439697265625
12;1382.2642822265625
13;1381.066650390625
14;1379.8492431640625
15;1378.6094970703125
16;1377.3450927734375
17;1376.0643310546875
18;1374.755126953125
19;1373.4005126953125
20;1372.0098876953125
21;1370.5950927734375
22;1369.1221923828125
23;1367.602294921875
24;1366.0323486328125
25;1364.406982421875
26;1362.7420654296875
27;1361.013916015625
28;1359.2174072265625
29;1357.324951171875
30;1355.35107421875
31;1353.288818359375
32;1351.13134765625
33;1348.870849609375
34;1346.497802734375
35;1344.0025634765625
36;1341.4046630859375
37;1338.63427734375
38;1335.7398681640625
39;1332.644287109375
40;1329.3626708984375
41;1325.8773193359375
42;1322.169189453125
43;1318.216064453125
44;1313.993896484375
45;1309.5211181640625
46;1304.72705078125
47;1299.5274658203125
48;1293.929443359375
49;1287.889892578125
50;1281.3607177734375
51;1274.287109375
52;1266.6070556640625
53;1258.2540283203125
54;1249.153076171875
55;1239.30908203125
56;1228.4664306640625
57;1216.6099853515625
58;1203.6463623046875
59;1189.4822998046875
60;1174.1583251953125
61;1157.3760986328125
62;1139.3699951171875
63;1119.90087890625
64;1099.218994140625
65;1077.54931640625
66;1055.242431640625
67;1032.928466796875
68;1010.863525390625
69;990.0101318359375
70;970.9640502929688
71;953.748291015625
72;938.6224365234375
73;925.4884643554688
74;914.1427612304688
75;904.3499755859375
76;895.7371215820312
77;887.9889526367188
78;881.0020141601562
79;874.5044555664062
80;868.4727783203125
81;862.7593383789062
82;857.316162109375
83;852.1036376953125
84;847.110107421875
85;842.2909545898438
86;837.6361083984375
87;833.1292724609375
88;828.759765625
89;824.521240234375
90;820.3829956054688
91;816.3607788085938
92;812.4442749023438
93;808.6453247070312
94;804.9387817382812
95;801.3177490234375
96;797.7601928710938
97;794.2975463867188
98;790.8919067382812
99;787.5545654296875
100;784.296875
101;781.0848999023438
102;777.9442749023438
103;774.8422241210938
104;771.7906494140625
105;768.7860107421875
106;765.8257446289062
107;762.920166015625
108;760.0409545898438
109;757.1986083984375
110;754.3911743164062
111;751.6168212890625
112;748.873046875
113;746.1580810546875
114;743.4700317382812
115;740.8075561523438
116;738.1688842773438
117;735.5528564453125
118;732.9688110351562
119;730.3946533203125
120;727.840087890625
121;725.3040161132812
122;722.7858276367188
123;720.2939453125
124;717.8091430664062
125;715.3489379882812
126;712.8948364257812
127;710.4555053710938
128;708.030517578125
129;705.6279907226562
130;703.2391357421875
131;700.8638916015625
132;698.4935913085938
133;696.1369018554688
134;693.7933349609375
135;691.470703125
136;689.1525268554688
137;686.8469848632812
138;684.5538940429688
139;682.2728881835938
140;680.00390625
141;677.754150390625
142;675.5088500976562
143;673.2753295898438
144;671.0606689453125
145;668.857177734375
146;666.6651000976562
147;664.4845581054688
148;662.308837890625
149;660.1511840820312
150;657.9984130859375
151;655.8570556640625
152;653.726806640625
153;651.6078491210938
154;649.5003051757812
155;647.4038696289062
156;645.3248291015625
157;643.2566528320312
158;641.1932983398438
159;639.146728515625
160;637.1049194335938
161;635.0794677734375
162;633.0586547851562
163;631.0538940429688
164;629.0538330078125
165;627.0642700195312
166;625.0902099609375
167;623.1262817382812
168;621.166748046875
169;619.2221069335938
170;617.2867431640625
171;615.3553466796875
172;613.4381713867188
173;611.5248413085938
174;609.6205444335938
175;607.7250366210938
176;605.8384399414062
177;603.9654541015625
178;602.0960693359375
179;600.2352905273438
180;598.3875732421875
181;596.5479736328125
182;594.716552734375
183;592.8885498046875
184;591.0729370117188
185;589.2606811523438
186;587.460693359375
187;585.6639404296875
188;583.874755859375
189;582.0974731445312
190;580.3233032226562
191;578.5565795898438
192;576.8012084960938
193;575.0530395507812
194;573.3119506835938
195;571.5780029296875
196;569.846923828125
197;568.122802734375
198;566.4055786132812
199;564.6952514648438
200;562.9917602539062
201;561.2947998046875
202;559.6044921875
203;557.9244995117188
204;556.247314453125
205;554.5802612304688
206;552.916015625
207;551.2579956054688
208;549.6064453125
209;547.964599609375
210;546.3287353515625
211;544.6990356445312
212;543.0719604492188
213;541.4542236328125
214;539.8391723632812
215;538.2332763671875
216;536.6331787109375
217;535.0388793945312
218;533.447021484375
219;531.8609619140625
220;530.2804565429688
221;528.7056274414062
222;527.1395263671875
223;525.5758666992188
224;524.0177612304688
225;522.4651489257812
226;520.9180297851562
227;519.3793334960938
228;517.8430786132812
229;516.3123168945312
230;514.7899169921875
231;513.2699584960938
232;511.7552795410156
233;510.2486267089844
234;508.7442626953125
235;507.2477722167969
236;505.7535705566406
237;504.2671813964844
238;502.78302001953125
239;501.30377197265625
240;499.83221435546875
241;498.3629455566406
242;496.8985900878906
243;495.4391784667969
244;493.9845275878906
245;492.5346374511719
246;491.0921325683594
247;489.65435791015625
248;488.21868896484375
249;486.7876892089844
250;485.3638610839844
251;483.9447326660156
252;482.52764892578125
253;481.11517333984375
254;479.7073059082031
255;478.3039855957031
256;476.90521240234375
257;475.5132751464844
258;474.12579345703125
259;472.7427062988281
260;471.3617858886719
261;469.98760986328125
262;468.6176452636719
263;467.25201416015625
264;465.8907775878906
265;464.53375244140625
266;463.18096923828125
267;461.83013916015625
268;460.48358154296875
269;459.14337158203125
270;457.8052062988281
271;456.47332763671875
272;455.14337158203125
273;453.81744384765625
274;452.4956359863281
275;451.1778564453125
276;449.86419677734375
277;448.5566711425781
278;447.25091552734375
279;445.94921875
280;444.6515197753906
281;443.3576965332031
282;442.06982421875
283;440.7838439941406
284;439.50177001953125
285;438.22540283203125
286;436.95098876953125
287;435.6822814941406
288;434.41546630859375
289;433.1524658203125
290;431.8932189941406
291;430.6376953125
292;429.3860168457031
293;428.1380310058594
294;426.8936767578125
295;425.6548767089844
296;424.41790771484375
297;423.1846008300781
298;421.95501708984375
299;420.7292175292969
300;419.50689697265625
301;418.2884216308594
302;417.0733947753906
303;415.8637390136719
304;414.6560363769531
305;413.4535217285156
306;412.2545471191406
307;411.0590515136719
308;409.8653564453125
309;408.67529296875
310;407.490234375
311;406.3085632324219
312;405.1304626464844
313;403.9556884765625
314;402.7843017578125
315;401.61639404296875
316;400.4517517089844
317;399.29058837890625
318;398.13275146484375
319;396.9782409667969
320;395.82708740234375
321;394.6776428222656
322;393.5316162109375
323;392.3903503417969
324;391.2523498535156
325;390.1176452636719
326;388.9862060546875
327;387.8580017089844
328;386.73162841796875
329;385.60986328125
330;384.4913330078125
331;383.37457275390625
332;382.2624206542969
333;381.15216064453125
334;380.044921875
335;378.94232177734375
336;377.8414611816406
337;376.7438049316406
338;375.6492004394531
339;374.5577697753906
340;373.4693908691406
341;372.3843078613281
342;371.3021240234375
343;370.2231750488281
344;369.1471862792969
345;368.07427978515625
346;367.0044860839844
347;365.93902587890625
348;364.8752746582031
349;363.8158874511719
350;362.7581481933594
351;361.7046203613281
352;360.6529846191406
353;359.60430908203125
354;358.5598449707031
355;357.5182800292969
356;356.47967529296875
357;355.44281005859375
358;354.4088439941406
359;353.3778991699219
360;352.3498840332031
361;351.3258972167969
362;350.3036193847656
363;349.2842712402344
364;348.2677917480469
365;347.2542419433594
366;346.2434997558594
367;345.2356872558594
368;344.2317810058594
369;343.2306823730469
370;342.23138427734375
371;341.23602294921875
372;340.2423095703125
373;339.2514343261719
374;338.2633361816406
375;337.2792053222656
376;336.2977600097656
377;335.3180236816406
378;334.3421630859375
379;333.3690185546875
380;332.3985595703125
381;331.4309387207031
382;330.46600341796875
383;329.5037841796875
384;328.5432434082031
385;327.5854797363281
386;326.63031005859375
387;325.6789245605469
388;324.73016357421875
389;323.78411865234375
390;322.8397521972656
391;321.89801025390625
392;320.958984375
393;320.0235290527344
394;319.08978271484375
395;318.15869140625
396;317.2301330566406
397;316.3052673339844
398;315.3829345703125
399;314.4622802734375
400;313.5442199707031
401;312.62969970703125
402;311.7167663574219
403;310.8065185546875
404;309.8996887207031
405;308.9953918457031
406;308.0928039550781
407;307.1927185058594
408;306.29608154296875
409;305.4019775390625
410;304.5094909667969
411;303.6204528808594
412;302.7330017089844
413;301.8489685058594
414;300.9674072265625
415;300.0874938964844
416;299.21002197265625
417;298.3350830078125
418;297.46270751953125
419;296.5926513671875
420;295.7250671386719
421;294.86083984375
422;293.9989929199219
423;293.13958740234375
424;292.2826843261719
425;291.4281311035156
426;290.57598876953125
427;289.7254638671875
428;288.8782043457031
429;288.03253173828125
430;287.1891784667969
431;286.3482666015625
432;285.509765625
433;284.6744079589844
434;283.8414001464844
435;283.0100402832031
436;282.1809997558594
437;281.35430908203125
438;280.52996826171875
439;279.70794677734375
440;278.8890380859375
441;278.07244873046875
442;277.2574462890625
443;276.4447326660156
444;275.6350402832031
445;274.8269958496094
446;274.0219421386719
447;273.21844482421875
448;272.4172668457031
449;271.6190490722656
450;270.8231201171875
451;270.0287170410156
452;269.2372741699219
453;268.44818115234375
454;267.6606140136719
455;266.8759460449219
456;266.0934753417969
457;265.3126220703125
458;264.5339660644531
459;263.7575988769531
460;262.98333740234375
461;262.21142578125
462;261.4422607421875
463;260.6753845214844
464;259.91064453125
465;259.1474609375
466;258.38641357421875
467;257.6276550292969
468;256.87103271484375
469;256.1165771484375
470;255.36428833007812
471;254.61476135253906
472;253.86672973632812
473;253.1208953857422
474;252.377197265625
475;251.63563537597656
476;250.8968048095703
477;250.15953063964844
478;249.42437744140625
479;248.6913299560547
480;247.96035766601562
481;247.2314910888672
482;246.50537109375
483;245.78131103515625
484;245.05874633789062
485;244.33828735351562
486;243.6199188232422
487;242.90415954589844
488;242.1905059814453
489;241.4788360595703
490;240.7693328857422
491;240.0618133544922
492;239.35581970214844
493;238.65185546875
494;237.94993591308594
495;237.2505645751953
496;236.55271911621094
497;235.857421875
498;235.16357421875
499;234.47230529785156
500;233.7830352783203
501;233.09527587890625
502;232.4094696044922
503;231.72567749023438
504;231.04440307617188
505;230.3645782470703
506;229.687255859375
507;229.01193237304688
508;228.3385467529297
509;227.66664123535156
510;226.99713134765625
511;226.32958984375
512;225.66357421875
513;224.99993896484375
514;224.33778381347656
515;223.6775665283203
516;223.01925659179688
517;222.36337280273438
518;221.70892333984375
519;221.0564422607422
520;220.40579223632812
521;219.7571258544922
522;219.11032104492188
523;218.46591186523438
524;217.8234100341797
525;217.18226623535156
526;216.54351806640625
527;215.90660095214844
528;215.27117919921875
529;214.63809204101562
530;214.00680541992188
531;213.37741088867188
532;212.74942016601562
533;212.1237335205078
534;211.49942016601562
535;210.8770294189453
536;210.25640869140625
537;209.63766479492188
538;209.0211944580078
539;208.40650939941406
540;207.79322814941406
541;207.1818084716797
542;206.5725555419922
543;205.9651336669922
544;205.3591766357422
545;204.75494384765625
546;204.1525421142578
547;203.55230712890625
548;202.9539031982422
549;202.35687255859375
550;201.7620086669922
551;201.16893005371094
552;200.57762145996094
553;199.98805236816406
554;199.40025329589844
555;198.81423950195312
556;198.22994995117188
557;197.64744567871094
558;197.066650390625
559;196.4875946044922
560;195.91030883789062
561;195.3346710205078
562;194.76087951660156
563;194.18870544433594
564;193.6183319091797
565;193.04925537109375
566;192.4818878173828
567;191.91664123535156
568;191.3527069091797
569;190.79046630859375
570;190.22991943359375
571;189.6710662841797
572;189.11390686035156
573;188.55844116210938
574;188.00502014160156
575;187.45289611816406
576;186.90245056152344
577;186.3537139892578
578;185.8065948486328
579;185.2615203857422
580;184.71774291992188
581;184.17591857910156
582;183.63577270507812
583;183.09730529785156
584;182.56039428710938
585;182.02487182617188
586;181.49095153808594
587;180.95896911621094
588;180.42864990234375
589;179.89955139160156
590;179.37210083007812
591;178.84628295898438
592;178.32241821289062
593;177.79978942871094
594;177.2787628173828
595;176.75936889648438
596;176.24154663085938
597;175.72535705566406
598;175.21066284179688
599;174.69766235351562
600;174.18646240234375
601;173.67657470703125
602;173.16854858398438
603;172.66177368164062
604;172.15687561035156
605;171.65322875976562
606;171.1511688232422
607;170.65093994140625
608;170.15199279785156
609;169.65452575683594
610;169.15892028808594
611;168.6648406982422
612;168.1722869873047
613;167.68130493164062
614;167.19180297851562
615;166.70358276367188
616;166.2170867919922
617;165.7318878173828
618;165.2482147216797
619;164.76596069335938
620;164.2855682373047
621;163.80665588378906
622;163.3289337158203
623;162.85299682617188
624;162.37832641601562
625;161.90530395507812
626;161.43386840820312
627;160.96385192871094
628;160.49534606933594
629;160.02825927734375
630;159.56265258789062
631;159.09852600097656
632;158.6355743408203
633;158.17434692382812
634;157.71458435058594
635;157.25601196289062
636;156.79913330078125
637;156.34368896484375
638;155.88967895507812
639;155.4368438720703
640;154.98568725585938
641;154.53599548339844
642;154.0877227783203
643;153.64059448242188
644;153.19488525390625
645;152.75059509277344
646;152.3076934814453
647;151.86624145507812
648;151.42617797851562
649;150.98753356933594
650;150.55029296875
651;150.11441040039062
652;149.6801300048828
653;149.24705505371094
654;148.81533813476562
655;148.38499450683594
656;147.95603942871094
657;147.52845764160156
658;147.10226440429688
659;146.67739868164062
660;146.25389099121094
661;145.831787109375
662;145.4109649658203
663;144.99180603027344
664;144.57394409179688
665;144.1572265625
666;143.74185180664062
667;143.32801818847656
668;142.91551208496094
669;142.504150390625
670;142.09432983398438
671;141.685791015625
672;141.2786407470703
673;140.87255859375
674;140.46780395507812
675;140.06436157226562
676;139.6623992919922
677;139.26177978515625
678;138.86244201660156
679;138.4641876220703
680;138.06744384765625
681;137.67181396484375
682;137.2776336669922
683;136.8845672607422
684;136.4927978515625
685;136.10226440429688
686;135.71324157714844
687;135.32546997070312
688;134.93894958496094
689;134.55374145507812
690;134.16976928710938
691;133.78684997558594
692;133.4052276611328
693;133.02484130859375
694;132.64585876464844
695;132.26815795898438
696;131.89149475097656
697;131.51629638671875
698;131.1422882080078
699;130.76953125
700;130.39804077148438
701;130.0275421142578
702;129.65829467773438
703;129.29025268554688
704;128.92347717285156
705;128.55804443359375
706;128.19366455078125
707;127.83063507080078
708;127.46868133544922
709;127.10808563232422
710;126.74872589111328
711;126.3903579711914
712;126.03317260742188
713;125.67719268798828
714;125.32257843017578
715;124.96896362304688
716;124.6165542602539
717;124.26531219482422
718;123.91539764404297
719;123.5665054321289
720;123.21878814697266
721;122.87220001220703
722;122.52681732177734
723;122.1825942993164
724;121.83968353271484
725;121.49777221679688
726;121.15697479248047
727;120.81754302978516
728;120.47904968261719
729;120.14173126220703
730;119.80554962158203
731;119.47048950195312
732;119.13655853271484
733;118.80377960205078
734;118.47209930419922
735;118.14173126220703
736;117.81230163574219
737;117.48400115966797
738;117.15682220458984
739;116.83077239990234
740;116.5059585571289
741;116.1821060180664
742;115.85936737060547
743;115.53771209716797
744;115.21715545654297
745;114.897705078125
746;114.57937622070312
747;114.26209259033203
748;113.946044921875
749;113.63095092773438
750;113.31709289550781
751;113.00428009033203
752;112.69255828857422
753;112.38176727294922
754;112.07219696044922
755;111.76365661621094
756;111.45609283447266
757;111.14972686767578
758;110.84436798095703
759;110.5399398803711
760;110.23658752441406
761;109.93428039550781
762;109.6331558227539
763;109.33307647705078
764;109.03390502929688
765;108.7357406616211
766;108.43863677978516
767;108.14257049560547
768;107.84754180908203
769;107.55350494384766
770;107.26067352294922
771;106.96870422363281
772;106.67788696289062
773;106.3880844116211
774;106.09916687011719
775;105.811279296875
776;105.52436828613281
777;105.23845672607422
778;104.95359802246094
779;104.66969299316406
780;104.38694763183594
781;104.10513305664062
782;103.82423400878906
783;103.5443344116211
784;103.265380859375
785;102.9874496459961
786;102.71060180664062
787;102.43473052978516
788;102.15971374511719
789;101.88581848144531
790;101.61282348632812
791;101.34073638916016
792;101.06961059570312
793;100.7994384765625
794;100.53022766113281
795;100.26197814941406
796;99.99465942382812
797;99.72830963134766
798;99.46292114257812
799;99.1985855102539
800;98.9351806640625
801;98.67272186279297
802;98.41111755371094
803;98.1504898071289
804;97.89085388183594
805;97.63211822509766
806;97.37433624267578
807;97.1174545288086
808;96.86152648925781
809;96.60649108886719
810;96.35227966308594
811;96.09907531738281
812;95.84669494628906
813;95.59532928466797
814;95.34474182128906
815;95.0951919555664
816;94.84642791748047
817;94.59856414794922
818;94.35160827636719
819;94.10554504394531
820;93.86036682128906
821;93.61608123779297
822;93.37266540527344
823;93.13019561767578
824;92.8885498046875
825;92.6478042602539
826;92.40792846679688
827;92.1689453125
828;91.93082427978516
829;91.69357299804688
830;91.4572525024414
831;91.22181701660156
832;90.9871597290039
833;90.75346374511719
834;90.52062225341797
835;90.28861999511719
836;90.05745697021484
837;89.8271484375
838;89.59770202636719
839;89.36903381347656
840;89.14115905761719
841;88.91427612304688
842;88.68816375732422
843;88.46284484863281
844;88.23833465576172
845;88.0146713256836
846;87.79179382324219
847;87.56986999511719
848;87.34877014160156
849;87.12838745117188
850;86.90885162353516
851;86.69011688232422
852;86.47228240966797
853;86.25524139404297
854;86.0389404296875
855;85.82352447509766
856;85.6089096069336
857;85.39501953125
858;85.1820297241211
859;84.96981811523438
860;84.75839233398438
861;84.54776000976562
862;84.33786010742188
863;84.12873077392578
864;83.9203872680664
865;83.7129135131836
866;83.50621032714844
867;83.30027770996094
868;83.09507751464844
869;82.89070892333984
870;82.68710327148438
871;82.48421478271484
872;82.28215026855469
873;82.08085632324219
874;81.8802719116211
875;81.68040466308594
876;81.48141479492188
877;81.2830581665039
878;81.08549499511719
879;80.88871765136719
880;80.6926498413086
881;80.49732971191406
882;80.30274963378906
883;80.10889434814453
884;79.9158706665039
885;79.72351837158203
886;79.53189086914062
887;79.34101104736328
888;79.15084838867188
889;78.96147918701172
890;78.77284240722656
891;78.58487701416016
892;78.39762115478516
893;78.2110824584961
894;78.0252685546875
895;77.84022521972656
896;77.65585327148438
897;77.47217559814453
898;77.28921508789062
899;77.10696411132812
900;76.9254150390625
901;76.74456024169922
902;76.56440734863281
903;76.38497161865234
904;76.20622253417969
905;76.0281753540039
906;75.85082244873047
907;75.6742172241211
908;75.49822235107422
909;75.32291412353516
910;75.14830780029297
911;74.97438049316406
912;74.80113220214844
913;74.6285400390625
914;74.45670318603516
915;74.28556060791016
916;74.11499786376953
917;73.94511413574219
918;73.7759780883789
919;73.60746002197266
920;73.4395751953125
921;73.27235412597656
922;73.10578918457031
923;72.93989562988281
924;72.77468872070312
925;72.6101303100586
926;72.44625091552734
927;72.28292846679688
928;72.12034606933594
929;71.95833587646484
930;71.79700469970703
931;71.63629913330078
932;71.47620391845703
933;71.3167953491211
934;71.15805053710938
935;70.9998550415039
936;70.84230041503906
937;70.68543243408203
938;70.5291748046875
939;70.37350463867188
940;70.21843719482422
941;70.06403350830078
942;69.91020202636719
943;69.75701141357422
944;69.6044921875
945;69.45255279541016
946;69.30123901367188
947;69.15049743652344
948;69.00040435791016
949;68.85087585449219
950;68.70194244384766
951;68.55365753173828
952;68.40592193603516
953;68.25878143310547
954;68.11223602294922
955;67.96630096435547
956;67.82099151611328
957;67.67622375488281
958;67.53205871582031
959;67.38851165771484
960;67.2455062866211
961;67.10311889648438
962;66.96131134033203
963;66.82003784179688
964;66.67936706542969
965;66.5392837524414
966;66.39974212646484
967;66.26077270507812
968;66.12236022949219
969;65.98456573486328
970;65.84729766845703
971;65.71063232421875
972;65.57452392578125
973;65.43893432617188
974;65.30390930175781
975;65.16943359375
976;65.03555297851562
977;64.90219116210938
978;64.7694091796875
979;64.6371841430664
980;64.50545501708984
981;64.37427520751953
982;64.24366760253906
983;64.11357116699219
984;63.98404312133789
985;63.855003356933594
986;63.72652816772461
987;63.59858322143555
988;63.471168518066406
989;63.344303131103516
990;63.21797561645508
991;63.092166900634766
992;62.96684646606445
993;62.84205627441406
994;62.71782302856445
995;62.59408187866211
996;62.470863342285156
997;62.348167419433594
998;62.225975036621094
999;62.10433578491211
1000;61.98320388793945
1001;61.862606048583984
1002;61.74243927001953
1003;61.62281036376953
1004;61.503719329833984
1005;61.385066986083984
1006;61.26695251464844
1007;61.14932632446289
1008;61.032169342041016
1009;60.915565490722656
1010;60.79947280883789
1011;60.68383026123047
1012;60.568668365478516
1013;60.45398712158203
1014;60.33985900878906
1015;60.22618865966797
1016;60.112972259521484
1017;60.000247955322266
1018;59.88802719116211
1019;59.776302337646484
1020;59.66500473022461
1021;59.55419158935547
1022;59.44385528564453
1023;59.33403396606445
1024;59.224632263183594
1025;59.11570739746094
1026;59.007259368896484
1027;58.8992805480957
1028;58.79173278808594
1029;58.68468475341797
1030;58.57809829711914
1031;58.47193908691406
1032;58.36629104614258
1033;58.26107406616211
1034;58.15629959106445
1035;58.051979064941406
1036;57.9481201171875
1037;57.84469223022461
1038;57.74174880981445
1039;57.63924026489258
1040;57.53715896606445
1041;57.43555450439453
1042;57.33435821533203
1043;57.233619689941406
1044;57.13331604003906
1045;57.033424377441406
1046;56.933982849121094
1047;56.83501052856445
1048;56.73643493652344
1049;56.63831329345703
1050;56.54061508178711
1051;56.443363189697266
1052;56.346492767333984
1053;56.250057220458984
1054;56.154052734375
1055;56.05846405029297
1056;55.96329879760742
1057;55.86856460571289
1058;55.77421951293945
1059;55.680294036865234
1060;55.58679962158203
1061;55.49369812011719
1062;55.401058197021484
1063;55.308841705322266
1064;55.21693801879883
1065;55.12553024291992
1066;55.0345458984375
1067;54.94390869140625
1068;54.85367965698242
1069;54.76390075683594
1070;54.6744384765625
1071;54.58539962768555
1072;54.49675750732422
1073;54.40855026245117
1074;54.320716857910156
1075;54.233253479003906
1076;54.146156311035156
1077;54.05949783325195
1078;53.97323226928711
1079;53.88733673095703
1080;53.80181884765625
1081;53.71669006347656
1082;53.6319580078125
1083;53.54762649536133
1084;53.46366500854492
1085;53.38006591796875
1086;53.29682922363281
1087;53.2140007019043
1088;53.13154220581055
1089;53.04947280883789
1090;52.967716217041016
1091;52.886375427246094
1092;52.805419921875
1093;52.72478485107422
1094;52.6445198059082
1095;52.564640045166016
1096;52.48508834838867
1097;52.40592575073242
1098;52.32712173461914
1099;52.24870681762695
1100;52.17057418823242
1101;52.09285354614258
1102;52.015480041503906
1103;51.93848419189453
1104;51.86181640625
1105;51.78548812866211
1106;51.70949935913086
1107;51.63389205932617
1108;51.558650970458984
1109;51.48371505737305
1110;51.409122467041016
1111;51.334903717041016
1112;51.2609977722168
1113;51.18745040893555
1114;51.114200592041016
1115;51.041324615478516
1116;50.96879196166992
1117;50.89659118652344
1118;50.82474136352539
1119;50.75318145751953
1120;50.68199157714844
1121;50.61107635498047
1122;50.54052734375
1123;50.470314025878906
1124;50.40042495727539
1125;50.33084487915039
1126;50.26161193847656
1127;50.19267272949219
1128;50.12408447265625
1129;50.0557861328125
1130;49.98784255981445
1131;49.92020034790039
1132;49.852909088134766
1133;49.7859001159668
1134;49.71920394897461
1135;49.65283966064453
1136;49.58675003051758
1137;49.52099609375
1138;49.45555114746094
1139;49.39041519165039
1140;49.32558059692383
1141;49.26106643676758
1142;49.19681167602539
1143;49.132896423339844
1144;49.06929397583008
1145;49.00594711303711
1146;48.942935943603516
1147;48.88025665283203
1148;48.81781768798828
1149;48.75566864013672
1150;48.6938591003418
1151;48.63230895996094
1152;48.57107162475586
1153;48.5101318359375
1154;48.44947814941406
1155;48.38909149169922
1156;48.32903289794922
1157;48.26921463012695
1158;48.20970153808594
1159;48.15047073364258
1160;48.09152603149414
1161;48.032875061035156
1162;47.97450256347656
1163;47.91639709472656
1164;47.858619689941406
1165;47.80106735229492
1166;47.743831634521484
1167;47.68680953979492
1168;47.63011932373047
1169;47.57365417480469
1170;47.517520904541016
1171;47.461605072021484
1172;47.406005859375
1173;47.35065841674805
1174;47.29559326171875
1175;47.240779876708984
1176;47.186222076416016
1177;47.131935119628906
1178;47.07793426513672
1179;47.024166107177734
1180;46.97065353393555
1181;46.91742706298828
1182;46.86442947387695
1183;46.81169509887695
1184;46.75924301147461
1185;46.70703887939453
1186;46.655086517333984
1187;46.603389739990234
1188;46.55195999145508
1189;46.50074768066406
1190;46.4498291015625
1191;46.39912796020508
1192;46.348697662353516
1193;46.29850387573242
1194;46.24855041503906
1195;46.19887161254883
1196;46.1494140625
1197;46.10021209716797
1198;46.05122756958008
1199;46.00252151489258
1200;45.954036712646484
1201;45.905799865722656
1202;45.8577995300293
1203;45.810035705566406
1204;45.762508392333984
1205;45.71521759033203
1206;45.668155670166016
1207;45.62132263183594
1208;45.57475662231445
1209;45.52840042114258
1210;45.482276916503906
1211;45.43638229370117
1212;45.39073944091797
1213;45.34530258178711
1214;45.300106048583984
1215;45.25514221191406
1216;45.21036148071289
1217;45.165828704833984
1218;45.12153244018555
1219;45.07747268676758
1220;45.033592224121094
1221;44.98994445800781
1222;44.946533203125
1223;44.9033203125
1224;44.86033248901367
1225;44.817562103271484
1226;44.77501678466797
1227;44.73268127441406
1228;44.6905517578125
1229;44.64863204956055
1230;44.60694122314453
1231;44.56545639038086
1232;44.52418518066406
1233;44.48311996459961
1234;44.4422721862793
1235;44.4016227722168
1236;44.36116409301758
1237;44.320926666259766
1238;44.28091049194336
1239;44.2410888671875
1240;44.20144271850586
1241;44.162010192871094
1242;44.122806549072266
1243;44.08378982543945
1244;44.044979095458984
1245;44.00638198852539
1246;43.967952728271484
1247;43.929744720458984
1248;43.89171600341797
1249;43.85388946533203
1250;43.81624221801758
1251;43.778804779052734
1252;43.74156951904297
1253;43.704505920410156
1254;43.66762924194336
1255;43.63094711303711
1256;43.59446716308594
1257;43.558162689208984
1258;43.52204513549805
1259;43.486141204833984
1260;43.45039749145508
1261;43.41484832763672
1262;43.37948226928711
1263;43.344322204589844
1264;43.30931854248047
1265;43.27450180053711
1266;43.23984909057617
1267;43.20541000366211
1268;43.1711311340332
1269;43.13703918457031
1270;43.10313415527344
1271;43.06940841674805
1272;43.03584671020508
1273;43.002479553222656
1274;42.96925354003906
1275;42.93622970581055
1276;42.90337371826172
1277;42.87067794799805
1278;42.83818435668945
1279;42.805843353271484
1280;42.773643493652344
1281;42.74164962768555
1282;42.70981979370117
1283;42.678157806396484
1284;42.646663665771484
1285;42.615333557128906
1286;42.58415603637695
1287;42.55317306518555
1288;42.52233123779297
1289;42.49165344238281
1290;42.46113967895508
1291;42.430809020996094
1292;42.400634765625
1293;42.3705940246582
1294;42.34074020385742
1295;42.31103515625
1296;42.281490325927734
1297;42.252098083496094
1298;42.22288513183594
1299;42.19379806518555
1300;42.16487121582031
1301;42.13611602783203
1302;42.10750961303711
1303;42.07906723022461
1304;42.05074691772461
1305;42.022605895996094
1306;41.994606018066406
1307;41.966739654541016
1308;41.93904495239258
1309;41.9114990234375
1310;41.884098052978516
1311;41.85685348510742
1312;41.82975387573242
1313;41.80280303955078
1314;41.775997161865234
1315;41.749324798583984
1316;41.722782135009766
1317;41.696414947509766
1318;41.67020797729492
1319;41.644100189208984
1320;41.61817169189453
1321;41.59235763549805
1322;41.56669998168945
1323;41.54117202758789
1324;41.51578903198242
1325;41.49053955078125
1326;41.46543502807617
1327;41.44045639038086
1328;41.41563034057617
1329;41.390933990478516
1330;41.366355895996094
1331;41.34193801879883
1332;41.317649841308594
1333;41.293479919433594
1334;41.26945877075195
1335;41.245548248291016
1336;41.22180938720703
1337;41.19816970825195
1338;41.17466735839844
1339;41.15128707885742
1340;41.12803649902344
1341;41.10493850708008
1342;41.08195114135742
1343;41.059085845947266
1344;41.03635787963867
1345;41.01374053955078
1346;40.991268157958984
1347;40.96890640258789
1348;40.946678161621094
1349;40.92456817626953
1350;40.902587890625
1351;40.88072967529297
1352;40.858985900878906
1353;40.83736801147461
1354;40.81586456298828
1355;40.794471740722656
1356;40.77322769165039
1357;40.7520866394043
1358;40.73106002807617
1359;40.71015548706055
1360;40.68937301635742
1361;40.66872024536133
1362;40.648170471191406
1363;40.62771987915039
1364;40.607398986816406
1365;40.587196350097656
1366;40.567100524902344
1367;40.54712677001953
1368;40.527259826660156
1369;40.50750732421875
1370;40.48786544799805
1371;40.46833419799805
1372;40.44892501831055
1373;40.429603576660156
1374;40.410404205322266
1375;40.39129638671875
1376;40.37234115600586
1377;40.353458404541016
1378;40.33468246459961
1379;40.31602478027344
1380;40.2974853515625
1381;40.27901840209961
1382;40.26068878173828
1383;40.24243927001953
1384;40.22431564331055
1385;40.20627975463867
1386;40.18833923339844
1387;40.170528411865234
1388;40.152809143066406
1389;40.13518142700195
1390;40.11766052246094
1391;40.100242614746094
1392;40.08293533325195
1393;40.06571960449219
1394;40.048587799072266
1395;40.03156661987305
1396;40.01464080810547
1397;39.9978141784668
1398;39.98109436035156
1399;39.96446990966797
1400;39.94792556762695
1401;39.93149948120117
1402;39.91515350341797
1403;39.898902893066406
1404;39.88275146484375
1405;39.86669921875
1406;39.850730895996094
1407;39.834842681884766
1408;39.81907272338867
1409;39.80339050292969
1410;39.78779220581055
1411;39.77228546142578
1412;39.75687026977539
1413;39.74154281616211
1414;39.72631072998047
1415;39.71117401123047
1416;39.696109771728516
1417;39.68113708496094
1418;39.666255950927734
1419;39.651451110839844
1420;39.63676071166992
1421;39.622135162353516
1422;39.60758590698242
1423;39.59315490722656
1424;39.57877731323242
1425;39.56451416015625
1426;39.55030822753906
1427;39.53620910644531
1428;39.52218246459961
1429;39.50823974609375
1430;39.49437713623047
1431;39.48059844970703
1432;39.466896057128906
1433;39.45328140258789
1434;39.43975830078125
1435;39.42628860473633
1436;39.41292190551758
1437;39.39961624145508
1438;39.38640213012695
1439;39.373252868652344
1440;39.3602180480957
1441;39.347232818603516
1442;39.33432388305664
1443;39.32150650024414
1444;39.308738708496094
1445;39.29607009887695
1446;39.28347396850586
1447;39.27097702026367
1448;39.25850296020508
1449;39.24613571166992
1450;39.23385238647461
1451;39.221614837646484
1452;39.2094612121582
1453;39.1973876953125
1454;39.18538284301758
1455;39.173458099365234
1456;39.161617279052734
1457;39.14982223510742
1458;39.138099670410156
1459;39.126468658447266
1460;39.11487579345703
1461;39.1033821105957
1462;39.09195327758789
1463;39.08059310913086
1464;39.06928634643555
1465;39.05806350708008
1466;39.046897888183594
1467;39.035823822021484
1468;39.02478790283203
1469;39.01384353637695
1470;39.0029411315918
1471;38.99211502075195
1472;38.98137283325195
1473;38.970664978027344
1474;38.96005630493164
1475;38.949485778808594
1476;38.93900680541992
1477;38.92857360839844
1478;38.918209075927734
1479;38.90789794921875
1480;38.89765167236328
1481;38.88748550415039
1482;38.87736511230469
1483;38.867332458496094
1484;38.85733413696289
1485;38.847412109375
1486;38.837547302246094
1487;38.827735900878906
1488;38.81797409057617
1489;38.808292388916016
1490;38.79867935180664
1491;38.78911590576172
1492;38.77961730957031
1493;38.7701530456543
1494;38.76077651977539
1495;38.75144958496094
1496;38.74217987060547
1497;38.732967376708984
1498;38.723812103271484
1499;38.71471405029297
1500;38.705665588378906
1501;38.69668960571289
1502;38.68775177001953
1503;38.67887496948242
1504;38.670066833496094
1505;38.66129684448242
1506;38.652587890625
1507;38.64392852783203
1508;38.63533401489258
1509;38.62677764892578
1510;38.61829376220703
1511;38.60984802246094
1512;38.601478576660156
1513;38.59314727783203
1514;38.58488082885742
1515;38.576637268066406
1516;38.568458557128906
1517;38.56034469604492
1518;38.55228042602539
1519;38.544246673583984
1520;38.53628158569336
1521;38.52836608886719
1522;38.52049255371094
1523;38.51267623901367
1524;38.50490188598633
1525;38.4971809387207
1526;38.48952102661133
1527;38.48189163208008
1528;38.47432327270508
1529;38.466793060302734
1530;38.45932388305664
1531;38.4518928527832
1532;38.44450759887695
1533;38.43716812133789
1534;38.429874420166016
1535;38.422630310058594
1536;38.41543197631836
1537;38.40828323364258
1538;38.40119171142578
1539;38.39413070678711
1540;38.387142181396484
1541;38.380165100097656
1542;38.373233795166016
1543;38.36636734008789
1544;38.35954666137695
1545;38.35273361206055
1546;38.34600067138672
1547;38.339298248291016
1548;38.33263397216797
1549;38.32602310180664
1550;38.319454193115234
1551;38.31290817260742
1552;38.30643081665039
1553;38.299983978271484
1554;38.2935791015625
1555;38.2872314453125
1556;38.28089141845703
1557;38.27461624145508
1558;38.26838302612305
1559;38.262184143066406
1560;38.25603485107422
1561;38.24991989135742
1562;38.24382781982422
1563;38.2378044128418
1564;38.2318115234375
1565;38.22584915161133
1566;38.21992111206055
1567;38.214046478271484
1568;38.20820236206055
1569;38.202388763427734
1570;38.19664001464844
1571;38.190914154052734
1572;38.18522262573242
1573;38.179569244384766
1574;38.173946380615234
1575;38.168357849121094
1576;38.16282272338867
1577;38.157325744628906
1578;38.151851654052734
1579;38.14641189575195
1580;38.14102554321289
1581;38.13566207885742
1582;38.13034439086914
1583;38.125057220458984
1584;38.11980056762695
1585;38.11458206176758
1586;38.10939025878906
1587;38.10424041748047
1588;38.09912872314453
1589;38.09403991699219
1590;38.08899688720703
1591;38.083984375
1592;38.07899856567383
1593;38.07404708862305
1594;38.06913375854492
1595;38.06425094604492
1596;38.05940246582031
1597;38.054588317871094
1598;38.0498046875
1599;38.045040130615234
1600;38.04033279418945
1601;38.03562927246094
1602;38.03097152709961
1603;38.0263557434082
1604;38.02176284790039
1605;38.01719665527344
1606;38.01266860961914
1607;38.008155822753906
1608;38.00369644165039
1609;37.999244689941406
1610;37.99482345581055
1611;37.990455627441406
1612;37.98609161376953
1613;37.98176193237305
1614;37.977474212646484
1615;37.97321319580078
1616;37.96897888183594
1617;37.96477127075195
1618;37.960594177246094
1619;37.956459045410156
1620;37.952327728271484
1621;37.94824981689453
1622;37.944156646728516
1623;37.940128326416016
1624;37.93612289428711
1625;37.93213653564453
1626;37.92818069458008
1627;37.924251556396484
1628;37.92036056518555
1629;37.91646194458008
1630;37.91261672973633
1631;37.908809661865234
1632;37.90502166748047
1633;37.9012451171875
1634;37.89750289916992
1635;37.893775939941406
1636;37.89008712768555
1637;37.886417388916016
1638;37.882789611816406
1639;37.87916946411133
1640;37.875572204589844
1641;37.872005462646484
1642;37.868473052978516
1643;37.86494064331055
1644;37.8614501953125
1645;37.85799026489258
1646;37.85454177856445
1647;37.85112380981445
1648;37.84772491455078
1649;37.8443489074707
1650;37.84099197387695
1651;37.83766555786133
1652;37.83436965942383
1653;37.83108901977539
1654;37.82782745361328
1655;37.824588775634766
1656;37.82136917114258
1657;37.818180084228516
1658;37.81503677368164
1659;37.81187438964844
1660;37.80875778198242
1661;37.805660247802734
1662;37.80258560180664
1663;37.799522399902344
1664;37.79647445678711
1665;37.79346466064453
1666;37.79047393798828
1667;37.78750228881836
1668;37.78455352783203
1669;37.7816162109375
1670;37.77870559692383
1671;37.77581787109375
1672;37.772953033447266
1673;37.77009963989258
1674;37.767269134521484
1675;37.76445770263672
1676;37.76166915893555
1677;37.75889587402344
1678;37.75615310668945
1679;37.75341796875
1680;37.750709533691406
1681;37.74801254272461
1682;37.74534606933594
1683;37.74268341064453
1684;37.740047454833984
1685;37.73744201660156
1686;37.73485565185547
1687;37.732261657714844
1688;37.72970199584961
1689;37.72716522216797
1690;37.724647521972656
1691;37.722129821777344
1692;37.71965408325195
1693;37.71717071533203
1694;37.7147102355957
1695;37.712284088134766
1696;37.70988082885742
1697;37.70746612548828
1698;37.70508575439453
1699;37.70270919799805
1700;37.70036697387695
1701;37.698036193847656
1702;37.69572448730469
1703;37.69343566894531
1704;37.6911506652832
1705;37.68886947631836
1706;37.68663024902344
1707;37.68440246582031
1708;37.68217849731445
1709;37.67997741699219
1710;37.67779541015625
1711;37.67561721801758
1712;37.67347717285156
1713;37.671329498291016
1714;37.66922378540039
1715;37.667110443115234
1716;37.66501998901367
1717;37.66294860839844
1718;37.660888671875
1719;37.65884017944336
1720;37.65681838989258
1721;37.65479278564453
1722;37.652793884277344
1723;37.65080642700195
1724;37.648841857910156
1725;37.64686965942383
1726;37.64493942260742
1727;37.643001556396484
1728;37.64108657836914
1729;37.639183044433594
1730;37.63730239868164
1731;37.63542556762695
1732;37.633567810058594
1733;37.63172912597656
1734;37.62989044189453
1735;37.628074645996094
1736;37.62627029418945
1737;37.624473571777344
1738;37.6226921081543
1739;37.62094497680664
1740;37.61918640136719
1741;37.6174430847168
1742;37.61573028564453
1743;37.614009857177734
1744;37.61231231689453
1745;37.61061096191406
1746;37.608943939208984
1747;37.60728073120117
1748;37.60563278198242
1749;37.6039924621582
1750;37.60236740112305
1751;37.60075378417969
1752;37.599143981933594
1753;37.59756088256836
1754;37.59597396850586
1755;37.59442138671875
1756;37.59286117553711
1757;37.591312408447266
1758;37.589778900146484
1759;37.58827209472656
1760;37.58675003051758
1761;37.58525466918945
1762;37.58376693725586
1763;37.58229064941406
1764;37.580833435058594
1765;37.57938003540039
1766;37.577938079833984
1767;37.576499938964844
1768;37.5750846862793
1769;37.57368087768555
1770;37.57228088378906
1771;37.57088088989258
1772;37.569515228271484
1773;37.568138122558594
1774;37.566776275634766
1775;37.565452575683594
1776;37.56410217285156
1777;37.56277847290039
1778;37.561458587646484
1779;37.560157775878906
1780;37.558860778808594
1781;37.55757522583008
1782;37.55628967285156
1783;37.555015563964844
1784;37.553768157958984
1785;37.55252456665039
1786;37.5512809753418
1787;37.550052642822266
1788;37.54883575439453
1789;37.54762268066406
1790;37.54642105102539
1791;37.54522705078125
1792;37.54404830932617
1793;37.542869567871094
1794;37.54169845581055
1795;37.54054260253906
1796;37.53939437866211
1797;37.538272857666016
1798;37.53713607788086
1799;37.53601837158203
1800;37.5349006652832
1801;37.53380584716797
1802;37.53269958496094
1803;37.531612396240234
1804;37.530540466308594
1805;37.529476165771484
1806;37.52840042114258
1807;37.52736282348633
1808;37.52631759643555
1809;37.52526092529297
1810;37.524234771728516
1811;37.52322769165039
1812;37.522212982177734
1813;37.52120590209961
1814;37.52019119262695
1815;37.51921463012695
1816;37.51823425292969
1817;37.51725387573242
1818;37.51629638671875
1819;37.515342712402344
1820;37.51438903808594
1821;37.51343536376953
1822;37.51250076293945
1823;37.51156234741211
1824;37.51063537597656
1825;37.50973129272461
1826;37.50882339477539
1827;37.5079231262207
1828;37.507022857666016
1829;37.50614547729492
1830;37.5052604675293
1831;37.5043830871582
1832;37.503517150878906
1833;37.502662658691406
1834;37.50180435180664
1835;37.500953674316406
1836;37.500125885009766
1837;37.49930191040039
1838;37.49845504760742
1839;37.49763488769531
1840;37.496826171875
1841;37.49601745605469
1842;37.495216369628906
1843;37.49441909790039
1844;37.493648529052734
1845;37.492862701416016
1846;37.49208068847656
1847;37.49131393432617
1848;37.49054718017578
1849;37.48979568481445
1850;37.48904800415039
1851;37.48829650878906
1852;37.487552642822266
1853;37.48681640625
1854;37.48609161376953
1855;37.485355377197266
1856;37.48466110229492
1857;37.48394012451172
1858;37.48323440551758
1859;37.48253631591797
1860;37.48184585571289
1861;37.48115158081055
1862;37.480472564697266
1863;37.47980880737305
1864;37.4791374206543
1865;37.47846984863281
1866;37.4777946472168
1867;37.477149963378906
1868;37.476497650146484
1869;37.47584533691406
1870;37.4752082824707
1871;37.47457504272461
1872;37.473934173583984
1873;37.473331451416016
1874;37.472694396972656
1875;37.47208023071289
1876;37.47148132324219
1877;37.47085952758789
1878;37.47026824951172
1879;37.469669342041016
1880;37.46908187866211
1881;37.46851348876953
1882;37.46792984008789
1883;37.467342376708984
1884;37.46676254272461
1885;37.46620178222656
1886;37.46562576293945
1887;37.46508026123047
1888;37.46453094482422
1889;37.46398162841797
1890;37.46343231201172
1891;37.462890625
1892;37.46235275268555
1893;37.46182632446289
1894;37.46129608154297
1895;37.46077346801758
1896;37.460262298583984
1897;37.45974349975586
1898;37.45923614501953
1899;37.45873260498047
1900;37.4582405090332
1901;37.45772933959961
1902;37.457237243652344
1903;37.45675277709961
1904;37.45627212524414
1905;37.45577621459961
1906;37.455299377441406
1907;37.454833984375
1908;37.45437240600586
1909;37.45389175415039
1910;37.45342254638672
1911;37.452980041503906
1912;37.45252990722656
1913;37.45206069946289
1914;37.45162582397461
1915;37.451175689697266
1916;37.45073318481445
1917;37.4503059387207
1918;37.44987106323242
1919;37.44944763183594
1920;37.44902801513672
1921;37.4485969543457
1922;37.44818115234375
1923;37.44776153564453
1924;37.44736099243164
1925;37.44694900512695
1926;37.446533203125
1927;37.44613265991211
1928;37.44573211669922
1929;37.44534683227539
1930;37.44495391845703
1931;37.444557189941406
1932;37.44417953491211
1933;37.44378662109375
1934;37.443416595458984
1935;37.44304656982422
1936;37.44266891479492
1937;37.442298889160156
1938;37.44194030761719
1939;37.44157028198242
1940;37.44120788574219
1941;37.440853118896484
1942;37.44050216674805
1943;37.44013595581055
1944;37.43980407714844
1945;37.439456939697266
1946;37.439109802246094
1947;37.43877029418945
1948;37.43842697143555
1949;37.43810272216797
1950;37.43778610229492
1951;37.43743896484375
1952;37.43711853027344
1953;37.43678283691406
1954;37.43647766113281
1955;37.43616485595703
1956;37.43583297729492
1957;37.435523986816406
1958;37.43521499633789
1959;37.43491744995117
1960;37.43460464477539
1961;37.434303283691406
1962;37.43400192260742
1963;37.43370819091797
1964;37.43339920043945
1965;37.43311309814453
1966;37.432838439941406
1967;37.43254470825195
1968;37.4322624206543
1969;37.431983947753906
1970;37.431705474853516
1971;37.43142318725586
1972;37.43114471435547
1973;37.43086624145508
1974;37.430599212646484
1975;37.43033218383789
1976;37.43006134033203
1977;37.4298095703125
1978;37.429542541503906
1979;37.42927169799805
1980;37.42902374267578
1981;37.428768157958984
1982;37.42851638793945
1983;37.42826461791992
1984;37.42802047729492
1985;37.42776870727539
1986;37.42752456665039
1987;37.42728805541992
1988;37.42704391479492
1989;37.426815032958984
1990;37.42657470703125
1991;37.426334381103516
1992;37.42609405517578
1993;37.42586898803711
1994;37.42564392089844
1995;37.42540740966797
1996;37.42518615722656
1997;37.42497253417969
1998;37.42475891113281
1999;37.42451858520508
2000;37.42430877685547
2001;37.42411422729492
2002;37.42387771606445
2003;37.423667907714844
2004;37.42346954345703
2005;37.42325210571289
2006;37.42305374145508
2007;37.422855377197266
2008;37.42265701293945
2009;37.42244338989258
2010;37.42225646972656
2011;37.42203903198242
2012;37.42185592651367
2013;37.42164611816406
2014;37.421470642089844
2015;37.42127227783203
2016;37.42109298706055
2017;37.4208984375
2018;37.42070770263672
2019;37.420536041259766
2020;37.420345306396484
2021;37.420166015625
2022;37.419979095458984
2023;37.41980743408203
2024;37.41962814331055
2025;37.419456481933594
2026;37.419288635253906
2027;37.41910934448242
2028;37.418941497802734
2029;37.41877746582031
2030;37.41860580444336
2031;37.418418884277344
2032;37.41827392578125
2033;37.41810607910156
2034;37.417945861816406
2035;37.417789459228516
2036;37.41762924194336
2037;37.41746520996094
2038;37.41731643676758
2039;37.417152404785156
2040;37.41699981689453
2041;37.41685485839844
2042;37.41669845581055
2043;37.41654968261719
2044;37.416404724121094
2045;37.416255950927734
2046;37.416099548339844
2047;37.415958404541016
2048;37.41581344604492
2049;37.41566467285156
2050;37.41553497314453
2051;37.41538619995117
2052;37.41524124145508
2053;37.41511917114258
2054;37.41498565673828
2055;37.41483688354492
2056;37.41470718383789
2057;37.414588928222656
2058;37.41443634033203
2059;37.41431427001953
2060;37.4141845703125
2061;37.4140625
2062;37.41392517089844
2063;37.413795471191406
2064;37.41367721557617
2065;37.41355514526367
2066;37.41343688964844
2067;37.413291931152344
2068;37.4131965637207
2069;37.41307830810547
2070;37.41295623779297
2071;37.41283416748047
2072;37.41271209716797
2073;37.41259002685547
2074;37.41249084472656
2075;37.41236877441406
2076;37.41226577758789
2077;37.41213607788086
2078;37.41203689575195
2079;37.41191482543945
2080;37.411808013916016
2081;37.41170120239258
2082;37.411598205566406
2083;37.41149139404297
2084;37.411376953125
2085;37.41128158569336
2086;37.41118621826172
2087;37.411067962646484
2088;37.41095733642578
2089;37.41086959838867
2090;37.41077423095703
2091;37.41067123413086
2092;37.41057205200195
2093;37.41047286987305
2094;37.41037368774414
2095;37.4102783203125
2096;37.41018295288086
2097;37.410091400146484
2098;37.40999221801758
2099;37.409908294677734
2100;37.40980529785156
2101;37.40971755981445
2102;37.40962600708008
2103;37.409542083740234
2104;37.40944290161133
2105;37.409358978271484
2106;37.40927505493164
2107;37.40918731689453
2108;37.40909194946289
2109;37.409019470214844
2110;37.408931732177734
2111;37.40884780883789
2112;37.40875244140625
2113;37.40868377685547
2114;37.40859603881836
2115;37.408512115478516
2116;37.40843200683594
2117;37.40835952758789
2118;37.408267974853516
2119;37.408199310302734
2120;37.40811538696289
2121;37.40803527832031
2122;37.407958984375
2123;37.40788650512695
2124;37.407814025878906
2125;37.40773010253906
2126;37.407657623291016
2127;37.40760040283203
2128;37.40752029418945
2129;37.407447814941406
2130;37.40738296508789
2131;37.40729904174805
2132;37.40724182128906
2133;37.407161712646484
2134;37.4070930480957
2135;37.40702438354492
2136;37.406959533691406
2137;37.40688705444336
2138;37.40681838989258
2139;37.40675354003906
2140;37.40669631958008
2141;37.40663146972656
2142;37.40656280517578
2143;37.40648651123047
2144;37.406429290771484
2145;37.4063720703125
2146;37.40629959106445
2147;37.406246185302734
2148;37.40618133544922
2149;37.40611267089844
2150;37.40605163574219
2151;37.406002044677734
2152;37.405948638916016
2153;37.405879974365234
2154;37.405826568603516
2155;37.40576171875
2156;37.405696868896484
2157;37.4056396484375
2158;37.40559387207031
2159;37.40552520751953
2160;37.40546798706055
2161;37.405418395996094
2162;37.40535354614258
2163;37.40530776977539
2164;37.40525817871094
2165;37.40520477294922
2166;37.40514373779297
2167;37.405094146728516
2168;37.40504455566406
2169;37.40497970581055
2170;37.404945373535156
2171;37.40489196777344
2172;37.40483474731445
2173;37.40478515625
2174;37.404727935791016
2175;37.40467834472656
2176;37.404640197753906
2177;37.40458297729492
2178;37.40453338623047
2179;37.404483795166016
2180;37.40442657470703
2181;37.404396057128906
2182;37.40433883666992
2183;37.40428924560547
2184;37.40424728393555
2185;37.40420913696289
2186;37.40415573120117
2187;37.40410614013672
2188;37.40406799316406
2189;37.40401077270508
2190;37.40395736694336
2191;37.403934478759766
2192;37.403873443603516
2193;37.40383529663086
2194;37.40379333496094
2195;37.40375518798828
2196;37.403724670410156
2197;37.403663635253906
2198;37.40362548828125
2199;37.4035758972168
2200;37.40354537963867
2201;37.403499603271484
2202;37.40346145629883
2203;37.40343475341797
2204;37.40338134765625
2205;37.40333557128906
2206;37.40330505371094
2207;37.40325927734375
2208;37.40321350097656
2209;37.4031867980957
2210;37.40313720703125
2211;37.40309143066406
2212;37.40306091308594
2213;37.40303421020508
2214;37.40298843383789
2215;37.4029541015625
2216;37.40291213989258
2217;37.40286636352539
2218;37.40283966064453
2219;37.402793884277344
2220;37.402774810791016
2221;37.40272521972656
2222;37.4026985168457
2223;37.40266036987305
2224;37.40262222290039
2225;37.402587890625
2226;37.40253829956055
2227;37.402523040771484
2228;37.4024772644043
2229;37.4024543762207
2230;37.40242004394531
2231;37.40238571166992
2232;37.40234375
2233;37.402320861816406
2234;37.40228271484375
2235;37.40224075317383
2236;37.402225494384766
2237;37.40219497680664
2238;37.402156829833984
2239;37.40213394165039
2240;37.402099609375
2241;37.40205764770508
2242;37.40203094482422
2243;37.40199661254883
2244;37.40195846557617
2245;37.40192413330078
2246;37.40189743041992
2247;37.401878356933594
2248;37.40184783935547
2249;37.40180587768555
2250;37.40178298950195
2251;37.4017448425293
2252;37.40171813964844
2253;37.40169143676758
2254;37.40165710449219
2255;37.40162658691406
2256;37.401607513427734
2257;37.40156936645508
2258;37.40155029296875
2259;37.40153884887695
2260;37.401493072509766
2261;37.40145492553711
2262;37.401432037353516
2263;37.40140151977539
2264;37.401371002197266
2265;37.401344299316406
2266;37.40132141113281
2267;37.40129470825195
2268;37.40125274658203
2269;37.401248931884766
2270;37.401222229003906
2271;37.40119552612305
2272;37.40115737915039
2273;37.401126861572266
2274;37.40111541748047
2275;37.40108108520508
2276;37.40104675292969
2277;37.40103530883789
2278;37.40100860595703
2279;37.40098190307617
2280;37.400943756103516
2281;37.40092468261719
2282;37.40089416503906
2283;37.40086364746094
2284;37.40085220336914
2285;37.40083312988281
2286;37.40079116821289
2287;37.40076446533203
2288;37.400753021240234
2289;37.400733947753906
2290;37.40069580078125
2291;37.400672912597656
2292;37.400638580322266
2293;37.40062713623047
2294;37.40058898925781
2295;37.400577545166016
2296;37.400550842285156
2297;37.40053176879883
2298;37.4005012512207
2299;37.40047836303711
2300;37.400455474853516
2301;37.40044021606445
2302;37.40040588378906
2303;37.40038299560547
2304;37.400367736816406
2305;37.40034103393555
2306;37.40031814575195
2307;37.40028762817383
2308;37.40027618408203
2309;37.400245666503906
2310;37.40021896362305
2311;37.40020751953125
2312;37.40018081665039
2313;37.400150299072266
2314;37.400123596191406
2315;37.40010452270508
2316;37.400089263916016
2317;37.40006637573242
2318;37.4000358581543
2319;37.4000244140625
2320;37.40000534057617
2321;37.39998245239258
2322;37.399959564208984
2323;37.39994430541992
2324;37.3999137878418
2325;37.39989471435547
2326;37.399879455566406
2327;37.39985275268555
2328;37.39980697631836
2329;37.39979553222656
2330;37.39977264404297
2331;37.39976119995117
2332;37.39973831176758
2333;37.399715423583984
2334;37.399696350097656
2335;37.39967727661133
2336;37.399654388427734
2337;37.39962387084961
2338;37.399600982666016
2339;37.39958953857422
2340;37.39956283569336
2341;37.39954376220703
2342;37.3995361328125
2343;37.39950942993164
2344;37.39948654174805
2345;37.399478912353516
2346;37.39944839477539
2347;37.399417877197266
2348;37.399410247802734
2349;37.39937973022461
2350;37.39936447143555
2351;37.39933776855469
2352;37.39931869506836
2353;37.399295806884766
2354;37.3992805480957
2355;37.399269104003906
2356;37.39924240112305
2357;37.39921188354492
2358;37.39920425415039
2359;37.39917755126953
2360;37.3991584777832
2361;37.39913558959961
2362;37.399112701416016
2363;37.39909744262695
2364;37.39908218383789
2365;37.3990592956543
2366;37.39903259277344
2367;37.39900588989258
2368;37.398990631103516
2369;37.39897537231445
2370;37.39896011352539
2371;37.398921966552734
2372;37.39891052246094
2373;37.39888381958008
2374;37.39887237548828
2375;37.39885330200195
2376;37.398826599121094
2377;37.39881134033203
2378;37.3988037109375
2379;37.39876937866211
2380;37.39875030517578
2381;37.398738861083984
2382;37.39871597290039
2383;37.39869689941406
2384;37.3986701965332
2385;37.39864730834961
2386;37.39864730834961
2387;37.39860916137695
2388;37.39860153198242
2389;37.3985710144043
2390;37.3985481262207
2391;37.39854431152344
2392;37.39852523803711
2393;37.39849853515625
2394;37.39848709106445
2395;37.3984489440918
2396;37.39842987060547
2397;37.39840316772461
2398;37.39839172363281
2399;37.398372650146484
2400;37.39835739135742
2401;37.398338317871094
2402;37.39832305908203
2403;37.398292541503906
2404;37.398277282714844
2405;37.39825439453125
2406;37.39824295043945
2407;37.398216247558594
2408;37.3982048034668
2409;37.39817810058594
2410;37.39815902709961
2411;37.39814758300781
2412;37.39812469482422
2413;37.398094177246094
2414;37.39807891845703
2415;37.3980598449707
2416;37.39803695678711
2417;37.39802169799805
2418;37.39799880981445
2419;37.39798355102539
2420;37.39795684814453
2421;37.39793395996094
2422;37.39793395996094
2423;37.39789962768555
2424;37.39789581298828
2425;37.39786148071289
2426;37.3978385925293
2427;37.39781188964844
2428;37.397804260253906
2429;37.39777755737305
2430;37.397762298583984
2431;37.39773941040039
2432;37.3977165222168
2433;37.39769744873047
2434;37.397666931152344
2435;37.39766311645508
2436;37.39763641357422
2437;37.397621154785156
2438;37.397605895996094
2439;37.39757537841797
2440;37.397560119628906
2441;37.39753341674805
2442;37.39751434326172
2443;37.39748764038086
2444;37.3974723815918
2445;37.39744567871094
2446;37.397438049316406
2447;37.39740753173828
2448;37.39739227294922
2449;37.39737319946289
2450;37.3973503112793
2451;37.39732360839844
2452;37.39731216430664
2453;37.397281646728516
2454;37.39726257324219
2455;37.39723587036133
2456;37.3972282409668
2457;37.3972053527832
2458;37.39718246459961
2459;37.397159576416016
2460;37.39714431762695
2461;37.39711380004883
2462;37.39710235595703
2463;37.397071838378906
2464;37.39704895019531
2465;37.397037506103516
2466;37.39699935913086
2467;37.396995544433594
2468;37.39696502685547
2469;37.39695358276367
2470;37.39692687988281
2471;37.39690017700195
2472;37.39686584472656
2473;37.39685821533203
2474;37.39684295654297
2475;37.396812438964844
2476;37.39678955078125
2477;37.39677047729492
2478;37.39674758911133
2479;37.396728515625
2480;37.396705627441406
2481;37.39668655395508
2482;37.396663665771484
2483;37.396629333496094
2484;37.3966064453125
2485;37.39659118652344
2486;37.39656448364258
2487;37.396549224853516
2488;37.39653778076172
2489;37.39651870727539
2490;37.396484375
2491;37.39646530151367
2492;37.39643478393555
2493;37.39641189575195
2494;37.39639663696289
2495;37.396366119384766
2496;37.3963508605957
2497;37.39632034301758
2498;37.396305084228516
2499;37.396263122558594
2500;37.396244049072266
2501;37.39622497558594
2502;37.396217346191406
2503;37.396183013916016
2504;37.39616394042969
2505;37.39613342285156
2506;37.39611053466797
2507;37.396095275878906
2508;37.396060943603516
2509;37.39604568481445
2510;37.396018981933594
2511;37.39598846435547
2512;37.395957946777344
2513;37.395938873291016
2514;37.39592361450195
2515;37.3958854675293
2516;37.39588165283203
2517;37.395851135253906
2518;37.39582443237305
2519;37.39580154418945
2520;37.39577102661133
2521;37.395748138427734
2522;37.39571762084961
2523;37.395687103271484
2524;37.39567184448242
2525;37.395652770996094
2526;37.3956184387207
2527;37.39559555053711
2528;37.395572662353516
2529;37.39554214477539
2530;37.39552688598633
2531;37.39549255371094
2532;37.39547348022461
2533;37.39544677734375
2534;37.39543914794922
2535;37.3953857421875
2536;37.3953742980957
2537;37.39535140991211
2538;37.39531707763672
2539;37.39529037475586
2540;37.395263671875
2541;37.39522933959961
2542;37.395225524902344
2543;37.39519500732422
2544;37.39515686035156
2545;37.3951416015625
2546;37.39509963989258
2547;37.39506530761719
2548;37.39503860473633
2549;37.39502716064453
2550;37.39500045776367
2551;37.39496994018555
2552;37.39493942260742
2553;37.39490509033203
2554;37.39488983154297
2555;37.39486312866211
2556;37.39482498168945
2557;37.394798278808594
2558;37.39478302001953
2559;37.394752502441406
2560;37.394718170166016
2561;37.39468765258789
2562;37.39466094970703
2563;37.39463424682617
2564;37.39461135864258
2565;37.39457702636719
2566;37.39453887939453
2567;37.3945198059082
2568;37.394493103027344
2569;37.394466400146484
2570;37.394432067871094
2571;37.394405364990234
2572;37.39437484741211
2573;37.39435577392578
2574;37.39432144165039
2575;37.39427947998047
2576;37.394264221191406
2577;37.394229888916016
2578;37.39419937133789
2579;37.39415740966797
2580;37.394142150878906
2581;37.39409637451172
2582;37.394065856933594
2583;37.39403533935547
2584;37.39400863647461
2585;37.393985748291016
2586;37.39395523071289
2587;37.39391326904297
2588;37.39387130737305
2589;37.393856048583984
2590;37.393821716308594
2591;37.39377975463867
2592;37.393760681152344
2593;37.39372634887695
2594;37.3936882019043
2595;37.39365768432617
2596;37.39363479614258
2597;37.39358901977539
2598;37.39356231689453
2599;37.39352798461914
2600;37.39348602294922
2601;37.39345169067383
2602;37.3934211730957
2603;37.393394470214844
2604;37.39336395263672
2605;37.39333724975586
2606;37.393287658691406
2607;37.393253326416016
2608;37.393211364746094
2609;37.393184661865234
2610;37.393150329589844
2611;37.39311599731445
2612;37.39308166503906
2613;37.393043518066406
2614;37.393009185791016
2615;37.39297103881836
2616;37.39293670654297
2617;37.39290237426758
2618;37.39286422729492
2619;37.39282989501953
2620;37.39278793334961
2621;37.39275360107422
2622;37.39271545410156
2623;37.392677307128906
2624;37.392642974853516
2625;37.39261245727539
2626;37.39257049560547
2627;37.392520904541016
2628;37.39250564575195
2629;37.39244842529297
2630;37.39241409301758
2631;37.39237976074219
2632;37.392330169677734
2633;37.39229965209961
2634;37.39225769042969
2635;37.3922119140625
2636;37.392189025878906
2637;37.39214324951172
2638;37.39209747314453
2639;37.39205551147461
2640;37.39201736450195
2641;37.3919677734375
2642;37.39193344116211
2643;37.39189147949219
2644;37.391849517822266
2645;37.391807556152344
2646;37.39176559448242
2647;37.3917236328125
2648;37.39168930053711
2649;37.39164352416992
2650;37.39158630371094
2651;37.39154815673828
2652;37.391502380371094
2653;37.3914680480957
2654;37.39142608642578
2655;37.391380310058594
2656;37.39134216308594
2657;37.39128494262695
2658;37.39125061035156
2659;37.391212463378906
2660;37.39116287231445
2661;37.39110565185547
2662;37.39106750488281
2663;37.391014099121094
2664;37.390968322753906
2665;37.39091491699219
2666;37.390869140625
2667;37.390830993652344
2668;37.39078903198242
2669;37.39073944091797
2670;37.390682220458984
2671;37.39064025878906
2672;37.39059829711914
2673;37.39054489135742
2674;37.390480041503906
2675;37.39043045043945
2676;37.390377044677734
2677;37.39033126831055
2678;37.39027786254883
2679;37.390235900878906
2680;37.39018630981445
2681;37.390132904052734
2682;37.390071868896484
2683;37.390010833740234
2684;37.389957427978516
2685;37.38990020751953
2686;37.389854431152344
2687;37.38980484008789
2688;37.389747619628906
2689;37.38969039916992
2690;37.38964080810547
2691;37.389583587646484
2692;37.389530181884766
2693;37.38946533203125
2694;37.389404296875
2695;37.38935470581055
2696;37.38929748535156
2697;37.38924026489258
2698;37.38917541503906
2699;37.389122009277344
2700;37.38905715942383
2701;37.38898849487305
2702;37.38895797729492
2703;37.38887405395508
2704;37.38880920410156
2705;37.38874816894531
2706;37.38869094848633
2707;37.38862991333008
2708;37.388572692871094
2709;37.38850021362305
2710;37.38844299316406
2711;37.38837814331055
2712;37.388309478759766
2713;37.38824462890625
2714;37.38817596435547
2715;37.38810729980469
2716;37.38803482055664
2717;37.387962341308594
2718;37.38789367675781
2719;37.38783264160156
2720;37.38777160644531
2721;37.38768005371094
2722;37.387630462646484
2723;37.38753890991211
2724;37.387474060058594
2725;37.38740539550781
2726;37.3873291015625
2727;37.387245178222656
2728;37.387168884277344
2729;37.38710403442383
2730;37.38701629638672
2731;37.38695526123047
2732;37.386863708496094
2733;37.38677978515625
2734;37.38671112060547
2735;37.386619567871094
2736;37.386539459228516
2737;37.386451721191406
2738;37.38637161254883
2739;37.38629150390625
2740;37.38621139526367
2741;37.38612365722656
2742;37.38602828979492
2743;37.38594436645508
2744;37.385860443115234
2745;37.38576126098633
2746;37.38566970825195
2747;37.385597229003906
2748;37.38548278808594
2749;37.38541030883789
2750;37.385311126708984
2751;37.38521194458008
2752;37.38509750366211
2753;37.3850212097168
2754;37.384925842285156
2755;37.38481140136719
2756;37.38471221923828
2757;37.38460159301758
2758;37.38451385498047
2759;37.38440704345703
2760;37.38431167602539
2761;37.38418960571289
2762;37.38408279418945
2763;37.383975982666016
2764;37.38386154174805
2765;37.38375473022461
2766;37.38363265991211
2767;37.38351058959961
2768;37.383399963378906
2769;37.38328552246094
2770;37.383155822753906
2771;37.38303756713867
2772;37.38291931152344
2773;37.38279342651367
2774;37.382667541503906
2775;37.382530212402344
2776;37.38240432739258
2777;37.38226318359375
2778;37.382137298583984
2779;37.382015228271484
2780;37.38186264038086
2781;37.3817253112793
2782;37.38157272338867
2783;37.38144302368164
2784;37.38129425048828
2785;37.381141662597656
2786;37.38098907470703
2787;37.38083267211914
2788;37.38067626953125
2789;37.38053894042969
2790;37.38036346435547
2791;37.380184173583984
2792;37.38002014160156
2793;37.379859924316406
2794;37.37968444824219
2795;37.37950134277344
2796;37.37932586669922
2797;37.37915802001953
2798;37.378971099853516
2799;37.37876892089844
2800;37.378578186035156
2801;37.37838363647461
2802;37.378177642822266
2803;37.37797164916992
2804;37.37776565551758
2805;37.37755584716797
2806;37.37733840942383
2807;37.37710189819336
2808;37.376888275146484
2809;37.37665557861328
2810;37.37641143798828
2811;37.376182556152344
2812;37.37593460083008
2813;37.37568283081055
2814;37.375423431396484
2815;37.37516403198242
2816;37.37489700317383
2817;37.37461471557617
2818;37.374324798583984
2819;37.37403869628906
2820;37.37374496459961
2821;37.37342834472656
2822;37.37313461303711
2823;37.37278747558594
2824;37.37247085571289
2825;37.37213134765625
2826;37.37178421020508
2827;37.37141799926758
2828;37.37105941772461
2829;37.370670318603516
2830;37.370277404785156
2831;37.36988067626953
2832;37.36945724487305
2833;37.36902618408203
2834;37.36858367919922
2835;37.36811828613281
2836;37.36764907836914
2837;37.367164611816406
2838;37.36664962768555
2839;37.366111755371094
2840;37.36557388305664
2841;37.365013122558594
2842;37.36443328857422
2843;37.36381912231445
2844;37.36319351196289
2845;37.362525939941406
2846;37.36183547973633
2847;37.361106872558594
2848;37.36036682128906
2849;37.35956954956055
2850;37.358760833740234
2851;37.357906341552734
2852;37.356998443603516
2853;37.356056213378906
2854;37.35505676269531
2855;37.35401153564453
2856;37.3529052734375
2857;37.35173797607422
2858;37.35050582885742
2859;37.34920120239258
2860;37.34782028198242
2861;37.34634780883789
2862;37.34477996826172
2863;37.34312057495117
2864;37.341346740722656
2865;37.33942794799805
2866;37.33736801147461
2867;37.33516311645508
2868;37.332786560058594
2869;37.33019256591797
2870;37.32741928100586
2871;37.324363708496094
2872;37.321044921875
2873;37.317420959472656
2874;37.31342697143555
2875;37.309024810791016
2876;37.30414962768555
2877;37.298709869384766
2878;37.29264450073242
2879;37.285804748535156
2880;37.278099060058594
2881;37.26933288574219
2882;37.25930404663086
2883;37.24775695800781
2884;37.234378814697266
2885;37.218727111816406
2886;37.20028305053711
2887;37.17837142944336
2888;37.152099609375
2889;37.120296478271484
2890;37.08146286010742
2891;37.03357696533203
2892;36.97407150268555
2893;36.89974594116211
2894;36.806800842285156
2895;36.691017150878906
2896;36.549171447753906
2897;36.38352966308594
2898;36.202171325683594
2899;36.024497985839844
2900;35.88267517089844
2901;35.80936813354492
2902;35.8161506652832
2903;35.86903762817383
2904;35.90846252441406
2905;35.89480972290039
2906;35.82576370239258
2907;35.724796295166016
2908;35.61767578125
2909;35.52619934082031
2910;35.4622917175293
2911;35.42505645751953
2912;35.40528106689453
2913;35.39128112792969
2914;35.37361145019531
2915;35.34797668457031
2916;35.3127326965332
2917;35.26731872558594
2918;35.21507263183594
2919;35.1607666015625
2920;35.110111236572266
2921;35.065185546875
2922;35.027854919433594
2923;34.99809265136719
2924;34.97165298461914
2925;34.94691467285156
2926;34.920345306396484
2927;34.89011001586914
2928;34.85659408569336
2929;34.82094192504883
2930;34.784969329833984
2931;34.7503662109375
2932;34.71819305419922
2933;34.688663482666016
2934;34.66236877441406
2935;34.637107849121094
2936;34.61201095581055
2937;34.586360931396484
2938;34.55971908569336
2939;34.53345489501953
2940;34.505714416503906
2941;34.47771072387695
2942;34.44967269897461
2943;34.422176361083984
2944;34.39527130126953
2945;34.37007141113281
2946;34.346439361572266
2947;34.32322311401367
2948;34.30020523071289
2949;34.277286529541016
2950;34.25438690185547
2951;34.23153305053711
2952;34.20884704589844
2953;34.186397552490234
2954;34.16428756713867
2955;34.14256286621094
2956;34.12122344970703
2957;34.100223541259766
2958;34.079505920410156
2959;34.05900192260742
2960;34.03866958618164
2961;34.01844024658203
2962;33.99835205078125
2963;33.97841262817383
2964;33.95866394042969
2965;33.93912124633789
2966;33.91981506347656
2967;33.9007568359375
2968;33.88188552856445
2969;33.86318588256836
2970;33.84465026855469
2971;33.82624053955078
2972;33.80795669555664
2973;33.78977966308594
2974;33.77175521850586
2975;33.753868103027344
2976;33.73612976074219
2977;33.71857452392578
2978;33.7011604309082
2979;33.68389129638672
2980;33.66672897338867
2981;33.649696350097656
2982;33.6328010559082
2983;33.61599349975586
2984;33.59928512573242
2985;33.58268737792969
2986;33.56616973876953
2987;33.549747467041016
2988;33.53342819213867
2989;33.51719284057617
2990;33.50107955932617
2991;33.48504638671875
2992;33.46908187866211
2993;33.453182220458984
2994;33.43735885620117
2995;33.42156982421875
2996;33.405818939208984
2997;33.39012908935547
2998;33.374488830566406
2999;33.35886001586914
