;loss
0;1321.3641357421875
1;1320.4327392578125
2;1319.186767578125
3;1317.9462890625
4;1316.7852783203125
5;1315.55029296875
6;1314.3525390625
7;1313.115966796875
8;1311.8935546875
9;1310.6593017578125
10;1309.41259765625
11;1308.152099609375
12;1306.8775634765625
13;1305.583984375
14;1304.2769775390625
15;1302.941162109375
16;1301.590087890625
17;1300.19970703125
18;1298.78955078125
19;1297.3438720703125
20;1295.841796875
21;1294.2923583984375
22;1292.7071533203125
23;1291.06298828125
24;1289.3321533203125
25;1287.5240478515625
26;1285.6517333984375
27;1283.683837890625
28;1281.58251953125
29;1279.3563232421875
30;1276.98876953125
31;1274.46044921875
32;1271.75
33;1268.832275390625
34;1265.71337890625
35;1262.287353515625
36;1258.5889892578125
37;1254.48486328125
38;1249.95361328125
39;1244.9193115234375
40;1239.2864990234375
41;1233.0048828125
42;1225.869873046875
43;1217.6907958984375
44;1208.1168212890625
45;1197.01123046875
46;1183.859375
47;1168.11181640625
48;1148.908447265625
49;1125.9180908203125
50;1098.5345458984375
51;1066.774658203125
52;1032.509765625
53;998.4383544921875
54;967.318359375
55;940.0064086914062
56;916.4752807617188
57;896.2010498046875
58;878.477783203125
59;862.99853515625
60;849.4722290039062
61;837.4586181640625
62;826.6687622070312
63;817.0864868164062
64;808.4692993164062
65;800.572509765625
66;793.2926025390625
67;786.57421875
68;780.3048095703125
69;774.3990478515625
70;768.888671875
71;763.6981811523438
72;758.7828979492188
73;754.1177368164062
74;749.686279296875
75;745.4420776367188
76;741.3785400390625
77;737.4862670898438
78;733.7222290039062
79;730.074462890625
80;726.5313110351562
81;723.0824584960938
82;719.7200927734375
83;716.4371337890625
84;713.2272338867188
85;710.068359375
86;706.991455078125
87;703.9739990234375
88;701.0114135742188
89;698.1004638671875
90;695.2379760742188
91;692.405517578125
92;689.6160278320312
93;686.8674926757812
94;684.170654296875
95;681.49658203125
96;678.8701782226562
97;676.2764892578125
98;673.714111328125
99;671.1810302734375
100;668.6761474609375
101;666.1979370117188
102;663.74560546875
103;661.318115234375
104;658.9143676757812
105;656.5338745117188
106;654.164794921875
107;651.827880859375
108;649.511474609375
109;647.205078125
110;644.927978515625
111;642.6694946289062
112;640.4291381835938
113;638.1974487304688
114;635.9829711914062
115;633.794189453125
116;631.62158203125
117;629.4559936523438
118;627.305908203125
119;625.1710815429688
120;623.0592041015625
121;620.9616088867188
122;618.8778076171875
123;616.7997436523438
124;614.742919921875
125;612.698974609375
126;610.667724609375
127;608.6414794921875
128;606.6348876953125
129;604.64013671875
130;602.6502075195312
131;600.671875
132;598.7124633789062
133;596.7647705078125
134;594.8283081054688
135;592.8961791992188
136;590.981201171875
137;589.070068359375
138;587.1691284179688
139;585.284423828125
140;583.4096069335938
141;581.5442504882812
142;579.6885986328125
143;577.836181640625
144;575.9988403320312
145;574.1707153320312
146;572.3514404296875
147;570.5411376953125
148;568.7393798828125
149;566.9404907226562
150;565.150146484375
151;563.37353515625
152;561.6051635742188
153;559.839599609375
154;558.0820922851562
155;556.3375854492188
156;554.6010131835938
157;552.8721313476562
158;551.14599609375
159;549.4323120117188
160;547.720947265625
161;546.02197265625
162;544.325439453125
163;542.6362915039062
164;540.958740234375
165;539.2838134765625
166;537.615966796875
167;535.959716796875
168;534.3056640625
169;532.6630249023438
170;531.022705078125
171;529.3889770507812
172;527.761962890625
173;526.1414184570312
174;524.52734375
175;522.9237060546875
176;521.3263549804688
177;519.7350463867188
178;518.145751953125
179;516.5664672851562
180;514.9890747070312
181;513.4176635742188
182;511.8558349609375
183;510.29986572265625
184;508.74951171875
185;507.2010498046875
186;505.6618957519531
187;504.1246337890625
188;502.5964660644531
189;501.0738830566406
190;499.55670166015625
191;498.044921875
192;496.53851318359375
193;495.0374450683594
194;493.5416259765625
195;492.0475158691406
196;490.5621643066406
197;489.0784912109375
198;487.60009765625
199;486.1300048828125
200;484.6650390625
201;483.2018127441406
202;481.74365234375
203;480.29046630859375
204;478.8454284667969
205;477.40533447265625
206;475.9669189453125
207;474.53656005859375
208;473.10791015625
209;471.68414306640625
210;470.26806640625
211;468.8537902832031
212;467.4442138671875
213;466.0423278808594
214;464.64508056640625
215;463.24951171875
216;461.8586120605469
217;460.4722900390625
218;459.0933837890625
219;457.7189636230469
220;456.34625244140625
221;454.9779357910156
222;453.616943359375
223;452.26031494140625
224;450.9053955078125
225;449.55755615234375
226;448.21142578125
227;446.8722839355469
228;445.53485107421875
229;444.2042541503906
230;442.8779602050781
231;441.55584716796875
232;440.2354431152344
233;438.9193115234375
234;437.6097412109375
235;436.3043212890625
236;435.0006103515625
237;433.70343017578125
238;432.4079284667969
239;431.1165466308594
240;429.8292236328125
241;428.5482177734375
242;427.2713317871094
243;425.99609375
244;424.7248229980469
245;423.4598083496094
246;422.19873046875
247;420.939453125
248;419.6839599609375
249;418.4346618652344
250;417.189208984375
251;415.94757080078125
252;414.7097473144531
253;413.47576904296875
254;412.24560546875
255;411.0191650390625
256;409.7944030761719
257;408.5755920410156
258;407.36041259765625
259;406.1468505859375
260;404.93914794921875
261;403.7330322265625
262;402.5326232910156
263;401.3358154296875
264;400.1407775878906
265;398.95123291015625
266;397.763427734375
267;396.5791015625
268;395.3985290527344
269;394.2233581542969
270;393.05169677734375
271;391.8817138671875
272;390.7152404785156
273;389.55413818359375
274;388.3965148925781
275;387.2406005859375
276;386.0898742675781
277;384.94085693359375
278;383.7970275878906
279;382.6566162109375
280;381.51788330078125
281;380.38427734375
282;379.2539367675781
283;378.1270751953125
284;377.0036315917969
285;375.8833923339844
286;374.7665100097656
287;373.6512451171875
288;372.5393371582031
289;371.43231201171875
290;370.3269958496094
291;369.22650146484375
292;368.1292724609375
293;367.0353698730469
294;365.9446105957031
295;364.8570861816406
296;363.7727966308594
297;362.6916809082031
298;361.61370849609375
299;360.5389709472656
300;359.4658203125
301;358.3957824707031
302;357.3304748535156
303;356.26824951171875
304;355.2091369628906
305;354.15313720703125
306;353.10028076171875
307;352.0489807128906
308;351.0022277832031
309;349.9571533203125
310;348.91656494140625
311;347.8790283203125
312;346.844482421875
313;345.8129577636719
314;344.7830810546875
315;343.7575988769531
316;342.7337646484375
317;341.7128601074219
318;340.69500732421875
319;339.6800537109375
320;338.6681213378906
321;337.6605224609375
322;336.6558532714844
323;335.6527404785156
324;334.6538391113281
325;333.657958984375
326;332.66363525390625
327;331.6734619140625
328;330.6849365234375
329;329.6993103027344
330;328.7165222167969
331;327.736572265625
332;326.7607421875
333;325.78662109375
334;324.81640625
335;323.847900390625
336;322.8821716308594
337;321.9192810058594
338;320.96038818359375
339;320.0030517578125
340;319.04974365234375
341;318.0979919433594
342;317.1502685546875
343;316.2051696777344
344;315.26287841796875
345;314.3233337402344
346;313.3853454589844
347;312.4501953125
348;311.51873779296875
349;310.5900573730469
350;309.66412353515625
351;308.73974609375
352;307.81805419921875
353;306.9000549316406
354;305.9837646484375
355;305.0711364746094
356;304.1600341796875
357;303.25177001953125
358;302.34600830078125
359;301.4439697265625
360;300.5445556640625
361;299.646728515625
362;298.75250244140625
363;297.85986328125
364;296.9698486328125
365;296.0834045410156
366;295.1986083984375
367;294.3163146972656
368;293.4376220703125
369;292.5614013671875
370;291.6868896484375
371;290.8148498535156
372;289.94537353515625
373;289.079345703125
374;288.21588134765625
375;287.35498046875
376;286.4964599609375
377;285.63958740234375
378;284.7851867675781
379;283.9342346191406
380;283.08575439453125
381;282.23974609375
382;281.3952941894531
383;280.5542297363281
384;279.7147216796875
385;278.8775939941406
386;278.0429992675781
387;277.2117004394531
388;276.3819885253906
389;275.5555114746094
390;274.7314758300781
391;273.908935546875
392;273.0888977050781
393;272.2720947265625
394;271.4567565917969
395;270.6438903808594
396;269.8333740234375
397;269.0260314941406
398;268.2210998535156
399;267.4184875488281
400;266.6182861328125
401;265.8204040527344
402;265.0248107910156
403;264.2308349609375
404;263.4390869140625
405;262.65057373046875
406;261.86431884765625
407;261.07952880859375
408;260.2979736328125
409;259.51861572265625
410;258.7407531738281
411;257.9659729003906
412;257.1927490234375
413;256.4225769042969
414;255.6538848876953
415;254.88818359375
416;254.124755859375
417;253.36285400390625
418;252.60394287109375
419;251.8472442626953
420;251.09201049804688
421;250.33908081054688
422;249.58905029296875
423;248.84063720703125
424;248.09503173828125
425;247.3516387939453
426;246.6104278564453
427;245.87147521972656
428;245.13397216796875
429;244.39871215820312
430;243.66629028320312
431;242.93600463867188
432;242.20787048339844
433;241.48126220703125
434;240.75753784179688
435;240.03585815429688
436;239.31637573242188
437;238.598388671875
438;237.8831329345703
439;237.17005920410156
440;236.45849609375
441;235.74964904785156
442;235.0428924560547
443;234.337646484375
444;233.63511657714844
445;232.93467712402344
446;232.23570251464844
447;231.53944396972656
448;230.84527587890625
449;230.1532440185547
450;229.4632110595703
451;228.77462768554688
452;228.08810424804688
453;227.40426635742188
454;226.72189331054688
455;226.04214477539062
456;225.36386108398438
457;224.68760681152344
458;224.01336669921875
459;223.3417510986328
460;222.67213439941406
461;222.00457763671875
462;221.3384246826172
463;220.67430114746094
464;220.0121307373047
465;219.35202026367188
466;218.6944122314453
467;218.03884887695312
468;217.38461303710938
469;216.73245239257812
470;216.08221435546875
471;215.43450927734375
472;214.78822326660156
473;214.14447021484375
474;213.50205993652344
475;212.86163330078125
476;212.22369384765625
477;211.58718872070312
478;210.95306396484375
479;210.3209228515625
480;209.69065856933594
481;209.06231689453125
482;208.43545532226562
483;207.81040954589844
484;207.18783569335938
485;206.56663513183594
486;205.9473419189453
487;205.3299560546875
488;204.7144317626953
489;204.10128784179688
490;203.49002075195312
491;202.88011169433594
492;202.27255249023438
493;201.6669464111328
494;201.06263732910156
495;200.46067810058594
496;199.8605499267578
497;199.26185607910156
498;198.66490173339844
499;198.06985473632812
500;197.4770965576172
501;196.8861541748047
502;196.29701232910156
503;195.70970153808594
504;195.1242218017578
505;194.54049682617188
506;193.95864868164062
507;193.37811279296875
508;192.79937744140625
509;192.22288513183594
510;191.6481475830078
511;191.07521057128906
512;190.50364685058594
513;189.933837890625
514;189.36578369140625
515;188.7994842529297
516;188.2349853515625
517;187.67221069335938
518;187.1112060546875
519;186.5519561767578
520;185.99484252929688
521;185.43910217285156
522;184.8850555419922
523;184.3331298828125
524;183.7825469970703
525;183.23410034179688
526;182.68731689453125
527;182.14231872558594
528;181.59898376464844
529;181.05702209472656
530;180.51705932617188
531;179.9788360595703
532;179.44192504882812
533;178.9070587158203
534;178.37391662597656
535;177.84207153320312
536;177.31182861328125
537;176.78335571289062
538;176.2565155029297
539;175.73129272460938
540;175.2081756591797
541;174.68663024902344
542;174.16644287109375
543;173.64822387695312
544;173.13131713867188
545;172.61639404296875
546;172.10305786132812
547;171.59107971191406
548;171.0806884765625
549;170.57225036621094
550;170.06546020507812
551;169.55992126464844
552;169.05633544921875
553;168.5543670654297
554;168.05364990234375
555;167.55453491210938
556;167.05697631835938
557;166.56143188476562
558;166.0670623779297
559;165.57464599609375
560;165.08346557617188
561;164.5941619873047
562;164.1064453125
563;163.6199951171875
564;163.13507080078125
565;162.65176391601562
566;162.16995239257812
567;161.68972778320312
568;161.21131896972656
569;160.73422241210938
570;160.2589111328125
571;159.78485107421875
572;159.31231689453125
573;158.8416290283203
574;158.3724822998047
575;157.90447998046875
576;157.43804931640625
577;156.973388671875
578;156.510009765625
579;156.04837036132812
580;155.5879669189453
581;155.12905883789062
582;154.67193603515625
583;154.21627807617188
584;153.7618865966797
585;153.3088836669922
586;152.85769653320312
587;152.4080047607422
588;151.9594268798828
589;151.5126953125
590;151.0673370361328
591;150.6234893798828
592;150.1810760498047
593;149.73985290527344
594;149.30035400390625
595;148.86204528808594
596;148.4251251220703
597;147.98968505859375
598;147.55567932128906
599;147.12335205078125
600;146.69247436523438
601;146.26272583007812
602;145.8346405029297
603;145.4077606201172
604;144.9825439453125
605;144.55845642089844
606;144.13580322265625
607;143.71453857421875
608;143.29466247558594
609;142.87620544433594
610;142.45933532714844
611;142.04367065429688
612;141.62937927246094
613;141.21665954589844
614;140.8053741455078
615;140.3951873779297
616;139.98643493652344
617;139.5791778564453
618;139.17311096191406
619;138.7684326171875
620;138.3650665283203
621;137.96331787109375
622;137.56289672851562
623;137.16355895996094
624;136.76583862304688
625;136.36920166015625
626;135.97390747070312
627;135.5801544189453
628;135.187744140625
629;134.7964630126953
630;134.40667724609375
631;134.01824951171875
632;133.6309051513672
633;133.2450408935547
634;132.86053466796875
635;132.47732543945312
636;132.09519958496094
637;131.71435546875
638;131.33502197265625
639;130.956787109375
640;130.58004760742188
641;130.20437622070312
642;129.82997131347656
643;129.45706176757812
644;129.0854034423828
645;128.71485900878906
646;128.3455352783203
647;127.97752380371094
648;127.61070251464844
649;127.24518585205078
650;126.88092803955078
651;126.51791381835938
652;126.15634155273438
653;125.79598999023438
654;125.43669891357422
655;125.07865142822266
656;124.72183990478516
657;124.36622619628906
658;124.01189422607422
659;123.65878295898438
660;123.30684661865234
661;122.95616149902344
662;122.60689544677734
663;122.25859832763672
664;121.91153717041016
665;121.56571197509766
666;121.22108459472656
667;120.87779235839844
668;120.53553771972656
669;120.19464874267578
670;119.85494232177734
671;119.51644134521484
672;119.17893981933594
673;118.8427734375
674;118.50765228271484
675;118.17384338378906
676;117.8411865234375
677;117.50972747802734
678;117.17942810058594
679;116.85025787353516
680;116.52228546142578
681;116.1954345703125
682;115.86957550048828
683;115.54486846923828
684;115.22148895263672
685;114.8990478515625
686;114.57793426513672
687;114.2579345703125
688;113.93911743164062
689;113.6211929321289
690;113.30461883544922
691;112.98896789550781
692;112.6744613647461
693;112.36104583740234
694;112.04889678955078
695;111.7378921508789
696;111.4278335571289
697;111.11902618408203
698;110.81133270263672
699;110.5045394897461
700;110.19890594482422
701;109.89431762695312
702;109.59083557128906
703;109.28841400146484
704;108.98724365234375
705;108.68704223632812
706;108.38787078857422
707;108.08993530273438
708;107.79293823242188
709;107.49712371826172
710;107.20226287841797
711;106.90846252441406
712;106.61568450927734
713;106.3239974975586
714;106.03337860107422
715;105.74375915527344
716;105.45524597167969
717;105.16788482666016
718;104.88143920898438
719;104.59616088867188
720;104.31175994873047
721;104.0284194946289
722;103.7462387084961
723;103.46509552001953
724;103.1848373413086
725;102.90573120117188
726;102.62751770019531
727;102.35045623779297
728;102.07437896728516
729;101.79918670654297
730;101.5250244140625
731;101.25200653076172
732;100.97982788085938
733;100.70877838134766
734;100.43876647949219
735;100.16968536376953
736;99.9016342163086
737;99.63455963134766
738;99.36846923828125
739;99.1033706665039
740;98.83909606933594
741;98.57584381103516
742;98.31353759765625
743;98.05230712890625
744;97.79207611083984
745;97.53267669677734
746;97.27434539794922
747;97.01699829101562
748;96.76058959960938
749;96.50503540039062
750;96.25041961669922
751;95.99687957763672
752;95.74414825439453
753;95.49237823486328
754;95.24154663085938
755;94.99163818359375
756;94.74269104003906
757;94.49478149414062
758;94.24777221679688
759;94.00161743164062
760;93.75635528564453
761;93.51205444335938
762;93.26863098144531
763;93.02615356445312
764;92.78466796875
765;92.54402160644531
766;92.3043441772461
767;92.06551361083984
768;91.82756042480469
769;91.59060668945312
770;91.35457611083984
771;91.11931610107422
772;90.88504028320312
773;90.65167999267578
774;90.419189453125
775;90.1874771118164
776;89.95677185058594
777;89.72692108154297
778;89.49784851074219
779;89.26966857910156
780;89.04235076904297
781;88.8158950805664
782;88.59031677246094
783;88.36569213867188
784;88.14193725585938
785;87.91891479492188
786;87.69677734375
787;87.47560119628906
788;87.255126953125
789;87.03565979003906
790;86.81689453125
791;86.5989990234375
792;86.38201904296875
793;86.1658706665039
794;85.95059204101562
795;85.73600769042969
796;85.52230834960938
797;85.30947875976562
798;85.0975112915039
799;84.88626098632812
800;84.67581939697266
801;84.46621704101562
802;84.25747680664062
803;84.04953002929688
804;83.8424301147461
805;83.63607788085938
806;83.43061065673828
807;83.22586059570312
808;83.02195739746094
809;82.81889343261719
810;82.61660766601562
811;82.41505432128906
812;82.21436309814453
813;82.01444244384766
814;81.81533813476562
815;81.61697387695312
816;81.41935729980469
817;81.22249603271484
818;81.02639770507812
819;80.83118438720703
820;80.63673400878906
821;80.44293975830078
822;80.25003814697266
823;80.05784606933594
824;79.86640167236328
825;79.67575073242188
826;79.48587036132812
827;79.29676055908203
828;79.1083755493164
829;78.92074584960938
830;78.73387908935547
831;78.54768371582031
832;78.36227416992188
833;78.17761993408203
834;77.99369812011719
835;77.81047058105469
836;77.62796020507812
837;77.44625091552734
838;77.26518249511719
839;77.0848617553711
840;76.90531921386719
841;76.72652435302734
842;76.54843139648438
843;76.37100219726562
844;76.19428253173828
845;76.01831817626953
846;75.8430404663086
847;75.6684341430664
848;75.49456024169922
849;75.32144165039062
850;75.14896392822266
851;74.97716522216797
852;74.8061752319336
853;74.63583374023438
854;74.46621704101562
855;74.29727935791016
856;74.12898254394531
857;73.96139526367188
858;73.7945327758789
859;73.6283187866211
860;73.46279907226562
861;73.2979507446289
862;73.13374328613281
863;72.97021484375
864;72.80733489990234
865;72.6451416015625
866;72.48359680175781
867;72.32276916503906
868;72.16253662109375
869;72.00298309326172
870;71.8441390991211
871;71.6859359741211
872;71.52833557128906
873;71.37139892578125
874;71.21517181396484
875;71.05950927734375
876;70.90457153320312
877;70.7502670288086
878;70.59658813476562
879;70.44357299804688
880;70.29113006591797
881;70.13937377929688
882;69.9882583618164
883;69.83770751953125
884;69.68777465820312
885;69.53854370117188
886;69.38993835449219
887;69.24188995361328
888;69.09451293945312
889;68.9477767944336
890;68.80162811279297
891;68.65609741210938
892;68.51118469238281
893;68.36683654785156
894;68.22313690185547
895;68.08003234863281
896;67.93750762939453
897;67.79556274414062
898;67.65425109863281
899;67.51350402832031
900;67.37335968017578
901;67.23379516601562
902;67.09483337402344
903;66.95646667480469
904;66.81869506835938
905;66.68154907226562
906;66.54492950439453
907;66.40887451171875
908;66.2734603881836
909;66.13856506347656
910;66.00426483154297
911;65.87059020996094
912;65.73747253417969
913;65.60494232177734
914;65.47293853759766
915;65.34151458740234
916;65.21063232421875
917;65.08030700683594
918;64.95059204101562
919;64.8213882446289
920;64.69278717041016
921;64.564697265625
922;64.43714904785156
923;64.31021118164062
924;64.18376159667969
925;64.05786895751953
926;63.93251037597656
927;63.80768585205078
928;63.68347930908203
929;63.55979537963867
930;63.4366455078125
931;63.31401824951172
932;63.19194793701172
933;63.07040023803711
934;62.94936752319336
935;62.82883834838867
936;62.70885467529297
937;62.58936309814453
938;62.47043228149414
939;62.35199737548828
940;62.23412322998047
941;62.11675262451172
942;61.99985885620117
943;61.88348388671875
944;61.76762390136719
945;61.65226364135742
946;61.5374755859375
947;61.42311096191406
948;61.30927276611328
949;61.19594955444336
950;61.08314514160156
951;60.97080993652344
952;60.8590087890625
953;60.74770736694336
954;60.63688659667969
955;60.52653503417969
956;60.41667175292969
957;60.30728530883789
958;60.19844055175781
959;60.09002685546875
960;59.98210144042969
961;59.87466049194336
962;59.76771926879883
963;59.66127395629883
964;59.55527114868164
965;59.44972610473633
966;59.34470748901367
967;59.2401123046875
968;59.135986328125
969;59.03231430053711
970;58.92913055419922
971;58.82640075683594
972;58.72415542602539
973;58.62236785888672
974;58.52101516723633
975;58.42014694213867
976;58.31973648071289
977;58.21976852416992
978;58.12028121948242
979;58.02122116088867
980;57.92259979248047
981;57.82445526123047
982;57.72676467895508
983;57.62950134277344
984;57.53266143798828
985;57.43628692626953
986;57.34035110473633
987;57.24482727050781
988;57.14972686767578
989;57.05509948730469
990;56.96088409423828
991;56.867088317871094
992;56.77371597290039
993;56.68077850341797
994;56.58830261230469
995;56.496219635009766
996;56.4045524597168
997;56.31331253051758
998;56.2225341796875
999;56.13215255737305
