;loss
0;1396.9481201171875
1;1395.010009765625
2;1393.3453369140625
3;1391.5794677734375
4;1389.634765625
5;1387.6842041015625
6;1385.7265625
7;1383.80078125
8;1381.8228759765625
9;1379.8497314453125
10;1377.8531494140625
11;1375.8326416015625
12;1373.7867431640625
13;1371.71337890625
14;1369.6104736328125
15;1367.489501953125
16;1365.31982421875
17;1363.1119384765625
18;1360.8626708984375
19;1358.5909423828125
20;1356.24755859375
21;1353.850830078125
22;1351.3968505859375
23;1348.909423828125
24;1346.356689453125
25;1343.70263671875
26;1340.9710693359375
27;1338.15625
28;1335.2520751953125
29;1332.28759765625
30;1329.18603515625
31;1325.974853515625
32;1322.6463623046875
33;1319.2318115234375
34;1315.6434326171875
35;1311.9117431640625
36;1308.0714111328125
37;1304.0255126953125
38;1299.8067626953125
39;1295.4036865234375
40;1290.852294921875
41;1286.0440673828125
42;1281.0140380859375
43;1275.7493896484375
44;1270.23388671875
45;1264.455078125
46;1258.45556640625
47;1252.1038818359375
48;1245.4439697265625
49;1238.5269775390625
50;1231.2769775390625
51;1223.609130859375
52;1215.5762939453125
53;1207.171630859375
54;1198.3863525390625
55;1189.294921875
56;1179.8238525390625
57;1169.891357421875
58;1159.58544921875
59;1149.0096435546875
60;1138.02099609375
61;1126.7305908203125
62;1115.270263671875
63;1103.5115966796875
64;1091.680419921875
65;1079.7501220703125
66;1067.792236328125
67;1055.7935791015625
68;1043.9061279296875
69;1032.2855224609375
70;1020.8316040039062
71;1009.6621704101562
72;998.814453125
73;988.3909912109375
74;978.3538818359375
75;968.6414184570312
76;959.333984375
77;950.4213256835938
78;941.9205322265625
79;933.8490600585938
80;926.1376342773438
81;918.7626953125
82;911.6363525390625
83;904.800537109375
84;898.2494506835938
85;891.9387817382812
86;885.8460693359375
87;879.9337768554688
88;874.2134399414062
89;868.6820678710938
90;863.3321533203125
91;858.1778564453125
92;853.158203125
93;848.3052978515625
94;843.5872192382812
95;838.9785766601562
96;834.5255126953125
97;830.1943969726562
98;825.9756469726562
99;821.8427124023438
100;817.8080444335938
101;813.8687744140625
102;810.0213623046875
103;806.2763061523438
104;802.5912475585938
105;798.9821166992188
106;795.442626953125
107;791.9678955078125
108;788.5533447265625
109;785.1963500976562
110;781.8945922851562
111;778.6475830078125
112;775.4655151367188
113;772.3304443359375
114;769.2390747070312
115;766.1897583007812
116;763.1691284179688
117;760.2000732421875
118;757.2583618164062
119;754.353271484375
120;751.4826049804688
121;748.6453247070312
122;745.8506469726562
123;743.0773315429688
124;740.333984375
125;737.6298217773438
126;734.9530639648438
127;732.2933349609375
128;729.6692504882812
129;727.0610961914062
130;724.4866943359375
131;721.9259643554688
132;719.3967895507812
133;716.8897094726562
134;714.3958129882812
135;711.9312133789062
136;709.4866943359375
137;707.0615844726562
138;704.6478881835938
139;702.2532958984375
140;699.885009765625
141;697.5266723632812
142;695.1937255859375
143;692.870849609375
144;690.5721435546875
145;688.2822875976562
146;686.0084228515625
147;683.75
148;681.5137939453125
149;679.2922973632812
150;677.0786743164062
151;674.8794555664062
152;672.7006225585938
153;670.5355224609375
154;668.3775024414062
155;666.2386474609375
156;664.1065063476562
157;661.9931030273438
158;659.8858642578125
159;657.796875
160;655.713623046875
161;653.6420288085938
162;651.5877685546875
163;649.544677734375
164;647.5068969726562
165;645.4854736328125
166;643.4747314453125
167;641.4744873046875
168;639.484619140625
169;637.4995727539062
170;635.5244750976562
171;633.5594482421875
172;631.6041870117188
173;629.6633911132812
174;627.7271118164062
175;625.8050537109375
176;623.8872680664062
177;621.978515625
178;620.0789184570312
179;618.1928100585938
180;616.3106689453125
181;614.4371337890625
182;612.5718994140625
183;610.7149658203125
184;608.8663940429688
185;607.0304565429688
186;605.1979370117188
187;603.3779907226562
188;601.5658569335938
189;599.7617797851562
190;597.9652709960938
191;596.1764526367188
192;594.3909301757812
193;592.613037109375
194;590.8466186523438
195;589.0872192382812
196;587.3310546875
197;585.5819091796875
198;583.83984375
199;582.1046142578125
200;580.3803100585938
201;578.6589965820312
202;576.9481201171875
203;575.243896484375
204;573.546142578125
205;571.8549194335938
206;570.1701049804688
207;568.488037109375
208;566.8157348632812
209;565.1497192382812
210;563.489990234375
211;561.8363037109375
212;560.1886596679688
213;558.547119140625
214;556.9114379882812
215;555.2782592773438
216;553.6543579101562
217;552.0330200195312
218;550.4172973632812
219;548.810791015625
220;547.2098388671875
221;545.6145629882812
222;544.0216674804688
223;542.4375
224;540.8587646484375
225;539.2855224609375
226;537.7178344726562
227;536.1522827148438
228;534.5922241210938
229;533.0374755859375
230;531.488037109375
231;529.9439086914062
232;528.4078979492188
233;526.8741455078125
234;525.348388671875
235;523.8278198242188
236;522.3093872070312
237;520.7959594726562
238;519.2875366210938
239;517.7869873046875
240;516.2911987304688
241;514.8003540039062
242;513.3117065429688
243;511.8278503417969
244;510.3487548828125
245;508.8745422363281
246;507.4050598144531
247;505.9403076171875
248;504.4801940917969
249;503.0247802734375
250;501.57415771484375
251;500.1279296875
252;498.6863708496094
253;497.25189208984375
254;495.8194885253906
255;494.39398193359375
256;492.9730529785156
257;491.5564880371094
258;490.14434814453125
259;488.73419189453125
260;487.3283996582031
261;485.9293518066406
262;484.5322570800781
263;483.1395263671875
264;481.75103759765625
265;480.3668518066406
266;478.9869079589844
267;477.6112060546875
268;476.2397155761719
269;474.8724670410156
270;473.5093078613281
271;472.1524963378906
272;470.7977294921875
273;469.4469909667969
274;468.1002502441406
275;466.7576904296875
276;465.42120361328125
277;464.0867004394531
278;462.7561340332031
279;461.42950439453125
280;460.10894775390625
281;458.7903137207031
282;457.47552490234375
283;456.1646423339844
284;454.8577575683594
285;453.5546875
286;452.2574157714844
287;450.9639892578125
288;449.6743469238281
289;448.3885192871094
290;447.1045227050781
291;445.8243713378906
292;444.54974365234375
293;443.2770080566406
294;442.00799560546875
295;440.7427062988281
296;439.4830017089844
297;438.2250671386719
298;436.97076416015625
299;435.7201843261719
300;434.4750061035156
301;433.23333740234375
302;431.9953918457031
303;430.7608642578125
304;429.5282897949219
305;428.2992858886719
306;427.0736999511719
307;425.85345458984375
308;424.6366882324219
309;423.42169189453125
310;422.2102355957031
311;421.00390625
312;419.79931640625
313;418.5998840332031
314;417.4022216796875
315;416.2079162597656
316;415.0171203613281
317;413.8313293457031
318;412.6471862792969
319;411.46649169921875
320;410.2907409667969
321;409.1167907714844
322;407.9461669921875
323;406.7788391113281
324;405.6148376464844
325;404.45562744140625
326;403.2983093261719
327;402.1441345214844
328;400.9947814941406
329;399.84857177734375
330;398.7042541503906
331;397.5630798339844
332;396.4252014160156
333;395.29193115234375
334;394.16046142578125
335;393.03350830078125
336;391.9083251953125
337;390.7877502441406
338;389.6689453125
339;388.55328369140625
340;387.4407043457031
341;386.3313903808594
342;385.22637939453125
343;384.1245422363281
344;383.0257873535156
345;381.92877197265625
346;380.8360595703125
347;379.7451477050781
348;378.6573486328125
349;377.5726013183594
350;376.4908142089844
351;375.4120788574219
352;374.3376159667969
353;373.2649230957031
354;372.1964111328125
355;371.1296081542969
356;370.0658874511719
357;369.0051574707031
358;367.947265625
359;366.89239501953125
360;365.8404235839844
361;364.7914733886719
362;363.7465515136719
363;362.70330810546875
364;361.66302490234375
365;360.6256408691406
366;359.5923156738281
367;358.5606384277344
368;357.5318908691406
369;356.5059814453125
370;355.4841003417969
371;354.4638977050781
372;353.4476623535156
373;352.4341735839844
374;351.4236145019531
375;350.4147033691406
376;349.40850830078125
377;348.40521240234375
378;347.4046630859375
379;346.4068603515625
380;345.41290283203125
381;344.4206237792969
382;343.4321594238281
383;342.44647216796875
384;341.4634704589844
385;340.48321533203125
386;339.5046081542969
387;338.5297546386719
388;337.5566101074219
389;336.58612060546875
390;335.6193542480469
391;334.6542053222656
392;333.6918029785156
393;332.7320251464844
394;331.77490234375
395;330.8204040527344
396;329.8686218261719
397;328.9194030761719
398;327.97283935546875
399;327.0299377441406
400;326.0895080566406
401;325.15081787109375
402;324.21563720703125
403;323.2821044921875
404;322.3521423339844
405;321.42376708984375
406;320.4988708496094
407;319.5756530761719
408;318.6549987792969
409;317.7378234863281
410;316.822265625
411;315.9091796875
412;314.9996032714844
413;314.09161376953125
414;313.1861267089844
415;312.283203125
416;311.3827209472656
417;310.4848327636719
418;309.58935546875
419;308.6964111328125
420;307.8059387207031
421;306.9178771972656
422;306.0323486328125
423;305.1492919921875
424;304.2694091796875
425;303.39202880859375
426;302.5162658691406
427;301.6429748535156
428;300.7720642089844
429;299.9043884277344
430;299.0383605957031
431;298.1746520996094
432;297.31341552734375
433;296.4553527832031
434;295.5996398925781
435;294.7463073730469
436;293.89459228515625
437;293.04595947265625
438;292.19903564453125
439;291.35516357421875
440;290.51287841796875
441;289.67291259765625
442;288.83538818359375
443;288.0000915527344
444;287.1672668457031
445;286.3365783691406
446;285.50830078125
447;284.6823425292969
448;283.85943603515625
449;283.0380554199219
450;282.21966552734375
451;281.40362548828125
452;280.5890808105469
453;279.77685546875
454;278.96685791015625
455;278.1591796875
456;277.35369873046875
457;276.5506286621094
458;275.7503662109375
459;274.95233154296875
460;274.1565856933594
461;273.3629455566406
462;272.5709533691406
463;271.7812194824219
464;270.9936218261719
465;270.2082824707031
466;269.42584228515625
467;268.6448669433594
468;267.8660888671875
469;267.0901184082031
470;266.3163757324219
471;265.5447998046875
472;264.7747497558594
473;264.00689697265625
474;263.24114990234375
475;262.47760009765625
476;261.7168273925781
477;260.9574890136719
478;260.2010498046875
479;259.4466247558594
480;258.69378662109375
481;257.9436340332031
482;257.1949768066406
483;256.4485168457031
484;255.70469665527344
485;254.96295166015625
486;254.22337341308594
487;253.48582458496094
488;252.7498016357422
489;252.015869140625
490;251.2839813232422
491;250.55419921875
492;249.82701110839844
493;249.1013641357422
494;248.3783416748047
495;247.65682983398438
496;246.93785095214844
497;246.2204132080078
498;245.5055694580078
499;244.7921905517578
500;244.0813446044922
501;243.3726043701172
502;242.66526794433594
503;241.9599609375
504;241.25668334960938
505;240.55543518066406
506;239.85670471191406
507;239.15989685058594
508;238.46458435058594
509;237.7713165283203
510;237.07998657226562
511;236.39111328125
512;235.7037811279297
513;235.0183563232422
514;234.33547973632812
515;233.65390014648438
516;232.97438049316406
517;232.29681396484375
518;231.62118530273438
519;230.94749450683594
520;230.2761993408203
521;229.60638427734375
522;228.93894958496094
523;228.27340698242188
524;227.60931396484375
525;226.94717407226562
526;226.28736877441406
527;225.62904357910156
528;224.97259521484375
529;224.31800842285156
530;223.66531372070312
531;223.01455688476562
532;222.36563110351562
533;221.7185821533203
534;221.0734100341797
535;220.4306182861328
536;219.78915405273438
537;219.14956665039062
538;218.51185607910156
539;217.87600708007812
540;217.24195861816406
541;216.6097869873047
542;215.97943115234375
543;215.35093688964844
544;214.72422790527344
545;214.09938049316406
546;213.47633361816406
547;212.85511779785156
548;212.23570251464844
549;211.61810302734375
550;211.0022735595703
551;210.38827514648438
552;209.7765350341797
553;209.16604614257812
554;208.5574188232422
555;207.95059204101562
556;207.345458984375
557;206.74217224121094
558;206.14068603515625
559;205.5408477783203
560;204.94287109375
561;204.34703063964844
562;203.75289916992188
563;203.16014099121094
564;202.5691680908203
565;201.97984313964844
566;201.392333984375
567;200.80690002441406
568;200.2228546142578
569;199.64053344726562
570;199.0598907470703
571;198.48095703125
572;197.9037628173828
573;197.32827758789062
574;196.75485229492188
575;196.1827850341797
576;195.6123809814453
577;195.0436553955078
578;194.47698974609375
579;193.91168212890625
580;193.34800720214844
581;192.78636169433594
582;192.22607421875
583;191.66746520996094
584;191.11048889160156
585;190.55517578125
586;190.00155639648438
587;189.4495086669922
588;188.899169921875
589;188.35043334960938
590;187.8037109375
591;187.25828552246094
592;186.71481323242188
593;186.1726531982422
594;185.63243103027344
595;185.09349060058594
596;184.55621337890625
597;184.02052307128906
598;183.48641967773438
599;182.95391845703125
600;182.42337036132812
601;181.89443969726562
602;181.36672973632812
603;180.84095764160156
604;180.31675720214844
605;179.79385375976562
606;179.27249145507812
607;178.75271606445312
608;178.23451232910156
609;177.71786499023438
610;177.2028045654297
611;176.68955993652344
612;176.17791748046875
613;175.6675262451172
614;175.1589813232422
615;174.65170288085938
616;174.14593505859375
617;173.64198303222656
618;173.13929748535156
619;172.63812255859375
620;172.13876342773438
621;171.6406707763672
622;171.14434814453125
623;170.64955139160156
624;170.15628051757812
625;169.6645050048828
626;169.17425537109375
627;168.68545532226562
628;168.1979217529297
629;167.71185302734375
630;167.22731018066406
631;166.74449157714844
632;166.26292419433594
633;165.78280639648438
634;165.30413818359375
635;164.82728576660156
636;164.35182189941406
637;163.87786865234375
638;163.40509033203125
639;162.93406677246094
640;162.46449279785156
641;161.996337890625
642;161.52940368652344
643;161.0638885498047
644;160.599853515625
645;160.13722229003906
646;159.67626953125
647;159.21676635742188
648;158.75869750976562
649;158.30177307128906
650;157.84654235839844
651;157.3925018310547
652;156.93980407714844
653;156.48855590820312
654;156.03900146484375
655;155.59078979492188
656;155.14376831054688
657;154.69810485839844
658;154.25390625
659;153.81103515625
660;153.3695831298828
661;152.92974853515625
662;152.49130249023438
663;152.05393981933594
664;151.6182403564453
665;151.18362426757812
666;150.75045776367188
667;150.31858825683594
668;149.88832092285156
669;149.45916748046875
670;149.0314178466797
671;148.60520935058594
672;148.18011474609375
673;147.75640869140625
674;147.333984375
675;146.91294860839844
676;146.4932098388672
677;146.07481384277344
678;145.657958984375
679;145.24244689941406
680;144.82803344726562
681;144.41493225097656
682;144.0031280517578
683;143.5928497314453
684;143.18368530273438
685;142.77581787109375
686;142.36927795410156
687;141.96397399902344
688;141.56002807617188
689;141.15733337402344
690;140.7559356689453
691;140.35606384277344
692;139.9572296142578
693;139.55992126464844
694;139.163818359375
695;138.7688446044922
696;138.37513732910156
697;137.98265075683594
698;137.5914764404297
699;137.2014923095703
700;136.8130340576172
701;136.42564392089844
702;136.03941345214844
703;135.65452575683594
704;135.2708282470703
705;134.88839721679688
706;134.50718688964844
707;134.12742614746094
708;133.74871826171875
709;133.37136840820312
710;132.9952850341797
711;132.6202392578125
712;132.24658203125
713;131.87416076660156
714;131.5027313232422
715;131.13255310058594
716;130.76356506347656
717;130.3959503173828
718;130.02935791015625
719;129.6640167236328
720;129.29977416992188
721;128.93699645996094
722;128.57516479492188
723;128.21475219726562
724;127.8553237915039
725;127.4972152709961
726;127.14031219482422
727;126.78440856933594
728;126.42969512939453
729;126.0763168334961
730;125.72392272949219
731;125.37267303466797
732;125.02278900146484
733;124.67402648925781
734;124.32625579833984
735;123.97965240478516
736;123.63419342041016
737;123.2900161743164
738;122.94700622558594
739;122.60498046875
740;122.2640609741211
741;121.92430114746094
742;121.5856704711914
743;121.24816131591797
744;120.91190338134766
745;120.57666015625
746;120.24251556396484
747;119.90963745117188
748;119.577880859375
749;119.24720001220703
750;118.91753387451172
751;118.58895111083984
752;118.26145935058594
753;117.93504333496094
754;117.60989379882812
755;117.28569030761719
756;116.96273803710938
757;116.6407241821289
758;116.31977844238281
759;115.99989318847656
760;115.68112182617188
761;115.36355590820312
762;115.04706573486328
763;114.73149108886719
764;114.41699981689453
765;114.10359191894531
766;113.79121398925781
767;113.48002624511719
768;113.16981506347656
769;112.86072540283203
770;112.5525894165039
771;112.24549865722656
772;111.93943786621094
773;111.6344223022461
774;111.33048248291016
775;111.02754974365234
776;110.72566223144531
777;110.42491912841797
778;110.12521362304688
779;109.8265380859375
780;109.52887725830078
781;109.23224639892578
782;108.9366226196289
783;108.64200592041016
784;108.34843444824219
785;108.05583953857422
786;107.7641372680664
787;107.47343444824219
788;107.18375396728516
789;106.8951644897461
790;106.60762023925781
791;106.32099151611328
792;106.0354232788086
793;105.75070190429688
794;105.46695709228516
795;105.18431091308594
796;104.90265655517578
797;104.6219711303711
798;104.34226989746094
799;104.06354522705078
800;103.78565979003906
801;103.50875854492188
802;103.23291778564453
803;102.95803833007812
804;102.68401336669922
805;102.41095733642578
806;102.13886260986328
807;101.86770629882812
808;101.59758758544922
809;101.32832336425781
810;101.06010437011719
811;100.7928695678711
812;100.52643585205078
813;100.26091766357422
814;99.99635314941406
815;99.73271179199219
816;99.4701156616211
817;99.20842742919922
818;98.9476089477539
819;98.6876449584961
820;98.42865753173828
821;98.1705551147461
822;97.91337585449219
823;97.6572265625
824;97.40185546875
825;97.14749145507812
826;96.89395904541016
827;96.64128875732422
828;96.3896255493164
829;96.1387710571289
830;95.8888168334961
831;95.6397476196289
832;95.39167022705078
833;95.14446258544922
834;94.89816284179688
835;94.65263366699219
836;94.40797424316406
837;94.1642074584961
838;93.92140197753906
839;93.67937469482422
840;93.43833923339844
841;93.1981201171875
842;92.95880889892578
843;92.72032165527344
844;92.48271179199219
845;92.2459487915039
846;92.01001739501953
847;91.77498626708984
848;91.54070281982422
849;91.30734252929688
850;91.07483673095703
851;90.84308624267578
852;90.61216735839844
853;90.38218688964844
854;90.15294647216797
855;89.92463684082031
856;89.69703674316406
857;89.47038269042969
858;89.24446868896484
859;89.0193862915039
860;88.795166015625
861;88.57170867919922
862;88.34916687011719
863;88.12735748291016
864;87.90641021728516
865;87.68619537353516
866;87.46682739257812
867;87.24832153320312
868;87.03052520751953
869;86.81351470947266
870;86.59733581542969
871;86.38196563720703
872;86.16743469238281
873;85.95362854003906
874;85.7406234741211
875;85.52848052978516
876;85.3171157836914
877;85.10652923583984
878;84.8966293334961
879;84.68753814697266
880;84.47921752929688
881;84.27163696289062
882;84.06487274169922
883;83.8588638305664
884;83.65367889404297
885;83.44921112060547
886;83.24549102783203
887;83.04259490966797
888;82.84046173095703
889;82.63909149169922
890;82.43846893310547
891;82.23857879638672
892;82.0394515991211
893;81.8410873413086
894;81.64338684082031
895;81.4464340209961
896;81.25021362304688
897;81.05477905273438
898;80.860107421875
899;80.66609191894531
900;80.4728775024414
901;80.28038787841797
902;80.088623046875
903;79.89759826660156
904;79.707275390625
905;79.51769256591797
906;79.32880401611328
907;79.14057159423828
908;78.95307159423828
909;78.76626586914062
910;78.58026885986328
911;78.3949203491211
912;78.21023559570312
913;78.02628326416016
914;77.84300994873047
915;77.6604995727539
916;77.47863006591797
917;77.2974624633789
918;77.11697387695312
919;76.93717193603516
920;76.7580795288086
921;76.57964324951172
922;76.40193939208984
923;76.2248764038086
924;76.04851531982422
925;75.8728256225586
926;75.6978530883789
927;75.5235824584961
928;75.34996795654297
929;75.17696380615234
930;75.00469207763672
931;74.8331069946289
932;74.66209411621094
933;74.4917984008789
934;74.32218170166016
935;74.15321350097656
936;73.98486328125
937;73.81722259521484
938;73.65016174316406
939;73.48381042480469
940;73.31806945800781
941;73.15300750732422
942;72.988525390625
943;72.82473754882812
944;72.66161346435547
945;72.49913024902344
946;72.33726501464844
947;72.17603302001953
948;72.01543426513672
949;71.85545349121094
950;71.69613647460938
951;71.53743743896484
952;71.37935638427734
953;71.22181701660156
954;71.06497955322266
955;70.90876007080078
956;70.75314331054688
957;70.59815979003906
958;70.4437255859375
959;70.2898941040039
960;70.1367416381836
961;69.98417663574219
962;69.83222198486328
963;69.68082427978516
964;69.53007507324219
965;69.37992858886719
966;69.2303695678711
967;69.08142852783203
968;68.93305969238281
969;68.78528594970703
970;68.63809967041016
971;68.49150085449219
972;68.34550476074219
973;68.20005798339844
974;68.05522155761719
975;67.91092681884766
976;67.7671890258789
977;67.62409210205078
978;67.48155212402344
979;67.33959197998047
980;67.19821166992188
981;67.05738830566406
982;66.91708374023438
983;66.77737426757812
984;66.63823699951172
985;66.4996337890625
986;66.361572265625
987;66.2240982055664
988;66.08719635009766
989;65.95089721679688
990;65.81512451171875
991;65.67989349365234
992;65.54520416259766
993;65.4110336303711
994;65.27745056152344
995;65.1444091796875
996;65.01189422607422
997;64.87995147705078
998;64.74848937988281
999;64.6175765991211
1000;64.4871826171875
1001;64.3573226928711
1002;64.22805786132812
1003;64.09925079345703
1004;63.97100067138672
1005;63.84329605102539
1006;63.71609878540039
1007;63.589412689208984
1008;63.46324920654297
1009;63.33760452270508
1010;63.21248245239258
1011;63.08784866333008
1012;62.963768005371094
1013;62.840187072753906
1014;62.717140197753906
1015;62.59458923339844
1016;62.47254180908203
1017;62.35097885131836
1018;62.229976654052734
1019;62.10948181152344
1020;61.98945999145508
1021;61.86991882324219
1022;61.75086975097656
1023;61.63233947753906
1024;61.51431655883789
1025;61.39678192138672
1026;61.27976608276367
1027;61.16319274902344
1028;61.047096252441406
1029;60.93148422241211
1030;60.816349029541016
1031;60.701725006103516
1032;60.58757019042969
1033;60.47392654418945
1034;60.36069107055664
1035;60.248008728027344
1036;60.13579559326172
1037;60.02405548095703
1038;59.91278839111328
1039;59.80196762084961
1040;59.691612243652344
1041;59.58173751831055
1042;59.47229766845703
1043;59.36332321166992
1044;59.25483322143555
1045;59.146785736083984
1046;59.03920364379883
1047;58.93206024169922
1048;58.82539749145508
1049;58.719215393066406
1050;58.613460540771484
1051;58.508155822753906
1052;58.40329360961914
1053;58.298851013183594
1054;58.194908142089844
1055;58.09141540527344
1056;57.98835754394531
1057;57.8857307434082
1058;57.78354263305664
1059;57.68177795410156
1060;57.58045196533203
1061;57.47956466674805
1062;57.37914276123047
1063;57.27912902832031
1064;57.17957305908203
1065;57.08042526245117
1066;56.98173904418945
1067;56.88344192504883
1068;56.78554916381836
1069;56.68810272216797
1070;56.59107208251953
1071;56.494441986083984
1072;56.39824295043945
1073;56.30247497558594
1074;56.20711135864258
1075;56.11215591430664
1076;56.01761245727539
1077;55.92349624633789
1078;55.82976531982422
1079;55.73648452758789
1080;55.643577575683594
1081;55.55107498168945
1082;55.45899963378906
1083;55.36730194091797
1084;55.276023864746094
1085;55.18517303466797
1086;55.09468078613281
1087;55.00459671020508
1088;54.91493225097656
1089;54.825618743896484
1090;54.73674392700195
1091;54.648258209228516
1092;54.560157775878906
1093;54.47244644165039
1094;54.3851203918457
1095;54.29814529418945
1096;54.211605072021484
1097;54.125389099121094
1098;54.039573669433594
1099;53.954158782958984
1100;53.86913299560547
1101;53.78449630737305
1102;53.70021057128906
1103;53.61630630493164
1104;53.53275680541992
1105;53.44960403442383
1106;53.36678695678711
1107;53.28437423706055
1108;53.20235061645508
1109;53.12064743041992
1110;53.039306640625
1111;52.95836639404297
1112;52.87777328491211
1113;52.797542572021484
1114;52.7176628112793
1115;52.63814163208008
1116;52.55894470214844
1117;52.48017883300781
1118;52.40171432495117
1119;52.323631286621094
1120;52.245906829833984
1121;52.168521881103516
1122;52.09147262573242
1123;52.01481246948242
1124;51.938453674316406
1125;51.86248016357422
1126;51.786800384521484
1127;51.711490631103516
1128;51.63650131225586
1129;51.56187438964844
1130;51.487586975097656
1131;51.41365051269531
1132;51.340030670166016
1133;51.26673889160156
1134;51.19375228881836
1135;51.121150970458984
1136;51.04885482788086
1137;50.97692108154297
1138;50.9052848815918
1139;50.833961486816406
1140;50.76301956176758
1141;50.69234848022461
1142;50.622032165527344
1143;50.552059173583984
1144;50.48238754272461
1145;50.41303634643555
1146;50.34398651123047
1147;50.2752685546875
1148;50.20685958862305
1149;50.1387825012207
1150;50.071022033691406
1151;50.0035514831543
1152;49.93641662597656
1153;49.86957931518555
1154;49.80303955078125
1155;49.73685073852539
1156;49.67094039916992
1157;49.605308532714844
1158;49.5400390625
1159;49.47502136230469
1160;49.410377502441406
1161;49.34596252441406
1162;49.2818489074707
1163;49.218082427978516
1164;49.15458679199219
1165;49.091373443603516
1166;49.02847671508789
1167;48.96586227416992
1168;48.903564453125
1169;48.84153366088867
1170;48.7797966003418
1171;48.71835708618164
1172;48.6572151184082
1173;48.59632873535156
1174;48.5357666015625
1175;48.475486755371094
1176;48.415470123291016
1177;48.355735778808594
1178;48.29631423950195
1179;48.23714828491211
1180;48.17827224731445
1181;48.11967468261719
1182;48.061363220214844
1183;48.003318786621094
1184;47.94557571411133
1185;47.88806915283203
1186;47.83084487915039
1187;47.77389907836914
1188;47.717227935791016
1189;47.66081619262695
1190;47.60468673706055
1191;47.548805236816406
1192;47.49319839477539
1193;47.437843322753906
1194;47.382774353027344
1195;47.32798767089844
1196;47.273433685302734
1197;47.219173431396484
1198;47.16514587402344
1199;47.11137008666992
1200;47.0578498840332
1201;47.004573822021484
1202;46.951602935791016
1203;46.89885330200195
1204;46.846336364746094
1205;46.79413986206055
1206;46.74213790893555
1207;46.690433502197266
1208;46.63895797729492
1209;46.58771514892578
1210;46.53673553466797
1211;46.486000061035156
1212;46.435523986816406
1213;46.38528060913086
1214;46.33526611328125
1215;46.2855224609375
1216;46.23600387573242
1217;46.186729431152344
1218;46.137699127197266
1219;46.08890914916992
1220;46.04037094116211
1221;45.992061614990234
1222;45.94398498535156
1223;45.89613342285156
1224;45.848514556884766
1225;45.801143646240234
1226;45.7540168762207
1227;45.70708465576172
1228;45.660404205322266
1229;45.61397171020508
1230;45.56774139404297
1231;45.52175521850586
1232;45.47599411010742
1233;45.43045425415039
1234;45.38513946533203
1235;45.34004211425781
1236;45.29517364501953
1237;45.25054931640625
1238;45.206111907958984
1239;45.16189956665039
1240;45.1179084777832
1241;45.074161529541016
1242;45.03063201904297
1243;44.987308502197266
1244;44.94417190551758
1245;44.90127944946289
1246;44.858585357666016
1247;44.816123962402344
1248;44.77385330200195
1249;44.7318000793457
1250;44.689964294433594
1251;44.64832305908203
1252;44.60691452026367
1253;44.56566619873047
1254;44.52466583251953
1255;44.483863830566406
1256;44.44326400756836
1257;44.40286636352539
1258;44.362674713134766
1259;44.322689056396484
1260;44.28290939331055
1261;44.24330139160156
1262;44.20393753051758
1263;44.16474533081055
1264;44.12575149536133
1265;44.08695983886719
1266;44.0483512878418
1267;44.00996780395508
1268;43.97175979614258
1269;43.93375778198242
1270;43.895931243896484
1271;43.858314514160156
1272;43.820884704589844
1273;43.783634185791016
1274;43.746604919433594
1275;43.70974349975586
1276;43.67306137084961
1277;43.63658142089844
1278;43.60028839111328
1279;43.564186096191406
1280;43.52824783325195
1281;43.49250411987305
1282;43.45694351196289
1283;43.42155838012695
1284;43.3863639831543
1285;43.351341247558594
1286;43.316505432128906
1287;43.2818603515625
1288;43.24736404418945
1289;43.213069915771484
1290;43.17894744873047
1291;43.144996643066406
1292;43.11123275756836
1293;43.07763671875
1294;43.04420471191406
1295;43.010948181152344
1296;42.97786331176758
1297;42.9449577331543
1298;42.9122314453125
1299;42.879661560058594
1300;42.84726333618164
1301;42.81502914428711
1302;42.782981872558594
1303;42.75108337402344
1304;42.719337463378906
1305;42.68778610229492
1306;42.65637969970703
1307;42.62515640258789
1308;42.59408187866211
1309;42.563167572021484
1310;42.53240966796875
1311;42.5018196105957
1312;42.471412658691406
1313;42.44114685058594
1314;42.41105270385742
1315;42.381103515625
1316;42.351295471191406
1317;42.321659088134766
1318;42.292179107666016
1319;42.262882232666016
1320;42.233707427978516
1321;42.2047004699707
1322;42.175838470458984
1323;42.14713668823242
1324;42.118587493896484
1325;42.09019088745117
1326;42.06194305419922
1327;42.033851623535156
1328;42.00590133666992
1329;41.978092193603516
1330;41.9504280090332
1331;41.92292404174805
1332;41.89555740356445
1333;41.868350982666016
1334;41.84126663208008
1335;41.81435012817383
1336;41.78756332397461
1337;41.760929107666016
1338;41.73442840576172
1339;41.708072662353516
1340;41.68186950683594
1341;41.65578842163086
1342;41.6298713684082
1343;41.60408020019531
1344;41.57841873168945
1345;41.55290603637695
1346;41.527523040771484
1347;41.50227355957031
1348;41.47718811035156
1349;41.45220947265625
1350;41.42736053466797
1351;41.40266799926758
1352;41.378116607666016
1353;41.353660583496094
1354;41.32935333251953
1355;41.305198669433594
1356;41.28114700317383
1357;41.25724411010742
1358;41.23347091674805
1359;41.20982360839844
1360;41.18628692626953
1361;41.16290283203125
1362;41.139652252197266
1363;41.11650085449219
1364;41.09349060058594
1365;41.070613861083984
1366;41.0478515625
1367;41.02523422241211
1368;41.00272750854492
1369;40.98031234741211
1370;40.958065032958984
1371;40.93590545654297
1372;40.913883209228516
1373;40.89199447631836
1374;40.87022018432617
1375;40.84855270385742
1376;40.82701110839844
1377;40.80559158325195
1378;40.784278869628906
1379;40.76309585571289
1380;40.74201965332031
1381;40.72106170654297
1382;40.70022201538086
1383;40.679481506347656
1384;40.65888977050781
1385;40.63840103149414
1386;40.61802291870117
1387;40.59775924682617
1388;40.57759094238281
1389;40.557559967041016
1390;40.53761291503906
1391;40.51780319213867
1392;40.49809646606445
1393;40.4785041809082
1394;40.459007263183594
1395;40.43961715698242
1396;40.42034912109375
1397;40.401180267333984
1398;40.38212585449219
1399;40.36317443847656
1400;40.34431838989258
1401;40.32559585571289
1402;40.30695724487305
1403;40.288429260253906
1404;40.2700080871582
1405;40.25168228149414
1406;40.23346710205078
1407;40.2153434753418
1408;40.197322845458984
1409;40.179420471191406
1410;40.16161346435547
1411;40.14388656616211
1412;40.12629318237305
1413;40.108760833740234
1414;40.09135055541992
1415;40.07405090332031
1416;40.05683898925781
1417;40.03971481323242
1418;40.02268981933594
1419;40.00576400756836
1420;39.98893737792969
1421;39.97220993041992
1422;39.95556640625
1423;39.93903350830078
1424;39.9225959777832
1425;39.90622329711914
1426;39.88997268676758
1427;39.8737907409668
1428;39.85771942138672
1429;39.84172821044922
1430;39.82585525512695
1431;39.8100471496582
1432;39.7943229675293
1433;39.77872085571289
1434;39.7631721496582
1435;39.74773406982422
1436;39.73238754272461
1437;39.71712875366211
1438;39.701961517333984
1439;39.686866760253906
1440;39.67185592651367
1441;39.65693664550781
1442;39.6421012878418
1443;39.62737274169922
1444;39.61268615722656
1445;39.59812545776367
1446;39.58363342285156
1447;39.569236755371094
1448;39.554908752441406
1449;39.54067611694336
1450;39.526512145996094
1451;39.51244354248047
1452;39.49844741821289
1453;39.48453903198242
1454;39.47071075439453
1455;39.45696258544922
1456;39.44327926635742
1457;39.429691314697266
1458;39.41617202758789
1459;39.40274429321289
1460;39.38939666748047
1461;39.37610626220703
1462;39.3629150390625
1463;39.34978485107422
1464;39.33675003051758
1465;39.323787689208984
1466;39.31087875366211
1467;39.29808044433594
1468;39.28532791137695
1469;39.27266311645508
1470;39.26007080078125
1471;39.24755859375
1472;39.2351188659668
1473;39.22273635864258
1474;39.21044158935547
1475;39.19820785522461
1476;39.18605041503906
1477;39.17395782470703
1478;39.16196823120117
1479;39.1500244140625
1480;39.13814926147461
1481;39.1263542175293
1482;39.11460876464844
1483;39.10295486450195
1484;39.09135818481445
1485;39.079833984375
1486;39.0683708190918
1487;39.05699920654297
1488;39.04568862915039
1489;39.03443145751953
1490;39.02324676513672
1491;39.01211929321289
1492;39.001075744628906
1493;38.99007797241211
1494;38.979164123535156
1495;38.96831130981445
1496;38.95751190185547
1497;38.94677734375
1498;38.93611145019531
1499;38.925514221191406
