;loss
0;1321.5872802734375
1;1320.36474609375
2;1318.7205810546875
3;1317.0736083984375
4;1315.4224853515625
5;1313.765625
6;1312.15087890625
7;1310.5111083984375
8;1308.823486328125
9;1307.1204833984375
10;1305.3994140625
11;1303.6600341796875
12;1301.892333984375
13;1300.09912109375
14;1298.2657470703125
15;1296.406494140625
16;1294.493408203125
17;1292.53369140625
18;1290.5413818359375
19;1288.4732666015625
20;1286.3641357421875
21;1284.18701171875
22;1281.9339599609375
23;1279.5701904296875
24;1277.140380859375
25;1274.60888671875
26;1271.9654541015625
27;1269.16552734375
28;1266.2626953125
29;1263.210205078125
30;1259.9559326171875
31;1256.55908203125
32;1252.92138671875
33;1249.1055908203125
34;1245.001220703125
35;1240.6744384765625
36;1235.9984130859375
37;1230.9869384765625
38;1225.60009765625
39;1219.8575439453125
40;1213.65283203125
41;1206.853515625
42;1199.4544677734375
43;1191.372802734375
44;1182.51513671875
45;1172.8707275390625
46;1162.227783203125
47;1150.313720703125
48;1137.042724609375
49;1122.19482421875
50;1105.68212890625
51;1086.943359375
52;1065.8795166015625
53;1042.5382080078125
54;1016.78125
55;988.9217529296875
56;960.490234375
57;933.2766723632812
58;908.603759765625
59;887.022705078125
60;868.508056640625
61;852.4823608398438
62;838.389892578125
63;826.06982421875
64;815.1339721679688
65;805.263427734375
66;796.4149780273438
67;788.2872314453125
68;780.7765502929688
69;773.7574462890625
70;767.198974609375
71;760.9570922851562
72;755.0350952148438
73;749.4006958007812
74;744.0673828125
75;738.9772338867188
76;734.0767211914062
77;729.3778686523438
78;724.8931274414062
79;720.5513305664062
80;716.3622436523438
81;712.3250122070312
82;708.442626953125
83;704.6598510742188
84;701.0015258789062
85;697.4161376953125
86;693.9193725585938
87;690.5256958007812
88;687.187255859375
89;683.9157104492188
90;680.7054443359375
91;677.5521240234375
92;674.467529296875
93;671.4161376953125
94;668.4267578125
95;665.4811401367188
96;662.5619506835938
97;659.6968383789062
98;656.8555908203125
99;654.0514526367188
100;651.296630859375
101;648.5631713867188
102;645.8762817382812
103;643.2105102539062
104;640.589111328125
105;637.9986572265625
106;635.4393310546875
107;632.9093017578125
108;630.4082641601562
109;627.9359741210938
110;625.4815673828125
111;623.0546264648438
112;620.6542358398438
113;618.2894897460938
114;615.9494018554688
115;613.6236572265625
116;611.3306274414062
117;609.0510864257812
118;606.7939453125
119;604.5582275390625
120;602.3519897460938
121;600.1573486328125
122;597.9824829101562
123;595.8347778320312
124;593.6975708007812
125;591.5781860351562
126;589.4764404296875
127;587.39208984375
128;585.3316040039062
129;583.279541015625
130;581.242919921875
131;579.2288208007812
132;577.2298583984375
133;575.2450561523438
134;573.2674560546875
135;571.303466796875
136;569.3593139648438
137;567.42138671875
138;565.495849609375
139;563.5890502929688
140;561.6942138671875
141;559.811279296875
142;557.93359375
143;556.0673217773438
144;554.2181396484375
145;552.373779296875
146;550.5401611328125
147;548.7227172851562
148;546.9094848632812
149;545.11181640625
150;543.3184814453125
151;541.5347290039062
152;539.765869140625
153;538.0007934570312
154;536.2501831054688
155;534.5083618164062
156;532.770263671875
157;531.0407104492188
158;529.319580078125
159;527.6119995117188
160;525.9078369140625
161;524.2117919921875
162;522.5240478515625
163;520.84423828125
164;519.1768188476562
165;517.5171508789062
166;515.8604736328125
167;514.2159423828125
168;512.578857421875
169;510.9490051269531
170;509.3219299316406
171;507.70648193359375
172;506.09375
173;504.48828125
174;502.8896484375
175;501.3020324707031
176;499.72113037109375
177;498.1428527832031
178;496.57513427734375
179;495.0099792480469
180;493.455078125
181;491.90277099609375
182;490.3606262207031
183;488.82086181640625
184;487.291015625
185;485.7634582519531
186;484.2419738769531
187;482.72662353515625
188;481.2171325683594
189;479.7171630859375
190;478.2193603515625
191;476.7272644042969
192;475.2410888671875
193;473.7605285644531
194;472.28912353515625
195;470.81988525390625
196;469.3561706542969
197;467.90130615234375
198;466.44873046875
199;465.0047302246094
200;463.5661315917969
201;462.1296691894531
202;460.6983947753906
203;459.2756652832031
204;457.8580627441406
205;456.4456787109375
206;455.0352783203125
207;453.6300048828125
208;452.2327575683594
209;450.8404846191406
210;449.4532775878906
211;448.0709533691406
212;446.69061279296875
213;445.315185546875
214;443.944580078125
215;442.5816345214844
216;441.22344970703125
217;439.87005615234375
218;438.51849365234375
219;437.17449951171875
220;435.8350524902344
221;434.4974670410156
222;433.167236328125
223;431.83880615234375
224;430.5176086425781
225;429.2008361816406
226;427.8860168457031
227;426.578125
228;425.2721862792969
229;423.97320556640625
230;422.6759948730469
231;421.3856201171875
232;420.09954833984375
233;418.8153076171875
234;417.5352783203125
235;416.259521484375
236;414.9878845214844
237;413.7205505371094
238;412.4573669433594
239;411.20062255859375
240;409.947998046875
241;408.69952392578125
242;407.4549255371094
243;406.21221923828125
244;404.9735412597656
245;403.7388916015625
246;402.51043701171875
247;401.28594970703125
248;400.0653381347656
249;398.84869384765625
250;397.6338806152344
251;396.4228210449219
252;395.2177734375
253;394.0144958496094
254;392.817138671875
255;391.6235046386719
256;390.4338073730469
257;389.2457275390625
258;388.0614318847656
259;386.8829040527344
260;385.7060852050781
261;384.53302001953125
262;383.36358642578125
263;382.19976806640625
264;381.0377197265625
265;379.87933349609375
266;378.7264404296875
267;377.57708740234375
268;376.431396484375
269;375.2892150878906
270;374.1505432128906
271;373.0154113769531
272;371.8838195800781
273;370.75390625
274;369.6275634765625
275;368.5046691894531
276;367.3869934082031
277;366.27276611328125
278;365.1602783203125
279;364.0511474609375
280;362.9471740722656
281;361.8448791503906
282;360.7459716796875
283;359.6521911621094
284;358.5600280761719
285;357.4712219238281
286;356.3873291015625
287;355.30682373046875
288;354.2279052734375
289;353.15240478515625
290;352.0802001953125
291;351.0111389160156
292;349.947021484375
293;348.8860778808594
294;347.8267822265625
295;346.7707824707031
296;345.7195739746094
297;344.6698913574219
298;343.6234436035156
299;342.5816955566406
300;341.5430908203125
301;340.5076599121094
302;339.4738464355469
303;338.4446716308594
304;337.4171142578125
305;336.39410400390625
306;335.3741760253906
307;334.3572998046875
308;333.3435363769531
309;332.3327941894531
310;331.3238220214844
311;330.3177490234375
312;329.3148193359375
313;328.3161315917969
314;327.3191833496094
315;326.3265686035156
316;325.33697509765625
317;324.3489685058594
318;323.36395263671875
319;322.3819274902344
320;321.4041748046875
321;320.427978515625
322;319.4560241699219
323;318.4857482910156
324;317.5183410644531
325;316.55517578125
326;315.593505859375
327;314.6361083984375
328;313.6802978515625
329;312.7273254394531
330;311.7771911621094
331;310.8299865722656
332;309.8856201171875
333;308.9451904296875
334;308.00640869140625
335;307.0716552734375
336;306.13970947265625
337;305.2093505859375
338;304.2817687988281
339;303.35693359375
340;302.4349670410156
341;301.5157470703125
342;300.6003112792969
343;299.6865539550781
344;298.77667236328125
345;297.8694763183594
346;296.9639892578125
347;296.0621643066406
348;295.1630859375
349;294.265625
350;293.37091064453125
351;292.4798889160156
352;291.59149169921875
353;290.7047119140625
354;289.8206481933594
355;288.9402160644531
356;288.0614013671875
357;287.18524169921875
358;286.31268310546875
359;285.4417419433594
360;284.57440185546875
361;283.70965576171875
362;282.8475036621094
363;281.9869689941406
364;281.1290283203125
365;280.27471923828125
366;279.42193603515625
367;278.5727233886719
368;277.72509765625
369;276.8799743652344
370;276.038330078125
371;275.1983337402344
372;274.36077880859375
373;273.52581787109375
374;272.6933288574219
375;271.8642578125
376;271.03765869140625
377;270.2135009765625
378;269.39105224609375
379;268.5709228515625
380;267.75421142578125
381;266.9390563964844
382;266.1272277832031
383;265.3178405761719
384;264.5108947753906
385;263.7062683105469
386;262.90423583984375
387;262.1044921875
388;261.3072204589844
389;260.51226806640625
390;259.7197265625
391;258.9295654296875
392;258.1418151855469
393;257.35638427734375
394;256.572509765625
395;255.79177856445312
396;255.0135040283203
397;254.23670959472656
398;253.46302795410156
399;252.69171142578125
400;251.9219512939453
401;251.15524291992188
402;250.39089965820312
403;249.62803649902344
404;248.86749267578125
405;248.110107421875
406;247.35411071777344
407;246.60125732421875
408;245.85061645507812
409;245.10150146484375
410;244.35470581054688
411;243.6101837158203
412;242.8685760498047
413;242.12855529785156
414;241.39146423339844
415;240.65586853027344
416;239.92257690429688
417;239.19140625
418;238.46258544921875
419;237.736572265625
420;237.01280212402344
421;236.29129028320312
422;235.5712127685547
423;234.8533477783203
424;234.1376953125
425;233.42420959472656
426;232.71356201171875
427;232.00442504882812
428;231.29747009277344
429;230.59259033203125
430;229.8899688720703
431;229.189453125
432;228.49172973632812
433;227.796142578125
434;227.10264587402344
435;226.4106903076172
436;225.72149658203125
437;225.03436279296875
438;224.34938049316406
439;223.66583251953125
440;222.98500061035156
441;222.30630493164062
442;221.62960815429688
443;220.95504760742188
444;220.2825469970703
445;219.61151123046875
446;218.9425811767578
447;218.27621459960938
448;217.61192321777344
449;216.94972229003906
450;216.28948974609375
451;215.63136291503906
452;214.97520446777344
453;214.32110595703125
454;213.66903686523438
455;213.01898193359375
456;212.370361328125
457;211.72427368164062
458;211.07968139648438
459;210.43759155273438
460;209.79747009277344
461;209.1588592529297
462;208.52220153808594
463;207.88803100585938
464;207.25582885742188
465;206.62562561035156
466;205.99681091308594
467;205.36997985839844
468;204.74563598632812
469;204.1232147216797
470;203.50274658203125
471;202.88418579101562
472;202.26702880859375
473;201.65185546875
474;201.03855895996094
475;200.4271697998047
476;199.81820678710938
477;199.21112060546875
478;198.6060028076172
479;198.0027313232422
480;197.40135192871094
481;196.80181884765625
482;196.20375061035156
483;195.6079864501953
484;195.0141143798828
485;194.42213439941406
486;193.83151245117188
487;193.24322509765625
488;192.65631103515625
489;192.07122802734375
490;191.48851013183594
491;190.90757751464844
492;190.32855224609375
493;189.7508087158203
494;189.1749267578125
495;188.6008758544922
496;188.02908325195312
497;187.45863342285156
498;186.89004516601562
499;186.3231964111328
500;185.75860595703125
501;185.1958465576172
502;184.6343536376953
503;184.07472229003906
504;183.516845703125
505;182.96116638183594
506;182.4068603515625
507;181.8546905517578
508;181.3039093017578
509;180.7548828125
510;180.20803833007812
511;179.66249084472656
512;179.11907958984375
513;178.57745361328125
514;178.03753662109375
515;177.49896240234375
516;176.9620819091797
517;176.42735290527344
518;175.89434814453125
519;175.36302185058594
520;174.83303833007812
521;174.3047332763672
522;173.77813720703125
523;173.2532501220703
524;172.73040771484375
525;172.20892333984375
526;171.689453125
527;171.17166137695312
528;170.65557861328125
529;170.14112854003906
530;169.62838745117188
531;169.11688232421875
532;168.60708618164062
533;168.09889221191406
534;167.59237670898438
535;167.08787536621094
536;166.5850067138672
537;166.08335876464844
538;165.58343505859375
539;165.08546447753906
540;164.5887451171875
541;164.09365844726562
542;163.60049438476562
543;163.10865783691406
544;162.6183624267578
545;162.12969970703125
546;161.64300537109375
547;161.15753173828125
548;160.67401123046875
549;160.19174194335938
550;159.71102905273438
551;159.23223876953125
552;158.75503540039062
553;158.27903747558594
554;157.8046417236328
555;157.3318328857422
556;156.8605194091797
557;156.39111328125
558;155.9229278564453
559;155.45628356933594
560;154.99151611328125
561;154.52825927734375
562;154.06655883789062
563;153.6063232421875
564;153.1473846435547
565;152.68997192382812
566;152.2340545654297
567;151.77960205078125
568;151.32672119140625
569;150.87535095214844
570;150.42572021484375
571;149.97738647460938
572;149.53079223632812
573;149.0856475830078
574;148.64202880859375
575;148.19989013671875
576;147.75894165039062
577;147.3194580078125
578;146.88148498535156
579;146.44520568847656
580;146.01043701171875
581;145.57679748535156
582;145.14495849609375
583;144.7142333984375
584;144.28497314453125
585;143.85720825195312
586;143.43084716796875
587;143.00592041015625
588;142.58241271972656
589;142.16036987304688
590;141.739990234375
591;141.32080078125
592;140.90301513671875
593;140.48663330078125
594;140.07167053222656
595;139.6584014892578
596;139.2462615966797
597;138.8354949951172
598;138.4264373779297
599;138.01869201660156
600;137.61215209960938
601;137.20697021484375
602;136.8034210205078
603;136.40122985839844
604;136.00042724609375
605;135.60101318359375
606;135.20269775390625
607;134.80599975585938
608;134.41067504882812
609;134.01641845703125
610;133.62379455566406
611;133.23252868652344
612;132.84231567382812
613;132.45375061035156
614;132.06622314453125
615;131.6802978515625
616;131.29550170898438
617;130.91224670410156
618;130.5300750732422
619;130.1494140625
620;129.76991271972656
621;129.39190673828125
622;129.0149688720703
623;128.63937377929688
624;128.2653045654297
625;127.89231872558594
626;127.52083587646484
627;127.15040588378906
628;126.78147888183594
629;126.41385650634766
630;126.04733276367188
631;125.68206024169922
632;125.31826782226562
633;124.95558166503906
634;124.5941162109375
635;124.234130859375
636;123.875244140625
637;123.51773834228516
638;123.16133880615234
639;122.80620574951172
640;122.45225524902344
641;122.09981536865234
642;121.74857330322266
643;121.39859771728516
644;121.04983520507812
645;120.70232391357422
646;120.35602569580078
647;120.01077270507812
648;119.66692352294922
649;119.32411193847656
650;118.98250579833984
651;118.64230346679688
652;118.30313110351562
653;117.96530151367188
654;117.62855529785156
655;117.29314422607422
656;116.95875549316406
657;116.62555694580078
658;116.29354858398438
659;115.96273040771484
660;115.63309478759766
661;115.30482482910156
662;114.97755432128906
663;114.65140533447266
664;114.32652282714844
665;114.00272369384766
666;113.68009948730469
667;113.35865783691406
668;113.03836822509766
669;112.71939086914062
670;112.40156555175781
671;112.08488464355469
672;111.76934051513672
673;111.45477294921875
674;111.141357421875
675;110.82923126220703
676;110.5182113647461
677;110.20834350585938
678;109.89942932128906
679;109.59166717529297
680;109.28512573242188
681;108.97958374023438
682;108.67529296875
683;108.37196350097656
684;108.06973266601562
685;107.76861572265625
686;107.46874237060547
687;107.16980743408203
688;106.8719711303711
689;106.57535552978516
690;106.27986907958984
691;105.98541259765625
692;105.6919174194336
693;105.399658203125
694;105.10845184326172
695;104.81819915771484
696;104.52896118164062
697;104.24098205566406
698;103.95388793945312
699;103.66787719726562
700;103.383056640625
701;103.09927368164062
702;102.81655883789062
703;102.53475952148438
704;102.25399780273438
705;101.97425079345703
706;101.69554901123047
707;101.41802978515625
708;101.14154815673828
709;100.86608123779297
710;100.59152221679688
711;100.3179931640625
712;100.04548645019531
713;99.77396392822266
714;99.50363159179688
715;99.2342758178711
716;98.96591186523438
717;98.69857788085938
718;98.43225860595703
719;98.16694641113281
720;97.90243530273438
721;97.6390151977539
722;97.37664031982422
723;97.11528015136719
724;96.85489654541016
725;96.59538269042969
726;96.33695983886719
727;96.07939910888672
728;95.82290649414062
729;95.56741333007812
730;95.31275177001953
731;95.05918884277344
732;94.80659484863281
733;94.5548095703125
734;94.30413055419922
735;94.05438995361328
736;93.80558013916016
737;93.55776977539062
738;93.31076049804688
739;93.06468963623047
740;92.8196792602539
741;92.57559967041016
742;92.33246612548828
743;92.09025573730469
744;91.84886169433594
745;91.6084976196289
746;91.36906433105469
747;91.13054656982422
748;90.89286041259766
749;90.65614318847656
750;90.4202880859375
751;90.18531799316406
752;89.95133209228516
753;89.71829223632812
754;89.48614501953125
755;89.2549057006836
756;89.02455139160156
757;88.79496765136719
758;88.56637573242188
759;88.33870697021484
760;88.1117935180664
761;87.8858642578125
762;87.66085815429688
763;87.43666076660156
764;87.21337127685547
765;86.99097442626953
766;86.7694091796875
767;86.54875183105469
768;86.32891082763672
769;86.10995483398438
770;85.8917465209961
771;85.67440032958984
772;85.45801544189453
773;85.24246215820312
774;85.02774810791016
775;84.81380462646484
776;84.60079193115234
777;84.38854217529297
778;84.17709350585938
779;83.9665298461914
780;83.7568588256836
781;83.54800415039062
782;83.33990478515625
783;83.13261413574219
784;82.92617797851562
785;82.72061920166016
786;82.51590728759766
787;82.31192016601562
788;82.10871887207031
789;81.90631866455078
790;81.70474243164062
791;81.5040054321289
792;81.30400848388672
793;81.10494232177734
794;80.90664672851562
795;80.70915985107422
796;80.51238250732422
797;80.31637573242188
798;80.12125396728516
799;79.92691040039062
800;79.73336791992188
801;79.54058837890625
802;79.34856414794922
803;79.15733337402344
804;78.96680450439453
805;78.77713012695312
806;78.58818054199219
807;78.39995574951172
808;78.21256256103516
809;78.02584075927734
810;77.83987426757812
811;77.6546630859375
812;77.47030639648438
813;77.2865982055664
814;77.10365295410156
815;76.92153930664062
816;76.74009704589844
817;76.55937194824219
818;76.37937927246094
819;76.20022583007812
820;76.02178192138672
821;75.84406280517578
822;75.66708374023438
823;75.4908218383789
824;75.31521606445312
825;75.14041137695312
826;74.96626281738281
827;74.79287719726562
828;74.62015533447266
829;74.44821166992188
830;74.27692413330078
831;74.10637664794922
832;73.93655395507812
833;73.76738739013672
834;73.59890747070312
835;73.43118286132812
836;73.26415252685547
837;73.0977554321289
838;72.93205261230469
839;72.76703643798828
840;72.60277557373047
841;72.43914031982422
842;72.27616882324219
843;72.11395263671875
844;71.95242309570312
845;71.79151153564453
846;71.6312484741211
847;71.47173309326172
848;71.31283569335938
849;71.15457153320312
850;70.99700927734375
851;70.84016418457031
852;70.68390655517578
853;70.52837371826172
854;70.37348175048828
855;70.21920776367188
856;70.06562805175781
857;69.91268920898438
858;69.76034545898438
859;69.6086654663086
860;69.45761108398438
861;69.30726623535156
862;69.15753936767578
863;69.0083999633789
864;68.8599624633789
865;68.71209716796875
866;68.56490325927734
867;68.41829681396484
868;68.27230834960938
869;68.126953125
870;67.98221588134766
871;67.83814239501953
872;67.69462585449219
873;67.55174255371094
874;67.4095230102539
875;67.26791381835938
876;67.12689971923828
877;66.98649597167969
878;66.84664916992188
879;66.70738983154297
880;66.56880187988281
881;66.4308090209961
882;66.29339599609375
883;66.15658569335938
884;66.02033996582031
885;65.88467407226562
886;65.74964141845703
887;65.61512756347656
888;65.48126220703125
889;65.3479232788086
890;65.2152099609375
891;65.08304595947266
892;64.95145416259766
893;64.82046508789062
894;64.69000244140625
895;64.56013488769531
896;64.43081665039062
897;64.3021011352539
898;64.1739501953125
899;64.0463638305664
900;63.91931915283203
901;63.79281997680664
902;63.6668701171875
903;63.54150390625
904;63.41670608520508
905;63.29241180419922
906;63.168701171875
907;63.04550552368164
908;62.92283630371094
909;62.80076599121094
910;62.67921829223633
911;62.55818557739258
912;62.437744140625
913;62.31780242919922
914;62.19841003417969
915;62.07955551147461
916;61.96119689941406
917;61.84334182739258
918;61.72605895996094
919;61.60928726196289
920;61.49305725097656
921;61.37730407714844
922;61.26206588745117
923;61.14737319946289
924;61.03316879272461
925;60.91951370239258
926;60.80632019042969
927;60.69367218017578
928;60.58149719238281
929;60.46986770629883
930;60.35869598388672
931;60.24808120727539
932;60.13791275024414
933;60.02825927734375
934;59.91907501220703
935;59.81044006347656
936;59.70223617553711
937;59.59458541870117
938;59.48740768432617
939;59.38072204589844
940;59.27449035644531
941;59.16872787475586
942;59.06345748901367
943;58.95867156982422
944;58.85437774658203
945;58.75054168701172
946;58.64718246459961
947;58.5443115234375
948;58.44192886352539
949;58.33998107910156
950;58.23847961425781
951;58.13749313354492
952;58.03696060180664
953;57.93687438964844
954;57.83723831176758
955;57.73805236816406
956;57.63932418823242
957;57.54111099243164
958;57.44327926635742
959;57.34595489501953
960;57.24907684326172
961;57.15263366699219
962;57.05664825439453
963;56.96109390258789
964;56.86598205566406
965;56.77132797241211
966;56.67707824707031
967;56.58329772949219
968;56.48994445800781
969;56.39704513549805
970;56.304569244384766
971;56.2125244140625
972;56.12087631225586
973;56.029693603515625
974;55.938926696777344
975;55.848594665527344
976;55.7586555480957
977;55.66914367675781
978;55.58003616333008
979;55.49136734008789
980;55.40310287475586
981;55.31526184082031
982;55.227821350097656
983;55.14080047607422
984;55.05420684814453
985;54.96803283691406
986;54.88225173950195
987;54.79685974121094
988;54.71189880371094
989;54.627342224121094
990;54.54315185546875
991;54.45940399169922
992;54.37604904174805
993;54.29304885864258
994;54.21049118041992
995;54.12832260131836
996;54.04651641845703
997;53.96511459350586
998;53.88412094116211
999;53.803504943847656
