;loss
0;1333.9893798828125
1;1333.463134765625
2;1333.01220703125
3;1332.4884033203125
4;1331.965576171875
5;1331.4442138671875
6;1330.9398193359375
7;1330.421142578125
8;1329.90380859375
9;1329.38818359375
10;1328.87841796875
11;1328.3680419921875
12;1327.858642578125
13;1327.3494873046875
14;1326.843505859375
15;1326.335693359375
16;1325.8287353515625
17;1325.322509765625
18;1324.81689453125
19;1324.31201171875
20;1323.8131103515625
21;1323.31494140625
22;1322.8170166015625
23;1322.3201904296875
24;1321.8177490234375
25;1321.3214111328125
26;1320.81982421875
27;1320.3179931640625
28;1319.8223876953125
29;1319.3209228515625
30;1318.825439453125
31;1318.32373046875
32;1317.822265625
33;1317.3203125
34;1316.8182373046875
35;1316.3216552734375
36;1315.81884765625
37;1315.321533203125
38;1314.818115234375
39;1314.319580078125
40;1313.82080078125
41;1313.3212890625
42;1312.8212890625
43;1312.32080078125
44;1311.81982421875
45;1311.313232421875
46;1310.8111572265625
47;1310.30810546875
48;1309.804931640625
49;1309.3009033203125
50;1308.79150390625
51;1308.28173828125
52;1307.7757568359375
53;1307.2647705078125
54;1306.753173828125
55;1306.2452392578125
56;1305.736572265625
57;1305.2230224609375
58;1304.7088623046875
59;1304.19384765625
60;1303.6822509765625
61;1303.166015625
62;1302.65283203125
63;1302.1348876953125
64;1301.6162109375
65;1301.0965576171875
66;1300.576171875
67;1300.058349609375
68;1299.5396728515625
69;1299.0164794921875
70;1298.4921875
71;1297.9703369140625
72;1297.4476318359375
73;1296.9234619140625
74;1296.395263671875
75;1295.8658447265625
76;1295.33544921875
77;1294.8035888671875
78;1294.2706298828125
79;1293.7362060546875
80;1293.2005615234375
81;1292.663330078125
82;1292.127685546875
83;1291.590576171875
84;1291.0518798828125
85;1290.50830078125
86;1289.96630859375
87;1289.4222412109375
88;1288.87646484375
89;1288.328857421875
90;1287.7763671875
91;1287.2247314453125
92;1286.6680908203125
93;1286.11279296875
94;1285.55908203125
95;1285.003173828125
96;1284.4425048828125
97;1283.8800048828125
98;1283.31787109375
99;1282.75146484375
100;1282.1824951171875
101;1281.6116943359375
102;1281.0380859375
103;1280.46240234375
104;1279.88427734375
105;1279.3065185546875
106;1278.7235107421875
107;1278.140625
108;1277.552490234375
109;1276.9619140625
110;1276.36865234375
111;1275.77294921875
112;1275.1773681640625
113;1274.57666015625
114;1273.9755859375
115;1273.3692626953125
116;1272.7625732421875
117;1272.15283203125
118;1271.5400390625
119;1270.9219970703125
120;1270.301025390625
121;1269.67919921875
122;1269.054443359375
123;1268.4263916015625
124;1267.7952880859375
125;1267.158447265625
126;1266.5186767578125
127;1265.8778076171875
128;1265.236083984375
129;1264.589111328125
130;1263.938720703125
131;1263.28515625
132;1262.6282958984375
133;1261.9681396484375
134;1261.306884765625
135;1260.639892578125
136;1259.9696044921875
137;1259.295654296875
138;1258.6181640625
139;1257.937255859375
140;1257.2528076171875
141;1256.5667724609375
142;1255.875
143;1255.1795654296875
144;1254.480224609375
145;1253.777099609375
146;1253.0726318359375
147;1252.36181640625
148;1251.6475830078125
149;1250.9295654296875
150;1250.207763671875
151;1249.48193359375
152;1248.752197265625
153;1248.020751953125
154;1247.2850341796875
155;1246.5433349609375
156;1245.7974853515625
157;1245.050048828125
158;1244.29833984375
159;1243.54052734375
160;1242.780517578125
161;1242.016357421875
162;1241.245849609375
163;1240.47119140625
164;1239.6923828125
165;1238.9093017578125
166;1238.124267578125
167;1237.3326416015625
168;1236.5390625
169;1235.7388916015625
170;1234.9366455078125
171;1234.1346435546875
172;1233.3292236328125
173;1232.52001953125
174;1231.708984375
175;1230.8941650390625
176;1230.0732421875
177;1229.2508544921875
178;1228.424560546875
179;1227.592041015625
180;1226.7576904296875
181;1225.9171142578125
182;1225.0743408203125
183;1224.2252197265625
184;1223.371826171875
185;1222.516357421875
186;1221.654296875
187;1220.7904052734375
188;1219.9217529296875
189;1219.046630859375
190;1218.1676025390625
191;1217.287353515625
192;1216.4029541015625
193;1215.5118408203125
194;1214.618408203125
195;1213.7183837890625
196;1212.8179931640625
197;1211.916259765625
198;1211.017333984375
199;1210.1182861328125
200;1209.22607421875
201;1208.3319091796875
202;1207.435791015625
203;1206.5369873046875
204;1205.639404296875
205;1204.74560546875
206;1203.8526611328125
207;1202.9593505859375
208;1202.0634765625
209;1201.1629638671875
210;1200.26123046875
211;1199.3565673828125
212;1198.44873046875
213;1197.53564453125
214;1196.6268310546875
215;1195.72607421875
216;1194.822998046875
217;1193.9171142578125
218;1193.00830078125
219;1192.0982666015625
220;1191.185302734375
221;1190.26904296875
222;1189.34765625
223;1188.4227294921875
224;1187.4964599609375
225;1186.5665283203125
226;1185.6334228515625
227;1184.6973876953125
228;1183.758544921875
229;1182.81591796875
230;1181.86962890625
231;1180.9195556640625
232;1179.965576171875
233;1179.00830078125
234;1178.05224609375
235;1177.095703125
236;1176.1361083984375
237;1175.173583984375
238;1174.2081298828125
239;1173.24462890625
240;1172.27880859375
241;1171.3084716796875
242;1170.3375244140625
243;1169.3621826171875
244;1168.3883056640625
245;1167.4156494140625
246;1166.443115234375
247;1165.47705078125
248;1164.51171875
249;1163.5460205078125
250;1162.5809326171875
251;1161.61767578125
252;1160.653564453125
253;1159.6884765625
254;1158.7225341796875
255;1157.753662109375
256;1156.783447265625
257;1155.8150634765625
258;1154.8486328125
259;1153.88134765625
260;1152.91357421875
261;1151.9451904296875
262;1150.9764404296875
263;1150.0057373046875
264;1149.035888671875
265;1148.07275390625
266;1147.1151123046875
267;1146.1611328125
268;1145.208251953125
269;1144.255615234375
270;1143.306884765625
271;1142.36279296875
272;1141.422119140625
273;1140.4835205078125
274;1139.54638671875
275;1138.61376953125
276;1137.682861328125
277;1136.757568359375
278;1135.83544921875
279;1134.9205322265625
280;1134.006103515625
281;1133.10009765625
282;1132.1986083984375
283;1131.2996826171875
284;1130.4031982421875
285;1129.5101318359375
286;1128.6190185546875
287;1127.7301025390625
288;1126.8426513671875
289;1125.958251953125
290;1125.0775146484375
291;1124.198974609375
292;1123.3211669921875
293;1122.4481201171875
294;1121.581787109375
295;1120.720947265625
296;1119.86572265625
297;1119.0152587890625
298;1118.16943359375
299;1117.328125
300;1116.490234375
301;1115.65673828125
302;1114.82763671875
303;1114.00146484375
304;1113.1798095703125
305;1112.35986328125
306;1111.54345703125
307;1110.7344970703125
308;1109.9310302734375
309;1109.1346435546875
310;1108.342041015625
311;1107.5546875
312;1106.7724609375
313;1105.99267578125
314;1105.2178955078125
315;1104.45166015625
316;1103.6917724609375
317;1102.935546875
318;1102.183349609375
319;1101.43505859375
320;1100.68896484375
321;1099.9482421875
322;1099.2117919921875
323;1098.4808349609375
324;1097.7537841796875
325;1097.0325927734375
326;1096.31787109375
327;1095.6060791015625
328;1094.89794921875
329;1094.19384765625
330;1093.49462890625
331;1092.7977294921875
332;1092.10693359375
333;1091.4190673828125
334;1090.7349853515625
335;1090.054931640625
336;1089.380615234375
337;1088.7098388671875
338;1088.04248046875
339;1087.3780517578125
340;1086.716796875
341;1086.05908203125
342;1085.40478515625
343;1084.7529296875
344;1084.1038818359375
345;1083.46240234375
346;1082.8238525390625
347;1082.1884765625
348;1081.5576171875
349;1080.9305419921875
350;1080.306640625
351;1079.685302734375
352;1079.0670166015625
353;1078.45166015625
354;1077.839599609375
355;1077.231201171875
356;1076.6260986328125
357;1076.0245361328125
358;1075.4261474609375
359;1074.8304443359375
360;1074.2373046875
361;1073.6468505859375
362;1073.0587158203125
363;1072.474609375
364;1071.89306640625
365;1071.314697265625
366;1070.73779296875
367;1070.1634521484375
368;1069.5921630859375
369;1069.0230712890625
370;1068.4560546875
371;1067.89111328125
372;1067.32861328125
373;1066.76904296875
374;1066.21142578125
375;1065.655517578125
376;1065.101806640625
377;1064.5494384765625
378;1063.9990234375
379;1063.450439453125
380;1062.904296875
381;1062.3602294921875
382;1061.81787109375
383;1061.27685546875
384;1060.7381591796875
385;1060.2010498046875
386;1059.66552734375
387;1059.1318359375
388;1058.599609375
389;1058.06982421875
390;1057.5408935546875
391;1057.0135498046875
392;1056.488037109375
393;1055.9642333984375
394;1055.4417724609375
395;1054.9208984375
396;1054.403076171875
397;1053.8875732421875
398;1053.374267578125
399;1052.862548828125
400;1052.351806640625
401;1051.843017578125
402;1051.335693359375
403;1050.8294677734375
404;1050.3250732421875
405;1049.8214111328125
406;1049.31982421875
407;1048.819091796875
408;1048.3194580078125
409;1047.821533203125
410;1047.3245849609375
411;1046.828857421875
412;1046.3350830078125
413;1045.8424072265625
414;1045.35107421875
415;1044.8603515625
416;1044.3709716796875
417;1043.8828125
418;1043.396240234375
419;1042.9105224609375
420;1042.42578125
421;1041.942626953125
422;1041.46044921875
423;1040.979248046875
424;1040.4991455078125
425;1040.0205078125
426;1039.54296875
427;1039.06689453125
428;1038.591552734375
429;1038.1175537109375
430;1037.6446533203125
431;1037.17236328125
432;1036.70166015625
433;1036.2314453125
434;1035.7628173828125
435;1035.2950439453125
436;1034.827880859375
437;1034.3621826171875
438;1033.8978271484375
439;1033.434326171875
440;1032.9720458984375
441;1032.51025390625
442;1032.049560546875
443;1031.5899658203125
444;1031.132080078125
445;1030.6756591796875
446;1030.2205810546875
447;1029.7667236328125
448;1029.3145751953125
449;1028.863037109375
450;1028.4132080078125
451;1027.963623046875
452;1027.5155029296875
453;1027.06787109375
454;1026.6209716796875
455;1026.1749267578125
456;1025.72998046875
457;1025.285400390625
458;1024.841552734375
459;1024.39892578125
460;1023.9569091796875
461;1023.5157470703125
462;1023.075439453125
463;1022.6361694335938
464;1022.1973876953125
465;1021.7593383789062
466;1021.322509765625
467;1020.885986328125
468;1020.449951171875
469;1020.0149536132812
470;1019.5809326171875
471;1019.1473388671875
472;1018.7149658203125
473;1018.282958984375
474;1017.8515625
475;1017.420654296875
476;1016.9910888671875
477;1016.561767578125
478;1016.1334838867188
479;1015.7055053710938
480;1015.278076171875
481;1014.851806640625
482;1014.425537109375
483;1014.0003051757812
484;1013.5755004882812
485;1013.1514892578125
486;1012.728271484375
487;1012.3059692382812
488;1011.884521484375
489;1011.4633178710938
490;1011.042724609375
491;1010.623046875
492;1010.203857421875
493;1009.7858276367188
494;1009.3687133789062
495;1008.9522705078125
496;1008.5362548828125
497;1008.1209716796875
498;1007.7060546875
499;1007.2921142578125
500;1006.8786010742188
501;1006.4652709960938
502;1006.052734375
503;1005.6407470703125
504;1005.2296142578125
505;1004.8186645507812
506;1004.4088745117188
507;1003.9991455078125
508;1003.590087890625
509;1003.181396484375
510;1002.773193359375
511;1002.3657836914062
512;1001.958740234375
513;1001.552490234375
514;1001.1469116210938
515;1000.7418823242188
516;1000.3373413085938
517;999.93359375
518;999.5303955078125
519;999.1276245117188
520;998.7255859375
521;998.3239135742188
522;997.9228515625
523;997.5221557617188
524;997.1219482421875
525;996.7222290039062
526;996.3229370117188
527;995.9242553710938
528;995.5260620117188
529;995.1284790039062
530;994.7315673828125
531;994.3349609375
532;993.9390258789062
533;993.5436401367188
534;993.1484375
535;992.75390625
536;992.3599243164062
537;991.966552734375
538;991.5732421875
539;991.180419921875
540;990.7885131835938
541;990.396728515625
542;990.005126953125
543;989.6145629882812
544;989.2241821289062
545;988.8341064453125
546;988.4446411132812
547;988.0556640625
548;987.667236328125
549;987.2789916992188
550;986.8917236328125
551;986.5045776367188
552;986.1180419921875
553;985.7318725585938
554;985.3463745117188
555;984.961181640625
556;984.5765991210938
557;984.192626953125
558;983.8090209960938
559;983.4259033203125
560;983.0432739257812
561;982.6614379882812
562;982.2799682617188
563;981.8988647460938
564;981.5178833007812
565;981.1376953125
566;980.7575073242188
567;980.3779296875
568;979.9987182617188
569;979.6199951171875
570;979.2416381835938
571;978.8637084960938
572;978.486328125
573;978.1090698242188
574;977.732666015625
575;977.3564453125
576;976.9805908203125
577;976.6051635742188
578;976.2301635742188
579;975.855224609375
580;975.4810180664062
581;975.1072998046875
582;974.7340698242188
583;974.3612060546875
584;973.988525390625
585;973.616455078125
586;973.2446899414062
587;972.873046875
588;972.5018310546875
589;972.131103515625
590;971.760498046875
591;971.390625
592;971.0208129882812
593;970.6512451171875
594;970.2822265625
595;969.9133911132812
596;969.544921875
597;969.1771850585938
598;968.8094482421875
599;968.4420776367188
600;968.074951171875
601;967.7084350585938
602;967.3422241210938
603;966.976318359375
604;966.6107788085938
605;966.2457885742188
606;965.8809814453125
607;965.5164794921875
608;965.152099609375
609;964.7882080078125
610;964.4246826171875
611;964.0616455078125
612;963.6986694335938
613;963.3360595703125
614;962.973876953125
615;962.612060546875
616;962.2503051757812
617;961.888916015625
618;961.5278930664062
619;961.167236328125
620;960.806640625
621;960.4467163085938
622;960.0870361328125
623;959.7275390625
624;959.368408203125
625;959.0096435546875
626;958.651123046875
627;958.29296875
628;957.9349975585938
629;957.577392578125
630;957.2198486328125
631;956.8627319335938
632;956.505859375
633;956.1492919921875
634;955.79296875
635;955.4369506835938
636;955.0811767578125
637;954.7258911132812
638;954.3707885742188
639;954.015869140625
640;953.6610107421875
641;953.306884765625
642;952.9526977539062
643;952.5987548828125
644;952.2452392578125
645;951.891845703125
646;951.5389404296875
647;951.186279296875
648;950.834228515625
649;950.4819946289062
650;950.1301879882812
651;949.7786254882812
652;949.4273071289062
653;949.0762939453125
654;948.7255859375
655;948.3751220703125
656;948.0247192382812
657;947.6746826171875
658;947.3250732421875
659;946.9755859375
660;946.6264038085938
661;946.2776489257812
662;945.928955078125
663;945.5803833007812
664;945.232421875
665;944.8846435546875
666;944.536865234375
667;944.189697265625
668;943.8424682617188
669;943.4956665039062
670;943.1489868164062
671;942.802490234375
672;942.4561767578125
673;942.1102294921875
674;941.7646484375
675;941.419189453125
676;941.0737915039062
677;940.728759765625
678;940.3840942382812
679;940.0396118164062
680;939.6954345703125
681;939.3515625
682;939.0076904296875
683;938.6640625
684;938.3209838867188
685;937.9779663085938
686;937.6351928710938
687;937.292724609375
688;936.9503173828125
689;936.6080932617188
690;936.2662963867188
691;935.9246826171875
692;935.5833129882812
693;935.2420654296875
694;934.901123046875
695;934.560302734375
696;934.2198486328125
697;933.8795776367188
698;933.539306640625
699;933.199462890625
700;932.8596801757812
701;932.520263671875
702;932.1812133789062
703;931.8423461914062
704;931.5034790039062
705;931.1649169921875
706;930.8265991210938
707;930.488525390625
708;930.1508178710938
709;929.813232421875
710;929.4760131835938
711;929.1387939453125
712;928.8020629882812
713;928.4652709960938
714;928.12890625
715;927.792724609375
716;927.4569091796875
717;927.12109375
718;926.7855834960938
719;926.4503173828125
720;926.115234375
721;925.7803955078125
722;925.4458618164062
723;925.111328125
724;924.777099609375
725;924.4430541992188
726;924.1094970703125
727;923.775634765625
728;923.4422607421875
729;923.1089477539062
730;922.7758178710938
731;922.4430541992188
732;922.110595703125
733;921.778076171875
734;921.446044921875
735;921.1139526367188
736;920.7823486328125
737;920.4508666992188
738;920.1195678710938
739;919.7883911132812
740;919.4575805664062
741;919.126708984375
742;918.7963256835938
743;918.466064453125
744;918.135986328125
745;917.8060913085938
746;917.4764404296875
747;917.1470336914062
748;916.8176879882812
749;916.4885864257812
750;916.1596069335938
751;915.8309326171875
752;915.5025024414062
753;915.174072265625
754;914.8458251953125
755;914.517822265625
756;914.1898803710938
757;913.8623046875
758;913.534912109375
759;913.2078857421875
760;912.880859375
761;912.5540161132812
762;912.2272338867188
763;911.9008178710938
764;911.5745239257812
765;911.2485961914062
766;910.9228515625
767;910.5973510742188
768;910.2719116210938
769;909.9467163085938
770;909.6216430664062
771;909.2969360351562
772;908.9723510742188
773;908.64794921875
774;908.3236694335938
775;907.9996948242188
776;907.6759033203125
777;907.352294921875
778;907.0288696289062
779;906.70556640625
780;906.3826293945312
781;906.0596923828125
782;905.7369995117188
783;905.41455078125
784;905.0922241210938
785;904.7702026367188
786;904.4481811523438
787;904.12646484375
788;903.8049926757812
789;903.4835205078125
790;903.162353515625
791;902.8414306640625
792;902.5204467773438
793;902.1997680664062
794;901.8792724609375
795;901.558837890625
796;901.2387084960938
797;900.918701171875
798;900.598876953125
799;900.2792358398438
800;899.9598388671875
801;899.6404418945312
802;899.3212890625
803;899.0023803710938
804;898.6837158203125
805;898.3651123046875
806;898.0467529296875
807;897.7284545898438
808;897.410400390625
809;897.0924072265625
810;896.7744750976562
811;896.4569702148438
812;896.1395874023438
813;895.8223876953125
814;895.5051879882812
815;895.188232421875
816;894.8714599609375
817;894.5548095703125
818;894.2382202148438
819;893.9219970703125
820;893.6057739257812
821;893.2898559570312
822;892.9741821289062
823;892.6585083007812
824;892.3431396484375
825;892.0277099609375
826;891.712646484375
827;891.3975830078125
828;891.082763671875
829;890.7680053710938
830;890.4534912109375
831;890.1392822265625
832;889.8251953125
833;889.51123046875
834;889.1973266601562
835;888.8837280273438
836;888.5702514648438
837;888.2570190429688
838;887.9439697265625
839;887.6310424804688
840;887.318115234375
841;887.0054321289062
842;886.6929321289062
843;886.380615234375
844;886.0684814453125
845;885.75634765625
846;885.4443969726562
847;885.1326293945312
848;884.8211059570312
849;884.5098876953125
850;884.198486328125
851;883.887451171875
852;883.5765991210938
853;883.2659301757812
854;882.955322265625
855;882.6449584960938
856;882.334716796875
857;882.0245971679688
858;881.71435546875
859;881.404541015625
860;881.0947875976562
861;880.7852783203125
862;880.475830078125
863;880.1663818359375
864;879.8572387695312
865;879.5482788085938
866;879.2393188476562
867;878.9306030273438
868;878.6220092773438
869;878.3135986328125
870;878.00537109375
871;877.6973266601562
872;877.389404296875
873;877.0816040039062
874;876.77392578125
875;876.4663696289062
876;876.158935546875
877;875.8517456054688
878;875.5445556640625
879;875.2376098632812
880;874.9307250976562
881;874.6240234375
882;874.3175048828125
883;874.0111694335938
884;873.7048950195312
885;873.3987426757812
886;873.0929565429688
887;872.7872924804688
888;872.481689453125
889;872.1760864257812
890;871.8707275390625
891;871.5654907226562
892;871.2603759765625
893;870.9555053710938
894;870.650634765625
895;870.3460083007812
896;870.0415649414062
897;869.7372436523438
898;869.4331665039062
899;869.1290283203125
900;868.824951171875
901;868.521240234375
902;868.2175903320312
903;867.9141235351562
904;867.6107177734375
905;867.3074951171875
906;867.0044555664062
907;866.7015380859375
908;866.398681640625
909;866.095947265625
910;865.7933349609375
911;865.4910278320312
912;865.188720703125
913;864.8865356445312
914;864.5846557617188
915;864.2825927734375
916;863.9807739257812
917;863.67919921875
918;863.377685546875
919;863.076416015625
920;862.7752685546875
921;862.4740600585938
922;862.1731567382812
923;861.8724365234375
924;861.57177734375
925;861.271240234375
926;860.9708251953125
927;860.6705322265625
928;860.3705444335938
929;860.0703735351562
930;859.7705688476562
931;859.4708251953125
932;859.1712036132812
933;858.871826171875
934;858.5724487304688
935;858.2732543945312
936;857.9741821289062
937;857.6752319335938
938;857.3764038085938
939;857.0776977539062
940;856.7791748046875
941;856.4807739257812
942;856.182373046875
943;855.8842163085938
944;855.5862426757812
945;855.288330078125
946;854.990478515625
947;854.69287109375
948;854.3953857421875
949;854.0979614257812
950;853.80078125
951;853.5036010742188
952;853.2066650390625
953;852.909912109375
954;852.613037109375
955;852.31640625
956;852.0199584960938
957;851.7235107421875
958;851.4273071289062
959;851.131103515625
960;850.8351440429688
961;850.5392456054688
962;850.2435913085938
963;849.9479370117188
964;849.6524658203125
965;849.3571166992188
966;849.061767578125
967;848.7667236328125
968;848.4716796875
969;848.1768188476562
970;847.882080078125
971;847.5875244140625
972;847.2929077148438
973;846.9986572265625
974;846.704345703125
975;846.4103393554688
976;846.1163330078125
977;845.8223266601562
978;845.5286254882812
979;845.235107421875
980;844.9415893554688
981;844.648193359375
982;844.35498046875
983;844.0619506835938
984;843.7689819335938
985;843.4761352539062
986;843.1832885742188
987;842.8907470703125
988;842.59814453125
989;842.3057861328125
990;842.0135498046875
991;841.7212524414062
992;841.4293212890625
993;841.1373291015625
994;840.8455810546875
995;840.5538940429688
996;840.2622680664062
997;839.9708251953125
998;839.679443359375
999;839.3883056640625
1000;839.0972290039062
1001;838.8063354492188
1002;838.515380859375
1003;838.2247924804688
1004;837.9342651367188
1005;837.6436767578125
1006;837.353271484375
1007;837.06298828125
1008;836.772705078125
1009;836.4827270507812
1010;836.1928100585938
1011;835.9030151367188
1012;835.61328125
1013;835.32373046875
1014;835.0343017578125
1015;834.744873046875
1016;834.4556884765625
1017;834.16650390625
1018;833.8775634765625
1019;833.588623046875
1020;833.2999267578125
1021;833.0112915039062
1022;832.7227783203125
1023;832.4342651367188
1024;832.1461181640625
1025;831.8577880859375
1026;831.5697631835938
1027;831.281982421875
1028;830.9940795898438
1029;830.706298828125
1030;830.418701171875
1031;830.1312866210938
1032;829.8438720703125
1033;829.556640625
1034;829.26953125
1035;828.982421875
1036;828.695556640625
1037;828.40869140625
1038;828.1220092773438
1039;827.8355102539062
1040;827.549072265625
1041;827.2628173828125
1042;826.9766235351562
1043;826.6903686523438
1044;826.404541015625
1045;826.11865234375
1046;825.832763671875
1047;825.547119140625
1048;825.2615966796875
1049;824.9761962890625
1050;824.6907958984375
1051;824.405517578125
1052;824.120361328125
1053;823.8355102539062
1054;823.5505981445312
1055;823.265869140625
1056;822.981201171875
1057;822.6966552734375
1058;822.4122924804688
1059;822.1279296875
1060;821.8438110351562
1061;821.5596313476562
1062;821.2756958007812
1063;820.9917602539062
1064;820.7079467773438
1065;820.4242553710938
1066;820.1407470703125
1067;819.857177734375
1068;819.5738525390625
1069;819.2905883789062
1070;819.0074462890625
1071;818.724365234375
1072;818.44140625
1073;818.1585693359375
1074;817.8757934570312
1075;817.59326171875
1076;817.310791015625
1077;817.0283813476562
1078;816.74609375
1079;816.4638671875
1080;816.1817626953125
1081;815.89990234375
1082;815.6179809570312
1083;815.3363647460938
1084;815.0547485351562
1085;814.7733154296875
1086;814.491943359375
1087;814.210693359375
1088;813.9295654296875
1089;813.6485595703125
1090;813.3677368164062
1091;813.0869140625
1092;812.8062744140625
1093;812.5258178710938
1094;812.245361328125
1095;811.9651489257812
1096;811.6849365234375
1097;811.40478515625
1098;811.1248168945312
1099;810.844970703125
1100;810.565185546875
1101;810.2854614257812
1102;810.0059204101562
1103;809.7265014648438
1104;809.447265625
1105;809.1679077148438
1106;808.888916015625
1107;808.60986328125
1108;808.3309326171875
1109;808.0520629882812
1110;807.7734375
1111;807.494873046875
1112;807.2163696289062
1113;806.9380493164062
1114;806.6597290039062
1115;806.3815307617188
1116;806.1033935546875
1117;805.825439453125
1118;805.547607421875
1119;805.269775390625
1120;804.9921264648438
1121;804.7144775390625
1122;804.4370727539062
1123;804.1596069335938
1124;803.8825073242188
1125;803.605224609375
1126;803.3281860351562
1127;803.05126953125
1128;802.7743530273438
1129;802.49755859375
1130;802.220947265625
1131;801.9443969726562
1132;801.66796875
1133;801.3916625976562
1134;801.115478515625
1135;800.8392944335938
1136;800.5631713867188
1137;800.2872924804688
1138;800.0113525390625
1139;799.735595703125
1140;799.4598388671875
1141;799.184326171875
1142;798.9087524414062
1143;798.6334838867188
1144;798.358154296875
1145;798.0829467773438
1146;797.807861328125
1147;797.532958984375
1148;797.2579956054688
1149;796.983154296875
1150;796.70849609375
1151;796.4338989257812
1152;796.1594848632812
1153;795.8850708007812
1154;795.6107177734375
1155;795.3366088867188
1156;795.0624389648438
1157;794.7883911132812
1158;794.5144653320312
1159;794.24072265625
1160;793.967041015625
1161;793.6934204101562
1162;793.4199829101562
1163;793.146484375
1164;792.8732299804688
1165;792.5999145507812
1166;792.3267822265625
1167;792.0537109375
1168;791.7807006835938
1169;791.508056640625
1170;791.2351684570312
1171;790.962646484375
1172;790.68994140625
1173;790.4175415039062
1174;790.145263671875
1175;789.8729858398438
1176;789.600830078125
1177;789.328857421875
1178;789.056884765625
1179;788.7850341796875
1180;788.51318359375
1181;788.241455078125
1182;787.9697875976562
1183;787.6983032226562
1184;787.4268188476562
1185;787.155517578125
1186;786.88427734375
1187;786.6130981445312
1188;786.342041015625
1189;786.071044921875
1190;785.80029296875
1191;785.529541015625
1192;785.2589111328125
1193;784.9882202148438
1194;784.7177734375
1195;784.4473876953125
1196;784.1771850585938
1197;783.9070434570312
1198;783.636962890625
1199;783.366943359375
1200;783.0969848632812
1201;782.8272705078125
1202;782.5575561523438
1203;782.2879638671875
1204;782.0184326171875
1205;781.7490234375
1206;781.4796142578125
1207;781.2103881835938
1208;780.941162109375
1209;780.6721801757812
1210;780.4031372070312
1211;780.13427734375
1212;779.8654174804688
1213;779.5967407226562
1214;779.3281860351562
1215;779.0597534179688
1216;778.791259765625
1217;778.52294921875
1218;778.254638671875
1219;777.9866333007812
1220;777.718505859375
1221;777.4506225585938
1222;777.1827392578125
1223;776.9149169921875
1224;776.647216796875
1225;776.379638671875
1226;776.1121215820312
1227;775.8447265625
1228;775.5774536132812
1229;775.3102416992188
1230;775.0430908203125
1231;774.7760620117188
1232;774.5090942382812
1233;774.2422485351562
1234;773.9755859375
1235;773.7088012695312
1236;773.442138671875
1237;773.1756591796875
1238;772.9092407226562
1239;772.6429443359375
1240;772.376708984375
1241;772.110595703125
1242;771.844482421875
1243;771.5785522460938
1244;771.3126831054688
1245;771.0469970703125
1246;770.78125
1247;770.515625
1248;770.2501220703125
1249;769.984619140625
1250;769.7192993164062
1251;769.4540405273438
1252;769.1889038085938
1253;768.923828125
1254;768.6588134765625
1255;768.3939208984375
1256;768.129150390625
1257;767.864501953125
1258;767.599853515625
1259;767.335205078125
1260;767.0708618164062
1261;766.8064575195312
1262;766.5421752929688
1263;766.2780151367188
1264;766.0138549804688
1265;765.7498168945312
1266;765.4859619140625
1267;765.2220458984375
1268;764.958251953125
1269;764.694580078125
1270;764.4309692382812
1271;764.1674194335938
1272;763.904052734375
1273;763.6407470703125
1274;763.3775024414062
1275;763.1143188476562
1276;762.8512573242188
1277;762.5881958007812
1278;762.3253173828125
1279;762.0626220703125
1280;761.7999267578125
1281;761.5372924804688
1282;761.2747192382812
1283;761.0122680664062
1284;760.7498779296875
1285;760.4876098632812
1286;760.2255249023438
1287;759.9633178710938
1288;759.701416015625
1289;759.4393920898438
1290;759.1775512695312
1291;758.915771484375
1292;758.654052734375
1293;758.3923950195312
1294;758.1309814453125
1295;757.8694458007812
1296;757.608154296875
1297;757.346923828125
1298;757.0857543945312
1299;756.8246459960938
1300;756.5637817382812
1301;756.3028564453125
1302;756.0419921875
1303;755.7813110351562
1304;755.5206909179688
1305;755.2600708007812
1306;754.9996337890625
1307;754.7391357421875
1308;754.4788818359375
1309;754.2186279296875
1310;753.95849609375
1311;753.6983642578125
1312;753.4383544921875
1313;753.178466796875
1314;752.9186401367188
1315;752.658935546875
1316;752.3992309570312
1317;752.1396484375
1318;751.880126953125
1319;751.6207275390625
1320;751.3613891601562
1321;751.1021118164062
1322;750.8429565429688
1323;750.5838623046875
1324;750.324951171875
1325;750.0659790039062
1326;749.80712890625
1327;749.5484008789062
1328;749.2896728515625
1329;749.031005859375
1330;748.7725219726562
1331;748.51416015625
1332;748.255859375
1333;747.9976196289062
1334;747.739501953125
1335;747.4814453125
1336;747.223388671875
1337;746.9655151367188
1338;746.7075805664062
1339;746.4498901367188
1340;746.192138671875
1341;745.9345092773438
1342;745.677001953125
1343;745.4195556640625
1344;745.162353515625
1345;744.9049682617188
1346;744.6477661132812
1347;744.390625
1348;744.1336059570312
1349;743.876708984375
1350;743.619873046875
1351;743.363037109375
1352;743.1064453125
1353;742.8497924804688
1354;742.59326171875
1355;742.3368530273438
1356;742.0805053710938
1357;741.82421875
1358;741.5680541992188
1359;741.3118896484375
1360;741.055908203125
1361;740.7999877929688
1362;740.5441284179688
1363;740.2882690429688
1364;740.0325927734375
1365;739.7769775390625
1366;739.5213623046875
1367;739.2659301757812
1368;739.010498046875
1369;738.7551879882812
1370;738.5000610351562
1371;738.2449340820312
1372;737.9898681640625
1373;737.73486328125
1374;737.47998046875
1375;737.22509765625
1376;736.9703979492188
1377;736.7156372070312
1378;736.461181640625
1379;736.2066650390625
1380;735.9522705078125
1381;735.6979370117188
1382;735.443603515625
1383;735.1893920898438
1384;734.9354248046875
1385;734.6813354492188
1386;734.4273681640625
1387;734.1735229492188
1388;733.9197387695312
1389;733.666015625
1390;733.4124145507812
1391;733.158935546875
1392;732.9054565429688
1393;732.6520385742188
1394;732.3988037109375
1395;732.1455688476562
1396;731.8923950195312
1397;731.6393432617188
1398;731.3864135742188
1399;731.1334838867188
1400;730.880615234375
1401;730.6278686523438
1402;730.375244140625
1403;730.1227416992188
1404;729.8700561523438
1405;729.6176147460938
1406;729.365234375
1407;729.1129760742188
1408;728.8607788085938
1409;728.608642578125
1410;728.3566284179688
1411;728.1045532226562
1412;727.852783203125
1413;727.6009521484375
1414;727.3492431640625
1415;727.0975341796875
1416;726.8460083007812
1417;726.594482421875
1418;726.343017578125
1419;726.0917358398438
1420;725.8403930664062
1421;725.5892333984375
1422;725.338134765625
1423;725.087158203125
1424;724.8362426757812
1425;724.5853881835938
1426;724.334716796875
1427;724.0838623046875
1428;723.833251953125
1429;723.5827026367188
1430;723.3321533203125
1431;723.0817260742188
1432;722.831298828125
1433;722.5811157226562
1434;722.330810546875
1435;722.0807495117188
1436;721.8307495117188
1437;721.580810546875
1438;721.330810546875
1439;721.0811157226562
1440;720.8313598632812
1441;720.5817260742188
1442;720.3321533203125
1443;720.082763671875
1444;719.8333129882812
1445;719.583984375
1446;719.334716796875
1447;719.0856323242188
1448;718.83642578125
1449;718.58740234375
1450;718.3385620117188
1451;718.089599609375
1452;717.8406982421875
1453;717.592041015625
1454;717.3434448242188
1455;717.0948486328125
1456;716.8462524414062
1457;716.597900390625
1458;716.3494873046875
1459;716.101318359375
1460;715.8531494140625
1461;715.60498046875
1462;715.35693359375
1463;715.1090087890625
1464;714.861083984375
1465;714.61328125
1466;714.3655395507812
1467;714.117919921875
1468;713.870361328125
1469;713.622802734375
1470;713.3754272460938
1471;713.1280517578125
1472;712.8807373046875
1473;712.633544921875
1474;712.3863525390625
1475;712.1392822265625
1476;711.892333984375
1477;711.6454467773438
1478;711.3986206054688
1479;711.1519165039062
1480;710.9051513671875
1481;710.6585693359375
1482;710.412109375
1483;710.1656494140625
1484;709.919189453125
1485;709.6728515625
1486;709.4266357421875
1487;709.1805419921875
1488;708.9343872070312
1489;708.6884155273438
1490;708.4424438476562
1491;708.196533203125
1492;707.9507446289062
1493;707.7049560546875
1494;707.4592895507812
1495;707.2137451171875
1496;706.96826171875
1497;706.722900390625
1498;706.4774780273438
1499;706.2322387695312
