;loss
0;1310.207763671875
1;1309.707763671875
2;1309.0350341796875
3;1308.361572265625
4;1307.728515625
5;1307.0821533203125
6;1306.4058837890625
7;1305.7286376953125
8;1305.06005859375
9;1304.386962890625
10;1303.7100830078125
11;1303.02880859375
12;1302.345703125
13;1301.660400390625
14;1300.97216796875
15;1300.28662109375
16;1299.599853515625
17;1298.911865234375
18;1298.2161865234375
19;1297.525634765625
20;1296.826416015625
21;1296.1256103515625
22;1295.42333984375
23;1294.7275390625
24;1294.02197265625
25;1293.3150634765625
26;1292.606689453125
27;1291.9049072265625
28;1291.193603515625
29;1290.4808349609375
30;1289.76904296875
31;1289.0576171875
32;1288.35302734375
33;1287.6470947265625
34;1286.931884765625
35;1286.2152099609375
36;1285.4970703125
37;1284.777587890625
38;1284.0645751953125
39;1283.35009765625
40;1282.6263427734375
41;1281.90869140625
42;1281.1893310546875
43;1280.4609375
44;1279.73095703125
45;1278.99951171875
46;1278.273193359375
47;1277.5382080078125
48;1276.8082275390625
49;1276.0697021484375
50;1275.3360595703125
51;1274.5936279296875
52;1273.85595703125
53;1273.10986328125
54;1272.3682861328125
55;1271.617919921875
56;1270.871826171875
57;1270.1175537109375
58;1269.361083984375
59;1268.602294921875
60;1267.8472900390625
61;1267.090087890625
62;1266.3245849609375
63;1265.5623779296875
64;1264.7977294921875
65;1264.03076171875
66;1263.261474609375
67;1262.48388671875
68;1261.703857421875
69;1260.9263916015625
70;1260.1412353515625
71;1259.3587646484375
72;1258.5733642578125
73;1257.7852783203125
74;1256.9891357421875
75;1256.195556640625
76;1255.39404296875
77;1254.5897216796875
78;1253.7843017578125
79;1252.97607421875
80;1252.170166015625
81;1251.356689453125
82;1250.5450439453125
83;1249.7259521484375
84;1248.90869140625
85;1248.0836181640625
86;1247.2559814453125
87;1246.4254150390625
88;1245.59619140625
89;1244.76025390625
90;1243.927001953125
91;1243.08642578125
92;1242.242919921875
93;1241.396484375
94;1240.55126953125
95;1239.6986083984375
96;1238.843017578125
97;1237.984375
98;1237.126708984375
99;1236.266357421875
100;1235.4031982421875
101;1234.53271484375
102;1233.658935546875
103;1232.7823486328125
104;1231.9061279296875
105;1231.02294921875
106;1230.142333984375
107;1229.26953125
108;1228.390380859375
109;1227.508544921875
110;1226.6240234375
111;1225.740478515625
112;1224.85400390625
113;1223.9609375
114;1223.06494140625
115;1222.171630859375
116;1221.27587890625
117;1220.3770751953125
118;1219.4754638671875
119;1218.5675048828125
120;1217.6563720703125
121;1216.745849609375
122;1215.832275390625
123;1214.9156494140625
124;1213.99267578125
125;1213.0699462890625
126;1212.1407470703125
127;1211.20849609375
128;1210.27685546875
129;1209.347412109375
130;1208.4185791015625
131;1207.4871826171875
132;1206.552978515625
133;1205.6158447265625
134;1204.67626953125
135;1203.733642578125
136;1202.7882080078125
137;1201.8399658203125
138;1200.888671875
139;1199.9344482421875
140;1198.977294921875
141;1198.01708984375
142;1197.0540771484375
143;1196.0880126953125
144;1195.1197509765625
145;1194.1490478515625
146;1193.1727294921875
147;1192.1943359375
148;1191.213134765625
149;1190.23193359375
150;1189.244873046875
151;1188.2550048828125
152;1187.265869140625
153;1186.2711181640625
154;1185.27734375
155;1184.2862548828125
156;1183.29248046875
157;1182.2969970703125
158;1181.2996826171875
159;1180.2999267578125
160;1179.294921875
161;1178.2904052734375
162;1177.2806396484375
163;1176.2711181640625
164;1175.25927734375
165;1174.2451171875
166;1173.225830078125
167;1172.2039794921875
168;1171.179931640625
169;1170.161865234375
170;1169.14208984375
171;1168.1201171875
172;1167.0982666015625
173;1166.074951171875
174;1165.0528564453125
175;1164.0264892578125
176;1163.0048828125
177;1161.9798583984375
178;1160.9561767578125
179;1159.93115234375
180;1158.9024658203125
181;1157.873046875
182;1156.842529296875
183;1155.810791015625
184;1154.77783203125
185;1153.74365234375
186;1152.708251953125
187;1151.6722412109375
188;1150.6363525390625
189;1149.601806640625
190;1148.5662841796875
191;1147.527587890625
192;1146.4957275390625
193;1145.465576171875
194;1144.43798828125
195;1143.410400390625
196;1142.3828125
197;1141.35546875
198;1140.331787109375
199;1139.30615234375
200;1138.2808837890625
201;1137.2557373046875
202;1136.230712890625
203;1135.2081298828125
204;1134.18603515625
205;1133.164306640625
206;1132.1405029296875
207;1131.1171875
208;1130.09423828125
209;1129.07373046875
210;1128.0545654296875
211;1127.03369140625
212;1126.016845703125
213;1125.001708984375
214;1123.9876708984375
215;1122.9727783203125
216;1121.960693359375
217;1120.9483642578125
218;1119.9381103515625
219;1118.9293212890625
220;1117.9239501953125
221;1116.920166015625
222;1115.9190673828125
223;1114.9217529296875
224;1113.92626953125
225;1112.935546875
226;1111.9462890625
227;1110.9617919921875
228;1109.9779052734375
229;1108.99658203125
230;1108.0179443359375
231;1107.0438232421875
232;1106.07275390625
233;1105.1082763671875
234;1104.14697265625
235;1103.1888427734375
236;1102.233642578125
237;1101.2830810546875
238;1100.33544921875
239;1099.390869140625
240;1098.4500732421875
241;1097.5123291015625
242;1096.580322265625
243;1095.65185546875
244;1094.7279052734375
245;1093.808349609375
246;1092.8929443359375
247;1091.981201171875
248;1091.0745849609375
249;1090.1715087890625
250;1089.2728271484375
251;1088.3778076171875
252;1087.486572265625
253;1086.6005859375
254;1085.7166748046875
255;1084.83642578125
256;1083.9599609375
257;1083.0887451171875
258;1082.22412109375
259;1081.364013671875
260;1080.5076904296875
261;1079.65673828125
262;1078.8096923828125
263;1077.96923828125
264;1077.1326904296875
265;1076.298828125
266;1075.4691162109375
267;1074.6446533203125
268;1073.8231201171875
269;1073.0069580078125
270;1072.1944580078125
271;1071.3873291015625
272;1070.5838623046875
273;1069.78466796875
274;1068.98974609375
275;1068.201416015625
276;1067.4169921875
277;1066.6370849609375
278;1065.8594970703125
279;1065.08740234375
280;1064.319091796875
281;1063.55517578125
282;1062.79541015625
283;1062.03955078125
284;1061.29052734375
285;1060.5458984375
286;1059.80517578125
287;1059.06884765625
288;1058.3372802734375
289;1057.6094970703125
290;1056.88427734375
291;1056.16259765625
292;1055.444580078125
293;1054.72998046875
294;1054.01904296875
295;1053.3128662109375
296;1052.6092529296875
297;1051.9095458984375
298;1051.214111328125
299;1050.5220947265625
300;1049.8336181640625
301;1049.1485595703125
302;1048.4669189453125
303;1047.7877197265625
304;1047.11328125
305;1046.44189453125
306;1045.7734375
307;1045.1083984375
308;1044.446533203125
309;1043.7877197265625
310;1043.132080078125
311;1042.4803466796875
312;1041.83056640625
313;1041.18505859375
314;1040.5445556640625
315;1039.9071044921875
316;1039.2728271484375
317;1038.64111328125
318;1038.012451171875
319;1037.386962890625
320;1036.7640380859375
321;1036.14404296875
322;1035.52685546875
323;1034.912353515625
324;1034.2999267578125
325;1033.690673828125
326;1033.083740234375
327;1032.4798583984375
328;1031.87939453125
329;1031.28076171875
330;1030.684814453125
331;1030.0914306640625
332;1029.50146484375
333;1028.9136962890625
334;1028.32763671875
335;1027.7442626953125
336;1027.163330078125
337;1026.5855712890625
338;1026.010986328125
339;1025.4388427734375
340;1024.8685302734375
341;1024.30126953125
342;1023.736328125
343;1023.173583984375
344;1022.614013671875
345;1022.0567626953125
346;1021.5018310546875
347;1020.9498901367188
348;1020.4005126953125
349;1019.853759765625
350;1019.3095703125
351;1018.767822265625
352;1018.2275390625
353;1017.6895751953125
354;1017.1536254882812
355;1016.6199951171875
356;1016.0884399414062
357;1015.558837890625
358;1015.0317993164062
359;1014.506591796875
360;1013.9837036132812
361;1013.4633178710938
362;1012.9453125
363;1012.428466796875
364;1011.9141845703125
365;1011.401611328125
366;1010.890869140625
367;1010.3818359375
368;1009.8743286132812
369;1009.3688354492188
370;1008.8656616210938
371;1008.3643798828125
372;1007.8646850585938
373;1007.366943359375
374;1006.8709716796875
375;1006.376708984375
376;1005.884033203125
377;1005.3930053710938
378;1004.903076171875
379;1004.4151611328125
380;1003.9287109375
381;1003.4440307617188
382;1002.9603881835938
383;1002.478515625
384;1001.998046875
385;1001.5199584960938
386;1001.0432739257812
387;1000.5682373046875
388;1000.0940551757812
389;999.621826171875
390;999.1510620117188
391;998.6823120117188
392;998.2142944335938
393;997.7477416992188
394;997.2822265625
395;996.818115234375
396;996.3551635742188
397;995.8935546875
398;995.4337158203125
399;994.9747314453125
400;994.517333984375
401;994.0619506835938
402;993.607421875
403;993.154541015625
404;992.7026977539062
405;992.251953125
406;991.8024291992188
407;991.353515625
408;990.9058227539062
409;990.459228515625
410;990.0140991210938
411;989.570068359375
412;989.1270751953125
413;988.684814453125
414;988.244384765625
415;987.804931640625
416;987.365966796875
417;986.9281616210938
418;986.4918823242188
419;986.056396484375
420;985.6221923828125
421;985.1887817382812
422;984.7565307617188
423;984.325439453125
424;983.8960571289062
425;983.467041015625
426;983.0394897460938
427;982.612548828125
428;982.1864013671875
429;981.7618408203125
430;981.338134765625
431;980.9151611328125
432;980.4931640625
433;980.0719604492188
434;979.651611328125
435;979.231689453125
436;978.8126220703125
437;978.3948364257812
438;977.9774169921875
439;977.5614013671875
440;977.1456298828125
441;976.730712890625
442;976.3170776367188
443;975.9038696289062
444;975.4918823242188
445;975.0805053710938
446;974.6697998046875
447;974.2600708007812
448;973.851318359375
449;973.4432373046875
450;973.0361328125
451;972.629638671875
452;972.2235107421875
453;971.818603515625
454;971.4139404296875
455;971.0100708007812
456;970.607421875
457;970.2049560546875
458;969.8035888671875
459;969.4026489257812
460;969.0029296875
461;968.603759765625
462;968.204833984375
463;967.8065185546875
464;967.409423828125
465;967.012451171875
466;966.6162109375
467;966.220458984375
468;965.825439453125
469;965.4309692382812
470;965.037353515625
471;964.6441040039062
472;964.2515258789062
473;963.859619140625
474;963.4684448242188
475;963.0776977539062
476;962.687744140625
477;962.2982788085938
478;961.9097290039062
479;961.5219116210938
480;961.134765625
481;960.748291015625
482;960.3621826171875
483;959.9764404296875
484;959.591552734375
485;959.2071533203125
486;958.8231201171875
487;958.4395751953125
488;958.056884765625
489;957.6746826171875
490;957.2930908203125
491;956.9115600585938
492;956.5305786132812
493;956.1502685546875
494;955.7703857421875
495;955.3910522460938
496;955.0125732421875
497;954.634521484375
498;954.257080078125
499;953.8804321289062
500;953.504150390625
501;953.1284790039062
502;952.7532348632812
503;952.3783569335938
504;952.00390625
505;951.6300048828125
506;951.2567138671875
507;950.884033203125
508;950.51171875
509;950.1396484375
510;949.7681274414062
511;949.3971557617188
512;949.026611328125
513;948.6569213867188
514;948.287353515625
515;947.9183959960938
516;947.5498046875
517;947.181396484375
518;946.813720703125
519;946.4462890625
520;946.0796508789062
521;945.7130126953125
522;945.346923828125
523;944.981201171875
524;944.6162109375
525;944.2512817382812
526;943.8871459960938
527;943.5231323242188
528;943.1596069335938
529;942.796630859375
530;942.4340209960938
531;942.0717163085938
532;941.7100830078125
533;941.3487548828125
534;940.9879760742188
535;940.6276245117188
536;940.2674560546875
537;939.907958984375
538;939.5485229492188
539;939.189453125
540;938.830810546875
541;938.4725341796875
542;938.1146850585938
543;937.7571411132812
544;937.400146484375
545;937.0436401367188
546;936.6871948242188
547;936.331298828125
548;935.975830078125
549;935.6207885742188
550;935.2661743164062
551;934.9119873046875
552;934.5580444335938
553;934.2046508789062
554;933.8514404296875
555;933.4987182617188
556;933.1461791992188
557;932.7940673828125
558;932.4422607421875
559;932.0908203125
560;931.7396850585938
561;931.388671875
562;931.0379638671875
563;930.6878051757812
564;930.3380126953125
565;929.98828125
566;929.6390991210938
567;929.2901611328125
568;928.9417114257812
569;928.5933227539062
570;928.2452392578125
571;927.8973388671875
572;927.5501098632812
573;927.2030029296875
574;926.8563232421875
575;926.510009765625
576;926.1639404296875
577;925.8180541992188
578;925.47265625
579;925.127685546875
580;924.782958984375
581;924.4384765625
582;924.0940551757812
583;923.75
584;923.406494140625
585;923.0635986328125
586;922.7208251953125
587;922.3782348632812
588;922.0360107421875
589;921.6942138671875
590;921.3528442382812
591;921.01171875
592;920.6707763671875
593;920.3302001953125
594;919.9899291992188
595;919.6498413085938
596;919.3102416992188
597;918.970947265625
598;918.6318359375
599;918.29296875
600;917.9544067382812
601;917.615966796875
602;917.2778930664062
603;916.9401245117188
604;916.6024169921875
605;916.2651977539062
606;915.9281616210938
607;915.5912475585938
608;915.2547607421875
609;914.9183959960938
610;914.5824584960938
611;914.2466430664062
612;913.911376953125
613;913.5762939453125
614;913.241455078125
615;912.9069213867188
616;912.5725708007812
617;912.238525390625
618;911.9046020507812
619;911.571044921875
620;911.2376098632812
621;910.9046020507812
622;910.571533203125
623;910.2389526367188
624;909.906494140625
625;909.57421875
626;909.2420043945312
627;908.9102172851562
628;908.5785522460938
629;908.2471923828125
630;907.9161987304688
631;907.5852661132812
632;907.254638671875
633;906.9241333007812
634;906.5939331054688
635;906.2640991210938
636;905.934326171875
637;905.6049194335938
638;905.275634765625
639;904.9465942382812
640;904.61767578125
641;904.2891845703125
642;903.960693359375
643;903.6327514648438
644;903.3048095703125
645;902.977294921875
646;902.6497192382812
647;902.3226318359375
648;901.99560546875
649;901.6688232421875
650;901.3421020507812
651;901.0157470703125
652;900.689697265625
653;900.3638305664062
654;900.0380249023438
655;899.712646484375
656;899.38720703125
657;899.0621337890625
658;898.7371826171875
659;898.4124145507812
660;898.0880126953125
661;897.7637329101562
662;897.4397583007812
663;897.1160888671875
664;896.79248046875
665;896.468994140625
666;896.1458740234375
667;895.8229370117188
668;895.500244140625
669;895.1776123046875
670;894.8552856445312
671;894.5333251953125
672;894.2113037109375
673;893.889404296875
674;893.5679931640625
675;893.2465209960938
676;892.92529296875
677;892.6043090820312
678;892.2833862304688
679;891.9630737304688
680;891.6425170898438
681;891.322509765625
682;891.0023803710938
683;890.6826782226562
684;890.3632202148438
685;890.0438842773438
686;889.7246704101562
687;889.40576171875
688;889.087158203125
689;888.7686767578125
690;888.4502563476562
691;888.1322021484375
692;887.814208984375
693;887.496337890625
694;887.1787109375
695;886.8612670898438
696;886.544189453125
697;886.227294921875
698;885.910400390625
699;885.5936279296875
700;885.2771606445312
701;884.9607543945312
702;884.6447143554688
703;884.3286743164062
704;884.012939453125
705;883.6973876953125
706;883.382080078125
707;883.0668334960938
708;882.751953125
709;882.4371337890625
710;882.1224365234375
711;881.8079223632812
712;881.4938354492188
713;881.1796264648438
714;880.86572265625
715;880.5520629882812
716;880.238525390625
717;879.9252319335938
718;879.6119384765625
719;879.2991333007812
720;878.986328125
721;878.6736450195312
722;878.3612670898438
723;878.049072265625
724;877.737060546875
725;877.425048828125
726;877.1134643554688
727;876.802001953125
728;876.490478515625
729;876.1792602539062
730;875.8682250976562
731;875.5574340820312
732;875.246826171875
733;874.936279296875
734;874.6259155273438
735;874.315673828125
736;874.005615234375
737;873.6957397460938
738;873.385986328125
739;873.0764770507812
740;872.76708984375
741;872.4578857421875
742;872.14892578125
743;871.8400268554688
744;871.5313720703125
745;871.2227172851562
746;870.9144287109375
747;870.6063232421875
748;870.2982788085938
749;869.990478515625
750;869.6826171875
751;869.3750610351562
752;869.0675659179688
753;868.7604370117188
754;868.453369140625
755;868.1463012695312
756;867.8394775390625
757;867.5328979492188
758;867.226318359375
759;866.9200439453125
760;866.6138916015625
761;866.3079223632812
762;866.002197265625
763;865.6964111328125
764;865.3909301757812
765;865.0855102539062
766;864.7802124023438
767;864.4751586914062
768;864.1702880859375
769;863.865478515625
770;863.5609741210938
771;863.256591796875
772;862.952392578125
773;862.6483154296875
774;862.3444213867188
775;862.0404052734375
776;861.7366943359375
777;861.433349609375
778;861.1298828125
779;860.8264770507812
780;860.5234375
781;860.220458984375
782;859.9176025390625
783;859.614990234375
784;859.3126220703125
785;859.0103759765625
786;858.7083129882812
787;858.4061889648438
788;858.104248046875
789;857.802490234375
790;857.5008544921875
791;857.199462890625
792;856.8980712890625
793;856.5968017578125
794;856.2957153320312
795;855.994873046875
796;855.694091796875
797;855.3935546875
798;855.09326171875
799;854.7928466796875
800;854.4926147460938
801;854.192626953125
802;853.8927001953125
803;853.5929565429688
804;853.2933959960938
805;852.9940185546875
806;852.6946411132812
807;852.3955078125
808;852.096435546875
809;851.7974243164062
810;851.4987182617188
811;851.2000122070312
812;850.9015502929688
813;850.603271484375
814;850.3049926757812
815;850.0069580078125
816;849.7091064453125
817;849.4114379882812
818;849.1138916015625
819;848.8162841796875
820;848.5188598632812
821;848.2216796875
822;847.9246215820312
823;847.6275634765625
824;847.3306884765625
825;847.0339965820312
826;846.7374267578125
827;846.4409790039062
828;846.144775390625
829;845.8485107421875
830;845.552490234375
831;845.2566528320312
832;844.9608764648438
833;844.6652221679688
834;844.369873046875
835;844.074462890625
836;843.7794189453125
837;843.4842529296875
838;843.189208984375
839;842.8944091796875
840;842.5996704101562
841;842.3051147460938
842;842.0106201171875
843;841.7162475585938
844;841.422119140625
845;841.1281127929688
846;840.8341674804688
847;840.5404052734375
848;840.2467651367188
849;839.9532470703125
850;839.6598510742188
851;839.3665161132812
852;839.073486328125
853;838.7803344726562
854;838.4874267578125
855;838.1946411132812
856;837.9020385742188
857;837.6094970703125
858;837.3170776367188
859;837.0248413085938
860;836.7327880859375
861;836.4407348632812
862;836.14892578125
863;835.857177734375
864;835.5657348632812
865;835.274169921875
866;834.98291015625
867;834.691650390625
868;834.400634765625
869;834.1095581054688
870;833.8186645507812
871;833.5278930664062
872;833.2372436523438
873;832.9468383789062
874;832.6564331054688
875;832.3661499023438
876;832.075927734375
877;831.785888671875
878;831.4960327148438
879;831.2062377929688
880;830.9165649414062
881;830.6270751953125
882;830.3377075195312
883;830.048583984375
884;829.7593383789062
885;829.470458984375
886;829.181640625
887;828.892822265625
888;828.6041259765625
889;828.3156127929688
890;828.027099609375
891;827.7388305664062
892;827.4506225585938
893;827.16259765625
894;826.8745727539062
895;826.5867309570312
896;826.299072265625
897;826.0115356445312
898;825.7240600585938
899;825.4368286132812
900;825.1494750976562
901;824.8624877929688
902;824.5755004882812
903;824.2887573242188
904;824.0018310546875
905;823.7152709960938
906;823.4286499023438
907;823.142333984375
908;822.8561401367188
909;822.570068359375
910;822.2839965820312
911;821.9982299804688
912;821.71240234375
913;821.4266357421875
914;821.14111328125
915;820.8555908203125
916;820.5701293945312
917;820.2849731445312
918;819.9998779296875
919;819.71484375
920;819.429931640625
921;819.1451416015625
922;818.8604125976562
923;818.5758666992188
924;818.2913818359375
925;818.0070190429688
926;817.722900390625
927;817.438720703125
928;817.1547241210938
929;816.870849609375
930;816.587158203125
931;816.303466796875
932;816.0198974609375
933;815.7364501953125
934;815.453125
935;815.1700439453125
936;814.886962890625
937;814.6040649414062
938;814.3211669921875
939;814.0383911132812
940;813.7557983398438
941;813.4732666015625
942;813.1908569335938
943;812.9085693359375
944;812.62646484375
945;812.344482421875
946;812.0626220703125
947;811.7807006835938
948;811.4990234375
949;811.217529296875
950;810.9360961914062
951;810.6546020507812
952;810.373291015625
953;810.0921020507812
954;809.8109741210938
955;809.5301513671875
956;809.249267578125
957;808.9685668945312
958;808.6879272460938
959;808.407470703125
960;808.1270141601562
961;807.8466796875
962;807.5663452148438
963;807.286376953125
964;807.00634765625
965;806.7264404296875
966;806.44677734375
967;806.167236328125
968;805.8876953125
969;805.608154296875
970;805.328857421875
971;805.0497436523438
972;804.7706298828125
973;804.49169921875
974;804.212890625
975;803.9342041015625
976;803.655517578125
977;803.376953125
978;803.098388671875
979;802.8201293945312
980;802.5418701171875
981;802.2636108398438
982;801.9856567382812
983;801.7077026367188
984;801.429931640625
985;801.1522216796875
986;800.8745727539062
987;800.596923828125
988;800.3194580078125
989;800.0421752929688
990;799.7649536132812
991;799.4879150390625
992;799.2109375
993;798.9340209960938
994;798.6571655273438
995;798.38037109375
996;798.1038208007812
997;797.8273315429688
998;797.55078125
999;797.2745361328125
1000;796.998291015625
1001;796.7222900390625
1002;796.4462890625
1003;796.1704711914062
1004;795.894775390625
1005;795.6190185546875
1006;795.343505859375
1007;795.0680541992188
1008;794.7925415039062
1009;794.517333984375
1010;794.2421875
1011;793.967041015625
1012;793.6920776367188
1013;793.417236328125
1014;793.1425170898438
1015;792.8677368164062
1016;792.5931396484375
1017;792.3187866210938
1018;792.0443115234375
1019;791.77001953125
1020;791.495849609375
1021;791.2217407226562
1022;790.94775390625
1023;790.6739501953125
1024;790.400146484375
1025;790.1264038085938
1026;789.8528442382812
1027;789.579345703125
1028;789.305908203125
1029;789.03271484375
1030;788.759521484375
1031;788.4864501953125
1032;788.2134399414062
1033;787.9405517578125
1034;787.667724609375
1035;787.39501953125
1036;787.122314453125
1037;786.8499145507812
1038;786.5775756835938
1039;786.3053588867188
1040;786.0331420898438
1041;785.760986328125
1042;785.489013671875
1043;785.2171630859375
1044;784.9453735351562
1045;784.6737060546875
1046;784.402099609375
1047;784.130615234375
1048;783.8590698242188
1049;783.587890625
1050;783.3165893554688
1051;783.0454711914062
1052;782.7744140625
1053;782.5034790039062
1054;782.2326049804688
1055;781.9617919921875
1056;781.6912231445312
1057;781.4207153320312
1058;781.1503295898438
1059;780.8799438476562
1060;780.6097412109375
1061;780.339599609375
1062;780.069580078125
1063;779.799560546875
1064;779.5296630859375
1065;779.2598876953125
1066;778.9901733398438
1067;778.7205810546875
1068;778.4510498046875
1069;778.181640625
1070;777.9122924804688
1071;777.6431884765625
1072;777.3740844726562
1073;777.10498046875
1074;776.836181640625
1075;776.5672607421875
1076;776.298583984375
1077;776.0299072265625
1078;775.7614135742188
1079;775.4928588867188
1080;775.2244873046875
1081;774.9561767578125
1082;774.6880493164062
1083;774.419921875
1084;774.1519775390625
1085;773.8840942382812
1086;773.616455078125
1087;773.3487548828125
1088;773.0810546875
1089;772.8135375976562
1090;772.5460815429688
1091;772.2786865234375
1092;772.011474609375
1093;771.7443237304688
1094;771.477294921875
1095;771.2103881835938
1096;770.9434814453125
1097;770.6767578125
1098;770.4100952148438
1099;770.1434326171875
1100;769.8770141601562
1101;769.6105346679688
1102;769.34423828125
1103;769.0780029296875
1104;768.8119506835938
1105;768.5458984375
1106;768.280029296875
1107;768.0140991210938
1108;767.7484130859375
1109;767.4827270507812
1110;767.2171020507812
1111;766.95166015625
1112;766.686279296875
1113;766.421142578125
1114;766.1558227539062
1115;765.8906860351562
1116;765.625732421875
1117;765.3607788085938
1118;765.095947265625
1119;764.8311767578125
1120;764.5665283203125
1121;764.302001953125
1122;764.0375366210938
1123;763.773193359375
1124;763.5089721679688
1125;763.2447509765625
1126;762.9805908203125
1127;762.7164916992188
1128;762.4525146484375
1129;762.188720703125
1130;761.925048828125
1131;761.6613159179688
1132;761.397705078125
1133;761.1342163085938
1134;760.870849609375
1135;760.6075439453125
1136;760.34423828125
1137;760.0811767578125
1138;759.818115234375
1139;759.5552368164062
1140;759.2922973632812
1141;759.0296020507812
1142;758.7669677734375
1143;758.5042724609375
1144;758.2417602539062
1145;757.9793090820312
1146;757.717041015625
1147;757.4547729492188
1148;757.192626953125
1149;756.9306030273438
1150;756.6685791015625
1151;756.40673828125
1152;756.1448974609375
1153;755.8831787109375
1154;755.6216430664062
1155;755.360107421875
1156;755.0986938476562
1157;754.8372192382812
1158;754.5758666992188
1159;754.314697265625
1160;754.0536499023438
1161;753.7926635742188
1162;753.5316772460938
1163;753.2708129882812
1164;753.0101318359375
1165;752.7493286132812
1166;752.4887084960938
1167;752.2282104492188
1168;751.9677124023438
1169;751.7073364257812
1170;751.4471435546875
1171;751.18701171875
1172;750.927001953125
1173;750.6668701171875
1174;750.406982421875
1175;750.1471557617188
1176;749.8873901367188
1177;749.627685546875
1178;749.3680419921875
1179;749.108642578125
1180;748.8491821289062
1181;748.5899047851562
1182;748.3306274414062
1183;748.071533203125
1184;747.8124389648438
1185;747.553466796875
1186;747.294677734375
1187;747.0358276367188
1188;746.777099609375
1189;746.5184326171875
1190;746.2599487304688
1191;746.0014038085938
1192;745.7429809570312
1193;745.4846801757812
1194;745.2264404296875
1195;744.96826171875
1196;744.7102661132812
1197;744.4522705078125
1198;744.1943969726562
1199;743.9364624023438
1200;743.6788330078125
1201;743.421142578125
1202;743.1636352539062
1203;742.9061279296875
1204;742.6488037109375
1205;742.3914794921875
1206;742.1343383789062
1207;741.8770751953125
1208;741.6199340820312
1209;741.363037109375
1210;741.1061401367188
1211;740.8493041992188
1212;740.5924682617188
1213;740.3358154296875
1214;740.079345703125
1215;739.8228149414062
1216;739.56640625
1217;739.3101806640625
1218;739.0538940429688
1219;738.7976684570312
1220;738.5415649414062
1221;738.2854614257812
1222;738.029541015625
1223;737.773681640625
1224;737.5179443359375
1225;737.2623901367188
1226;737.0067138671875
1227;736.751220703125
1228;736.4956665039062
1229;736.2404174804688
1230;735.985107421875
1231;735.7298583984375
1232;735.474853515625
1233;735.2197265625
1234;734.9647827148438
1235;734.7098388671875
1236;734.4552001953125
1237;734.200439453125
1238;733.9456787109375
1239;733.691162109375
1240;733.436767578125
1241;733.1823120117188
1242;732.9280395507812
1243;732.6738891601562
1244;732.4197387695312
1245;732.1657104492188
1246;731.91162109375
1247;731.65771484375
1248;731.4038696289062
1249;731.1502075195312
1250;730.8965454101562
1251;730.6428833007812
1252;730.389404296875
1253;730.1361694335938
1254;729.8828125
1255;729.6295776367188
1256;729.3764038085938
1257;729.123291015625
1258;728.8701782226562
1259;728.6173095703125
1260;728.364501953125
1261;728.1116333007812
1262;727.85888671875
1263;727.6063232421875
1264;727.3538208007812
1265;727.1013793945312
1266;726.8489990234375
1267;726.5966796875
1268;726.344482421875
1269;726.09228515625
1270;725.8401489257812
1271;725.5881958007812
1272;725.336181640625
1273;725.0844116210938
1274;724.832763671875
1275;724.5810546875
1276;724.329345703125
1277;724.077880859375
1278;723.826416015625
1279;723.5750732421875
1280;723.32373046875
1281;723.072509765625
1282;722.8214111328125
1283;722.5704345703125
1284;722.3193359375
1285;722.0685424804688
1286;721.817626953125
1287;721.56689453125
1288;721.3162231445312
1289;721.065673828125
1290;720.815185546875
1291;720.564697265625
1292;720.3143920898438
1293;720.064208984375
1294;719.8140258789062
1295;719.56396484375
1296;719.31396484375
1297;719.06396484375
1298;718.814208984375
1299;718.5643920898438
1300;718.3146362304688
1301;718.0650024414062
1302;717.8153686523438
1303;717.5660400390625
1304;717.316650390625
1305;717.0673217773438
1306;716.8179931640625
1307;716.5687866210938
1308;716.3197021484375
1309;716.0706787109375
1310;715.8217163085938
1311;715.5728759765625
1312;715.3240356445312
1313;715.0753784179688
1314;714.8267211914062
1315;714.5780639648438
1316;714.32958984375
1317;714.0811157226562
1318;713.832763671875
1319;713.5845947265625
1320;713.3363037109375
1321;713.088134765625
1322;712.840087890625
1323;712.5922241210938
1324;712.3442993164062
1325;712.096435546875
1326;711.8487548828125
1327;711.60107421875
1328;711.353515625
1329;711.1060791015625
1330;710.8585815429688
1331;710.6112060546875
1332;710.364013671875
1333;710.1168823242188
1334;709.86962890625
1335;709.6226196289062
1336;709.3756103515625
1337;709.128662109375
1338;708.8818359375
1339;708.6351318359375
1340;708.388427734375
1341;708.141845703125
1342;707.8953247070312
1343;707.6488037109375
1344;707.4024658203125
1345;707.1561279296875
1346;706.909912109375
1347;706.663818359375
1348;706.417724609375
1349;706.1716918945312
1350;705.9258422851562
1351;705.679931640625
1352;705.4342041015625
1353;705.1884155273438
1354;704.9428100585938
1355;704.697265625
1356;704.4518432617188
1357;704.2063598632812
1358;703.9610595703125
1359;703.7158813476562
1360;703.4705810546875
1361;703.2255859375
1362;702.98046875
1363;702.7355346679688
1364;702.4906005859375
1365;702.245849609375
1366;702.0010375976562
1367;701.7564086914062
1368;701.51171875
1369;701.2672119140625
1370;701.022705078125
1371;700.7783203125
1372;700.5339965820312
1373;700.289794921875
1374;700.045654296875
1375;699.8015747070312
1376;699.5576171875
1377;699.3136596679688
1378;699.0697631835938
1379;698.825927734375
1380;698.582275390625
1381;698.338623046875
1382;698.0950317382812
1383;697.8515625
1384;697.608154296875
1385;697.3648071289062
1386;697.1214599609375
1387;696.8783569335938
1388;696.6351928710938
1389;696.3921508789062
1390;696.149169921875
1391;695.90625
1392;695.6633911132812
1393;695.420654296875
1394;695.177978515625
1395;694.935302734375
1396;694.6928100585938
1397;694.4503784179688
1398;694.2080078125
1399;693.965576171875
1400;693.7234497070312
1401;693.481201171875
1402;693.2391357421875
1403;692.9970703125
1404;692.755126953125
1405;692.5132446289062
1406;692.2713623046875
1407;692.0296630859375
1408;691.7879638671875
1409;691.5464477539062
1410;691.304931640625
1411;691.0634155273438
1412;690.8220825195312
1413;690.580810546875
1414;690.339599609375
1415;690.098388671875
1416;689.8572998046875
1417;689.6162719726562
1418;689.3753051757812
1419;689.1344604492188
1420;688.8936767578125
1421;688.6529541015625
1422;688.4122924804688
1423;688.1716918945312
1424;687.9312133789062
1425;687.6907348632812
1426;687.450439453125
1427;687.2100830078125
1428;686.9699096679688
1429;686.729736328125
1430;686.4895629882812
1431;686.2495727539062
1432;686.0095825195312
1433;685.7697143554688
1434;685.5298461914062
1435;685.2901611328125
1436;685.050537109375
1437;684.8108520507812
1438;684.5713500976562
1439;684.3319091796875
1440;684.092529296875
1441;683.853271484375
1442;683.614013671875
1443;683.3749389648438
1444;683.1358642578125
1445;682.896728515625
1446;682.6578369140625
1447;682.4190063476562
1448;682.18017578125
1449;681.9413452148438
1450;681.7027587890625
1451;681.464111328125
1452;681.2255859375
1453;680.987060546875
1454;680.7487182617188
1455;680.5104370117188
1456;680.272216796875
1457;680.0340576171875
1458;679.7958984375
1459;679.557861328125
1460;679.3199462890625
1461;679.0820922851562
1462;678.84423828125
1463;678.6064453125
1464;678.3688354492188
1465;678.1311645507812
1466;677.8937377929688
1467;677.65625
1468;677.4188232421875
1469;677.1815185546875
1470;676.9442138671875
1471;676.7070922851562
1472;676.4699096679688
1473;676.2328491210938
1474;675.995849609375
1475;675.7589111328125
1476;675.5220947265625
1477;675.2852783203125
1478;675.048583984375
1479;674.8118896484375
1480;674.5753784179688
1481;674.3389282226562
1482;674.1024780273438
1483;673.8661499023438
1484;673.6297607421875
1485;673.3936767578125
1486;673.157470703125
1487;672.9214477539062
1488;672.6853637695312
1489;672.449462890625
1490;672.213623046875
1491;671.977783203125
1492;671.7420043945312
1493;671.5064697265625
1494;671.270751953125
1495;671.0352783203125
1496;670.7998046875
1497;670.564453125
1498;670.3291015625
1499;670.0938110351562
1500;669.858642578125
1501;669.6235961914062
1502;669.388427734375
1503;669.153564453125
1504;668.918701171875
1505;668.6837768554688
1506;668.448974609375
1507;668.2142333984375
1508;667.9796142578125
1509;667.7449951171875
1510;667.510498046875
1511;667.276123046875
1512;667.041748046875
1513;666.807373046875
1514;666.5731201171875
1515;666.3389282226562
1516;666.1047973632812
1517;665.870849609375
1518;665.6369018554688
1519;665.4030151367188
1520;665.169189453125
1521;664.9354248046875
1522;664.7017211914062
1523;664.4680786132812
1524;664.234619140625
1525;664.0010375976562
1526;663.7677612304688
1527;663.5343627929688
1528;663.3010864257812
1529;663.06787109375
1530;662.8347778320312
1531;662.6017456054688
1532;662.3688354492188
1533;662.1358032226562
1534;661.9029541015625
1535;661.670166015625
1536;661.4374389648438
1537;661.204833984375
1538;660.97216796875
1539;660.7396240234375
1540;660.5072021484375
1541;660.2748413085938
1542;660.04248046875
1543;659.8101806640625
1544;659.5779418945312
1545;659.3457641601562
1546;659.11376953125
1547;658.8817138671875
1548;658.6497192382812
1549;658.4178466796875
1550;658.18603515625
1551;657.954345703125
1552;657.7227172851562
1553;657.4910278320312
1554;657.259521484375
1555;657.0280151367188
1556;656.796630859375
1557;656.5653076171875
1558;656.333984375
1559;656.102783203125
1560;655.8717651367188
1561;655.6406860351562
1562;655.40966796875
1563;655.1787109375
1564;654.9478149414062
1565;654.717041015625
1566;654.486328125
1567;654.255615234375
1568;654.0250244140625
1569;653.79443359375
1570;653.5640258789062
1571;653.3336791992188
1572;653.103271484375
1573;652.873046875
1574;652.642822265625
1575;652.4127197265625
1576;652.1826171875
1577;651.9525756835938
1578;651.72265625
1579;651.4927368164062
1580;651.262939453125
1581;651.0331420898438
1582;650.803466796875
1583;650.573974609375
1584;650.3444213867188
1585;650.114990234375
1586;649.8855590820312
1587;649.6561889648438
1588;649.4269409179688
1589;649.1976928710938
1590;648.9685668945312
1591;648.739501953125
1592;648.510498046875
1593;648.281494140625
1594;648.0525512695312
1595;647.82373046875
1596;647.5950317382812
1597;647.3663330078125
1598;647.1376953125
1599;646.9091796875
1600;646.6806640625
1601;646.4522094726562
1602;646.223876953125
1603;645.99560546875
1604;645.767333984375
1605;645.5391845703125
1606;645.31103515625
1607;645.0829467773438
1608;644.85498046875
1609;644.6270751953125
1610;644.399169921875
1611;644.1714477539062
1612;643.9436645507812
1613;643.7160034179688
1614;643.4884643554688
1615;643.2609252929688
1616;643.0333862304688
1617;642.8059692382812
1618;642.57861328125
1619;642.3513793945312
1620;642.1242065429688
1621;641.8970947265625
1622;641.6700439453125
1623;641.443115234375
1624;641.216064453125
1625;640.9891967773438
1626;640.762451171875
1627;640.5357055664062
1628;640.30908203125
1629;640.0824584960938
1630;639.8560180664062
1631;639.6293334960938
1632;639.4029541015625
1633;639.1765747070312
1634;638.9502563476562
1635;638.72412109375
1636;638.497802734375
1637;638.271728515625
1638;638.0457153320312
1639;637.8197631835938
1640;637.5939331054688
1641;637.3679809570312
1642;637.1422119140625
1643;636.9164428710938
1644;636.6907958984375
1645;636.4651489257812
1646;636.2396850585938
1647;636.01416015625
1648;635.788818359375
1649;635.5634765625
1650;635.3383178710938
1651;635.113037109375
1652;634.887939453125
1653;634.662841796875
1654;634.4378051757812
1655;634.212890625
1656;633.9879150390625
1657;633.76318359375
1658;633.538330078125
1659;633.313720703125
1660;633.089111328125
1661;632.864501953125
1662;632.6399536132812
1663;632.41552734375
1664;632.1911010742188
1665;631.9668579101562
1666;631.7425537109375
1667;631.5184326171875
1668;631.2943115234375
1669;631.0703125
1670;630.8463134765625
1671;630.622314453125
1672;630.3984985351562
1673;630.1746826171875
1674;629.950927734375
1675;629.727294921875
1676;629.503662109375
1677;629.2801513671875
1678;629.056640625
1679;628.8331909179688
1680;628.6098022460938
1681;628.386474609375
1682;628.1632690429688
1683;627.9400634765625
1684;627.717041015625
1685;627.493896484375
1686;627.2708740234375
1687;627.048095703125
1688;626.8251953125
1689;626.602294921875
1690;626.379638671875
1691;626.156982421875
1692;625.934326171875
1693;625.7117919921875
1694;625.4892578125
1695;625.266845703125
1696;625.0445556640625
1697;624.822265625
1698;624.6000366210938
1699;624.3779296875
1700;624.15576171875
1701;623.9337158203125
1702;623.7117919921875
1703;623.4898681640625
1704;623.2679443359375
1705;623.046142578125
1706;622.824462890625
1707;622.602783203125
1708;622.381103515625
1709;622.1594848632812
1710;621.9381103515625
1711;621.7166137695312
1712;621.495361328125
1713;621.2740478515625
1714;621.0526733398438
1715;620.8316040039062
1716;620.6104125976562
1717;620.389404296875
1718;620.16845703125
1719;619.947509765625
1720;619.7266845703125
1721;619.505859375
1722;619.28515625
1723;619.0643920898438
1724;618.8438110351562
1725;618.623291015625
1726;618.4027709960938
1727;618.182373046875
1728;617.9619750976562
1729;617.74169921875
1730;617.521484375
1731;617.3012084960938
1732;617.0811157226562
1733;616.861083984375
1734;616.6409912109375
1735;616.421142578125
1736;616.2012939453125
1737;615.9814453125
1738;615.7617797851562
1739;615.5420532226562
1740;615.3224487304688
1741;615.1029663085938
1742;614.8834838867188
1743;614.6640014648438
1744;614.444580078125
1745;614.225341796875
1746;614.006103515625
1747;613.786865234375
1748;613.5678100585938
1749;613.3486938476562
1750;613.1297607421875
1751;612.9108276367188
1752;612.69189453125
1753;612.4730224609375
1754;612.2543334960938
1755;612.0355834960938
1756;611.8169555664062
1757;611.598388671875
1758;611.3798828125
1759;611.1614379882812
1760;610.9430541992188
1761;610.7247314453125
1762;610.5064697265625
1763;610.288330078125
1764;610.070068359375
1765;609.85205078125
1766;609.634033203125
1767;609.4160766601562
1768;609.1981201171875
1769;608.9802856445312
1770;608.762451171875
1771;608.5447998046875
1772;608.3270263671875
1773;608.1094360351562
1774;607.8919067382812
1775;607.6744384765625
1776;607.4569702148438
1777;607.2396240234375
1778;607.0222778320312
1779;606.8050537109375
1780;606.5879516601562
1781;606.3707885742188
1782;606.1536865234375
1783;605.936767578125
1784;605.7197265625
1785;605.5028686523438
1786;605.2860107421875
1787;605.0692138671875
1788;604.8526000976562
1789;604.6359252929688
1790;604.4193115234375
1791;604.202880859375
1792;603.986328125
1793;603.7699584960938
1794;603.5536499023438
1795;603.33740234375
1796;603.1212158203125
1797;602.905029296875
1798;602.68896484375
1799;602.4729614257812
1800;602.2570190429688
1801;602.0410766601562
1802;601.8251953125
1803;601.609375
1804;601.3936767578125
1805;601.177978515625
1806;600.96240234375
1807;600.746826171875
1808;600.5313720703125
1809;600.31591796875
1810;600.1005249023438
1811;599.8851928710938
1812;599.6699829101562
1813;599.4547729492188
1814;599.2396850585938
1815;599.0245971679688
1816;598.8096313476562
1817;598.5945434570312
1818;598.3796997070312
1819;598.1649169921875
1820;597.9501342773438
1821;597.7354125976562
1822;597.5208129882812
1823;597.3062133789062
1824;597.0916748046875
1825;596.877197265625
1826;596.662841796875
1827;596.448486328125
1828;596.2341918945312
1829;596.0198974609375
1830;595.8057861328125
1831;595.591552734375
1832;595.3776245117188
1833;595.16357421875
1834;594.9496459960938
1835;594.7357177734375
1836;594.5219116210938
1837;594.30810546875
1838;594.094482421875
1839;593.8807983398438
1840;593.667236328125
1841;593.4537353515625
1842;593.2402954101562
1843;593.0267944335938
1844;592.8134765625
1845;592.6001586914062
1846;592.3870239257812
1847;592.173828125
1848;591.960693359375
1849;591.7476806640625
1850;591.53466796875
1851;591.3217163085938
1852;591.1088256835938
1853;590.8960571289062
1854;590.6832275390625
1855;590.4705810546875
1856;590.2579956054688
1857;590.0453491210938
1858;589.832763671875
1859;589.620361328125
1860;589.4078979492188
1861;589.1956176757812
1862;588.9833374023438
1863;588.7711791992188
1864;588.5590209960938
1865;588.346923828125
1866;588.1348266601562
1867;587.9227905273438
1868;587.7108764648438
1869;587.4990234375
1870;587.2872314453125
1871;587.075439453125
1872;586.8638305664062
1873;586.6521606445312
1874;586.440673828125
1875;586.2290649414062
1876;586.0176391601562
1877;585.8062133789062
1878;585.594970703125
1879;585.3836059570312
1880;585.17236328125
1881;584.9612426757812
1882;584.7501831054688
1883;584.5391235351562
1884;584.328125
1885;584.1171875
1886;583.90625
1887;583.6954956054688
1888;583.4847412109375
1889;583.2741088867188
1890;583.0633544921875
1891;582.852783203125
1892;582.6422729492188
1893;582.4318237304688
1894;582.2213745117188
1895;582.010986328125
1896;581.8007202148438
1897;581.590576171875
1898;581.38037109375
1899;581.170166015625
1900;580.960205078125
1901;580.750244140625
1902;580.540283203125
1903;580.3303833007812
1904;580.1205444335938
1905;579.9107055664062
1906;579.7009887695312
1907;579.4913940429688
1908;579.2817993164062
1909;579.0722045898438
1910;578.8627319335938
1911;578.6533203125
1912;578.4440307617188
1913;578.234619140625
1914;578.0254516601562
1915;577.816162109375
1916;577.6071166992188
1917;577.3980102539062
1918;577.18896484375
1919;576.9800415039062
1920;576.7710571289062
1921;576.5623168945312
1922;576.3534545898438
1923;576.144775390625
1924;575.93603515625
1925;575.7274169921875
1926;575.5189208984375
1927;575.3103637695312
1928;575.1019287109375
1929;574.8934936523438
1930;574.6851806640625
1931;574.4769287109375
1932;574.268798828125
1933;574.0606079101562
1934;573.8524780273438
1935;573.6444702148438
1936;573.4365234375
1937;573.2285766601562
1938;573.0206909179688
1939;572.8128662109375
1940;572.6051025390625
1941;572.3973388671875
1942;572.189697265625
1943;571.982177734375
1944;571.774658203125
1945;571.567138671875
1946;571.3596801757812
1947;571.1524658203125
1948;570.945068359375
1949;570.7378540039062
1950;570.5307006835938
1951;570.3235473632812
1952;570.116455078125
1953;569.909423828125
1954;569.7024536132812
1955;569.49560546875
1956;569.288818359375
1957;569.08203125
1958;568.8753051757812
1959;568.6686401367188
1960;568.4619750976562
1961;568.2554321289062
1962;568.048828125
1963;567.8424682617188
1964;567.6360473632812
1965;567.4298095703125
1966;567.2235107421875
1967;567.0172729492188
1968;566.8110961914062
1969;566.60498046875
1970;566.3989868164062
1971;566.1930541992188
1972;565.987060546875
1973;565.78125
1974;565.575439453125
1975;565.36962890625
1976;565.1638793945312
1977;564.958251953125
1978;564.752685546875
1979;564.547119140625
1980;564.3416748046875
1981;564.13623046875
1982;563.9308471679688
1983;563.7255859375
1984;563.5203247070312
1985;563.315185546875
1986;563.1100463867188
1987;562.9049682617188
1988;562.699951171875
1989;562.4949340820312
1990;562.2900390625
1991;562.085205078125
1992;561.88037109375
1993;561.6755981445312
1994;561.470947265625
1995;561.266357421875
1996;561.061767578125
1997;560.857177734375
1998;560.6527709960938
1999;560.4483032226562
