;loss
0;1326.842041015625
1;1326.51953125
2;1326.0870361328125
3;1325.6556396484375
4;1325.2513427734375
5;1324.8399658203125
6;1324.4112548828125
7;1323.9835205078125
8;1323.5626220703125
9;1323.13671875
10;1322.7120361328125
11;1322.2882080078125
12;1321.864990234375
13;1321.4505615234375
14;1321.0419921875
15;1320.6368408203125
16;1320.2332763671875
17;1319.827880859375
18;1319.4271240234375
19;1319.0238037109375
20;1318.6217041015625
21;1318.224853515625
22;1317.8292236328125
23;1317.434814453125
24;1317.037109375
25;1316.640380859375
26;1316.244873046875
27;1315.8502197265625
28;1315.4564208984375
29;1315.0638427734375
30;1314.672119140625
31;1314.28125
32;1313.8916015625
33;1313.5030517578125
34;1313.115478515625
35;1312.73046875
36;1312.3505859375
37;1311.9715576171875
38;1311.5889892578125
39;1311.20703125
40;1310.829833984375
41;1310.453125
42;1310.0767822265625
43;1309.697021484375
44;1309.3214111328125
45;1308.9423828125
46;1308.5635986328125
47;1308.1851806640625
48;1307.810302734375
49;1307.435302734375
50;1307.0604248046875
51;1306.681884765625
52;1306.3033447265625
53;1305.927734375
54;1305.5517578125
55;1305.172119140625
56;1304.795166015625
57;1304.417724609375
58;1304.036376953125
59;1303.6573486328125
60;1303.2745361328125
61;1302.8936767578125
62;1302.51171875
63;1302.128662109375
64;1301.7442626953125
65;1301.3585205078125
66;1300.9715576171875
67;1300.582763671875
68;1300.189453125
69;1299.794677734375
70;1299.3978271484375
71;1299.0008544921875
72;1298.6124267578125
73;1298.219970703125
74;1297.826416015625
75;1297.430908203125
76;1297.0362548828125
77;1296.6392822265625
78;1296.239990234375
79;1295.838134765625
80;1295.4315185546875
81;1295.0245361328125
82;1294.6121826171875
83;1294.198974609375
84;1293.7825927734375
85;1293.3629150390625
86;1292.9371337890625
87;1292.5098876953125
88;1292.076416015625
89;1291.6387939453125
90;1291.1966552734375
91;1290.752685546875
92;1290.3016357421875
93;1289.8477783203125
94;1289.3865966796875
95;1288.9222412109375
96;1288.452392578125
97;1287.974609375
98;1287.4927978515625
99;1287.0047607421875
100;1286.5103759765625
101;1286.0087890625
102;1285.498046875
103;1284.9822998046875
104;1284.458740234375
105;1283.9248046875
106;1283.3828125
107;1282.840576171875
108;1282.2880859375
109;1281.7298583984375
110;1281.1629638671875
111;1280.5870361328125
112;1279.9990234375
113;1279.4031982421875
114;1278.7945556640625
115;1278.1773681640625
116;1277.5489501953125
117;1276.906005859375
118;1276.2510986328125
119;1275.5836181640625
120;1274.9029541015625
121;1274.2113037109375
122;1273.5062255859375
123;1272.787353515625
124;1272.0533447265625
125;1271.303955078125
126;1270.538818359375
127;1269.755615234375
128;1268.962646484375
129;1268.1595458984375
130;1267.3397216796875
131;1266.4998779296875
132;1265.642578125
133;1264.76953125
134;1263.8756103515625
135;1262.966796875
136;1262.0419921875
137;1261.098876953125
138;1260.1473388671875
139;1259.176513671875
140;1258.201904296875
141;1257.2117919921875
142;1256.1998291015625
143;1255.168212890625
144;1254.123779296875
145;1253.0631103515625
146;1251.9837646484375
147;1250.8800048828125
148;1249.7584228515625
149;1248.615478515625
150;1247.4505615234375
151;1246.2635498046875
152;1245.0540771484375
153;1243.822021484375
154;1242.5633544921875
155;1241.283935546875
156;1239.9854736328125
157;1238.661376953125
158;1237.3333740234375
159;1235.980224609375
160;1234.6087646484375
161;1233.2186279296875
162;1231.80859375
163;1230.382080078125
164;1228.931640625
165;1227.4635009765625
166;1225.980224609375
167;1224.4776611328125
168;1222.956298828125
169;1221.4168701171875
170;1219.860107421875
171;1218.2938232421875
172;1216.7122802734375
173;1215.1158447265625
174;1213.509765625
175;1211.8995361328125
176;1210.2811279296875
177;1208.685302734375
178;1207.0810546875
179;1205.46875
180;1203.849365234375
181;1202.2281494140625
182;1200.6011962890625
183;1198.96875
184;1197.3314208984375
185;1195.6900634765625
186;1194.0477294921875
187;1192.4217529296875
188;1190.7996826171875
189;1189.1766357421875
190;1187.5587158203125
191;1185.949462890625
192;1184.3448486328125
193;1182.7410888671875
194;1181.146728515625
195;1179.564208984375
196;1177.986572265625
197;1176.4189453125
198;1174.8682861328125
199;1173.3411865234375
200;1171.8446044921875
201;1170.3634033203125
202;1168.893798828125
203;1167.4443359375
204;1166.016357421875
205;1164.6033935546875
206;1163.2066650390625
207;1161.8212890625
208;1160.4483642578125
209;1159.09130859375
210;1157.7479248046875
211;1156.4197998046875
212;1155.1124267578125
213;1153.819091796875
214;1152.5416259765625
215;1151.278564453125
216;1150.02783203125
217;1148.7889404296875
218;1147.5662841796875
219;1146.359130859375
220;1145.1644287109375
221;1143.987548828125
222;1142.832275390625
223;1141.6904296875
224;1140.562744140625
225;1139.4483642578125
226;1138.345703125
227;1137.25439453125
228;1136.175537109375
229;1135.1085205078125
230;1134.053955078125
231;1133.009521484375
232;1131.975341796875
233;1130.952392578125
234;1129.9434814453125
235;1128.943603515625
236;1127.955322265625
237;1126.9744873046875
238;1126.003173828125
239;1125.0433349609375
240;1124.0921630859375
241;1123.1512451171875
242;1122.2174072265625
243;1121.295654296875
244;1120.3819580078125
245;1119.475830078125
246;1118.5753173828125
247;1117.6832275390625
248;1116.79638671875
249;1115.9193115234375
250;1115.0517578125
251;1114.189697265625
252;1113.334228515625
253;1112.486572265625
254;1111.647705078125
255;1110.820556640625
256;1110.0079345703125
257;1109.204833984375
258;1108.4088134765625
259;1107.617919921875
260;1106.8331298828125
261;1106.0555419921875
262;1105.2823486328125
263;1104.515869140625
264;1103.7537841796875
265;1102.9981689453125
266;1102.2515869140625
267;1101.5115966796875
268;1100.7767333984375
269;1100.045654296875
270;1099.320556640625
271;1098.5999755859375
272;1097.8843994140625
273;1097.173828125
274;1096.4677734375
275;1095.7659912109375
276;1095.0682373046875
277;1094.3743896484375
278;1093.6854248046875
279;1093.0010986328125
280;1092.326416015625
281;1091.656982421875
282;1090.990234375
283;1090.3294677734375
284;1089.6717529296875
285;1089.0191650390625
286;1088.3701171875
287;1087.724609375
288;1087.0826416015625
289;1086.4459228515625
290;1085.8131103515625
291;1085.183837890625
292;1084.558349609375
293;1083.9359130859375
294;1083.317138671875
295;1082.701904296875
296;1082.0924072265625
297;1081.4864501953125
298;1080.8829345703125
299;1080.2833251953125
300;1079.685546875
301;1079.0908203125
302;1078.4993896484375
303;1077.909912109375
304;1077.324462890625
305;1076.744384765625
306;1076.1669921875
307;1075.592529296875
308;1075.022216796875
309;1074.4560546875
310;1073.8963623046875
311;1073.3392333984375
312;1072.783935546875
313;1072.2310791015625
314;1071.681396484375
315;1071.134033203125
316;1070.5882568359375
317;1070.044921875
318;1069.5042724609375
319;1068.9658203125
320;1068.4288330078125
321;1067.8944091796875
322;1067.3619384765625
323;1066.831298828125
324;1066.3018798828125
325;1065.7747802734375
326;1065.24951171875
327;1064.7254638671875
328;1064.2034912109375
329;1063.6826171875
330;1063.163330078125
331;1062.64599609375
332;1062.13134765625
333;1061.62060546875
334;1061.1126708984375
335;1060.6058349609375
336;1060.1014404296875
337;1059.5986328125
338;1059.0975341796875
339;1058.597412109375
340;1058.098876953125
341;1057.6019287109375
342;1057.1064453125
343;1056.6131591796875
344;1056.120361328125
345;1055.6297607421875
346;1055.1397705078125
347;1054.6517333984375
348;1054.1650390625
349;1053.6796875
350;1053.195068359375
351;1052.711669921875
352;1052.22998046875
353;1051.7490234375
354;1051.2696533203125
355;1050.7916259765625
356;1050.314208984375
357;1049.8377685546875
358;1049.3629150390625
359;1048.8896484375
360;1048.4173583984375
361;1047.9466552734375
362;1047.477294921875
363;1047.009033203125
364;1046.5423583984375
365;1046.0777587890625
366;1045.6141357421875
367;1045.1527099609375
368;1044.692138671875
369;1044.2332763671875
370;1043.775146484375
371;1043.3179931640625
372;1042.8624267578125
373;1042.407470703125
374;1041.9539794921875
375;1041.5010986328125
376;1041.049072265625
377;1040.5985107421875
378;1040.1485595703125
379;1039.699951171875
380;1039.251708984375
381;1038.8060302734375
382;1038.3612060546875
383;1037.917724609375
384;1037.474853515625
385;1037.0333251953125
386;1036.5926513671875
387;1036.1524658203125
388;1035.7147216796875
389;1035.278564453125
390;1034.8447265625
391;1034.411376953125
392;1033.9791259765625
393;1033.548095703125
394;1033.1175537109375
395;1032.6884765625
396;1032.2611083984375
397;1031.8350830078125
398;1031.4100341796875
399;1030.9862060546875
400;1030.56298828125
401;1030.1409912109375
402;1029.7193603515625
403;1029.2989501953125
404;1028.879150390625
405;1028.4599609375
406;1028.041748046875
407;1027.6241455078125
408;1027.208251953125
409;1026.7930908203125
410;1026.378173828125
411;1025.9644775390625
412;1025.552001953125
413;1025.1400146484375
414;1024.7288818359375
415;1024.3184814453125
416;1023.9087524414062
417;1023.4996948242188
418;1023.0908813476562
419;1022.6830444335938
420;1022.2755126953125
421;1021.8690185546875
422;1021.4632568359375
423;1021.05810546875
424;1020.6534423828125
425;1020.2491455078125
426;1019.8453369140625
427;1019.4429321289062
428;1019.0408935546875
429;1018.6392211914062
430;1018.2384033203125
431;1017.8378295898438
432;1017.4381713867188
433;1017.0390625
434;1016.64013671875
435;1016.2415771484375
436;1015.8440551757812
437;1015.4471435546875
438;1015.05078125
439;1014.65478515625
440;1014.2596435546875
441;1013.8646850585938
442;1013.4702758789062
443;1013.0767211914062
444;1012.6840209960938
445;1012.2922973632812
446;1011.9010620117188
447;1011.5101928710938
448;1011.1199951171875
449;1010.72998046875
450;1010.3403930664062
451;1009.9513549804688
452;1009.5631713867188
453;1009.1754760742188
454;1008.7879638671875
455;1008.4007568359375
456;1008.01416015625
457;1007.6286010742188
458;1007.2435913085938
459;1006.8587036132812
460;1006.4744262695312
461;1006.0907592773438
462;1005.7074584960938
463;1005.32421875
464;1004.9414672851562
465;1004.5591430664062
466;1004.1776733398438
467;1003.7964477539062
468;1003.4154663085938
469;1003.0352783203125
470;1002.6552734375
471;1002.2755126953125
472;1001.8963623046875
473;1001.5177612304688
474;1001.1395874023438
475;1000.7614135742188
476;1000.3842163085938
477;1000.0069580078125
478;999.6304321289062
479;999.2545776367188
480;998.87890625
481;998.5035400390625
482;998.1285400390625
483;997.7542114257812
484;997.3801879882812
485;997.0065307617188
486;996.6333618164062
487;996.26025390625
488;995.8875122070312
489;995.5150756835938
490;995.1430053710938
491;994.7715454101562
492;994.4005737304688
493;994.0298461914062
494;993.6592407226562
495;993.2890014648438
496;992.9193725585938
497;992.5499267578125
498;992.1807861328125
499;991.8121948242188
500;991.4436645507812
501;991.0760498046875
502;990.708984375
503;990.3421020507812
504;989.9757690429688
505;989.6094970703125
506;989.2438354492188
507;988.8787231445312
508;988.5135498046875
509;988.1489868164062
510;987.78466796875
511;987.4204711914062
512;987.0569458007812
513;986.6937255859375
514;986.3307495117188
515;985.9678955078125
516;985.6055908203125
517;985.2437133789062
518;984.8818359375
519;984.5204467773438
520;984.1593017578125
521;983.7987670898438
522;983.4383544921875
523;983.0782470703125
524;982.71826171875
525;982.3587646484375
526;981.9995727539062
527;981.6405029296875
528;981.2816772460938
529;980.9234008789062
530;980.5652465820312
531;980.20751953125
532;979.8499145507812
533;979.4927978515625
534;979.1360473632812
535;978.7796020507812
536;978.4231567382812
537;978.0668334960938
538;977.7113037109375
539;977.3555908203125
540;977.0005493164062
541;976.6458129882812
542;976.2909545898438
543;975.9364624023438
544;975.5824584960938
545;975.2288208007812
546;974.8754272460938
547;974.5221557617188
548;974.1692504882812
549;973.81640625
550;973.4640502929688
551;973.1118774414062
552;972.7598266601562
553;972.4083251953125
554;972.0568237304688
555;971.7056274414062
556;971.3548583984375
557;971.0042724609375
558;970.6539916992188
559;970.3038330078125
560;969.9537963867188
561;969.6040649414062
562;969.2548217773438
563;968.9058227539062
564;968.5567626953125
565;968.2081298828125
566;967.8596801757812
567;967.5115966796875
568;967.1639404296875
569;966.8162231445312
570;966.46875
571;966.1214599609375
572;965.7747802734375
573;965.4283447265625
574;965.0818481445312
575;964.7359008789062
576;964.3899536132812
577;964.0441284179688
578;963.6986083984375
579;963.3533935546875
580;963.0083618164062
581;962.6635131835938
582;962.3190307617188
583;961.9750366210938
584;961.630859375
585;961.2872314453125
586;960.9437255859375
587;960.6005249023438
588;960.2573852539062
589;959.9147338867188
590;959.572265625
591;959.2299194335938
592;958.8876953125
593;958.5458984375
594;958.2042236328125
595;957.8628540039062
596;957.5216064453125
597;957.1806640625
598;956.84033203125
599;956.5001220703125
600;956.1603393554688
601;955.8206176757812
602;955.4812622070312
603;955.14208984375
604;954.8030395507812
605;954.46435546875
606;954.1259155273438
607;953.78759765625
608;953.4495239257812
609;953.1114501953125
610;952.7737426757812
611;952.4360961914062
612;952.0986328125
613;951.7615966796875
614;951.4246215820312
615;951.087890625
616;950.7515258789062
617;950.4154052734375
618;950.0794067382812
619;949.7437133789062
620;949.408203125
621;949.0730590820312
622;948.7381591796875
623;948.4033203125
624;948.06884765625
625;947.7346801757812
626;947.4005126953125
627;947.06689453125
628;946.7334594726562
629;946.4000244140625
630;946.0670776367188
631;945.7342529296875
632;945.4015502929688
633;945.0690307617188
634;944.7368774414062
635;944.4048461914062
636;944.0728759765625
637;943.7411499023438
638;943.4096069335938
639;943.0782470703125
640;942.7470703125
641;942.4163208007812
642;942.08544921875
643;941.7550048828125
644;941.4248046875
645;941.0948486328125
646;940.7648315429688
647;940.4349975585938
648;940.10546875
649;939.7762451171875
650;939.4470825195312
651;939.1181030273438
652;938.7894897460938
653;938.4608764648438
654;938.1324462890625
655;937.8042602539062
656;937.4765625
657;937.1486206054688
658;936.8211669921875
659;936.4935913085938
660;936.1665649414062
661;935.83935546875
662;935.5126342773438
663;935.1858520507812
664;934.8594360351562
665;934.5330200195312
666;934.2067260742188
667;933.8807373046875
668;933.5548095703125
669;933.2293701171875
670;932.90380859375
671;932.5786743164062
672;932.2536010742188
673;931.9288330078125
674;931.6040649414062
675;931.2796630859375
676;930.9552001953125
677;930.6311645507812
678;930.3070678710938
679;929.9832153320312
680;929.6593627929688
681;929.3359375
682;929.0125122070312
683;928.6893310546875
684;928.3662109375
685;928.0435180664062
686;927.7208862304688
687;927.3986206054688
688;927.0764770507812
689;926.7544555664062
690;926.4326171875
691;926.1107788085938
692;925.7892456054688
693;925.4677734375
694;925.1466674804688
695;924.8256225585938
696;924.5047607421875
697;924.1840209960938
698;923.8634033203125
699;923.5431518554688
700;923.2227783203125
701;922.9027709960938
702;922.5827026367188
703;922.2630615234375
704;921.943359375
705;921.6240234375
706;921.3048095703125
707;920.9857788085938
708;920.6668090820312
709;920.3478393554688
710;920.0291748046875
711;919.7108154296875
712;919.3925170898438
713;919.0745239257812
714;918.7564086914062
715;918.4384765625
716;918.1206665039062
717;917.8032836914062
718;917.4859008789062
719;917.1686401367188
720;916.8516845703125
721;916.5348510742188
722;916.2181396484375
723;915.9016723632812
724;915.5853271484375
725;915.2689819335938
726;914.953125
727;914.6373901367188
728;914.3218383789062
729;914.0061645507812
730;913.6908569335938
731;913.3755493164062
732;913.0606079101562
733;912.7457885742188
734;912.4310302734375
735;912.1165161132812
736;911.8018798828125
737;911.4877319335938
738;911.1736450195312
739;910.8596801757812
740;910.5457763671875
741;910.2320556640625
742;909.9183959960938
743;909.6049194335938
744;909.2916259765625
745;908.9785766601562
746;908.6655883789062
747;908.3528442382812
748;908.0402221679688
749;907.7278442382812
750;907.4154663085938
751;907.1030883789062
752;906.791015625
753;906.4790649414062
754;906.1673583984375
755;905.8558959960938
756;905.5443725585938
757;905.2330932617188
758;904.9219360351562
759;904.6110229492188
760;904.3002319335938
761;903.9894409179688
762;903.6788330078125
763;903.3684692382812
764;903.0582275390625
765;902.7481079101562
766;902.4380493164062
767;902.1283569335938
768;901.8185424804688
769;901.5089111328125
770;901.1995239257812
771;900.8901977539062
772;900.5809326171875
773;900.2718505859375
774;899.9630126953125
775;899.6544189453125
776;899.3460083007812
777;899.0376586914062
778;898.7293701171875
779;898.4212646484375
780;898.11328125
781;897.8056030273438
782;897.4977416992188
783;897.1903686523438
784;896.8828735351562
785;896.5757446289062
786;896.2684936523438
787;895.9614868164062
788;895.6546630859375
789;895.3477783203125
790;895.0410766601562
791;894.7346801757812
792;894.4283447265625
793;894.1220703125
794;893.8160400390625
795;893.5101928710938
796;893.2044677734375
797;892.8988037109375
798;892.5933837890625
799;892.2880859375
800;891.9828491210938
801;891.677734375
802;891.3727416992188
803;891.06787109375
804;890.7630615234375
805;890.4584350585938
806;890.1539306640625
807;889.849609375
808;889.54541015625
809;889.2413330078125
810;888.9375610351562
811;888.6337890625
812;888.3301391601562
813;888.0267333984375
814;887.7232055664062
815;887.4200439453125
816;887.1168212890625
817;886.8139038085938
818;886.5110473632812
819;886.2081909179688
820;885.9055786132812
821;885.6030883789062
822;885.30078125
823;884.9984741210938
824;884.6963500976562
825;884.3943481445312
826;884.0923461914062
827;883.7905883789062
828;883.4889526367188
829;883.1874389648438
830;882.8859252929688
831;882.5848388671875
832;882.2837524414062
833;881.9827270507812
834;881.6819458007812
835;881.3811645507812
836;881.0806274414062
837;880.7799072265625
838;880.4794921875
839;880.1792602539062
840;879.8792114257812
841;879.5791015625
842;879.2792358398438
843;878.9793701171875
844;878.6795654296875
845;878.3800048828125
846;878.0806884765625
847;877.7813720703125
848;877.4822998046875
849;877.1831665039062
850;876.8842163085938
851;876.5853271484375
852;876.2866821289062
853;875.9882202148438
854;875.6898193359375
855;875.3915405273438
856;875.0933227539062
857;874.7952270507812
858;874.4971923828125
859;874.1992797851562
860;873.9016723632812
861;873.6040649414062
862;873.3065185546875
863;873.0091552734375
864;872.7118530273438
865;872.4146118164062
866;872.1176147460938
867;871.8207397460938
868;871.5241088867188
869;871.2274780273438
870;870.9309692382812
871;870.6346435546875
872;870.3383178710938
873;870.0421752929688
874;869.7460327148438
875;869.4501953125
876;869.1543579101562
877;868.8588256835938
878;868.5631713867188
879;868.2678833007812
880;867.9725341796875
881;867.67724609375
882;867.3821411132812
883;867.0870971679688
884;866.7921752929688
885;866.4972534179688
886;866.2026977539062
887;865.9083251953125
888;865.6138916015625
889;865.3194580078125
890;865.025390625
891;864.7313842773438
892;864.4375
893;864.1436157226562
894;863.8499145507812
895;863.55615234375
896;863.2627563476562
897;862.9692993164062
898;862.6759033203125
899;862.3828125
900;862.0897827148438
901;861.7969360351562
902;861.5040283203125
903;861.2113647460938
904;860.9188842773438
905;860.6263427734375
906;860.3338623046875
907;860.04150390625
908;859.7493286132812
909;859.4571533203125
910;859.1651611328125
911;858.8733520507812
912;858.58154296875
913;858.2900390625
914;857.9984741210938
915;857.7069091796875
916;857.4157104492188
917;857.1244506835938
918;856.8333740234375
919;856.5424194335938
920;856.2515258789062
921;855.9608154296875
922;855.6700439453125
923;855.37939453125
924;855.0890502929688
925;854.7987670898438
926;854.5084838867188
927;854.2183837890625
928;853.9283447265625
929;853.6383666992188
930;853.3486328125
931;853.0588989257812
932;852.7694091796875
933;852.4798583984375
934;852.1905517578125
935;851.9013061523438
936;851.6119995117188
937;851.3231201171875
938;851.0341796875
939;850.7454223632812
940;850.4566650390625
941;850.1680908203125
942;849.8794555664062
943;849.5911254882812
944;849.302734375
945;849.0144653320312
946;848.7264404296875
947;848.4383544921875
948;848.1504516601562
949;847.8626708984375
950;847.5748901367188
951;847.2872314453125
952;846.9998779296875
953;846.71240234375
954;846.4251098632812
955;846.1378173828125
956;845.8509521484375
957;845.5639038085938
958;845.2769775390625
959;844.9901733398438
960;844.7036743164062
961;844.4169921875
962;844.1304931640625
963;843.8441772460938
964;843.5580444335938
965;843.2718505859375
966;842.9857788085938
967;842.6998291015625
968;842.4139404296875
969;842.1282348632812
970;841.8427124023438
971;841.5571899414062
972;841.2718505859375
973;840.9864501953125
974;840.7012329101562
975;840.4161376953125
976;840.1310424804688
977;839.8461303710938
978;839.5614013671875
979;839.2766723632812
980;838.9918823242188
981;838.70751953125
982;838.4229736328125
983;838.1387329101562
984;837.8546142578125
985;837.5704345703125
986;837.2864379882812
987;837.0025024414062
988;836.7188110351562
989;836.4351196289062
990;836.1513671875
991;835.8680419921875
992;835.5846557617188
993;835.3013305664062
994;835.0182495117188
995;834.7350463867188
996;834.4520263671875
997;834.1692504882812
998;833.8862915039062
999;833.6036376953125
