;loss
0;1316.3114013671875
1;1315.86962890625
2;1315.3604736328125
3;1314.7677001953125
4;1314.175537109375
5;1313.5838623046875
6;1313.0106201171875
7;1312.4200439453125
8;1311.830078125
9;1311.240478515625
10;1310.654052734375
11;1310.0655517578125
12;1309.4771728515625
13;1308.887451171875
14;1308.296875
15;1307.70556640625
16;1307.11376953125
17;1306.521484375
18;1305.9342041015625
19;1305.3465576171875
20;1304.7586669921875
21;1304.1640625
22;1303.5753173828125
23;1302.97900390625
24;1302.3887939453125
25;1301.79052734375
26;1301.1983642578125
27;1300.605224609375
28;1300.00390625
29;1299.408447265625
30;1298.8046875
31;1298.20654296875
32;1297.607177734375
33;1297.00634765625
34;1296.3970947265625
35;1295.7864990234375
36;1295.18115234375
37;1294.573974609375
38;1293.9652099609375
39;1293.3548583984375
40;1292.74267578125
41;1292.1219482421875
42;1291.5062255859375
43;1290.8883056640625
44;1290.2685546875
45;1289.646728515625
46;1289.0228271484375
47;1288.39697265625
48;1287.768798828125
49;1287.138427734375
50;1286.4998779296875
51;1285.864990234375
52;1285.227783203125
53;1284.58251953125
54;1283.9400634765625
55;1283.29541015625
56;1282.6480712890625
57;1281.9927978515625
58;1281.34033203125
59;1280.679931640625
60;1280.0167236328125
61;1279.3526611328125
62;1278.6922607421875
63;1278.029052734375
64;1277.36328125
65;1276.6953125
66;1276.0250244140625
67;1275.3519287109375
68;1274.67578125
69;1273.99658203125
70;1273.31689453125
71;1272.634765625
72;1271.9498291015625
73;1271.2572021484375
74;1270.5614013671875
75;1269.867919921875
76;1269.169677734375
77;1268.4683837890625
78;1267.763916015625
79;1267.05615234375
80;1266.3448486328125
81;1265.630126953125
82;1264.9117431640625
83;1264.18994140625
84;1263.468505859375
85;1262.7391357421875
86;1262.006103515625
87;1261.2694091796875
88;1260.5286865234375
89;1259.7838134765625
90;1259.038818359375
91;1258.2896728515625
92;1257.5323486328125
93;1256.7745361328125
94;1256.0084228515625
95;1255.2379150390625
96;1254.462890625
97;1253.68310546875
98;1252.89892578125
99;1252.10986328125
100;1251.31982421875
101;1250.524658203125
102;1249.7208251953125
103;1248.912109375
104;1248.097900390625
105;1247.27880859375
106;1246.4541015625
107;1245.627685546875
108;1244.7923583984375
109;1243.951416015625
110;1243.1048583984375
111;1242.252685546875
112;1241.3946533203125
113;1240.53076171875
114;1239.6611328125
115;1238.788818359375
116;1237.91064453125
117;1237.0224609375
118;1236.128173828125
119;1235.2274169921875
120;1234.32373046875
121;1233.4097900390625
122;1232.489501953125
123;1231.562255859375
124;1230.6319580078125
125;1229.6947021484375
126;1228.75048828125
127;1227.799072265625
128;1226.8406982421875
129;1225.8714599609375
130;1224.89501953125
131;1223.9110107421875
132;1222.92333984375
133;1221.9278564453125
134;1220.9212646484375
135;1219.9105224609375
136;1218.891845703125
137;1217.8653564453125
138;1216.827392578125
139;1215.7816162109375
140;1214.7275390625
141;1213.665283203125
142;1212.59814453125
143;1211.5196533203125
144;1210.436279296875
145;1209.344482421875
146;1208.244384765625
147;1207.1357421875
148;1206.0152587890625
149;1204.8865966796875
150;1203.74951171875
151;1202.60400390625
152;1201.453369140625
153;1200.2908935546875
154;1199.12353515625
155;1197.94775390625
156;1196.76318359375
157;1195.567138671875
158;1194.3663330078125
159;1193.1534423828125
160;1191.93212890625
161;1190.7027587890625
162;1189.46533203125
163;1188.2200927734375
164;1186.9666748046875
165;1185.709228515625
166;1184.44384765625
167;1183.17041015625
168;1181.8896484375
169;1180.6014404296875
170;1179.30615234375
171;1178.00341796875
172;1176.6939697265625
173;1175.3775634765625
174;1174.0548095703125
175;1172.7255859375
176;1171.39013671875
177;1170.045166015625
178;1168.697998046875
179;1167.34521484375
180;1165.9835205078125
181;1164.61669921875
182;1163.2452392578125
183;1161.8724365234375
184;1160.49560546875
185;1159.111572265625
186;1157.7237548828125
187;1156.3326416015625
188;1154.938232421875
189;1153.54443359375
190;1152.148193359375
191;1150.7498779296875
192;1149.3465576171875
193;1147.94482421875
194;1146.53857421875
195;1145.131591796875
196;1143.7281494140625
197;1142.3387451171875
198;1140.947265625
199;1139.5574951171875
200;1138.169677734375
201;1136.786865234375
202;1135.403564453125
203;1134.0225830078125
204;1132.6473388671875
205;1131.2862548828125
206;1129.9326171875
207;1128.580810546875
208;1127.234130859375
209;1125.8924560546875
210;1124.55908203125
211;1123.228515625
212;1121.90380859375
213;1120.5848388671875
214;1119.274658203125
215;1117.96826171875
216;1116.6680908203125
217;1115.37451171875
218;1114.0877685546875
219;1112.8079833984375
220;1111.53759765625
221;1110.2718505859375
222;1109.013671875
223;1107.7628173828125
224;1106.52197265625
225;1105.2890625
226;1104.0611572265625
227;1102.8411865234375
228;1101.63134765625
229;1100.4296875
230;1099.23388671875
231;1098.0467529296875
232;1096.867919921875
233;1095.69970703125
234;1094.5511474609375
235;1093.42333984375
236;1092.31103515625
237;1091.2239990234375
238;1090.1475830078125
239;1089.0821533203125
240;1088.0255126953125
241;1086.989013671875
242;1085.9697265625
243;1084.9619140625
244;1083.9658203125
245;1082.9818115234375
246;1082.0079345703125
247;1081.04541015625
248;1080.0992431640625
249;1079.163330078125
250;1078.2354736328125
251;1077.31689453125
252;1076.4091796875
253;1075.51025390625
254;1074.6181640625
255;1073.73486328125
256;1072.8597412109375
257;1071.9927978515625
258;1071.1341552734375
259;1070.28466796875
260;1069.450927734375
261;1068.626953125
262;1067.8109130859375
263;1067.00390625
264;1066.2049560546875
265;1065.4140625
266;1064.63037109375
267;1063.8538818359375
268;1063.0845947265625
269;1062.3216552734375
270;1061.5657958984375
271;1060.8170166015625
272;1060.07470703125
273;1059.33984375
274;1058.6097412109375
275;1057.885498046875
276;1057.16748046875
277;1056.4559326171875
278;1055.7498779296875
279;1055.0496826171875
280;1054.35595703125
281;1053.6671142578125
282;1052.98388671875
283;1052.3055419921875
284;1051.633544921875
285;1050.96826171875
286;1050.307861328125
287;1049.653564453125
288;1049.0030517578125
289;1048.3587646484375
290;1047.720703125
291;1047.0869140625
292;1046.4586181640625
293;1045.83349609375
294;1045.21240234375
295;1044.5953369140625
296;1043.9822998046875
297;1043.3731689453125
298;1042.7685546875
299;1042.1680908203125
300;1041.5712890625
301;1040.97705078125
302;1040.38623046875
303;1039.798828125
304;1039.2156982421875
305;1038.6348876953125
306;1038.0572509765625
307;1037.4857177734375
308;1036.919677734375
309;1036.357666015625
310;1035.7982177734375
311;1035.24169921875
312;1034.68896484375
313;1034.13818359375
314;1033.5904541015625
315;1033.0457763671875
316;1032.504638671875
317;1031.965576171875
318;1031.429931640625
319;1030.8975830078125
320;1030.3680419921875
321;1029.84326171875
322;1029.3206787109375
323;1028.80029296875
324;1028.281494140625
325;1027.765380859375
326;1027.2508544921875
327;1026.7384033203125
328;1026.227783203125
329;1025.7193603515625
330;1025.212890625
331;1024.7086181640625
332;1024.2059326171875
333;1023.705078125
334;1023.2059326171875
335;1022.7085571289062
336;1022.212890625
337;1021.718994140625
338;1021.2269897460938
339;1020.7371826171875
340;1020.2484741210938
341;1019.7612915039062
342;1019.2763671875
343;1018.792724609375
344;1018.310791015625
345;1017.8302001953125
346;1017.350341796875
347;1016.8719482421875
348;1016.3952026367188
349;1015.9194946289062
350;1015.4454345703125
351;1014.972412109375
352;1014.5016479492188
353;1014.031982421875
354;1013.563232421875
355;1013.0965576171875
356;1012.6311645507812
357;1012.166259765625
358;1011.7026977539062
359;1011.240234375
360;1010.779052734375
361;1010.3193359375
362;1009.8604736328125
363;1009.4031982421875
364;1008.946533203125
365;1008.4910888671875
366;1008.0368041992188
367;1007.5833129882812
368;1007.1317138671875
369;1006.6807861328125
370;1006.230712890625
371;1005.7813720703125
372;1005.333251953125
373;1004.8858642578125
374;1004.439697265625
375;1003.994384765625
376;1003.5499267578125
377;1003.1064453125
378;1002.6640625
379;1002.2223510742188
380;1001.7817993164062
381;1001.342529296875
382;1000.9037475585938
383;1000.4656982421875
384;1000.0286254882812
385;999.592529296875
386;999.1572265625
387;998.722900390625
388;998.289306640625
389;997.856689453125
390;997.4249267578125
391;996.9940185546875
392;996.5643310546875
393;996.1353149414062
394;995.70703125
395;995.2794189453125
396;994.8529663085938
397;994.4270629882812
398;994.001708984375
399;993.5774536132812
400;993.154296875
401;992.7319946289062
402;992.3101196289062
403;991.8897705078125
404;991.4694213867188
405;991.0501098632812
406;990.6314086914062
407;990.2139892578125
408;989.7969970703125
409;989.3805541992188
410;988.9651489257812
411;988.5501098632812
412;988.1360473632812
413;987.7225341796875
414;987.309814453125
415;986.8975830078125
416;986.486328125
417;986.075927734375
418;985.6661376953125
419;985.2571411132812
420;984.8483276367188
421;984.440673828125
422;984.0335083007812
423;983.626708984375
424;983.220458984375
425;982.8151245117188
426;982.4105834960938
427;982.0064086914062
428;981.6028442382812
429;981.1998901367188
430;980.7975463867188
431;980.3961791992188
432;979.9955444335938
433;979.595458984375
434;979.1959838867188
435;978.7965698242188
436;978.398193359375
437;978.0005493164062
438;977.603271484375
439;977.2067260742188
440;976.8102416992188
441;976.4143676757812
442;976.0194091796875
443;975.6246948242188
444;975.2307739257812
445;974.837158203125
446;974.4444580078125
447;974.0518798828125
448;973.6598510742188
449;973.268798828125
450;972.8778076171875
451;972.4874267578125
452;972.0979614257812
453;971.7086791992188
454;971.3198852539062
455;970.931640625
456;970.5438232421875
457;970.1566772460938
458;969.770263671875
459;969.3840942382812
460;968.9983520507812
461;968.613525390625
462;968.228759765625
463;967.8448486328125
464;967.461181640625
465;967.077880859375
466;966.6954345703125
467;966.3131713867188
468;965.9312133789062
469;965.5499267578125
470;965.1689453125
471;964.7885131835938
472;964.4088745117188
473;964.029541015625
474;963.6508178710938
475;963.272216796875
476;962.894287109375
477;962.5166015625
478;962.1395263671875
479;961.7625732421875
480;961.3861694335938
481;961.0104370117188
482;960.6350708007812
483;960.260009765625
484;959.885498046875
485;959.5110473632812
486;959.1371459960938
487;958.763671875
488;958.390625
489;958.0182495117188
490;957.6460571289062
491;957.2745361328125
492;956.9034423828125
493;956.5326538085938
494;956.162353515625
495;955.7924194335938
496;955.422607421875
497;955.0534057617188
498;954.684326171875
499;954.3157348632812
500;953.947509765625
501;953.5796508789062
502;953.212158203125
503;952.8450317382812
504;952.4786376953125
505;952.1124267578125
506;951.7466430664062
507;951.3814086914062
508;951.0164794921875
509;950.6520385742188
510;950.2877807617188
511;949.9237060546875
512;949.5601196289062
513;949.1967163085938
514;948.833984375
515;948.4713745117188
516;948.109130859375
517;947.747314453125
518;947.385986328125
519;947.0249633789062
520;946.6643676757812
521;946.3042602539062
522;945.9443359375
523;945.5845336914062
524;945.225341796875
525;944.866455078125
526;944.5076904296875
527;944.1495361328125
528;943.7916870117188
529;943.4341430664062
530;943.0771484375
531;942.7203979492188
532;942.3639526367188
533;942.0078125
534;941.6520385742188
535;941.2965698242188
536;940.9411010742188
537;940.5863647460938
538;940.2318725585938
539;939.8773803710938
540;939.5233154296875
541;939.1696166992188
542;938.8162841796875
543;938.4633178710938
544;938.1109008789062
545;937.7582397460938
546;937.406005859375
547;937.0541381835938
548;936.7028198242188
549;936.3515625
550;936.0006713867188
551;935.6498413085938
552;935.299560546875
553;934.9496459960938
554;934.6001586914062
555;934.250732421875
556;933.901611328125
557;933.5526123046875
558;933.2042236328125
559;932.8558959960938
560;932.508056640625
561;932.1605834960938
562;931.8134765625
563;931.4664916992188
564;931.119873046875
565;930.773681640625
566;930.4278564453125
567;930.08203125
568;929.7368774414062
569;929.3919067382812
570;929.047119140625
571;928.7026977539062
572;928.358642578125
573;928.014892578125
574;927.6713256835938
575;927.3280029296875
576;926.985107421875
577;926.6424560546875
578;926.300048828125
579;925.9578857421875
580;925.6160888671875
581;925.2745361328125
582;924.9329223632812
583;924.5916748046875
584;924.2510986328125
585;923.9104614257812
586;923.570068359375
587;923.230224609375
588;922.8903198242188
589;922.5509033203125
590;922.2117919921875
591;921.872802734375
592;921.5341796875
593;921.1958618164062
594;920.8577270507812
595;920.5198364257812
596;920.1823120117188
597;919.8446044921875
598;919.507568359375
599;919.1705932617188
600;918.8338623046875
601;918.497314453125
602;918.1612548828125
603;917.8253173828125
604;917.4896850585938
605;917.1544189453125
606;916.8190307617188
607;916.4839477539062
608;916.149169921875
609;915.814697265625
610;915.480224609375
611;915.1461791992188
612;914.812255859375
613;914.4788208007812
614;914.1456298828125
615;913.812744140625
616;913.479736328125
617;913.1470336914062
618;912.8145751953125
619;912.4822998046875
620;912.150634765625
621;911.8189086914062
622;911.4877319335938
623;911.1569213867188
624;910.826171875
625;910.4957885742188
626;910.1654663085938
627;909.8352661132812
628;909.5053100585938
629;909.1755981445312
630;908.8461303710938
631;908.51708984375
632;908.1881103515625
633;907.8593139648438
634;907.5307006835938
635;907.2024536132812
636;906.874267578125
637;906.54638671875
638;906.2189331054688
639;905.8914794921875
640;905.5645141601562
641;905.2376708984375
642;904.910888671875
643;904.5842895507812
644;904.2581787109375
645;903.9323120117188
646;903.6064453125
647;903.28076171875
648;902.9552612304688
649;902.6300048828125
650;902.304931640625
651;901.9801635742188
652;901.6558227539062
653;901.3316040039062
654;901.0076293945312
655;900.6837158203125
656;900.360107421875
657;900.0367431640625
658;899.713623046875
659;899.3906860351562
660;899.0678100585938
661;898.7450561523438
662;898.4228515625
663;898.1007690429688
664;897.77880859375
665;897.4571533203125
666;897.1355590820312
667;896.8142700195312
668;896.4931030273438
669;896.1721801757812
670;895.8515625
671;895.5309448242188
672;895.2106323242188
673;894.8904418945312
674;894.570556640625
675;894.2508544921875
676;893.9313354492188
677;893.6119995117188
678;893.2929077148438
679;892.973876953125
680;892.6551513671875
681;892.336669921875
682;892.0180053710938
683;891.6997680664062
684;891.3817749023438
685;891.0640258789062
686;890.7465209960938
687;890.4293212890625
688;890.1119995117188
689;889.7950439453125
690;889.4783935546875
691;889.1620483398438
692;888.8455810546875
693;888.5296020507812
694;888.2136840820312
695;887.8980102539062
696;887.5824584960938
697;887.26708984375
698;886.951904296875
699;886.6370239257812
700;886.3222045898438
701;886.0074462890625
702;885.6930541992188
703;885.3787231445312
704;885.0646362304688
705;884.750732421875
706;884.4370727539062
707;884.1235961914062
708;883.8102416992188
709;883.4971313476562
710;883.1842041015625
711;882.871337890625
712;882.5587768554688
713;882.246337890625
714;881.9340209960938
715;881.6218872070312
716;881.3099975585938
717;880.9982299804688
718;880.6867065429688
719;880.375244140625
720;880.0640258789062
721;879.7527465820312
722;879.4417724609375
723;879.131103515625
724;878.820556640625
725;878.5101318359375
726;878.1998901367188
727;877.8898315429688
728;877.579833984375
729;877.27001953125
730;876.96044921875
731;876.6508178710938
732;876.3414916992188
733;876.032470703125
734;875.7235107421875
735;875.414794921875
736;875.1062622070312
737;874.7978515625
738;874.4896850585938
739;874.1815795898438
740;873.873779296875
741;873.5661010742188
742;873.2583618164062
743;872.9507446289062
744;872.6434326171875
745;872.3363037109375
746;872.0294189453125
747;871.722412109375
748;871.4157104492188
749;871.1093139648438
750;870.802978515625
751;870.496826171875
752;870.1908569335938
753;869.885009765625
754;869.579345703125
755;869.2738037109375
756;868.968505859375
757;868.6633911132812
758;868.358154296875
759;868.0534057617188
760;867.7484130859375
761;867.44384765625
762;867.139404296875
763;866.8351440429688
764;866.531005859375
765;866.2271118164062
766;865.9234008789062
767;865.6196899414062
768;865.316162109375
769;865.012939453125
770;864.709716796875
771;864.406494140625
772;864.103515625
773;863.80078125
774;863.498291015625
775;863.1959838867188
776;862.893798828125
777;862.591552734375
778;862.2894897460938
779;861.9876708984375
780;861.6859130859375
781;861.3843994140625
782;861.0830078125
783;860.7817993164062
784;860.480712890625
785;860.1799926757812
786;859.879150390625
787;859.5784912109375
788;859.278076171875
789;858.9778442382812
790;858.677734375
791;858.3778076171875
792;858.0778198242188
793;857.778076171875
794;857.4783935546875
795;857.1790161132812
796;856.8797607421875
797;856.5804443359375
798;856.281494140625
799;855.9826049804688
800;855.683837890625
801;855.3851318359375
802;855.086669921875
803;854.788330078125
804;854.4901123046875
805;854.1919555664062
806;853.8939208984375
807;853.5962524414062
808;853.2986450195312
809;853.001220703125
810;852.7039184570312
811;852.40673828125
812;852.109619140625
813;851.812744140625
814;851.5159301757812
815;851.2192993164062
816;850.9227905273438
817;850.6264038085938
818;850.3302001953125
819;850.033935546875
820;849.7379760742188
821;849.442138671875
822;849.146484375
823;848.850830078125
824;848.5552368164062
825;848.260009765625
826;847.9647216796875
827;847.6697387695312
828;847.374755859375
829;847.079833984375
830;846.7852172851562
831;846.49072265625
832;846.1963500976562
833;845.9019775390625
834;845.6079711914062
835;845.3139038085938
836;845.0201416015625
837;844.7262573242188
838;844.4326782226562
839;844.1392211914062
840;843.8458862304688
841;843.5526733398438
842;843.2595825195312
843;842.9666748046875
844;842.673828125
845;842.3810424804688
846;842.08837890625
847;841.7958374023438
848;841.5035400390625
849;841.2113647460938
850;840.9192504882812
851;840.6272583007812
852;840.33544921875
853;840.0437622070312
854;839.7521362304688
855;839.460693359375
856;839.16943359375
857;838.8783569335938
858;838.5872192382812
859;838.29638671875
860;838.0055541992188
861;837.71484375
862;837.4242553710938
863;837.1337890625
864;836.8434448242188
865;836.5532836914062
866;836.2632446289062
867;835.973388671875
868;835.6836547851562
869;835.39404296875
870;835.1044921875
871;834.8151245117188
872;834.52587890625
873;834.2366333007812
874;833.9475708007812
875;833.6586303710938
876;833.3696899414062
877;833.0809936523438
878;832.7925415039062
879;832.5040893554688
880;832.2156372070312
881;831.927490234375
882;831.639404296875
883;831.3513793945312
884;831.0635375976562
885;830.7757568359375
886;830.488037109375
887;830.2005004882812
888;829.9130859375
889;829.6259155273438
890;829.338623046875
891;829.0516967773438
892;828.7647705078125
893;828.4779052734375
894;828.1913452148438
895;827.9047241210938
896;827.618408203125
897;827.3321533203125
898;827.0458984375
899;826.7598876953125
900;826.4739379882812
901;826.1880493164062
902;825.9025268554688
903;825.6168212890625
904;825.331298828125
905;825.0458984375
906;824.7606201171875
907;824.4754028320312
908;824.1903076171875
909;823.9052734375
910;823.620361328125
911;823.3357543945312
912;823.051025390625
913;822.7664794921875
914;822.4821166992188
915;822.19775390625
916;821.9135131835938
917;821.6295166015625
918;821.345458984375
919;821.0616455078125
920;820.7780151367188
921;820.4944458007812
922;820.2109985351562
923;819.9275512695312
924;819.644287109375
925;819.3611450195312
926;819.0781860351562
927;818.7952880859375
928;818.5125122070312
929;818.2297973632812
930;817.9471435546875
931;817.6647338867188
932;817.38232421875
933;817.1000366210938
934;816.8178100585938
935;816.5357666015625
936;816.2537231445312
937;815.971923828125
938;815.6902465820312
939;815.4087524414062
940;815.1273193359375
941;814.8458862304688
942;814.5646362304688
943;814.2833862304688
944;814.0023803710938
945;813.721435546875
946;813.4404907226562
947;813.1598510742188
948;812.879150390625
949;812.5985717773438
950;812.3182373046875
951;812.0379638671875
952;811.7578125
953;811.477783203125
954;811.1978149414062
955;810.9177856445312
956;810.6380004882812
957;810.3584594726562
958;810.078857421875
959;809.7994384765625
960;809.52001953125
961;809.2407836914062
962;808.9615478515625
963;808.6825561523438
964;808.4036254882812
965;808.124755859375
966;807.8460083007812
967;807.5673828125
968;807.288818359375
969;807.010498046875
970;806.7321166992188
971;806.453857421875
972;806.17578125
973;805.897705078125
974;805.6198120117188
975;805.342041015625
976;805.0643310546875
977;804.786865234375
978;804.50927734375
979;804.2318725585938
980;803.95458984375
981;803.6774291992188
982;803.4002685546875
983;803.1233520507812
984;802.846435546875
985;802.5696411132812
986;802.2929077148438
987;802.016357421875
988;801.7398681640625
989;801.463623046875
990;801.187255859375
991;800.9112548828125
992;800.6351928710938
993;800.3592529296875
994;800.0833129882812
995;799.8074951171875
996;799.5317993164062
997;799.2564086914062
998;798.9808349609375
999;798.7055053710938
1000;798.4302368164062
1001;798.155029296875
1002;797.8800048828125
1003;797.6051025390625
1004;797.3302001953125
1005;797.0553588867188
1006;796.7808227539062
1007;796.5061645507812
1008;796.231689453125
1009;795.9573364257812
1010;795.68310546875
1011;795.408935546875
1012;795.1348266601562
1013;794.86083984375
1014;794.5869750976562
1015;794.313232421875
1016;794.03955078125
1017;793.7659301757812
1018;793.4924926757812
1019;793.2191162109375
1020;792.94580078125
1021;792.6726684570312
1022;792.3995971679688
1023;792.1265258789062
1024;791.8535766601562
1025;791.580810546875
1026;791.30810546875
1027;791.0355834960938
1028;790.7631225585938
1029;790.4908447265625
1030;790.218505859375
1031;789.9462890625
1032;789.6741333007812
1033;789.402099609375
1034;789.130126953125
1035;788.8582763671875
1036;788.5866088867188
1037;788.3148803710938
1038;788.0432739257812
1039;787.7718505859375
1040;787.50048828125
1041;787.229248046875
1042;786.9580688476562
1043;786.68701171875
1044;786.416015625
1045;786.145263671875
1046;785.87451171875
1047;785.6038818359375
1048;785.3331298828125
1049;785.062744140625
1050;784.792236328125
1051;784.5220336914062
1052;784.2518310546875
1053;783.981689453125
1054;783.7117309570312
1055;783.4418334960938
1056;783.1719970703125
1057;782.9022216796875
1058;782.6325073242188
1059;782.3629760742188
1060;782.093505859375
1061;781.8240966796875
1062;781.5548706054688
1063;781.2855224609375
1064;781.0166015625
1065;780.7476806640625
1066;780.478759765625
1067;780.2098999023438
1068;779.941162109375
1069;779.672607421875
1070;779.4039916992188
1071;779.135498046875
1072;778.8671875
1073;778.598876953125
1074;778.330810546875
1075;778.0628051757812
1076;777.7947998046875
1077;777.5269165039062
1078;777.2591552734375
1079;776.991455078125
1080;776.723876953125
1081;776.4563598632812
1082;776.1889038085938
1083;775.9215698242188
1084;775.654296875
1085;775.3870849609375
1086;775.1201782226562
1087;774.8532104492188
1088;774.5862426757812
1089;774.3196411132812
1090;774.0529174804688
1091;773.786376953125
1092;773.5198364257812
1093;773.2533569335938
1094;772.987060546875
1095;772.7208862304688
1096;772.4547729492188
1097;772.1886596679688
1098;771.9227905273438
1099;771.6567993164062
1100;771.3910522460938
1101;771.1253662109375
1102;770.8598022460938
1103;770.5942993164062
1104;770.3287963867188
1105;770.0634155273438
1106;769.798095703125
1107;769.532958984375
1108;769.2679443359375
1109;769.0029907226562
1110;768.7380981445312
1111;768.473388671875
1112;768.2086791992188
1113;767.9439697265625
1114;767.6793823242188
1115;767.4148559570312
1116;767.1505737304688
1117;766.88623046875
1118;766.6219482421875
1119;766.3579711914062
1120;766.093994140625
1121;765.8299560546875
1122;765.5661010742188
1123;765.3023681640625
1124;765.0387573242188
1125;764.775146484375
1126;764.5116577148438
1127;764.2482299804688
1128;763.9849243164062
1129;763.7216796875
1130;763.45849609375
1131;763.1954956054688
1132;762.9325561523438
1133;762.6696166992188
1134;762.4067993164062
1135;762.1441040039062
1136;761.8815307617188
1137;761.6189575195312
1138;761.3565673828125
1139;761.0941162109375
1140;760.831787109375
1141;760.569580078125
1142;760.3074951171875
1143;760.0454711914062
1144;759.7835083007812
1145;759.521728515625
1146;759.2598876953125
1147;758.9981689453125
1148;758.7366943359375
1149;758.4751586914062
1150;758.2136840820312
1151;757.952392578125
1152;757.6912231445312
1153;757.4301147460938
1154;757.1690673828125
1155;756.907958984375
1156;756.6470947265625
1157;756.3863525390625
1158;756.1256103515625
1159;755.864990234375
1160;755.6045532226562
1161;755.343994140625
1162;755.0836791992188
1163;754.8233032226562
1164;754.563232421875
1165;754.3030395507812
1166;754.0430908203125
1167;753.7831420898438
1168;753.5233154296875
1169;753.2634887695312
1170;753.0037231445312
1171;752.7442016601562
1172;752.484619140625
1173;752.2252807617188
1174;751.9658203125
1175;751.7066650390625
1176;751.447509765625
1177;751.1884155273438
1178;750.929443359375
1179;750.6704711914062
1180;750.4116821289062
1181;750.1528930664062
1182;749.8942260742188
1183;749.6356201171875
1184;749.3771362304688
1185;749.11865234375
1186;748.8603515625
1187;748.6021118164062
1188;748.343994140625
1189;748.0859375
1190;747.827880859375
1191;747.5699462890625
1192;747.3121337890625
1193;747.0542602539062
1194;746.796630859375
1195;746.5390014648438
1196;746.2815551757812
1197;746.0241088867188
1198;745.7667846679688
1199;745.5094604492188
1200;745.2522583007812
1201;744.9952392578125
1202;744.7380981445312
1203;744.481201171875
1204;744.2243041992188
1205;743.967529296875
1206;743.7107543945312
1207;743.4542236328125
1208;743.1976318359375
1209;742.941162109375
1210;742.6847534179688
1211;742.428466796875
1212;742.1723022460938
1213;741.9161376953125
1214;741.6600952148438
1215;741.404052734375
1216;741.1481323242188
1217;740.892333984375
1218;740.6365966796875
1219;740.3809814453125
1220;740.1254272460938
1221;739.8699951171875
1222;739.614501953125
1223;739.3591918945312
1224;739.1038818359375
1225;738.8487548828125
1226;738.5936889648438
1227;738.338623046875
1228;738.083740234375
1229;737.828857421875
1230;737.5740966796875
1231;737.3193359375
1232;737.064697265625
1233;736.8102416992188
1234;736.5558471679688
1235;736.301513671875
1236;736.0473022460938
1237;735.7930908203125
1238;735.5389404296875
1239;735.2850341796875
1240;735.0310668945312
1241;734.7771606445312
1242;734.5234375
1243;734.269775390625
1244;734.01611328125
1245;733.7626342773438
1246;733.5091552734375
1247;733.255859375
1248;733.0025634765625
1249;732.749267578125
1250;732.4962158203125
1251;732.2431640625
1252;731.9900512695312
1253;731.7371826171875
1254;731.484375
1255;731.231689453125
1256;730.9790649414062
1257;730.7264404296875
1258;730.4739379882812
1259;730.221435546875
1260;729.9691162109375
1261;729.7169189453125
1262;729.4647216796875
1263;729.212646484375
1264;728.9605712890625
1265;728.7086181640625
1266;728.456787109375
1267;728.2049560546875
1268;727.9531860351562
1269;727.7015380859375
1270;727.449951171875
1271;727.1984252929688
1272;726.9469604492188
1273;726.6956176757812
1274;726.4443359375
1275;726.193115234375
1276;725.9420166015625
1277;725.69091796875
1278;725.4400634765625
1279;725.1891479492188
1280;724.938232421875
1281;724.6875610351562
1282;724.4368896484375
1283;724.1864013671875
1284;723.9358520507812
1285;723.685546875
1286;723.4351806640625
1287;723.1848754882812
1288;722.9346923828125
1289;722.6845703125
1290;722.4344482421875
1291;722.1844482421875
1292;721.9346313476562
1293;721.684814453125
1294;721.4351806640625
1295;721.1854858398438
1296;720.9359130859375
1297;720.6864624023438
1298;720.43701171875
1299;720.187744140625
1300;719.9384765625
1301;719.6892700195312
1302;719.440185546875
1303;719.191162109375
1304;718.942138671875
1305;718.6932373046875
1306;718.4443969726562
1307;718.1957397460938
1308;717.947021484375
1309;717.698486328125
1310;717.449951171875
1311;717.2014770507812
1312;716.953125
1313;716.704833984375
1314;716.4566650390625
1315;716.20849609375
1316;715.9605102539062
1317;715.7125244140625
1318;715.464599609375
1319;715.216796875
1320;714.968994140625
1321;714.721435546875
1322;714.4737548828125
1323;714.2261962890625
1324;713.9786376953125
1325;713.7313232421875
1326;713.4840087890625
1327;713.23681640625
1328;712.98974609375
1329;712.7426147460938
1330;712.4955444335938
1331;712.2485961914062
1332;712.001708984375
1333;711.7549438476562
1334;711.50830078125
1335;711.2616577148438
1336;711.0150146484375
1337;710.7684326171875
1338;710.52197265625
1339;710.2756958007812
1340;710.0294189453125
1341;709.7831420898438
1342;709.5370483398438
1343;709.2909545898438
1344;709.0451049804688
1345;708.799072265625
1346;708.5532836914062
1347;708.3075561523438
1348;708.0618286132812
1349;707.8162231445312
1350;707.570556640625
1351;707.3251953125
1352;707.079833984375
1353;706.8344116210938
1354;706.5891723632812
1355;706.343994140625
1356;706.098876953125
1357;705.8538818359375
1358;705.6090087890625
1359;705.3640747070312
1360;705.1193237304688
1361;704.8746337890625
1362;704.6298828125
1363;704.3853149414062
1364;704.140869140625
1365;703.896484375
1366;703.652099609375
1367;703.4078369140625
1368;703.16357421875
1369;702.9193725585938
1370;702.6753540039062
1371;702.431396484375
1372;702.1875
1373;701.943603515625
1374;701.69970703125
1375;701.4560546875
1376;701.2124633789062
1377;700.9688720703125
1378;700.725341796875
1379;700.4818725585938
1380;700.238525390625
1381;699.9952392578125
1382;699.7520751953125
1383;699.5088500976562
1384;699.265869140625
1385;699.022705078125
1386;698.7799072265625
1387;698.5370483398438
1388;698.2943115234375
1389;698.0515747070312
1390;697.8089599609375
1391;697.5665283203125
1392;697.323974609375
1393;697.08154296875
1394;696.8392944335938
1395;696.5969848632812
1396;696.3547973632812
1397;696.1126708984375
1398;695.8706665039062
1399;695.628662109375
1400;695.38671875
1401;695.1448974609375
1402;694.9032592773438
1403;694.6614990234375
1404;694.4199829101562
1405;694.178466796875
1406;693.9369506835938
1407;693.695556640625
1408;693.4542846679688
1409;693.213134765625
1410;692.971923828125
1411;692.7307739257812
1412;692.48974609375
1413;692.248779296875
1414;692.0078125
1415;691.7670288085938
1416;691.5263671875
1417;691.2857055664062
1418;691.0450439453125
1419;690.804443359375
1420;690.5640869140625
1421;690.3236083984375
1422;690.083251953125
1423;689.843017578125
1424;689.602783203125
1425;689.3626098632812
1426;689.1224975585938
1427;688.882568359375
1428;688.6427612304688
1429;688.4027709960938
1430;688.1630859375
1431;687.9234008789062
1432;687.6837768554688
1433;687.4442138671875
1434;687.2047729492188
1435;686.96533203125
1436;686.7260131835938
1437;686.4866943359375
1438;686.2474975585938
1439;686.0083618164062
1440;685.769287109375
1441;685.5303344726562
1442;685.2914428710938
1443;685.0525512695312
1444;684.813720703125
1445;684.5750732421875
1446;684.3363647460938
1447;684.0978393554688
1448;683.8593139648438
1449;683.620849609375
1450;683.3825073242188
1451;683.1442260742188
1452;682.906005859375
1453;682.6678466796875
1454;682.4297485351562
1455;682.1917114257812
1456;681.9537963867188
1457;681.7158813476562
1458;681.4781494140625
1459;681.2404174804688
1460;681.002685546875
1461;680.76513671875
1462;680.527587890625
1463;680.2900390625
1464;680.052734375
1465;679.8153076171875
1466;679.578125
1467;679.3410034179688
1468;679.1038208007812
1469;678.8667602539062
1470;678.6296997070312
1471;678.392822265625
1472;678.156005859375
1473;677.919189453125
1474;677.6824951171875
1475;677.4458618164062
1476;677.209228515625
1477;676.9727783203125
1478;676.736328125
1479;676.4999389648438
1480;676.263671875
1481;676.0274658203125
1482;675.791259765625
1483;675.5552368164062
1484;675.3191528320312
1485;675.083251953125
1486;674.8473510742188
1487;674.611572265625
1488;674.375732421875
1489;674.1400756835938
1490;673.9044189453125
1491;673.6689453125
1492;673.4334106445312
1493;673.1980590820312
1494;672.9627685546875
1495;672.7274169921875
1496;672.4921875
1497;672.257080078125
1498;672.0220336914062
1499;671.7869873046875
1500;671.552001953125
1501;671.317138671875
1502;671.0823364257812
1503;670.8474731445312
1504;670.6129150390625
1505;670.3782348632812
1506;670.143798828125
1507;669.9092407226562
1508;669.6748657226562
1509;669.4404907226562
1510;669.206298828125
1511;668.9720458984375
1512;668.7379760742188
1513;668.5038452148438
1514;668.269775390625
1515;668.035888671875
1516;667.802001953125
1517;667.5681762695312
1518;667.3344116210938
1519;667.100830078125
1520;666.8671875
1521;666.6336669921875
1522;666.4002685546875
1523;666.1668090820312
1524;665.9334716796875
1525;665.7002563476562
1526;665.467041015625
1527;665.23388671875
1528;665.0007934570312
1529;664.767822265625
1530;664.5348510742188
1531;664.302001953125
1532;664.0692749023438
1533;663.8365478515625
1534;663.6038818359375
1535;663.3712768554688
1536;663.1387329101562
1537;662.90625
1538;662.6739501953125
1539;662.4415893554688
1540;662.209228515625
1541;661.97705078125
1542;661.7449340820312
1543;661.5128784179688
1544;661.2809448242188
1545;661.0488891601562
1546;660.8170166015625
1547;660.585205078125
1548;660.3533935546875
1549;660.121826171875
1550;659.8901977539062
1551;659.6585693359375
1552;659.4271240234375
1553;659.1957397460938
1554;658.9644165039062
1555;658.7330932617188
1556;658.5018920898438
1557;658.270751953125
1558;658.0396728515625
1559;657.8087158203125
1560;657.5777587890625
1561;657.3468627929688
1562;657.1160278320312
1563;656.8853759765625
1564;656.6546020507812
1565;656.424072265625
1566;656.1934204101562
1567;655.962890625
1568;655.7325439453125
1569;655.5021362304688
1570;655.2718505859375
1571;655.0416259765625
1572;654.8115234375
1573;654.581298828125
1574;654.3513793945312
1575;654.1214599609375
1576;653.8914794921875
1577;653.6616821289062
1578;653.431884765625
1579;653.2021484375
1580;652.972412109375
1581;652.742919921875
1582;652.5133666992188
1583;652.283935546875
1584;652.0545043945312
1585;651.8251953125
1586;651.595947265625
1587;651.3668212890625
1588;651.1376342773438
1589;650.9085693359375
1590;650.6795654296875
1591;650.4505615234375
1592;650.2217407226562
1593;649.992919921875
1594;649.76416015625
1595;649.5354614257812
1596;649.306884765625
1597;649.0784301757812
1598;648.8499145507812
1599;648.6214599609375
1600;648.3931884765625
1601;648.1648559570312
1602;647.9365844726562
1603;647.7084350585938
1604;647.4803466796875
1605;647.2523803710938
1606;647.0244140625
1607;646.7965698242188
1608;646.5686645507812
1609;646.3408813476562
1610;646.1131591796875
1611;645.885498046875
1612;645.657958984375
1613;645.430419921875
1614;645.2030029296875
1615;644.9756469726562
1616;644.748291015625
1617;644.5210571289062
1618;644.2938842773438
1619;644.0667724609375
1620;643.8397216796875
1621;643.61279296875
1622;643.3858642578125
1623;643.158935546875
1624;642.93212890625
1625;642.7053833007812
1626;642.478759765625
1627;642.2520751953125
1628;642.0255737304688
1629;641.799072265625
1630;641.5726928710938
1631;641.3463134765625
1632;641.1199951171875
1633;640.8937377929688
1634;640.6675415039062
1635;640.4415283203125
1636;640.2153930664062
1637;639.989501953125
1638;639.7634887695312
1639;639.5377197265625
1640;639.3118896484375
1641;639.086181640625
1642;638.8605346679688
1643;638.635009765625
1644;638.409423828125
1645;638.1840209960938
1646;637.9586181640625
1647;637.7332153320312
1648;637.5079345703125
1649;637.2827758789062
1650;637.0576171875
1651;636.8324584960938
1652;636.607421875
1653;636.3824462890625
1654;636.1575317382812
1655;635.9327392578125
1656;635.7079467773438
1657;635.4832153320312
1658;635.258544921875
1659;635.0339965820312
1660;634.8094482421875
1661;634.5849609375
1662;634.3606567382812
1663;634.13623046875
1664;633.9119262695312
1665;633.687744140625
1666;633.463623046875
1667;633.239501953125
1668;633.015380859375
1669;632.79150390625
1670;632.567626953125
1671;632.3436889648438
1672;632.1199340820312
1673;631.896240234375
1674;631.672607421875
1675;631.4490966796875
1676;631.2255249023438
1677;631.0020751953125
1678;630.7786865234375
1679;630.555419921875
1680;630.3321533203125
1681;630.1089477539062
1682;629.8858032226562
1683;629.6626586914062
1684;629.4396362304688
1685;629.2167358398438
1686;628.9937744140625
1687;628.7709350585938
1688;628.5481567382812
1689;628.325439453125
1690;628.1028442382812
1691;627.8802490234375
1692;627.6576538085938
1693;627.435302734375
1694;627.2128295898438
1695;626.990478515625
1696;626.7681274414062
1697;626.5459594726562
1698;626.3237915039062
1699;626.1017456054688
1700;625.8796997070312
1701;625.6576538085938
1702;625.435791015625
1703;625.2140502929688
1704;624.9920654296875
1705;624.7703857421875
1706;624.5487670898438
1707;624.3272705078125
1708;624.1056518554688
1709;623.8842163085938
1710;623.662841796875
1711;623.4415283203125
1712;623.2201538085938
1713;622.9989013671875
1714;622.7777709960938
1715;622.5567016601562
1716;622.3356323242188
1717;622.1146240234375
1718;621.8936767578125
1719;621.6728515625
1720;621.4520874023438
1721;621.2313232421875
1722;621.0106811523438
1723;620.7901000976562
1724;620.5695190429688
1725;620.3489990234375
1726;620.1286010742188
1727;619.908203125
1728;619.6878051757812
1729;619.467529296875
1730;619.2474365234375
1731;619.02734375
1732;618.8073120117188
1733;618.5872192382812
1734;618.3673095703125
1735;618.1474609375
1736;617.9276123046875
1737;617.7078247070312
1738;617.4881591796875
1739;617.2684936523438
1740;617.0490112304688
1741;616.8294067382812
1742;616.6099853515625
1743;616.3905639648438
1744;616.171142578125
1745;615.951904296875
1746;615.7327270507812
1747;615.5135498046875
1748;615.2944946289062
1749;615.075439453125
1750;614.8565673828125
1751;614.6375732421875
1752;614.418701171875
1753;614.1998901367188
1754;613.981201171875
1755;613.7625732421875
1756;613.5438842773438
1757;613.3253784179688
1758;613.1068725585938
1759;612.888427734375
1760;612.6700439453125
1761;612.4517822265625
1762;612.2335815429688
1763;612.0153198242188
1764;611.7971801757812
1765;611.5791015625
1766;611.361083984375
1767;611.1431884765625
1768;610.9252319335938
1769;610.7074584960938
1770;610.4896850585938
1771;610.2719116210938
1772;610.0543212890625
1773;609.836669921875
1774;609.619140625
1775;609.4016723632812
1776;609.184326171875
1777;608.9669799804688
1778;608.749755859375
1779;608.5325317382812
1780;608.3153076171875
1781;608.0982666015625
1782;607.8812255859375
1783;607.664306640625
1784;607.447265625
1785;607.23046875
1786;607.013671875
1787;606.7969360351562
1788;606.5802612304688
1789;606.3635864257812
1790;606.1470947265625
1791;605.9306030273438
1792;605.714111328125
1793;605.497802734375
1794;605.2814331054688
1795;605.0651245117188
1796;604.8489379882812
1797;604.6328125
1798;604.416748046875
1799;604.2006225585938
1800;603.9846801757812
1801;603.768798828125
1802;603.552978515625
1803;603.337158203125
1804;603.1213989257812
1805;602.9058227539062
1806;602.690185546875
1807;602.4746704101562
1808;602.2590942382812
1809;602.043701171875
1810;601.828369140625
1811;601.613037109375
1812;601.3977661132812
1813;601.1825561523438
1814;600.9674682617188
1815;600.7523803710938
1816;600.537353515625
1817;600.3224487304688
1818;600.1075439453125
1819;599.8927001953125
1820;599.677978515625
1821;599.4631958007812
1822;599.24853515625
1823;599.033935546875
1824;598.8194580078125
1825;598.6048583984375
1826;598.3904418945312
1827;598.1760864257812
1828;597.9617919921875
1829;597.7474975585938
1830;597.5333251953125
1831;597.3192138671875
1832;597.105224609375
1833;596.8911743164062
1834;596.6773071289062
1835;596.46337890625
1836;596.24951171875
1837;596.0357055664062
1838;595.822021484375
1839;595.6083374023438
1840;595.394775390625
1841;595.1812744140625
1842;594.9677734375
1843;594.7543334960938
1844;594.541015625
1845;594.3276977539062
1846;594.114501953125
1847;593.9012451171875
1848;593.688232421875
1849;593.4751586914062
1850;593.2621459960938
1851;593.0491333007812
1852;592.8363037109375
1853;592.6234741210938
1854;592.4107055664062
1855;592.197998046875
1856;591.9852905273438
1857;591.7727661132812
1858;591.5602416992188
1859;591.3477783203125
1860;591.1353149414062
1861;590.9229125976562
1862;590.7106323242188
1863;590.4983520507812
1864;590.2861328125
1865;590.0740356445312
1866;589.8619995117188
1867;589.64990234375
1868;589.43798828125
1869;589.2261352539062
1870;589.01416015625
1871;588.802490234375
1872;588.5907592773438
1873;588.3790283203125
1874;588.16748046875
1875;587.9558715820312
1876;587.744384765625
1877;587.532958984375
1878;587.3216552734375
1879;587.1102905273438
1880;586.8989868164062
1881;586.6878051757812
1882;586.4766235351562
1883;586.2655029296875
1884;586.054443359375
1885;585.843505859375
1886;585.632568359375
1887;585.4217529296875
1888;585.2109985351562
1889;585.000244140625
1890;584.7896118164062
1891;584.5789184570312
1892;584.3683471679688
1893;584.1578369140625
1894;583.9474487304688
1895;583.7369995117188
1896;583.5266723632812
1897;583.3164672851562
1898;583.106201171875
1899;582.8959350585938
1900;582.6858520507812
1901;582.4758911132812
1902;582.265869140625
1903;582.0559692382812
1904;581.8460693359375
1905;581.6362915039062
1906;581.4265747070312
1907;581.216796875
1908;581.0071411132812
1909;580.797607421875
1910;580.588134765625
1911;580.378662109375
1912;580.169189453125
1913;579.9597778320312
1914;579.7505493164062
1915;579.541259765625
1916;579.3320922851562
1917;579.1229858398438
1918;578.9139404296875
1919;578.704833984375
1920;578.4959106445312
1921;578.2870483398438
1922;578.0783081054688
1923;577.8694458007812
1924;577.6607666015625
1925;577.4520263671875
1926;577.243408203125
1927;577.034912109375
1928;576.826416015625
1929;576.6179809570312
1930;576.4095458984375
1931;576.2012329101562
1932;575.9930419921875
1933;575.7847290039062
1934;575.5765991210938
1935;575.3684692382812
1936;575.160400390625
1937;574.9524536132812
1938;574.7445068359375
1939;574.5366821289062
1940;574.328857421875
1941;574.12109375
1942;573.913330078125
1943;573.7057495117188
1944;573.4981689453125
1945;573.2906494140625
1946;573.0831298828125
1947;572.875732421875
1948;572.6683959960938
1949;572.4611206054688
1950;572.2537841796875
1951;572.046630859375
1952;571.8394165039062
1953;571.6323852539062
1954;571.4253540039062
1955;571.2183227539062
1956;571.011474609375
1957;570.8045654296875
1958;570.5978393554688
1959;570.39111328125
1960;570.184326171875
1961;569.977783203125
1962;569.7711791992188
1963;569.5646362304688
1964;569.3582153320312
1965;569.1517944335938
1966;568.9454956054688
1967;568.7391967773438
1968;568.532958984375
1969;568.3267822265625
1970;568.1206665039062
1971;567.91455078125
1972;567.7085571289062
1973;567.5026245117188
1974;567.2966918945312
1975;567.0908813476562
1976;566.8850708007812
1977;566.6793823242188
1978;566.4736328125
1979;566.26806640625
1980;566.0625
1981;565.8570556640625
1982;565.651611328125
1983;565.4461669921875
1984;565.2408447265625
1985;565.0355224609375
1986;564.830322265625
1987;564.625244140625
1988;564.4201049804688
1989;564.2150268554688
1990;564.010009765625
1991;563.8050537109375
1992;563.6002807617188
1993;563.3953857421875
1994;563.190673828125
1995;562.9859008789062
1996;562.78125
1997;562.57666015625
1998;562.3721313476562
1999;562.1676635742188
