;loss
0;1405.0098876953125
1;1404.59814453125
2;1404.186767578125
3;1403.7757568359375
4;1403.3651123046875
5;1402.9547119140625
6;1402.54443359375
7;1402.1339111328125
8;1401.7235107421875
9;1401.31298828125
10;1400.9024658203125
11;1400.49169921875
12;1400.080810546875
13;1399.66845703125
14;1399.2552490234375
15;1398.8411865234375
16;1398.4295654296875
17;1398.0177001953125
18;1397.6055908203125
19;1397.193359375
20;1396.7762451171875
21;1396.35888671875
22;1395.945556640625
23;1395.53173828125
24;1395.11279296875
25;1394.6983642578125
26;1394.2781982421875
27;1393.862548828125
28;1393.446533203125
29;1393.0247802734375
30;1392.6072998046875
31;1392.18408203125
32;1391.76513671875
33;1391.3455810546875
34;1390.9200439453125
35;1390.4937744140625
36;1390.0711669921875
37;1389.6473388671875
38;1389.222900390625
39;1388.796875
40;1388.3697509765625
41;1387.9412841796875
42;1387.5113525390625
43;1387.0799560546875
44;1386.6424560546875
45;1386.207763671875
46;1385.771484375
47;1385.3331298828125
48;1384.8887939453125
49;1384.44677734375
50;1384.0025634765625
51;1383.556396484375
52;1383.1077880859375
53;1382.656982421875
54;1382.203857421875
55;1381.7481689453125
56;1381.286376953125
57;1380.8258056640625
58;1380.358642578125
59;1379.892578125
60;1379.423828125
61;1378.9520263671875
62;1378.4776611328125
63;1378.0
64;1377.515869140625
65;1377.02880859375
66;1376.53857421875
67;1376.0450439453125
68;1375.5484619140625
69;1375.0484619140625
70;1374.5487060546875
71;1374.0421142578125
72;1373.531982421875
73;1373.0218505859375
74;1372.5050048828125
75;1371.9876708984375
76;1371.4635009765625
77;1370.9354248046875
78;1370.4073486328125
79;1369.875
80;1369.3389892578125
81;1368.7989501953125
82;1368.2520751953125
83;1367.7010498046875
84;1367.149169921875
85;1366.593505859375
86;1366.030517578125
87;1365.4664306640625
88;1364.898193359375
89;1364.3258056640625
90;1363.749267578125
91;1363.168212890625
92;1362.5802001953125
93;1361.987548828125
94;1361.3934326171875
95;1360.7950439453125
96;1360.192138671875
97;1359.58203125
98;1358.97021484375
99;1358.3538818359375
100;1357.72998046875
101;1357.1014404296875
102;1356.46826171875
103;1355.8333740234375
104;1355.1937255859375
105;1354.5491943359375
106;1353.9000244140625
107;1353.2459716796875
108;1352.587158203125
109;1351.92333984375
110;1351.2545166015625
111;1350.5809326171875
112;1349.90234375
113;1349.218505859375
114;1348.529541015625
115;1347.835693359375
116;1347.1339111328125
117;1346.4268798828125
118;1345.7174072265625
119;1345.000244140625
120;1344.277587890625
121;1343.5496826171875
122;1342.8192138671875
123;1342.08056640625
124;1341.336669921875
125;1340.5875244140625
126;1339.83251953125
127;1339.0723876953125
128;1338.306396484375
129;1337.534912109375
130;1336.7608642578125
131;1335.9781494140625
132;1335.18994140625
133;1334.3958740234375
134;1333.595947265625
135;1332.7904052734375
136;1331.9788818359375
137;1331.1614990234375
138;1330.338134765625
139;1329.5089111328125
140;1328.6734619140625
141;1327.83203125
142;1326.9869384765625
143;1326.13330078125
144;1325.2762451171875
145;1324.41015625
146;1323.5374755859375
147;1322.6612548828125
148;1321.7755126953125
149;1320.883544921875
150;1319.9876708984375
151;1319.085205078125
152;1318.176025390625
153;1317.2603759765625
154;1316.337890625
155;1315.4085693359375
156;1314.47216796875
157;1313.5289306640625
158;1312.57568359375
159;1311.6182861328125
160;1310.6536865234375
161;1309.6815185546875
162;1308.7020263671875
163;1307.7152099609375
164;1306.718017578125
165;1305.7159423828125
166;1304.706298828125
167;1303.685791015625
168;1302.660400390625
169;1301.624267578125
170;1300.5802001953125
171;1299.52783203125
172;1298.4703369140625
173;1297.4041748046875
174;1296.3270263671875
175;1295.2442626953125
176;1294.1500244140625
177;1293.046875
178;1291.93505859375
179;1290.8170166015625
180;1289.6871337890625
181;1288.548095703125
182;1287.3995361328125
183;1286.2442626953125
184;1285.0767822265625
185;1283.90234375
186;1282.7149658203125
187;1281.520263671875
188;1280.315673828125
189;1279.100830078125
190;1277.87548828125
191;1276.6395263671875
192;1275.3929443359375
193;1274.135498046875
194;1272.8641357421875
195;1271.581787109375
196;1270.290771484375
197;1268.9854736328125
198;1267.6715087890625
199;1266.3458251953125
200;1265.0052490234375
201;1263.65576171875
202;1262.2940673828125
203;1260.9202880859375
204;1259.5340576171875
205;1258.1351318359375
206;1256.7205810546875
207;1255.296142578125
208;1253.858642578125
209;1252.4049072265625
210;1250.94140625
211;1249.464599609375
212;1247.9744873046875
213;1246.4710693359375
214;1244.9510498046875
215;1243.4173583984375
216;1241.870361328125
217;1240.3096923828125
218;1238.7408447265625
219;1237.1571044921875
220;1235.5601806640625
221;1233.9500732421875
222;1232.330322265625
223;1230.6942138671875
224;1229.0489501953125
225;1227.3907470703125
226;1225.720458984375
227;1224.0382080078125
228;1222.343994140625
229;1220.6380615234375
230;1218.91796875
231;1217.190673828125
232;1215.4495849609375
233;1213.69873046875
234;1211.9422607421875
235;1210.1739501953125
236;1208.401123046875
237;1206.617919921875
238;1204.8280029296875
239;1203.0325927734375
240;1201.2354736328125
241;1199.4344482421875
242;1197.6270751953125
243;1195.8175048828125
244;1194.0064697265625
245;1192.1986083984375
246;1190.3907470703125
247;1188.58203125
248;1186.7825927734375
249;1184.9864501953125
250;1183.1953125
251;1181.40673828125
252;1179.6280517578125
253;1177.8536376953125
254;1176.087646484375
255;1174.3341064453125
256;1172.59033203125
257;1170.857666015625
258;1169.1339111328125
259;1167.425537109375
260;1165.73046875
261;1164.049072265625
262;1162.38232421875
263;1160.730712890625
264;1159.0936279296875
265;1157.4752197265625
266;1155.87548828125
267;1154.296142578125
268;1152.734375
269;1151.188232421875
270;1149.6602783203125
271;1148.15087890625
272;1146.6610107421875
273;1145.19580078125
274;1143.747314453125
275;1142.3177490234375
276;1140.90869140625
277;1139.5225830078125
278;1138.1575927734375
279;1136.822509765625
280;1135.51171875
281;1134.2215576171875
282;1132.9512939453125
283;1131.7030029296875
284;1130.4779052734375
285;1129.27734375
286;1128.0999755859375
287;1126.9432373046875
288;1125.8035888671875
289;1124.6817626953125
290;1123.579833984375
291;1122.4976806640625
292;1121.43359375
293;1120.3856201171875
294;1119.3551025390625
295;1118.343505859375
296;1117.3475341796875
297;1116.366943359375
298;1115.4031982421875
299;1114.4534912109375
300;1113.5177001953125
301;1112.5946044921875
302;1111.6856689453125
303;1110.7884521484375
304;1109.9017333984375
305;1109.027587890625
306;1108.1663818359375
307;1107.31640625
308;1106.476318359375
309;1105.646240234375
310;1104.82470703125
311;1104.0120849609375
312;1103.2083740234375
313;1102.413330078125
314;1101.6263427734375
315;1100.847412109375
316;1100.077880859375
317;1099.31591796875
318;1098.5599365234375
319;1097.8116455078125
320;1097.0703125
321;1096.334228515625
322;1095.605712890625
323;1094.88330078125
324;1094.1673583984375
325;1093.45751953125
326;1092.753662109375
327;1092.0545654296875
328;1091.3619384765625
329;1090.6744384765625
330;1089.992431640625
331;1089.315185546875
332;1088.64306640625
333;1087.975830078125
334;1087.3131103515625
335;1086.655029296875
336;1086.0013427734375
337;1085.351318359375
338;1084.70556640625
339;1084.064697265625
340;1083.4281005859375
341;1082.7962646484375
342;1082.1683349609375
343;1081.54443359375
344;1080.92431640625
345;1080.307861328125
346;1079.6949462890625
347;1079.08544921875
348;1078.4794921875
349;1077.876953125
350;1077.27685546875
351;1076.6805419921875
352;1076.087646484375
353;1075.497802734375
354;1074.910888671875
355;1074.3272705078125
356;1073.7457275390625
357;1073.1680908203125
358;1072.5938720703125
359;1072.022216796875
360;1071.452880859375
361;1070.8868408203125
362;1070.323486328125
363;1069.7625732421875
364;1069.20361328125
365;1068.6470947265625
366;1068.0931396484375
367;1067.54150390625
368;1066.9927978515625
369;1066.4459228515625
370;1065.9012451171875
371;1065.3592529296875
372;1064.8197021484375
373;1064.281982421875
374;1063.7459716796875
375;1063.2125244140625
376;1062.68115234375
377;1062.1510009765625
378;1061.6231689453125
379;1061.0975341796875
380;1060.573974609375
381;1060.0516357421875
382;1059.5311279296875
383;1059.0125732421875
384;1058.496337890625
385;1057.9818115234375
386;1057.468994140625
387;1056.9578857421875
388;1056.448486328125
389;1055.94091796875
390;1055.4349365234375
391;1054.9305419921875
392;1054.427978515625
393;1053.926513671875
394;1053.4266357421875
395;1052.9283447265625
396;1052.4320068359375
397;1051.9366455078125
398;1051.4437255859375
399;1050.951904296875
400;1050.462158203125
401;1049.9737548828125
402;1049.4873046875
403;1049.0018310546875
404;1048.5177001953125
405;1048.0350341796875
406;1047.553466796875
407;1047.0738525390625
408;1046.5955810546875
409;1046.1180419921875
410;1045.641845703125
411;1045.1671142578125
412;1044.6937255859375
413;1044.2216796875
414;1043.7506103515625
415;1043.281005859375
416;1042.81298828125
417;1042.345458984375
418;1041.8792724609375
419;1041.4146728515625
420;1040.95068359375
421;1040.4879150390625
422;1040.026123046875
423;1039.5655517578125
424;1039.10595703125
425;1038.6474609375
426;1038.1900634765625
427;1037.7337646484375
428;1037.2786865234375
429;1036.824462890625
430;1036.37109375
431;1035.9193115234375
432;1035.468017578125
433;1035.0177001953125
434;1034.5687255859375
435;1034.120361328125
436;1033.673095703125
437;1033.2271728515625
438;1032.7823486328125
439;1032.33837890625
440;1031.894775390625
441;1031.4522705078125
442;1031.0106201171875
443;1030.5697021484375
444;1030.1302490234375
445;1029.6912841796875
446;1029.2530517578125
447;1028.8160400390625
448;1028.3800048828125
449;1027.9447021484375
450;1027.51025390625
451;1027.0765380859375
452;1026.6436767578125
453;1026.2115478515625
454;1025.7799072265625
455;1025.3492431640625
456;1024.9195556640625
457;1024.4901123046875
458;1024.0614013671875
459;1023.6339721679688
460;1023.2072143554688
461;1022.7808837890625
462;1022.3555297851562
463;1021.9306640625
464;1021.5064086914062
465;1021.0833129882812
466;1020.6603393554688
467;1020.2386474609375
468;1019.8172607421875
469;1019.3967895507812
470;1018.9771728515625
471;1018.5581665039062
472;1018.1397705078125
473;1017.7222290039062
474;1017.3048095703125
475;1016.8881225585938
476;1016.4724731445312
477;1016.0574340820312
478;1015.642822265625
479;1015.2286376953125
480;1014.8154907226562
481;1014.4027099609375
482;1013.9906005859375
483;1013.5794067382812
484;1013.1690673828125
485;1012.7592163085938
486;1012.3497314453125
487;1011.9411010742188
488;1011.5330810546875
489;1011.1256713867188
490;1010.7188720703125
491;1010.3126220703125
492;1009.9070434570312
493;1009.5015869140625
494;1009.0971069335938
495;1008.6928100585938
496;1008.2891845703125
497;1007.8859252929688
498;1007.4833374023438
499;1007.0816650390625
500;1006.6803588867188
501;1006.2794799804688
502;1005.8790283203125
503;1005.4791259765625
504;1005.079833984375
505;1004.6809692382812
506;1004.2825927734375
507;1003.8848266601562
508;1003.4879150390625
509;1003.0914306640625
510;1002.6951904296875
511;1002.2994995117188
512;1001.9041748046875
513;1001.509521484375
514;1001.1156616210938
515;1000.7219848632812
516;1000.3291625976562
517;999.936767578125
518;999.5449829101562
519;999.1532592773438
520;998.7620849609375
521;998.3713989257812
522;997.9812622070312
523;997.5916748046875
524;997.2023315429688
525;996.8138427734375
526;996.4254150390625
527;996.0374755859375
528;995.650390625
529;995.2635498046875
530;994.8770751953125
531;994.4911499023438
532;994.1055908203125
533;993.7203369140625
534;993.3355712890625
535;992.9512329101562
536;992.5673217773438
537;992.1841430664062
538;991.801025390625
539;991.4187622070312
540;991.0364990234375
541;990.6546630859375
542;990.2733154296875
543;989.8923950195312
544;989.5118408203125
545;989.1317138671875
546;988.7523193359375
547;988.373046875
548;987.994384765625
549;987.6161499023438
550;987.2382202148438
551;986.8609008789062
552;986.4834594726562
553;986.1066284179688
554;985.7304077148438
555;985.3544311523438
556;984.9788818359375
557;984.6038818359375
558;984.2293701171875
559;983.8551025390625
560;983.4813842773438
561;983.1079711914062
562;982.734619140625
563;982.3622436523438
564;981.9898071289062
565;981.6178588867188
566;981.2462158203125
567;980.875
568;980.504150390625
569;980.1339721679688
570;979.7637939453125
571;979.3939819335938
572;979.0248413085938
573;978.6558837890625
574;978.2872314453125
575;977.9188842773438
576;977.5511474609375
577;977.1834716796875
578;976.8162231445312
579;976.449462890625
580;976.0829467773438
581;975.7168579101562
582;975.3511962890625
583;974.985595703125
584;974.6205444335938
585;974.255615234375
586;973.8909912109375
587;973.5267333984375
588;973.1631469726562
589;972.7994384765625
590;972.4361572265625
591;972.0733642578125
592;971.7108154296875
593;971.3485717773438
594;970.9866943359375
595;970.625
596;970.263671875
597;969.9026489257812
598;969.5419311523438
599;969.1817016601562
600;968.8216552734375
601;968.4619750976562
602;968.1026000976562
603;967.7434692382812
604;967.384765625
605;967.0261840820312
606;966.6680908203125
607;966.3104248046875
608;965.952880859375
609;965.5958251953125
610;965.2390747070312
611;964.8824462890625
612;964.5260620117188
613;964.169921875
614;963.8143310546875
615;963.4588623046875
616;963.1036376953125
617;962.7489624023438
618;962.39453125
619;962.0403442382812
620;961.6865234375
621;961.332763671875
622;960.9794311523438
623;960.6265258789062
624;960.273681640625
625;959.9210815429688
626;959.5689086914062
627;959.217041015625
628;958.865234375
629;958.513916015625
630;958.1626586914062
631;957.8116455078125
632;957.461181640625
633;957.1109008789062
634;956.7608032226562
635;956.4109497070312
636;956.0614013671875
637;955.712158203125
638;955.363037109375
639;955.0144653320312
640;954.666015625
641;954.3178100585938
642;953.9700317382812
643;953.6222534179688
644;953.2750854492188
645;952.9280395507812
646;952.5811157226562
647;952.2346801757812
648;951.8883056640625
649;951.5421752929688
650;951.1964721679688
651;950.8509521484375
652;950.5057983398438
653;950.160888671875
654;949.816162109375
655;949.4717407226562
656;949.1275024414062
657;948.783447265625
658;948.4396362304688
659;948.095947265625
660;947.752685546875
661;947.4096069335938
662;947.0670166015625
663;946.7245483398438
664;946.3824462890625
665;946.0404052734375
666;945.6986694335938
667;945.3570556640625
668;945.015869140625
669;944.6747436523438
670;944.3338623046875
671;943.9931640625
672;943.6530151367188
673;943.3128662109375
674;942.9732055664062
675;942.6334838867188
676;942.2940673828125
677;941.955078125
678;941.6161499023438
679;941.2774658203125
680;940.9389038085938
681;940.6007690429688
682;940.262939453125
683;939.9251098632812
684;939.587646484375
685;939.250244140625
686;938.9132690429688
687;938.5764770507812
688;938.2401123046875
689;937.9039306640625
690;937.5678100585938
691;937.2320556640625
692;936.8966064453125
693;936.5610961914062
694;936.2260131835938
695;935.8909301757812
696;935.5562744140625
697;935.2217407226562
698;934.8873901367188
699;934.5533447265625
700;934.2196044921875
701;933.8859252929688
702;933.552490234375
703;933.2192993164062
704;932.8863525390625
705;932.5536499023438
706;932.2210693359375
707;931.8887939453125
708;931.556640625
709;931.2247314453125
710;930.8929443359375
711;930.5614013671875
712;930.2301025390625
713;929.8989868164062
714;929.5679931640625
715;929.2374267578125
716;928.9070434570312
717;928.5768432617188
718;928.2467651367188
719;927.9169921875
720;927.5872192382812
721;927.2576904296875
722;926.9285278320312
723;926.5994262695312
724;926.2704467773438
725;925.941650390625
726;925.6131591796875
727;925.2847290039062
728;924.9564819335938
729;924.628662109375
730;924.301025390625
731;923.9735717773438
732;923.646484375
733;923.3191528320312
734;922.9922485351562
735;922.6656494140625
736;922.3389892578125
737;922.0126342773438
738;921.6864624023438
739;921.3605346679688
740;921.0347290039062
741;920.7091064453125
742;920.3837280273438
743;920.05859375
744;919.7334594726562
745;919.4085693359375
746;919.0838623046875
747;918.759521484375
748;918.435302734375
749;918.111328125
750;917.7874755859375
751;917.4636840820312
752;917.1400146484375
753;916.816650390625
754;916.4933471679688
755;916.1702880859375
756;915.8475341796875
757;915.5248413085938
758;915.2023315429688
759;914.8799438476562
760;914.5579223632812
761;914.2359619140625
762;913.9142456054688
763;913.5927124023438
764;913.2713012695312
765;912.9500122070312
766;912.6288452148438
767;912.3079223632812
768;911.9871215820312
769;911.6665649414062
770;911.3462524414062
771;911.0258178710938
772;910.705810546875
773;910.3858032226562
774;910.066162109375
775;909.7466430664062
776;909.4271850585938
777;909.1080322265625
778;908.7890014648438
779;908.4701538085938
780;908.1515502929688
781;907.8330688476562
782;907.5145874023438
783;907.1963500976562
784;906.8782958984375
785;906.5604248046875
786;906.2427368164062
787;905.9251708984375
788;905.6077880859375
789;905.2908325195312
790;904.9737548828125
791;904.6569213867188
792;904.3402709960938
793;904.0238647460938
794;903.707763671875
795;903.3915405273438
796;903.0756225585938
797;902.759765625
798;902.4441528320312
799;902.128662109375
800;901.8132934570312
801;901.4981689453125
802;901.183349609375
803;900.8685302734375
804;900.5537719726562
805;900.2394409179688
806;899.9251098632812
807;899.6109008789062
808;899.296875
809;898.9830322265625
810;898.669189453125
811;898.3556518554688
812;898.0423583984375
813;897.7293090820312
814;897.4163208007812
815;897.1034545898438
816;896.790771484375
817;896.4782104492188
818;896.1656494140625
819;895.853515625
820;895.5415649414062
821;895.2296142578125
822;894.9177856445312
823;894.6062622070312
824;894.2947387695312
825;893.9833374023438
826;893.672119140625
827;893.361083984375
828;893.0501098632812
829;892.7394409179688
830;892.4288940429688
831;892.1185302734375
832;891.808349609375
833;891.4983520507812
834;891.1882934570312
835;890.8785400390625
836;890.5687255859375
837;890.2592163085938
838;889.949951171875
839;889.6406860351562
840;889.3316650390625
841;889.022705078125
842;888.7139892578125
843;888.4053344726562
844;888.0968627929688
845;887.7885131835938
846;887.48046875
847;887.1724243164062
848;886.8644409179688
849;886.5567016601562
850;886.2491455078125
851;885.9415893554688
852;885.6343383789062
853;885.3270263671875
854;885.0199584960938
855;884.7130126953125
856;884.40625
857;884.099609375
858;883.7931518554688
859;883.4869995117188
860;883.1807250976562
861;882.8746337890625
862;882.5687255859375
863;882.2631225585938
864;881.9573974609375
865;881.6520385742188
866;881.3467407226562
867;881.0414428710938
868;880.7362670898438
869;880.431396484375
870;880.1265869140625
871;879.822021484375
872;879.5174560546875
873;879.2130126953125
874;878.9088134765625
875;878.6046752929688
876;878.30078125
877;877.9968872070312
878;877.6932373046875
879;877.3895874023438
880;877.086181640625
881;876.782958984375
882;876.4798583984375
883;876.1769409179688
884;875.8740844726562
885;875.5714721679688
886;875.2687377929688
887;874.9663696289062
888;874.6641235351562
889;874.3617553710938
890;874.0597534179688
891;873.7578125
892;873.4559936523438
893;873.1544189453125
894;872.8529663085938
895;872.5516357421875
896;872.250244140625
897;871.9491577148438
898;871.6480712890625
899;871.3472900390625
900;871.046630859375
901;870.7459716796875
902;870.4454956054688
903;870.1452026367188
904;869.8449096679688
905;869.544921875
906;869.2448120117188
907;868.9450073242188
908;868.6453247070312
909;868.3458251953125
910;868.0463256835938
911;867.7471313476562
912;867.447998046875
913;867.1489868164062
914;866.8500366210938
915;866.5511474609375
916;866.2525634765625
917;865.9540405273438
918;865.6555786132812
919;865.3574829101562
920;865.0593872070312
921;864.7614135742188
922;864.4635009765625
923;864.1658325195312
924;863.8681640625
925;863.5706787109375
926;863.2733154296875
927;862.9759521484375
928;862.6787719726562
929;862.3817749023438
930;862.0847778320312
931;861.7879638671875
932;861.4912719726562
933;861.1946411132812
934;860.8983764648438
935;860.6019897460938
936;860.3059692382812
937;860.0099487304688
938;859.7139892578125
939;859.418212890625
940;859.1226806640625
941;858.8270874023438
942;858.5316162109375
943;858.2363891601562
944;857.9412231445312
945;857.646240234375
946;857.3514404296875
947;857.0565185546875
948;856.7619018554688
949;856.4672241210938
950;856.1727905273438
951;855.8785400390625
952;855.5844116210938
953;855.2903442382812
954;854.996337890625
955;854.7024536132812
956;854.4088745117188
957;854.1152954101562
958;853.8218994140625
959;853.5285034179688
960;853.2352905273438
961;852.9421997070312
962;852.6492309570312
963;852.3564453125
964;852.0636596679688
965;851.7710571289062
966;851.478515625
967;851.1860961914062
968;850.8937377929688
969;850.6016845703125
970;850.3096313476562
971;850.0177001953125
972;849.725830078125
973;849.4341430664062
974;849.142578125
975;848.8511352539062
976;848.5596313476562
977;848.2683715820312
978;847.9772338867188
979;847.6860961914062
980;847.395263671875
981;847.1044921875
982;846.8137817382812
983;846.523193359375
984;846.232666015625
985;845.9425048828125
986;845.6524047851562
987;845.3622436523438
988;845.072265625
989;844.7824096679688
990;844.4927368164062
991;844.203125
992;843.9135131835938
993;843.6240844726562
994;843.3347778320312
995;843.0455932617188
996;842.7564086914062
997;842.467529296875
998;842.1786499023438
999;841.889892578125
1000;841.6013793945312
1001;841.3128662109375
1002;841.0244140625
1003;840.736083984375
1004;840.4478759765625
1005;840.159912109375
1006;839.8720092773438
1007;839.584228515625
1008;839.296630859375
1009;839.0089721679688
1010;838.7214965820312
1011;838.4341430664062
1012;838.1467895507812
1013;837.8595581054688
1014;837.572509765625
1015;837.2855224609375
1016;836.9987182617188
1017;836.7119750976562
1018;836.4254760742188
1019;836.1390380859375
1020;835.8527221679688
1021;835.56640625
1022;835.2801513671875
1023;834.9940185546875
1024;834.7080688476562
1025;834.4222412109375
1026;834.1365356445312
1027;833.8509521484375
1028;833.5653076171875
1029;833.2798461914062
1030;832.9945068359375
1031;832.709228515625
1032;832.4241943359375
1033;832.1392211914062
1034;831.8543090820312
1035;831.569580078125
1036;831.284912109375
1037;831.0003051757812
1038;830.7158813476562
1039;830.4315185546875
1040;830.1472778320312
1041;829.8631591796875
1042;829.5791625976562
1043;829.295166015625
1044;829.0113525390625
1045;828.7276000976562
1046;828.4439697265625
1047;828.160400390625
1048;827.876953125
1049;827.5938110351562
1050;827.3106079101562
1051;827.027587890625
1052;826.7445068359375
1053;826.4617309570312
1054;826.1788940429688
1055;825.896240234375
1056;825.6136474609375
1057;825.3311157226562
1058;825.0487670898438
1059;824.7664184570312
1060;824.4842529296875
1061;824.2022094726562
1062;823.920166015625
1063;823.638427734375
1064;823.3566284179688
1065;823.074951171875
1066;822.7933959960938
1067;822.511962890625
1068;822.23046875
1069;821.9493408203125
1070;821.6680908203125
1071;821.3870239257812
1072;821.106201171875
1073;820.8253784179688
1074;820.5447998046875
1075;820.2640380859375
1076;819.9835815429688
1077;819.7032470703125
1078;819.4229125976562
1079;819.1427001953125
1080;818.8624877929688
1081;818.5824584960938
1082;818.302490234375
1083;818.0227661132812
1084;817.7431030273438
1085;817.4634399414062
1086;817.183837890625
1087;816.9044189453125
1088;816.6251220703125
1089;816.3458251953125
1090;816.0667114257812
1091;815.7877197265625
1092;815.5087890625
1093;815.2298583984375
1094;814.951171875
1095;814.6726684570312
1096;814.3941040039062
1097;814.1156616210938
1098;813.8375244140625
1099;813.5591430664062
1100;813.2810668945312
1101;813.0029907226562
1102;812.7249755859375
1103;812.4471435546875
1104;812.1695556640625
1105;811.8919067382812
1106;811.6143188476562
1107;811.3368530273438
1108;811.0595703125
1109;810.7823486328125
1110;810.5051879882812
1111;810.2281494140625
1112;809.9511108398438
1113;809.6743774414062
1114;809.3975219726562
1115;809.1209106445312
1116;808.8442993164062
1117;808.5678100585938
1118;808.2913818359375
1119;808.0150756835938
1120;807.7390747070312
1121;807.4629516601562
1122;807.1868286132812
1123;806.9110717773438
1124;806.6353759765625
1125;806.359619140625
1126;806.0840454101562
1127;805.8085327148438
1128;805.533203125
1129;805.2578125
1130;804.982666015625
1131;804.7073974609375
1132;804.4324340820312
1133;804.1575317382812
1134;803.8826904296875
1135;803.6079711914062
1136;803.333251953125
1137;803.0587158203125
1138;802.7842407226562
1139;802.5098266601562
1140;802.2355346679688
1141;801.9613647460938
1142;801.6873168945312
1143;801.4133911132812
1144;801.1394653320312
1145;800.8656005859375
1146;800.5919189453125
1147;800.318359375
1148;800.0447998046875
1149;799.7713623046875
1150;799.4979858398438
1151;799.2246704101562
1152;798.9515380859375
1153;798.6785278320312
1154;798.405517578125
1155;798.1326293945312
1156;797.8598022460938
1157;797.5870971679688
1158;797.3145751953125
1159;797.0420532226562
1160;796.7695922851562
1161;796.497314453125
1162;796.2251586914062
1163;795.9530029296875
1164;795.6809692382812
1165;795.4090576171875
1166;795.1371459960938
1167;794.865478515625
1168;794.59375
1169;794.322265625
1170;794.05078125
1171;793.7794189453125
1172;793.5079956054688
1173;793.2368774414062
1174;792.9657592773438
1175;792.6946411132812
1176;792.4237060546875
1177;792.1530151367188
1178;791.8822631835938
1179;791.6116943359375
1180;791.341064453125
1181;791.0706787109375
1182;790.8003540039062
1183;790.530029296875
1184;790.259765625
1185;789.9898071289062
1186;789.7197875976562
1187;789.4498901367188
1188;789.1800537109375
1189;788.9102783203125
1190;788.6407470703125
1191;788.3711547851562
1192;788.1017456054688
1193;787.8323364257812
1194;787.5630493164062
1195;787.2938842773438
1196;787.0247802734375
1197;786.755859375
1198;786.4868774414062
1199;786.218017578125
1200;785.94921875
1201;785.6805419921875
1202;785.4119873046875
1203;785.1434326171875
1204;784.875
1205;784.6066284179688
1206;784.3384399414062
1207;784.0701904296875
1208;783.8021240234375
1209;783.5340576171875
1210;783.2661743164062
1211;782.9984130859375
1212;782.730712890625
1213;782.463134765625
1214;782.1956787109375
1215;781.9282836914062
1216;781.6609497070312
1217;781.3936157226562
1218;781.1265869140625
1219;780.8594970703125
1220;780.5924682617188
1221;780.3256225585938
1222;780.0587158203125
1223;779.7920532226562
1224;779.525390625
1225;779.2588500976562
1226;778.9923095703125
1227;778.7258911132812
1228;778.459716796875
1229;778.1934814453125
1230;777.9273681640625
1231;777.6613159179688
1232;777.3953247070312
1233;777.1294555664062
1234;776.8636474609375
1235;776.5977783203125
1236;776.3322143554688
1237;776.0667724609375
1238;775.8013305664062
1239;775.5360107421875
1240;775.2706909179688
1241;775.0054931640625
1242;774.7403564453125
1243;774.4754638671875
1244;774.2105712890625
1245;773.9456787109375
1246;773.6809692382812
1247;773.416259765625
1248;773.1516723632812
1249;772.8872680664062
1250;772.622802734375
1251;772.3584594726562
1252;772.0941772460938
1253;771.8301391601562
1254;771.5660400390625
1255;771.3019409179688
1256;771.0380249023438
1257;770.7742919921875
1258;770.5105590820312
1259;770.2469482421875
1260;769.9833984375
1261;769.7199096679688
1262;769.4564819335938
1263;769.1932373046875
1264;768.929931640625
1265;768.6669311523438
1266;768.4038696289062
1267;768.140869140625
1268;767.8779907226562
1269;767.615234375
1270;767.3526000976562
1271;767.0899047851562
1272;766.8273315429688
1273;766.5648193359375
1274;766.3025512695312
1275;766.0401611328125
1276;765.7780151367188
1277;765.515869140625
1278;765.2537841796875
1279;764.9918823242188
1280;764.7299194335938
1281;764.4682006835938
1282;764.2064819335938
1283;763.9449462890625
1284;763.683349609375
1285;763.421875
1286;763.160400390625
1287;762.899169921875
1288;762.6380004882812
1289;762.3768310546875
1290;762.1157836914062
1291;761.8548583984375
1292;761.5939331054688
1293;761.3331909179688
1294;761.072509765625
1295;760.8118286132812
1296;760.5513305664062
1297;760.290771484375
1298;760.0303955078125
1299;759.7700805664062
1300;759.5098876953125
1301;759.2496337890625
1302;758.9896850585938
1303;758.7296752929688
1304;758.4697875976562
1305;758.2099609375
1306;757.9502563476562
1307;757.6906127929688
1308;757.4310913085938
1309;757.1715698242188
1310;756.912109375
1311;756.6527099609375
1312;756.3934936523438
1313;756.1343994140625
1314;755.8753051757812
1315;755.6162719726562
1316;755.3573608398438
1317;755.0984497070312
1318;754.8397216796875
1319;754.5810546875
1320;754.3224487304688
1321;754.0639038085938
1322;753.8054809570312
1323;753.5470581054688
1324;753.288818359375
1325;753.0305786132812
1326;752.7724609375
1327;752.5144653320312
1328;752.2565307617188
1329;751.9985961914062
1330;751.7409057617188
1331;751.4832153320312
1332;751.2255249023438
1333;750.9679565429688
1334;750.7105712890625
1335;750.453125
1336;750.1956787109375
1337;749.9385375976562
1338;749.6812744140625
1339;749.4242553710938
1340;749.1671752929688
1341;748.9102783203125
1342;748.6533813476562
1343;748.3966064453125
1344;748.1399536132812
1345;747.8834228515625
1346;747.6268310546875
1347;747.3704223632812
1348;747.1140747070312
1349;746.8577270507812
1350;746.6015625
1351;746.3453979492188
1352;746.0892944335938
1353;745.8333129882812
1354;745.5774536132812
1355;745.3215942382812
1356;745.0658569335938
1357;744.810302734375
1358;744.5546875
1359;744.2991943359375
1360;744.0437622070312
1361;743.7883911132812
1362;743.533203125
1363;743.2780151367188
1364;743.0228881835938
1365;742.767822265625
1366;742.5128784179688
1367;742.2579956054688
1368;742.003173828125
1369;741.7484130859375
1370;741.4938354492188
1371;741.2393188476562
1372;740.9847412109375
1373;740.7303466796875
1374;740.4760131835938
1375;740.2218017578125
1376;739.9675903320312
1377;739.7135620117188
1378;739.4594116210938
1379;739.2054443359375
1380;738.9515380859375
1381;738.6979370117188
1382;738.4441528320312
1383;738.1905517578125
1384;737.9369506835938
1385;737.68359375
1386;737.4302368164062
1387;737.1769409179688
1388;736.9237060546875
1389;736.6704711914062
1390;736.4172973632812
1391;736.1643676757812
1392;735.9114379882812
1393;735.6585693359375
1394;735.4058837890625
1395;735.1531372070312
1396;734.9005126953125
1397;734.6480102539062
1398;734.3954467773438
1399;734.1431274414062
1400;733.8907470703125
1401;733.6385498046875
1402;733.3862915039062
1403;733.1342163085938
1404;732.8821411132812
1405;732.6302490234375
1406;732.3783569335938
1407;732.1265869140625
1408;731.8748779296875
1409;731.6231689453125
1410;731.3716430664062
1411;731.1200561523438
1412;730.8687744140625
1413;730.6173095703125
1414;730.3660278320312
1415;730.1148681640625
1416;729.8637084960938
1417;729.6126708984375
1418;729.3616333007812
1419;729.1107788085938
1420;728.8599853515625
1421;728.6092529296875
1422;728.3585815429688
1423;728.1080322265625
1424;727.8574829101562
1425;727.6071166992188
1426;727.356689453125
1427;727.1063842773438
1428;726.8562622070312
1429;726.6061401367188
1430;726.3560791015625
1431;726.1060791015625
1432;725.8561401367188
1433;725.6062622070312
1434;725.3565063476562
1435;725.1067504882812
1436;724.857177734375
1437;724.6075439453125
1438;724.3580932617188
1439;724.1087646484375
1440;723.8594970703125
1441;723.6102905273438
1442;723.3610229492188
1443;723.1119995117188
1444;722.8629150390625
1445;722.6140747070312
1446;722.3651123046875
1447;722.1163940429688
1448;721.8676147460938
1449;721.6190185546875
1450;721.3704223632812
1451;721.1219482421875
1452;720.8734741210938
1453;720.6251220703125
1454;720.3768920898438
1455;720.128662109375
1456;719.8804931640625
1457;719.6324462890625
1458;719.384521484375
1459;719.1365356445312
1460;718.8887939453125
1461;718.6409912109375
1462;718.3932495117188
1463;718.1456298828125
1464;717.8980712890625
1465;717.6505737304688
1466;717.4032592773438
1467;717.1558837890625
1468;716.9087524414062
1469;716.6614379882812
1470;716.414306640625
1471;716.167236328125
1472;715.9202880859375
1473;715.6734619140625
1474;715.4266967773438
1475;715.1798706054688
1476;714.9332275390625
1477;714.6865844726562
1478;714.4401245117188
1479;714.1935424804688
1480;713.947265625
1481;713.700927734375
1482;713.4546508789062
1483;713.2084350585938
1484;712.9624633789062
1485;712.7164306640625
1486;712.470458984375
1487;712.224609375
1488;711.978759765625
1489;711.7330322265625
1490;711.4874267578125
1491;711.2418212890625
1492;710.9962158203125
1493;710.7507934570312
1494;710.5054931640625
1495;710.2601318359375
1496;710.0149536132812
1497;709.7698974609375
1498;709.5247802734375
1499;709.2798461914062
1500;709.0348510742188
1501;708.7899780273438
1502;708.545166015625
1503;708.300537109375
1504;708.0557861328125
1505;707.811279296875
1506;707.566650390625
1507;707.3223266601562
1508;707.0780029296875
1509;706.8336181640625
1510;706.5894775390625
1511;706.3453369140625
1512;706.101318359375
1513;705.8572998046875
1514;705.6133422851562
1515;705.3694458007812
1516;705.1256713867188
1517;704.8818969726562
1518;704.6383056640625
1519;704.394775390625
1520;704.1511840820312
1521;703.9078369140625
1522;703.6644287109375
1523;703.4210815429688
1524;703.1779174804688
1525;702.9347534179688
1526;702.6917114257812
1527;702.4486694335938
1528;702.2057495117188
1529;701.962890625
1530;701.7200927734375
1531;701.4773559570312
1532;701.2346801757812
1533;700.9920654296875
1534;700.7496337890625
1535;700.5071411132812
1536;700.2647094726562
1537;700.0225219726562
1538;699.7802734375
1539;699.5381469726562
1540;699.2959594726562
1541;699.0538940429688
1542;698.8120727539062
1543;698.5701904296875
1544;698.328369140625
1545;698.086669921875
1546;697.8449096679688
1547;697.6033935546875
1548;697.3618774414062
1549;697.1204223632812
1550;696.8790283203125
1551;696.6377563476562
1552;696.396484375
1553;696.1553344726562
1554;695.9141845703125
1555;695.6731567382812
1556;695.4321899414062
1557;695.1912841796875
1558;694.950439453125
1559;694.7096557617188
1560;694.468994140625
1561;694.2283935546875
1562;693.9877319335938
1563;693.7472534179688
1564;693.5068969726562
1565;693.2666015625
1566;693.0263061523438
1567;692.7860717773438
1568;692.5458374023438
1569;692.3058471679688
1570;692.0657958984375
1571;691.825927734375
1572;691.5859985351562
1573;691.3462524414062
1574;691.1065063476562
1575;690.8668823242188
1576;690.627197265625
1577;690.3877563476562
1578;690.1483154296875
1579;689.9088745117188
1580;689.6695556640625
1581;689.4303588867188
1582;689.1911010742188
1583;688.9520263671875
1584;688.712890625
1585;688.4739379882812
1586;688.2350463867188
1587;687.9962158203125
1588;687.7574462890625
1589;687.5187377929688
1590;687.2800903320312
1591;687.0415649414062
1592;686.8031005859375
1593;686.5646362304688
1594;686.3262939453125
1595;686.0880737304688
1596;685.849853515625
1597;685.6116333007812
1598;685.3735961914062
1599;685.1355590820312
1600;684.8976440429688
1601;684.6598510742188
1602;684.4219360351562
1603;684.1842651367188
1604;683.9465942382812
1605;683.708984375
1606;683.471435546875
1607;683.2340087890625
1608;682.9966430664062
1609;682.7592163085938
1610;682.5220336914062
1611;682.2847900390625
1612;682.0476684570312
1613;681.810546875
1614;681.5735473632812
1615;681.3366088867188
1616;681.0997314453125
1617;680.863037109375
1618;680.626220703125
1619;680.3896484375
1620;680.1530151367188
1621;679.9164428710938
1622;679.6800537109375
1623;679.443603515625
1624;679.207275390625
1625;678.970947265625
1626;678.7347412109375
1627;678.4987182617188
1628;678.2626953125
1629;678.026611328125
1630;677.790771484375
1631;677.5548706054688
1632;677.3191528320312
1633;677.0834350585938
1634;676.8477172851562
1635;676.6121215820312
1636;676.3766479492188
1637;676.1411743164062
1638;675.9058837890625
1639;675.6705932617188
1640;675.435302734375
1641;675.2001342773438
1642;674.9650268554688
1643;674.7298583984375
1644;674.4949340820312
1645;674.260009765625
1646;674.025146484375
1647;673.7903442382812
1648;673.5556640625
1649;673.321044921875
1650;673.0864868164062
1651;672.8518676757812
1652;672.617431640625
1653;672.383056640625
1654;672.148681640625
1655;671.9144287109375
1656;671.6803588867188
1657;671.4462280273438
1658;671.212158203125
1659;670.978271484375
1660;670.7442626953125
1661;670.5104370117188
1662;670.2766723632812
1663;670.0429077148438
1664;669.8092651367188
1665;669.5756225585938
1666;669.3421630859375
1667;669.1087036132812
1668;668.875244140625
1669;668.6419067382812
1670;668.4087524414062
1671;668.175537109375
1672;667.9423217773438
1673;667.7092895507812
1674;667.4762573242188
1675;667.2433471679688
1676;667.0105590820312
1677;666.7776489257812
1678;666.544921875
1679;666.312255859375
1680;666.0796508789062
1681;665.8470458984375
1682;665.6145629882812
1683;665.3821411132812
1684;665.1498413085938
1685;664.9176025390625
1686;664.685302734375
1687;664.4531860351562
1688;664.2211303710938
1689;663.9890747070312
1690;663.7572631835938
1691;663.5253295898438
1692;663.2935180664062
1693;663.0617065429688
1694;662.830078125
1695;662.5984497070312
1696;662.3668212890625
1697;662.1353759765625
1698;661.9039306640625
1699;661.6725463867188
1700;661.4412841796875
1701;661.2100219726562
1702;660.9788818359375
1703;660.747802734375
1704;660.5166625976562
1705;660.2857055664062
1706;660.0548095703125
1707;659.823974609375
1708;659.5932006835938
1709;659.3624267578125
1710;659.1317749023438
1711;658.9013061523438
1712;658.6707153320312
1713;658.4402465820312
1714;658.2098388671875
1715;657.9795532226562
1716;657.7492065429688
1717;657.5189819335938
1718;657.2888793945312
1719;657.058837890625
1720;656.828857421875
1721;656.598876953125
1722;656.3690185546875
1723;656.1392211914062
1724;655.909423828125
1725;655.6797485351562
1726;655.4501342773438
1727;655.2205810546875
1728;654.9910278320312
1729;654.7616577148438
1730;654.5322265625
1731;654.3029174804688
1732;654.0736694335938
1733;653.8445434570312
1734;653.6153564453125
1735;653.3864135742188
1736;653.1574096679688
1737;652.928466796875
1738;652.6995849609375
1739;652.470703125
1740;652.2420654296875
1741;652.013427734375
1742;651.7847900390625
1743;651.5562744140625
1744;651.3278198242188
1745;651.0994262695312
1746;650.87109375
1747;650.642822265625
1748;650.4146118164062
1749;650.1864624023438
1750;649.9583129882812
1751;649.7303466796875
1752;649.5023193359375
1753;649.2744750976562
1754;649.0466918945312
1755;648.8189086914062
1756;648.5912475585938
1757;648.3635864257812
1758;648.135986328125
1759;647.908447265625
1760;647.6810302734375
1761;647.4536743164062
1762;647.226318359375
1763;646.9990234375
1764;646.7717895507812
1765;646.544677734375
1766;646.3175659179688
1767;646.0906372070312
1768;645.8635864257812
1769;645.63671875
1770;645.409912109375
1771;645.1830444335938
1772;644.9564208984375
1773;644.7297973632812
1774;644.5032348632812
1775;644.2766723632812
1776;644.0502319335938
1777;643.8239135742188
1778;643.59765625
1779;643.3712768554688
1780;643.1451416015625
1781;642.9189453125
1782;642.6929321289062
1783;642.4668579101562
1784;642.240966796875
1785;642.0150756835938
1786;641.7892456054688
1787;641.5635375976562
1788;641.3377685546875
1789;641.1121215820312
1790;640.8865966796875
1791;640.6610717773438
1792;640.4356079101562
1793;640.210205078125
1794;639.9849243164062
1795;639.7596435546875
1796;639.5344848632812
1797;639.3093872070312
1798;639.0843505859375
1799;638.8593139648438
1800;638.6343383789062
1801;638.409423828125
1802;638.1846313476562
1803;637.9598388671875
1804;637.7351684570312
1805;637.5105590820312
1806;637.2860107421875
1807;637.0614624023438
1808;636.8369750976562
1809;636.6126098632812
1810;636.3883056640625
1811;636.1640625
1812;635.9398193359375
1813;635.7156982421875
1814;635.4915771484375
1815;635.2676391601562
1816;635.0436401367188
1817;634.8197631835938
1818;634.595947265625
1819;634.3721923828125
1820;634.1484985351562
1821;633.9248657226562
1822;633.7012939453125
1823;633.4777221679688
1824;633.2542724609375
1825;633.0308837890625
1826;632.8075561523438
1827;632.584228515625
1828;632.361083984375
1829;632.1378173828125
1830;631.914794921875
1831;631.6917724609375
1832;631.4688110351562
1833;631.2459106445312
1834;631.0230712890625
1835;630.8002319335938
1836;630.5775146484375
1837;630.3548583984375
1838;630.1322021484375
1839;629.9097900390625
1840;629.6871948242188
1841;629.46484375
1842;629.242431640625
1843;629.0201416015625
1844;628.7979125976562
1845;628.5758056640625
1846;628.3536376953125
1847;628.131591796875
1848;627.9095458984375
1849;627.6876220703125
1850;627.4658203125
1851;627.2439575195312
1852;627.0222778320312
1853;626.800537109375
1854;626.5789184570312
1855;626.3573608398438
1856;626.1358032226562
1857;625.9144287109375
1858;625.6930541992188
1859;625.4717407226562
1860;625.2503662109375
1861;625.029296875
1862;624.8081665039062
1863;624.5869750976562
1864;624.365966796875
1865;624.1450805664062
1866;623.9241333007812
1867;623.7033081054688
1868;623.4825439453125
1869;623.2618408203125
1870;623.0411987304688
1871;622.8206176757812
1872;622.6001586914062
1873;622.3796997070312
1874;622.1592407226562
1875;621.9389038085938
1876;621.7186279296875
1877;621.498291015625
1878;621.2782592773438
1879;621.0581665039062
1880;620.8380126953125
1881;620.6181030273438
1882;620.398193359375
1883;620.1783447265625
1884;619.9584350585938
1885;619.7387084960938
1886;619.5189819335938
1887;619.2993774414062
1888;619.079833984375
1889;618.8602905273438
1890;618.6409301757812
1891;618.4215698242188
1892;618.2022094726562
1893;617.9829711914062
1894;617.7637329101562
1895;617.544677734375
1896;617.3255004882812
1897;617.1065673828125
1898;616.8875732421875
1899;616.668701171875
1900;616.4497680664062
1901;616.2310791015625
1902;616.0123291015625
1903;615.7936401367188
1904;615.5750732421875
1905;615.3565673828125
1906;615.1380615234375
1907;614.919677734375
1908;614.7012939453125
1909;614.4830322265625
1910;614.2647705078125
1911;614.046630859375
1912;613.8284301757812
1913;613.6104125976562
1914;613.3924560546875
1915;613.1744995117188
1916;612.9566650390625
1917;612.7388305664062
1918;612.5210571289062
1919;612.3034057617188
1920;612.0857543945312
1921;611.8681030273438
1922;611.6505737304688
1923;611.4330444335938
1924;611.2156982421875
1925;610.9983520507812
1926;610.7810668945312
1927;610.5637817382812
1928;610.3466186523438
1929;610.1295166015625
1930;609.9124755859375
1931;609.695556640625
1932;609.4785766601562
1933;609.2616577148438
1934;609.0448608398438
1935;608.828125
1936;608.6114501953125
1937;608.3948364257812
1938;608.1782836914062
1939;607.9617309570312
1940;607.7451782226562
1941;607.5289306640625
1942;607.3125
1943;607.0962524414062
1944;606.8800048828125
1945;606.663818359375
1946;606.4476928710938
1947;606.2316284179688
1948;606.015625
1949;605.7997436523438
1950;605.5838623046875
1951;605.3679809570312
1952;605.1522827148438
1953;604.9365234375
1954;604.7208862304688
1955;604.5053100585938
1956;604.289794921875
1957;604.0743408203125
1958;603.8589477539062
1959;603.6436767578125
1960;603.4283447265625
1961;603.2130737304688
1962;602.9979248046875
1963;602.7828369140625
1964;602.5677490234375
1965;602.3527221679688
1966;602.1378784179688
1967;601.9230346679688
1968;601.7081909179688
1969;601.4933471679688
1970;601.2786865234375
1971;601.0640258789062
1972;600.8494262695312
1973;600.6348876953125
1974;600.4204711914062
1975;600.2060546875
1976;599.9917602539062
1977;599.7774658203125
1978;599.5631713867188
1979;599.3489379882812
1980;599.1348876953125
1981;598.9208374023438
1982;598.706787109375
1983;598.492919921875
1984;598.2789916992188
1985;598.0651245117188
1986;597.851318359375
1987;597.6376342773438
1988;597.4239501953125
1989;597.2103271484375
1990;596.9968872070312
1991;596.7833251953125
1992;596.5699462890625
1993;596.3565063476562
1994;596.1432495117188
1995;595.9299926757812
1996;595.716796875
1997;595.503662109375
1998;595.2906494140625
1999;595.0775756835938
