;loss
0;1409.5301513671875
1;1408.913330078125
2;1408.3839111328125
3;1407.7677001953125
4;1407.15185546875
5;1406.53662109375
6;1405.9217529296875
7;1405.3203125
8;1404.71484375
9;1404.1068115234375
10;1403.496337890625
11;1402.883056640625
12;1402.270263671875
13;1401.6553955078125
14;1401.0390625
15;1400.421875
16;1399.8033447265625
17;1399.183349609375
18;1398.562255859375
19;1397.9395751953125
20;1397.32177734375
21;1396.69580078125
22;1396.074951171875
23;1395.4453125
24;1394.821044921875
25;1394.1949462890625
26;1393.559326171875
27;1392.921875
28;1392.281982421875
29;1391.6473388671875
30;1391.003173828125
31;1390.3643798828125
32;1389.7154541015625
33;1389.0643310546875
34;1388.4107666015625
35;1387.7550048828125
36;1387.1038818359375
37;1386.4503173828125
38;1385.7940673828125
39;1385.1351318359375
40;1384.466796875
41;1383.7957763671875
42;1383.1224365234375
43;1382.453125
44;1381.774169921875
45;1381.0997314453125
46;1380.4156494140625
47;1379.72900390625
48;1379.046142578125
49;1378.3541259765625
50;1377.6595458984375
51;1376.962158203125
52;1376.2620849609375
53;1375.5653076171875
54;1374.860107421875
55;1374.15185546875
56;1373.4410400390625
57;1372.727294921875
58;1372.0167236328125
59;1371.297607421875
60;1370.575927734375
61;1369.8568115234375
62;1369.129638671875
63;1368.4049072265625
64;1367.672119140625
65;1366.936767578125
66;1366.198486328125
67;1365.45751953125
68;1364.7137451171875
69;1363.96728515625
70;1363.218017578125
71;1362.4710693359375
72;1361.7161865234375
73;1360.9583740234375
74;1360.2027587890625
75;1359.4395751953125
76;1358.6781005859375
77;1357.9139404296875
78;1357.1468505859375
79;1356.3724365234375
80;1355.5948486328125
81;1354.8145751953125
82;1354.031494140625
83;1353.245361328125
84;1352.456298828125
85;1351.664306640625
86;1350.8736572265625
87;1350.0802001953125
88;1349.2791748046875
89;1348.4752197265625
90;1347.668212890625
91;1346.8582763671875
92;1346.04541015625
93;1345.2293701171875
94;1344.414306640625
95;1343.5963134765625
96;1342.77099609375
97;1341.9425048828125
98;1341.11083984375
99;1340.27587890625
100;1339.437744140625
101;1338.5963134765625
102;1337.7518310546875
103;1336.9036865234375
104;1336.05615234375
105;1335.205078125
106;1334.346923828125
107;1333.485107421875
108;1332.6197509765625
109;1331.7547607421875
110;1330.88623046875
111;1330.0101318359375
112;1329.130615234375
113;1328.2474365234375
114;1327.3604736328125
115;1326.473388671875
116;1325.58251953125
117;1324.687744140625
118;1323.789306640625
119;1322.883056640625
120;1321.9730224609375
121;1321.0625
122;1320.144287109375
123;1319.2220458984375
124;1318.2955322265625
125;1317.3651123046875
126;1316.43017578125
127;1315.4910888671875
128;1314.547607421875
129;1313.5997314453125
130;1312.6507568359375
131;1311.6937255859375
132;1310.732177734375
133;1309.765869140625
134;1308.7950439453125
135;1307.82275390625
136;1306.8424072265625
137;1305.8570556640625
138;1304.8665771484375
139;1303.87109375
140;1302.87060546875
141;1301.8682861328125
142;1300.8607177734375
143;1299.84765625
144;1298.8262939453125
145;1297.79931640625
146;1296.7669677734375
147;1295.72900390625
148;1294.6856689453125
149;1293.636474609375
150;1292.581787109375
151;1291.5211181640625
152;1290.454833984375
153;1289.3856201171875
154;1288.3106689453125
155;1287.2296142578125
156;1286.142333984375
157;1285.048828125
158;1283.9459228515625
159;1282.8365478515625
160;1281.7210693359375
161;1280.5989990234375
162;1279.47021484375
163;1278.3382568359375
164;1277.2017822265625
165;1276.0625
166;1274.913818359375
167;1273.76171875
168;1272.6031494140625
169;1271.43798828125
170;1270.2630615234375
171;1269.0814208984375
172;1267.8961181640625
173;1266.703857421875
174;1265.501953125
175;1264.293212890625
176;1263.0806884765625
177;1261.8582763671875
178;1260.632080078125
179;1259.3988037109375
180;1258.1590576171875
181;1256.9090576171875
182;1255.656005859375
183;1254.3961181640625
184;1253.126220703125
185;1251.8526611328125
186;1250.5692138671875
187;1249.279296875
188;1247.9825439453125
189;1246.6793212890625
190;1245.3726806640625
191;1244.0562744140625
192;1242.73388671875
193;1241.407958984375
194;1240.076171875
195;1238.740478515625
196;1237.3958740234375
197;1236.0457763671875
198;1234.693115234375
199;1233.33544921875
200;1231.9732666015625
201;1230.6072998046875
202;1229.241943359375
203;1227.876220703125
204;1226.5137939453125
205;1225.1507568359375
206;1223.784423828125
207;1222.4119873046875
208;1221.0379638671875
209;1219.6654052734375
210;1218.294921875
211;1216.93017578125
212;1215.563720703125
213;1214.1929931640625
214;1212.82080078125
215;1211.4503173828125
216;1210.0784912109375
217;1208.7056884765625
218;1207.329345703125
219;1205.952392578125
220;1204.577880859375
221;1203.203125
222;1201.8338623046875
223;1200.4754638671875
224;1199.11865234375
225;1197.76904296875
226;1196.4215087890625
227;1195.079345703125
228;1193.738037109375
229;1192.4000244140625
230;1191.0648193359375
231;1189.733154296875
232;1188.40576171875
233;1187.0843505859375
234;1185.770263671875
235;1184.462646484375
236;1183.1651611328125
237;1181.879150390625
238;1180.6015625
239;1179.3299560546875
240;1178.06201171875
241;1176.7999267578125
242;1175.546142578125
243;1174.2984619140625
244;1173.05517578125
245;1171.8182373046875
246;1170.5880126953125
247;1169.3690185546875
248;1168.1549072265625
249;1166.948974609375
250;1165.752685546875
251;1164.5628662109375
252;1163.3841552734375
253;1162.2125244140625
254;1161.048583984375
255;1159.8944091796875
256;1158.748291015625
257;1157.6109619140625
258;1156.48193359375
259;1155.3592529296875
260;1154.24658203125
261;1153.146728515625
262;1152.0562744140625
263;1150.974609375
264;1149.906494140625
265;1148.853271484375
266;1147.8082275390625
267;1146.7781982421875
268;1145.7581787109375
269;1144.7471923828125
270;1143.744873046875
271;1142.7513427734375
272;1141.7645263671875
273;1140.786376953125
274;1139.820068359375
275;1138.8682861328125
276;1137.925537109375
277;1136.9927978515625
278;1136.0718994140625
279;1135.16015625
280;1134.256591796875
281;1133.3643798828125
282;1132.4818115234375
283;1131.60693359375
284;1130.7408447265625
285;1129.88427734375
286;1129.03466796875
287;1128.1922607421875
288;1127.35546875
289;1126.5267333984375
290;1125.70361328125
291;1124.8890380859375
292;1124.0794677734375
293;1123.2760009765625
294;1122.4798583984375
295;1121.688232421875
296;1120.9027099609375
297;1120.1226806640625
298;1119.349853515625
299;1118.5836181640625
300;1117.82275390625
301;1117.0687255859375
302;1116.320556640625
303;1115.5777587890625
304;1114.843017578125
305;1114.1151123046875
306;1113.3924560546875
307;1112.673583984375
308;1111.960693359375
309;1111.2510986328125
310;1110.547119140625
311;1109.848876953125
312;1109.1549072265625
313;1108.4644775390625
314;1107.779052734375
315;1107.0989990234375
316;1106.423095703125
317;1105.750732421875
318;1105.0816650390625
319;1104.417236328125
320;1103.7567138671875
321;1103.0999755859375
322;1102.4466552734375
323;1101.797607421875
324;1101.151611328125
325;1100.5093994140625
326;1099.87060546875
327;1099.234130859375
328;1098.602294921875
329;1097.9742431640625
330;1097.34912109375
331;1096.72705078125
332;1096.108154296875
333;1095.4923095703125
334;1094.8792724609375
335;1094.2698974609375
336;1093.6632080078125
337;1093.059326171875
338;1092.458251953125
339;1091.8590087890625
340;1091.264404296875
341;1090.67333984375
342;1090.0850830078125
343;1089.4991455078125
344;1088.915771484375
345;1088.333984375
346;1087.7557373046875
347;1087.1796875
348;1086.605224609375
349;1086.03369140625
350;1085.4644775390625
351;1084.897216796875
352;1084.332275390625
353;1083.7694091796875
354;1083.20849609375
355;1082.6495361328125
356;1082.092529296875
357;1081.53759765625
358;1080.9840087890625
359;1080.432861328125
360;1079.883056640625
361;1079.3358154296875
362;1078.79052734375
363;1078.2476806640625
364;1077.7061767578125
365;1077.1671142578125
366;1076.6297607421875
367;1076.0943603515625
368;1075.5609130859375
369;1075.0301513671875
370;1074.5003662109375
371;1073.9730224609375
372;1073.447509765625
373;1072.9234619140625
374;1072.4010009765625
375;1071.8795166015625
376;1071.359619140625
377;1070.84130859375
378;1070.324462890625
379;1069.80908203125
380;1069.295654296875
381;1068.78369140625
382;1068.2733154296875
383;1067.7642822265625
384;1067.2564697265625
385;1066.7496337890625
386;1066.244873046875
387;1065.74072265625
388;1065.23779296875
389;1064.7362060546875
390;1064.236572265625
391;1063.7379150390625
392;1063.24072265625
393;1062.7454833984375
394;1062.251220703125
395;1061.758544921875
396;1061.266845703125
397;1060.7767333984375
398;1060.2872314453125
399;1059.799560546875
400;1059.3128662109375
401;1058.8275146484375
402;1058.3426513671875
403;1057.8597412109375
404;1057.3773193359375
405;1056.89599609375
406;1056.415771484375
407;1055.9366455078125
408;1055.4586181640625
409;1054.981689453125
410;1054.5059814453125
411;1054.03125
412;1053.5576171875
413;1053.0849609375
414;1052.6134033203125
415;1052.1431884765625
416;1051.674072265625
417;1051.205810546875
418;1050.73876953125
419;1050.27197265625
420;1049.8067626953125
421;1049.3421630859375
422;1048.87841796875
423;1048.4158935546875
424;1047.9537353515625
425;1047.492431640625
426;1047.03271484375
427;1046.5738525390625
428;1046.11572265625
429;1045.658447265625
430;1045.20263671875
431;1044.7476806640625
432;1044.2935791015625
433;1043.83984375
434;1043.387451171875
435;1042.9359130859375
436;1042.4847412109375
437;1042.0347900390625
438;1041.5858154296875
439;1041.137451171875
440;1040.690185546875
441;1040.24365234375
442;1039.798095703125
443;1039.3531494140625
444;1038.9091796875
445;1038.4659423828125
446;1038.0235595703125
447;1037.5814208984375
448;1037.140625
449;1036.700439453125
450;1036.2606201171875
451;1035.822021484375
452;1035.3841552734375
453;1034.947021484375
454;1034.5107421875
455;1034.0745849609375
456;1033.6397705078125
457;1033.20556640625
458;1032.771728515625
459;1032.3387451171875
460;1031.906494140625
461;1031.4749755859375
462;1031.0443115234375
463;1030.614013671875
464;1030.1846923828125
465;1029.755859375
466;1029.327880859375
467;1028.9005126953125
468;1028.4742431640625
469;1028.0484619140625
470;1027.6234130859375
471;1027.19873046875
472;1026.7750244140625
473;1026.3519287109375
474;1025.9293212890625
475;1025.5072021484375
476;1025.085693359375
477;1024.6651611328125
478;1024.2449951171875
479;1023.825439453125
480;1023.4064331054688
481;1022.9884643554688
482;1022.571044921875
483;1022.1541748046875
484;1021.7379760742188
485;1021.3218994140625
486;1020.906494140625
487;1020.4920654296875
488;1020.0782470703125
489;1019.6649169921875
490;1019.2520141601562
491;1018.8395385742188
492;1018.4280395507812
493;1018.0171508789062
494;1017.606689453125
495;1017.1968994140625
496;1016.7871704101562
497;1016.3781127929688
498;1015.9698486328125
499;1015.562255859375
500;1015.1547241210938
501;1014.7478637695312
502;1014.3416748046875
503;1013.935791015625
504;1013.5308227539062
505;1013.1262817382812
506;1012.7222900390625
507;1012.3184814453125
508;1011.9154663085938
509;1011.5130004882812
510;1011.1106567382812
511;1010.7092895507812
512;1010.308349609375
513;1009.9075927734375
514;1009.5073852539062
515;1009.107666015625
516;1008.7084350585938
517;1008.3096313476562
518;1007.9117431640625
519;1007.5143432617188
520;1007.1175537109375
521;1006.7210693359375
522;1006.3253784179688
523;1005.9301147460938
524;1005.535400390625
525;1005.1412963867188
526;1004.7474975585938
527;1004.3539428710938
528;1003.9613037109375
529;1003.5691528320312
530;1003.1771850585938
531;1002.7857666015625
532;1002.3951416015625
533;1002.0049438476562
534;1001.6149291992188
535;1001.2252807617188
536;1000.836181640625
537;1000.447509765625
538;1000.0592651367188
539;999.671875
540;999.2847290039062
541;998.8978271484375
542;998.5113525390625
543;998.1253662109375
544;997.7400512695312
545;997.3549194335938
546;996.9701538085938
547;996.5858154296875
548;996.2020874023438
549;995.8189086914062
550;995.435791015625
551;995.0538330078125
552;994.6722412109375
553;994.290771484375
554;993.9096069335938
555;993.5293579101562
556;993.1491088867188
557;992.769287109375
558;992.3898315429688
559;992.0109252929688
560;991.6322631835938
561;991.2542724609375
562;990.8764038085938
563;990.4993286132812
564;990.1222534179688
565;989.7457275390625
566;989.3698120117188
567;988.9942626953125
568;988.618896484375
569;988.2437744140625
570;987.869384765625
571;987.4954223632812
572;987.1214599609375
573;986.748046875
574;986.375
575;986.0025634765625
576;985.6303100585938
577;985.2584838867188
578;984.8870849609375
579;984.5158081054688
580;984.1450805664062
581;983.7744750976562
582;983.404541015625
583;983.0349731445312
584;982.6654663085938
585;982.296630859375
586;981.9280395507812
587;981.5596313476562
588;981.1917724609375
589;980.82421875
590;980.4569091796875
591;980.090087890625
592;979.7235717773438
593;979.3577270507812
594;978.9921875
595;978.6267700195312
596;978.26171875
597;977.8970947265625
598;977.532958984375
599;977.1690063476562
600;976.8054809570312
601;976.4421997070312
602;976.0795288085938
603;975.7171630859375
604;975.3552856445312
605;974.9933471679688
606;974.6317138671875
607;974.2706909179688
608;973.909912109375
609;973.549560546875
610;973.1893310546875
611;972.8292236328125
612;972.4696655273438
613;972.1103515625
614;971.7512817382812
615;971.3927001953125
616;971.0346069335938
617;970.676513671875
618;970.3190307617188
619;969.9619140625
620;969.6048583984375
621;969.2481689453125
622;968.8917846679688
623;968.5357055664062
624;968.1798095703125
625;967.8245849609375
626;967.4693603515625
627;967.1143188476562
628;966.7599487304688
629;966.4058227539062
630;966.0516967773438
631;965.6978759765625
632;965.3445434570312
633;964.9913940429688
634;964.638671875
635;964.2859497070312
636;963.93359375
637;963.5814208984375
638;963.2295532226562
639;962.878173828125
640;962.5269165039062
641;962.1760864257812
642;961.8255004882812
643;961.4749755859375
644;961.125
645;960.7750244140625
646;960.4255981445312
647;960.0761108398438
648;959.7272338867188
649;959.378173828125
650;959.0296020507812
651;958.6813354492188
652;958.3331909179688
653;957.9855346679688
654;957.6381225585938
655;957.2908935546875
656;956.9439086914062
657;956.5971069335938
658;956.2509155273438
659;955.9050903320312
660;955.5592651367188
661;955.2139892578125
662;954.8687744140625
663;954.5238037109375
664;954.1791381835938
665;953.8347778320312
666;953.4906005859375
667;953.1466064453125
668;952.8029174804688
669;952.4593505859375
670;952.1163940429688
671;951.7733764648438
672;951.4308471679688
673;951.0885009765625
674;950.7462158203125
675;950.4041748046875
676;950.0623779296875
677;949.7208251953125
678;949.3795776367188
679;949.0386352539062
680;948.6978759765625
681;948.357421875
682;948.017333984375
683;947.6773681640625
684;947.3375244140625
685;946.997802734375
686;946.6585083007812
687;946.3195190429688
688;945.9805297851562
689;945.6417846679688
690;945.3034057617188
691;944.9649658203125
692;944.626953125
693;944.289306640625
694;943.9518432617188
695;943.6144409179688
696;943.2774047851562
697;942.9406127929688
698;942.6038208007812
699;942.2674560546875
700;941.9309692382812
701;941.5949096679688
702;941.259033203125
703;940.9234619140625
704;940.588134765625
705;940.2531127929688
706;939.9183349609375
707;939.583740234375
708;939.2493286132812
709;938.9150390625
710;938.5809936523438
711;938.2471313476562
712;937.9135131835938
713;937.580078125
714;937.2468872070312
715;936.9138793945312
716;936.5811157226562
717;936.2485961914062
718;935.9161376953125
719;935.583984375
720;935.2521362304688
721;934.9205932617188
722;934.5889282226562
723;934.257568359375
724;933.9264526367188
725;933.5955810546875
726;933.264892578125
727;932.9343872070312
728;932.6040649414062
729;932.2739868164062
730;931.9440307617188
731;931.6143188476562
732;931.2847900390625
733;930.9556884765625
734;930.6265869140625
735;930.2976684570312
736;929.968994140625
737;929.6405029296875
738;929.3121337890625
739;928.9841918945312
740;928.6563720703125
741;928.3287963867188
742;928.0014038085938
743;927.674072265625
744;927.3469848632812
745;927.0201416015625
746;926.6934814453125
747;926.366943359375
748;926.040771484375
749;925.7146606445312
750;925.3887939453125
751;925.0630493164062
752;924.7374877929688
753;924.4119873046875
754;924.0868530273438
755;923.7618408203125
756;923.4369506835938
757;923.1122436523438
758;922.7877807617188
759;922.4634399414062
760;922.1394653320312
761;921.8154907226562
762;921.4918212890625
763;921.1685180664062
764;920.8450317382812
765;920.5217895507812
766;920.198974609375
767;919.8762817382812
768;919.5537719726562
769;919.2313232421875
770;918.9090576171875
771;918.5869750976562
772;918.2650756835938
773;917.9434204101562
774;917.6220092773438
775;917.3006591796875
776;916.9794921875
777;916.6585083007812
778;916.3377685546875
779;916.0172119140625
780;915.697021484375
781;915.3768310546875
782;915.0567626953125
783;914.7368774414062
784;914.4171752929688
785;914.09765625
786;913.7783203125
787;913.4591064453125
788;913.1400756835938
789;912.8214111328125
790;912.5027465820312
791;912.1842651367188
792;911.8659057617188
793;911.5477905273438
794;911.2298583984375
795;910.9121704101562
796;910.5946655273438
797;910.2772216796875
798;909.9598388671875
799;909.6427001953125
800;909.3258056640625
801;909.0089721679688
802;908.6924438476562
803;908.3759155273438
804;908.0596313476562
805;907.7434692382812
806;907.427490234375
807;907.111572265625
808;906.7959594726562
809;906.4803466796875
810;906.1650390625
811;905.849853515625
812;905.5347900390625
813;905.219970703125
814;904.9052734375
815;904.5906982421875
816;904.2762451171875
817;903.9620361328125
818;903.6480102539062
819;903.333984375
820;903.0202026367188
821;902.7066040039062
822;902.3931884765625
823;902.0798950195312
824;901.7666625976562
825;901.4536743164062
826;901.1409912109375
827;900.8281860351562
828;900.5157470703125
829;900.2033081054688
830;899.8909912109375
831;899.5791015625
832;899.2670288085938
833;898.9554443359375
834;898.643798828125
835;898.332275390625
836;898.0211181640625
837;897.7100219726562
838;897.3989868164062
839;897.088134765625
840;896.7774047851562
841;896.4668579101562
842;896.156494140625
843;895.8463745117188
844;895.5361938476562
845;895.2261962890625
846;894.9163818359375
847;894.6066284179688
848;894.2972412109375
849;893.9878540039062
850;893.6787109375
851;893.3698120117188
852;893.0609741210938
853;892.752197265625
854;892.443603515625
855;892.1351318359375
856;891.8270263671875
857;891.5189208984375
858;891.2110595703125
859;890.9032592773438
860;890.595703125
861;890.2881469726562
862;889.9807739257812
863;889.6736450195312
864;889.3665161132812
865;889.0596313476562
866;888.7527465820312
867;888.4462280273438
868;888.1398315429688
869;887.8333740234375
870;887.5272827148438
871;887.2213745117188
872;886.9153442382812
873;886.6094970703125
874;886.3038940429688
875;885.998291015625
876;885.6930541992188
877;885.3877563476562
878;885.0827026367188
879;884.7776489257812
880;884.4727783203125
881;884.1681518554688
882;883.863525390625
883;883.5591430664062
884;883.2547607421875
885;882.9505004882812
886;882.646484375
887;882.3428344726562
888;882.0391235351562
889;881.7356567382812
890;881.4321899414062
891;881.1287841796875
892;880.8255004882812
893;880.5225219726562
894;880.2197265625
895;879.9170532226562
896;879.6143188476562
897;879.3118286132812
898;879.0095825195312
899;878.707275390625
900;878.4052124023438
901;878.103271484375
902;877.8015747070312
903;877.4996948242188
904;877.1980590820312
905;876.8966064453125
906;876.5952758789062
907;876.2940063476562
908;875.9930419921875
909;875.6920776367188
910;875.3912963867188
911;875.0906372070312
912;874.7900390625
913;874.4896850585938
914;874.1893310546875
915;873.8893432617188
916;873.5891723632812
917;873.2892456054688
918;872.9894409179688
919;872.6897583007812
920;872.390380859375
921;872.0908813476562
922;871.7916870117188
923;871.4925537109375
924;871.193603515625
925;870.8946533203125
926;870.5960083007812
927;870.2974243164062
928;869.9989624023438
929;869.700439453125
930;869.40234375
931;869.1043090820312
932;868.8063354492188
933;868.5084838867188
934;868.2107543945312
935;867.9130859375
936;867.6156005859375
937;867.3182373046875
938;867.0210571289062
939;866.7238159179688
940;866.4269409179688
941;866.1300659179688
942;865.8333740234375
943;865.5367431640625
944;865.240234375
945;864.9439086914062
946;864.6476440429688
947;864.3515625
948;864.0556030273438
949;863.7597045898438
950;863.4639282226562
951;863.1683349609375
952;862.8729248046875
953;862.5775756835938
954;862.2822875976562
955;861.9873657226562
956;861.6923217773438
957;861.3973999023438
958;861.1026000976562
959;860.8080444335938
960;860.5134887695312
961;860.2191162109375
962;859.9248657226562
963;859.6306762695312
964;859.3366088867188
965;859.0427856445312
966;858.7489013671875
967;858.4552612304688
968;858.1617431640625
969;857.8683471679688
970;857.5751342773438
971;857.2818603515625
972;856.9888305664062
973;856.6957397460938
974;856.4029541015625
975;856.1102905273438
976;855.817626953125
977;855.5252685546875
978;855.2329711914062
979;854.9406127929688
980;854.6485595703125
981;854.3566284179688
982;854.064697265625
983;853.7730712890625
984;853.481201171875
985;853.189697265625
986;852.898193359375
987;852.6068725585938
988;852.3156127929688
989;852.0245361328125
990;851.7337036132812
991;851.4427490234375
992;851.1519775390625
993;850.861328125
994;850.5709228515625
995;850.2804565429688
996;849.9901123046875
997;849.6998291015625
998;849.4096069335938
999;849.1196899414062
1000;848.829833984375
1001;848.5400390625
1002;848.2504272460938
1003;847.9609375
1004;847.671630859375
1005;847.3822631835938
1006;847.0930786132812
1007;846.8038940429688
1008;846.5149536132812
1009;846.2261352539062
1010;845.9373779296875
1011;845.6488037109375
1012;845.3603515625
1013;845.0719604492188
1014;844.7836303710938
1015;844.495361328125
1016;844.207275390625
1017;843.9192504882812
1018;843.6314086914062
1019;843.3436279296875
1020;843.055908203125
1021;842.7683715820312
1022;842.4808349609375
1023;842.193603515625
1024;841.9063720703125
1025;841.6192016601562
1026;841.332275390625
1027;841.0454711914062
1028;840.758544921875
1029;840.4718627929688
1030;840.185302734375
1031;839.8988037109375
1032;839.6124267578125
1033;839.3262329101562
1034;839.0401000976562
1035;838.7540283203125
1036;838.4680786132812
1037;838.1822509765625
1038;837.896484375
1039;837.6109008789062
1040;837.3253784179688
1041;837.0399780273438
1042;836.7548217773438
1043;836.4697265625
1044;836.1846313476562
1045;835.8995971679688
1046;835.6148681640625
1047;835.330078125
1048;835.0455322265625
1049;834.760986328125
1050;834.4765625
1051;834.1923217773438
1052;833.9081420898438
1053;833.6239624023438
1054;833.3399658203125
1055;833.0560913085938
1056;832.7723999023438
1057;832.4886474609375
1058;832.2051391601562
1059;831.921630859375
1060;831.6383666992188
1061;831.3551025390625
1062;831.072021484375
1063;830.7890625
1064;830.506103515625
1065;830.2232055664062
1066;829.9405517578125
1067;829.6578979492188
1068;829.375244140625
1069;829.0928344726562
1070;828.8106689453125
1071;828.5283813476562
1072;828.2461547851562
1073;827.9641723632812
1074;827.6824340820312
1075;827.4006958007812
1076;827.1190795898438
1077;826.837646484375
1078;826.5560913085938
1079;826.2748413085938
1080;825.9937133789062
1081;825.712646484375
1082;825.431640625
1083;825.1506958007812
1084;824.8699951171875
1085;824.5892944335938
1086;824.3087158203125
1087;824.0282592773438
1088;823.7479248046875
1089;823.4677124023438
1090;823.1874389648438
1091;822.9074096679688
1092;822.6273193359375
1093;822.3475952148438
1094;822.0678100585938
1095;821.7881469726562
1096;821.5086059570312
1097;821.2290649414062
1098;820.9497680664062
1099;820.6704711914062
1100;820.3912963867188
1101;820.1121215820312
1102;819.8331298828125
1103;819.5541381835938
1104;819.2754516601562
1105;818.9967651367188
1106;818.7182006835938
1107;818.4398193359375
1108;818.161376953125
1109;817.8831787109375
1110;817.6051025390625
1111;817.3269653320312
1112;817.0490112304688
1113;816.7711791992188
1114;816.493408203125
1115;816.2157592773438
1116;815.9381713867188
1117;815.6605834960938
1118;815.3831787109375
1119;815.1060180664062
1120;814.8287963867188
1121;814.5516967773438
1122;814.2748413085938
1123;813.9979248046875
1124;813.7210693359375
1125;813.4445190429688
1126;813.1679077148438
1127;812.8914184570312
1128;812.6150512695312
1129;812.3387451171875
1130;812.0625610351562
1131;811.7864379882812
1132;811.5104370117188
1133;811.2344970703125
1134;810.958740234375
1135;810.6829223632812
1136;810.4072875976562
1137;810.1317749023438
1138;809.8563842773438
1139;809.5809936523438
1140;809.3057861328125
1141;809.0307006835938
1142;808.755615234375
1143;808.4805297851562
1144;808.2057495117188
1145;807.9309692382812
1146;807.65625
1147;807.3817138671875
1148;807.107177734375
1149;806.832763671875
1150;806.5585327148438
1151;806.2843627929688
1152;806.0101318359375
1153;805.7362060546875
1154;805.4622192382812
1155;805.1885375976562
1156;804.9149169921875
1157;804.6412963867188
1158;804.3677978515625
1159;804.0944213867188
1160;803.821044921875
1161;803.5477905273438
1162;803.2747192382812
1163;803.0016479492188
1164;802.7286376953125
1165;802.4558715820312
1166;802.1831665039062
1167;801.910400390625
1168;801.6378784179688
1169;801.3653564453125
1170;801.093017578125
1171;800.8206787109375
1172;800.5484619140625
1173;800.2763671875
1174;800.0042724609375
1175;799.732421875
1176;799.4606323242188
1177;799.1888427734375
1178;798.9171142578125
1179;798.6455688476562
1180;798.3740844726562
1181;798.1026000976562
1182;797.8312377929688
1183;797.5601806640625
1184;797.2889404296875
1185;797.0179443359375
1186;796.7470092773438
1187;796.4761352539062
1188;796.2053833007812
1189;795.9346923828125
1190;795.6640625
1191;795.3935546875
1192;795.1231689453125
1193;794.8527221679688
1194;794.5825805664062
1195;794.3124389648438
1196;794.0422973632812
1197;793.7723999023438
1198;793.5025634765625
1199;793.2327270507812
1200;792.9630126953125
1201;792.6934814453125
1202;792.4239501953125
1203;792.1544799804688
1204;791.8851318359375
1205;791.6160278320312
1206;791.3467407226562
1207;791.0777587890625
1208;790.8087158203125
1209;790.5399169921875
1210;790.2711181640625
1211;790.0023803710938
1212;789.7338256835938
1213;789.4652099609375
1214;789.1968994140625
1215;788.9285278320312
1216;788.6602172851562
1217;788.3920288085938
1218;788.1240234375
1219;787.8560791015625
1220;787.588134765625
1221;787.3203125
1222;787.0525512695312
1223;786.784912109375
1224;786.5174560546875
1225;786.2498779296875
1226;785.9824829101562
1227;785.7152099609375
1228;785.4479370117188
1229;785.1807250976562
1230;784.9136962890625
1231;784.646728515625
1232;784.3798828125
1233;784.1130981445312
1234;783.8463745117188
1235;783.579833984375
1236;783.3132934570312
1237;783.046875
1238;782.780517578125
1239;782.5142211914062
1240;782.248046875
1241;781.9818725585938
1242;781.7158813476562
1243;781.449951171875
1244;781.1839599609375
1245;780.9182739257812
1246;780.652587890625
1247;780.386962890625
1248;780.1214599609375
1249;779.8560180664062
1250;779.5906372070312
1251;779.3255004882812
1252;779.060302734375
1253;778.7952880859375
1254;778.5302124023438
1255;778.265380859375
1256;778.0005493164062
1257;777.7357788085938
1258;777.4711303710938
1259;777.2066040039062
1260;776.9421997070312
1261;776.677734375
1262;776.4133911132812
1263;776.1490478515625
1264;775.8849487304688
1265;775.620849609375
1266;775.3568725585938
1267;775.0929565429688
1268;774.8291015625
1269;774.5654296875
1270;774.3016967773438
1271;774.0381469726562
1272;773.7747192382812
1273;773.5112915039062
1274;773.2479248046875
1275;772.984619140625
1276;772.7216186523438
1277;772.4584350585938
1278;772.1954345703125
1279;771.9325561523438
1280;771.6697998046875
1281;771.4070434570312
1282;771.1443481445312
1283;770.8817749023438
1284;770.619384765625
1285;770.3569946289062
1286;770.0946655273438
1287;769.8323364257812
1288;769.5702514648438
1289;769.3080444335938
1290;769.0460815429688
1291;768.7842407226562
1292;768.5222778320312
1293;768.2606201171875
1294;767.9989013671875
1295;767.7372436523438
1296;767.4757690429688
1297;767.2142944335938
1298;766.9529418945312
1299;766.691650390625
1300;766.4304809570312
1301;766.1692504882812
1302;765.9083251953125
1303;765.6473388671875
1304;765.3865966796875
1305;765.1257934570312
1306;764.8651123046875
1307;764.6044921875
1308;764.3440551757812
1309;764.0835571289062
1310;763.8231811523438
1311;763.562744140625
1312;763.3026123046875
1313;763.0425415039062
1314;762.7824096679688
1315;762.5225830078125
1316;762.2626953125
1317;762.0028686523438
1318;761.7431030273438
1319;761.4834594726562
1320;761.2239379882812
1321;760.9645385742188
1322;760.705078125
1323;760.4458618164062
1324;760.1865844726562
1325;759.9274291992188
1326;759.6682739257812
1327;759.4093017578125
1328;759.150390625
1329;758.8915405273438
1330;758.6326904296875
1331;758.3740844726562
1332;758.115478515625
1333;757.8570556640625
1334;757.5984497070312
1335;757.340087890625
1336;757.081787109375
1337;756.8235473632812
1338;756.5654907226562
1339;756.3075561523438
1340;756.0494995117188
1341;755.7915649414062
1342;755.5337524414062
1343;755.2760620117188
1344;755.0183715820312
1345;754.7608032226562
1346;754.5033569335938
1347;754.245849609375
1348;753.988525390625
1349;753.731201171875
1350;753.4740600585938
1351;753.2169189453125
1352;752.9600219726562
1353;752.703125
1354;752.4462280273438
1355;752.189453125
1356;751.9328002929688
1357;751.6762084960938
1358;751.419677734375
1359;751.1632690429688
1360;750.9068603515625
1361;750.6505126953125
1362;750.394287109375
1363;750.1381225585938
1364;749.8820190429688
1365;749.6261596679688
1366;749.3701782226562
1367;749.1143798828125
1368;748.8585815429688
1369;748.6028442382812
1370;748.3472900390625
1371;748.091796875
1372;747.8363037109375
1373;747.5809936523438
1374;747.3256225585938
1375;747.0704956054688
1376;746.8153686523438
1377;746.5604248046875
1378;746.3054809570312
1379;746.050537109375
1380;745.7957763671875
1381;745.5408935546875
1382;745.2861938476562
1383;745.0317993164062
1384;744.777099609375
1385;744.522705078125
1386;744.2684326171875
1387;744.0140991210938
1388;743.7598876953125
1389;743.5057983398438
1390;743.251708984375
1391;742.997802734375
1392;742.743896484375
1393;742.4901123046875
1394;742.236328125
1395;741.9825439453125
1396;741.7290649414062
1397;741.4754638671875
1398;741.2219848632812
1399;740.9686889648438
1400;740.7153930664062
1401;740.462158203125
1402;740.2090454101562
1403;739.9559936523438
1404;739.7030029296875
1405;739.4501342773438
1406;739.197265625
1407;738.9445190429688
1408;738.6919555664062
1409;738.4393310546875
1410;738.1867065429688
1411;737.9343872070312
1412;737.681884765625
1413;737.4296875
1414;737.1773681640625
1415;736.9252319335938
1416;736.673095703125
1417;736.4210815429688
1418;736.1691284179688
1419;735.9172973632812
1420;735.6655883789062
1421;735.413818359375
1422;735.1622314453125
1423;734.9107666015625
1424;734.6592407226562
1425;734.4078369140625
1426;734.1563720703125
1427;733.9051513671875
1428;733.6539916992188
1429;733.4028930664062
1430;733.1517944335938
1431;732.9009399414062
1432;732.6500244140625
1433;732.3992309570312
1434;732.1484375
1435;731.8977661132812
1436;731.647216796875
1437;731.3966064453125
1438;731.146240234375
1439;730.8958129882812
1440;730.6455688476562
1441;730.3953857421875
1442;730.1452026367188
1443;729.8952026367188
1444;729.6452026367188
1445;729.3952026367188
1446;729.1454467773438
1447;728.8956909179688
1448;728.6459350585938
1449;728.3963623046875
1450;728.1468505859375
1451;727.8973388671875
1452;727.6478881835938
1453;727.3985595703125
1454;727.1493530273438
1455;726.9002685546875
1456;726.6510620117188
1457;726.4020385742188
1458;726.1530151367188
1459;725.9041137695312
1460;725.6553344726562
1461;725.406494140625
1462;725.157958984375
1463;724.9093627929688
1464;724.6608276367188
1465;724.412353515625
1466;724.1640625
1467;723.915771484375
1468;723.6676025390625
1469;723.4193725585938
1470;723.1712036132812
1471;722.9232177734375
1472;722.6752319335938
1473;722.4273681640625
1474;722.1795654296875
1475;721.931884765625
1476;721.6841430664062
1477;721.4365844726562
1478;721.1891479492188
1479;720.941650390625
1480;720.6942749023438
1481;720.447021484375
1482;720.1997680664062
1483;719.9525146484375
1484;719.7055053710938
1485;719.4585571289062
1486;719.2115478515625
1487;718.9647216796875
1488;718.7179565429688
1489;718.4711303710938
1490;718.2245483398438
1491;717.9779663085938
1492;717.7315063476562
1493;717.4851684570312
1494;717.2388305664062
1495;716.9924926757812
1496;716.7462768554688
1497;716.5001220703125
1498;716.2540283203125
1499;716.008056640625
