;loss
0;1330.345947265625
1;1329.7528076171875
2;1329.16064453125
3;1328.6234130859375
4;1328.03369140625
5;1327.4451904296875
6;1326.8753662109375
7;1326.30078125
8;1325.71484375
9;1325.1295166015625
10;1324.5479736328125
11;1323.9639892578125
12;1323.38037109375
13;1322.79736328125
14;1322.21435546875
15;1321.628173828125
16;1321.041259765625
17;1320.4588623046875
18;1319.8709716796875
19;1319.2828369140625
20;1318.700439453125
21;1318.11181640625
22;1317.5228271484375
23;1316.93359375
24;1316.34423828125
25;1315.7547607421875
26;1315.171875
27;1314.5819091796875
28;1313.9918212890625
29;1313.4085693359375
30;1312.8179931640625
31;1312.2271728515625
32;1311.643310546875
33;1311.052001953125
34;1310.4613037109375
35;1309.870361328125
36;1309.2791748046875
37;1308.68798828125
38;1308.0963134765625
39;1307.5106201171875
40;1306.91845703125
41;1306.325927734375
42;1305.7330322265625
43;1305.1397705078125
44;1304.5518798828125
45;1303.9576416015625
46;1303.36865234375
47;1302.7791748046875
48;1302.183349609375
49;1301.5924072265625
50;1301.0009765625
51;1300.40869140625
52;1299.815673828125
53;1299.221923828125
54;1298.627197265625
55;1298.03173828125
56;1297.435546875
57;1296.83837890625
58;1296.239990234375
59;1295.6409912109375
60;1295.0408935546875
61;1294.4400634765625
62;1293.83837890625
63;1293.2308349609375
64;1292.6270751953125
65;1292.0220947265625
66;1291.4161376953125
67;1290.8046875
68;1290.196533203125
69;1289.582763671875
70;1288.97216796875
71;1288.3604736328125
72;1287.74755859375
73;1287.1331787109375
74;1286.5184326171875
75;1285.9051513671875
76;1285.2906494140625
77;1284.67529296875
78;1284.058349609375
79;1283.4404296875
80;1282.821044921875
81;1282.1968994140625
82;1281.574951171875
83;1280.9478759765625
84;1280.3197021484375
85;1279.6898193359375
86;1279.0584716796875
87;1278.42919921875
88;1277.7945556640625
89;1277.161865234375
90;1276.5242919921875
91;1275.8880615234375
92;1275.250244140625
93;1274.6104736328125
94;1273.968994140625
95;1273.32568359375
96;1272.680419921875
97;1272.0333251953125
98;1271.3841552734375
99;1270.73291015625
100;1270.079833984375
101;1269.4215087890625
102;1268.7611083984375
103;1268.1014404296875
104;1267.4364013671875
105;1266.7694091796875
106;1266.10302734375
107;1265.43408203125
108;1264.7628173828125
109;1264.0892333984375
110;1263.4129638671875
111;1262.7342529296875
112;1262.05029296875
113;1261.3631591796875
114;1260.6767578125
115;1259.9873046875
116;1259.292236328125
117;1258.5972900390625
118;1257.8994140625
119;1257.1956787109375
120;1256.4888916015625
121;1255.7791748046875
122;1255.0692138671875
123;1254.3558349609375
124;1253.6365966796875
125;1252.9139404296875
126;1252.190673828125
127;1251.4638671875
128;1250.7337646484375
129;1250.0
130;1249.2626953125
131;1248.5216064453125
132;1247.7767333984375
133;1247.02587890625
134;1246.2733154296875
135;1245.5172119140625
136;1244.7572021484375
137;1243.9930419921875
138;1243.2249755859375
139;1242.45263671875
140;1241.67626953125
141;1240.8955078125
142;1240.11083984375
143;1239.3223876953125
144;1238.5284423828125
145;1237.72998046875
146;1236.9296875
147;1236.1224365234375
148;1235.310546875
149;1234.4967041015625
150;1233.67822265625
151;1232.8524169921875
152;1232.0242919921875
153;1231.19140625
154;1230.3533935546875
155;1229.5103759765625
156;1228.6600341796875
157;1227.8070068359375
158;1226.951416015625
159;1226.0948486328125
160;1225.2310791015625
161;1224.3648681640625
162;1223.4912109375
163;1222.6124267578125
164;1221.7283935546875
165;1220.8416748046875
166;1219.9473876953125
167;1219.05029296875
168;1218.1473388671875
169;1217.2393798828125
170;1216.3258056640625
171;1215.4066162109375
172;1214.4818115234375
173;1213.55126953125
174;1212.6151123046875
175;1211.67333984375
176;1210.7257080078125
177;1209.769775390625
178;1208.8143310546875
179;1207.853759765625
180;1206.88818359375
181;1205.9171142578125
182;1204.9407958984375
183;1203.9586181640625
184;1202.9710693359375
185;1201.97802734375
186;1200.976806640625
187;1199.969970703125
188;1198.9598388671875
189;1197.94189453125
190;1196.92041015625
191;1195.893310546875
192;1194.8609619140625
193;1193.8240966796875
194;1192.7825927734375
195;1191.74267578125
196;1190.703125
197;1189.65966796875
198;1188.615478515625
199;1187.56884765625
200;1186.5184326171875
201;1185.464111328125
202;1184.4056396484375
203;1183.3538818359375
204;1182.30615234375
205;1181.2554931640625
206;1180.202880859375
207;1179.15087890625
208;1178.0963134765625
209;1177.0394287109375
210;1175.9798583984375
211;1174.916015625
212;1173.849365234375
213;1172.78076171875
214;1171.712158203125
215;1170.6409912109375
216;1169.5692138671875
217;1168.4967041015625
218;1167.419921875
219;1166.3431396484375
220;1165.26416015625
221;1164.188720703125
222;1163.118408203125
223;1162.0516357421875
224;1160.9947509765625
225;1159.94287109375
226;1158.8935546875
227;1157.843505859375
228;1156.8026123046875
229;1155.762939453125
230;1154.724365234375
231;1153.6866455078125
232;1152.6478271484375
233;1151.6119384765625
234;1150.577392578125
235;1149.5443115234375
236;1148.51220703125
237;1147.4793701171875
238;1146.45166015625
239;1145.42822265625
240;1144.407470703125
241;1143.3892822265625
242;1142.3729248046875
243;1141.3585205078125
244;1140.34619140625
245;1139.3338623046875
246;1138.3280029296875
247;1137.3226318359375
248;1136.3212890625
249;1135.3267822265625
250;1134.3377685546875
251;1133.35107421875
252;1132.3680419921875
253;1131.390625
254;1130.4178466796875
255;1129.4503173828125
256;1128.4896240234375
257;1127.53369140625
258;1126.581787109375
259;1125.63427734375
260;1124.6915283203125
261;1123.754150390625
262;1122.81982421875
263;1121.889404296875
264;1120.963134765625
265;1120.0423583984375
266;1119.125732421875
267;1118.2130126953125
268;1117.3079833984375
269;1116.410888671875
270;1115.5179443359375
271;1114.633544921875
272;1113.754150390625
273;1112.88037109375
274;1112.01220703125
275;1111.149658203125
276;1110.2926025390625
277;1109.43896484375
278;1108.589599609375
279;1107.74560546875
280;1106.906005859375
281;1106.07421875
282;1105.2462158203125
283;1104.42236328125
284;1103.6044921875
285;1102.78955078125
286;1101.978759765625
287;1101.1724853515625
288;1100.3717041015625
289;1099.5750732421875
290;1098.78271484375
291;1097.9949951171875
292;1097.21044921875
293;1096.4315185546875
294;1095.6571044921875
295;1094.888427734375
296;1094.1243896484375
297;1093.36328125
298;1092.6070556640625
299;1091.8551025390625
300;1091.1077880859375
301;1090.36669921875
302;1089.6297607421875
303;1088.897216796875
304;1088.1689453125
305;1087.4439697265625
306;1086.722900390625
307;1086.007080078125
308;1085.295654296875
309;1084.588134765625
310;1083.8834228515625
311;1083.1839599609375
312;1082.4876708984375
313;1081.79541015625
314;1081.1070556640625
315;1080.4227294921875
316;1079.74658203125
317;1079.07568359375
318;1078.40869140625
319;1077.7454833984375
320;1077.087158203125
321;1076.4320068359375
322;1075.7808837890625
323;1075.1337890625
324;1074.490478515625
325;1073.849853515625
326;1073.2135009765625
327;1072.58056640625
328;1071.9501953125
329;1071.32373046875
330;1070.7005615234375
331;1070.0806884765625
332;1069.4649658203125
333;1068.8515625
334;1068.2415771484375
335;1067.6356201171875
336;1067.0325927734375
337;1066.4324951171875
338;1065.8353271484375
339;1065.24365234375
340;1064.6551513671875
341;1064.0693359375
342;1063.485595703125
343;1062.9051513671875
344;1062.327392578125
345;1061.7523193359375
346;1061.179443359375
347;1060.6087646484375
348;1060.0404052734375
349;1059.474365234375
350;1058.9112548828125
351;1058.35009765625
352;1057.79150390625
353;1057.2347412109375
354;1056.68115234375
355;1056.129150390625
356;1055.580078125
357;1055.033447265625
358;1054.48876953125
359;1053.9462890625
360;1053.4056396484375
361;1052.867919921875
362;1052.3319091796875
363;1051.7979736328125
364;1051.265869140625
365;1050.73583984375
366;1050.2078857421875
367;1049.681640625
368;1049.1578369140625
369;1048.635986328125
370;1048.1158447265625
371;1047.59716796875
372;1047.0806884765625
373;1046.5657958984375
374;1046.052734375
375;1045.541259765625
376;1045.0316162109375
377;1044.5240478515625
378;1044.017822265625
379;1043.513671875
380;1043.010986328125
381;1042.509765625
382;1042.01025390625
383;1041.51220703125
384;1041.0162353515625
385;1040.5213623046875
386;1040.0284423828125
387;1039.537353515625
388;1039.047607421875
389;1038.5595703125
390;1038.072509765625
391;1037.5875244140625
392;1037.1033935546875
393;1036.6207275390625
394;1036.1400146484375
395;1035.66015625
396;1035.181884765625
397;1034.7054443359375
398;1034.23046875
399;1033.7568359375
400;1033.2845458984375
401;1032.8135986328125
402;1032.3438720703125
403;1031.8756103515625
404;1031.40869140625
405;1030.9429931640625
406;1030.478515625
407;1030.01513671875
408;1029.5531005859375
409;1029.0921630859375
410;1028.6318359375
411;1028.173095703125
412;1027.7152099609375
413;1027.2587890625
414;1026.8037109375
415;1026.3499755859375
416;1025.89697265625
417;1025.4449462890625
418;1024.9945068359375
419;1024.544677734375
420;1024.09619140625
421;1023.6489868164062
422;1023.202392578125
423;1022.756591796875
424;1022.3120727539062
425;1021.8684692382812
426;1021.42578125
427;1020.984130859375
428;1020.5435180664062
429;1020.103759765625
430;1019.6653442382812
431;1019.227294921875
432;1018.7908935546875
433;1018.3550415039062
434;1017.9200439453125
435;1017.486083984375
436;1017.0531616210938
437;1016.6207885742188
438;1016.1893310546875
439;1015.7594604492188
440;1015.3307495117188
441;1014.9030151367188
442;1014.4762573242188
443;1014.050537109375
444;1013.6254272460938
445;1013.201416015625
446;1012.778076171875
447;1012.3557739257812
448;1011.93359375
449;1011.512451171875
450;1011.092041015625
451;1010.6723022460938
452;1010.25390625
453;1009.835693359375
454;1009.4186401367188
455;1009.002197265625
456;1008.586181640625
457;1008.1710205078125
458;1007.7568359375
459;1007.343505859375
460;1006.930419921875
461;1006.5181274414062
462;1006.1067504882812
463;1005.6958618164062
464;1005.2855834960938
465;1004.8760986328125
466;1004.467041015625
467;1004.058837890625
468;1003.6512451171875
469;1003.2446899414062
470;1002.8384399414062
471;1002.432861328125
472;1002.0278930664062
473;1001.6240234375
474;1001.2203979492188
475;1000.8178100585938
476;1000.4155883789062
477;1000.013916015625
478;999.6128540039062
479;999.2124633789062
480;998.812744140625
481;998.4135131835938
482;998.014892578125
483;997.6168823242188
484;997.2194213867188
485;996.8225708007812
486;996.4262084960938
487;996.0305786132812
488;995.6354370117188
489;995.2412109375
490;994.8472290039062
491;994.4536743164062
492;994.0608520507812
493;993.6683959960938
494;993.276611328125
495;992.8857421875
496;992.4951171875
497;992.105224609375
498;991.7156982421875
499;991.3268432617188
