;loss
0;1324.870361328125
1;1324.623291015625
2;1324.3392333984375
3;1324.009521484375
4;1323.68115234375
5;1323.35400390625
6;1323.0281982421875
7;1322.70361328125
8;1322.3804931640625
9;1322.058837890625
10;1321.73974609375
11;1321.42041015625
12;1321.1024169921875
13;1320.78466796875
14;1320.46923828125
15;1320.1552734375
16;1319.8399658203125
17;1319.528076171875
18;1319.2174072265625
19;1318.90771484375
20;1318.595947265625
21;1318.288330078125
22;1317.981689453125
23;1317.67578125
24;1317.3673095703125
25;1317.0595703125
26;1316.75244140625
27;1316.44970703125
28;1316.143798828125
29;1315.83837890625
30;1315.537353515625
31;1315.236572265625
32;1314.9326171875
33;1314.6326904296875
34;1314.3294677734375
35;1314.0264892578125
36;1313.7239990234375
37;1313.424560546875
38;1313.1221923828125
39;1312.822998046875
40;1312.5206298828125
41;1312.2181396484375
42;1311.9185791015625
43;1311.6158447265625
44;1311.3126220703125
45;1311.01220703125
46;1310.70849609375
47;1310.4041748046875
48;1310.1025390625
49;1309.7999267578125
50;1309.4969482421875
51;1309.193115234375
52;1308.8861083984375
53;1308.5806884765625
54;1308.274658203125
55;1307.9676513671875
56;1307.6571044921875
57;1307.34814453125
58;1307.03564453125
59;1306.7244873046875
60;1306.4122314453125
61;1306.098876953125
62;1305.7841796875
63;1305.46826171875
64;1305.1488037109375
65;1304.82763671875
66;1304.5054931640625
67;1304.1815185546875
68;1303.858642578125
69;1303.5338134765625
70;1303.2076416015625
71;1302.879638671875
72;1302.55029296875
73;1302.2166748046875
74;1301.88330078125
75;1301.5462646484375
76;1301.2093505859375
77;1300.8681640625
78;1300.525146484375
79;1300.1820068359375
80;1299.8365478515625
81;1299.4891357421875
82;1299.1392822265625
83;1298.7872314453125
84;1298.4327392578125
85;1298.07568359375
86;1297.7161865234375
87;1297.35205078125
88;1296.9852294921875
89;1296.6177978515625
90;1296.2474365234375
91;1295.8741455078125
92;1295.4979248046875
93;1295.11865234375
94;1294.7342529296875
95;1294.3486328125
96;1293.957763671875
97;1293.5654296875
98;1293.169677734375
99;1292.7705078125
100;1292.367431640625
101;1291.9588623046875
102;1291.54638671875
103;1291.1300048828125
104;1290.71142578125
105;1290.2867431640625
106;1289.8597412109375
107;1289.4263916015625
108;1288.9906005859375
109;1288.5501708984375
110;1288.10498046875
111;1287.65283203125
112;1287.1978759765625
113;1286.73779296875
114;1286.2725830078125
115;1285.8001708984375
116;1285.3240966796875
117;1284.8426513671875
118;1284.353515625
119;1283.8603515625
120;1283.361328125
121;1282.8541259765625
122;1282.3426513671875
123;1281.8248291015625
124;1281.30029296875
125;1280.769287109375
126;1280.2314453125
127;1279.6844482421875
128;1279.13232421875
129;1278.57080078125
130;1278.0018310546875
131;1277.427490234375
132;1276.84521484375
133;1276.2552490234375
134;1275.655029296875
135;1275.0487060546875
136;1274.43408203125
137;1273.810791015625
138;1273.1787109375
139;1272.537841796875
140;1271.887939453125
141;1271.2288818359375
142;1270.560302734375
143;1269.88232421875
144;1269.1925048828125
145;1268.4925537109375
146;1267.78271484375
147;1267.0625
148;1266.3319091796875
149;1265.5904541015625
150;1264.8406982421875
151;1264.07763671875
152;1263.3035888671875
153;1262.5203857421875
154;1261.7257080078125
155;1260.91943359375
156;1260.0987548828125
157;1259.2685546875
158;1258.42333984375
159;1257.5684814453125
160;1256.6982421875
161;1255.8177490234375
162;1254.9241943359375
163;1254.014892578125
164;1253.0948486328125
165;1252.158447265625
166;1251.20849609375
167;1250.247314453125
168;1249.2720947265625
169;1248.2799072265625
170;1247.27294921875
171;1246.25439453125
172;1245.2205810546875
173;1244.1719970703125
174;1243.1082763671875
175;1242.029541015625
176;1240.93505859375
177;1239.824951171875
178;1238.69873046875
179;1237.5567626953125
180;1236.395751953125
181;1235.2181396484375
182;1234.02392578125
183;1232.8131103515625
184;1231.588134765625
185;1230.3428955078125
186;1229.08056640625
187;1227.8037109375
188;1226.50634765625
189;1225.191162109375
190;1223.85791015625
191;1222.51025390625
192;1221.1446533203125
193;1219.7606201171875
194;1218.358642578125
195;1216.934814453125
196;1215.4925537109375
197;1214.03173828125
198;1212.555419921875
199;1211.060546875
200;1209.546875
201;1208.014404296875
202;1206.46044921875
203;1204.887939453125
204;1203.30126953125
205;1201.69677734375
206;1200.0711669921875
207;1198.4281005859375
208;1196.76806640625
209;1195.0919189453125
210;1193.3994140625
211;1191.69140625
212;1189.96875
213;1188.2354736328125
214;1186.488525390625
215;1184.7252197265625
216;1182.94970703125
217;1181.16357421875
218;1179.3704833984375
219;1177.564453125
220;1175.7501220703125
221;1173.932373046875
222;1172.1082763671875
223;1170.275390625
224;1168.442138671875
225;1166.60595703125
226;1164.7684326171875
227;1162.927001953125
228;1161.090087890625
229;1159.251708984375
230;1157.41650390625
231;1155.5858154296875
232;1153.7607421875
233;1151.946044921875
234;1150.138916015625
235;1148.3404541015625
236;1146.55224609375
237;1144.7718505859375
238;1143.006591796875
239;1141.25439453125
240;1139.5155029296875
241;1137.7879638671875
242;1136.078857421875
243;1134.385498046875
244;1132.7054443359375
245;1131.045166015625
246;1129.3995361328125
247;1127.7745361328125
248;1126.1646728515625
249;1124.5760498046875
250;1123.0064697265625
251;1121.452880859375
252;1119.9185791015625
253;1118.4058837890625
254;1116.909912109375
255;1115.4356689453125
256;1113.9805908203125
257;1112.54443359375
258;1111.12744140625
259;1109.72900390625
260;1108.349365234375
261;1106.986572265625
262;1105.64306640625
263;1104.3209228515625
264;1103.01611328125
265;1101.7310791015625
266;1100.4642333984375
267;1099.21435546875
268;1097.981689453125
269;1096.7666015625
270;1095.56640625
271;1094.3829345703125
272;1093.21728515625
273;1092.0673828125
274;1090.9307861328125
275;1089.810546875
276;1088.70361328125
277;1087.6134033203125
278;1086.5374755859375
279;1085.4759521484375
280;1084.42822265625
281;1083.39599609375
282;1082.378173828125
283;1081.3729248046875
284;1080.3826904296875
285;1079.4061279296875
286;1078.443603515625
287;1077.491455078125
288;1076.55126953125
289;1075.6241455078125
290;1074.7091064453125
291;1073.8031005859375
292;1072.9107666015625
293;1072.02783203125
294;1071.157470703125
295;1070.298828125
296;1069.44873046875
297;1068.6104736328125
298;1067.779541015625
299;1066.9578857421875
300;1066.14306640625
301;1065.335693359375
302;1064.537353515625
303;1063.7451171875
304;1062.959716796875
305;1062.182861328125
306;1061.4122314453125
307;1060.64990234375
308;1059.89306640625
309;1059.1439208984375
310;1058.401123046875
311;1057.6632080078125
312;1056.9320068359375
313;1056.2066650390625
314;1055.4876708984375
315;1054.7744140625
316;1054.0655517578125
317;1053.3634033203125
318;1052.6666259765625
319;1051.974365234375
320;1051.2872314453125
321;1050.60595703125
322;1049.9285888671875
323;1049.2559814453125
324;1048.587646484375
325;1047.923583984375
326;1047.2647705078125
327;1046.609619140625
328;1045.9595947265625
329;1045.313232421875
330;1044.672119140625
331;1044.03515625
332;1043.40185546875
333;1042.772705078125
334;1042.1480712890625
335;1041.5286865234375
336;1040.91259765625
337;1040.30029296875
338;1039.6904296875
339;1039.084716796875
340;1038.4827880859375
341;1037.8837890625
342;1037.2879638671875
343;1036.6953125
344;1036.10498046875
345;1035.5174560546875
346;1034.93359375
347;1034.35205078125
348;1033.7742919921875
349;1033.1986083984375
350;1032.6256103515625
351;1032.05517578125
352;1031.4873046875
353;1030.921875
354;1030.3594970703125
355;1029.799072265625
356;1029.241455078125
357;1028.686767578125
358;1028.13427734375
359;1027.583740234375
360;1027.0360107421875
361;1026.490478515625
362;1025.94775390625
363;1025.4068603515625
364;1024.86767578125
365;1024.3311767578125
366;1023.7962036132812
367;1023.2630004882812
368;1022.7318725585938
369;1022.2025756835938
370;1021.6752319335938
371;1021.1502685546875
372;1020.6264038085938
373;1020.1049194335938
374;1019.5853881835938
375;1019.0668334960938
376;1018.550048828125
377;1018.034912109375
378;1017.5221557617188
379;1017.0101928710938
380;1016.5001220703125
381;1015.9920654296875
382;1015.4852294921875
383;1014.980224609375
384;1014.4768676757812
385;1013.974609375
386;1013.4736328125
387;1012.9747314453125
388;1012.4772338867188
389;1011.981201171875
390;1011.4866333007812
391;1010.9932861328125
392;1010.500732421875
393;1010.009521484375
394;1009.520263671875
395;1009.0316772460938
396;1008.5450439453125
397;1008.0594482421875
398;1007.5746459960938
399;1007.0913696289062
400;1006.609619140625
401;1006.128662109375
402;1005.6489868164062
403;1005.1708984375
404;1004.6934814453125
405;1004.2172241210938
406;1003.7426147460938
407;1003.2691040039062
408;1002.796630859375
409;1002.325439453125
410;1001.8550415039062
411;1001.3858642578125
412;1000.9178466796875
413;1000.450439453125
414;999.9839477539062
415;999.5186767578125
416;999.0546875
417;998.5912475585938
418;998.1292114257812
419;997.6682739257812
420;997.208984375
421;996.750732421875
422;996.2928466796875
423;995.8366088867188
424;995.380859375
425;994.926025390625
426;994.47265625
427;994.019775390625
428;993.5678100585938
429;993.1171875
430;992.6671142578125
431;992.2177734375
432;991.76953125
433;991.3221435546875
434;990.8756713867188
435;990.4301147460938
436;989.9859008789062
437;989.5422973632812
438;989.099365234375
439;988.6576538085938
440;988.2163696289062
441;987.7758178710938
442;987.336181640625
443;986.897705078125
444;986.4596557617188
445;986.0227661132812
446;985.5863647460938
447;985.1509399414062
448;984.7161254882812
449;984.2821044921875
450;983.8486328125
451;983.4161376953125
452;982.984375
453;982.5535888671875
454;982.1237182617188
455;981.694580078125
456;981.2660522460938
457;980.8381958007812
458;980.4118041992188
459;979.9862060546875
460;979.5615234375
461;979.1371459960938
462;978.7138671875
463;978.2914428710938
464;977.8692626953125
465;977.4478149414062
466;977.027587890625
467;976.607666015625
468;976.1885986328125
469;975.7703857421875
470;975.3526611328125
471;974.935791015625
472;974.5198364257812
473;974.104736328125
474;973.6901245117188
475;973.2759399414062
476;972.8627319335938
477;972.449951171875
478;972.0377807617188
479;971.626220703125
480;971.2153930664062
481;970.8056640625
482;970.3967895507812
483;969.9885864257812
484;969.5813598632812
485;969.174560546875
486;968.7685546875
487;968.3631591796875
488;967.958740234375
489;967.5548095703125
490;967.151611328125
491;966.7489013671875
492;966.3473510742188
493;965.9468383789062
494;965.547119140625
495;965.1477661132812
496;964.7493286132812
497;964.3514404296875
498;963.954833984375
499;963.5588989257812
500;963.1635131835938
501;962.7696533203125
502;962.3766479492188
503;961.9842529296875
504;961.5922241210938
505;961.2010498046875
506;960.810302734375
507;960.4203491210938
508;960.0311279296875
509;959.6422729492188
510;959.2543334960938
511;958.8667602539062
512;958.4797973632812
513;958.0936279296875
514;957.7080078125
515;957.3229370117188
516;956.9384765625
517;956.5540161132812
518;956.1702270507812
519;955.786865234375
520;955.4041748046875
521;955.0221557617188
522;954.640625
523;954.259521484375
524;953.87890625
525;953.4985961914062
526;953.119140625
527;952.7396850585938
528;952.3607788085938
529;951.9822998046875
530;951.6044921875
531;951.2272338867188
532;950.8502807617188
533;950.4740600585938
534;950.0983276367188
535;949.72265625
536;949.347412109375
537;948.9727783203125
538;948.5983276367188
539;948.2244873046875
540;947.8510131835938
541;947.4783935546875
542;947.1055908203125
543;946.7335205078125
544;946.3616333007812
545;945.9905395507812
546;945.6195678710938
547;945.2490234375
548;944.879150390625
549;944.5094604492188
550;944.1400756835938
551;943.7711791992188
552;943.402587890625
553;943.034423828125
554;942.6669921875
555;942.2998046875
556;941.9332885742188
557;941.566650390625
558;941.200439453125
559;940.8348388671875
560;940.469482421875
561;940.1044921875
562;939.739990234375
563;939.375732421875
564;939.011962890625
565;938.648681640625
566;938.2855834960938
567;937.9227294921875
568;937.5604248046875
569;937.1982421875
570;936.8367919921875
571;936.4755859375
572;936.1148071289062
573;935.7543334960938
574;935.3938598632812
575;935.033935546875
576;934.6744995117188
577;934.315185546875
578;933.9561767578125
579;933.597412109375
580;933.2393798828125
581;932.881591796875
582;932.524169921875
583;932.1671142578125
584;931.8102416992188
585;931.453857421875
586;931.097412109375
587;930.741455078125
588;930.385986328125
589;930.0308227539062
590;929.67578125
591;929.321044921875
592;928.966796875
593;928.6126098632812
594;928.259033203125
595;927.9053955078125
596;927.5524291992188
597;927.1996459960938
598;926.8473510742188
599;926.4952392578125
600;926.1434326171875
601;925.7918701171875
602;925.4404296875
603;925.0895385742188
604;924.7387084960938
605;924.3885498046875
606;924.0383911132812
607;923.6885986328125
608;923.3391723632812
609;922.989990234375
610;922.6409301757812
611;922.292236328125
612;921.9440307617188
613;921.5958251953125
614;921.2481689453125
615;920.9008178710938
616;920.5535888671875
617;920.206787109375
618;919.8600463867188
619;919.5137939453125
620;919.167724609375
621;918.8221435546875
622;918.4766845703125
623;918.1314086914062
624;917.7862548828125
625;917.44140625
626;917.0969848632812
627;916.752685546875
628;916.4087524414062
629;916.0650024414062
630;915.7216796875
631;915.378662109375
632;915.0358276367188
633;914.693359375
634;914.350830078125
635;914.0089111328125
636;913.6672973632812
637;913.3257446289062
638;912.9846801757812
639;912.643798828125
640;912.3030395507812
641;911.9625854492188
642;911.6223754882812
643;911.2823486328125
644;910.9426879882812
645;910.6032104492188
646;910.263916015625
647;909.925048828125
648;909.586181640625
649;909.2477416992188
650;908.9095458984375
651;908.571533203125
652;908.233642578125
653;907.8960571289062
654;907.558837890625
655;907.221923828125
656;906.885009765625
657;906.54833984375
658;906.2120361328125
659;905.875732421875
660;905.5399169921875
661;905.2042846679688
662;904.868896484375
663;904.5337524414062
664;904.1987915039062
665;903.8640747070312
666;903.529541015625
667;903.1954956054688
668;902.8613891601562
669;902.5277099609375
670;902.1942749023438
671;901.8611450195312
672;901.528076171875
673;901.1953125
674;900.8629760742188
675;900.5303955078125
676;900.1983642578125
677;899.8665161132812
678;899.534912109375
679;899.2035522460938
680;898.872314453125
681;898.5411987304688
682;898.2102661132812
683;897.8798217773438
684;897.5494384765625
685;897.2194213867188
686;896.8895263671875
687;896.559814453125
688;896.230224609375
689;895.9010009765625
690;895.5719604492188
691;895.2431640625
692;894.9146118164062
693;894.5862426757812
694;894.258056640625
695;893.9299926757812
696;893.602294921875
697;893.274658203125
698;892.9473876953125
699;892.6201171875
700;892.2930908203125
701;891.96630859375
702;891.6398315429688
703;891.3135986328125
704;890.9874267578125
705;890.661376953125
706;890.3357543945312
707;890.0101928710938
708;889.684814453125
709;889.3596801757812
710;889.034912109375
711;888.7100830078125
712;888.3855590820312
713;888.0614013671875
714;887.7372436523438
715;887.413330078125
716;887.089599609375
717;886.7660522460938
718;886.4428100585938
719;886.119873046875
720;885.796875
721;885.4741821289062
722;885.1516723632812
723;884.8294067382812
724;884.5073852539062
725;884.1856079101562
726;883.8638305664062
727;883.542236328125
728;883.220947265625
729;882.8998413085938
730;882.578857421875
731;882.2581176757812
732;881.9376220703125
733;881.6170654296875
734;881.297119140625
735;880.9769897460938
736;880.6570434570312
737;880.3374633789062
738;880.01806640625
739;879.6989135742188
740;879.3800048828125
741;879.0610961914062
742;878.7422485351562
743;878.4238891601562
744;878.1055297851562
745;877.7874755859375
746;877.4695434570312
747;877.1519165039062
748;876.834228515625
749;876.5169067382812
750;876.1996459960938
751;875.8825073242188
752;875.565673828125
753;875.2490844726562
754;874.9326782226562
755;874.6163940429688
756;874.3003540039062
757;873.984375
758;873.668701171875
759;873.3530883789062
760;873.0377807617188
761;872.72265625
762;872.407470703125
763;872.0926513671875
764;871.77783203125
765;871.4633178710938
766;871.1490478515625
767;870.8350219726562
768;870.5211181640625
769;870.2072143554688
770;869.8936767578125
771;869.580322265625
772;869.2671508789062
773;868.9539184570312
774;868.6410522460938
775;868.3283081054688
776;868.015869140625
777;867.7034912109375
778;867.3911743164062
779;867.0792846679688
780;866.767333984375
781;866.4556884765625
782;866.1442260742188
783;865.832763671875
784;865.521728515625
785;865.210693359375
786;864.8997802734375
787;864.5890502929688
788;864.278564453125
789;863.9683227539062
790;863.6580810546875
791;863.3479614257812
792;863.0380859375
793;862.728271484375
794;862.4188842773438
795;862.1095581054688
796;861.8003540039062
797;861.4913940429688
798;861.1826782226562
799;860.8740234375
800;860.5654296875
801;860.257080078125
802;859.9488525390625
803;859.6408081054688
804;859.3328857421875
805;859.0252075195312
806;858.717529296875
807;858.4103393554688
808;858.1029663085938
809;857.7959594726562
810;857.489013671875
811;857.1823120117188
812;856.8756713867188
813;856.5692138671875
814;856.262939453125
815;855.9569091796875
816;855.6509399414062
817;855.3451538085938
818;855.0394287109375
819;854.7339477539062
820;854.4285278320312
821;854.123291015625
822;853.818359375
823;853.513427734375
824;853.208740234375
825;852.9042358398438
826;852.599853515625
827;852.2955932617188
828;851.991455078125
829;851.6875610351562
830;851.3836669921875
831;851.080078125
832;850.7767333984375
833;850.4733276367188
834;850.1700439453125
835;849.866943359375
836;849.5641479492188
837;849.261474609375
838;848.9589233398438
839;848.6565551757812
840;848.354248046875
841;848.0521850585938
842;847.7501831054688
843;847.448486328125
844;847.1466674804688
845;846.844970703125
846;846.5436401367188
847;846.242431640625
848;845.9413452148438
849;845.6405029296875
850;845.3399047851562
851;845.0391845703125
852;844.7387084960938
853;844.4384155273438
854;844.1382446289062
855;843.8382568359375
856;843.5383911132812
857;843.2386474609375
858;842.9391479492188
859;842.6395874023438
860;842.3402709960938
861;842.0411987304688
862;841.7422485351562
863;841.4434204101562
864;841.144775390625
865;840.8460693359375
866;840.5478515625
867;840.2496337890625
868;839.9515380859375
869;839.6536254882812
870;839.355712890625
871;839.0581665039062
872;838.7606811523438
873;838.4633178710938
874;838.1661376953125
875;837.8689575195312
876;837.5720825195312
877;837.2752685546875
878;836.9786376953125
879;836.6821899414062
880;836.3856201171875
881;836.0894775390625
882;835.7933349609375
883;835.497314453125
884;835.2014770507812
885;834.9059448242188
886;834.6102294921875
887;834.3148803710938
888;834.0195922851562
889;833.7244262695312
890;833.429443359375
891;833.1343994140625
892;832.839599609375
893;832.5449829101562
894;832.2504272460938
895;831.9562377929688
896;831.6619262695312
897;831.3677978515625
898;831.073974609375
899;830.7800903320312
900;830.486572265625
901;830.1930541992188
902;829.8997192382812
903;829.6063842773438
904;829.313232421875
905;829.0203857421875
906;828.7276000976562
907;828.434814453125
908;828.142333984375
909;827.8497924804688
910;827.5575561523438
911;827.265380859375
912;826.9735717773438
913;826.681640625
914;826.3898315429688
915;826.0983276367188
916;825.806884765625
917;825.5155029296875
918;825.224365234375
919;824.9331665039062
920;824.642333984375
921;824.3515625
922;824.0608520507812
923;823.7703247070312
924;823.4799194335938
925;823.189697265625
926;822.8993530273438
927;822.6093139648438
928;822.3193969726562
929;822.0296020507812
930;821.739990234375
931;821.4505004882812
932;821.1610107421875
933;820.871826171875
934;820.5827026367188
935;820.2935791015625
936;820.0045776367188
937;819.7158203125
938;819.4271850585938
939;819.138671875
940;818.8502807617188
941;818.5618286132812
942;818.2737426757812
943;817.9857177734375
944;817.6978149414062
945;817.4099731445312
946;817.1222534179688
947;816.8348388671875
948;816.54736328125
949;816.2601318359375
950;815.9730834960938
951;815.68603515625
952;815.399169921875
953;815.1124267578125
954;814.82568359375
955;814.5391845703125
956;814.252685546875
957;813.9663696289062
958;813.6802978515625
959;813.394287109375
960;813.1083984375
961;812.8225708007812
962;812.536865234375
963;812.2513427734375
964;811.9659423828125
965;811.6806030273438
966;811.3953247070312
967;811.1102905273438
968;810.825439453125
969;810.5406494140625
970;810.2560424804688
971;809.9714965820312
972;809.6871337890625
973;809.4027709960938
974;809.1185913085938
975;808.8345947265625
976;808.5505981445312
977;808.2667846679688
978;807.9830322265625
979;807.699462890625
980;807.4160766601562
981;807.1326904296875
982;806.8495483398438
983;806.5664672851562
984;806.2835083007812
985;806.0006713867188
986;805.7179565429688
987;805.4353637695312
988;805.1527709960938
989;804.870361328125
990;804.588134765625
991;804.3060302734375
992;804.0239868164062
993;803.741943359375
994;803.460205078125
995;803.178466796875
996;802.896728515625
997;802.615478515625
998;802.3340454101562
999;802.052734375
1000;801.7716674804688
1001;801.4906005859375
1002;801.209716796875
1003;800.928955078125
1004;800.6482543945312
1005;800.36767578125
1006;800.0872192382812
1007;799.806884765625
1008;799.5266723632812
1009;799.2466430664062
1010;798.9666137695312
1011;798.686767578125
1012;798.406982421875
1013;798.1273193359375
1014;797.847900390625
1015;797.5685424804688
1016;797.2892456054688
1017;797.010009765625
1018;796.7308959960938
1019;796.4520263671875
1020;796.1732177734375
1021;795.89453125
1022;795.615966796875
1023;795.3375244140625
1024;795.0590209960938
1025;794.7808227539062
1026;794.502685546875
1027;794.2246704101562
1028;793.9467163085938
1029;793.6688842773438
1030;793.3911743164062
1031;793.1136474609375
1032;792.8360595703125
1033;792.5587158203125
1034;792.281494140625
1035;792.0043334960938
1036;791.7272338867188
1037;791.4503784179688
1038;791.1734619140625
1039;790.8967895507812
1040;790.6201782226562
1041;790.3436279296875
1042;790.067138671875
1043;789.7908325195312
1044;789.5145874023438
1045;789.2384643554688
1046;788.9624633789062
1047;788.6866455078125
1048;788.4108276367188
1049;788.1351318359375
1050;787.859619140625
1051;787.5841674804688
1052;787.308837890625
1053;787.0335693359375
1054;786.7584838867188
1055;786.4833374023438
1056;786.2085571289062
1057;785.93359375
1058;785.6588745117188
1059;785.38427734375
1060;785.109619140625
1061;784.835205078125
1062;784.560791015625
1063;784.2865600585938
1064;784.0125122070312
1065;783.738525390625
1066;783.4646606445312
1067;783.19091796875
1068;782.9171752929688
1069;782.6435546875
1070;782.3701782226562
1071;782.0966186523438
1072;781.8233642578125
1073;781.5502319335938
1074;781.277099609375
1075;781.004150390625
1076;780.731201171875
1077;780.4583740234375
1078;780.1857299804688
1079;779.9132080078125
1080;779.6407470703125
1081;779.368408203125
1082;779.0961303710938
1083;778.8239135742188
1084;778.5518798828125
1085;778.2799682617188
1086;778.0081176757812
1087;777.7362670898438
1088;777.464599609375
1089;777.193115234375
1090;776.921630859375
1091;776.6502075195312
1092;776.3790283203125
1093;776.1077880859375
1094;775.836669921875
1095;775.565673828125
1096;775.2947998046875
1097;775.0239868164062
1098;774.7532958984375
1099;774.482666015625
1100;774.2122192382812
1101;773.9418334960938
1102;773.6715698242188
1103;773.4013061523438
1104;773.13134765625
1105;772.861328125
1106;772.5914306640625
1107;772.32177734375
1108;772.0520629882812
1109;771.782470703125
1110;771.5131225585938
1111;771.2437133789062
1112;770.974365234375
1113;770.7052001953125
1114;770.4360961914062
1115;770.167236328125
1116;769.898193359375
1117;769.6294555664062
1118;769.3606567382812
1119;769.092041015625
1120;768.823486328125
1121;768.5549926757812
1122;768.2866821289062
1123;768.0183715820312
1124;767.750244140625
1125;767.4822387695312
1126;767.2142944335938
1127;766.946533203125
1128;766.6786499023438
1129;766.4110107421875
1130;766.1434326171875
1131;765.8760986328125
1132;765.6087036132812
1133;765.3413696289062
1134;765.07421875
1135;764.8071899414062
1136;764.5402221679688
1137;764.2734375
1138;764.006591796875
1139;763.7399291992188
1140;763.4732666015625
1141;763.206787109375
1142;762.9403686523438
1143;762.6740112304688
1144;762.4077758789062
1145;762.1416015625
1146;761.8756103515625
1147;761.609619140625
1148;761.3438110351562
1149;761.0780639648438
1150;760.8123779296875
1151;760.5467529296875
1152;760.2813720703125
1153;760.0159912109375
1154;759.7507934570312
1155;759.485595703125
1156;759.2205200195312
1157;758.9555053710938
1158;758.690673828125
1159;758.4258422851562
1160;758.1611938476562
1161;757.8965454101562
1162;757.632080078125
1163;757.3676147460938
1164;757.1032104492188
1165;756.8390502929688
1166;756.574951171875
1167;756.310791015625
1168;756.0467529296875
1169;755.782958984375
1170;755.5191650390625
1171;755.2554321289062
1172;754.9918823242188
1173;754.7283325195312
1174;754.4649658203125
1175;754.2015991210938
1176;753.9383544921875
1177;753.67529296875
1178;753.412353515625
1179;753.1492919921875
1180;752.886474609375
1181;752.623779296875
1182;752.3609619140625
1183;752.098388671875
1184;751.8359985351562
1185;751.5735473632812
1186;751.311279296875
1187;751.0489501953125
1188;750.786865234375
1189;750.5247802734375
1190;750.2628784179688
1191;750.0009765625
1192;749.7393188476562
1193;749.4776000976562
1194;749.2159423828125
1195;748.9544067382812
1196;748.693115234375
1197;748.4317016601562
1198;748.1705932617188
1199;747.909423828125
1200;747.6483154296875
1201;747.3873901367188
1202;747.12646484375
1203;746.86572265625
1204;746.6051025390625
1205;746.3443603515625
1206;746.0839233398438
1207;745.823486328125
1208;745.563232421875
1209;745.302978515625
1210;745.0427856445312
1211;744.78271484375
1212;744.522705078125
1213;744.2628784179688
1214;744.0030517578125
1215;743.7432861328125
1216;743.483642578125
1217;743.2240600585938
1218;742.9646606445312
1219;742.705322265625
1220;742.4459838867188
1221;742.186767578125
1222;741.927734375
1223;741.6686401367188
1224;741.4096069335938
1225;741.1508178710938
1226;740.8919677734375
1227;740.63330078125
1228;740.374755859375
1229;740.1161499023438
1230;739.857666015625
1231;739.5994262695312
1232;739.3411254882812
1233;739.0830078125
1234;738.8248901367188
1235;738.56689453125
1236;738.3090209960938
1237;738.0512084960938
1238;737.7935180664062
1239;737.5357666015625
1240;737.2781982421875
1241;737.020751953125
1242;736.763427734375
1243;736.506103515625
1244;736.2489013671875
1245;735.9917602539062
1246;735.7347412109375
1247;735.4778442382812
1248;735.220947265625
1249;734.964111328125
1250;734.7074584960938
1251;734.45068359375
1252;734.1941528320312
1253;733.9376831054688
1254;733.681396484375
1255;733.425048828125
1256;733.1687622070312
1257;732.9126586914062
1258;732.6565551757812
1259;732.400634765625
1260;732.1447143554688
1261;731.888916015625
1262;731.6332397460938
1263;731.3776245117188
1264;731.1220092773438
1265;730.866455078125
1266;730.6111450195312
1267;730.3558349609375
1268;730.1006469726562
1269;729.845458984375
1270;729.590576171875
1271;729.3355712890625
1272;729.0806274414062
1273;728.8258666992188
1274;728.5712280273438
1275;728.3165893554688
1276;728.0618896484375
1277;727.8074951171875
1278;727.5531005859375
1279;727.298828125
1280;727.044677734375
1281;726.7904663085938
1282;726.536376953125
1283;726.282470703125
1284;726.028564453125
1285;725.7748413085938
1286;725.5210571289062
1287;725.2674560546875
1288;725.013916015625
1289;724.760498046875
1290;724.507080078125
1291;724.2537841796875
1292;724.0006713867188
1293;723.7474365234375
1294;723.4944458007812
1295;723.2413330078125
1296;722.988525390625
1297;722.735595703125
1298;722.4829711914062
1299;722.2302856445312
1300;721.9777221679688
1301;721.7252197265625
1302;721.4728393554688
1303;721.220458984375
1304;720.9682006835938
1305;720.716064453125
1306;720.4638671875
1307;720.2119750976562
1308;719.9600219726562
1309;719.7081298828125
1310;719.4564208984375
1311;719.2047729492188
1312;718.9530639648438
1313;718.7015991210938
1314;718.4501953125
1315;718.1988525390625
1316;717.947509765625
1317;717.6963500976562
1318;717.4451904296875
1319;717.1941528320312
1320;716.9431762695312
1321;716.6923217773438
1322;716.4414672851562
1323;716.1907348632812
1324;715.940185546875
1325;715.6895751953125
1326;715.4391479492188
1327;715.188720703125
1328;714.9383544921875
1329;714.6881103515625
1330;714.43798828125
1331;714.1878662109375
1332;713.9378662109375
1333;713.68798828125
1334;713.4381103515625
1335;713.1883544921875
1336;712.938720703125
1337;712.6890869140625
1338;712.4396362304688
1339;712.1901245117188
1340;711.9407958984375
1341;711.6915283203125
1342;711.4423217773438
1343;711.1931762695312
1344;710.944091796875
1345;710.6951904296875
1346;710.4462890625
1347;710.197509765625
1348;709.9487915039062
1349;709.7001342773438
1350;709.4515380859375
1351;709.2030029296875
1352;708.9547119140625
1353;708.7063598632812
1354;708.4581298828125
1355;708.2098388671875
1356;707.9617919921875
1357;707.7138061523438
1358;707.4658203125
1359;707.218017578125
1360;706.97021484375
1361;706.7224731445312
1362;706.474853515625
1363;706.227294921875
1364;705.9797973632812
1365;705.7323608398438
1366;705.485107421875
1367;705.2378540039062
1368;704.9906616210938
1369;704.7435302734375
1370;704.4964599609375
1371;704.24951171875
1372;704.0026245117188
1373;703.755859375
1374;703.5091552734375
1375;703.2625122070312
1376;703.0159301757812
1377;702.76953125
1378;702.523193359375
1379;702.2767944335938
1380;702.0306396484375
1381;701.784423828125
1382;701.538330078125
1383;701.2922973632812
1384;701.04638671875
1385;700.800537109375
1386;700.5547485351562
1387;700.3090209960938
1388;700.0633544921875
1389;699.8178100585938
1390;699.5723266601562
1391;699.3269653320312
1392;699.0816650390625
1393;698.8363647460938
1394;698.5911865234375
1395;698.3461303710938
1396;698.1011352539062
1397;697.856201171875
1398;697.6114501953125
1399;697.3665771484375
1400;697.1218872070312
1401;696.8772583007812
1402;696.6326293945312
1403;696.38818359375
1404;696.143798828125
1405;695.8993530273438
1406;695.6551513671875
1407;695.410888671875
1408;695.1668090820312
1409;694.9228515625
1410;694.6788330078125
1411;694.4348754882812
1412;694.191162109375
1413;693.9473876953125
1414;693.7037353515625
1415;693.4601440429688
1416;693.216552734375
1417;692.9732055664062
1418;692.7297973632812
1419;692.4865112304688
1420;692.2433471679688
1421;692.000244140625
1422;691.7572021484375
1423;691.5140991210938
1424;691.2711791992188
1425;691.0284423828125
1426;690.78564453125
1427;690.5428466796875
1428;690.3003540039062
1429;690.057861328125
1430;689.8153076171875
1431;689.5729370117188
1432;689.3307495117188
1433;689.0884399414062
1434;688.8462524414062
1435;688.604248046875
1436;688.3621215820312
1437;688.1201782226562
1438;687.8782958984375
1439;687.636474609375
1440;687.394775390625
1441;687.1531372070312
1442;686.9115600585938
1443;686.6700439453125
1444;686.4286499023438
1445;686.187255859375
1446;685.9459838867188
1447;685.7047729492188
1448;685.463623046875
1449;685.2225341796875
1450;684.9816284179688
1451;684.7406616210938
1452;684.4998779296875
1453;684.259033203125
1454;684.0183715820312
1455;683.7777709960938
1456;683.5372314453125
1457;683.2967529296875
1458;683.056396484375
1459;682.8161010742188
1460;682.5758056640625
1461;682.3356323242188
1462;682.0955200195312
1463;681.8555908203125
1464;681.6155395507812
1465;681.3756713867188
1466;681.1358032226562
1467;680.8960571289062
1468;680.6563720703125
1469;680.416748046875
1470;680.1771850585938
1471;679.937744140625
1472;679.6984252929688
1473;679.4591064453125
1474;679.2198486328125
1475;678.980712890625
1476;678.7416381835938
1477;678.5026245117188
1478;678.2636108398438
1479;678.0247192382812
1480;677.7859497070312
1481;677.5471801757812
1482;677.3085327148438
1483;677.0700073242188
1484;676.8314819335938
1485;676.593017578125
1486;676.3546752929688
1487;676.1163330078125
1488;675.8780517578125
1489;675.639892578125
1490;675.4019165039062
1491;675.163818359375
1492;674.9259643554688
1493;674.6881103515625
1494;674.4503173828125
1495;674.2124633789062
1496;673.974853515625
1497;673.7372436523438
1498;673.499755859375
1499;673.2622680664062
1500;673.0250244140625
1501;672.7877197265625
1502;672.550537109375
1503;672.313232421875
1504;672.076171875
1505;671.8391723632812
1506;671.602294921875
1507;671.3654174804688
1508;671.1286010742188
1509;670.891845703125
1510;670.6551513671875
1511;670.4185791015625
1512;670.1820068359375
1513;669.9456176757812
1514;669.7092895507812
1515;669.4729614257812
1516;669.2366943359375
1517;669.0005493164062
1518;668.7644653320312
1519;668.5284423828125
1520;668.2924194335938
1521;668.056640625
1522;667.82080078125
1523;667.5851440429688
1524;667.3494262695312
1525;667.1138305664062
1526;666.8782958984375
1527;666.642822265625
1528;666.4074096679688
1529;666.172119140625
1530;665.9368896484375
1531;665.7017822265625
1532;665.4666137695312
1533;665.231689453125
1534;664.9966430664062
1535;664.76171875
1536;664.5269165039062
1537;664.292236328125
1538;664.0574951171875
1539;663.8228149414062
1540;663.5883178710938
1541;663.3538208007812
1542;663.1194458007812
1543;662.885009765625
1544;662.6508178710938
1545;662.4166259765625
1546;662.182373046875
1547;661.9484252929688
1548;661.7144165039062
1549;661.4805908203125
1550;661.2466430664062
1551;661.012939453125
1552;660.7791748046875
1553;660.5455932617188
1554;660.3119506835938
1555;660.0784912109375
1556;659.8450317382812
1557;659.6116333007812
1558;659.3782958984375
1559;659.1450805664062
1560;658.9119873046875
1561;658.6787719726562
1562;658.4459228515625
1563;658.212890625
1564;657.9800415039062
1565;657.7471313476562
1566;657.514404296875
1567;657.28173828125
1568;657.049072265625
1569;656.8165283203125
1570;656.5840454101562
1571;656.3516845703125
1572;656.1192626953125
1573;655.886962890625
1574;655.6548461914062
1575;655.4226684570312
1576;655.190673828125
1577;654.9586181640625
1578;654.7266845703125
1579;654.494873046875
1580;654.2631225585938
1581;654.0313720703125
1582;653.7997436523438
1583;653.568115234375
1584;653.3366088867188
1585;653.105224609375
1586;652.873779296875
1587;652.6424560546875
1588;652.4112548828125
1589;652.1800537109375
1590;651.9489135742188
1591;651.7178344726562
1592;651.48681640625
1593;651.2559814453125
1594;651.025146484375
1595;650.79443359375
1596;650.563720703125
1597;650.3330688476562
1598;650.1024780273438
1599;649.8720092773438
1600;649.6416015625
1601;649.4111938476562
1602;649.180908203125
1603;648.95068359375
1604;648.7205200195312
1605;648.490478515625
1606;648.2604370117188
1607;648.0304565429688
1608;647.800537109375
1609;647.5706176757812
1610;647.3409423828125
1611;647.111328125
1612;646.881591796875
1613;646.6520385742188
1614;646.4225463867188
1615;646.193115234375
1616;645.9637451171875
1617;645.7344970703125
1618;645.5052490234375
1619;645.276123046875
1620;645.0470581054688
1621;644.8180541992188
1622;644.589111328125
1623;644.3601684570312
1624;644.1314086914062
1625;643.902587890625
1626;643.6740112304688
1627;643.4453125
1628;643.2167358398438
1629;642.98828125
1630;642.759765625
1631;642.531494140625
1632;642.30322265625
1633;642.074951171875
1634;641.8468627929688
1635;641.6187133789062
1636;641.390625
1637;641.1627807617188
1638;640.9348754882812
1639;640.7070922851562
1640;640.479248046875
1641;640.2516479492188
1642;640.0239868164062
1643;639.79638671875
1644;639.5689697265625
1645;639.3414306640625
1646;639.1141357421875
1647;638.8868408203125
1648;638.65966796875
1649;638.4324340820312
1650;638.2053833007812
1651;637.9783935546875
1652;637.7514038085938
1653;637.5244750976562
1654;637.2977294921875
1655;637.0709838867188
1656;636.84423828125
1657;636.6176147460938
1658;636.3910522460938
1659;636.16455078125
1660;635.9381103515625
1661;635.711669921875
1662;635.4854736328125
1663;635.2591552734375
1664;635.032958984375
1665;634.806884765625
1666;634.580810546875
1667;634.3548583984375
1668;634.1290283203125
1669;633.9031982421875
1670;633.6773681640625
1671;633.4515991210938
1672;633.2259521484375
1673;633.0004272460938
1674;632.7748413085938
1675;632.5494384765625
1676;632.323974609375
1677;632.0987548828125
1678;631.8734741210938
1679;631.648193359375
1680;631.423095703125
1681;631.1980590820312
1682;630.9730224609375
1683;630.748046875
1684;630.523193359375
1685;630.2984008789062
1686;630.07373046875
1687;629.8490600585938
1688;629.6244506835938
1689;629.39990234375
1690;629.1754760742188
1691;628.9509887695312
1692;628.7266845703125
1693;628.50244140625
1694;628.2781982421875
1695;628.0540161132812
1696;627.8298950195312
1697;627.6058959960938
1698;627.3820190429688
1699;627.1580200195312
1700;626.9342041015625
1701;626.71044921875
1702;626.4867553710938
1703;626.26318359375
1704;626.0394897460938
1705;625.8160400390625
1706;625.5925903320312
1707;625.3692626953125
1708;625.1458129882812
1709;624.922607421875
1710;624.699462890625
1711;624.476318359375
1712;624.2532348632812
1713;624.0303344726562
1714;623.807373046875
1715;623.5844116210938
1716;623.361572265625
1717;623.1388549804688
1718;622.9161987304688
1719;622.693603515625
1720;622.4710083007812
1721;622.24853515625
1722;622.0261840820312
1723;621.8038330078125
1724;621.5814819335938
1725;621.3592529296875
1726;621.1370849609375
1727;620.9150390625
1728;620.6929321289062
1729;620.470947265625
1730;620.2490844726562
1731;620.0272827148438
1732;619.805419921875
1733;619.5836791992188
1734;619.362060546875
1735;619.140380859375
1736;618.9188842773438
1737;618.6974487304688
1738;618.4759521484375
1739;618.254638671875
1740;618.0333251953125
1741;617.8121948242188
1742;617.5910034179688
1743;617.369873046875
1744;617.1488037109375
1745;616.9278564453125
1746;616.7069702148438
1747;616.486083984375
1748;616.2653198242188
1749;616.044677734375
1750;615.823974609375
1751;615.6033935546875
1752;615.3828735351562
1753;615.1624755859375
1754;614.9420776367188
1755;614.7217407226562
1756;614.50146484375
1757;614.28125
1758;614.0611572265625
1759;613.841064453125
1760;613.6210327148438
1761;613.4010620117188
1762;613.18115234375
1763;612.9613647460938
1764;612.7415161132812
1765;612.5217895507812
1766;612.3021240234375
1767;612.0825805664062
1768;611.863037109375
1769;611.6435546875
1770;611.4241943359375
1771;611.204833984375
1772;610.985595703125
1773;610.766357421875
1774;610.5471801757812
1775;610.328125
1776;610.1090698242188
1777;609.89013671875
1778;609.6712036132812
1779;609.452392578125
1780;609.233642578125
1781;609.014892578125
1782;608.7962036132812
1783;608.57763671875
1784;608.3590698242188
1785;608.1405639648438
1786;607.9221801757812
1787;607.7039794921875
1788;607.4857177734375
1789;607.2674560546875
1790;607.04931640625
1791;606.8312377929688
1792;606.6132202148438
1793;606.395263671875
1794;606.1773681640625
1795;605.9595336914062
1796;605.7418823242188
1797;605.5241088867188
1798;605.306396484375
1799;605.0888671875
1800;604.871337890625
1801;604.65380859375
1802;604.4364013671875
1803;604.2191162109375
1804;604.0018310546875
1805;603.78466796875
1806;603.5674438476562
1807;603.350341796875
1808;603.1333618164062
1809;602.9163208007812
1810;602.699462890625
1811;602.482666015625
1812;602.2658081054688
1813;602.049072265625
1814;601.8323974609375
1815;601.6157836914062
1816;601.3992919921875
1817;601.1827392578125
1818;600.9663696289062
1819;600.7500610351562
1820;600.5337524414062
1821;600.3175048828125
1822;600.101318359375
1823;599.8851928710938
1824;599.669189453125
1825;599.4531860351562
1826;599.2372436523438
1827;599.0213012695312
1828;598.805419921875
1829;598.5897216796875
1830;598.3740844726562
1831;598.158447265625
1832;597.94287109375
1833;597.7273559570312
1834;597.511962890625
1835;597.2965087890625
1836;597.081298828125
1837;596.865966796875
1838;596.6507568359375
1839;596.4356689453125
1840;596.2205200195312
1841;596.005615234375
1842;595.7905883789062
1843;595.5757446289062
1844;595.36083984375
1845;595.1461181640625
1846;594.931396484375
1847;594.7166748046875
1848;594.5020751953125
1849;594.2875366210938
1850;594.0730590820312
1851;593.858642578125
1852;593.6443481445312
1853;593.4300537109375
1854;593.2157592773438
1855;593.0016479492188
1856;592.7875366210938
1857;592.573486328125
1858;592.3594970703125
1859;592.1455078125
1860;591.9317016601562
1861;591.7178955078125
1862;591.504150390625
1863;591.2904052734375
1864;591.076904296875
1865;590.86328125
1866;590.6497192382812
1867;590.4363403320312
1868;590.222900390625
1869;590.009521484375
1870;589.7962646484375
1871;589.5831298828125
1872;589.3699340820312
1873;589.1569213867188
1874;588.94384765625
1875;588.7308959960938
1876;588.5179443359375
1877;588.30517578125
1878;588.0923461914062
1879;587.879638671875
1880;587.6669921875
1881;587.454345703125
1882;587.2418212890625
1883;587.029296875
1884;586.8168334960938
1885;586.6044921875
1886;586.3922119140625
1887;586.179931640625
1888;585.9677734375
1889;585.755615234375
1890;585.5436401367188
1891;585.3316040039062
1892;585.1196899414062
1893;584.90771484375
1894;584.6958618164062
1895;584.484130859375
1896;584.2724609375
1897;584.060791015625
1898;583.8492431640625
1899;583.6376953125
1900;583.4262084960938
1901;583.2147827148438
1902;583.0033569335938
1903;582.7921142578125
1904;582.580810546875
1905;582.3697509765625
1906;582.1586303710938
1907;581.947509765625
1908;581.7365112304688
1909;581.525634765625
1910;581.314697265625
1911;581.1038818359375
1912;580.8931274414062
1913;580.6824340820312
1914;580.4717407226562
1915;580.26123046875
1916;580.0507202148438
1917;579.8402099609375
1918;579.6298217773438
1919;579.4194946289062
1920;579.2091674804688
1921;578.9989624023438
1922;578.7887573242188
1923;578.5786743164062
1924;578.3685913085938
1925;578.1586303710938
1926;577.94873046875
1927;577.7388305664062
1928;577.529052734375
1929;577.3192749023438
1930;577.109619140625
1931;576.89990234375
1932;576.6903076171875
1933;576.4808349609375
1934;576.2713623046875
1935;576.06201171875
1936;575.8526611328125
1937;575.643310546875
1938;575.4341430664062
1939;575.2249145507812
1940;575.015869140625
1941;574.806884765625
1942;574.5978393554688
1943;574.388916015625
1944;574.179931640625
1945;573.97119140625
1946;573.7623901367188
1947;573.5535888671875
1948;573.3450317382812
1949;573.136474609375
1950;572.9279174804688
1951;572.719482421875
1952;572.5110473632812
1953;572.302734375
1954;572.094482421875
1955;571.88623046875
1956;571.677978515625
1957;571.4698486328125
1958;571.2618408203125
1959;571.0538330078125
1960;570.8458862304688
1961;570.6380004882812
1962;570.43017578125
1963;570.222412109375
1964;570.0147094726562
1965;569.8070068359375
1966;569.5994873046875
1967;569.3919067382812
1968;569.1844482421875
1969;568.9769897460938
1970;568.7696533203125
1971;568.5623779296875
1972;568.3551635742188
1973;568.1478881835938
1974;567.9407958984375
1975;567.7337646484375
1976;567.5267333984375
1977;567.3197631835938
1978;567.1128540039062
1979;566.906005859375
1980;566.69921875
1981;566.492431640625
1982;566.285888671875
1983;566.0792236328125
1984;565.8726806640625
1985;565.6661376953125
1986;565.459716796875
1987;565.2533569335938
1988;565.0469970703125
1989;564.8407592773438
1990;564.634521484375
1991;564.4284057617188
1992;564.2222900390625
1993;564.0162963867188
1994;563.810302734375
1995;563.6043701171875
1996;563.3984985351562
1997;563.1926879882812
1998;562.9869995117188
1999;562.7813110351562
