;loss
0;1371.896240234375
1;1371.251953125
2;1370.60791015625
3;1369.96435546875
4;1369.3211669921875
5;1368.6787109375
6;1368.0557861328125
7;1367.4139404296875
8;1366.78125
9;1366.1453857421875
10;1365.507080078125
11;1364.86572265625
12;1364.2244873046875
13;1363.5833740234375
14;1362.9422607421875
15;1362.29736328125
16;1361.6514892578125
17;1361.010986328125
18;1360.3641357421875
19;1359.71728515625
20;1359.07666015625
21;1358.43603515625
22;1357.78857421875
23;1357.140625
24;1356.500244140625
25;1355.859619140625
26;1355.2191162109375
27;1354.578369140625
28;1353.937744140625
29;1353.2969970703125
30;1352.6484375
31;1352.0076904296875
32;1351.3590087890625
33;1350.710205078125
34;1350.0615234375
35;1349.41259765625
36;1348.763671875
37;1348.1217041015625
38;1347.4793701171875
39;1346.8367919921875
40;1346.19384765625
41;1345.55078125
42;1344.9073486328125
43;1344.263427734375
44;1343.61279296875
45;1342.9617919921875
46;1342.3167724609375
47;1341.67138671875
48;1341.0255126953125
49;1340.3734130859375
50;1339.7205810546875
51;1339.067626953125
52;1338.4200439453125
53;1337.7662353515625
54;1337.1119384765625
55;1336.4573974609375
56;1335.8077392578125
57;1335.15771484375
58;1334.501953125
59;1333.8509521484375
60;1333.1943359375
61;1332.5423583984375
62;1331.88427734375
63;1331.23046875
64;1330.5714111328125
65;1329.916748046875
66;1329.2568359375
67;1328.5963134765625
68;1327.935546875
69;1327.274169921875
70;1326.6170654296875
71;1325.9549560546875
72;1325.2923583984375
73;1324.6292724609375
74;1323.9700927734375
75;1323.31005859375
76;1322.6497802734375
77;1321.98876953125
78;1321.327392578125
79;1320.6612548828125
80;1319.99853515625
81;1319.335205078125
82;1318.6676025390625
83;1318.0030517578125
84;1317.337890625
85;1316.678466796875
86;1316.0260009765625
87;1315.3773193359375
88;1314.72900390625
89;1314.0772705078125
90;1313.42919921875
91;1312.7811279296875
92;1312.129638671875
93;1311.47802734375
94;1310.8265380859375
95;1310.177734375
96;1309.525634765625
97;1308.8760986328125
98;1308.2261962890625
99;1307.5758056640625
100;1306.9249267578125
101;1306.2705078125
102;1305.615478515625
103;1304.959716796875
104;1304.30615234375
105;1303.648681640625
106;1302.99462890625
107;1302.3375244140625
108;1301.6826171875
109;1301.02392578125
110;1300.364013671875
111;1299.7059326171875
112;1299.046630859375
113;1298.38623046875
114;1297.7218017578125
115;1297.055908203125
116;1296.3885498046875
117;1295.7225341796875
118;1295.0548095703125
119;1294.3828125
120;1293.709228515625
121;1293.0364990234375
122;1292.36181640625
123;1291.68505859375
124;1291.006591796875
125;1290.326171875
126;1289.6414794921875
127;1288.957275390625
128;1288.27099609375
129;1287.582275390625
130;1286.8885498046875
131;1286.19482421875
132;1285.49609375
133;1284.7957763671875
134;1284.092529296875
135;1283.38916015625
136;1282.684814453125
137;1281.97802734375
138;1281.2711181640625
139;1280.562744140625
140;1279.85009765625
141;1279.136962890625
142;1278.4207763671875
143;1277.6993408203125
144;1276.9769287109375
145;1276.2489013671875
146;1275.517333984375
147;1274.7843017578125
148;1274.0479736328125
149;1273.3095703125
150;1272.5648193359375
151;1271.8157958984375
152;1271.064453125
153;1270.30615234375
154;1269.543212890625
155;1268.77490234375
156;1268.0040283203125
157;1267.2255859375
158;1266.44189453125
159;1265.6529541015625
160;1264.85791015625
161;1264.058837890625
162;1263.2535400390625
163;1262.4417724609375
164;1261.623291015625
165;1260.7955322265625
166;1259.960693359375
167;1259.118408203125
168;1258.2708740234375
169;1257.4132080078125
170;1256.5498046875
171;1255.676025390625
172;1254.7940673828125
173;1253.9058837890625
174;1253.0091552734375
175;1252.1038818359375
176;1251.18994140625
177;1250.2733154296875
178;1249.3548583984375
179;1248.427490234375
180;1247.489013671875
181;1246.5439453125
182;1245.58984375
183;1244.6259765625
184;1243.652587890625
185;1242.6700439453125
186;1241.677734375
187;1240.6754150390625
188;1239.6630859375
189;1238.640380859375
190;1237.6072998046875
191;1236.5635986328125
192;1235.5089111328125
193;1234.4434814453125
194;1233.3675537109375
195;1232.279052734375
196;1231.1796875
197;1230.0694580078125
198;1228.9481201171875
199;1227.818359375
200;1226.67431640625
201;1225.52197265625
202;1224.35888671875
203;1223.18310546875
204;1221.999267578125
205;1220.804931640625
206;1219.59716796875
207;1218.3785400390625
208;1217.152587890625
209;1215.92333984375
210;1214.681884765625
211;1213.4306640625
212;1212.17236328125
213;1210.905029296875
214;1209.62744140625
215;1208.3463134765625
216;1207.0543212890625
217;1205.754150390625
218;1204.4483642578125
219;1203.13427734375
220;1201.8109130859375
221;1200.482421875
222;1199.1434326171875
223;1197.796875
224;1196.4462890625
225;1195.0863037109375
226;1193.71923828125
227;1192.3460693359375
228;1190.9703369140625
229;1189.58837890625
230;1188.198974609375
231;1186.8072509765625
232;1185.409912109375
233;1184.009521484375
234;1182.6126708984375
235;1181.2098388671875
236;1179.8043212890625
237;1178.3980712890625
238;1176.98681640625
239;1175.5758056640625
240;1174.162353515625
241;1172.743896484375
242;1171.32568359375
243;1169.90283203125
244;1168.4776611328125
245;1167.05322265625
246;1165.6246337890625
247;1164.19775390625
248;1162.772705078125
249;1161.3450927734375
250;1159.91748046875
251;1158.4921875
252;1157.0645751953125
253;1155.6373291015625
254;1154.211181640625
255;1152.79150390625
256;1151.3751220703125
257;1149.9888916015625
258;1148.6170654296875
259;1147.251708984375
260;1145.8929443359375
261;1144.541748046875
262;1143.19580078125
263;1141.85595703125
264;1140.5201416015625
265;1139.1929931640625
266;1137.8697509765625
267;1136.5548095703125
268;1135.24365234375
269;1133.9405517578125
270;1132.64208984375
271;1131.35107421875
272;1130.0665283203125
273;1128.788330078125
274;1127.5164794921875
275;1126.2515869140625
276;1124.99560546875
277;1123.7464599609375
278;1122.50439453125
279;1121.27001953125
280;1120.04248046875
281;1118.8218994140625
282;1117.6094970703125
283;1116.4039306640625
284;1115.205810546875
285;1114.0142822265625
286;1112.82958984375
287;1111.652587890625
288;1110.483642578125
289;1109.3193359375
290;1108.1632080078125
291;1107.0137939453125
292;1105.8736572265625
293;1104.739013671875
294;1103.61083984375
295;1102.492919921875
296;1101.3897705078125
297;1100.2938232421875
298;1099.207275390625
299;1098.1278076171875
300;1097.0538330078125
301;1095.9876708984375
302;1094.9307861328125
303;1093.8817138671875
304;1092.8389892578125
305;1091.80322265625
306;1090.7735595703125
307;1089.7596435546875
308;1088.757080078125
309;1087.7659912109375
310;1086.7847900390625
311;1085.8116455078125
312;1084.8450927734375
313;1083.88525390625
314;1082.9320068359375
315;1081.9840087890625
316;1081.043212890625
317;1080.1080322265625
318;1079.1785888671875
319;1078.254638671875
320;1077.33544921875
321;1076.4268798828125
322;1075.5238037109375
323;1074.6319580078125
324;1073.7530517578125
325;1072.879150390625
326;1072.0113525390625
327;1071.150146484375
328;1070.29541015625
329;1069.4449462890625
330;1068.6011962890625
331;1067.7620849609375
332;1066.9287109375
333;1066.0994873046875
334;1065.275634765625
335;1064.460205078125
336;1063.65185546875
337;1062.848876953125
338;1062.0513916015625
339;1061.259765625
340;1060.471435546875
341;1059.6881103515625
342;1058.917724609375
343;1058.1531982421875
344;1057.3934326171875
345;1056.6419677734375
346;1055.8968505859375
347;1055.1563720703125
348;1054.42041015625
349;1053.6885986328125
350;1052.9603271484375
351;1052.23583984375
352;1051.5169677734375
353;1050.8017578125
354;1050.0902099609375
355;1049.3817138671875
356;1048.677490234375
357;1047.9765625
358;1047.279052734375
359;1046.583984375
360;1045.89208984375
361;1045.2037353515625
362;1044.5186767578125
363;1043.8363037109375
364;1043.15869140625
365;1042.48583984375
366;1041.816650390625
367;1041.1517333984375
368;1040.489990234375
369;1039.8310546875
370;1039.17431640625
371;1038.5208740234375
372;1037.8699951171875
373;1037.2216796875
374;1036.5760498046875
375;1035.9332275390625
376;1035.292724609375
377;1034.655029296875
378;1034.01904296875
379;1033.3851318359375
380;1032.754150390625
381;1032.1248779296875
382;1031.499267578125
383;1030.878662109375
384;1030.2598876953125
385;1029.64404296875
386;1029.030029296875
387;1028.4205322265625
388;1027.8135986328125
389;1027.2088623046875
390;1026.6070556640625
391;1026.0069580078125
392;1025.409423828125
393;1024.8145751953125
394;1024.22216796875
395;1023.6337890625
396;1023.050537109375
397;1022.4719848632812
398;1021.8967895507812
399;1021.3239135742188
400;1020.7534790039062
401;1020.1854248046875
402;1019.6207885742188
403;1019.0598754882812
404;1018.5055541992188
405;1017.9545288085938
406;1017.405517578125
407;1016.8596801757812
408;1016.3161010742188
409;1015.7742919921875
410;1015.2352294921875
411;1014.6981201171875
412;1014.1629638671875
413;1013.6303100585938
414;1013.1002807617188
415;1012.5712890625
416;1012.044921875
417;1011.5209350585938
418;1010.9984741210938
419;1010.4782104492188
420;1009.959228515625
421;1009.4422607421875
422;1008.927978515625
423;1008.4176635742188
424;1007.908935546875
425;1007.4038696289062
426;1006.9030151367188
427;1006.404296875
428;1005.9075317382812
429;1005.4124145507812
430;1004.919189453125
431;1004.4284057617188
432;1003.9403076171875
433;1003.4536743164062
434;1002.9697265625
435;1002.4899291992188
436;1002.0115966796875
437;1001.5350341796875
438;1001.059814453125
439;1000.586669921875
440;1000.1151123046875
441;999.6448364257812
442;999.1760864257812
443;998.708740234375
444;998.2423095703125
445;997.7774658203125
446;997.3135986328125
447;996.8511352539062
448;996.3899536132812
449;995.9295654296875
450;995.4710083007812
451;995.0147705078125
452;994.559326171875
453;994.1051635742188
454;993.65234375
455;993.2001953125
456;992.7489013671875
457;992.2991333007812
458;991.8505859375
459;991.4027709960938
460;990.9561767578125
461;990.5106201171875
462;990.0662841796875
463;989.6231689453125
464;989.180419921875
465;988.7388305664062
466;988.2981567382812
467;987.8587036132812
468;987.419921875
469;986.982177734375
470;986.5450439453125
471;986.1088256835938
472;985.673583984375
473;985.239013671875
474;984.8056640625
475;984.372802734375
476;983.9408569335938
477;983.5100708007812
478;983.080078125
479;982.6509399414062
480;982.22265625
481;981.7954711914062
482;981.3690185546875
483;980.9430541992188
484;980.5178833007812
485;980.0933227539062
486;979.6697998046875
487;979.2470703125
488;978.8250732421875
489;978.4031982421875
490;977.982421875
491;977.562255859375
492;977.1430053710938
493;976.7243041992188
494;976.3060913085938
495;975.8885498046875
496;975.471435546875
497;975.0552368164062
498;974.6395263671875
499;974.2243041992188
500;973.8098754882812
501;973.3960571289062
502;972.982666015625
503;972.570068359375
504;972.1576538085938
505;971.7462158203125
506;971.3352661132812
507;970.925048828125
508;970.5153198242188
509;970.106201171875
510;969.697998046875
511;969.2904663085938
512;968.883056640625
513;968.476318359375
514;968.0703125
515;967.664794921875
516;967.2604370117188
517;966.8563232421875
518;966.452880859375
519;966.0501098632812
520;965.6481323242188
521;965.2463989257812
522;964.845458984375
523;964.445068359375
524;964.0450439453125
525;963.6455078125
526;963.246337890625
527;962.8480834960938
528;962.4501953125
529;962.0530395507812
530;961.656494140625
531;961.2603149414062
532;960.8645629882812
533;960.469482421875
534;960.074951171875
535;959.681396484375
536;959.288330078125
537;958.8958129882812
538;958.504150390625
539;958.1129760742188
540;957.7223510742188
541;957.332275390625
542;956.9440307617188
543;956.556640625
544;956.1696166992188
545;955.7833251953125
546;955.397705078125
547;955.0121459960938
548;954.6272583007812
549;954.2428588867188
550;953.859130859375
551;953.4758911132812
552;953.093017578125
553;952.7103881835938
554;952.3286743164062
555;951.947021484375
556;951.566162109375
557;951.1856689453125
558;950.8053588867188
559;950.425537109375
560;950.0463256835938
561;949.6676635742188
562;949.289306640625
563;948.9114379882812
564;948.5338745117188
565;948.1565551757812
566;947.7799682617188
567;947.403564453125
568;947.0284423828125
569;946.6538696289062
570;946.2796020507812
571;945.9058227539062
572;945.532470703125
573;945.1596069335938
574;944.7872314453125
575;944.415283203125
576;944.0433959960938
577;943.6721801757812
578;943.3013305664062
579;942.9313354492188
580;942.5619506835938
581;942.1930541992188
582;941.82421875
583;941.4561767578125
584;941.0884399414062
585;940.7211303710938
586;940.3541870117188
587;939.9876098632812
588;939.6213989257812
589;939.2553100585938
590;938.889892578125
591;938.5247192382812
592;938.1600341796875
593;937.7957763671875
594;937.4317626953125
595;937.0684814453125
596;936.705322265625
597;936.3424682617188
598;935.9801635742188
599;935.6181640625
600;935.2567138671875
601;934.8953857421875
602;934.5346069335938
603;934.1741333007812
604;933.8137817382812
605;933.4539794921875
606;933.0946044921875
607;932.7352294921875
608;932.3765258789062
609;932.017822265625
610;931.6594848632812
611;931.3014526367188
612;930.9440307617188
613;930.586669921875
614;930.2296142578125
615;929.8731689453125
616;929.5169067382812
617;929.1611328125
618;928.805419921875
619;928.4501953125
620;928.0952758789062
621;927.7406616210938
622;927.3860473632812
623;927.031982421875
624;926.6782836914062
625;926.3248901367188
626;925.9716796875
627;925.6185913085938
628;925.265869140625
629;924.9136352539062
630;924.5614013671875
631;924.2096557617188
632;923.8580932617188
633;923.5068359375
634;923.1561279296875
635;922.8055419921875
636;922.4555053710938
637;922.105712890625
638;921.7561645507812
639;921.406982421875
640;921.057861328125
641;920.708984375
642;920.3604736328125
643;920.0123901367188
644;919.6646118164062
645;919.3170776367188
646;918.9696044921875
647;918.6224975585938
648;918.2755126953125
649;917.9290161132812
650;917.582763671875
651;917.2368774414062
652;916.8911743164062
653;916.5457763671875
654;916.2005004882812
655;915.8557739257812
656;915.5112915039062
657;915.166748046875
658;914.8228149414062
659;914.4788208007812
660;914.135498046875
661;913.7919921875
662;913.44921875
663;913.1064453125
664;912.763916015625
665;912.4215698242188
666;912.0795288085938
667;911.7378540039062
668;911.3963623046875
669;911.0551147460938
670;910.7139892578125
671;910.373291015625
672;910.0327758789062
673;909.6925659179688
674;909.352783203125
675;909.0131225585938
676;908.673583984375
677;908.3345336914062
678;907.9956665039062
679;907.6571044921875
680;907.318603515625
681;906.9805297851562
682;906.6427612304688
683;906.3051147460938
684;905.9677124023438
685;905.630615234375
686;905.293701171875
687;904.95703125
688;904.6205444335938
689;904.2844848632812
690;903.9484252929688
691;903.612548828125
692;903.2769165039062
693;902.941650390625
694;902.6065673828125
695;902.271728515625
696;901.937255859375
697;901.602783203125
698;901.2685546875
699;900.934814453125
700;900.6010131835938
701;900.267578125
702;899.934326171875
703;899.6012573242188
704;899.2683715820312
705;898.9359130859375
706;898.603759765625
707;898.2717895507812
708;897.9398803710938
709;897.608154296875
710;897.276611328125
711;896.945556640625
712;896.6146240234375
713;896.2837524414062
714;895.9531860351562
715;895.622802734375
716;895.2929077148438
717;894.962890625
718;894.6332397460938
719;894.3038940429688
720;893.9746704101562
721;893.6458129882812
722;893.3170776367188
723;892.988525390625
724;892.660400390625
725;892.332275390625
726;892.0042724609375
727;891.6766357421875
728;891.3491821289062
729;891.0219116210938
730;890.6950073242188
731;890.3682250976562
732;890.04150390625
733;889.7151489257812
734;889.388916015625
735;889.0629272460938
736;888.737060546875
737;888.41162109375
738;888.086181640625
739;887.7610473632812
740;887.4361572265625
741;887.1114501953125
742;886.786865234375
743;886.46240234375
744;886.1383666992188
745;885.8143920898438
746;885.4906005859375
747;885.1669311523438
748;884.8435668945312
749;884.5205688476562
750;884.1976928710938
751;883.8748779296875
752;883.5523071289062
753;883.2301025390625
754;882.9080810546875
755;882.5860595703125
756;882.2642822265625
757;881.94287109375
758;881.6214599609375
759;881.3001708984375
760;880.979248046875
761;880.65869140625
762;880.3382568359375
763;880.01806640625
764;879.6980590820312
765;879.3782348632812
766;879.0587158203125
767;878.7396240234375
768;878.4204711914062
769;878.1016235351562
770;877.7831420898438
771;877.4647827148438
772;877.146728515625
773;876.828857421875
774;876.510986328125
775;876.1932983398438
776;875.8758544921875
777;875.5587768554688
778;875.2418823242188
779;874.925048828125
780;874.6083984375
781;874.2921142578125
782;873.9758911132812
783;873.6597900390625
784;873.343994140625
785;873.0282592773438
786;872.7129516601562
787;872.3976440429688
788;872.0825805664062
789;871.767578125
790;871.452880859375
791;871.1382446289062
792;870.823974609375
793;870.5098266601562
794;870.1957397460938
795;869.8818969726562
796;869.5682373046875
797;869.2549438476562
798;868.9417114257812
799;868.6287841796875
800;868.3157348632812
801;868.0030517578125
802;867.6904907226562
803;867.378173828125
804;867.0658569335938
805;866.75390625
806;866.442138671875
807;866.1304321289062
808;865.8189086914062
809;865.507568359375
810;865.1964111328125
811;864.8854370117188
812;864.5746459960938
813;864.263916015625
814;863.9535522460938
815;863.6431274414062
816;863.3330078125
817;863.02294921875
818;862.7132568359375
819;862.403564453125
820;862.0941162109375
821;861.7847900390625
822;861.4757690429688
823;861.166748046875
824;860.8578491210938
825;860.5494384765625
826;860.240966796875
827;859.9326782226562
828;859.6243896484375
829;859.3165893554688
830;859.0088500976562
831;858.7012939453125
832;858.3939208984375
833;858.086669921875
834;857.779541015625
835;857.4727172851562
836;857.1658325195312
837;856.8593139648438
838;856.5529174804688
839;856.2466430664062
840;855.9404907226562
841;855.634521484375
842;855.3286743164062
843;855.0230712890625
844;854.7176513671875
845;854.412353515625
846;854.1072387695312
847;853.8021850585938
848;853.4973754882812
849;853.1928100585938
850;852.8882446289062
851;852.5838012695312
852;852.2794799804688
853;851.9755249023438
854;851.6717529296875
855;851.3680419921875
856;851.0643920898438
857;850.7608642578125
858;850.4576416015625
859;850.1546020507812
860;849.8515625
861;849.5487670898438
862;849.2461547851562
863;848.943603515625
864;848.641357421875
865;848.339111328125
866;848.0369873046875
867;847.7352905273438
868;847.4335327148438
869;847.1318969726562
870;846.83056640625
871;846.5292358398438
872;846.2281494140625
873;845.92724609375
874;845.6264038085938
875;845.325927734375
876;845.0253295898438
877;844.7249755859375
878;844.424560546875
879;844.1244506835938
880;843.8246459960938
881;843.5249633789062
882;843.2252807617188
883;842.92578125
884;842.62646484375
885;842.3272705078125
886;842.0281372070312
887;841.7293701171875
888;841.4306640625
889;841.132080078125
890;840.83349609375
891;840.53515625
892;840.2369995117188
893;839.93896484375
894;839.6410522460938
895;839.3434448242188
896;839.0457763671875
897;838.748291015625
898;838.450927734375
899;838.1539306640625
900;837.8568115234375
901;837.5599975585938
902;837.2630615234375
903;836.9664306640625
904;836.6699829101562
905;836.3737182617188
906;836.07763671875
907;835.7814331054688
908;835.485595703125
909;835.1898803710938
910;834.8941650390625
911;834.5985717773438
912;834.3032836914062
913;834.0078735351562
914;833.712890625
915;833.4177856445312
916;833.1228637695312
917;832.8283081054688
918;832.5336303710938
919;832.2393798828125
920;831.945068359375
921;831.6509399414062
922;831.3568725585938
923;831.06298828125
924;830.7692260742188
925;830.4756469726562
926;830.1821899414062
927;829.8887939453125
928;829.5955810546875
929;829.302490234375
930;829.0095825195312
931;828.716796875
932;828.424072265625
933;828.1315307617188
934;827.839111328125
935;827.546875
936;827.2547607421875
937;826.9627075195312
938;826.6708374023438
939;826.3790893554688
940;826.0875244140625
941;825.7958984375
942;825.504638671875
943;825.21337890625
944;824.9222412109375
945;824.63134765625
946;824.340576171875
947;824.0498657226562
948;823.7593383789062
949;823.468994140625
950;823.1787109375
951;822.8884887695312
952;822.598388671875
953;822.3084716796875
954;822.0186767578125
955;821.7289428710938
956;821.439453125
957;821.150146484375
958;820.86083984375
959;820.5717163085938
960;820.2826538085938
961;819.9937744140625
962;819.7050170898438
963;819.4163818359375
964;819.1279907226562
965;818.839599609375
966;818.5513305664062
967;818.2633666992188
968;817.975341796875
969;817.6876220703125
970;817.3998413085938
971;817.1122436523438
972;816.8248291015625
973;816.537353515625
974;816.2501831054688
975;815.9630737304688
976;815.6761474609375
977;815.3892211914062
978;815.1024780273438
979;814.8158569335938
980;814.5293579101562
981;814.2429809570312
982;813.9567260742188
983;813.6705932617188
984;813.3845825195312
985;813.0988159179688
986;812.8131103515625
987;812.5274047851562
988;812.2418212890625
989;811.9564208984375
990;811.6710815429688
991;811.3859252929688
992;811.1007690429688
993;810.8158569335938
994;810.531005859375
995;810.246337890625
996;809.9618530273438
997;809.6774291992188
998;809.39306640625
999;809.10888671875
1000;808.8247680664062
1001;808.540771484375
1002;808.2568969726562
1003;807.9732055664062
1004;807.6896362304688
1005;807.406005859375
1006;807.1226806640625
1007;806.8395385742188
1008;806.556396484375
1009;806.2734375
1010;805.9905395507812
1011;805.707763671875
1012;805.425048828125
1013;805.142578125
1014;804.8601684570312
1015;804.577880859375
1016;804.2957763671875
1017;804.0137939453125
1018;803.7317504882812
1019;803.4498901367188
1020;803.1681518554688
1021;802.8865966796875
1022;802.6051635742188
1023;802.3237915039062
1024;802.0426025390625
1025;801.7614135742188
1026;801.4804077148438
1027;801.199462890625
1028;800.918701171875
1029;800.6380004882812
1030;800.3574829101562
1031;800.0770263671875
1032;799.796630859375
1033;799.516357421875
1034;799.2361450195312
1035;798.9561157226562
1036;798.6760864257812
1037;798.3963623046875
1038;798.1166381835938
1039;797.837158203125
1040;797.5576171875
1041;797.2781372070312
1042;796.9989013671875
1043;796.7198486328125
1044;796.4407348632812
1045;796.1618041992188
1046;795.883056640625
1047;795.6043090820312
1048;795.325927734375
1049;795.0474243164062
1050;794.76904296875
1051;794.4907836914062
1052;794.212646484375
1053;793.9345092773438
1054;793.6566772460938
1055;793.37890625
1056;793.1012573242188
1057;792.8235473632812
1058;792.5460815429688
1059;792.2686767578125
1060;791.991455078125
1061;791.7142944335938
1062;791.437255859375
1063;791.160400390625
1064;790.883544921875
1065;790.6067504882812
1066;790.3302001953125
1067;790.0537109375
1068;789.7772216796875
1069;789.5009765625
1070;789.2247924804688
1071;788.9486694335938
1072;788.6727905273438
1073;788.3969116210938
1074;788.12109375
1075;787.8453979492188
1076;787.5698852539062
1077;787.2945556640625
1078;787.0191040039062
1079;786.743896484375
1080;786.4688720703125
1081;786.19384765625
1082;785.9189453125
1083;785.6441040039062
1084;785.369384765625
1085;785.0948486328125
1086;784.8202514648438
1087;784.5458374023438
1088;784.2715454101562
1089;783.9973754882812
1090;783.7233276367188
1091;783.4493408203125
1092;783.1754760742188
1093;782.9016723632812
1094;782.6281127929688
1095;782.3545532226562
1096;782.0811157226562
1097;781.807861328125
1098;781.5346069335938
1099;781.2615356445312
1100;780.988525390625
1101;780.7156372070312
1102;780.4428100585938
1103;780.1700439453125
1104;779.8974609375
1105;779.6248168945312
1106;779.3524169921875
1107;779.0801391601562
1108;778.8079223632812
1109;778.535888671875
1110;778.2637939453125
1111;777.991943359375
1112;777.7200317382812
1113;777.4483642578125
1114;777.1766967773438
1115;776.9052734375
1116;776.6339111328125
1117;776.3626708984375
1118;776.0914916992188
1119;775.8203735351562
1120;775.5494384765625
1121;775.278564453125
1122;775.0078735351562
1123;774.7371826171875
1124;774.466552734375
1125;774.1961059570312
1126;773.9256591796875
1127;773.6554565429688
1128;773.38525390625
1129;773.1151123046875
1130;772.8452758789062
1131;772.5753784179688
1132;772.3056030273438
1133;772.035888671875
1134;771.7662963867188
1135;771.496826171875
1136;771.2273559570312
1137;770.9581298828125
1138;770.6889038085938
1139;770.419921875
1140;770.1509399414062
1141;769.882080078125
1142;769.6132202148438
1143;769.3445434570312
1144;769.0759887695312
1145;768.8074340820312
1146;768.5391235351562
1147;768.2708129882812
1148;768.0026245117188
1149;767.7345581054688
1150;767.466552734375
1151;767.1986694335938
1152;766.930908203125
1153;766.6632690429688
1154;766.3955688476562
1155;766.1280517578125
1156;765.8606567382812
1157;765.5933227539062
1158;765.326171875
1159;765.05908203125
1160;764.7921142578125
1161;764.525146484375
1162;764.25830078125
1163;763.9915771484375
1164;763.7250366210938
1165;763.4584350585938
1166;763.1920166015625
1167;762.9257202148438
1168;762.659423828125
1169;762.393310546875
1170;762.1272583007812
1171;761.861328125
1172;761.5953979492188
1173;761.3296508789062
1174;761.06396484375
1175;760.7984008789062
1176;760.532958984375
1177;760.2676391601562
1178;760.00244140625
1179;759.7372436523438
1180;759.47216796875
1181;759.2071533203125
1182;758.9422607421875
1183;758.677490234375
1184;758.412841796875
1185;758.148193359375
1186;757.8836059570312
1187;757.6192626953125
1188;757.3548583984375
1189;757.090576171875
1190;756.826416015625
1191;756.5623779296875
1192;756.2984619140625
1193;756.0345458984375
1194;755.7708740234375
1195;755.5072021484375
1196;755.2435913085938
1197;754.9800415039062
1198;754.7166137695312
1199;754.4534301757812
1200;754.190185546875
1201;753.9271850585938
1202;753.6642456054688
1203;753.4013671875
1204;753.138427734375
1205;752.875732421875
1206;752.6130981445312
1207;752.3505859375
1208;752.0880737304688
1209;751.82568359375
1210;751.5634765625
1211;751.3012084960938
1212;751.0391845703125
1213;750.777099609375
1214;750.5152587890625
1215;750.25341796875
1216;749.9916381835938
1217;749.7301635742188
1218;749.468505859375
1219;749.2071533203125
1220;748.9457397460938
1221;748.6845092773438
1222;748.4232788085938
1223;748.1622314453125
1224;747.9012451171875
1225;747.640380859375
1226;747.3795776367188
1227;747.1188354492188
1228;746.858154296875
1229;746.59765625
1230;746.3372192382812
1231;746.0767822265625
1232;745.8165283203125
1233;745.5563354492188
1234;745.2963256835938
1235;745.0362548828125
1236;744.7763061523438
1237;744.516357421875
1238;744.2566528320312
1239;743.9970092773438
1240;743.7374877929688
1241;743.47802734375
1242;743.2186279296875
1243;742.9592895507812
1244;742.7000122070312
1245;742.4408569335938
1246;742.181884765625
1247;741.9229125976562
1248;741.6640014648438
1249;741.4052734375
1250;741.146484375
1251;740.887939453125
1252;740.62939453125
1253;740.3710327148438
1254;740.1126708984375
1255;739.8543701171875
1256;739.5963134765625
1257;739.338134765625
1258;739.0802612304688
1259;738.822265625
1260;738.5645751953125
1261;738.3067016601562
1262;738.0490112304688
1263;737.7913818359375
1264;737.533935546875
1265;737.2765502929688
1266;737.0192260742188
1267;736.761962890625
1268;736.5048217773438
1269;736.247802734375
1270;735.99072265625
1271;735.7339477539062
1272;735.47705078125
1273;735.2203369140625
1274;734.9637451171875
1275;734.707275390625
1276;734.45068359375
1277;734.1943359375
1278;733.9381103515625
1279;733.681884765625
1280;733.4258422851562
1281;733.169677734375
1282;732.9136352539062
1283;732.6578979492188
1284;732.402099609375
1285;732.1464233398438
1286;731.8907470703125
1287;731.63525390625
1288;731.3798217773438
1289;731.1244506835938
1290;730.869140625
1291;730.6138916015625
1292;730.3587646484375
1293;730.103759765625
1294;729.848876953125
1295;729.5939331054688
1296;729.3391723632812
1297;729.08447265625
1298;728.829833984375
1299;728.5753173828125
1300;728.3209838867188
1301;728.066650390625
1302;727.8123168945312
1303;727.55810546875
1304;727.3040161132812
1305;727.050048828125
1306;726.796142578125
1307;726.542236328125
1308;726.2883911132812
1309;726.0347290039062
1310;725.7810668945312
1311;725.527587890625
1312;725.2741088867188
1313;725.0206909179688
1314;724.7673950195312
1315;724.5142822265625
1316;724.2611083984375
1317;724.0081176757812
1318;723.7551879882812
1319;723.5023803710938
1320;723.2496948242188
1321;722.996826171875
1322;722.7442016601562
1323;722.4916381835938
1324;722.2392578125
1325;721.98681640625
1326;721.7345581054688
1327;721.4823608398438
1328;721.2301635742188
1329;720.9781494140625
1330;720.7261352539062
1331;720.4742431640625
1332;720.222412109375
1333;719.970703125
1334;719.7189331054688
1335;719.4674682617188
1336;719.2158813476562
1337;718.964599609375
1338;718.7131958007812
1339;718.4620361328125
1340;718.2108154296875
1341;717.9597778320312
1342;717.708740234375
1343;717.4578857421875
1344;717.2071533203125
1345;716.956298828125
1346;716.7056274414062
1347;716.455078125
1348;716.20458984375
1349;715.9541625976562
1350;715.7037353515625
1351;715.4534912109375
1352;715.2032470703125
1353;714.9532470703125
1354;714.703125
1355;714.4532470703125
1356;714.2033081054688
1357;713.9534912109375
1358;713.7037963867188
1359;713.4542236328125
1360;713.2046508789062
1361;712.9551391601562
1362;712.7057495117188
1363;712.4564208984375
1364;712.207275390625
1365;711.9580688476562
1366;711.708984375
1367;711.4600219726562
1368;711.2110595703125
1369;710.962158203125
1370;710.7135009765625
1371;710.4647216796875
1372;710.2161254882812
1373;709.9676513671875
1374;709.7191162109375
1375;709.4708251953125
1376;709.2224731445312
1377;708.9743041992188
1378;708.72607421875
1379;708.4779663085938
1380;708.2300415039062
1381;707.982177734375
1382;707.734375
1383;707.4866333007812
1384;707.239013671875
1385;706.991455078125
1386;706.7439575195312
1387;706.49658203125
1388;706.249267578125
1389;706.0018920898438
1390;705.7546997070312
1391;705.507568359375
1392;705.260498046875
1393;705.0135498046875
1394;704.7667236328125
1395;704.5198974609375
1396;704.273193359375
1397;704.0264892578125
1398;703.7799682617188
1399;703.533447265625
1400;703.2869873046875
1401;703.0407104492188
1402;702.7943725585938
1403;702.548095703125
1404;702.302001953125
1405;702.0559692382812
1406;701.81005859375
1407;701.5641479492188
1408;701.318359375
1409;701.0726928710938
1410;700.8270263671875
1411;700.5814208984375
1412;700.3359985351562
1413;700.090576171875
1414;699.8453369140625
1415;699.5999755859375
1416;699.3547973632812
1417;699.1097412109375
1418;698.8646240234375
1419;698.6197509765625
1420;698.3748168945312
1421;698.1300048828125
1422;697.88525390625
1423;697.6405639648438
1424;697.3960571289062
1425;697.151611328125
1426;696.9071044921875
1427;696.6627807617188
1428;696.4185791015625
1429;696.1743774414062
1430;695.9302368164062
1431;695.6862182617188
1432;695.4422607421875
1433;695.1983032226562
1434;694.95458984375
1435;694.7108154296875
1436;694.4671630859375
1437;694.2235107421875
1438;693.9800415039062
1439;693.736572265625
1440;693.4932861328125
1441;693.25
1442;693.0067138671875
1443;692.7636108398438
1444;692.5205688476562
1445;692.277587890625
1446;692.0347290039062
1447;691.7918090820312
1448;691.549072265625
1449;691.306396484375
1450;691.063720703125
1451;690.821044921875
1452;690.5786743164062
1453;690.3362426757812
1454;690.093994140625
1455;689.851806640625
1456;689.609619140625
1457;689.3674926757812
1458;689.12548828125
1459;688.883544921875
1460;688.6417236328125
1461;688.39990234375
1462;688.1581420898438
1463;687.9163818359375
1464;687.6748657226562
1465;687.433349609375
1466;687.1919555664062
1467;686.9506225585938
1468;686.7092895507812
1469;686.4680786132812
1470;686.2269897460938
1471;685.9859619140625
1472;685.7449951171875
1473;685.5040283203125
1474;685.26318359375
1475;685.0224609375
1476;684.7817993164062
1477;684.5411987304688
1478;684.3006591796875
1479;684.0601196289062
1480;683.8197021484375
1481;683.579345703125
1482;683.3391723632812
1483;683.0990600585938
1484;682.85888671875
1485;682.618896484375
1486;682.37890625
1487;682.1390991210938
1488;681.8992309570312
1489;681.6594848632812
1490;681.4197998046875
1491;681.1802978515625
1492;680.940673828125
1493;680.7013549804688
1494;680.4619140625
1495;680.2225952148438
1496;679.9832763671875
1497;679.744140625
1498;679.5050659179688
1499;679.2659301757812
1500;679.027099609375
1501;678.7882080078125
1502;678.5494995117188
1503;678.310791015625
1504;678.0721435546875
1505;677.8336181640625
1506;677.5950317382812
1507;677.3566284179688
1508;677.1183471679688
1509;676.8800048828125
1510;676.6417846679688
1511;676.4036254882812
1512;676.1655883789062
1513;675.9275512695312
1514;675.6896362304688
1515;675.4517822265625
1516;675.2139282226562
1517;674.9762573242188
1518;674.7386474609375
1519;674.5010986328125
1520;674.2635498046875
1521;674.0260620117188
1522;673.7886962890625
1523;673.551513671875
1524;673.314208984375
1525;673.0770874023438
1526;672.840087890625
1527;672.6029663085938
1528;672.3660888671875
1529;672.1292114257812
1530;671.8924560546875
1531;671.65576171875
1532;671.419189453125
1533;671.1825561523438
1534;670.946044921875
1535;670.7096557617188
1536;670.4733276367188
1537;670.2369384765625
1538;670.000732421875
1539;669.7646484375
1540;669.528564453125
1541;669.2926025390625
1542;669.0567626953125
1543;668.8208618164062
1544;668.5850830078125
1545;668.3494262695312
1546;668.1138305664062
1547;667.878173828125
1548;667.6426391601562
1549;667.4072265625
1550;667.171875
1551;666.9365844726562
1552;666.701416015625
1553;666.4661865234375
1554;666.231201171875
1555;665.9961547851562
1556;665.7611694335938
1557;665.5263671875
1558;665.29150390625
1559;665.0568237304688
1560;664.822021484375
1561;664.5875244140625
1562;664.3529052734375
1563;664.118408203125
1564;663.8840942382812
1565;663.6497802734375
1566;663.4155883789062
1567;663.181396484375
1568;662.9473266601562
1569;662.7132568359375
1570;662.479248046875
1571;662.2454223632812
1572;662.0115966796875
1573;661.7778930664062
1574;661.544189453125
1575;661.3104858398438
1576;661.0769653320312
1577;660.843505859375
1578;660.610107421875
1579;660.376708984375
1580;660.1434936523438
1581;659.910400390625
1582;659.6771240234375
1583;659.4440307617188
1584;659.2110595703125
1585;658.9781494140625
1586;658.7453002929688
1587;658.5125122070312
1588;658.27978515625
1589;658.047119140625
1590;657.8145751953125
1591;657.58203125
1592;657.349609375
1593;657.1173095703125
1594;656.885009765625
1595;656.6527099609375
1596;656.4205932617188
1597;656.1884155273438
1598;655.9563598632812
1599;655.7244873046875
1600;655.4925537109375
1601;655.2607421875
1602;655.0289306640625
1603;654.7971801757812
1604;654.5655517578125
1605;654.3341064453125
1606;654.1026000976562
1607;653.8711547851562
1608;653.6398315429688
1609;653.4085083007812
1610;653.1773681640625
1611;652.9461059570312
1612;652.7150268554688
1613;652.4840698242188
1614;652.253173828125
1615;652.0221557617188
1616;651.7913208007812
1617;651.5606689453125
1618;651.3299560546875
1619;651.099365234375
1620;650.8688354492188
1621;650.638427734375
1622;650.4080200195312
1623;650.1776733398438
1624;649.9473876953125
1625;649.7171020507812
1626;649.487060546875
1627;649.2569580078125
1628;649.0269775390625
1629;648.7969970703125
1630;648.567138671875
1631;648.33740234375
1632;648.107666015625
1633;647.8780517578125
1634;647.6484375
1635;647.4189453125
1636;647.189453125
1637;646.960205078125
1638;646.7308349609375
1639;646.5016479492188
1640;646.2723999023438
1641;646.043212890625
1642;645.814208984375
1643;645.585205078125
1644;645.356201171875
1645;645.12744140625
1646;644.8987426757812
1647;644.6699829101562
1648;644.4412841796875
1649;644.2127075195312
1650;643.9841918945312
1651;643.7557983398438
1652;643.5274047851562
1653;643.299072265625
1654;643.0708618164062
1655;642.8426513671875
1656;642.6145629882812
1657;642.3865966796875
1658;642.1585083007812
1659;641.9306030273438
1660;641.7028198242188
1661;641.4750366210938
1662;641.247314453125
1663;641.0196533203125
1664;640.7921142578125
1665;640.5646362304688
1666;640.3372192382812
1667;640.1098022460938
1668;639.8825073242188
1669;639.6552124023438
1670;639.427978515625
1671;639.200927734375
1672;638.973876953125
1673;638.746826171875
1674;638.52001953125
1675;638.2931518554688
1676;638.0663452148438
1677;637.839599609375
1678;637.613037109375
1679;637.386474609375
1680;637.159912109375
1681;636.9334716796875
1682;636.70703125
1683;636.4807739257812
1684;636.2545776367188
1685;636.0283203125
1686;635.8021240234375
1687;635.5760498046875
1688;635.35009765625
1689;635.1240844726562
1690;634.8982543945312
1691;634.6724853515625
1692;634.4466552734375
1693;634.2210083007812
1694;633.995361328125
1695;633.7698974609375
1696;633.5443725585938
1697;633.3189086914062
1698;633.0936279296875
1699;632.868408203125
1700;632.6431274414062
1701;632.41796875
1702;632.1929321289062
1703;631.9679565429688
1704;631.742919921875
1705;631.51806640625
1706;631.2932739257812
1707;631.0685424804688
1708;630.8438720703125
1709;630.6192626953125
1710;630.3947143554688
1711;630.170166015625
1712;629.9457397460938
1713;629.721435546875
1714;629.4971313476562
1715;629.2728271484375
1716;629.0486450195312
1717;628.8245849609375
1718;628.6005249023438
1719;628.3765869140625
1720;628.152587890625
1721;627.9288330078125
1722;627.705078125
1723;627.481201171875
1724;627.2576293945312
1725;627.0339965820312
1726;626.810546875
1727;626.5870971679688
1728;626.3635864257812
1729;626.1403198242188
1730;625.9169921875
1731;625.69384765625
1732;625.4706420898438
1733;625.2476806640625
1734;625.024658203125
1735;624.8017578125
1736;624.5787963867188
1737;624.3560791015625
1738;624.1331787109375
1739;623.9104614257812
1740;623.6878662109375
1741;623.4653930664062
1742;623.2428588867188
1743;623.0203857421875
1744;622.798095703125
1745;622.5757446289062
1746;622.353515625
1747;622.13134765625
1748;621.9091796875
1749;621.6870727539062
1750;621.465087890625
1751;621.2432250976562
1752;621.0213012695312
1753;620.7994384765625
1754;620.5777587890625
1755;620.356201171875
1756;620.134521484375
1757;619.9129028320312
1758;619.6914672851562
1759;619.4700927734375
1760;619.2487182617188
1761;619.0274047851562
1762;618.8062133789062
1763;618.5850219726562
1764;618.3638916015625
1765;618.142822265625
1766;617.9219360351562
1767;617.700927734375
1768;617.4801025390625
1769;617.2593994140625
1770;617.03857421875
1771;616.8179931640625
1772;616.597412109375
1773;616.3767700195312
1774;616.1564331054688
1775;615.93603515625
1776;615.7156982421875
1777;615.495361328125
1778;615.275146484375
1779;615.0549926757812
1780;614.8348999023438
1781;614.6149291992188
1782;614.3948974609375
1783;614.175048828125
1784;613.9552612304688
1785;613.7354736328125
1786;613.5158081054688
1787;613.296142578125
1788;613.0764770507812
1789;612.8569946289062
1790;612.6375732421875
1791;612.4181518554688
1792;612.1989135742188
1793;611.9795532226562
1794;611.7603149414062
1795;611.541259765625
1796;611.3220825195312
1797;611.1031494140625
1798;610.8841552734375
1799;610.665283203125
1800;610.4464111328125
1801;610.2276000976562
1802;610.0089721679688
1803;609.790283203125
1804;609.5717163085938
1805;609.3531494140625
1806;609.1347045898438
1807;608.9163208007812
1808;608.697998046875
1809;608.479736328125
1810;608.2615356445312
1811;608.0433959960938
1812;607.8253173828125
1813;607.6072998046875
1814;607.3892822265625
1815;607.1714477539062
1816;606.95361328125
1817;606.73583984375
1818;606.5181274414062
1819;606.3004150390625
1820;606.0828247070312
1821;605.8652954101562
1822;605.64794921875
1823;605.430419921875
1824;605.213134765625
1825;604.995849609375
1826;604.778564453125
1827;604.5614624023438
1828;604.3444213867188
1829;604.1273193359375
1830;603.910400390625
1831;603.6934204101562
1832;603.4766235351562
1833;603.259765625
1834;603.0430908203125
1835;602.826416015625
1836;602.6097412109375
1837;602.3931884765625
1838;602.1766967773438
1839;601.9602661132812
1840;601.743896484375
1841;601.5276489257812
1842;601.3113403320312
1843;601.0951538085938
1844;600.8790893554688
1845;600.6629638671875
1846;600.447021484375
1847;600.2310180664062
1848;600.0151977539062
1849;599.7993774414062
1850;599.5836791992188
1851;599.367919921875
1852;599.1522827148438
1853;598.936767578125
1854;598.7212524414062
1855;598.5057983398438
1856;598.2904052734375
1857;598.0750732421875
1858;597.8598022460938
1859;597.6446533203125
1860;597.4295043945312
1861;597.2144775390625
1862;596.9993896484375
1863;596.7845458984375
1864;596.569580078125
1865;596.3547973632812
1866;596.1399536132812
1867;595.9252319335938
1868;595.7106323242188
1869;595.4959716796875
1870;595.2814331054688
1871;595.0670776367188
1872;594.8526000976562
1873;594.6382446289062
1874;594.4240112304688
1875;594.209716796875
1876;593.9955444335938
1877;593.781494140625
1878;593.5673828125
1879;593.3534545898438
1880;593.1395263671875
1881;592.9256591796875
1882;592.7118530273438
1883;592.4981079101562
1884;592.284423828125
1885;592.07080078125
1886;591.857177734375
1887;591.6436767578125
1888;591.4302978515625
1889;591.2168579101562
1890;591.0036010742188
1891;590.790283203125
1892;590.5770874023438
1893;590.3639526367188
1894;590.1508178710938
1895;589.9378662109375
1896;589.7249145507812
1897;589.5120239257812
1898;589.2991943359375
1899;589.08642578125
1900;588.8736572265625
1901;588.6609497070312
1902;588.4483032226562
1903;588.23583984375
1904;588.0232543945312
1905;587.810791015625
1906;587.5985107421875
1907;587.38623046875
1908;587.1739501953125
1909;586.9617309570312
1910;586.7496948242188
1911;586.5375366210938
1912;586.3255615234375
1913;586.1135864257812
1914;585.9016723632812
1915;585.6898803710938
1916;585.4780883789062
1917;585.266357421875
1918;585.0547485351562
1919;584.8431396484375
1920;584.6315307617188
1921;584.4200439453125
1922;584.2086791992188
1923;583.997314453125
1924;583.7860107421875
1925;583.5748291015625
1926;583.363525390625
1927;583.1524658203125
1928;582.9414672851562
1929;582.7304077148438
1930;582.5194702148438
1931;582.3085327148438
1932;582.0977783203125
1933;581.8870239257812
1934;581.67626953125
1935;581.4656982421875
1936;581.255126953125
1937;581.0444946289062
1938;580.8341064453125
1939;580.6237182617188
1940;580.413330078125
1941;580.2030639648438
1942;579.9927978515625
1943;579.7826538085938
1944;579.572509765625
1945;579.3624267578125
1946;579.1524658203125
1947;578.9425659179688
1948;578.732666015625
1949;578.5228271484375
1950;578.3130493164062
1951;578.103271484375
1952;577.8937377929688
1953;577.6841430664062
1954;577.474609375
1955;577.2650756835938
1956;577.0557250976562
1957;576.8463134765625
1958;576.636962890625
1959;576.427734375
1960;576.2185668945312
1961;576.009521484375
1962;575.8004150390625
1963;575.5914306640625
1964;575.3825073242188
1965;575.173583984375
1966;574.9647216796875
1967;574.7560424804688
1968;574.5473022460938
1969;574.3386840820312
1970;574.130126953125
1971;573.9215698242188
1972;573.713134765625
1973;573.5046997070312
1974;573.29638671875
1975;573.0880737304688
1976;572.8797607421875
1977;572.671630859375
1978;572.4635009765625
1979;572.2554321289062
1980;572.0474243164062
1981;571.8394775390625
1982;571.631591796875
1983;571.4237060546875
1984;571.2159423828125
1985;571.0081176757812
1986;570.800537109375
1987;570.5929565429688
1988;570.3854370117188
1989;570.177978515625
1990;569.9705200195312
1991;569.76318359375
1992;569.555908203125
1993;569.3485717773438
1994;569.1414184570312
1995;568.934326171875
1996;568.7271728515625
1997;568.520263671875
1998;568.313232421875
1999;568.1063232421875
