;loss
0;1338.248046875
1;1337.8243408203125
2;1337.2548828125
3;1336.685546875
4;1336.116455078125
5;1335.5477294921875
6;1334.979248046875
7;1334.410888671875
8;1333.850830078125
9;1333.2830810546875
10;1332.7156982421875
11;1332.1485595703125
12;1331.5811767578125
13;1331.0147705078125
14;1330.446044921875
15;1329.876708984375
16;1329.3070068359375
17;1328.741943359375
18;1328.1719970703125
19;1327.607666015625
20;1327.0377197265625
21;1326.4737548828125
22;1325.9039306640625
23;1325.3404541015625
24;1324.7706298828125
25;1324.200927734375
26;1323.631103515625
27;1323.0614013671875
28;1322.4981689453125
29;1321.9283447265625
30;1321.3582763671875
31;1320.7879638671875
32;1320.2239990234375
33;1319.6529541015625
34;1319.081787109375
35;1318.510009765625
36;1317.937744140625
37;1317.37109375
38;1316.8038330078125
39;1316.2296142578125
40;1315.655029296875
41;1315.0792236328125
42;1314.5028076171875
43;1313.9256591796875
44;1313.353271484375
45;1312.774169921875
46;1312.1942138671875
47;1311.6185302734375
48;1311.0419921875
49;1310.458984375
50;1309.875
51;1309.2896728515625
52;1308.7032470703125
53;1308.12109375
54;1307.5323486328125
55;1306.942626953125
56;1306.3516845703125
57;1305.759521484375
58;1305.1661376953125
59;1304.5712890625
60;1303.975341796875
61;1303.382568359375
62;1302.783935546875
63;1302.183837890625
64;1301.5869140625
65;1300.98828125
66;1300.3885498046875
67;1299.7869873046875
68;1299.1798095703125
69;1298.5711669921875
70;1297.9609375
71;1297.3492431640625
72;1296.7357177734375
73;1296.1248779296875
74;1295.5084228515625
75;1294.889892578125
76;1294.2698974609375
77;1293.6483154296875
78;1293.0284423828125
79;1292.4033203125
80;1291.7762451171875
81;1291.1473388671875
82;1290.5201416015625
83;1289.890869140625
84;1289.259765625
85;1288.623046875
86;1287.9844970703125
87;1287.347412109375
88;1286.7081298828125
89;1286.0634765625
90;1285.416748046875
91;1284.767822265625
92;1284.1202392578125
93;1283.4669189453125
94;1282.8150634765625
95;1282.157470703125
96;1281.497802734375
97;1280.8389892578125
98;1280.1749267578125
99;1279.51171875
100;1278.843017578125
101;1278.172119140625
102;1277.501953125
103;1276.826416015625
104;1276.148681640625
105;1275.4686279296875
106;1274.7862548828125
107;1274.101318359375
108;1273.4171142578125
109;1272.73046875
110;1272.0413818359375
111;1271.346923828125
112;1270.650146484375
113;1269.9539794921875
114;1269.2520751953125
115;1268.5479736328125
116;1267.8411865234375
117;1267.135009765625
118;1266.4261474609375
119;1265.712158203125
120;1264.998291015625
121;1264.2821044921875
122;1263.560546875
123;1262.836669921875
124;1262.110107421875
125;1261.3809814453125
126;1260.6494140625
127;1259.9178466796875
128;1259.1807861328125
129;1258.44140625
130;1257.69921875
131;1256.9547119140625
132;1256.207275390625
133;1255.4600830078125
134;1254.7076416015625
135;1253.9554443359375
136;1253.1978759765625
137;1252.4376220703125
138;1251.6749267578125
139;1250.9093017578125
140;1250.1412353515625
141;1249.373046875
142;1248.599853515625
143;1247.8238525390625
144;1247.0477294921875
145;1246.2689208984375
146;1245.4912109375
147;1244.7220458984375
148;1243.9515380859375
149;1243.1790771484375
150;1242.4072265625
151;1241.631103515625
152;1240.852783203125
153;1240.072265625
154;1239.2919921875
155;1238.5069580078125
156;1237.7196044921875
157;1236.9298095703125
158;1236.1375732421875
159;1235.3428955078125
160;1234.5455322265625
161;1233.7454833984375
162;1232.9427490234375
163;1232.1376953125
164;1231.3297119140625
165;1230.5186767578125
166;1229.707275390625
167;1228.8907470703125
168;1228.0714111328125
169;1227.249267578125
170;1226.4244384765625
171;1225.5965576171875
172;1224.767822265625
173;1223.9339599609375
174;1223.0970458984375
175;1222.259521484375
176;1221.416748046875
177;1220.5709228515625
178;1219.7220458984375
179;1218.872314453125
180;1218.0174560546875
181;1217.1612548828125
182;1216.3021240234375
183;1215.439697265625
184;1214.57421875
185;1213.705322265625
186;1212.8331298828125
187;1211.9578857421875
188;1211.0770263671875
189;1210.1929931640625
190;1209.3135986328125
191;1208.4307861328125
192;1207.5474853515625
193;1206.661865234375
194;1205.771240234375
195;1204.8780517578125
196;1203.9818115234375
197;1203.0828857421875
198;1202.1806640625
199;1201.2757568359375
200;1200.367919921875
201;1199.4566650390625
202;1198.544189453125
203;1197.628662109375
204;1196.7198486328125
205;1195.8236083984375
206;1194.9254150390625
207;1194.023193359375
208;1193.1182861328125
209;1192.2113037109375
210;1191.3035888671875
211;1190.391357421875
212;1189.476318359375
213;1188.558349609375
214;1187.6373291015625
215;1186.7149658203125
216;1185.787353515625
217;1184.856689453125
218;1183.9244384765625
219;1182.9866943359375
220;1182.047119140625
221;1181.103759765625
222;1180.1566162109375
223;1179.2039794921875
224;1178.2471923828125
225;1177.2884521484375
226;1176.323974609375
227;1175.3580322265625
228;1174.4005126953125
229;1173.439697265625
230;1172.476318359375
231;1171.5098876953125
232;1170.5399169921875
233;1169.5662841796875
234;1168.5889892578125
235;1167.6077880859375
236;1166.6243896484375
237;1165.6375732421875
238;1164.646484375
239;1163.6531982421875
240;1162.654052734375
241;1161.652587890625
242;1160.6468505859375
243;1159.635009765625
244;1158.61865234375
245;1157.5977783203125
246;1156.5721435546875
247;1155.5439453125
248;1154.509033203125
249;1153.469482421875
250;1152.4249267578125
251;1151.3753662109375
252;1150.321044921875
253;1149.2618408203125
254;1148.199462890625
255;1147.1322021484375
256;1146.0579833984375
257;1144.98046875
258;1143.8958740234375
259;1142.8082275390625
260;1141.7132568359375
261;1140.615234375
262;1139.51171875
263;1138.4012451171875
264;1137.2855224609375
265;1136.1646728515625
266;1135.0384521484375
267;1133.918701171875
268;1132.802734375
269;1131.6846923828125
270;1130.5606689453125
271;1129.432373046875
272;1128.2998046875
273;1127.1678466796875
274;1126.0338134765625
275;1124.9000244140625
276;1123.762451171875
277;1122.6212158203125
278;1121.477783203125
279;1120.3287353515625
280;1119.175537109375
281;1118.018310546875
282;1116.85693359375
283;1115.691650390625
284;1114.5228271484375
285;1113.352783203125
286;1112.1806640625
287;1111.0030517578125
288;1109.821533203125
289;1108.636474609375
290;1107.4495849609375
291;1106.2574462890625
292;1105.0634765625
293;1103.864013671875
294;1102.6612548828125
295;1101.456787109375
296;1100.2490234375
297;1099.0382080078125
298;1097.824462890625
299;1096.60595703125
300;1095.3887939453125
301;1094.1683349609375
302;1092.94580078125
303;1091.7210693359375
304;1090.49462890625
305;1089.2684326171875
306;1088.0419921875
307;1086.8162841796875
308;1085.6009521484375
309;1084.387451171875
310;1083.1719970703125
311;1081.9569091796875
312;1080.7432861328125
313;1079.530029296875
314;1078.3170166015625
315;1077.1046142578125
316;1075.8944091796875
317;1074.68359375
318;1073.4754638671875
319;1072.2669677734375
320;1071.0604248046875
321;1069.859130859375
322;1068.6583251953125
323;1067.4615478515625
324;1066.267333984375
325;1065.0762939453125
326;1063.88671875
327;1062.7021484375
328;1061.5198974609375
329;1060.342529296875
330;1059.1700439453125
331;1058.005126953125
332;1056.84912109375
333;1055.7021484375
334;1054.562744140625
335;1053.431884765625
336;1052.3076171875
337;1051.190673828125
338;1050.0867919921875
339;1048.993896484375
340;1047.9071044921875
341;1046.8282470703125
342;1045.7569580078125
343;1044.6959228515625
344;1043.64453125
345;1042.601318359375
346;1041.5665283203125
347;1040.541259765625
348;1039.523193359375
349;1038.516845703125
350;1037.5225830078125
351;1036.5362548828125
352;1035.5592041015625
353;1034.5919189453125
354;1033.6334228515625
355;1032.6837158203125
356;1031.7442626953125
357;1030.8143310546875
358;1029.89453125
359;1028.9844970703125
360;1028.0838623046875
361;1027.194091796875
362;1026.311767578125
363;1025.4378662109375
364;1024.5726318359375
365;1023.7161254882812
366;1022.869140625
367;1022.029296875
368;1021.1973876953125
369;1020.37353515625
370;1019.5572509765625
371;1018.7496337890625
372;1017.9506225585938
373;1017.1600341796875
374;1016.3805541992188
375;1015.6088256835938
376;1014.8449096679688
377;1014.0877685546875
378;1013.33740234375
379;1012.5941162109375
380;1011.857421875
381;1011.1272583007812
382;1010.4036254882812
383;1009.6870727539062
384;1008.9766235351562
385;1008.2723388671875
386;1007.5739135742188
387;1006.8807983398438
388;1006.19384765625
389;1005.5119018554688
390;1004.8355102539062
391;1004.1647338867188
392;1003.5
393;1002.8402709960938
394;1002.185546875
395;1001.5352172851562
396;1000.8899536132812
397;1000.25048828125
398;999.61572265625
399;998.9864501953125
400;998.3610229492188
401;997.7401733398438
402;997.1236572265625
403;996.5120849609375
404;995.9041748046875
405;995.3014526367188
406;994.7029418945312
407;994.1078491210938
408;993.5166015625
409;992.9291381835938
410;992.3453979492188
411;991.7652587890625
412;991.1886596679688
413;990.6155395507812
414;990.0455932617188
415;989.4791870117188
416;988.9164428710938
417;988.3563232421875
418;987.7993774414062
419;987.2455444335938
420;986.6951904296875
421;986.1478271484375
422;985.6029663085938
423;985.0608520507812
424;984.521484375
425;983.9853515625
426;983.4525756835938
427;982.9225463867188
428;982.3952026367188
429;981.8704833984375
430;981.3480834960938
431;980.8282470703125
432;980.3108520507812
433;979.79541015625
434;979.2822875976562
435;978.7714233398438
436;978.2630004882812
437;977.7569580078125
438;977.2529907226562
439;976.7512817382812
440;976.2517700195312
441;975.7544555664062
442;975.259765625
443;974.76708984375
444;974.2765502929688
445;973.7874755859375
446;973.3006591796875
447;972.8159790039062
448;972.3331909179688
449;971.8525390625
450;971.3744506835938
451;970.89794921875
452;970.4232788085938
453;969.9501953125
454;969.4786376953125
455;969.0086669921875
456;968.5402221679688
457;968.0736694335938
458;967.6084594726562
459;967.1449584960938
460;966.6827392578125
461;966.2220458984375
462;965.7628173828125
463;965.3051147460938
464;964.8486938476562
465;964.3941040039062
466;963.9405517578125
467;963.48828125
468;963.0375366210938
469;962.5883178710938
470;962.1404418945312
471;961.69384765625
472;961.2483520507812
473;960.8037719726562
474;960.3606567382812
475;959.9190063476562
476;959.4784545898438
477;959.0387573242188
478;958.6001586914062
479;958.1626586914062
480;957.7264404296875
481;957.29150390625
482;956.8572998046875
483;956.4242553710938
484;955.9921875
485;955.5615234375
486;955.1321411132812
487;954.7033081054688
488;954.2753295898438
489;953.8485717773438
490;953.4229736328125
491;952.9984741210938
492;952.5748901367188
493;952.15234375
494;951.7310180664062
495;951.3103637695312
496;950.8905639648438
497;950.4716186523438
498;950.0538330078125
499;949.6369018554688
