;loss
0;1401.582763671875
1;1401.26611328125
2;1400.9505615234375
3;1400.63623046875
4;1400.3231201171875
5;1400.01123046875
6;1399.7005615234375
7;1399.390869140625
8;1399.082763671875
9;1398.7757568359375
10;1398.4715576171875
11;1398.167724609375
12;1397.8646240234375
13;1397.561767578125
14;1397.26123046875
15;1396.9600830078125
16;1396.6597900390625
17;1396.360595703125
18;1396.0650634765625
19;1395.77099609375
20;1395.4781494140625
21;1395.1864013671875
22;1394.89599609375
23;1394.606689453125
24;1394.3150634765625
25;1394.0284423828125
26;1393.739013671875
27;1393.4510498046875
28;1393.16748046875
29;1392.88134765625
30;1392.5997314453125
31;1392.3160400390625
32;1392.0330810546875
33;1391.7510986328125
34;1391.4700927734375
35;1391.1898193359375
36;1390.91357421875
37;1390.6380615234375
38;1390.363037109375
39;1390.0859375
40;1389.81201171875
41;1389.5389404296875
42;1389.2633056640625
43;1388.98828125
44;1388.71337890625
45;1388.441650390625
46;1388.16748046875
47;1387.8961181640625
48;1387.622314453125
49;1387.348388671875
50;1387.07470703125
51;1386.80322265625
52;1386.5291748046875
53;1386.2552490234375
54;1385.980712890625
55;1385.708251953125
56;1385.435302734375
57;1385.15966796875
58;1384.8834228515625
59;1384.6068115234375
60;1384.3314208984375
61;1384.0552978515625
62;1383.7764892578125
63;1383.4986572265625
64;1383.218017578125
65;1382.938232421875
66;1382.65576171875
67;1382.3717041015625
68;1382.0887451171875
69;1381.804443359375
70;1381.5169677734375
71;1381.22998046875
72;1380.9415283203125
73;1380.651611328125
74;1380.358154296875
75;1380.06494140625
76;1379.770263671875
77;1379.4737548828125
78;1379.1734619140625
79;1378.873291015625
80;1378.5692138671875
81;1378.263427734375
82;1377.957275390625
83;1377.64892578125
84;1377.336669921875
85;1377.0220947265625
86;1376.707275390625
87;1376.38818359375
88;1376.06640625
89;1375.744140625
90;1375.41748046875
91;1375.08984375
92;1374.758056640625
93;1374.42333984375
94;1374.0875244140625
95;1373.7486572265625
96;1373.406982421875
97;1373.0606689453125
98;1372.712646484375
99;1372.3616943359375
100;1372.005615234375
101;1371.64794921875
102;1371.2869873046875
103;1370.922607421875
104;1370.5528564453125
105;1370.1795654296875
106;1369.80419921875
107;1369.4232177734375
108;1369.03857421875
109;1368.651611328125
110;1368.2586669921875
111;1367.863525390625
112;1367.464111328125
113;1367.058837890625
114;1366.6507568359375
115;1366.23828125
116;1365.821044921875
117;1365.3995361328125
118;1364.972900390625
119;1364.54150390625
120;1364.1033935546875
121;1363.661865234375
122;1363.2135009765625
123;1362.761474609375
124;1362.30419921875
125;1361.839599609375
126;1361.3692626953125
127;1360.8929443359375
128;1360.4127197265625
129;1359.926513671875
130;1359.4322509765625
131;1358.9320068359375
132;1358.427001953125
133;1357.9136962890625
134;1357.3934326171875
135;1356.8685302734375
136;1356.33642578125
137;1355.79541015625
138;1355.2489013671875
139;1354.69482421875
140;1354.133056640625
141;1353.561767578125
142;1352.9820556640625
143;1352.396240234375
144;1351.8018798828125
145;1351.198974609375
146;1350.5853271484375
147;1349.9625244140625
148;1349.3304443359375
149;1348.6893310546875
150;1348.0379638671875
151;1347.379150390625
152;1346.7098388671875
153;1346.0301513671875
154;1345.3377685546875
155;1344.6365966796875
156;1343.922119140625
157;1343.1961669921875
158;1342.4586181640625
159;1341.708984375
160;1340.9468994140625
161;1340.172119140625
162;1339.3846435546875
163;1338.5860595703125
164;1337.7740478515625
165;1336.9478759765625
166;1336.1077880859375
167;1335.2528076171875
168;1334.3804931640625
169;1333.492919921875
170;1332.5919189453125
171;1331.6751708984375
172;1330.739501953125
173;1329.78955078125
174;1328.8199462890625
175;1327.832763671875
176;1326.8302001953125
177;1325.806640625
178;1324.7640380859375
179;1323.7022705078125
180;1322.6234130859375
181;1321.5247802734375
182;1320.4053955078125
183;1319.2625732421875
184;1318.098876953125
185;1316.913330078125
186;1315.708740234375
187;1314.478759765625
188;1313.2265625
189;1311.9515380859375
190;1310.656494140625
191;1309.3382568359375
192;1307.9932861328125
193;1306.624267578125
194;1305.2344970703125
195;1303.821044921875
196;1302.38330078125
197;1300.921875
198;1299.432861328125
199;1297.92041015625
200;1296.3846435546875
201;1294.8289794921875
202;1293.250732421875
203;1291.6505126953125
204;1290.0279541015625
205;1288.3846435546875
206;1286.72119140625
207;1285.034423828125
208;1283.33251953125
209;1281.6136474609375
210;1279.87890625
211;1278.125732421875
212;1276.363037109375
213;1274.588623046875
214;1272.8038330078125
215;1271.0106201171875
216;1269.206787109375
217;1267.398193359375
218;1265.590576171875
219;1263.78173828125
220;1261.9742431640625
221;1260.16943359375
222;1258.3658447265625
223;1256.5689697265625
224;1254.7872314453125
225;1253.012451171875
226;1251.2535400390625
227;1249.5054931640625
228;1247.7764892578125
229;1246.064697265625
230;1244.3760986328125
231;1242.7071533203125
232;1241.0574951171875
233;1239.43603515625
234;1237.83935546875
235;1236.2696533203125
236;1234.7225341796875
237;1233.2017822265625
238;1231.71142578125
239;1230.2469482421875
240;1228.810302734375
241;1227.4034423828125
242;1226.0206298828125
243;1224.659423828125
244;1223.32373046875
245;1222.0103759765625
246;1220.7198486328125
247;1219.45361328125
248;1218.2122802734375
249;1216.992919921875
250;1215.7955322265625
251;1214.62109375
252;1213.4674072265625
253;1212.3359375
254;1211.2239990234375
255;1210.1282958984375
256;1209.0528564453125
257;1207.9974365234375
258;1206.9571533203125
259;1205.9327392578125
260;1204.9246826171875
261;1203.9315185546875
262;1202.9537353515625
263;1201.9864501953125
264;1201.03076171875
265;1200.0885009765625
266;1199.1561279296875
267;1198.2347412109375
268;1197.3245849609375
269;1196.42431640625
270;1195.533447265625
271;1194.651611328125
272;1193.7799072265625
273;1192.9154052734375
274;1192.05908203125
275;1191.211181640625
276;1190.3724365234375
277;1189.539794921875
278;1188.715576171875
279;1187.89794921875
280;1187.089111328125
281;1186.285400390625
282;1185.48828125
283;1184.697998046875
284;1183.915283203125
285;1183.1385498046875
286;1182.3668212890625
287;1181.600830078125
288;1180.841552734375
289;1180.0865478515625
290;1179.3370361328125
291;1178.5936279296875
292;1177.8551025390625
293;1177.12158203125
294;1176.3922119140625
295;1175.6688232421875
296;1174.94921875
297;1174.235107421875
298;1173.5260009765625
299;1172.8216552734375
300;1172.1214599609375
301;1171.42578125
302;1170.7352294921875
303;1170.0491943359375
304;1169.3675537109375
305;1168.6912841796875
306;1168.0184326171875
307;1167.3485107421875
308;1166.6824951171875
309;1166.020751953125
310;1165.364013671875
311;1164.7120361328125
312;1164.062255859375
313;1163.4173583984375
314;1162.7760009765625
315;1162.1378173828125
316;1161.502685546875
317;1160.87060546875
318;1160.242431640625
319;1159.616455078125
320;1158.9940185546875
321;1158.3736572265625
322;1157.75732421875
323;1157.143798828125
324;1156.5328369140625
325;1155.9249267578125
326;1155.3203125
327;1154.717529296875
328;1154.117431640625
329;1153.5206298828125
330;1152.9256591796875
331;1152.3343505859375
332;1151.7449951171875
333;1151.15869140625
334;1150.574951171875
335;1149.9935302734375
336;1149.41455078125
337;1148.8385009765625
338;1148.26416015625
339;1147.6922607421875
340;1147.1229248046875
341;1146.5567626953125
342;1145.9921875
343;1145.429931640625
344;1144.870849609375
345;1144.31396484375
346;1143.75927734375
347;1143.2066650390625
348;1142.6561279296875
349;1142.107666015625
350;1141.5614013671875
351;1141.0174560546875
352;1140.47509765625
353;1139.9349365234375
354;1139.396484375
355;1138.859375
356;1138.323974609375
357;1137.79052734375
358;1137.2596435546875
359;1136.72998046875
360;1136.2022705078125
361;1135.6766357421875
362;1135.15283203125
363;1134.6300048828125
364;1134.108642578125
365;1133.589599609375
366;1133.0716552734375
367;1132.555419921875
368;1132.0404052734375
369;1131.5272216796875
370;1131.015625
371;1130.506103515625
372;1129.9981689453125
373;1129.491943359375
374;1128.987060546875
375;1128.4835205078125
376;1127.9813232421875
377;1127.47998046875
378;1126.9801025390625
379;1126.482177734375
380;1125.9854736328125
381;1125.48974609375
382;1124.9949951171875
383;1124.5018310546875
384;1124.0103759765625
385;1123.519775390625
386;1123.0303955078125
387;1122.542724609375
388;1122.0562744140625
389;1121.57080078125
390;1121.0865478515625
391;1120.6031494140625
392;1120.1209716796875
393;1119.640380859375
394;1119.160888671875
395;1118.6820068359375
396;1118.2042236328125
397;1117.72802734375
398;1117.2520751953125
399;1116.777587890625
400;1116.304443359375
401;1115.832275390625
402;1115.361083984375
403;1114.8909912109375
404;1114.421875
405;1113.953125
406;1113.485595703125
407;1113.0189208984375
408;1112.5528564453125
409;1112.0885009765625
410;1111.6246337890625
411;1111.1614990234375
412;1110.69921875
413;1110.238525390625
414;1109.7786865234375
415;1109.319580078125
416;1108.8614501953125
417;1108.4041748046875
418;1107.9473876953125
419;1107.49169921875
420;1107.0367431640625
421;1106.58251953125
422;1106.1292724609375
423;1105.6768798828125
424;1105.2254638671875
425;1104.774658203125
426;1104.324951171875
427;1103.876220703125
428;1103.42822265625
429;1102.98095703125
430;1102.5345458984375
431;1102.0882568359375
432;1101.6429443359375
433;1101.19873046875
434;1100.754638671875
435;1100.31201171875
436;1099.869873046875
437;1099.4281005859375
438;1098.98779296875
439;1098.5479736328125
440;1098.10888671875
441;1097.6705322265625
442;1097.2332763671875
443;1096.7967529296875
444;1096.360595703125
445;1095.925048828125
446;1095.4906005859375
447;1095.0565185546875
448;1094.6234130859375
449;1094.1905517578125
450;1093.7586669921875
451;1093.3270263671875
452;1092.8963623046875
453;1092.4661865234375
454;1092.03662109375
455;1091.6075439453125
456;1091.17919921875
457;1090.75146484375
458;1090.324462890625
459;1089.8983154296875
460;1089.4725341796875
461;1089.0472412109375
462;1088.6229248046875
463;1088.198974609375
464;1087.77587890625
465;1087.353271484375
466;1086.931396484375
467;1086.509521484375
468;1086.0887451171875
469;1085.66845703125
470;1085.2484130859375
471;1084.8292236328125
472;1084.4105224609375
473;1083.9925537109375
474;1083.5753173828125
475;1083.158203125
476;1082.741943359375
477;1082.3260498046875
478;1081.9107666015625
479;1081.4959716796875
480;1081.0816650390625
481;1080.6676025390625
482;1080.25439453125
483;1079.84130859375
484;1079.4290771484375
485;1079.017333984375
486;1078.6060791015625
487;1078.195068359375
488;1077.7850341796875
489;1077.3751220703125
490;1076.965576171875
491;1076.556884765625
492;1076.1484375
493;1075.74072265625
494;1075.33349609375
495;1074.926513671875
496;1074.52001953125
497;1074.114013671875
498;1073.708251953125
499;1073.3031005859375
500;1072.8984375
501;1072.4942626953125
502;1072.0909423828125
503;1071.6876220703125
504;1071.28515625
505;1070.8828125
506;1070.48095703125
507;1070.079833984375
508;1069.678955078125
509;1069.2784423828125
510;1068.878662109375
511;1068.4793701171875
512;1068.08056640625
513;1067.6817626953125
514;1067.283447265625
515;1066.8858642578125
516;1066.4884033203125
517;1066.0916748046875
518;1065.6954345703125
519;1065.2991943359375
520;1064.9034423828125
521;1064.5079345703125
522;1064.11328125
523;1063.7186279296875
524;1063.3248291015625
525;1062.9312744140625
526;1062.5379638671875
527;1062.1451416015625
528;1061.7530517578125
529;1061.3607177734375
530;1060.968994140625
531;1060.577880859375
532;1060.1871337890625
533;1059.7967529296875
534;1059.4066162109375
535;1059.01708984375
536;1058.6275634765625
537;1058.23828125
538;1057.849853515625
539;1057.461669921875
540;1057.073974609375
541;1056.6866455078125
542;1056.29931640625
543;1055.9127197265625
544;1055.5260009765625
545;1055.139892578125
546;1054.7542724609375
547;1054.3690185546875
548;1053.984130859375
549;1053.5992431640625
550;1053.2147216796875
551;1052.8306884765625
552;1052.4471435546875
553;1052.0640869140625
554;1051.6812744140625
555;1051.2987060546875
556;1050.91650390625
557;1050.53466796875
558;1050.1529541015625
559;1049.7716064453125
560;1049.3907470703125
561;1049.0098876953125
562;1048.6295166015625
563;1048.2496337890625
564;1047.8697509765625
565;1047.4906005859375
566;1047.1114501953125
567;1046.7325439453125
568;1046.35400390625
569;1045.97607421875
570;1045.5982666015625
571;1045.220947265625
572;1044.8438720703125
573;1044.4671630859375
574;1044.0906982421875
575;1043.714599609375
576;1043.338623046875
577;1042.9632568359375
578;1042.5880126953125
579;1042.213134765625
580;1041.838623046875
581;1041.4639892578125
582;1041.0902099609375
583;1040.7164306640625
584;1040.3431396484375
585;1039.9700927734375
586;1039.59716796875
587;1039.224365234375
588;1038.85205078125
589;1038.4798583984375
590;1038.1083984375
591;1037.7371826171875
592;1037.3660888671875
593;1036.9952392578125
594;1036.6248779296875
595;1036.2545166015625
596;1035.884521484375
597;1035.514892578125
598;1035.1456298828125
599;1034.776611328125
600;1034.407958984375
601;1034.0394287109375
602;1033.671142578125
603;1033.302978515625
604;1032.935302734375
605;1032.5677490234375
606;1032.2008056640625
607;1031.833740234375
608;1031.46728515625
609;1031.1007080078125
610;1030.7347412109375
611;1030.3690185546875
612;1030.00341796875
613;1029.63818359375
614;1029.2733154296875
615;1028.908447265625
616;1028.5438232421875
617;1028.1798095703125
618;1027.81591796875
619;1027.4522705078125
620;1027.0887451171875
621;1026.7257080078125
622;1026.3626708984375
623;1025.9998779296875
624;1025.6373291015625
625;1025.275146484375
626;1024.913330078125
627;1024.5518798828125
628;1024.1903076171875
629;1023.8292846679688
630;1023.4683227539062
631;1023.107666015625
632;1022.747314453125
633;1022.386962890625
634;1022.0270385742188
635;1021.6675415039062
636;1021.3082275390625
637;1020.94921875
638;1020.5902709960938
639;1020.2318115234375
640;1019.8734130859375
641;1019.5154418945312
642;1019.1575927734375
643;1018.7998046875
644;1018.4422607421875
645;1018.0848999023438
646;1017.7280883789062
647;1017.3712158203125
648;1017.0148315429688
649;1016.6587524414062
650;1016.3025512695312
651;1015.9467163085938
652;1015.5910034179688
653;1015.2355346679688
654;1014.880615234375
655;1014.525634765625
656;1014.1710815429688
657;1013.8167114257812
658;1013.4625244140625
659;1013.1083984375
660;1012.7546997070312
661;1012.4011840820312
662;1012.0479125976562
663;1011.6948852539062
664;1011.3419799804688
665;1010.9894409179688
666;1010.6370239257812
667;1010.2849731445312
668;1009.9328002929688
669;1009.581298828125
670;1009.2296142578125
671;1008.8782958984375
672;1008.5272216796875
673;1008.1763916015625
674;1007.8258056640625
675;1007.4754028320312
676;1007.1251220703125
677;1006.7752685546875
678;1006.4254150390625
679;1006.0757446289062
680;1005.7265014648438
681;1005.3775024414062
682;1005.0286865234375
683;1004.679931640625
684;1004.3313598632812
685;1003.9832153320312
686;1003.635009765625
687;1003.2871704101562
688;1002.939697265625
689;1002.5923461914062
690;1002.2450561523438
691;1001.8978881835938
692;1001.5512084960938
693;1001.2047119140625
694;1000.8583374023438
695;1000.5120849609375
696;1000.166015625
697;999.8204345703125
698;999.4749145507812
699;999.1295776367188
700;998.7842407226562
701;998.439453125
702;998.0946655273438
703;997.750244140625
704;997.406005859375
705;997.0619506835938
706;996.718017578125
707;996.3742065429688
708;996.0308227539062
709;995.6875
710;995.3442993164062
711;995.0013427734375
712;994.6585083007812
713;994.3160400390625
714;993.9736938476562
715;993.631591796875
716;993.2896118164062
717;992.9478149414062
718;992.6061401367188
719;992.2648315429688
720;991.9234619140625
721;991.5823364257812
722;991.2415771484375
723;990.9009399414062
724;990.560546875
725;990.2201538085938
726;989.8800659179688
727;989.5402221679688
728;989.2006225585938
729;988.8612060546875
730;988.521728515625
731;988.1826782226562
732;987.8438720703125
733;987.5050659179688
734;987.166259765625
735;986.8280029296875
736;986.4896240234375
737;986.1517333984375
738;985.8137817382812
739;985.4761352539062
740;985.1384887695312
741;984.8011474609375
742;984.4639282226562
743;984.1271362304688
744;983.7904052734375
745;983.453857421875
746;983.1173095703125
747;982.7809448242188
748;982.4449462890625
749;982.1090698242188
750;981.7735595703125
751;981.4378662109375
752;981.1027221679688
753;980.767578125
754;980.4327392578125
755;980.0980224609375
756;979.7634887695312
757;979.4288940429688
758;979.0945434570312
759;978.7604370117188
760;978.4264526367188
761;978.0925903320312
762;977.7589111328125
763;977.4254150390625
764;977.0923461914062
765;976.7593383789062
766;976.4264526367188
767;976.0938720703125
768;975.7611694335938
769;975.4287719726562
770;975.0966186523438
771;974.7644653320312
772;974.4325561523438
773;974.1007690429688
774;973.7694091796875
775;973.4380493164062
776;973.1067504882812
777;972.7757568359375
778;972.4450073242188
779;972.1141967773438
780;971.7835693359375
781;971.4533081054688
782;971.1231689453125
783;970.793212890625
784;970.4632568359375
785;970.1334838867188
786;969.8038940429688
787;969.4744873046875
788;969.1453247070312
789;968.8162841796875
790;968.4873657226562
791;968.1588745117188
792;967.830322265625
793;967.501953125
794;967.1737060546875
795;966.8455200195312
796;966.517578125
797;966.189697265625
798;965.8621215820312
799;965.5346069335938
800;965.207275390625
801;964.8801879882812
802;964.5532836914062
803;964.2265014648438
804;963.8999633789062
805;963.573486328125
806;963.2471313476562
807;962.9208984375
808;962.5950317382812
809;962.2689819335938
810;961.9432373046875
811;961.6178588867188
812;961.2922973632812
813;960.9671630859375
814;960.6421508789062
815;960.317138671875
816;959.9924926757812
817;959.6679077148438
818;959.3433227539062
819;959.0189819335938
820;958.6949462890625
821;958.3709716796875
822;958.047119140625
823;957.7234497070312
824;957.3998413085938
825;957.076416015625
826;956.7531127929688
827;956.4300537109375
828;956.107177734375
829;955.784423828125
830;955.4618530273438
831;955.1392822265625
832;954.8169555664062
833;954.4945678710938
834;954.1725463867188
835;953.8505859375
836;953.529052734375
837;953.207275390625
838;952.8858032226562
839;952.5646362304688
840;952.2434692382812
841;951.9225463867188
842;951.6015625
843;951.2808837890625
844;950.9603881835938
845;950.6398315429688
846;950.3195190429688
847;949.9993896484375
848;949.679443359375
849;949.359619140625
850;949.0398559570312
851;948.7203369140625
852;948.4007568359375
853;948.0816040039062
854;947.7625122070312
855;947.4434814453125
856;947.1244506835938
857;946.8057861328125
858;946.4871826171875
859;946.1687622070312
860;945.8504638671875
861;945.5322875976562
862;945.2142944335938
863;944.896484375
864;944.5787963867188
865;944.2612915039062
866;943.9437255859375
867;943.6264038085938
868;943.3093872070312
869;942.9923095703125
870;942.6754150390625
871;942.3587646484375
872;942.042236328125
873;941.725830078125
874;941.4094848632812
875;941.093505859375
876;940.7775268554688
877;940.4616088867188
878;940.1458129882812
879;939.8302001953125
880;939.5145874023438
881;939.1992797851562
882;938.8840942382812
883;938.5691528320312
884;938.2542114257812
885;937.939453125
886;937.6248779296875
887;937.310302734375
888;936.995849609375
889;936.6815795898438
890;936.3673095703125
891;936.0533447265625
892;935.739501953125
893;935.4259033203125
894;935.1123657226562
895;934.7988891601562
896;934.4854736328125
897;934.1724243164062
898;933.8593139648438
899;933.5463256835938
900;933.2335205078125
901;932.9207763671875
902;932.6083374023438
903;932.2959594726562
904;931.983642578125
905;931.671630859375
906;931.359619140625
907;931.0478515625
908;930.7359619140625
909;930.4243774414062
910;930.1128540039062
911;929.8014526367188
912;929.4903564453125
913;929.1793212890625
914;928.8683471679688
915;928.5575561523438
916;928.2467651367188
917;927.9360961914062
918;927.6256713867188
919;927.3153686523438
920;927.0051879882812
921;926.6951904296875
922;926.3853149414062
923;926.075439453125
924;925.7657470703125
925;925.4561157226562
926;925.146728515625
927;924.8374633789062
928;924.5281982421875
929;924.2191162109375
930;923.9102172851562
931;923.6015014648438
932;923.2928466796875
933;922.9842529296875
934;922.6758422851562
935;922.3675537109375
936;922.0593872070312
937;921.7513427734375
938;921.4434814453125
939;921.1356811523438
940;920.8279418945312
941;920.5204467773438
942;920.2130126953125
943;919.9057006835938
944;919.5986938476562
945;919.291748046875
946;918.9847412109375
947;918.6780395507812
948;918.371337890625
949;918.0648193359375
950;917.7583618164062
951;917.4520263671875
952;917.1456909179688
953;916.8397216796875
954;916.5337524414062
955;916.2278442382812
956;915.9221801757812
957;915.6165771484375
958;915.3112182617188
959;915.0057983398438
960;914.7006225585938
961;914.3955688476562
962;914.0905151367188
963;913.7858276367188
964;913.4810180664062
965;913.1763305664062
966;912.8717651367188
967;912.5674438476562
968;912.2631225585938
969;911.958984375
970;911.6550903320312
971;911.3511352539062
972;911.0472412109375
973;910.7437744140625
974;910.4402465820312
975;910.1367797851562
976;909.8336181640625
977;909.5303344726562
978;909.2273559570312
979;908.9244384765625
980;908.6215209960938
981;908.3189697265625
982;908.0162963867188
983;907.7138061523438
984;907.4113159179688
985;907.109130859375
986;906.8069458007812
987;906.5048828125
988;906.2030029296875
989;905.901123046875
990;905.5994873046875
991;905.2979125976562
992;904.9963989257812
993;904.6951293945312
994;904.3938598632812
995;904.0928344726562
996;903.7918090820312
997;903.4909057617188
998;903.190185546875
999;902.8894653320312
1000;902.5889282226562
1001;902.2885131835938
1002;901.98828125
1003;901.6880493164062
1004;901.387939453125
1005;901.0880737304688
1006;900.7882080078125
1007;900.488525390625
1008;900.1890258789062
1009;899.8895263671875
1010;899.590087890625
1011;899.2908935546875
1012;898.9916381835938
1013;898.6926879882812
1014;898.3936157226562
1015;898.0947875976562
1016;897.7962036132812
1017;897.4976806640625
1018;897.1992797851562
1019;896.9009399414062
1020;896.602783203125
1021;896.3046875
1022;896.0067138671875
1023;895.7088623046875
1024;895.4110717773438
1025;895.113525390625
1026;894.8157348632812
1027;894.5183715820312
1028;894.2210083007812
1029;893.923828125
1030;893.6265869140625
1031;893.3295288085938
1032;893.0327758789062
1033;892.7359619140625
1034;892.4392700195312
1035;892.1427001953125
1036;891.8462524414062
1037;891.5499877929688
1038;891.2537841796875
1039;890.9575805664062
1040;890.6615600585938
1041;890.3656616210938
1042;890.0699462890625
1043;889.7742309570312
1044;889.478515625
1045;889.1829223632812
1046;888.8876342773438
1047;888.5924682617188
1048;888.297119140625
1049;888.002197265625
1050;887.7072143554688
1051;887.4124145507812
1052;887.1177368164062
1053;886.8230590820312
1054;886.5285034179688
1055;886.2341918945312
1056;885.9398193359375
1057;885.6455688476562
1058;885.3515625
1059;885.0576782226562
1060;884.7637939453125
1061;884.4701538085938
1062;884.1765747070312
1063;883.883056640625
1064;883.5897216796875
1065;883.2965087890625
1066;883.0032958984375
1067;882.7102661132812
1068;882.4173583984375
1069;882.1246337890625
1070;881.8318481445312
1071;881.5391845703125
1072;881.2466430664062
1073;880.9541625976562
1074;880.6619873046875
1075;880.3698120117188
1076;880.0777587890625
1077;879.7857666015625
1078;879.4940185546875
1079;879.2022094726562
1080;878.9107055664062
1081;878.619140625
1082;878.3277587890625
1083;878.0364379882812
1084;877.7453002929688
1085;877.4542846679688
1086;877.1633911132812
1087;876.8724365234375
1088;876.581787109375
1089;876.2910766601562
1090;876.0006103515625
1091;875.710205078125
1092;875.419921875
1093;875.1296997070312
1094;874.839599609375
1095;874.5496826171875
1096;874.259765625
1097;873.9700317382812
1098;873.6802978515625
1099;873.3907470703125
1100;873.1013793945312
1101;872.8119506835938
1102;872.522705078125
1103;872.2335815429688
1104;871.9445190429688
1105;871.6557006835938
1106;871.3668212890625
1107;871.078125
1108;870.7896118164062
1109;870.5010375976562
1110;870.2125244140625
1111;869.9241943359375
1112;869.635986328125
1113;869.347900390625
1114;869.0599365234375
1115;868.7720336914062
1116;868.4842529296875
1117;868.1965942382812
1118;867.9089965820312
1119;867.6214599609375
1120;867.3341064453125
1121;867.0469970703125
1122;866.759765625
1123;866.4727783203125
1124;866.185791015625
1125;865.8988647460938
1126;865.6121215820312
1127;865.3253784179688
1128;865.0388793945312
1129;864.7525024414062
1130;864.4661254882812
1131;864.179931640625
1132;863.8937377929688
1133;863.607666015625
1134;863.3215942382812
1135;863.0358276367188
1136;862.7500610351562
1137;862.4644775390625
1138;862.1788940429688
1139;861.8933715820312
1140;861.6080322265625
1141;861.3226318359375
1142;861.0375366210938
1143;860.7525024414062
1144;860.4674682617188
1145;860.1825561523438
1146;859.8977661132812
1147;859.613037109375
1148;859.3284912109375
1149;859.0440063476562
1150;858.759765625
1151;858.4754028320312
1152;858.191162109375
1153;857.9071655273438
1154;857.6231689453125
1155;857.3392333984375
1156;857.0554809570312
1157;856.771728515625
1158;856.4881591796875
1159;856.2046508789062
1160;855.9212036132812
1161;855.6378784179688
1162;855.3546752929688
1163;855.0715942382812
1164;854.7885131835938
1165;854.5056762695312
1166;854.2227783203125
1167;853.9401245117188
1168;853.6573486328125
1169;853.3748779296875
1170;853.0924682617188
1171;852.8099975585938
1172;852.5277709960938
1173;852.2456665039062
1174;851.9635620117188
1175;851.681640625
1176;851.3997192382812
1177;851.1179809570312
1178;850.8362426757812
1179;850.5546264648438
1180;850.2730712890625
1181;849.9917602539062
1182;849.7103881835938
1183;849.4290771484375
1184;849.1480712890625
1185;848.8670654296875
1186;848.5861206054688
1187;848.3052368164062
1188;848.0244750976562
1189;847.743896484375
1190;847.4632568359375
1191;847.1827392578125
1192;846.9024658203125
1193;846.6221313476562
1194;846.3419189453125
1195;846.0618896484375
1196;845.7819213867188
1197;845.501953125
1198;845.2221069335938
1199;844.9423828125
1200;844.6627807617188
1201;844.3831787109375
1202;844.103759765625
1203;843.8244018554688
1204;843.5451049804688
1205;843.2659912109375
1206;842.9868774414062
1207;842.7078247070312
1208;842.4288940429688
1209;842.1500854492188
1210;841.871337890625
1211;841.5927124023438
1212;841.314208984375
1213;841.0357055664062
1214;840.7574462890625
1215;840.4791870117188
1216;840.2008666992188
1217;839.9227905273438
1218;839.644775390625
1219;839.3668823242188
1220;839.0889282226562
1221;838.8111572265625
1222;838.5335693359375
1223;838.2559814453125
1224;837.978515625
1225;837.7012329101562
1226;837.423828125
1227;837.1466674804688
1228;836.8695068359375
1229;836.5924682617188
1230;836.3154907226562
1231;836.0386352539062
1232;835.7618408203125
1233;835.4851684570312
1234;835.2084350585938
1235;834.9320068359375
1236;834.6555786132812
1237;834.379150390625
1238;834.1029663085938
1239;833.8267822265625
1240;833.5506591796875
1241;833.2747192382812
1242;832.9988403320312
1243;832.7230224609375
1244;832.447265625
1245;832.171630859375
1246;831.8961181640625
1247;831.6205444335938
1248;831.3451538085938
1249;831.0697631835938
1250;830.794677734375
1251;830.51953125
1252;830.244384765625
1253;829.9695434570312
1254;829.6946411132812
1255;829.4198608398438
1256;829.1452026367188
1257;828.8705444335938
1258;828.5960693359375
1259;828.3215942382812
1260;828.0472412109375
1261;827.7730102539062
1262;827.4988403320312
1263;827.2247314453125
1264;826.9506225585938
1265;826.6767578125
1266;826.4028930664062
1267;826.129150390625
1268;825.85546875
1269;825.5819091796875
1270;825.3084716796875
1271;825.0350952148438
1272;824.76171875
1273;824.4884033203125
1274;824.2153930664062
1275;823.9421997070312
1276;823.669189453125
1277;823.3963623046875
1278;823.1234130859375
1279;822.8506469726562
1280;822.5780029296875
1281;822.305419921875
1282;822.032958984375
1283;821.760498046875
1284;821.4881591796875
1285;821.2159423828125
1286;820.9437866210938
1287;820.6717529296875
1288;820.3997192382812
1289;820.1278686523438
1290;819.8560180664062
1291;819.584228515625
1292;819.3126220703125
1293;819.041015625
1294;818.76953125
1295;818.4981079101562
1296;818.226806640625
1297;817.9555053710938
1298;817.6843872070312
1299;817.4132690429688
1300;817.142333984375
1301;816.8714599609375
1302;816.6005859375
1303;816.329833984375
1304;816.0591430664062
1305;815.7885131835938
1306;815.5179443359375
1307;815.2476806640625
1308;814.9772338867188
1309;814.70703125
1310;814.4368286132812
1311;814.1668090820312
1312;813.896728515625
1313;813.6268310546875
1314;813.3568725585938
1315;813.0872192382812
1316;812.8175048828125
1317;812.5479125976562
1318;812.2783813476562
1319;812.0089111328125
1320;811.7395629882812
1321;811.4703979492188
1322;811.201171875
1323;810.9320678710938
1324;810.6630249023438
1325;810.3941650390625
1326;810.125244140625
1327;809.8563842773438
1328;809.5877685546875
1329;809.3191528320312
1330;809.050537109375
1331;808.7821655273438
1332;808.5137329101562
1333;808.2454223632812
1334;807.9772338867188
1335;807.7091064453125
1336;807.4410400390625
1337;807.1730346679688
1338;806.9050903320312
1339;806.6373291015625
1340;806.3695068359375
1341;806.1019287109375
1342;805.834228515625
1343;805.5667724609375
1344;805.2994384765625
1345;805.0321044921875
1346;804.764892578125
1347;804.4976806640625
1348;804.2305908203125
1349;803.9635620117188
1350;803.6965942382812
1351;803.4296875
1352;803.1629638671875
1353;802.8963012695312
1354;802.629638671875
1355;802.3631591796875
1356;802.0966186523438
1357;801.8302001953125
1358;801.5639038085938
1359;801.2977905273438
1360;801.031494140625
1361;800.7655639648438
1362;800.4993896484375
1363;800.2335205078125
1364;799.9677124023438
1365;799.7019653320312
1366;799.4362182617188
1367;799.1707153320312
1368;798.9050903320312
1369;798.6397094726562
1370;798.3743286132812
1371;798.109130859375
1372;797.8438720703125
1373;797.5787963867188
1374;797.313720703125
1375;797.048828125
1376;796.783935546875
1377;796.5191650390625
1378;796.2544555664062
1379;795.9898071289062
1380;795.7252197265625
1381;795.460693359375
1382;795.1962280273438
1383;794.931884765625
1384;794.6676025390625
1385;794.4033813476562
1386;794.1393432617188
1387;793.875244140625
1388;793.611328125
1389;793.3474731445312
1390;793.0836181640625
1391;792.8199462890625
1392;792.5562744140625
1393;792.2926635742188
1394;792.0291748046875
1395;791.7657470703125
1396;791.5023803710938
1397;791.2391967773438
1398;790.9760131835938
1399;790.7130126953125
1400;790.449951171875
1401;790.1871337890625
1402;789.924072265625
1403;789.6613159179688
1404;789.3985595703125
1405;789.1360473632812
1406;788.8734130859375
1407;788.6109619140625
1408;788.3486328125
1409;788.0863037109375
1410;787.8240966796875
1411;787.5618286132812
1412;787.2997436523438
1413;787.0377807617188
1414;786.7757568359375
1415;786.5137939453125
1416;786.2520751953125
1417;785.9903564453125
1418;785.7286376953125
1419;785.4671630859375
1420;785.2055053710938
1421;784.9442749023438
1422;784.6829223632812
1423;784.421630859375
1424;784.1603393554688
1425;783.8992309570312
1426;783.6383056640625
1427;783.3773193359375
1428;783.1163940429688
1429;782.8555908203125
1430;782.5947875976562
1431;782.3341674804688
1432;782.0735473632812
1433;781.8131713867188
1434;781.552734375
1435;781.2922973632812
1436;781.0320434570312
1437;780.7718505859375
1438;780.51171875
1439;780.2515869140625
1440;779.9916381835938
1441;779.7316284179688
1442;779.4718017578125
1443;779.2120971679688
1444;778.952392578125
1445;778.6928100585938
1446;778.4332275390625
1447;778.1737670898438
1448;777.9143676757812
1449;777.6550903320312
1450;777.3958129882812
1451;777.1366577148438
1452;776.8775634765625
1453;776.6184692382812
1454;776.3594970703125
1455;776.1006469726562
1456;775.8419189453125
1457;775.5831909179688
1458;775.3245849609375
1459;775.0660400390625
1460;774.8075561523438
1461;774.549072265625
1462;774.290771484375
1463;774.032470703125
1464;773.7743530273438
1465;773.5162353515625
1466;773.2581176757812
1467;773.0001831054688
1468;772.7423095703125
1469;772.484375
1470;772.2266845703125
1471;771.9690551757812
1472;771.7115478515625
1473;771.4539794921875
1474;771.1964721679688
1475;770.9390869140625
1476;770.6817626953125
1477;770.4244995117188
1478;770.1672973632812
1479;769.9102783203125
1480;769.6532592773438
1481;769.3963623046875
1482;769.1394653320312
1483;768.8826904296875
1484;768.6259155273438
1485;768.3692626953125
1486;768.1126708984375
1487;767.8562622070312
1488;767.5997314453125
1489;767.343505859375
1490;767.0872192382812
1491;766.8309936523438
1492;766.5747680664062
1493;766.3186645507812
1494;766.062744140625
1495;765.8067626953125
1496;765.5509033203125
1497;765.2951049804688
1498;765.039306640625
1499;764.7838134765625
