;loss
0;1308.3248291015625
1;1306.8798828125
2;1304.9163818359375
3;1303.1046142578125
4;1301.0789794921875
5;1299.0999755859375
6;1297.047119140625
7;1294.870849609375
8;1292.6231689453125
9;1290.2921142578125
10;1287.8758544921875
11;1285.339111328125
12;1282.663818359375
13;1279.8262939453125
14;1276.796875
15;1273.558349609375
16;1270.0474853515625
17;1266.202880859375
18;1261.947021484375
19;1257.130859375
20;1251.659423828125
21;1245.355712890625
22;1237.975830078125
23;1229.173583984375
24;1218.572021484375
25;1205.1343994140625
26;1187.666015625
27;1164.2276611328125
28;1130.8194580078125
29;1080.615966796875
30;1009.3857421875
31;925.7404174804688
32;856.3192138671875
33;810.8336791992188
34;779.5138549804688
35;755.1574096679688
36;735.4282836914062
37;718.6957397460938
38;704.1509399414062
39;691.1138305664062
40;679.5012817382812
41;668.8484497070312
42;658.89013671875
43;649.6742553710938
44;640.9949340820312
45;632.7706298828125
46;624.9053955078125
47;617.4992065429688
48;610.3850708007812
49;603.6633911132812
50;597.2510986328125
51;591.0587158203125
52;585.1723022460938
53;579.5156860351562
54;574.0257568359375
55;568.7388916015625
56;563.6359252929688
57;558.7391357421875
58;553.9885864257812
59;549.3311157226562
60;544.7896728515625
61;540.3853149414062
62;536.0731201171875
63;531.8141479492188
64;527.66552734375
65;523.5903930664062
66;519.5548095703125
67;515.6127319335938
68;511.73101806640625
69;507.8798828125
70;504.08367919921875
71;500.3643493652344
72;496.69390869140625
73;493.06988525390625
74;489.490234375
75;485.931396484375
76;482.4148254394531
77;478.9601745605469
78;475.5436096191406
79;472.1430969238281
80;468.7980651855469
81;465.4872741699219
82;462.2095031738281
83;458.9638977050781
84;455.7312316894531
85;452.54730224609375
86;449.3927307128906
87;446.266845703125
88;443.1521301269531
89;440.06512451171875
90;437.0049743652344
91;433.9712219238281
92;430.9632263183594
93;427.9957580566406
94;425.0379333496094
95;422.1045837402344
96;419.1949157714844
97;416.32293701171875
98;413.45989990234375
99;410.61956787109375
100;407.8016052246094
101;405.005859375
102;402.23193359375
103;399.4796447753906
104;396.7610778808594
105;394.05120849609375
106;391.37408447265625
107;388.71722412109375
108;386.0802917480469
109;383.4631042480469
110;380.865234375
111;378.2757263183594
112;375.705322265625
113;373.16461181640625
114;370.6321716308594
115;368.11834716796875
116;365.63299560546875
117;363.1657409667969
118;360.70697021484375
119;358.26629638671875
120;355.8533020019531
121;353.4483337402344
122;351.0699768066406
123;348.6994934082031
124;346.34619140625
125;344.00970458984375
126;341.68988037109375
127;339.38665771484375
128;337.0998229980469
129;334.83734130859375
130;332.5825500488281
131;330.3515319824219
132;328.12823486328125
133;325.92059326171875
134;323.736083984375
135;321.56707763671875
136;319.40618896484375
137;317.26025390625
138;315.1362609863281
139;313.019775390625
140;310.9248352050781
141;308.8373107910156
142;306.7708435058594
143;304.71185302734375
144;302.6668395996094
145;300.642333984375
146;298.6315002441406
147;296.63433837890625
148;294.64447021484375
149;292.6741638183594
150;290.71112060546875
151;288.761474609375
152;286.82525634765625
153;284.9082336425781
154;283.0044250488281
155;281.1080017089844
156;279.22442626953125
157;277.3590393066406
158;275.5061340332031
159;273.6602783203125
160;271.83209228515625
161;270.01617431640625
162;268.2072448730469
163;266.4104919433594
164;264.6307678222656
165;262.8629150390625
166;261.10687255859375
167;259.3625183105469
168;257.62518310546875
169;255.8993682861328
170;254.18971252441406
171;252.48695373535156
172;250.79556274414062
173;249.11996459960938
174;247.4510955810547
175;245.79774475097656
176;244.15115356445312
177;242.51565551757812
178;240.8951873779297
179;239.2814483642578
180;237.6825408935547
181;236.0943145751953
182;234.51272583007812
183;232.94175720214844
184;231.38511657714844
185;229.8350830078125
186;228.29917907714844
187;226.7698211669922
188;225.25439453125
189;223.74549865722656
190;222.2503204345703
191;220.7615509033203
192;219.2863006591797
193;217.81748962402344
194;216.36192321777344
195;214.91610717773438
196;213.47671508789062
197;212.04701232910156
198;210.63015747070312
199;209.22280883789062
200;207.82176208496094
201;206.43020629882812
202;205.05113220214844
203;203.6782684326172
204;202.31771850585938
205;200.9634246826172
206;199.61827087402344
207;198.28225708007812
208;196.955322265625
209;195.63742065429688
210;194.3284912109375
211;193.03128051757812
212;191.7428436279297
213;190.46047973632812
214;189.18687438964844
215;187.924560546875
216;186.67088317871094
217;185.42575073242188
218;184.18910217285156
219;182.95835876464844
220;181.73609924316406
221;180.52220153808594
222;179.3165740966797
223;178.11929321289062
224;176.93020629882812
225;175.75167846679688
226;174.58120727539062
227;173.41651916503906
228;172.2599334716797
229;171.1112823486328
230;169.9705810546875
231;168.83995056152344
232;167.7150115966797
233;166.60000610351562
234;165.4927215576172
235;164.3931121826172
236;163.29910278320312
237;162.21273803710938
238;161.13589477539062
239;160.06663513183594
240;159.0028533935547
241;157.9484405517578
242;156.89952087402344
243;155.85984802246094
244;154.8255615234375
245;153.79856872558594
246;152.7806396484375
247;151.76988220214844
248;150.7644805908203
249;149.7679443359375
250;148.77670288085938
251;147.79420471191406
252;146.81863403320312
253;145.848388671875
254;144.88502502441406
255;143.9285888671875
256;142.9789581298828
257;142.03773498535156
258;141.10324096679688
259;140.1739044189453
260;139.2528839111328
261;138.33843994140625
262;137.4306182861328
263;136.5293731689453
264;135.6345977783203
265;134.74488830566406
266;133.86166381835938
267;132.98484802246094
268;132.1144256591797
269;131.25172424316406
270;130.39529418945312
271;129.5450897216797
272;128.69972229003906
273;127.8619155883789
274;127.03019714355469
275;126.2032241821289
276;125.38360595703125
277;124.56876373291016
278;123.75988006591797
279;122.95824432373047
280;122.16124725341797
281;121.37015533447266
282;120.58610534667969
283;119.80782318115234
284;119.03417205810547
285;118.26741790771484
286;117.50521087646484
287;116.74982452392578
288;115.99891662597656
289;115.25474548339844
290;114.51612091064453
291;113.78192901611328
292;113.05327606201172
293;112.330078125
294;111.61334991455078
295;110.90204620361328
296;110.1960678100586
297;109.49443054199219
298;108.7981185913086
299;108.1070785522461
300;107.42127227783203
301;106.74070739746094
302;106.0652847290039
303;105.3959732055664
304;104.73084259033203
305;104.07171630859375
306;103.41669464111328
307;102.76673126220703
308;102.12266540527344
309;101.4835205078125
310;100.84842681884766
311;100.2191162109375
312;99.59465026855469
313;98.97418212890625
314;98.35851287841797
315;97.74761962890625
316;97.1423110961914
317;96.54169464111328
318;95.9457778930664
319;95.35370635986328
320;94.76703643798828
321;94.1842269897461
322;93.60595703125
323;93.0322494506836
324;92.46306610107422
325;91.89838409423828
326;91.33885192871094
327;90.78303527832031
328;90.23163604736328
329;89.68462371826172
330;89.1419448852539
331;88.60425567626953
332;88.07086944580078
333;87.54106903076172
334;87.0155029296875
335;86.49415588378906
336;85.97762298583984
337;85.46459197998047
338;84.95634460449219
339;84.45157623291016
340;83.95145416259766
341;83.4548110961914
342;82.962158203125
343;82.47352600097656
344;81.98883056640625
345;81.50870513916016
346;81.03245544433594
347;80.55955505371094
348;80.09102630615234
349;79.62583923339844
350;79.16441345214844
351;78.70680236816406
352;78.2535171508789
353;77.80339813232422
354;77.35753631591797
355;76.91481018066406
356;76.47631072998047
357;76.04090118408203
358;75.60911560058594
359;75.18092346191406
360;74.75630950927734
361;74.33525085449219
362;73.91815948486328
363;73.50457763671875
364;73.09397888183594
365;72.68684387207031
366;72.28311920166016
367;71.8827896118164
368;71.4863052368164
369;71.0931625366211
370;70.70336151123047
371;70.31640625
372;69.93315124511719
373;69.55317687988281
374;69.17640686035156
375;68.80248260498047
376;68.43215942382812
377;68.06455993652344
378;67.70013427734375
379;67.3392333984375
380;66.98104095458984
381;66.62593078613281
382;66.2742691040039
383;65.92565155029297
384;65.57965850830078
385;65.23667907714844
386;64.89665985107422
387;64.55997467041016
388;64.2262191772461
389;63.894996643066406
390;63.56671905517578
391;63.24161148071289
392;62.919368743896484
393;62.59960174560547
394;62.28266143798828
395;61.968833923339844
396;61.65779495239258
397;61.34915542602539
398;61.0435791015625
399;60.74066925048828
400;60.44020462036133
401;60.142356872558594
402;59.84748458862305
403;59.55495834350586
404;59.26530838012695
405;58.97826385498047
406;58.69379806518555
407;58.41157150268555
408;58.1321907043457
409;57.85503005981445
410;57.580650329589844
411;57.3087272644043
412;57.039031982421875
413;56.772029876708984
414;56.507171630859375
415;56.2447509765625
416;55.98494338989258
417;55.727264404296875
418;55.47219467163086
419;55.219207763671875
420;54.9685173034668
421;54.72016525268555
422;54.47431182861328
423;54.2304801940918
424;53.98891830444336
425;53.749794006347656
426;53.51266098022461
427;53.27796173095703
428;53.04541778564453
429;52.814823150634766
430;52.586368560791016
431;52.36006546020508
432;52.13587188720703
433;51.91375732421875
434;51.6937255859375
435;51.475765228271484
436;51.259849548339844
437;51.04617691040039
438;50.83430099487305
439;50.62462615966797
440;50.416744232177734
441;50.2108268737793
442;50.00705337524414
443;49.805206298828125
444;49.6051025390625
445;49.40709686279297
446;49.21094512939453
447;49.01651382446289
448;48.823944091796875
449;48.63322067260742
450;48.44449234008789
451;48.2574348449707
452;48.07229995727539
453;47.8888053894043
454;47.70725631713867
455;47.52729034423828
456;47.34907913208008
457;47.1727409362793
458;46.998130798339844
459;46.82505416870117
460;46.65382766723633
461;46.48411178588867
462;46.31607437133789
463;46.149810791015625
464;45.98518753051758
465;45.822025299072266
466;45.66061782836914
467;45.500648498535156
468;45.34228515625
469;45.18547821044922
470;45.03035354614258
471;44.87662124633789
472;44.72443389892578
473;44.57389450073242
474;44.4248161315918
475;44.27724838256836
476;44.13106155395508
477;43.98640060424805
478;43.84309768676758
479;43.70124053955078
480;43.5608024597168
481;43.42178726196289
482;43.284278869628906
483;43.14802932739258
484;43.013301849365234
485;42.87990188598633
486;42.74776840209961
487;42.617088317871094
488;42.48773193359375
489;42.35968780517578
490;42.232940673828125
491;42.10741424560547
492;41.983150482177734
493;41.86024856567383
494;41.73862838745117
495;41.61826705932617
496;41.49903106689453
497;41.38111114501953
498;41.26443862915039
499;41.14894485473633
500;41.03464126586914
501;40.921546936035156
502;40.80960464477539
503;40.698829650878906
504;40.58915328979492
505;40.48067855834961
506;40.373329162597656
507;40.267032623291016
508;40.16195297241211
509;40.057857513427734
510;39.95487594604492
511;39.85298538208008
512;39.75215530395508
513;39.65240478515625
514;39.553688049316406
515;39.45610809326172
516;39.3594856262207
517;39.26386260986328
518;39.16934585571289
519;39.075862884521484
520;38.98326873779297
521;38.89175796508789
522;38.801212310791016
523;38.711639404296875
524;38.62295913696289
525;38.5352897644043
526;38.44851303100586
527;38.3626823425293
528;38.27783203125
529;38.19387435913086
530;38.110801696777344
531;38.02859878540039
532;37.947364807128906
533;37.86700439453125
534;37.78751754760742
535;37.70883560180664
536;37.63107681274414
537;37.55416488647461
538;37.478031158447266
539;37.40276336669922
540;37.32834243774414
541;37.25469207763672
542;37.18192672729492
543;37.10995101928711
544;37.03874969482422
545;36.968360900878906
546;36.89868927001953
547;36.82985305786133
548;36.76171112060547
549;36.69438934326172
550;36.62779998779297
551;36.56197738647461
552;36.49686813354492
553;36.432464599609375
554;36.36880111694336
555;36.30587387084961
556;36.24364471435547
557;36.1821174621582
558;36.12123489379883
559;36.06108474731445
560;36.00157928466797
561;35.9427604675293
562;35.88459014892578
563;35.82710647583008
564;35.770286560058594
565;35.71410369873047
566;35.65851974487305
567;35.60358810424805
568;35.549312591552734
569;35.49565887451172
570;35.44257736206055
571;35.39014434814453
572;35.33831024169922
573;35.28702926635742
574;35.236358642578125
575;35.186256408691406
576;35.13677215576172
577;35.087860107421875
578;35.03947448730469
579;34.991695404052734
580;34.944427490234375
581;34.89773941040039
582;34.85157775878906
583;34.805973052978516
584;34.76088333129883
585;34.716331481933594
586;34.672298431396484
587;34.6287727355957
588;34.585777282714844
589;34.54325485229492
590;34.501251220703125
591;34.45972442626953
592;34.41869354248047
593;34.378177642822266
594;34.33810043334961
595;34.298519134521484
596;34.25939178466797
597;34.220733642578125
598;34.18253707885742
599;34.144805908203125
600;34.10752487182617
601;34.070709228515625
602;34.03429412841797
603;33.998348236083984
604;33.96281814575195
605;33.92770767211914
606;33.893035888671875
607;33.85875701904297
608;33.82494354248047
609;33.79148483276367
610;33.758426666259766
611;33.72580337524414
612;33.69356918334961
613;33.66170120239258
614;33.63025665283203
615;33.599159240722656
616;33.568458557128906
617;33.53811264038086
618;33.50818634033203
619;33.47858810424805
620;33.449371337890625
621;33.420494079589844
622;33.39198303222656
623;33.36381149291992
624;33.33600997924805
625;33.308536529541016
626;33.28141403198242
627;33.2546272277832
628;33.228172302246094
629;33.2020149230957
630;33.17620086669922
631;33.150699615478516
632;33.12553024291992
633;33.10065841674805
634;33.07611083984375
635;33.0518684387207
636;33.027923583984375
637;33.004268646240234
638;32.980918884277344
639;32.957847595214844
640;32.935089111328125
641;32.91261291503906
642;32.89041519165039
643;32.868507385253906
644;32.84687423706055
645;32.825531005859375
646;32.804420471191406
647;32.783607482910156
648;32.76304626464844
649;32.742759704589844
650;32.72270965576172
651;32.70293045043945
652;32.68339920043945
653;32.664127349853516
654;32.64509201049805
655;32.626304626464844
656;32.60773849487305
657;32.589412689208984
658;32.571353912353516
659;32.553504943847656
660;32.535892486572266
661;32.518497467041016
662;32.501346588134766
663;32.48440170288086
664;32.467674255371094
665;32.451175689697266
666;32.43488311767578
667;32.418792724609375
668;32.40292739868164
669;32.38726806640625
670;32.371822357177734
671;32.356563568115234
672;32.341487884521484
673;32.326637268066406
674;32.31197738647461
675;32.29749298095703
676;32.28323745727539
677;32.2691535949707
678;32.25523376464844
679;32.24150848388672
680;32.227962493896484
681;32.214603424072266
682;32.201412200927734
683;32.18839645385742
684;32.17557144165039
685;32.16289520263672
686;32.15040969848633
687;32.13808059692383
688;32.125911712646484
689;32.11391067504883
690;32.10206985473633
691;32.09036636352539
692;32.078857421875
693;32.06747817993164
694;32.05625915527344
695;32.04519271850586
696;32.034271240234375
697;32.023502349853516
698;32.01287078857422
699;32.00238037109375
700;31.99205207824707
701;31.98183822631836
702;31.97177505493164
703;31.96183204650879
704;31.952043533325195
705;31.942386627197266
706;31.932861328125
707;31.923471450805664
708;31.914203643798828
709;31.905046463012695
710;31.89603614807129
711;31.887144088745117
712;31.878360748291016
713;31.86971664428711
714;31.861177444458008
715;31.85276985168457
716;31.8444766998291
717;31.836292266845703
718;31.82822036743164
719;31.820253372192383
720;31.81241798400879
721;31.804668426513672
722;31.797027587890625
723;31.78952407836914
724;31.782106399536133
725;31.7747745513916
726;31.767562866210938
727;31.76043701171875
728;31.75343894958496
729;31.746509552001953
730;31.739696502685547
731;31.732980728149414
732;31.726343154907227
733;31.71981430053711
734;31.713382720947266
735;31.70701026916504
736;31.700740814208984
737;31.694568634033203
738;31.688493728637695
739;31.68248176574707
740;31.67656898498535
741;31.670734405517578
742;31.66499137878418
743;31.659320831298828
744;31.653730392456055
745;31.648237228393555
746;31.642810821533203
747;31.637454986572266
748;31.63218879699707
749;31.626985549926758
750;31.621862411499023
751;31.61680793762207
752;31.61182975769043
753;31.606943130493164
754;31.602102279663086
755;31.597326278686523
756;31.592634201049805
757;31.588001251220703
758;31.583438873291016
759;31.578948974609375
760;31.574520111083984
761;31.570146560668945
762;31.565845489501953
763;31.56162452697754
764;31.557430267333984
765;31.553319931030273
766;31.549259185791016
767;31.545276641845703
768;31.541316986083984
769;31.537443161010742
770;31.533620834350586
771;31.529844284057617
772;31.526140213012695
773;31.522493362426758
774;31.518878936767578
775;31.51532554626465
776;31.511837005615234
777;31.50837516784668
778;31.504985809326172
779;31.501644134521484
780;31.498355865478516
781;31.495105743408203
782;31.491907119750977
783;31.48874855041504
784;31.48564338684082
785;31.482593536376953
786;31.47957992553711
787;31.476612091064453
788;31.47369384765625
789;31.47081184387207
790;31.46797752380371
791;31.465181350708008
792;31.462432861328125
793;31.459728240966797
794;31.45705223083496
795;31.45443344116211
796;31.45183753967285
797;31.449298858642578
798;31.4467830657959
799;31.444311141967773
800;31.441877365112305
801;31.43947982788086
802;31.437108993530273
803;31.43478775024414
804;31.432506561279297
805;31.430240631103516
806;31.428022384643555
807;31.425832748413086
808;31.42367935180664
809;31.42155647277832
810;31.419477462768555
811;31.417415618896484
812;31.41539192199707
813;31.413394927978516
814;31.411434173583984
815;31.409503936767578
816;31.407602310180664
817;31.40572166442871
818;31.403879165649414
819;31.402067184448242
820;31.400278091430664
821;31.39851188659668
822;31.39678382873535
823;31.39508628845215
824;31.39340591430664
825;31.391754150390625
826;31.39012336730957
827;31.388521194458008
828;31.38694190979004
829;31.385395050048828
830;31.383853912353516
831;31.38235855102539
832;31.380876541137695
833;31.37942123413086
834;31.37799072265625
835;31.37656593322754
836;31.37517738342285
837;31.373823165893555
838;31.372468948364258
839;31.37114143371582
840;31.369848251342773
841;31.36855125427246
842;31.36729621887207
843;31.36604881286621
844;31.364835739135742
845;31.363618850708008
846;31.362436294555664
847;31.361276626586914
848;31.360124588012695
849;31.358999252319336
850;31.357892990112305
851;31.356779098510742
852;31.3557186126709
853;31.35465431213379
854;31.353622436523438
855;31.35258674621582
856;31.35158348083496
857;31.350589752197266
858;31.349613189697266
859;31.348649978637695
860;31.347707748413086
861;31.346782684326172
862;31.345869064331055
863;31.344974517822266
864;31.34408950805664
865;31.34321403503418
866;31.342355728149414
867;31.341508865356445
868;31.340681076049805
869;31.33985710144043
870;31.33906364440918
871;31.33827018737793
872;31.33748435974121
873;31.33672523498535
874;31.33597755432129
875;31.335247039794922
876;31.334503173828125
877;31.333803176879883
878;31.333093643188477
879;31.332401275634766
880;31.331722259521484
881;31.331050872802734
882;31.330394744873047
883;31.32973861694336
884;31.32912254333496
885;31.328472137451172
886;31.327865600585938
887;31.3272705078125
888;31.326662063598633
889;31.32607650756836
890;31.32550621032715
891;31.32493019104004
892;31.32438850402832
893;31.32383155822754
894;31.323299407958984
895;31.32276725769043
896;31.322248458862305
897;31.32173728942871
898;31.32123374938965
899;31.320735931396484
900;31.320247650146484
901;31.319766998291016
902;31.319305419921875
903;31.318838119506836
904;31.318384170532227
905;31.31793212890625
906;31.317493438720703
907;31.31705665588379
908;31.31662368774414
909;31.316219329833984
910;31.315805435180664
911;31.31540298461914
912;31.314998626708984
913;31.314605712890625
914;31.31422233581543
915;31.313846588134766
916;31.3134765625
917;31.313121795654297
918;31.312753677368164
919;31.312402725219727
920;31.312061309814453
921;31.311704635620117
922;31.311384201049805
923;31.311052322387695
924;31.310733795166016
925;31.310413360595703
926;31.310100555419922
927;31.309785842895508
928;31.30949592590332
929;31.3092041015625
930;31.308900833129883
931;31.30860710144043
932;31.30832862854004
933;31.308061599731445
934;31.30778694152832
935;31.307525634765625
936;31.307247161865234
937;31.30699348449707
938;31.30674934387207
939;31.30649757385254
940;31.306257247924805
941;31.306001663208008
942;31.30576515197754
943;31.305532455444336
944;31.305309295654297
945;31.305089950561523
946;31.304868698120117
947;31.304651260375977
948;31.3044376373291
949;31.304216384887695
950;31.30401611328125
951;31.30381202697754
952;31.303621292114258
953;31.303415298461914
954;31.30323600769043
955;31.303050994873047
956;31.3028564453125
957;31.30267333984375
958;31.302494049072266
959;31.30232048034668
960;31.302148818969727
961;31.301984786987305
962;31.301807403564453
963;31.301645278930664
964;31.301481246948242
965;31.301332473754883
966;31.301176071166992
967;31.301025390625
968;31.300870895385742
969;31.300716400146484
970;31.30057716369629
971;31.30043601989746
972;31.3002986907959
973;31.300167083740234
974;31.300031661987305
975;31.29989242553711
976;31.299760818481445
977;31.299638748168945
978;31.299509048461914
979;31.299386978149414
980;31.29926872253418
981;31.299148559570312
982;31.29903221130371
983;31.298919677734375
984;31.298810958862305
985;31.298694610595703
986;31.298582077026367
987;31.29848289489746
988;31.29836654663086
989;31.298269271850586
990;31.298166275024414
991;31.29806900024414
992;31.297969818115234
993;31.29787826538086
994;31.297780990600586
995;31.297685623168945
996;31.29758644104004
997;31.297496795654297
998;31.297420501708984
999;31.297334671020508
1000;31.297245025634766
1001;31.29715919494629
1002;31.297086715698242
1003;31.296998977661133
1004;31.29691505432129
1005;31.296844482421875
1006;31.29677963256836
1007;31.296688079833984
1008;31.296621322631836
1009;31.296539306640625
1010;31.296483993530273
1011;31.296419143676758
1012;31.29633903503418
1013;31.29627799987793
1014;31.296213150024414
1015;31.296146392822266
1016;31.296083450317383
1017;31.296022415161133
1018;31.29595947265625
1019;31.2958927154541
1020;31.295827865600586
1021;31.2957763671875
1022;31.295717239379883
1023;31.295658111572266
1024;31.295621871948242
1025;31.29555320739746
1026;31.295507431030273
1027;31.295454025268555
1028;31.295392990112305
1029;31.295345306396484
1030;31.295305252075195
1031;31.295251846313477
1032;31.29519271850586
1033;31.295154571533203
1034;31.295108795166016
1035;31.295059204101562
1036;31.29500961303711
1037;31.29496955871582
1038;31.294921875
1039;31.294889450073242
1040;31.29484748840332
1041;31.294801712036133
1042;31.29475975036621
1043;31.29472541809082
1044;31.294681549072266
1045;31.294647216796875
1046;31.294601440429688
1047;31.2945613861084
1048;31.294536590576172
1049;31.294498443603516
1050;31.294466018676758
1051;31.29444694519043
1052;31.29439353942871
1053;31.294357299804688
1054;31.29433822631836
1055;31.294301986694336
1056;31.294265747070312
1057;31.294240951538086
1058;31.294200897216797
1059;31.29417610168457
1060;31.29414939880371
1061;31.294116973876953
1062;31.29408836364746
1063;31.294057846069336
1064;31.294034957885742
1065;31.29400634765625
1066;31.293989181518555
1067;31.2939510345459
1068;31.29391860961914
1069;31.29390525817871
1070;31.293874740600586
1071;31.29384994506836
1072;31.293825149536133
1073;31.293804168701172
1074;31.29378318786621
1075;31.29375648498535
1076;31.29373550415039
1077;31.29371452331543
1078;31.293697357177734
1079;31.293670654296875
1080;31.293643951416016
1081;31.29362678527832
1082;31.293609619140625
1083;31.293582916259766
1084;31.29356575012207
1085;31.293546676635742
1086;31.293527603149414
1087;31.293514251708984
1088;31.29348373413086
1089;31.293476104736328
1090;31.293455123901367
1091;31.293439865112305
1092;31.293426513671875
1093;31.293407440185547
1094;31.29338264465332
1095;31.29336929321289
1096;31.29336166381836
1097;31.293336868286133
1098;31.29330825805664
1099;31.293302536010742
1100;31.293285369873047
1101;31.293264389038086
1102;31.293258666992188
1103;31.29323387145996
1104;31.29322624206543
1105;31.293216705322266
1106;31.2932071685791
1107;31.293180465698242
1108;31.29317283630371
1109;31.293153762817383
1110;31.29314613342285
1111;31.29313850402832
1112;31.29311180114746
1113;31.29310417175293
1114;31.293092727661133
1115;31.2930850982666
1116;31.29306983947754
1117;31.293058395385742
1118;31.293031692504883
1119;31.293041229248047
1120;31.293012619018555
1121;31.29300308227539
1122;31.29300308227539
1123;31.29298210144043
1124;31.29296875
1125;31.292964935302734
1126;31.292959213256836
1127;31.29294776916504
1128;31.292924880981445
1129;31.292926788330078
1130;31.292909622192383
1131;31.292890548706055
1132;31.292879104614258
1133;31.292871475219727
1134;31.29288101196289
1135;31.292850494384766
1136;31.292858123779297
1137;31.292837142944336
1138;31.292827606201172
1139;31.292816162109375
1140;31.292810440063477
1141;31.292800903320312
1142;31.29279899597168
1143;31.292781829833984
1144;31.292768478393555
1145;31.29276466369629
1146;31.29275894165039
1147;31.29273796081543
1148;31.292734146118164
1149;31.292722702026367
1150;31.292722702026367
1151;31.29271125793457
1152;31.29271125793457
1153;31.292694091796875
1154;31.29268455505371
1155;31.29267692565918
1156;31.292665481567383
1157;31.292654037475586
1158;31.292652130126953
1159;31.29263687133789
1160;31.29263687133789
1161;31.292627334594727
1162;31.292619705200195
1163;31.292619705200195
1164;31.292606353759766
1165;31.292604446411133
1166;31.292585372924805
1167;31.29258155822754
1168;31.292585372924805
1169;31.292572021484375
1170;31.292566299438477
1171;31.29256820678711
1172;31.29254722595215
1173;31.292537689208984
1174;31.292537689208984
1175;31.292531967163086
1176;31.292522430419922
1177;31.29251480102539
1178;31.292509078979492
1179;31.292495727539062
1180;31.29249382019043
1181;31.292491912841797
1182;31.292482376098633
1183;31.29248046875
1184;31.2924747467041
1185;31.29245376586914
1186;31.29245948791504
1187;31.29244613647461
1188;31.292449951171875
1189;31.292436599731445
1190;31.292430877685547
1191;31.292417526245117
1192;31.292421340942383
1193;31.292415618896484
1194;31.292402267456055
1195;31.292402267456055
1196;31.29239845275879
1197;31.292377471923828
1198;31.29238510131836
1199;31.292367935180664
1200;31.292373657226562
1201;31.292362213134766
1202;31.292360305786133
1203;31.2923526763916
1204;31.292341232299805
1205;31.292346954345703
1206;31.29233169555664
1207;31.29233169555664
1208;31.292316436767578
1209;31.292314529418945
1210;31.292314529418945
1211;31.292295455932617
1212;31.29229164123535
1213;31.29229164123535
1214;31.292287826538086
1215;31.292278289794922
1216;31.292266845703125
1217;31.29226303100586
1218;31.29226303100586
1219;31.292253494262695
1220;31.292245864868164
1221;31.292236328125
1222;31.292226791381836
1223;31.2922306060791
1224;31.292226791381836
1225;31.29222297668457
1226;31.292217254638672
1227;31.292205810546875
1228;31.292207717895508
1229;31.29220199584961
1230;31.292203903198242
1231;31.292179107666016
1232;31.29218101501465
1233;31.29218101501465
1234;31.29217529296875
1235;31.29216194152832
1236;31.292160034179688
1237;31.29216194152832
1238;31.29214859008789
1239;31.29214859008789
1240;31.29214096069336
1241;31.292123794555664
1242;31.292129516601562
1243;31.292112350463867
1244;31.292112350463867
1245;31.292102813720703
1246;31.29210090637207
1247;31.29209327697754
1248;31.292097091674805
1249;31.29208755493164
1250;31.29208755493164
1251;31.29207420349121
1252;31.292068481445312
1253;31.29206657409668
1254;31.292064666748047
1255;31.29204750061035
1256;31.29205322265625
1257;31.29204750061035
1258;31.292036056518555
1259;31.29204750061035
1260;31.292028427124023
1261;31.29201316833496
1262;31.292009353637695
1263;31.29201316833496
1264;31.291996002197266
1265;31.292001724243164
1266;31.291988372802734
1267;31.2919979095459
1268;31.291988372802734
1269;31.2919864654541
1270;31.291967391967773
1271;31.29196548461914
1272;31.291961669921875
1273;31.29195785522461
1274;31.291961669921875
1275;31.291948318481445
1276;31.29193115234375
1277;31.291933059692383
1278;31.29194450378418
1279;31.29191780090332
1280;31.291915893554688
1281;31.291900634765625
1282;31.29191017150879
1283;31.29189109802246
1284;31.29189109802246
1285;31.291881561279297
1286;31.291879653930664
1287;31.291879653930664
1288;31.2918758392334
1289;31.2918643951416
1290;31.29185676574707
1291;31.291852951049805
1292;31.29184913635254
1293;31.29184341430664
1294;31.29184341430664
1295;31.29183578491211
1296;31.291826248168945
1297;31.291824340820312
1298;31.291812896728516
1299;31.291812896728516
1300;31.29180908203125
1301;31.291799545288086
1302;31.29179573059082
1303;31.29179573059082
1304;31.29178810119629
1305;31.29178237915039
1306;31.291776657104492
1307;31.291763305664062
1308;31.29176139831543
1309;31.291757583618164
1310;31.291748046875
1311;31.291748046875
1312;31.291728973388672
1313;31.29173469543457
1314;31.291736602783203
1315;31.29172706604004
1316;31.291717529296875
1317;31.291702270507812
1318;31.291696548461914
1319;31.291690826416016
1320;31.291698455810547
1321;31.29168701171875
1322;31.291675567626953
1323;31.291677474975586
1324;31.291677474975586
1325;31.291671752929688
1326;31.291656494140625
1327;31.291656494140625
1328;31.291643142700195
1329;31.291645050048828
1330;31.291643142700195
1331;31.2916259765625
1332;31.291616439819336
1333;31.29161262512207
1334;31.291624069213867
1335;31.291608810424805
1336;31.29159927368164
1337;31.29160499572754
1338;31.29159164428711
1339;31.29158592224121
1340;31.291576385498047
1341;31.291568756103516
1342;31.291574478149414
1343;31.29156494140625
1344;31.29156494140625
1345;31.291549682617188
1346;31.29153823852539
1347;31.29153823852539
1348;31.291532516479492
1349;31.291528701782227
1350;31.291528701782227
1351;31.291507720947266
1352;31.291519165039062
1353;31.29150390625
1354;31.291500091552734
1355;31.291492462158203
1356;31.291494369506836
1357;31.291488647460938
1358;31.29148292541504
1359;31.29147720336914
1360;31.29146385192871
1361;31.291454315185547
1362;31.29146385192871
1363;31.291446685791016
1364;31.291440963745117
1365;31.291433334350586
1366;31.29142951965332
1367;31.29142189025879
1368;31.29141616821289
1369;31.291406631469727
1370;31.29140281677246
1371;31.291393280029297
1372;31.29139518737793
1373;31.291385650634766
1374;31.291378021240234
1375;31.291378021240234
1376;31.291378021240234
1377;31.291351318359375
1378;31.29135513305664
1379;31.291351318359375
1380;31.29134750366211
1381;31.291336059570312
1382;31.291337966918945
1383;31.291324615478516
1384;31.291322708129883
1385;31.29131507873535
1386;31.291311264038086
1387;31.291305541992188
1388;31.291296005249023
1389;31.29128646850586
1390;31.291276931762695
1391;31.29128074645996
1392;31.29127311706543
1393;31.291261672973633
1394;31.2912540435791
1395;31.291263580322266
1396;31.291250228881836
1397;31.29123306274414
1398;31.29123878479004
1399;31.291229248046875
1400;31.29122543334961
1401;31.291215896606445
1402;31.29121208190918
1403;31.29121208190918
1404;31.29119873046875
1405;31.291194915771484
1406;31.29118537902832
1407;31.291181564331055
1408;31.291168212890625
1409;31.291173934936523
1410;31.291170120239258
1411;31.291154861450195
1412;31.291152954101562
1413;31.291147232055664
1414;31.291139602661133
1415;31.291133880615234
1416;31.29112434387207
1417;31.29112434387207
1418;31.291109085083008
1419;31.29109764099121
1420;31.29109764099121
1421;31.29109764099121
1422;31.29109001159668
1423;31.29108238220215
1424;31.291080474853516
1425;31.291065216064453
1426;31.29105567932129
1427;31.291057586669922
1428;31.291048049926758
1429;31.29104232788086
1430;31.29102897644043
1431;31.29102897644043
1432;31.291027069091797
1433;31.291006088256836
1434;31.290998458862305
1435;31.291004180908203
1436;31.29099464416504
1437;31.290987014770508
1438;31.290985107421875
1439;31.290971755981445
1440;31.290973663330078
1441;31.29096794128418
1442;31.29095458984375
1443;31.29095458984375
1444;31.290945053100586
1445;31.29094123840332
1446;31.29092788696289
1447;31.29092025756836
1448;31.290910720825195
1449;31.290908813476562
1450;31.290903091430664
1451;31.290895462036133
1452;31.2908935546875
1453;31.290889739990234
1454;31.290882110595703
1455;31.29086685180664
1456;31.290863037109375
1457;31.290863037109375
1458;31.290842056274414
1459;31.290842056274414
1460;31.29085350036621
1461;31.29083251953125
1462;31.290828704833984
1463;31.290815353393555
1464;31.29080581665039
1465;31.29079246520996
1466;31.29080581665039
1467;31.29079246520996
1468;31.290775299072266
1469;31.290761947631836
1470;31.290767669677734
1471;31.29075813293457
1472;31.29075050354004
1473;31.29075813293457
1474;31.29074478149414
1475;31.290727615356445
1476;31.290725708007812
1477;31.290727615356445
1478;31.290714263916016
1479;31.290714263916016
1480;31.290699005126953
1481;31.290706634521484
1482;31.29068946838379
1483;31.29068374633789
1484;31.29067611694336
1485;31.290660858154297
1486;31.29066276550293
1487;31.2906494140625
1488;31.2906494140625
1489;31.29063606262207
1490;31.290630340576172
1491;31.29062271118164
1492;31.29061508178711
1493;31.29060935974121
1494;31.290605545043945
1495;31.29058837890625
1496;31.29058837890625
1497;31.290576934814453
1498;31.290576934814453
1499;31.29057502746582
1500;31.290559768676758
1501;31.29055404663086
1502;31.29054832458496
1503;31.290538787841797
1504;31.29052734375
1505;31.290523529052734
1506;31.290517807006836
1507;31.290512084960938
1508;31.29050636291504
1509;31.29049301147461
1510;31.290483474731445
1511;31.290483474731445
1512;31.29046630859375
1513;31.290464401245117
1514;31.29045295715332
1515;31.290449142456055
1516;31.290447235107422
1517;31.29043197631836
1518;31.290435791015625
1519;31.290422439575195
1520;31.29041862487793
1521;31.290414810180664
1522;31.2904052734375
1523;31.290401458740234
1524;31.29037857055664
1525;31.29037857055664
1526;31.290380477905273
1527;31.29037094116211
1528;31.290348052978516
1529;31.29033851623535
1530;31.290340423583984
1531;31.290327072143555
1532;31.29032325744629
1533;31.290313720703125
1534;31.290313720703125
1535;31.290307998657227
1536;31.29029655456543
1537;31.2902889251709
1538;31.290273666381836
1539;31.290267944335938
1540;31.290271759033203
1541;31.29026222229004
1542;31.29024887084961
1543;31.29024887084961
1544;31.290225982666016
1545;31.290231704711914
1546;31.290220260620117
1547;31.290205001831055
1548;31.290206909179688
1549;31.290205001831055
1550;31.290191650390625
1551;31.290180206298828
1552;31.290172576904297
1553;31.290170669555664
1554;31.2901554107666
1555;31.290151596069336
1556;31.2901554107666
1557;31.290145874023438
1558;31.290128707885742
1559;31.290128707885742
1560;31.290109634399414
1561;31.290109634399414
1562;31.290102005004883
1563;31.290081024169922
1564;31.290090560913086
1565;31.290075302124023
1566;31.29007339477539
1567;31.290058135986328
1568;31.290056228637695
1569;31.2900447845459
1570;31.290035247802734
1571;31.29002571105957
1572;31.290014266967773
1573;31.29000473022461
1574;31.28999900817871
1575;31.28999900817871
1576;31.289993286132812
1577;31.289960861206055
1578;31.289968490600586
1579;31.28996467590332
1580;31.28995704650879
1581;31.289945602416992
1582;31.289947509765625
1583;31.289934158325195
1584;31.28993034362793
1585;31.289920806884766
1586;31.28990364074707
1587;31.289892196655273
1588;31.289884567260742
1589;31.28988265991211
1590;31.28987693786621
1591;31.28986930847168
1592;31.28985595703125
1593;31.289865493774414
1594;31.28984260559082
1595;31.289844512939453
1596;31.289823532104492
1597;31.28982162475586
1598;31.28980827331543
1599;31.289796829223633
1600;31.289794921875
1601;31.28978157043457
1602;31.289785385131836
1603;31.289766311645508
1604;31.289764404296875
1605;31.289751052856445
1606;31.289743423461914
1607;31.289735794067383
1608;31.289718627929688
1609;31.28970718383789
1610;31.28971290588379
1611;31.28970718383789
1612;31.289697647094727
1613;31.289688110351562
1614;31.289676666259766
1615;31.289669036865234
1616;31.28965950012207
1617;31.289657592773438
1618;31.289636611938477
1619;31.289636611938477
1620;31.289621353149414
1621;31.289615631103516
1622;31.289602279663086
1623;31.289600372314453
1624;31.289594650268555
1625;31.289579391479492
1626;31.28957748413086
1627;31.289562225341797
1628;31.28956413269043
1629;31.289541244506836
1630;31.289541244506836
1631;31.289520263671875
1632;31.28952407836914
1633;31.28951644897461
1634;31.289508819580078
1635;31.289493560791016
1636;31.289487838745117
1637;31.28947639465332
1638;31.289474487304688
1639;31.289470672607422
1640;31.289447784423828
1641;31.289438247680664
1642;31.2894344329834
1643;31.2894287109375
1644;31.289424896240234
1645;31.289411544799805
1646;31.289400100708008
1647;31.28938865661621
1648;31.289377212524414
1649;31.289377212524414
1650;31.28936767578125
1651;31.28935432434082
1652;31.289350509643555
1653;31.289337158203125
1654;31.28933334350586
1655;31.289325714111328
1656;31.289304733276367
1657;31.289295196533203
1658;31.289291381835938
1659;31.28927993774414
1660;31.28926658630371
1661;31.289262771606445
1662;31.28925895690918
1663;31.289236068725586
1664;31.289236068725586
1665;31.289228439331055
1666;31.28921890258789
1667;31.289201736450195
1668;31.289201736450195
1669;31.289194107055664
1670;31.289175033569336
1671;31.289169311523438
1672;31.28915786743164
1673;31.28915023803711
1674;31.289140701293945
1675;31.289127349853516
1676;31.289119720458984
1677;31.289127349853516
1678;31.289112091064453
1679;31.289093017578125
1680;31.289093017578125
1681;31.28907585144043
1682;31.289072036743164
1683;31.289064407348633
1684;31.289045333862305
1685;31.289037704467773
1686;31.289026260375977
1687;31.289020538330078
1688;31.289011001586914
1689;31.288991928100586
1690;31.288991928100586
1691;31.288991928100586
1692;31.28897476196289
1693;31.28896141052246
1694;31.288949966430664
1695;31.288944244384766
1696;31.28892707824707
1697;31.288923263549805
1698;31.288911819458008
1699;31.288908004760742
1700;31.288888931274414
1701;31.288890838623047
1702;31.288877487182617
1703;31.28885269165039
1704;31.288862228393555
1705;31.28883934020996
1706;31.288835525512695
1707;31.288818359375
1708;31.288818359375
1709;31.288803100585938
1710;31.28879737854004
1711;31.288785934448242
1712;31.288776397705078
1713;31.288761138916016
1714;31.28874397277832
1715;31.28874397277832
1716;31.288740158081055
1717;31.28872299194336
1718;31.288728713989258
1719;31.288715362548828
1720;31.288700103759766
1721;31.288684844970703
1722;31.288677215576172
1723;31.288667678833008
1724;31.288660049438477
1725;31.288646697998047
1726;31.288633346557617
1727;31.288625717163086
1728;31.28861427307129
1729;31.28860092163086
1730;31.288599014282227
1731;31.288591384887695
1732;31.288576126098633
1733;31.28856086730957
1734;31.288557052612305
1735;31.288545608520508
1736;31.28853416442871
1737;31.288522720336914
1738;31.28851318359375
1739;31.28850746154785
1740;31.288488388061523
1741;31.288484573364258
1742;31.288469314575195
1743;31.288455963134766
1744;31.288448333740234
1745;31.28843879699707
1746;31.288433074951172
1747;31.288419723510742
1748;31.288402557373047
1749;31.288387298583984
1750;31.288387298583984
1751;31.288373947143555
1752;31.28837013244629
1753;31.288360595703125
1754;31.288341522216797
1755;31.288331985473633
1756;31.288305282592773
1757;31.288314819335938
1758;31.288299560546875
1759;31.28829002380371
1760;31.288278579711914
1761;31.288270950317383
1762;31.288251876831055
1763;31.288236618041992
1764;31.288240432739258
1765;31.288227081298828
1766;31.288211822509766
1767;31.2882022857666
1768;31.288190841674805
1769;31.288179397583008
1770;31.288156509399414
1771;31.28814697265625
1772;31.288145065307617
1773;31.288127899169922
1774;31.288118362426758
1775;31.288103103637695
1776;31.28809928894043
1777;31.288082122802734
1778;31.288074493408203
1779;31.28806495666504
1780;31.28804588317871
1781;31.28805160522461
1782;31.28802490234375
1783;31.288015365600586
1784;31.28801155090332
1785;31.28799819946289
1786;31.287979125976562
1787;31.287975311279297
1788;31.287961959838867
1789;31.28795051574707
1790;31.28794288635254
1791;31.287927627563477
1792;31.28791618347168
1793;31.28790283203125
1794;31.28788948059082
1795;31.287872314453125
1796;31.28786277770996
1797;31.287845611572266
1798;31.287839889526367
1799;31.287843704223633
1800;31.28782844543457
1801;31.287805557250977
1802;31.28778648376465
1803;31.28778076171875
1804;31.287776947021484
1805;31.287763595581055
1806;31.28775978088379
1807;31.28773307800293
1808;31.287723541259766
1809;31.287710189819336
1810;31.28770637512207
1811;31.28769302368164
1812;31.287677764892578
1813;31.287662506103516
1814;31.287654876708984
1815;31.287641525268555
1816;31.287630081176758
1817;31.287614822387695
1818;31.287607192993164
1819;31.28758430480957
1820;31.28757095336914
1821;31.28757095336914
1822;31.287546157836914
1823;31.28753662109375
1824;31.28753662109375
1825;31.287519454956055
1826;31.28751564025879
1827;31.287494659423828
1828;31.287485122680664
1829;31.287473678588867
1830;31.287456512451172
1831;31.28744125366211
1832;31.28742790222168
1833;31.28742027282715
1834;31.287405014038086
1835;31.287395477294922
1836;31.28738021850586
1837;31.2873592376709
1838;31.287357330322266
1839;31.2873477935791
1840;31.28733253479004
1841;31.28730583190918
1842;31.287302017211914
1843;31.287288665771484
1844;31.287275314331055
1845;31.28725814819336
1846;31.287250518798828
1847;31.287240982055664
1848;31.287221908569336
1849;31.287206649780273
1850;31.28720474243164
1851;31.287187576293945
1852;31.287155151367188
1853;31.287160873413086
1854;31.28714370727539
1855;31.287139892578125
1856;31.2871150970459
1857;31.2871036529541
1858;31.287094116210938
1859;31.28707504272461
1860;31.28706932067871
1861;31.287057876586914
1862;31.28704833984375
1863;31.287017822265625
1864;31.287017822265625
1865;31.286985397338867
1866;31.286977767944336
1867;31.28697395324707
1868;31.28695297241211
1869;31.286935806274414
1870;31.286928176879883
1871;31.286909103393555
1872;31.28689193725586
1873;31.286884307861328
1874;31.286865234375
1875;31.286865234375
1876;31.286846160888672
1877;31.286834716796875
1878;31.286821365356445
1879;31.28680992126465
1880;31.28679084777832
1881;31.28677749633789
1882;31.286758422851562
1883;31.286741256713867
1884;31.28672981262207
1885;31.286727905273438
1886;31.28670310974121
1887;31.286693572998047
1888;31.286670684814453
1889;31.286663055419922
1890;31.286651611328125
1891;31.286640167236328
1892;31.2866153717041
1893;31.286605834960938
1894;31.286592483520508
1895;31.28656578063965
1896;31.28656578063965
1897;31.28654670715332
1898;31.286540985107422
1899;31.28652000427246
1900;31.2865047454834
1901;31.286487579345703
1902;31.28646469116211
1903;31.28645896911621
1904;31.28643798828125
1905;31.286426544189453
1906;31.28641128540039
1907;31.28640365600586
1908;31.286376953125
1909;31.286373138427734
1910;31.286357879638672
1911;31.28633689880371
1912;31.28632164001465
1913;31.286312103271484
1914;31.286291122436523
1915;31.286279678344727
1916;31.286258697509766
1917;31.28624153137207
1918;31.286239624023438
1919;31.28622055053711
1920;31.286203384399414
1921;31.286184310913086
1922;31.286176681518555
1923;31.286151885986328
1924;31.286134719848633
1925;31.286121368408203
1926;31.28609275817871
1927;31.286088943481445
1928;31.28607749938965
1929;31.286054611206055
1930;31.286043167114258
1931;31.28603172302246
1932;31.2860107421875
1933;31.285999298095703
1934;31.28597640991211
1935;31.28597068786621
1936;31.285932540893555
1937;31.28592872619629
1938;31.285919189453125
1939;31.2858943939209
1940;31.285888671875
1941;31.28586196899414
1942;31.285856246948242
1943;31.28582763671875
1944;31.285818099975586
1945;31.285802841186523
1946;31.285781860351562
1947;31.285768508911133
1948;31.285737991333008
1949;31.28573226928711
1950;31.285724639892578
1951;31.28569984436035
1952;31.285686492919922
1953;31.285661697387695
1954;31.285648345947266
1955;31.285640716552734
1956;31.285619735717773
1957;31.28559684753418
1958;31.285572052001953
1959;31.285566329956055
1960;31.285551071166992
1961;31.285524368286133
1962;31.285507202148438
1963;31.285491943359375
1964;31.285472869873047
1965;31.28546714782715
1966;31.285444259643555
1967;31.285417556762695
1968;31.28541374206543
1969;31.285390853881836
1970;31.285375595092773
1971;31.28536033630371
1972;31.285337448120117
1973;31.285308837890625
1974;31.285310745239258
1975;31.28529167175293
1976;31.285261154174805
1977;31.285249710083008
1978;31.285219192504883
1979;31.285207748413086
1980;31.28519630432129
1981;31.285184860229492
1982;31.285154342651367
1983;31.28514289855957
1984;31.285112380981445
1985;31.285097122192383
1986;31.285079956054688
1987;31.285062789916992
1988;31.285043716430664
1989;31.285030364990234
1990;31.285005569458008
1991;31.284997940063477
1992;31.284969329833984
1993;31.28495979309082
1994;31.284929275512695
1995;31.2849178314209
1996;31.28488540649414
1997;31.28487205505371
1998;31.284854888916016
1999;31.28483772277832
2000;31.28481674194336
2001;31.28480339050293
2002;31.284780502319336
2003;31.28475570678711
2004;31.284744262695312
2005;31.284719467163086
2006;31.28469467163086
2007;31.284679412841797
2008;31.284666061401367
2009;31.284637451171875
2010;31.28462028503418
2011;31.284597396850586
2012;31.28458023071289
2013;31.28455924987793
2014;31.284536361694336
2015;31.28451919555664
2016;31.284494400024414
2017;31.284482955932617
2018;31.284456253051758
2019;31.284433364868164
2020;31.284421920776367
2021;31.28440284729004
2022;31.284374237060547
2023;31.28434944152832
2024;31.28432846069336
2025;31.284311294555664
2026;31.284303665161133
2027;31.28428077697754
2028;31.28426170349121
2029;31.284242630004883
2030;31.284210205078125
2031;31.2841854095459
2032;31.2841739654541
2033;31.284143447875977
2034;31.28412437438965
2035;31.284099578857422
2036;31.284074783325195
2037;31.284059524536133
2038;31.284040451049805
2039;31.284025192260742
2040;31.283987045288086
2041;31.28397560119629
2042;31.28394889831543
2043;31.283926010131836
2044;31.28390121459961
2045;31.283878326416016
2046;31.28386116027832
2047;31.283843994140625
2048;31.283817291259766
2049;31.28379249572754
2050;31.28377342224121
2051;31.283750534057617
2052;31.283721923828125
2053;31.283708572387695
2054;31.283687591552734
2055;31.28366470336914
2056;31.283620834350586
2057;31.283615112304688
2058;31.283599853515625
2059;31.283565521240234
2060;31.283550262451172
2061;31.283512115478516
2062;31.283493041992188
2063;31.28348159790039
2064;31.2834415435791
2065;31.283432006835938
2066;31.283403396606445
2067;31.283376693725586
2068;31.28334617614746
2069;31.2833251953125
2070;31.283306121826172
2071;31.283281326293945
2072;31.283252716064453
2073;31.28322982788086
2074;31.28321647644043
2075;31.283185958862305
2076;31.283151626586914
2077;31.28313636779785
2078;31.28310203552246
2079;31.283079147338867
2080;31.283052444458008
2081;31.28303337097168
2082;31.282991409301758
2083;31.282978057861328
2084;31.282962799072266
2085;31.28291893005371
2086;31.28289794921875
2087;31.28287124633789
2088;31.28286361694336
2089;31.282827377319336
2090;31.282800674438477
2091;31.282772064208984
2092;31.282739639282227
2093;31.2827205657959
2094;31.282690048217773
2095;31.282663345336914
2096;31.28263282775879
2097;31.282611846923828
2098;31.28257942199707
2099;31.28255844116211
2100;31.282529830932617
2101;31.282501220703125
2102;31.28248405456543
2103;31.28244400024414
2104;31.282426834106445
2105;31.28239631652832
2106;31.28236198425293
2107;31.282331466674805
2108;31.28230857849121
2109;31.28228187561035
2110;31.28225326538086
2111;31.282224655151367
2112;31.282197952270508
2113;31.282155990600586
2114;31.282140731811523
2115;31.282106399536133
2116;31.282087326049805
2117;31.282052993774414
2118;31.282018661499023
2119;31.281986236572266
2120;31.28195571899414
2121;31.281940460205078
2122;31.28190040588379
2123;31.281864166259766
2124;31.281845092773438
2125;31.281810760498047
2126;31.281784057617188
2127;31.2817440032959
2128;31.28172492980957
2129;31.281696319580078
2130;31.281658172607422
2131;31.281625747680664
2132;31.281600952148438
2133;31.281572341918945
2134;31.28153419494629
2135;31.281497955322266
2136;31.281463623046875
2137;31.28143310546875
2138;31.28139877319336
2139;31.281362533569336
2140;31.281335830688477
2141;31.28129768371582
2142;31.281274795532227
2143;31.28123664855957
2144;31.281204223632812
2145;31.281179428100586
2146;31.281143188476562
2147;31.281095504760742
2148;31.281063079833984
2149;31.281047821044922
2150;31.281005859375
2151;31.28096580505371
2152;31.28093147277832
2153;31.28089714050293
2154;31.28087043762207
2155;31.280824661254883
2156;31.280805587768555
2157;31.280752182006836
2158;31.280729293823242
2159;31.28068733215332
2160;31.28065299987793
2161;31.280620574951172
2162;31.280580520629883
2163;31.28053092956543
2164;31.280506134033203
2165;31.28046989440918
2166;31.280431747436523
2167;31.280399322509766
2168;31.280364990234375
2169;31.28031349182129
2170;31.280271530151367
2171;31.28025245666504
2172;31.280216217041016
2173;31.28017234802246
2174;31.280132293701172
2175;31.28009033203125
2176;31.280065536499023
2177;31.28000831604004
2178;31.279964447021484
2179;31.279924392700195
2180;31.279897689819336
2181;31.279863357543945
2182;31.279815673828125
2183;31.27977180480957
2184;31.27972984313965
2185;31.279691696166992
2186;31.27964210510254
2187;31.279605865478516
2188;31.27956199645996
2189;31.27952003479004
2190;31.279483795166016
2191;31.27943992614746
2192;31.279388427734375
2193;31.279356002807617
2194;31.279306411743164
2195;31.27926254272461
2196;31.27921485900879
2197;31.279170989990234
2198;31.279123306274414
2199;31.27908706665039
2200;31.279037475585938
2201;31.278987884521484
2202;31.278947830200195
2203;31.278905868530273
2204;31.278854370117188
2205;31.278818130493164
2206;31.278759002685547
2207;31.27871322631836
2208;31.278669357299805
2209;31.27862548828125
2210;31.2785701751709
2211;31.278522491455078
2212;31.278472900390625
2213;31.27842140197754
2214;31.278369903564453
2215;31.278316497802734
2216;31.278270721435547
2217;31.27822494506836
2218;31.27817153930664
2219;31.27811622619629
2220;31.278064727783203
2221;31.278013229370117
2222;31.277963638305664
2223;31.27790641784668
2224;31.277862548828125
2225;31.27780532836914
2226;31.277746200561523
2227;31.277692794799805
2228;31.277633666992188
2229;31.277587890625
2230;31.277536392211914
2231;31.2774658203125
2232;31.277421951293945
2233;31.27734375
2234;31.277299880981445
2235;31.277238845825195
2236;31.27717399597168
2237;31.27712059020996
2238;31.277057647705078
2239;31.27701759338379
2240;31.276947021484375
2241;31.27688980102539
2242;31.27681541442871
2243;31.276758193969727
2244;31.276676177978516
2245;31.27663230895996
2246;31.27657127380371
2247;31.276498794555664
2248;31.276437759399414
2249;31.276363372802734
2250;31.276308059692383
2251;31.27623176574707
2252;31.27617835998535
2253;31.276092529296875
2254;31.276033401489258
2255;31.27597427368164
2256;31.275896072387695
2257;31.27581787109375
2258;31.275753021240234
2259;31.275691986083984
2260;31.275619506835938
2261;31.27553939819336
2262;31.27546501159668
2263;31.275394439697266
2264;31.275312423706055
2265;31.27523422241211
2266;31.275163650512695
2267;31.275089263916016
2268;31.275007247924805
2269;31.274932861328125
2270;31.274845123291016
2271;31.274770736694336
2272;31.274682998657227
2273;31.274606704711914
2274;31.274517059326172
2275;31.274431228637695
2276;31.274349212646484
2277;31.27425765991211
2278;31.274166107177734
2279;31.27408218383789
2280;31.273996353149414
2281;31.273910522460938
2282;31.27381706237793
2283;31.27372169494629
2284;31.27362632751465
2285;31.27352523803711
2286;31.273435592651367
2287;31.27333641052246
2288;31.273239135742188
2289;31.27314567565918
2290;31.27303123474121
2291;31.272932052612305
2292;31.272830963134766
2293;31.272720336914062
2294;31.272611618041992
2295;31.272510528564453
2296;31.27240562438965
2297;31.27229118347168
2298;31.272171020507812
2299;31.27206039428711
2300;31.27195167541504
2301;31.271831512451172
2302;31.271717071533203
2303;31.27158546447754
2304;31.27147102355957
2305;31.271337509155273
2306;31.271209716796875
2307;31.271081924438477
2308;31.270959854125977
2309;31.270822525024414
2310;31.270694732666016
2311;31.270549774169922
2312;31.270404815673828
2313;31.270275115966797
2314;31.2701358795166
2315;31.269987106323242
2316;31.26983070373535
2317;31.26969337463379
2318;31.26951789855957
2319;31.269376754760742
2320;31.269222259521484
2321;31.2690486907959
2322;31.268890380859375
2323;31.268726348876953
2324;31.2685546875
2325;31.26837730407715
2326;31.268192291259766
2327;31.268020629882812
2328;31.267826080322266
2329;31.26764488220215
2330;31.267444610595703
2331;31.267253875732422
2332;31.267061233520508
2333;31.266849517822266
2334;31.26663589477539
2335;31.26643943786621
2336;31.26620864868164
2337;31.2659912109375
2338;31.26577377319336
2339;31.265520095825195
2340;31.26529312133789
2341;31.26504898071289
2342;31.264799118041992
2343;31.264541625976562
2344;31.264286041259766
2345;31.26400375366211
2346;31.26373291015625
2347;31.26345443725586
2348;31.26316261291504
2349;31.262866973876953
2350;31.26255989074707
2351;31.26224136352539
2352;31.26192283630371
2353;31.261592864990234
2354;31.261240005493164
2355;31.26090431213379
2356;31.260528564453125
2357;31.260162353515625
2358;31.259777069091797
2359;31.259380340576172
2360;31.25897789001465
2361;31.258554458618164
2362;31.258113861083984
2363;31.257659912109375
2364;31.257192611694336
2365;31.256717681884766
2366;31.25621223449707
2367;31.255701065063477
2368;31.255163192749023
2369;31.254608154296875
2370;31.254039764404297
2371;31.25344467163086
2372;31.252819061279297
2373;31.252178192138672
2374;31.25150489807129
2375;31.25079345703125
2376;31.250051498413086
2377;31.249303817749023
2378;31.248504638671875
2379;31.2476749420166
2380;31.246807098388672
2381;31.245906829833984
2382;31.244962692260742
2383;31.24394416809082
2384;31.24290657043457
2385;31.24180793762207
2386;31.240657806396484
2387;31.239452362060547
2388;31.2381591796875
2389;31.236812591552734
2390;31.23539161682129
2391;31.23388671875
2392;31.232303619384766
2393;31.230607986450195
2394;31.228830337524414
2395;31.226945877075195
2396;31.224925994873047
2397;31.222797393798828
2398;31.22050666809082
2399;31.218090057373047
2400;31.215511322021484
2401;31.21274757385254
2402;31.209806442260742
2403;31.206655502319336
2404;31.20328140258789
2405;31.199663162231445
2406;31.195802688598633
2407;31.191654205322266
2408;31.187211990356445
2409;31.18243408203125
2410;31.17734718322754
2411;31.171857833862305
2412;31.166011810302734
2413;31.159757614135742
2414;31.153087615966797
2415;31.145986557006836
2416;31.13845443725586
2417;31.13051986694336
2418;31.12215232849121
2419;31.113420486450195
2420;31.104248046875
2421;31.09476089477539
2422;31.08504867553711
2423;31.075204849243164
2424;31.06533432006836
2425;31.05555534362793
2426;31.045949935913086
2427;31.036548614501953
2428;31.027536392211914
2429;31.019006729125977
2430;31.010986328125
2431;31.003528594970703
2432;30.99666976928711
2433;30.9903507232666
2434;30.984479904174805
2435;30.978992462158203
2436;30.97372817993164
2437;30.96860122680664
2438;30.963552474975586
2439;30.958478927612305
2440;30.953378677368164
2441;30.94803810119629
2442;30.942363739013672
2443;30.936420440673828
2444;30.930179595947266
2445;30.92381477355957
2446;30.917346954345703
2447;30.91082763671875
2448;30.904308319091797
2449;30.897802352905273
2450;30.891382217407227
2451;30.88509750366211
2452;30.878921508789062
2453;30.872861862182617
2454;30.86688804626465
2455;30.861026763916016
2456;30.85523796081543
2457;30.84952163696289
2458;30.84385871887207
2459;30.838253021240234
2460;30.83271598815918
2461;30.827173233032227
2462;30.82164192199707
2463;30.816110610961914
2464;30.81056022644043
2465;30.80499267578125
2466;30.799455642700195
2467;30.79390525817871
2468;30.788387298583984
2469;30.78287124633789
2470;30.77739143371582
2471;30.77192497253418
2472;30.766511917114258
2473;30.761117935180664
2474;30.755754470825195
2475;30.75043296813965
2476;30.745145797729492
2477;30.7398738861084
2478;30.73464012145996
2479;30.72940444946289
2480;30.724180221557617
2481;30.71898078918457
2482;30.71377182006836
2483;30.70857048034668
2484;30.70340347290039
2485;30.698232650756836
2486;30.693073272705078
2487;30.687929153442383
2488;30.68277931213379
2489;30.67765998840332
2490;30.67254638671875
2491;30.66745376586914
2492;30.662357330322266
2493;30.65727424621582
2494;30.652202606201172
2495;30.647138595581055
2496;30.642072677612305
2497;30.637027740478516
2498;30.631975173950195
2499;30.626937866210938
2500;30.621883392333984
2501;30.616840362548828
2502;30.61180305480957
2503;30.60677146911621
2504;30.601755142211914
2505;30.596744537353516
2506;30.591732025146484
2507;30.58670425415039
2508;30.581680297851562
2509;30.576650619506836
2510;30.571643829345703
2511;30.56660270690918
2512;30.561574935913086
2513;30.55653953552246
2514;30.55147933959961
2515;30.546436309814453
2516;30.541379928588867
2517;30.53632164001465
2518;30.531248092651367
2519;30.526147842407227
2520;30.521072387695312
2521;30.515958786010742
2522;30.510852813720703
2523;30.505741119384766
2524;30.500627517700195
2525;30.497087478637695
2526;30.49453353881836
2527;30.490175247192383
2528;30.483707427978516
2529;30.476503372192383
2530;30.472909927368164
2531;30.46748161315918
2532;30.4614315032959
2533;30.457935333251953
2534;30.453508377075195
2535;30.447895050048828
2536;30.44148826599121
2537;30.438825607299805
2538;30.434064865112305
2539;30.426250457763672
2540;30.422101974487305
2541;30.417043685913086
2542;30.412343978881836
2543;30.406888961791992
2544;30.40370750427246
2545;30.399484634399414
2546;30.393640518188477
2547;30.388242721557617
2548;30.38409423828125
2549;30.37846565246582
2550;30.374128341674805
2551;30.369579315185547
2552;30.363216400146484
2553;30.360591888427734
2554;30.35692024230957
2555;30.350679397583008
2556;30.344186782836914
2557;30.342012405395508
2558;30.33828353881836
2559;30.331680297851562
2560;30.324758529663086
2561;30.320877075195312
2562;30.31647300720215
2563;30.310832977294922
2564;30.305034637451172
2565;30.299650192260742
2566;30.29427719116211
2567;30.28983497619629
2568;30.28514289855957
2569;30.280336380004883
2570;30.274566650390625
2571;30.26893424987793
2572;30.26340675354004
2573;30.257966995239258
2574;30.252592086791992
2575;30.247148513793945
2576;30.24159812927246
2577;30.235963821411133
2578;30.23024559020996
2579;30.224435806274414
2580;30.218523025512695
2581;30.212491989135742
2582;30.206501007080078
2583;30.200159072875977
2584;30.193925857543945
2585;30.187543869018555
2586;30.18094825744629
2587;30.17408561706543
2588;30.16693115234375
2589;30.160276412963867
2590;30.152982711791992
2591;30.14508628845215
2592;30.137422561645508
2593;30.129640579223633
2594;30.121204376220703
2595;30.112096786499023
2596;30.10355567932129
2597;30.094425201416016
2598;30.08455467224121
2599;30.073984146118164
2600;30.06281852722168
2601;30.051334381103516
2602;30.039241790771484
2603;30.026533126831055
2604;30.013076782226562
2605;29.99869728088379
2606;29.983217239379883
2607;29.966720581054688
2608;29.949045181274414
2609;29.930139541625977
2610;29.909975051879883
2611;29.888669967651367
2612;29.865808486938477
2613;29.841611862182617
2614;29.81626319885254
2615;29.789995193481445
2616;29.762805938720703
2617;29.735002517700195
2618;29.706836700439453
2619;29.678939819335938
2620;29.650970458984375
2621;29.620908737182617
2622;29.589359283447266
2623;29.56463050842285
2624;29.543853759765625
2625;29.52264404296875
2626;29.501890182495117
2627;29.483234405517578
2628;29.4669189453125
2629;29.45127296447754
2630;29.434110641479492
2631;29.41448974609375
2632;29.39350700378418
2633;29.37217140197754
2634;29.350337982177734
2635;29.327226638793945
2636;29.301721572875977
2637;29.27461051940918
2638;29.247289657592773
2639;29.219833374023438
2640;29.19133186340332
2641;29.161287307739258
2642;29.130008697509766
2643;29.09963607788086
2644;29.07040023803711
2645;29.040496826171875
2646;29.010372161865234
2647;28.981029510498047
2648;28.952178955078125
2649;28.92426872253418
2650;28.898046493530273
2651;28.871749877929688
2652;28.84925651550293
2653;28.824111938476562
2654;28.79824447631836
2655;28.77366065979004
2656;28.749324798583984
2657;28.723440170288086
2658;28.695714950561523
2659;28.667739868164062
2660;28.638906478881836
2661;28.61398696899414
2662;28.58592414855957
2663;28.55528450012207
2664;28.526702880859375
2665;28.50212287902832
2666;28.476247787475586
2667;28.449459075927734
2668;28.419979095458984
2669;28.3912353515625
2670;28.363616943359375
2671;28.33705711364746
2672;28.310407638549805
2673;28.284332275390625
2674;28.257442474365234
2675;28.2301025390625
2676;28.202791213989258
2677;28.17521858215332
2678;28.15031623840332
2679;28.122610092163086
2680;28.09540367126465
2681;28.069753646850586
2682;28.04248046875
2683;28.01542854309082
2684;27.988649368286133
2685;27.960763931274414
2686;27.933406829833984
2687;27.907190322875977
2688;27.879159927368164
2689;27.851167678833008
2690;27.823909759521484
2691;27.79615592956543
2692;27.770341873168945
2693;27.74139404296875
2694;27.71377182006836
2695;27.685760498046875
2696;27.658382415771484
2697;27.62760353088379
2698;27.597875595092773
2699;27.57078742980957
2700;27.54100227355957
2701;27.51041603088379
2702;27.476655960083008
2703;27.443737030029297
2704;27.41214942932129
2705;27.378828048706055
2706;27.341909408569336
2707;27.30497932434082
2708;27.270618438720703
2709;27.232452392578125
2710;27.189687728881836
2711;27.146671295166016
2712;27.105134963989258
2713;27.057146072387695
2714;27.007070541381836
2715;26.95317268371582
2716;26.897451400756836
2717;26.840940475463867
2718;26.796884536743164
2719;26.737638473510742
2720;26.650333404541016
2721;26.556774139404297
2722;26.492700576782227
2723;26.51409912109375
2724;26.455638885498047
2725;26.21011734008789
2726;26.127363204956055
2727;26.198760986328125
2728;26.089908599853516
2729;26.2135009765625
2730;25.831144332885742
2731;25.67048454284668
2732;25.63876724243164
2733;25.989654541015625
2734;27.075580596923828
2735;26.676794052124023
2736;26.562971115112305
2737;25.56125259399414
2738;27.10206413269043
2739;27.46829605102539
2740;26.153112411499023
2741;26.275104522705078
2742;26.48014259338379
2743;25.018062591552734
2744;25.76310920715332
2745;25.57647705078125
2746;24.92893409729004
2747;25.521074295043945
2748;25.020944595336914
2749;24.978755950927734
2750;25.180742263793945
2751;24.737382888793945
2752;24.74300193786621
2753;24.746448516845703
2754;24.373844146728516
2755;24.556108474731445
2756;24.19093894958496
2757;24.23138427734375
2758;23.88149642944336
2759;23.97627830505371
2760;23.699886322021484
2761;23.746065139770508
2762;23.27507209777832
2763;23.202219009399414
2764;23.27334213256836
2765;23.451223373413086
2766;22.483585357666016
2767;25.515180587768555
2768;24.969892501831055
2769;26.501413345336914
2770;26.004852294921875
2771;23.275461196899414
2772;26.39735221862793
2773;25.736406326293945
2774;22.51750373840332
2775;24.187665939331055
2776;24.253461837768555
2777;23.103376388549805
2778;22.681833267211914
2779;23.636199951171875
2780;23.678680419921875
2781;22.864089965820312
2782;22.62863540649414
2783;23.059175491333008
2784;23.184091567993164
2785;22.7213191986084
2786;22.1905517578125
2787;22.31778335571289
2788;22.499692916870117
2789;21.924148559570312
2790;21.57134437561035
2791;21.92183494567871
2792;21.32501220703125
2793;20.929243087768555
2794;21.16290283203125
2795;20.396825790405273
2796;20.473770141601562
2797;19.842151641845703
2798;20.156957626342773
2799;19.12202262878418
2800;18.885976791381836
2801;21.530033111572266
2802;21.3206844329834
2803;20.801164627075195
2804;22.25206184387207
2805;18.40625
2806;17.58742332458496
2807;18.70779800415039
2808;19.62555503845215
2809;17.92818832397461
2810;20.59518051147461
2811;17.18045997619629
2812;18.864471435546875
2813;16.850317001342773
2814;18.59419059753418
2815;16.684200286865234
2816;17.635221481323242
2817;15.750800132751465
2818;17.63553237915039
2819;19.088123321533203
2820;19.894775390625
2821;14.493054389953613
2822;27.226659774780273
2823;16.539562225341797
2824;19.8558406829834
2825;17.7051944732666
2826;15.441094398498535
2827;19.2674560546875
2828;15.67869758605957
2829;16.63245391845703
2830;17.783950805664062
2831;16.52718734741211
2832;15.234475135803223
2833;16.576679229736328
2834;15.070611000061035
2835;14.398910522460938
2836;15.132858276367188
2837;13.335490226745605
2838;13.861963272094727
2839;12.23566722869873
2840;14.246102333068848
2841;11.6423921585083
2842;11.860587120056152
2843;14.69117546081543
2844;12.424062728881836
2845;10.61011791229248
2846;11.061179161071777
2847;14.606135368347168
2848;20.496923446655273
2849;25.15060806274414
2850;26.796403884887695
2851;25.58213233947754
2852;21.288604736328125
2853;11.18696403503418
2854;32.882633209228516
2855;13.022428512573242
2856;15.977544784545898
2857;20.655452728271484
2858;20.830686569213867
2859;18.179967880249023
2860;15.287373542785645
2861;15.182233810424805
2862;17.278057098388672
2863;18.444278717041016
2864;17.476511001586914
2865;15.920476913452148
2866;15.373644828796387
2867;15.81159496307373
2868;16.42601203918457
2869;16.479721069335938
2870;15.75786018371582
2871;14.601411819458008
2872;13.74314022064209
2873;13.763717651367188
2874;14.090521812438965
2875;13.143269538879395
2876;11.894968032836914
2877;11.755549430847168
2878;12.087899208068848
2879;10.8909330368042
2880;10.202103614807129
2881;10.863077163696289
2882;9.47313117980957
2883;10.753250122070312
2884;8.971192359924316
2885;10.407377243041992
2886;8.701363563537598
2887;11.13878059387207
2888;8.732823371887207
2889;9.203079223632812
2890;8.409467697143555
2891;8.019608497619629
2892;8.310012817382812
2893;7.809334754943848
2894;8.081761360168457
2895;7.484498023986816
2896;7.709197998046875
2897;7.258213996887207
2898;7.392345905303955
2899;6.9061479568481445
2900;6.97706937789917
2901;6.6535162925720215
2902;6.65192174911499
2903;6.637415409088135
2904;6.306538105010986
2905;6.5441484451293945
2906;6.5646209716796875
2907;6.017589092254639
2908;6.4610676765441895
2909;6.2595295906066895
2910;6.011195659637451
2911;6.164393424987793
2912;5.6830315589904785
2913;5.888430118560791
2914;5.52907657623291
2915;5.7133378982543945
2916;5.451563835144043
2917;5.476737976074219
2918;5.334410190582275
2919;5.243480205535889
2920;5.277279376983643
2921;5.087044715881348
2922;5.19215726852417
2923;4.994839191436768
2924;4.9792304039001465
2925;4.900204181671143
2926;4.814208984375
2927;4.8060173988342285
2928;4.694121837615967
2929;4.710880756378174
2930;4.56929874420166
2931;4.548159599304199
2932;4.484553337097168
2933;4.411437511444092
2934;4.391549587249756
2935;4.334632396697998
2936;4.286561489105225
2937;4.254907131195068
2938;4.196774005889893
2939;4.156494617462158
2940;4.113607883453369
2941;4.073731899261475
2942;4.028228759765625
2943;3.991691827774048
2944;3.949739694595337
2945;3.906423807144165
2946;3.8677515983581543
2947;3.8198018074035645
2948;3.780045747756958
2949;3.742621898651123
2950;3.710045576095581
2951;3.679352283477783
2952;3.6459906101226807
2953;3.610759735107422
2954;3.575772523880005
2955;3.544889211654663
2956;3.530005931854248
2957;3.510673999786377
2958;3.4820823669433594
2959;3.4208598136901855
2960;3.3946621417999268
2961;3.3971755504608154
2962;3.355071544647217
2963;3.327049493789673
2964;3.2715747356414795
2965;3.241945505142212
2966;3.2318856716156006
2967;3.2056961059570312
2968;3.2059407234191895
2969;3.1525702476501465
2970;3.123155117034912
2971;3.081247091293335
2972;3.047215700149536
2973;3.017119884490967
2974;2.994507074356079
2975;2.999408006668091
2976;2.992516279220581
2977;3.1490285396575928
2978;2.964299440383911
2979;2.911163091659546
2980;2.856900930404663
2981;2.834934711456299
2982;2.8501875400543213
2983;2.8781650066375732
2984;3.423814535140991
2985;2.7727367877960205
2986;2.7386295795440674
2987;2.9229087829589844
2988;2.726398229598999
2989;2.6671416759490967
2990;2.6289079189300537
2991;2.63078236579895
2992;2.830369472503662
2993;2.815124034881592
2994;3.9609344005584717
2995;2.5479736328125
2996;7.860215663909912
2997;76.9651870727539
2998;60.487186431884766
2999;43.176551818847656
