;loss
0;1323.888671875
1;1322.4581298828125
2;1320.51904296875
3;1318.733642578125
4;1316.7393798828125
5;1314.703125
6;1312.67919921875
7;1310.5313720703125
8;1308.343017578125
9;1306.0596923828125
10;1303.6695556640625
11;1301.1590576171875
12;1298.515625
13;1295.715576171875
14;1292.74267578125
15;1289.595458984375
16;1286.208984375
17;1282.5751953125
18;1278.699462890625
19;1274.515625
20;1269.933837890625
21;1265.001953125
22;1259.5574951171875
23;1253.5865478515625
24;1247.0130615234375
25;1239.8338623046875
26;1231.8751220703125
27;1223.0147705078125
28;1213.1082763671875
29;1201.982421875
30;1189.43115234375
31;1175.0308837890625
32;1158.81787109375
33;1140.28369140625
34;1118.75927734375
35;1093.9697265625
36;1065.7369384765625
37;1032.916748046875
38;995.3786010742188
39;953.4327392578125
40;907.0184326171875
41;857.262451171875
42;806.3218994140625
43;757.23583984375
44;712.80224609375
45;675.9586791992188
46;647.41748046875
47;626.2769165039062
48;610.1467895507812
49;597.5464477539062
50;587.299072265625
51;578.5787353515625
52;570.90478515625
53;563.99560546875
54;557.6449584960938
55;551.7171630859375
56;546.111083984375
57;540.7570190429688
58;535.6488647460938
59;530.668212890625
60;525.867919921875
61;521.1516723632812
62;516.5751342773438
63;512.055419921875
64;507.6500244140625
65;503.3175354003906
66;499.02056884765625
67;494.8150634765625
68;490.6653747558594
69;486.5393981933594
70;482.4630126953125
71;478.4334411621094
72;474.44976806640625
73;470.5110168457031
74;466.61370849609375
75;462.7809753417969
76;458.98724365234375
77;455.20953369140625
78;451.4952087402344
79;447.8226013183594
80;444.193115234375
81;440.60858154296875
82;437.07080078125
83;433.5611572265625
84;430.1015625
85;426.71099853515625
86;423.3513488769531
87;420.0587463378906
88;416.81341552734375
89;413.6134948730469
90;410.45721435546875
91;407.3424377441406
92;404.2673645019531
93;401.2301025390625
94;398.21356201171875
95;395.23187255859375
96;392.283447265625
97;389.3668518066406
98;386.48101806640625
99;383.6249084472656
100;380.8106689453125
101;378.02410888671875
102;375.26470947265625
103;372.5316162109375
104;369.82415771484375
105;367.1295166015625
106;364.4713439941406
107;361.8370666503906
108;359.2263488769531
109;356.63861083984375
110;354.0735168457031
111;351.53070068359375
112;349.0098571777344
113;346.50018310546875
114;344.0120849609375
115;341.5450439453125
116;339.0989990234375
117;336.6832580566406
118;334.278076171875
119;331.8929443359375
120;329.5276184082031
121;327.1817626953125
122;324.85516357421875
123;322.5564270019531
124;320.2676086425781
125;317.99737548828125
126;315.7538757324219
127;313.5200500488281
128;311.30419921875
129;309.1060485839844
130;306.9253845214844
131;304.7620544433594
132;302.6233215332031
133;300.5014343261719
134;298.38873291015625
135;296.2926025390625
136;294.2199401855469
137;292.16326904296875
138;290.11578369140625
139;288.0841979980469
140;286.06842041015625
141;284.068115234375
142;282.0896911621094
143;280.12005615234375
144;278.1717529296875
145;276.2381591796875
146;274.313232421875
147;272.4028625488281
148;270.507080078125
149;268.63134765625
150;266.7697448730469
151;264.92205810546875
152;263.0826721191406
153;261.2571105957031
154;259.4451904296875
155;257.64691162109375
156;255.862060546875
157;254.0904998779297
158;252.33216857910156
159;250.59201049804688
160;248.85983276367188
161;247.14540100097656
162;245.44371032714844
163;243.74978637695312
164;242.0731658935547
165;240.40423583984375
166;238.75225830078125
167;237.11241149902344
168;235.480224609375
169;233.86447143554688
170;232.2562713623047
171;230.66419982910156
172;229.08377075195312
173;227.5108184814453
174;225.95358276367188
175;224.40768432617188
176;222.8731689453125
177;221.34991455078125
178;219.83392333984375
179;218.32907104492188
180;216.8390655517578
181;215.35621643066406
182;213.8843231201172
183;212.42324829101562
184;210.97293090820312
185;209.533203125
186;208.10757446289062
187;206.68898010253906
188;205.2841796875
189;203.8863983154297
190;202.4988555908203
191;201.124755859375
192;199.7607879638672
193;198.40362548828125
194;197.0596466064453
195;195.72247314453125
196;194.39813232421875
197;193.08053588867188
198;191.775634765625
199;190.48031616210938
200;189.19166564941406
201;187.91253662109375
202;186.64288330078125
203;185.3826141357422
204;184.1316375732422
205;182.89268493652344
206;181.66018676757812
207;180.43948364257812
208;179.22518920898438
209;178.01992797851562
210;176.82362365722656
211;175.63619995117188
212;174.4576416015625
213;173.28785705566406
214;172.1267852783203
215;170.974365234375
216;169.83059692382812
217;168.6953582763672
218;167.56858825683594
219;166.45025634765625
220;165.34033203125
221;164.23873901367188
222;163.14540100097656
223;162.06027221679688
224;160.98333740234375
225;159.91445922851562
226;158.8536834716797
227;157.80088806152344
228;156.75811767578125
229;155.72320556640625
230;154.69602966308594
231;153.67669677734375
232;152.66500854492188
233;151.66104125976562
234;150.66465759277344
235;149.6739959716797
236;148.69082641601562
237;147.7152099609375
238;146.74700927734375
239;145.7862091064453
240;144.83279418945312
241;143.8883819580078
242;142.94947814941406
243;142.01779174804688
244;141.09326171875
245;140.17750549316406
246;139.26715087890625
247;138.36546325683594
248;137.46913146972656
249;136.57969665527344
250;135.69874572753906
251;134.82305908203125
252;133.95565795898438
253;133.09349060058594
254;132.23956298828125
255;131.39080810546875
256;130.5486602783203
257;129.7130889892578
258;128.88406372070312
259;128.06292724609375
260;127.24820709228516
261;126.43851470947266
262;125.63656616210938
263;124.84087371826172
264;124.05018615722656
265;123.26573181152344
266;122.48748016357422
267;121.71663665771484
268;120.951904296875
269;120.19325256347656
270;119.43941497802734
271;118.69158172607422
272;117.94967651367188
273;117.21371459960938
274;116.48480987548828
275;115.76060485839844
276;115.04215240478516
277;114.32955169677734
278;113.62264251708984
279;112.92253112792969
280;112.2280502319336
281;111.53812408447266
282;110.85478973388672
283;110.17704772949219
284;109.50372314453125
285;108.8368911743164
286;108.17452239990234
287;107.51751708984375
288;106.86589813232422
289;106.22055053710938
290;105.58047485351562
291;104.94471740722656
292;104.31417846679688
293;103.68885040283203
294;103.06865692138672
295;102.45358276367188
296;101.84449768066406
297;101.24040222167969
298;100.6413345336914
299;100.04637908935547
300;99.45721435546875
301;98.87296295166016
302;98.29277038574219
303;97.71739196777344
304;97.14683532714844
305;96.58106994628906
306;96.02084350585938
307;95.46530151367188
308;94.91368865966797
309;94.36747741699219
310;93.82511901855469
311;93.2873764038086
312;92.7549057006836
313;92.22620391845703
314;91.70201873779297
315;91.18230438232422
316;90.66700744628906
317;90.1561279296875
318;89.64960479736328
319;89.1474380493164
320;88.64958953857422
321;88.15664672851562
322;87.66731262207031
323;87.18220520019531
324;86.701904296875
325;86.22578430175781
326;85.75373077392578
327;85.28521728515625
328;84.82133483886719
329;84.36092376708984
330;83.90451049804688
331;83.45211791992188
332;83.00423431396484
333;82.55972290039062
334;82.11910247802734
335;81.68234252929688
336;81.24998474121094
337;80.82144165039062
338;80.39615631103516
339;79.97462463378906
340;79.55684661865234
341;79.14276885986328
342;78.73239135742188
343;78.32564544677734
344;77.92256164550781
345;77.52306365966797
346;77.12761688232422
347;76.7357177734375
348;76.34732055664062
349;75.96196746826172
350;75.58055114746094
351;75.20258331298828
352;74.82756042480469
353;74.45592498779297
354;74.08768463134766
355;73.72279357910156
356;73.36119842529297
357;73.00292205810547
358;72.64789581298828
359;72.29612731933594
360;71.94798278808594
361;71.60304260253906
362;71.26126098632812
363;70.92261505126953
364;70.58670043945312
365;70.25391387939453
366;69.92417907714844
367;69.59750366210938
368;69.27388000488281
369;68.95323944091797
370;68.63595581054688
371;68.32162475585938
372;68.00988006591797
373;67.70106506347656
374;67.39513397216797
375;67.09207153320312
376;66.79218292236328
377;66.49481964111328
378;66.20023345947266
379;65.90846252441406
380;65.61941528320312
381;65.33312225341797
382;65.04985809326172
383;64.76927947998047
384;64.49109649658203
385;64.21585083007812
386;63.94292449951172
387;63.67262649536133
388;63.40519714355469
389;63.14006805419922
390;62.87749481201172
391;62.617431640625
392;62.35988998413086
393;62.10484313964844
394;61.85225296020508
395;61.60211944580078
396;61.35469055175781
397;61.10939025878906
398;60.86647415161133
399;60.62596130371094
400;60.38778305053711
401;60.15194320678711
402;59.91841506958008
403;59.68718719482422
404;59.45822525024414
405;59.23153305053711
406;59.00706481933594
407;58.78506088256836
408;58.56502151489258
409;58.34718704223633
410;58.13170623779297
411;57.91816711425781
412;57.70676040649414
413;57.49745178222656
414;57.29045867919922
415;57.08552932739258
416;56.88246536254883
417;56.681636810302734
418;56.48263168334961
419;56.285648345947266
420;56.09062576293945
421;55.89759826660156
422;55.70671081542969
423;55.51756286621094
424;55.33035659790039
425;55.145233154296875
426;54.96180725097656
427;54.7802734375
428;54.60059356689453
429;54.42275619506836
430;54.246726989746094
431;54.072696685791016
432;53.90044403076172
433;53.72978973388672
434;53.56093978881836
435;53.39381790161133
436;53.228424072265625
437;53.06490707397461
438;52.90291976928711
439;52.74265670776367
440;52.58403778076172
441;52.42707061767578
442;52.271907806396484
443;52.11822509765625
444;51.96615982055664
445;51.815704345703125
446;51.66694259643555
447;51.519630432128906
448;51.37388610839844
449;51.22966384887695
450;51.08696746826172
451;50.9459228515625
452;50.8062629699707
453;50.66807556152344
454;50.53135681152344
455;50.39623260498047
456;50.26245880126953
457;50.130062103271484
458;49.99924087524414
459;49.86970138549805
460;49.74156188964844
461;49.61479187011719
462;49.48939514160156
463;49.36548614501953
464;49.24278259277344
465;49.12143325805664
466;49.001495361328125
467;48.88276672363281
468;48.76542282104492
469;48.64934539794922
470;48.53457260131836
471;48.42102813720703
472;48.30864334106445
473;48.19749450683594
474;48.08757781982422
475;47.97884750366211
476;47.87135314941406
477;47.76503372192383
478;47.65988540649414
479;47.55591583251953
480;47.453094482421875
481;47.351409912109375
482;47.250885009765625
483;47.151527404785156
484;47.05320739746094
485;46.95600128173828
486;46.85987854003906
487;46.76483917236328
488;46.67085266113281
489;46.57795333862305
490;46.4860954284668
491;46.3952522277832
492;46.30546188354492
493;46.216670989990234
494;46.128910064697266
495;46.0421257019043
496;45.956363677978516
497;45.87159729003906
498;45.787811279296875
499;45.704933166503906
500;45.62306594848633
501;45.542076110839844
502;45.462059020996094
503;45.38291549682617
504;45.30475616455078
505;45.22740936279297
506;45.150978088378906
507;45.07543182373047
508;45.00080871582031
509;44.927005767822266
510;44.85406494140625
511;44.78200149536133
512;44.710792541503906
513;44.64042282104492
514;44.57081604003906
515;44.50202178955078
516;44.434085845947266
517;44.366912841796875
518;44.300514221191406
519;44.234901428222656
520;44.17005920410156
521;44.10598373413086
522;44.04268264770508
523;43.98015213012695
524;43.91832733154297
525;43.85725784301758
526;43.79689025878906
527;43.737247467041016
528;43.67835998535156
529;43.62018966674805
530;43.562660217285156
531;43.50582504272461
532;43.449668884277344
533;43.39418029785156
534;43.339385986328125
535;43.2852783203125
536;43.231788635253906
537;43.17892837524414
538;43.12676239013672
539;43.07518005371094
540;43.02421951293945
541;42.973941802978516
542;42.924217224121094
543;42.875118255615234
544;42.82660675048828
545;42.77873229980469
546;42.73139572143555
547;42.684661865234375
548;42.63849639892578
549;42.5928955078125
550;42.54786682128906
551;42.50341796875
552;42.459510803222656
553;42.41615676879883
554;42.3732795715332
555;42.33096694946289
556;42.28916931152344
557;42.24789810180664
558;42.20713424682617
559;42.16691589355469
560;42.12718200683594
561;42.08795166015625
562;42.049190521240234
563;42.010921478271484
564;41.9731559753418
565;41.93581771850586
566;41.89897537231445
567;41.86262512207031
568;41.826725006103516
569;41.791263580322266
570;41.756248474121094
571;41.72169494628906
572;41.68760299682617
573;41.65388488769531
574;41.62063980102539
575;41.58778381347656
576;41.555381774902344
577;41.52338790893555
578;41.491783142089844
579;41.46062469482422
580;41.42982482910156
581;41.39942932128906
582;41.36942672729492
583;41.339813232421875
584;41.310577392578125
585;41.281715393066406
586;41.25325393676758
587;41.22515869140625
588;41.19742965698242
589;41.17005157470703
590;41.143035888671875
591;41.116371154785156
592;41.09005355834961
593;41.064064025878906
594;41.03843307495117
595;41.013118743896484
596;40.98816680908203
597;40.96351623535156
598;40.9391975402832
599;40.91520690917969
600;40.891536712646484
601;40.86818313598633
602;40.845130920410156
603;40.822364807128906
604;40.79991149902344
605;40.77776336669922
606;40.75590133666992
607;40.73432922363281
608;40.713050842285156
609;40.69204330444336
610;40.67134094238281
611;40.65090560913086
612;40.630741119384766
613;40.61085510253906
614;40.591224670410156
615;40.571868896484375
616;40.55278015136719
617;40.5339469909668
618;40.51535415649414
619;40.49702835083008
620;40.47894287109375
621;40.46110916137695
622;40.443519592285156
623;40.426151275634766
624;40.40903091430664
625;40.39216613769531
626;40.375518798828125
627;40.359092712402344
628;40.3428955078125
629;40.32692337036133
630;40.311161041259766
631;40.29560852050781
632;40.28028869628906
633;40.26517105102539
634;40.25025939941406
635;40.235557556152344
636;40.221073150634766
637;40.2067756652832
638;40.19267272949219
639;40.17877197265625
640;40.165061950683594
641;40.15153503417969
642;40.13821792602539
643;40.12507629394531
644;40.11212158203125
645;40.099342346191406
646;40.08674240112305
647;40.07432174682617
648;40.06208801269531
649;40.05001449584961
650;40.038108825683594
651;40.02638244628906
652;40.01481246948242
653;40.0034065246582
654;39.992164611816406
655;39.98109436035156
656;39.97016906738281
657;39.95939636230469
658;39.948787689208984
659;39.93831253051758
660;39.92800521850586
661;39.917842864990234
662;39.90781021118164
663;39.8979377746582
664;39.8881950378418
665;39.87861251831055
666;39.869140625
667;39.85981750488281
668;39.850624084472656
669;39.8415641784668
670;39.8326416015625
671;39.82384490966797
672;39.815189361572266
673;39.806644439697266
674;39.79822540283203
675;39.7899284362793
676;39.78174591064453
677;39.77369689941406
678;39.7657585144043
679;39.757938385009766
680;39.75022888183594
681;39.74263000488281
682;39.73515319824219
683;39.7277717590332
684;39.72050476074219
685;39.71335220336914
686;39.706302642822266
687;39.69935607910156
688;39.69252014160156
689;39.68577575683594
690;39.679141998291016
691;39.672584533691406
692;39.666141510009766
693;39.6597900390625
694;39.653541564941406
695;39.64735794067383
696;39.64128494262695
697;39.63531494140625
698;39.629417419433594
699;39.62361145019531
700;39.61790084838867
701;39.612274169921875
702;39.60672378540039
703;39.601261138916016
704;39.59587478637695
705;39.590576171875
706;39.585357666015625
707;39.58021545410156
708;39.57514953613281
709;39.57017135620117
710;39.56525802612305
711;39.5604133605957
712;39.5556526184082
713;39.55097579956055
714;39.54635238647461
715;39.54179763793945
716;39.53732681274414
717;39.532920837402344
718;39.5285758972168
719;39.524295806884766
720;39.52009582519531
721;39.51594543457031
722;39.51185989379883
723;39.507850646972656
724;39.50389099121094
725;39.49998474121094
726;39.49617004394531
727;39.49238586425781
728;39.48866271972656
729;39.48501205444336
730;39.481414794921875
731;39.47785186767578
732;39.47437286376953
733;39.47093963623047
734;39.46755599975586
735;39.46422576904297
736;39.460933685302734
737;39.45771789550781
738;39.45454025268555
739;39.4514045715332
740;39.44832992553711
741;39.445308685302734
742;39.442317962646484
743;39.439388275146484
744;39.43650436401367
745;39.433658599853516
746;39.43086242675781
747;39.428104400634766
748;39.42539978027344
749;39.42273712158203
750;39.42011260986328
751;39.41752624511719
752;39.41499328613281
753;39.41248321533203
754;39.4100227355957
755;39.40760803222656
756;39.40522384643555
757;39.40287399291992
758;39.400569915771484
759;39.39830017089844
760;39.39607238769531
761;39.39386749267578
762;39.39170837402344
763;39.38958740234375
764;39.387489318847656
765;39.385433197021484
766;39.383419036865234
767;39.38141632080078
768;39.37945556640625
769;39.37752914428711
770;39.375633239746094
771;39.3737678527832
772;39.37192916870117
773;39.37013244628906
774;39.36834716796875
775;39.36659240722656
776;39.36488342285156
777;39.36320495605469
778;39.36152648925781
779;39.359886169433594
780;39.3582878112793
781;39.35669708251953
782;39.355140686035156
783;39.35361862182617
784;39.352115631103516
785;39.35063171386719
786;39.34916687011719
787;39.34774398803711
788;39.34633255004883
789;39.34493637084961
790;39.34358215332031
791;39.34224319458008
792;39.34092712402344
793;39.33963394165039
794;39.338356018066406
795;39.33710479736328
796;39.33586502075195
797;39.33466339111328
798;39.333473205566406
799;39.33229446411133
800;39.33115005493164
801;39.33001708984375
802;39.32891082763672
803;39.327816009521484
804;39.32673645019531
805;39.32567596435547
806;39.32464599609375
807;39.32362365722656
808;39.322608947753906
809;39.32163619995117
810;39.32065963745117
811;39.31968688964844
812;39.31876754760742
813;39.317832946777344
814;39.31694412231445
815;39.3160514831543
816;39.31515884399414
817;39.31430435180664
818;39.31345748901367
819;39.31262969970703
820;39.31180953979492
821;39.31099319458008
822;39.310218811035156
823;39.30944061279297
824;39.308677673339844
825;39.30793380737305
826;39.307193756103516
827;39.306461334228516
828;39.30575942993164
829;39.30506134033203
830;39.30436706542969
831;39.30370330810547
832;39.30302429199219
833;39.30237579345703
834;39.30174255371094
835;39.30110549926758
836;39.30048751831055
837;39.29988479614258
838;39.299285888671875
839;39.2986946105957
840;39.29812240600586
841;39.29756164550781
842;39.296993255615234
843;39.29644775390625
844;39.29591369628906
845;39.295387268066406
846;39.29486083984375
847;39.29435348510742
848;39.29386520385742
849;39.29336929321289
850;39.29289245605469
851;39.29241943359375
852;39.29194641113281
853;39.291481018066406
854;39.29103469848633
855;39.290592193603516
856;39.29014587402344
857;39.289737701416016
858;39.28931427001953
859;39.28890609741211
860;39.28849792480469
861;39.28810501098633
862;39.287715911865234
863;39.287330627441406
864;39.286956787109375
865;39.28657913208008
866;39.286216735839844
867;39.28586959838867
868;39.28551483154297
869;39.28517150878906
870;39.28483963012695
871;39.28450012207031
872;39.28416442871094
873;39.28386306762695
874;39.28354263305664
875;39.28322982788086
876;39.282928466796875
877;39.282630920410156
878;39.282344818115234
879;39.28205871582031
880;39.281776428222656
881;39.28150177001953
882;39.28123092651367
883;39.28096008300781
884;39.28070068359375
885;39.28044509887695
886;39.28019332885742
887;39.27995300292969
888;39.27970504760742
889;39.27946090698242
890;39.279232025146484
891;39.27900314331055
892;39.27876281738281
893;39.27854919433594
894;39.27833938598633
895;39.27812194824219
896;39.27790832519531
897;39.27771759033203
898;39.27749252319336
899;39.277305603027344
900;39.2771110534668
901;39.276920318603516
902;39.27672576904297
903;39.276546478271484
904;39.2763557434082
905;39.27619171142578
906;39.276004791259766
907;39.27583312988281
908;39.275672912597656
909;39.2755241394043
910;39.275352478027344
911;39.27519226074219
912;39.275047302246094
913;39.2748908996582
914;39.27473449707031
915;39.27457809448242
916;39.274436950683594
917;39.2742919921875
918;39.27416229248047
919;39.27402114868164
920;39.273887634277344
921;39.27375793457031
922;39.27361297607422
923;39.27350616455078
924;39.273372650146484
925;39.27324295043945
926;39.273128509521484
927;39.27301025390625
928;39.27290344238281
929;39.272789001464844
930;39.27265930175781
931;39.27256393432617
932;39.2724609375
933;39.27235794067383
934;39.272239685058594
935;39.272151947021484
936;39.27205276489258
937;39.27195739746094
938;39.271854400634766
939;39.27176284790039
940;39.27165985107422
941;39.27158737182617
942;39.27147674560547
943;39.27140808105469
944;39.27131652832031
945;39.271240234375
946;39.27116394042969
947;39.27106857299805
948;39.27098846435547
949;39.27091598510742
950;39.27083969116211
951;39.27076721191406
952;39.27069854736328
953;39.270626068115234
954;39.27054977416992
955;39.27047348022461
956;39.27040100097656
957;39.27033996582031
958;39.270263671875
959;39.27021408081055
960;39.2701530456543
961;39.27008056640625
962;39.27002716064453
963;39.26996994018555
964;39.26991271972656
965;39.26985168457031
966;39.269798278808594
967;39.26973342895508
968;39.26968765258789
969;39.269630432128906
970;39.26957702636719
971;39.269527435302734
972;39.269474029541016
973;39.26941680908203
974;39.269378662109375
975;39.26933288574219
976;39.269283294677734
977;39.269229888916016
978;39.269195556640625
979;39.26917266845703
980;39.26911163330078
981;39.26906204223633
982;39.26902389526367
983;39.26897048950195
984;39.26893997192383
985;39.268898010253906
986;39.26884460449219
987;39.268829345703125
988;39.26878356933594
989;39.26874542236328
990;39.26870346069336
991;39.268680572509766
992;39.26864242553711
993;39.26859664916992
994;39.26856994628906
995;39.26853942871094
996;39.26850891113281
997;39.268470764160156
998;39.2684326171875
999;39.268402099609375
1000;39.26837158203125
1001;39.26835250854492
1002;39.26832962036133
1003;39.26829528808594
1004;39.26826477050781
1005;39.268253326416016
1006;39.26822280883789
1007;39.26818084716797
1008;39.26817321777344
1009;39.26813888549805
1010;39.26810836791992
1011;39.26807403564453
1012;39.26805877685547
1013;39.26803970336914
1014;39.26800537109375
1015;39.26799011230469
1016;39.26796340942383
1017;39.267948150634766
1018;39.26792907714844
1019;39.26789855957031
1020;39.26787567138672
1021;39.26785659790039
1022;39.26783752441406
1023;39.26781463623047
1024;39.267799377441406
1025;39.26777648925781
1026;39.26774597167969
1027;39.26772689819336
1028;39.26771545410156
1029;39.26770782470703
1030;39.26768493652344
1031;39.26766586303711
1032;39.26765060424805
1033;39.267635345458984
1034;39.267616271972656
1035;39.26759719848633
1036;39.267581939697266
1037;39.2675666809082
1038;39.267555236816406
1039;39.26753234863281
1040;39.267520904541016
1041;39.26749801635742
1042;39.26748275756836
1043;39.2674674987793
1044;39.2674674987793
1045;39.26744079589844
1046;39.267433166503906
1047;39.26741027832031
1048;39.26740264892578
1049;39.26739501953125
1050;39.26737976074219
1051;39.267364501953125
1052;39.26734924316406
1053;39.2673225402832
1054;39.26731872558594
1055;39.26730728149414
1056;39.26731491088867
1057;39.26728820800781
1058;39.26728057861328
1059;39.26725769042969
1060;39.26726150512695
1061;39.267242431640625
1062;39.26723861694336
1063;39.26722717285156
1064;39.26720428466797
1065;39.26719665527344
1066;39.267181396484375
1067;39.267173767089844
1068;39.26716232299805
1069;39.26715850830078
1070;39.267147064208984
1071;39.26713562011719
1072;39.26712417602539
1073;39.26711654663086
1074;39.26710510253906
1075;39.26709747314453
1076;39.267093658447266
1077;39.26708221435547
1078;39.26707077026367
1079;39.26705551147461
1080;39.26704406738281
1081;39.26704788208008
1082;39.26702880859375
1083;39.26702880859375
1084;39.26701354980469
1085;39.26700210571289
1086;39.26699447631836
1087;39.26700210571289
1088;39.2669792175293
1089;39.26697540283203
1090;39.266963958740234
1091;39.2669677734375
1092;39.26695251464844
1093;39.26694107055664
1094;39.26693344116211
1095;39.26692581176758
1096;39.26691818237305
1097;39.26691436767578
1098;39.26690673828125
1099;39.26689147949219
1100;39.26689147949219
1101;39.26688003540039
1102;39.26687240600586
1103;39.26687240600586
1104;39.26686096191406
1105;39.26686096191406
1106;39.266849517822266
1107;39.266841888427734
1108;39.26682662963867
1109;39.26683044433594
1110;39.26681137084961
1111;39.266807556152344
1112;39.26680374145508
1113;39.26679611206055
1114;39.26677703857422
1115;39.26677703857422
1116;39.26676940917969
1117;39.26677322387695
1118;39.266754150390625
1119;39.266761779785156
1120;39.26673889160156
1121;39.26673889160156
1122;39.26673126220703
1123;39.26673126220703
1124;39.2667236328125
1125;39.2667236328125
1126;39.26670837402344
1127;39.26670455932617
1128;39.266700744628906
1129;39.26668930053711
1130;39.26668930053711
1131;39.26668167114258
1132;39.26667785644531
1133;39.26667404174805
1134;39.26667022705078
1135;39.26665496826172
1136;39.26664352416992
1137;39.26664733886719
1138;39.26664352416992
1139;39.26663589477539
1140;39.26662826538086
1141;39.26661682128906
1142;39.26661682128906
1143;39.26660919189453
1144;39.266605377197266
1145;39.2665901184082
1146;39.26658630371094
1147;39.26658248901367
1148;39.266571044921875
1149;39.266578674316406
1150;39.266563415527344
1151;39.26655578613281
1152;39.26655960083008
1153;39.26654815673828
1154;39.26652908325195
1155;39.26652526855469
1156;39.26652526855469
1157;39.26652908325195
1158;39.26651382446289
1159;39.266510009765625
1160;39.26649856567383
1161;39.26649856567383
1162;39.26649856567383
1163;39.2664909362793
1164;39.266483306884766
1165;39.266475677490234
1166;39.2664680480957
1167;39.26646423339844
1168;39.26646041870117
1169;39.26645278930664
1170;39.26645278930664
1171;39.266448974609375
1172;39.26642990112305
1173;39.26641845703125
1174;39.266414642333984
1175;39.26641082763672
1176;39.26641082763672
1177;39.26640319824219
1178;39.26640319824219
1179;39.26640319824219
1180;39.266387939453125
1181;39.266387939453125
1182;39.266380310058594
1183;39.26637268066406
1184;39.26637268066406
1185;39.26636505126953
1186;39.26636505126953
1187;39.26634216308594
1188;39.2663459777832
1189;39.26633071899414
1190;39.26633071899414
1191;39.26633071899414
1192;39.266319274902344
1193;39.266319274902344
1194;39.26631164550781
1195;39.26631546020508
1196;39.266300201416016
1197;39.266292572021484
1198;39.26628112792969
1199;39.26628112792969
1200;39.26628112792969
1201;39.266265869140625
1202;39.26626205444336
1203;39.266265869140625
1204;39.266258239746094
1205;39.26625061035156
1206;39.2662353515625
1207;39.266239166259766
1208;39.2662239074707
1209;39.26622772216797
1210;39.26622009277344
1211;39.26621627807617
1212;39.266204833984375
1213;39.266197204589844
1214;39.26620101928711
1215;39.26618576049805
1216;39.26618957519531
1217;39.26618576049805
1218;39.26617431640625
1219;39.26616287231445
1220;39.26616287231445
1221;39.26615905761719
1222;39.266151428222656
1223;39.26613998413086
1224;39.26612854003906
1225;39.26612854003906
1226;39.26612854003906
1227;39.26612091064453
1228;39.26611328125
1229;39.26610565185547
1230;39.26609802246094
1231;39.266109466552734
1232;39.26607894897461
1233;39.26609420776367
1234;39.266075134277344
1235;39.26607894897461
1236;39.266075134277344
1237;39.26605987548828
1238;39.266048431396484
1239;39.266048431396484
1240;39.26605987548828
1241;39.26603698730469
1242;39.26602554321289
1243;39.266021728515625
1244;39.26601791381836
1245;39.26600646972656
1246;39.26600646972656
1247;39.2660026550293
1248;39.265987396240234
1249;39.265987396240234
1250;39.26598358154297
1251;39.2659797668457
1252;39.26597213745117
1253;39.26596450805664
1254;39.265960693359375
1255;39.265960693359375
1256;39.26594543457031
1257;39.26593017578125
1258;39.265933990478516
1259;39.265926361083984
1260;39.265926361083984
1261;39.26591491699219
1262;39.26591491699219
1263;39.26590347290039
1264;39.26589584350586
1265;39.26588439941406
1266;39.2658805847168
1267;39.2658805847168
1268;39.26586151123047
1269;39.2658576965332
1270;39.26585388183594
1271;39.265846252441406
1272;39.265846252441406
1273;39.26583480834961
1274;39.265838623046875
1275;39.26582717895508
1276;39.26581954956055
1277;39.265811920166016
1278;39.26580047607422
1279;39.26579284667969
1280;39.26579284667969
1281;39.26578903198242
1282;39.26578903198242
1283;39.26577377319336
1284;39.26576232910156
1285;39.26576232910156
1286;39.265750885009766
1287;39.265743255615234
1288;39.2657356262207
1289;39.2657356262207
1290;39.26572799682617
1291;39.26572799682617
1292;39.26571273803711
1293;39.26571273803711
1294;39.26569747924805
1295;39.26569366455078
1296;39.26569366455078
1297;39.26568603515625
1298;39.26566696166992
1299;39.26567077636719
1300;39.26565933227539
1301;39.26565170288086
1302;39.26565170288086
1303;39.26564407348633
1304;39.265628814697266
1305;39.265628814697266
1306;39.265625
1307;39.26561737060547
1308;39.26560974121094
1309;39.265602111816406
1310;39.265594482421875
1311;39.26557922363281
1312;39.26558303833008
1313;39.265567779541016
1314;39.26554870605469
1315;39.26555633544922
1316;39.26555633544922
1317;39.26554870605469
1318;39.265533447265625
1319;39.265525817871094
1320;39.26551818847656
1321;39.26551055908203
1322;39.26549530029297
1323;39.265499114990234
1324;39.26548385620117
1325;39.26548767089844
1326;39.265472412109375
1327;39.265472412109375
1328;39.26546859741211
1329;39.26544952392578
1330;39.26545333862305
1331;39.26543426513672
1332;39.265438079833984
1333;39.26542663574219
1334;39.265419006347656
1335;39.265411376953125
1336;39.26539611816406
1337;39.26539993286133
1338;39.265384674072266
1339;39.265384674072266
1340;39.265380859375
1341;39.26536560058594
1342;39.265357971191406
1343;39.26533889770508
1344;39.26534652709961
1345;39.26533508300781
1346;39.26533889770508
1347;39.26531982421875
1348;39.26531982421875
1349;39.26530838012695
1350;39.265296936035156
1351;39.26530075073242
1352;39.26527786254883
1353;39.26527404785156
1354;39.2652702331543
1355;39.26525115966797
1356;39.2652587890625
1357;39.26524353027344
1358;39.26523971557617
1359;39.26521682739258
1360;39.26521301269531
1361;39.265201568603516
1362;39.265201568603516
1363;39.26519775390625
1364;39.26518249511719
1365;39.26518249511719
1366;39.265167236328125
1367;39.26516342163086
1368;39.26515579223633
1369;39.265159606933594
1370;39.26513671875
1371;39.265140533447266
1372;39.26512908935547
1373;39.26512145996094
1374;39.26510238647461
1375;39.26509094238281
1376;39.26508712768555
1377;39.26508331298828
1378;39.26508331298828
1379;39.26506423950195
1380;39.26504898071289
1381;39.26505661010742
1382;39.265045166015625
1383;39.26502990722656
1384;39.265018463134766
1385;39.2650146484375
1386;39.26500701904297
1387;39.26499557495117
1388;39.26498031616211
1389;39.26497268676758
1390;39.264976501464844
1391;39.264957427978516
1392;39.264949798583984
1393;39.26494216918945
1394;39.26494216918945
1395;39.264915466308594
1396;39.264923095703125
1397;39.26490783691406
1398;39.264896392822266
1399;39.264888763427734
1400;39.26487731933594
1401;39.26487731933594
1402;39.26486587524414
1403;39.26485824584961
1404;39.26484680175781
1405;39.26484298706055
1406;39.264835357666016
1407;39.26482391357422
1408;39.264808654785156
1409;39.264808654785156
1410;39.26478576660156
1411;39.264774322509766
1412;39.2647819519043
1413;39.264766693115234
1414;39.26475524902344
1415;39.264747619628906
1416;39.264739990234375
1417;39.264732360839844
1418;39.264713287353516
1419;39.26469802856445
1420;39.26469802856445
1421;39.264678955078125
1422;39.264686584472656
1423;39.2646598815918
1424;39.26466369628906
1425;39.2646484375
1426;39.26464080810547
1427;39.26464080810547
1428;39.264625549316406
1429;39.264617919921875
1430;39.26460647583008
1431;39.26460266113281
1432;39.26457214355469
1433;39.26457214355469
1434;39.26456069946289
1435;39.26455307006836
1436;39.26454162597656
1437;39.26453399658203
1438;39.2645263671875
1439;39.264522552490234
1440;39.26449203491211
1441;39.264495849609375
1442;39.26448059082031
1443;39.26445770263672
1444;39.26445007324219
1445;39.26444625854492
1446;39.26443099975586
1447;39.26441192626953
1448;39.26441192626953
1449;39.264404296875
1450;39.26438903808594
1451;39.26438903808594
1452;39.264373779296875
1453;39.264366149902344
1454;39.264347076416016
1455;39.26433563232422
1456;39.26433181762695
1457;39.26431655883789
1458;39.26430130004883
1459;39.26430892944336
1460;39.2642822265625
1461;39.2642822265625
1462;39.264259338378906
1463;39.264251708984375
1464;39.26423645019531
1465;39.26423645019531
1466;39.26422119140625
1467;39.26421356201172
1468;39.264190673828125
1469;39.264183044433594
1470;39.26417541503906
1471;39.26416015625
1472;39.26415252685547
1473;39.26414108276367
1474;39.26412582397461
1475;39.26411437988281
1476;39.264102935791016
1477;39.26408767700195
1478;39.264076232910156
1479;39.264060974121094
1480;39.26405334472656
1481;39.2640495300293
1482;39.26402282714844
1483;39.26402282714844
1484;39.263999938964844
1485;39.263999938964844
1486;39.26398849487305
1487;39.26396942138672
1488;39.26396179199219
1489;39.263938903808594
1490;39.26393127441406
1491;39.263919830322266
1492;39.26390838623047
1493;39.26389694213867
1494;39.263877868652344
1495;39.26387405395508
1496;39.26385498046875
1497;39.26384735107422
1498;39.26383972167969
1499;39.26381301879883
