;loss
0;1399.08544921875
1;1397.15771484375
2;1395.495361328125
3;1393.5447998046875
4;1391.5731201171875
5;1389.5728759765625
6;1387.5340576171875
7;1385.4901123046875
8;1383.372314453125
9;1381.1517333984375
10;1378.845947265625
11;1376.4454345703125
12;1373.926025390625
13;1371.272705078125
14;1368.4822998046875
15;1365.5274658203125
16;1362.362060546875
17;1359.010498046875
18;1355.3880615234375
19;1351.4915771484375
20;1347.330810546875
21;1342.779541015625
22;1337.8350830078125
23;1332.5093994140625
24;1326.69287109375
25;1320.24169921875
26;1313.1431884765625
27;1305.3060302734375
28;1296.6226806640625
29;1286.96484375
30;1276.312744140625
31;1264.382568359375
32;1250.9639892578125
33;1235.624267578125
34;1218.2091064453125
35;1198.599609375
36;1175.9522705078125
37;1150.0399169921875
38;1120.425048828125
39;1086.736083984375
40;1048.7921142578125
41;1007.2521362304688
42;962.0833740234375
43;915.4446411132812
44;869.9682006835938
45;829.0773315429688
46;794.3954467773438
47;767.162353515625
48;746.5620727539062
49;730.547119140625
50;717.44140625
51;706.1519775390625
52;696.0792846679688
53;686.6365966796875
54;677.5578002929688
55;668.8231201171875
56;660.4676513671875
57;652.4038696289062
58;644.6304931640625
59;637.158935546875
60;629.9201049804688
61;622.9362182617188
62;616.1891479492188
63;609.6625366210938
64;603.3848876953125
65;597.2971801757812
66;591.388671875
67;585.6532592773438
68;580.0838623046875
69;574.6339721679688
70;569.3408813476562
71;564.2006225585938
72;559.2012329101562
73;554.3536376953125
74;549.5853881835938
75;544.9494018554688
76;540.4081420898438
77;535.9541625976562
78;531.580810546875
79;527.2825927734375
80;523.0547485351562
81;518.8682861328125
82;514.7450561523438
83;510.7044982910156
84;506.6974792480469
85;502.74609375
86;498.8492736816406
87;495.02880859375
88;491.2384338378906
89;487.4955139160156
90;483.7977294921875
91;480.16302490234375
92;476.5708312988281
93;473.0015563964844
94;469.4730529785156
95;465.98382568359375
96;462.5329284667969
97;459.1360778808594
98;455.75860595703125
99;452.41619873046875
100;449.1235046386719
101;445.8635559082031
102;442.6207580566406
103;439.4244384765625
104;436.2448425292969
105;433.0962829589844
106;429.99176025390625
107;426.90252685546875
108;423.85552978515625
109;420.8236999511719
110;417.8208312988281
111;414.84759521484375
112;411.9017028808594
113;408.98223876953125
114;406.0884094238281
115;403.2198486328125
116;400.3760986328125
117;397.55780029296875
118;394.7644348144531
119;391.99493408203125
120;389.24896240234375
121;386.5259094238281
122;383.8254699707031
123;381.1474609375
124;378.5014343261719
125;375.8671875
126;373.2544250488281
127;370.6629638671875
128;368.0924072265625
129;365.54254150390625
130;363.0131530761719
131;360.50396728515625
132;358.0235595703125
133;355.5542907714844
134;353.11322021484375
135;350.69140625
136;348.2803955078125
137;345.8883361816406
138;343.52288818359375
139;341.16778564453125
140;338.8306884765625
141;336.5115966796875
142;334.2177734375
143;331.9338684082031
144;329.6745910644531
145;327.4252014160156
146;325.1928405761719
147;322.984375
148;320.7856140136719
149;318.6102600097656
150;316.4444580078125
151;314.2948913574219
152;312.16131591796875
153;310.0436096191406
154;307.94775390625
155;305.8610534667969
156;303.7896423339844
157;301.73345947265625
158;299.6922607421875
159;297.671875
160;295.6602478027344
161;293.66326904296875
162;291.6864318847656
163;289.7182312011719
164;287.7643127441406
165;285.8298645019531
166;283.9039611816406
167;281.99713134765625
168;280.09881591796875
169;278.2141418457031
170;276.3430480957031
171;274.49029541015625
172;272.64593505859375
173;270.8149108886719
174;269.0017395019531
175;267.19671630859375
176;265.4045715332031
177;263.6297302246094
178;261.8629455566406
179;260.1087341308594
180;258.36688232421875
181;256.6373596191406
182;254.9244842529297
183;253.22364807128906
184;251.53070068359375
185;249.84962463378906
186;248.18043518066406
187;246.52696228027344
188;244.8811798095703
189;243.2469940185547
190;241.62811279296875
191;240.01675415039062
192;238.4167022705078
193;236.8279571533203
194;235.2503204345703
195;233.6837921142578
196;232.13180541992188
197;230.59068298339844
198;229.0568084716797
199;227.5337677001953
200;226.02139282226562
201;224.52297973632812
202;223.03501892089844
203;221.55421447753906
204;220.08380126953125
205;218.62371826171875
206;217.17385864257812
207;215.7341766357422
208;214.30462646484375
209;212.8850555419922
210;211.478515625
211;210.07887268066406
212;208.68899536132812
213;207.30892944335938
214;205.94143676757812
215;204.58355712890625
216;203.2351837158203
217;201.8962860107422
218;200.56402587890625
219;199.2412109375
220;197.9276885986328
221;196.62603759765625
222;195.33363342285156
223;194.0476531982422
224;192.77084350585938
225;191.50546264648438
226;190.24661254882812
227;188.99664306640625
228;187.75799560546875
229;186.52806091308594
230;185.3068084716797
231;184.09185791015625
232;182.8878936767578
233;181.6901397705078
234;180.50315856933594
235;179.32456970214844
236;178.1521759033203
237;176.9882049560547
238;175.8324432373047
239;174.68710327148438
240;173.5478057861328
241;172.418701171875
242;171.29566955566406
243;170.1826629638672
244;169.07562255859375
245;167.97653198242188
246;166.8872833251953
247;165.803955078125
248;164.72837829589844
249;163.66055297851562
250;162.60040283203125
251;161.54794311523438
252;160.50308227539062
253;159.4658203125
254;158.43600463867188
255;157.41371154785156
256;156.40054321289062
257;155.3930206298828
258;154.392822265625
259;153.39990234375
260;152.41424560546875
261;151.43740844726562
262;150.466064453125
263;149.50341796875
264;148.54624938964844
265;147.59605407714844
266;146.65440368652344
267;145.71817016601562
268;144.79029846191406
269;143.86773681640625
270;142.95350646972656
271;142.04592895507812
272;141.1450653076172
273;140.25083923339844
274;139.3632354736328
275;138.48081970214844
276;137.60491943359375
277;136.73553466796875
278;135.87261962890625
279;135.0173797607422
280;134.16726684570312
281;133.32481384277344
282;132.48728942871094
283;131.6573486328125
284;130.8323211669922
285;130.0135040283203
286;129.20082092285156
287;128.39547729492188
288;127.59495544433594
289;126.80167388916016
290;126.01318359375
291;125.2318115234375
292;124.45520782470703
293;123.68448638916016
294;122.91962432861328
295;122.1605453491211
296;121.40725708007812
297;120.65969848632812
298;119.91785430908203
299;119.18165588378906
300;118.45111846923828
301;117.72718048095703
302;117.00778198242188
303;116.29390716552734
304;115.58650970458984
305;114.8835678100586
306;114.18604278564453
307;113.493896484375
308;112.80714416503906
309;112.12659454345703
310;111.45133209228516
311;110.78131866455078
312;110.11653900146484
313;109.4559326171875
314;108.80054473876953
315;108.15115356445312
316;107.5059585571289
317;106.86666870117188
318;106.23237609863281
319;105.60221099853516
320;104.97703552246094
321;104.35676574707031
322;103.74137878417969
323;103.130859375
324;102.52516174316406
325;101.92506408691406
326;101.3296890258789
327;100.73828887939453
328;100.151611328125
329;99.56958770751953
330;98.99220275878906
331;98.41944885253906
332;97.85199737548828
333;97.28837585449219
334;96.72927856445312
335;96.17536926269531
336;95.62521362304688
337;95.07948303222656
338;94.53819274902344
339;94.00189971923828
340;93.4693374633789
341;92.94104766845703
342;92.41708374023438
343;91.8973617553711
344;91.38249206542969
345;90.8712387084961
346;90.3641357421875
347;89.8617935180664
348;89.36296844482422
349;88.86820983886719
350;88.37814331054688
351;87.89148712158203
352;87.40943908691406
353;86.9308090209961
354;86.45613861083984
355;85.98536682128906
356;85.51851654052734
357;85.05555725097656
358;84.59642028808594
359;84.14164733886719
360;83.6901626586914
361;83.24246215820312
362;82.79899597167969
363;82.3592300415039
364;81.92266082763672
365;81.48977661132812
366;81.0610122680664
367;80.63587188720703
368;80.21430969238281
369;79.79582977294922
370;79.3813705444336
371;78.969970703125
372;78.56205749511719
373;78.15763092041016
374;77.75708770751953
375;77.3595199584961
376;76.96533203125
377;76.57496643066406
378;76.18795776367188
379;75.80423736572266
380;75.42343139648438
381;75.0458984375
382;74.67162322998047
383;74.30097961425781
384;73.93315124511719
385;73.5685043334961
386;73.20703125
387;72.84870910644531
388;72.49348449707031
389;72.14137268066406
390;71.79232025146484
391;71.44670104980469
392;71.10411071777344
393;70.76416778564453
394;70.42755889892578
395;70.0938949584961
396;69.76319885253906
397;69.43507385253906
398;69.1098403930664
399;68.78783416748047
400;68.46834564208984
401;68.15202331542969
402;67.83818817138672
403;67.52747344970703
404;67.21952819824219
405;66.91401672363281
406;66.611572265625
407;66.31179809570312
408;66.01444244384766
409;65.72004699707031
410;65.42830657958984
411;65.13890075683594
412;64.85238647460938
413;64.56846618652344
414;64.2871322631836
415;64.00833892822266
416;63.732078552246094
417;63.45805740356445
418;63.18681716918945
419;62.917781829833984
420;62.651206970214844
421;62.3870849609375
422;62.12565231323242
423;61.866336822509766
424;61.60966873168945
425;61.355125427246094
426;61.103172302246094
427;60.85353469848633
428;60.60597610473633
429;60.3609619140625
430;60.11797332763672
431;59.87750244140625
432;59.63923263549805
433;59.402976989746094
434;59.16915512084961
435;58.937313079833984
436;58.7076301574707
437;58.48009490966797
438;58.254722595214844
439;58.031471252441406
440;57.810546875
441;57.59149932861328
442;57.37450408935547
443;57.159584045410156
444;56.946720123291016
445;56.73583984375
446;56.52700424194336
447;56.32011032104492
448;56.115421295166016
449;55.91271209716797
450;55.71189880371094
451;55.513023376464844
452;55.3160400390625
453;55.120948791503906
454;54.92760467529297
455;54.73613357543945
456;54.546634674072266
457;54.35884475708008
458;54.172874450683594
459;53.98883819580078
460;53.80646514892578
461;53.625831604003906
462;53.44697952270508
463;53.27005386352539
464;53.09465408325195
465;52.92115783691406
466;52.74937438964844
467;52.5790901184082
468;52.41050720214844
469;52.24374008178711
470;52.07844924926758
471;51.91481018066406
472;51.75279998779297
473;51.592384338378906
474;51.43369674682617
475;51.27660369873047
476;51.12104415893555
477;50.96691131591797
478;50.81433868408203
479;50.66328048706055
480;50.513729095458984
481;50.36571502685547
482;50.21915817260742
483;50.07408142089844
484;49.93046188354492
485;49.78841018676758
486;49.64769744873047
487;49.50839614868164
488;49.37059783935547
489;49.234214782714844
490;49.09912872314453
491;48.965518951416016
492;48.83314514160156
493;48.70214080810547
494;48.572574615478516
495;48.44425582885742
496;48.31729507446289
497;48.19168472290039
498;48.06737518310547
499;47.94422912597656
500;47.82235336303711
501;47.701759338378906
502;47.58247756958008
503;47.46445083618164
504;47.3475456237793
505;47.231868743896484
506;47.11747360229492
507;47.00428771972656
508;46.89217758178711
509;46.781253814697266
510;46.67148208618164
511;46.56287384033203
512;46.45540237426758
513;46.34906005859375
514;46.24382781982422
515;46.13972854614258
516;46.03671646118164
517;45.934791564941406
518;45.83396530151367
519;45.73417663574219
520;45.63547134399414
521;45.53779220581055
522;45.44127655029297
523;45.34575653076172
524;45.25126647949219
525;45.157772064208984
526;45.06529998779297
527;44.97378158569336
528;44.88320541381836
529;44.79369354248047
530;44.705116271972656
531;44.61751174926758
532;44.53084945678711
533;44.445045471191406
534;44.360267639160156
535;44.27637481689453
536;44.19334411621094
537;44.11130905151367
538;44.03007888793945
539;43.94973373413086
540;43.87035369873047
541;43.79180145263672
542;43.714111328125
543;43.63731002807617
544;43.561279296875
545;43.48613357543945
546;43.41175842285156
547;43.338279724121094
548;43.26555633544922
549;43.19364547729492
550;43.122501373291016
551;43.05221939086914
552;42.982704162597656
553;42.91399002075195
554;42.84601974487305
555;42.77882385253906
556;42.71235656738281
557;42.64665222167969
558;42.5816650390625
559;42.51742172241211
560;42.45386505126953
561;42.39102554321289
562;42.328914642333984
563;42.26749038696289
564;42.20677947998047
565;42.14677810668945
566;42.08743667602539
567;42.028785705566406
568;41.97074508666992
569;41.91341018676758
570;41.8566780090332
571;41.8006591796875
572;41.7452278137207
573;41.69043731689453
574;41.63627243041992
575;41.58272171020508
576;41.52979278564453
577;41.47750473022461
578;41.42582702636719
579;41.374755859375
580;41.324256896972656
581;41.27433776855469
582;41.22500228881836
583;41.17621994018555
584;41.12800216674805
585;41.08036422729492
586;41.033267974853516
587;40.98673629760742
588;40.94071960449219
589;40.89524459838867
590;40.85030746459961
591;40.80590057373047
592;40.76200485229492
593;40.7186279296875
594;40.67576217651367
595;40.633445739746094
596;40.59157943725586
597;40.550235748291016
598;40.50940704345703
599;40.468997955322266
600;40.4290885925293
601;40.38969039916992
602;40.35074234008789
603;40.31224822998047
604;40.27424240112305
605;40.23667526245117
606;40.199562072753906
607;40.16287612915039
608;40.12663650512695
609;40.0908203125
610;40.05546951293945
611;40.02052307128906
612;39.98601150512695
613;39.95191955566406
614;39.918190002441406
615;39.88494110107422
616;39.85205841064453
617;39.81959915161133
618;39.787498474121094
619;39.75582504272461
620;39.72450256347656
621;39.69356155395508
622;39.66301345825195
623;39.63283157348633
624;39.60302734375
625;39.57358932495117
626;39.54450607299805
627;39.51579284667969
628;39.48740768432617
629;39.45940017700195
630;39.43172836303711
631;39.40440368652344
632;39.37739944458008
633;39.35075378417969
634;39.324440002441406
635;39.298458099365234
636;39.27276611328125
637;39.2474250793457
638;39.22240447998047
639;39.19769287109375
640;39.17326736450195
641;39.149147033691406
642;39.12533187866211
643;39.10185623168945
644;39.07863998413086
645;39.05572509765625
646;39.03309631347656
647;39.010738372802734
648;38.98868179321289
649;38.96691131591797
650;38.94538879394531
651;38.92416000366211
652;38.9031982421875
653;38.88249588012695
654;38.862056732177734
655;38.84187316894531
656;38.821956634521484
657;38.802303314208984
658;38.78288650512695
659;38.76372146606445
660;38.74480056762695
661;38.72612380981445
662;38.70768356323242
663;38.68948745727539
664;38.6715202331543
665;38.65379333496094
666;38.63630294799805
667;38.61902618408203
668;38.60198211669922
669;38.58514404296875
670;38.56855392456055
671;38.55216598510742
672;38.53599166870117
673;38.520023345947266
674;38.504268646240234
675;38.48871612548828
676;38.47336959838867
677;38.45823669433594
678;38.443294525146484
679;38.428524017333984
680;38.41398620605469
681;38.39961242675781
682;38.385433197021484
683;38.37145233154297
684;38.35765075683594
685;38.34402847290039
686;38.33057403564453
687;38.317325592041016
688;38.30424880981445
689;38.29133605957031
690;38.278587341308594
691;38.26602554321289
692;38.25363540649414
693;38.24138259887695
694;38.229305267333984
695;38.2173957824707
696;38.20563888549805
697;38.194053649902344
698;38.18260955810547
699;38.17131805419922
700;38.16019058227539
701;38.149192810058594
702;38.13836669921875
703;38.12767791748047
704;38.11714553833008
705;38.10674285888672
706;38.096473693847656
707;38.08635711669922
708;38.07636642456055
709;38.066532135009766
710;38.05681228637695
711;38.0472297668457
712;38.037784576416016
713;38.028465270996094
714;38.019283294677734
715;38.01020812988281
716;38.00127410888672
717;37.992454528808594
718;37.983768463134766
719;37.97519302368164
720;37.96673583984375
721;37.95839309692383
722;37.950172424316406
723;37.94207000732422
724;37.934059143066406
725;37.92616271972656
726;37.918399810791016
727;37.91072463989258
728;37.90316390991211
729;37.89570617675781
730;37.88834762573242
731;37.88109588623047
732;37.87394332885742
733;37.866886138916016
734;37.85993576049805
735;37.85308074951172
736;37.8463134765625
737;37.839656829833984
738;37.833091735839844
739;37.82661056518555
740;37.82023239135742
741;37.81392288208008
742;37.80772399902344
743;37.801612854003906
744;37.79557418823242
745;37.78962326049805
746;37.78376770019531
747;37.77799606323242
748;37.77229690551758
749;37.76669692993164
750;37.76115798950195
751;37.755699157714844
752;37.75031661987305
753;37.74500274658203
754;37.73979568481445
755;37.734657287597656
756;37.72957992553711
757;37.72456741333008
758;37.71964645385742
759;37.714786529541016
760;37.70999526977539
761;37.70528793334961
762;37.700618743896484
763;37.696048736572266
764;37.6915283203125
765;37.68708038330078
766;37.68268966674805
767;37.67836380004883
768;37.67410659790039
769;37.66990280151367
770;37.665771484375
771;37.66170120239258
772;37.65768051147461
773;37.653709411621094
774;37.64982604980469
775;37.64598083496094
776;37.642189025878906
777;37.63846969604492
778;37.63478088378906
779;37.631160736083984
780;37.62759780883789
781;37.624080657958984
782;37.62062072753906
783;37.61720275878906
784;37.61384582519531
785;37.61054611206055
786;37.6072883605957
787;37.60406494140625
788;37.600887298583984
789;37.59777069091797
790;37.594703674316406
791;37.591678619384766
792;37.58870315551758
793;37.58576202392578
794;37.58287048339844
795;37.580020904541016
796;37.57720947265625
797;37.57445526123047
798;37.57173156738281
799;37.569053649902344
800;37.56640625
801;37.563804626464844
802;37.561241149902344
803;37.558719635009766
804;37.55624008178711
805;37.553775787353516
806;37.55138397216797
807;37.549007415771484
808;37.54665756225586
809;37.54435729980469
810;37.54210662841797
811;37.53986358642578
812;37.53767013549805
813;37.53550338745117
814;37.53335952758789
815;37.53126907348633
816;37.529212951660156
817;37.52717208862305
818;37.52515411376953
819;37.52318572998047
820;37.521240234375
821;37.51932907104492
822;37.5174560546875
823;37.51559829711914
824;37.51376724243164
825;37.5119743347168
826;37.51020050048828
827;37.50846481323242
828;37.50674819946289
829;37.50505065917969
830;37.503395080566406
831;37.50175476074219
832;37.50014114379883
833;37.498558044433594
834;37.49699783325195
835;37.495460510253906
836;37.49394607543945
837;37.49244689941406
838;37.490989685058594
839;37.48954772949219
840;37.488121032714844
841;37.48670959472656
842;37.48534393310547
843;37.48399353027344
844;37.48265838623047
845;37.48134231567383
846;37.48005294799805
847;37.47877883911133
848;37.4775390625
849;37.476295471191406
850;37.47509002685547
851;37.4738883972168
852;37.472721099853516
853;37.4715690612793
854;37.470420837402344
855;37.469303131103516
856;37.468204498291016
857;37.46711349487305
858;37.46604919433594
859;37.465003967285156
860;37.46398162841797
861;37.46295166015625
862;37.46195602416992
863;37.460975646972656
864;37.45999526977539
865;37.459049224853516
866;37.4581184387207
867;37.45718765258789
868;37.45627975463867
869;37.45538330078125
870;37.45451736450195
871;37.45364761352539
872;37.45280838012695
873;37.451961517333984
874;37.45112991333008
875;37.4503288269043
876;37.449520111083984
877;37.44873809814453
878;37.447975158691406
879;37.447208404541016
880;37.446468353271484
881;37.44573211669922
882;37.445003509521484
883;37.44430160522461
884;37.443603515625
885;37.44290542602539
886;37.44222640991211
887;37.441566467285156
888;37.44091033935547
889;37.440269470214844
890;37.439632415771484
891;37.43901062011719
892;37.438411712646484
893;37.43779373168945
894;37.437198638916016
895;37.43662643432617
896;37.43605041503906
897;37.435489654541016
898;37.434932708740234
899;37.43437576293945
900;37.4338493347168
901;37.43330764770508
902;37.43278884887695
903;37.43227767944336
904;37.43179702758789
905;37.43128204345703
906;37.43080139160156
907;37.43031692504883
908;37.42986297607422
909;37.42938232421875
910;37.42893600463867
911;37.42848587036133
912;37.42805480957031
913;37.42760467529297
914;37.42719268798828
915;37.42677307128906
916;37.42636489868164
917;37.425960540771484
918;37.425559997558594
919;37.425174713134766
920;37.42478561401367
921;37.424415588378906
922;37.42403030395508
923;37.42366409301758
924;37.42329788208008
925;37.42295837402344
926;37.422611236572266
927;37.422264099121094
928;37.42191696166992
929;37.42160415649414
930;37.42127990722656
931;37.420963287353516
932;37.42063903808594
933;37.42033386230469
934;37.42002487182617
935;37.41972732543945
936;37.41942596435547
937;37.41914367675781
938;37.41886520385742
939;37.4185905456543
940;37.418296813964844
941;37.41804122924805
942;37.41777038574219
943;37.417503356933594
944;37.41725540161133
945;37.41698455810547
946;37.416744232177734
947;37.41650390625
948;37.41626739501953
949;37.4160270690918
950;37.41579818725586
951;37.41557312011719
952;37.415340423583984
953;37.41513442993164
954;37.41490936279297
955;37.414695739746094
956;37.414485931396484
957;37.41427230834961
958;37.41407012939453
959;37.413875579833984
960;37.41368103027344
961;37.41349411010742
962;37.41329574584961
963;37.41310119628906
964;37.41292190551758
965;37.412742614746094
966;37.412559509277344
967;37.41238784790039
968;37.41221618652344
969;37.412052154541016
970;37.411888122558594
971;37.411720275878906
972;37.411563873291016
973;37.411415100097656
974;37.41124725341797
975;37.41108322143555
976;37.410945892333984
977;37.41079330444336
978;37.41065979003906
979;37.41050720214844
980;37.41036605834961
981;37.41023635864258
982;37.410099029541016
983;37.40996551513672
984;37.409828186035156
985;37.40969467163086
986;37.409568786621094
987;37.409446716308594
988;37.40931701660156
989;37.409202575683594
990;37.409095764160156
991;37.40896224975586
992;37.40884017944336
993;37.40873718261719
994;37.40863037109375
995;37.408512115478516
996;37.40839767456055
997;37.40829086303711
998;37.408199310302734
999;37.40809631347656
1000;37.40799331665039
1001;37.407901763916016
1002;37.40779113769531
1003;37.40769958496094
1004;37.407596588134766
1005;37.40751266479492
1006;37.407413482666016
1007;37.40733337402344
1008;37.40723419189453
1009;37.40715026855469
1010;37.40706253051758
1011;37.40697479248047
1012;37.40689468383789
1013;37.406795501708984
1014;37.406734466552734
1015;37.40664291381836
1016;37.40657424926758
1017;37.406494140625
1018;37.40642166137695
1019;37.40633773803711
1020;37.40626525878906
1021;37.406192779541016
1022;37.406124114990234
1023;37.40604019165039
1024;37.405982971191406
1025;37.40591812133789
1026;37.40583419799805
1027;37.40576934814453
1028;37.405704498291016
1029;37.405643463134766
1030;37.405582427978516
1031;37.405513763427734
1032;37.40545654296875
1033;37.4053955078125
1034;37.40533447265625
1035;37.4052734375
1036;37.40520477294922
1037;37.40515899658203
1038;37.405094146728516
1039;37.40503692626953
1040;37.40498733520508
1041;37.40492248535156
1042;37.40488052368164
1043;37.40481948852539
1044;37.4047737121582
1045;37.404720306396484
1046;37.4046745300293
1047;37.40462112426758
1048;37.40456008911133
1049;37.40451431274414
1050;37.404476165771484
1051;37.404422760009766
1052;37.40437698364258
1053;37.40433883666992
1054;37.404273986816406
1055;37.404232025146484
1056;37.40419006347656
1057;37.404151916503906
1058;37.40411376953125
1059;37.40406036376953
1060;37.40400314331055
1061;37.40396499633789
1062;37.4039306640625
1063;37.40388488769531
1064;37.40385055541992
1065;37.4038200378418
1066;37.40375900268555
1067;37.40372085571289
1068;37.4036865234375
1069;37.40363693237305
1070;37.40361022949219
1071;37.403564453125
1072;37.403526306152344
1073;37.40349197387695
1074;37.40345001220703
1075;37.40341567993164
1076;37.403377532958984
1077;37.403343200683594
1078;37.40331268310547
1079;37.40327453613281
1080;37.40324401855469
1081;37.40320587158203
1082;37.403175354003906
1083;37.403133392333984
1084;37.40310287475586
1085;37.403076171875
1086;37.40304183959961
1087;37.40299987792969
1088;37.402976989746094
1089;37.40293884277344
1090;37.40291213989258
1091;37.40286636352539
1092;37.402835845947266
1093;37.40281677246094
1094;37.40277862548828
1095;37.40274429321289
1096;37.4027099609375
1097;37.40267562866211
1098;37.402652740478516
1099;37.40262985229492
1100;37.402591705322266
1101;37.4025764465332
1102;37.40253829956055
1103;37.40250778198242
1104;37.40247344970703
1105;37.40245056152344
1106;37.40242004394531
1107;37.40239334106445
1108;37.40234375
1109;37.40233612060547
1110;37.402305603027344
1111;37.402278900146484
1112;37.402244567871094
1113;37.40220642089844
1114;37.402198791503906
1115;37.40216064453125
1116;37.40212631225586
1117;37.40211486816406
1118;37.40207290649414
1119;37.40205001831055
1120;37.40202331542969
1121;37.40199279785156
1122;37.4019660949707
1123;37.40194320678711
1124;37.40192794799805
1125;37.40188980102539
1126;37.40186309814453
1127;37.40183639526367
1128;37.40180587768555
1129;37.401790618896484
1130;37.40174865722656
1131;37.4017333984375
1132;37.40170669555664
1133;37.401668548583984
1134;37.40166091918945
1135;37.401615142822266
1136;37.401588439941406
1137;37.40156173706055
1138;37.40153121948242
1139;37.40150833129883
1140;37.4014892578125
1141;37.401466369628906
1142;37.401432037353516
1143;37.40140914916992
1144;37.40138244628906
1145;37.40135192871094
1146;37.40132522583008
1147;37.401309967041016
1148;37.40127944946289
1149;37.4012451171875
1150;37.401222229003906
1151;37.40118408203125
1152;37.40116882324219
1153;37.4011344909668
1154;37.401123046875
1155;37.40108108520508
1156;37.401065826416016
1157;37.401023864746094
1158;37.40100860595703
1159;37.40097427368164
1160;37.40095901489258
1161;37.40092086791992
1162;37.400901794433594
1163;37.40086364746094
1164;37.400856018066406
1165;37.400814056396484
1166;37.40079116821289
1167;37.4007568359375
1168;37.40074920654297
1169;37.40072250366211
1170;37.40069580078125
1171;37.4006462097168
1172;37.40062713623047
1173;37.400611877441406
1174;37.40057373046875
1175;37.40055465698242
1176;37.40052795410156
1177;37.400489807128906
1178;37.40046310424805
1179;37.40044021606445
1180;37.4004020690918
1181;37.40038299560547
1182;37.400352478027344
1183;37.400325775146484
1184;37.40030288696289
1185;37.4002685546875
1186;37.40023422241211
1187;37.400211334228516
1188;37.40018081665039
1189;37.40013885498047
1190;37.400123596191406
1191;37.400089263916016
1192;37.40005874633789
1193;37.4000358581543
1194;37.400001525878906
1195;37.39997482299805
1196;37.39994430541992
1197;37.399906158447266
1198;37.39988708496094
1199;37.39984130859375
1200;37.39982986450195
1201;37.39978790283203
1202;37.39976119995117
1203;37.399723052978516
1204;37.39968490600586
1205;37.39966583251953
1206;37.399635314941406
1207;37.39960479736328
1208;37.39956283569336
1209;37.3995361328125
1210;37.399513244628906
1211;37.39946365356445
1212;37.399436950683594
1213;37.39940643310547
1214;37.39936447143555
1215;37.39934539794922
1216;37.39930725097656
1217;37.39925765991211
1218;37.39924240112305
1219;37.39921188354492
1220;37.39916229248047
1221;37.399147033691406
1222;37.399105072021484
1223;37.3990592956543
1224;37.3990364074707
1225;37.398983001708984
1226;37.39896011352539
1227;37.398929595947266
1228;37.39889144897461
1229;37.39885330200195
1230;37.39881896972656
1231;37.39878463745117
1232;37.398746490478516
1233;37.39871597290039
1234;37.3986701965332
1235;37.39863204956055
1236;37.398582458496094
1237;37.39855194091797
1238;37.39850997924805
1239;37.39847946166992
1240;37.39842987060547
1241;37.39840316772461
1242;37.39835739135742
1243;37.3983154296875
1244;37.39828109741211
1245;37.398231506347656
1246;37.398193359375
1247;37.39815139770508
1248;37.398109436035156
1249;37.398067474365234
1250;37.39802169799805
1251;37.39798355102539
1252;37.39794921875
1253;37.397891998291016
1254;37.39786148071289
1255;37.39781188964844
1256;37.397769927978516
1257;37.39772033691406
1258;37.397666931152344
1259;37.39761734008789
1260;37.397586822509766
1261;37.39753341674805
1262;37.39747619628906
1263;37.39744567871094
1264;37.39739990234375
1265;37.3973388671875
1266;37.39729690551758
1267;37.39725875854492
1268;37.39719772338867
1269;37.397151947021484
1270;37.3971061706543
1271;37.39704895019531
1272;37.39698791503906
1273;37.39695739746094
1274;37.39688491821289
1275;37.396846771240234
1276;37.396785736083984
1277;37.396732330322266
1278;37.39667892456055
1279;37.396629333496094
1280;37.39657211303711
1281;37.396507263183594
1282;37.39645767211914
1283;37.39639663696289
1284;37.39634704589844
1285;37.39628219604492
1286;37.39622497558594
1287;37.39616394042969
1288;37.39611053466797
1289;37.396053314208984
1290;37.39598846435547
1291;37.39591979980469
1292;37.39585876464844
1293;37.39579772949219
1294;37.395729064941406
1295;37.39566421508789
1296;37.395606994628906
1297;37.39552688598633
1298;37.39545440673828
1299;37.39539337158203
1300;37.39533615112305
1301;37.395259857177734
1302;37.39519119262695
1303;37.395118713378906
1304;37.39503860473633
1305;37.39499282836914
1306;37.3949089050293
1307;37.39482498168945
1308;37.39475631713867
1309;37.39466857910156
1310;37.394596099853516
1311;37.39453125
1312;37.39444351196289
1313;37.39435577392578
1314;37.39427947998047
1315;37.39419174194336
1316;37.394107818603516
1317;37.39402770996094
1318;37.3939323425293
1319;37.39386749267578
1320;37.393775939941406
1321;37.39368438720703
1322;37.39357376098633
1323;37.393497467041016
1324;37.393394470214844
1325;37.39329528808594
1326;37.39322280883789
1327;37.393123626708984
1328;37.39301300048828
1329;37.39291000366211
1330;37.392818450927734
1331;37.3927116394043
1332;37.39262008666992
1333;37.39249801635742
1334;37.392391204833984
1335;37.392276763916016
1336;37.392173767089844
1337;37.39207458496094
1338;37.39194107055664
1339;37.39182662963867
1340;37.39171600341797
1341;37.391578674316406
1342;37.3914680480957
1343;37.39133834838867
1344;37.39120864868164
1345;37.391090393066406
1346;37.39094924926758
1347;37.39081573486328
1348;37.390682220458984
1349;37.39054870605469
1350;37.39039611816406
1351;37.390254974365234
1352;37.39011764526367
1353;37.38996887207031
1354;37.38981628417969
1355;37.38965606689453
1356;37.38949966430664
1357;37.38933563232422
1358;37.38917541503906
1359;37.38900375366211
1360;37.38884735107422
1361;37.388671875
1362;37.38848876953125
1363;37.38831329345703
1364;37.38813781738281
1365;37.387939453125
1366;37.38773727416992
1367;37.38755798339844
1368;37.387351989746094
1369;37.387149810791016
1370;37.38694381713867
1371;37.386722564697266
1372;37.38649368286133
1373;37.38627243041992
1374;37.386051177978516
1375;37.385807037353516
1376;37.38557815551758
1377;37.38532257080078
1378;37.38507080078125
1379;37.38481521606445
1380;37.38452911376953
1381;37.38427734375
1382;37.38399124145508
1383;37.38371276855469
1384;37.38340759277344
1385;37.38311004638672
1386;37.3828010559082
1387;37.38249588012695
1388;37.38215255737305
1389;37.381813049316406
1390;37.381473541259766
1391;37.38112258911133
1392;37.38075256347656
1393;37.38037109375
1394;37.37997055053711
1395;37.37957763671875
1396;37.37915802001953
1397;37.37873077392578
1398;37.37828826904297
1399;37.377830505371094
1400;37.37736129760742
1401;37.37688446044922
1402;37.37636184692383
1403;37.3758430480957
1404;37.37529754638672
1405;37.374732971191406
1406;37.37416458129883
1407;37.373558044433594
1408;37.37293243408203
1409;37.37227249145508
1410;37.37159729003906
1411;37.37089920043945
1412;37.37017059326172
1413;37.369407653808594
1414;37.36860656738281
1415;37.36779022216797
1416;37.36691665649414
1417;37.36600875854492
1418;37.36505126953125
1419;37.364070892333984
1420;37.36302947998047
1421;37.36194610595703
1422;37.36080551147461
1423;37.359615325927734
1424;37.358341217041016
1425;37.35701370239258
1426;37.35560607910156
1427;37.35414505004883
1428;37.35258483886719
1429;37.35091781616211
1430;37.349178314208984
1431;37.347312927246094
1432;37.34535217285156
1433;37.343238830566406
1434;37.34101486206055
1435;37.338626861572266
1436;37.33607864379883
1437;37.33335876464844
1438;37.33043670654297
1439;37.32728576660156
1440;37.323917388916016
1441;37.32026290893555
1442;37.316341400146484
1443;37.312068939208984
1444;37.307437896728516
1445;37.302391052246094
1446;37.29691696166992
1447;37.29092788696289
1448;37.28437423706055
1449;37.27717208862305
1450;37.26925277709961
1451;37.26054000854492
1452;37.25088882446289
1453;37.240230560302734
1454;37.228416442871094
1455;37.21529769897461
1456;37.20072555541992
1457;37.18452072143555
1458;37.166526794433594
1459;37.146602630615234
1460;37.12464141845703
1461;37.1005859375
1462;37.074485778808594
1463;37.046512603759766
1464;37.01701736450195
1465;36.9865837097168
1466;36.956111907958984
1467;36.92674255371094
1468;36.899776458740234
1469;36.87646484375
1470;36.8577995300293
1471;36.84425354003906
1472;36.83560562133789
1473;36.83096694946289
1474;36.82902908325195
1475;36.82795715332031
1476;36.826175689697266
1477;36.82247543334961
1478;36.816104888916016
1479;36.80683135986328
1480;36.79492950439453
1481;36.781063079833984
1482;36.766014099121094
1483;36.750709533691406
1484;36.73588943481445
1485;36.722110748291016
1486;36.70965576171875
1487;36.698612213134766
1488;36.68880081176758
1489;36.67994689941406
1490;36.67168045043945
1491;36.66365432739258
1492;36.65553283691406
1493;36.647098541259766
1494;36.63821029663086
1495;36.62880325317383
1496;36.618980407714844
1497;36.60880661010742
1498;36.598411560058594
1499;36.58800506591797
