;loss
0;1304.5667724609375
1;1302.71875
2;1300.2332763671875
3;1297.7421875
4;1295.393310546875
5;1292.872802734375
6;1290.4029541015625
7;1287.8218994140625
8;1285.233154296875
9;1282.5755615234375
10;1279.8394775390625
11;1277.0089111328125
12;1274.08203125
13;1271.0321044921875
14;1267.8602294921875
15;1264.5142822265625
16;1260.986572265625
17;1257.250244140625
18;1253.3114013671875
19;1249.0596923828125
20;1244.534912109375
21;1239.5892333984375
22;1234.2017822265625
23;1228.3597412109375
24;1221.9058837890625
25;1214.623779296875
26;1206.515869140625
27;1197.1683349609375
28;1186.3690185546875
29;1173.8543701171875
30;1158.713623046875
31;1140.3665771484375
32;1117.1224365234375
33;1086.313720703125
34;1042.906982421875
35;982.9628295898438
36;909.5950317382812
37;843.6583862304688
38;795.8297119140625
39;761.5070190429688
40;735.142578125
41;714.1532592773438
42;696.8460083007812
43;682.337890625
44;669.8322143554688
45;658.7919311523438
46;648.8613891601562
47;639.89501953125
48;631.5704345703125
49;623.8530883789062
50;616.6553955078125
51;609.8896484375
52;603.4998779296875
53;597.4344482421875
54;591.6392211914062
55;586.0717163085938
56;580.7074584960938
57;575.5172729492188
58;570.5184326171875
59;565.6148071289062
60;560.8704223632812
61;556.1965942382812
62;551.6548461914062
63;547.2002563476562
64;542.7940063476562
65;538.4949951171875
66;534.2366943359375
67;530.0467529296875
68;525.9219360351562
69;521.8590087890625
70;517.8821411132812
71;513.9347534179688
72;510.0670471191406
73;506.225341796875
74;502.4577941894531
75;498.73760986328125
76;495.0400085449219
77;491.38726806640625
78;487.7998046875
79;484.25360107421875
80;480.7265625
81;477.2389221191406
82;473.8092956542969
83;470.416259765625
84;467.0396423339844
85;463.6979675292969
86;460.4084167480469
87;457.1515197753906
88;453.92620849609375
89;450.7148132324219
90;447.53369140625
91;444.3821716308594
92;441.2754211425781
93;438.1808166503906
94;435.12890625
95;432.1034240722656
96;429.0890197753906
97;426.0999450683594
98;423.15020751953125
99;420.2104797363281
100;417.29461669921875
101;414.4155578613281
102;411.5458984375
103;408.7115783691406
104;405.8988342285156
105;403.0948791503906
106;400.3122253417969
107;397.5625915527344
108;394.82122802734375
109;392.1118469238281
110;389.4221496582031
111;386.7405700683594
112;384.0896911621094
113;381.4469299316406
114;378.8230895996094
115;376.2180480957031
116;373.63177490234375
117;371.06390380859375
118;368.51446533203125
119;365.983154296875
120;363.4698181152344
121;360.97442626953125
122;358.4969177246094
123;356.037109375
124;353.60400390625
125;351.17913818359375
126;348.7716979980469
127;346.3816223144531
128;344.00872802734375
129;341.6614074707031
130;339.33087158203125
131;337.01702880859375
132;334.71966552734375
133;332.4308166503906
134;330.1662292480469
135;327.91009521484375
136;325.6701354980469
137;323.4537658691406
138;321.2532043457031
139;319.0682067871094
140;316.8916015625
141;314.7304992675781
142;312.5918273925781
143;310.4614562988281
144;308.34619140625
145;306.2526550292969
146;304.17388916015625
147;302.1033020019531
148;300.04736328125
149;298.00592041015625
150;295.9788513183594
151;293.9722595214844
152;291.979736328125
153;289.9951171875
154;288.03033447265625
155;286.0792541503906
156;284.1360168457031
157;282.2064514160156
158;280.2903747558594
159;278.3876037597656
160;276.49810791015625
161;274.6271667480469
162;272.7638244628906
163;270.9135437011719
164;269.0812683105469
165;267.2615966796875
166;265.4544982910156
167;263.65484619140625
168;261.8725891113281
169;260.09783935546875
170;258.34002685546875
171;256.5942687988281
172;254.8605194091797
173;253.13868713378906
174;251.42420959472656
175;249.7215118408203
176;248.0305633544922
177;246.3555450439453
178;244.687744140625
179;243.03561401367188
180;241.39065551757812
181;239.7610626220703
182;238.142578125
183;236.53123474121094
184;234.9348602294922
185;233.3455352783203
186;231.7709197998047
187;230.20333862304688
188;228.65013122558594
189;227.107666015625
190;225.57568359375
191;224.0506134033203
192;222.53953552246094
193;221.038818359375
194;219.5448455810547
195;218.06117248535156
196;216.58763122558594
197;215.12423706054688
198;213.67417907714844
199;212.23072814941406
200;210.7972869873047
201;209.37684631347656
202;207.96299743652344
203;206.5619354248047
204;205.17051696777344
205;203.78567504882812
206;202.4102783203125
207;201.04443359375
208;199.68795776367188
209;198.34375
210;197.0059356689453
211;195.6801300048828
212;194.36351013183594
213;193.05593872070312
214;191.7546844482422
215;190.46241760253906
216;189.17909240722656
217;187.9047088623047
218;186.63916015625
219;185.38233947753906
220;184.13430786132812
221;182.8974151611328
222;181.66664123535156
223;180.44444274902344
224;179.2331085205078
225;178.02792358398438
226;176.8334197998047
227;175.64498901367188
228;174.46481323242188
229;173.29286193847656
230;172.1314239501953
231;170.9758758544922
232;169.83067321777344
233;168.69126892089844
234;167.5598602294922
235;166.43861389160156
236;165.3251953125
237;164.21958923339844
238;163.11973571777344
239;162.02767944335938
240;160.943359375
241;159.86669921875
242;158.79769897460938
243;157.73818969726562
244;156.684326171875
245;155.63975524902344
246;154.60267639160156
247;153.57115173339844
248;152.54696655273438
249;151.53182983398438
250;150.52218627929688
251;149.52159118652344
252;148.52633666992188
253;147.5382537841797
254;146.55726623535156
255;145.5850067138672
256;144.61802673339844
257;143.6597137451172
258;142.7083282470703
259;141.7637481689453
260;140.82437133789062
261;139.89187622070312
262;138.9676513671875
263;138.0500946044922
264;137.1377410888672
265;136.2319793701172
266;135.33287048339844
267;134.44174194335938
268;133.55567932128906
269;132.67750549316406
270;131.80435180664062
271;130.9376220703125
272;130.07864379882812
273;129.2259063720703
274;128.3781280517578
275;127.53662109375
276;126.7012939453125
277;125.87214660644531
278;125.04914093017578
279;124.23350524902344
280;123.42391204833984
281;122.62034606933594
282;121.82151794433594
283;121.02861022949219
284;120.24284362792969
285;119.46294403076172
286;118.68769836425781
287;117.91939544677734
288;117.15684509277344
289;116.40003967285156
290;115.64891815185547
291;114.90233612060547
292;114.16138458251953
293;113.4271011352539
294;112.69840240478516
295;111.97411346435547
296;111.25640106201172
297;110.54309844970703
298;109.83521270751953
299;109.13375091552734
300;108.43760681152344
301;107.74678802490234
302;107.0612564086914
303;106.37998962402344
304;105.70396423339844
305;105.03409576416016
306;104.36934661865234
307;103.7097396850586
308;103.05518341064453
309;102.40570068359375
310;101.76124572753906
311;101.1218032836914
312;100.4864273071289
313;99.85599517822266
314;99.2304916381836
315;98.6107177734375
316;97.99491882324219
317;97.384765625
318;96.7793960571289
319;96.17796325683594
320;95.58208465576172
321;94.99005889892578
322;94.40271759033203
323;93.82078552246094
324;93.24345397949219
325;92.66996002197266
326;92.10169982910156
327;91.53723907470703
328;90.97730255126953
329;90.42252349853516
330;89.8714828491211
331;89.3248291015625
332;88.7832260131836
333;88.24530029296875
334;87.71167755126953
335;87.1830062866211
336;86.65795135498047
337;86.13777923583984
338;85.62116241455078
339;85.10936737060547
340;84.60108184814453
341;84.09691619873047
342;83.59748077392578
343;83.10209655761719
344;82.61016845703125
345;82.12281036376953
346;81.63887023925781
347;81.15947723388672
348;80.6834487915039
349;80.21186828613281
350;79.74419403076172
351;79.2798080444336
352;78.81982421875
353;78.36360931396484
354;77.91064453125
355;77.46142578125
356;77.01648712158203
357;76.57523345947266
358;76.13765716552734
359;75.70320892333984
360;75.27241516113281
361;74.84523010253906
362;74.422119140625
363;74.00251770019531
364;73.58600616455078
365;73.17301940917969
366;72.76348114013672
367;72.3578872680664
368;71.95572662353516
369;71.55693817138672
370;71.16110229492188
371;70.76864624023438
372;70.37996673583984
373;69.99417877197266
374;69.61211395263672
375;69.23287963867188
376;68.85733795166016
377;68.4849853515625
378;68.11585235595703
379;67.74989318847656
380;67.38707733154297
381;67.02701568603516
382;66.67007446289062
383;66.31659698486328
384;65.96617889404297
385;65.61845397949219
386;65.27413177490234
387;64.93278503417969
388;64.59407806396484
389;64.25831604003906
390;63.92584228515625
391;63.5963020324707
392;63.26931381225586
393;62.94520950317383
394;62.623958587646484
395;62.305877685546875
396;61.990604400634766
397;61.678123474121094
398;61.368099212646484
399;61.060821533203125
400;60.75659942626953
401;60.45508575439453
402;60.15596389770508
403;59.859798431396484
404;59.566017150878906
405;59.27486038208008
406;58.98659896850586
407;58.700660705566406
408;58.417293548583984
409;58.13677978515625
410;57.858768463134766
411;57.58330535888672
412;57.31031036376953
413;57.0395622253418
414;56.771507263183594
415;56.50564956665039
416;56.24248504638672
417;55.981685638427734
418;55.72332763671875
419;55.467288970947266
420;55.21363067626953
421;54.962066650390625
422;54.71280288696289
423;54.465858459472656
424;54.22141647338867
425;53.979007720947266
426;53.73906326293945
427;53.501346588134766
428;53.26564407348633
429;53.0321159362793
430;52.80100631713867
431;52.5720329284668
432;52.34520721435547
433;52.120506286621094
434;51.897705078125
435;51.677001953125
436;51.45858383178711
437;51.24201202392578
438;51.0276985168457
439;50.815185546875
440;50.6047477722168
441;50.396244049072266
442;50.18994903564453
443;49.985595703125
444;49.783023834228516
445;49.582374572753906
446;49.38383865356445
447;49.18718719482422
448;48.99225616455078
449;48.79920196533203
450;48.60816192626953
451;48.418800354003906
452;48.23143768310547
453;48.045894622802734
454;47.8619499206543
455;47.67983627319336
456;47.49946212768555
457;47.321006774902344
458;47.144283294677734
459;46.96913528442383
460;46.795860290527344
461;46.62411880493164
462;46.45421600341797
463;46.285823822021484
464;46.11924362182617
465;45.95416259765625
466;45.79070281982422
467;45.62899398803711
468;45.468868255615234
469;45.31021499633789
470;45.15327072143555
471;44.997894287109375
472;44.84389877319336
473;44.691612243652344
474;44.54069137573242
475;44.39128875732422
476;44.24336624145508
477;44.09705352783203
478;43.952213287353516
479;43.808837890625
480;43.666770935058594
481;43.52626419067383
482;43.38718032836914
483;43.24949264526367
484;43.113121032714844
485;42.978206634521484
486;42.84465789794922
487;42.71251678466797
488;42.58167266845703
489;42.452186584472656
490;42.32400894165039
491;42.197147369384766
492;42.07161331176758
493;41.94733428955078
494;41.824344635009766
495;41.702632904052734
496;41.58206558227539
497;41.46284866333008
498;41.34486770629883
499;41.22798538208008
500;41.11243438720703
501;40.997989654541016
502;40.884849548339844
503;40.77283477783203
504;40.66202926635742
505;40.5523796081543
506;40.443782806396484
507;40.336334228515625
508;40.23008346557617
509;40.1248779296875
510;40.02078628540039
511;39.91777420043945
512;39.81595230102539
513;39.71518325805664
514;39.61543655395508
515;39.516693115234375
516;39.41905975341797
517;39.32244110107422
518;39.22684860229492
519;39.13226318359375
520;39.03879165649414
521;38.94622802734375
522;38.854736328125
523;38.764217376708984
524;38.67461013793945
525;38.5859489440918
526;38.49828338623047
527;38.411529541015625
528;38.325801849365234
529;38.240989685058594
530;38.157100677490234
531;38.074127197265625
532;37.99203872680664
533;37.91085433959961
534;37.830482482910156
535;37.75101089477539
536;37.67245864868164
537;37.59476852416992
538;37.517921447753906
539;37.441925048828125
540;37.366764068603516
541;37.2923698425293
542;37.21881103515625
543;37.14611053466797
544;37.07415008544922
545;37.00305938720703
546;36.93273162841797
547;36.86320877075195
548;36.79439926147461
549;36.72636032104492
550;36.659080505371094
551;36.59254837036133
552;36.526763916015625
553;36.461769104003906
554;36.39744186401367
555;36.33390426635742
556;36.27106475830078
557;36.20889663696289
558;36.14748001098633
559;36.08668899536133
560;36.026649475097656
561;35.96727752685547
562;35.908592224121094
563;35.850563049316406
564;35.79319763183594
565;35.736488342285156
566;35.680419921875
567;35.62495803833008
568;35.5701789855957
569;35.5160026550293
570;35.46245574951172
571;35.409523010253906
572;35.35720443725586
573;35.30548858642578
574;35.254337310791016
575;35.20379638671875
576;35.15386199951172
577;35.104488372802734
578;35.055702209472656
579;35.007476806640625
580;34.95978927612305
581;34.91265869140625
582;34.8660888671875
583;34.82007598876953
584;34.77459716796875
585;34.7296028137207
586;34.685203552246094
587;34.64126968383789
588;34.597862243652344
589;34.55495834350586
590;34.51255416870117
591;34.47069549560547
592;34.42931365966797
593;34.38840103149414
594;34.34798049926758
595;34.308040618896484
596;34.26860427856445
597;34.22959899902344
598;34.191078186035156
599;34.15304183959961
600;34.11543273925781
601;34.07829666137695
602;34.041595458984375
603;34.00533676147461
604;33.96950149536133
605;33.9340934753418
606;33.89912414550781
607;33.86455154418945
608;33.83040237426758
609;33.796669006347656
610;33.76335906982422
611;33.73045349121094
612;33.697933197021484
613;33.66579818725586
614;33.634098052978516
615;33.60275650024414
616;33.57181167602539
617;33.54123306274414
618;33.51102066040039
619;33.4812126159668
620;33.451744079589844
621;33.42264175415039
622;33.39390182495117
623;33.36551284790039
624;33.33746337890625
625;33.309757232666016
626;33.28237533569336
627;33.255367279052734
628;33.22869110107422
629;33.20232391357422
630;33.17631149291992
631;33.150596618652344
632;33.12523651123047
633;33.100162506103516
634;33.07542037963867
635;33.050968170166016
636;33.02682876586914
637;33.00299835205078
638;32.97947311401367
639;32.95625305175781
640;32.933284759521484
641;32.91062545776367
642;32.888275146484375
643;32.866188049316406
644;32.844383239746094
645;32.8228645324707
646;32.80160140991211
647;32.780616760253906
648;32.759891510009766
649;32.73944091796875
650;32.71925735473633
651;32.69931411743164
652;32.679630279541016
653;32.66019058227539
654;32.6410026550293
655;32.6220703125
656;32.60338592529297
657;32.58493423461914
658;32.56671905517578
659;32.548744201660156
660;32.5309944152832
661;32.51348876953125
662;32.496177673339844
663;32.47910690307617
664;32.46226119995117
665;32.445613861083984
666;32.42921829223633
667;32.41301727294922
668;32.39702606201172
669;32.38125991821289
670;32.365665435791016
671;32.35029220581055
672;32.335140228271484
673;32.320167541503906
674;32.30538558959961
675;32.29082107543945
676;32.27643966674805
677;32.262237548828125
678;32.24822235107422
679;32.23440170288086
680;32.22077178955078
681;32.20729446411133
682;32.19401168823242
683;32.180904388427734
684;32.167972564697266
685;32.155216217041016
686;32.14262771606445
687;32.130210876464844
688;32.117958068847656
689;32.105865478515625
690;32.093936920166016
691;32.08216094970703
692;32.070560455322266
693;32.059104919433594
694;32.04780197143555
695;32.03664016723633
696;32.025657653808594
697;32.01479721069336
698;32.004093170166016
699;31.993539810180664
700;31.98311424255371
701;31.972843170166016
702;31.962711334228516
703;31.95272445678711
704;31.942853927612305
705;31.93312644958496
706;31.923534393310547
707;31.914064407348633
708;31.904739379882812
709;31.89552879333496
710;31.88644790649414
711;31.87748908996582
712;31.868669509887695
713;31.859954833984375
714;31.851362228393555
715;31.842891693115234
716;31.834524154663086
717;31.826297760009766
718;31.818180084228516
719;31.810150146484375
720;31.802255630493164
721;31.79446792602539
722;31.786773681640625
723;31.779199600219727
724;31.771728515625
725;31.764360427856445
726;31.757083892822266
727;31.749929428100586
728;31.74285888671875
729;31.735904693603516
730;31.72902488708496
731;31.722261428833008
732;31.715585708618164
733;31.70899772644043
734;31.702516555786133
735;31.696115493774414
736;31.68980598449707
737;31.68359375
738;31.67745590209961
739;31.671403884887695
740;31.665449142456055
741;31.659591674804688
742;31.65378761291504
743;31.648067474365234
744;31.642446517944336
745;31.636905670166016
746;31.63143539428711
747;31.62605094909668
748;31.620737075805664
749;31.615509033203125
750;31.610355377197266
751;31.60525894165039
752;31.600252151489258
753;31.59530258178711
754;31.590436935424805
755;31.585634231567383
756;31.580902099609375
757;31.576242446899414
758;31.5716495513916
759;31.56711769104004
760;31.56266975402832
761;31.55826187133789
762;31.55393409729004
763;31.54965591430664
764;31.54543685913086
765;31.54129981994629
766;31.537216186523438
767;31.53318214416504
768;31.52921485900879
769;31.525299072265625
770;31.52145004272461
771;31.51765251159668
772;31.51390266418457
773;31.510225296020508
774;31.506593704223633
775;31.503023147583008
776;31.49949836730957
777;31.49601936340332
778;31.49260139465332
779;31.489215850830078
780;31.485891342163086
781;31.48262596130371
782;31.47940444946289
783;31.476226806640625
784;31.47310447692871
785;31.470020294189453
786;31.466978073120117
787;31.463993072509766
788;31.461042404174805
789;31.45815086364746
790;31.45528793334961
791;31.452470779418945
792;31.449703216552734
793;31.446964263916016
794;31.444272994995117
795;31.441621780395508
796;31.439006805419922
797;31.43643569946289
798;31.43390464782715
799;31.431406021118164
800;31.428951263427734
801;31.426530838012695
802;31.424137115478516
803;31.42180061340332
804;31.41948127746582
805;31.41720962524414
806;31.41497802734375
807;31.41275978088379
808;31.410593032836914
809;31.408435821533203
810;31.406341552734375
811;31.40426254272461
812;31.4022159576416
813;31.400190353393555
814;31.398223876953125
815;31.396257400512695
816;31.394329071044922
817;31.39242935180664
818;31.39057731628418
819;31.388742446899414
820;31.386930465698242
821;31.38515853881836
822;31.383392333984375
823;31.38167953491211
824;31.379976272583008
825;31.3783016204834
826;31.376649856567383
827;31.37502670288086
828;31.37343406677246
829;31.371862411499023
830;31.370309829711914
831;31.368791580200195
832;31.36729621887207
833;31.36582374572754
834;31.364368438720703
835;31.362932205200195
836;31.361530303955078
837;31.360143661499023
838;31.35877799987793
839;31.357423782348633
840;31.35609245300293
841;31.354799270629883
842;31.353511810302734
843;31.35225486755371
844;31.351015090942383
845;31.349788665771484
846;31.34858512878418
847;31.347402572631836
848;31.346235275268555
849;31.345083236694336
850;31.34395980834961
851;31.34284782409668
852;31.34175682067871
853;31.34067153930664
854;31.33961296081543
855;31.338577270507812
856;31.337541580200195
857;31.3365421295166
858;31.335542678833008
859;31.33455467224121
860;31.333602905273438
861;31.33265495300293
862;31.331714630126953
863;31.3308048248291
864;31.329896926879883
865;31.328996658325195
866;31.328125
867;31.3272705078125
868;31.326416015625
869;31.325586318969727
870;31.324758529663086
871;31.323957443237305
872;31.323165893554688
873;31.3223876953125
874;31.321609497070312
875;31.32085609436035
876;31.32010269165039
877;31.31937026977539
878;31.318655014038086
879;31.317934036254883
880;31.317235946655273
881;31.316547393798828
882;31.31588363647461
883;31.31521987915039
884;31.314544677734375
885;31.31390953063965
886;31.31328010559082
887;31.31264305114746
888;31.31203269958496
889;31.31143569946289
890;31.310834884643555
891;31.31025505065918
892;31.309677124023438
893;31.309101104736328
894;31.308547973632812
895;31.30799674987793
896;31.307470321655273
897;31.306934356689453
898;31.306411743164062
899;31.30589485168457
900;31.305389404296875
901;31.304882049560547
902;31.304399490356445
903;31.30392074584961
904;31.30343246459961
905;31.302974700927734
906;31.30250358581543
907;31.302064895629883
908;31.301626205444336
909;31.301177978515625
910;31.300752639770508
911;31.300321578979492
912;31.29990577697754
913;31.29949951171875
914;31.29908561706543
915;31.29868507385254
916;31.298309326171875
917;31.297910690307617
918;31.297536849975586
919;31.29717445373535
920;31.296796798706055
921;31.296449661254883
922;31.296077728271484
923;31.295732498168945
924;31.295391082763672
925;31.2950439453125
926;31.294710159301758
927;31.29438591003418
928;31.294071197509766
929;31.293746948242188
930;31.29344367980957
931;31.293123245239258
932;31.29282569885254
933;31.29252052307129
934;31.292232513427734
935;31.291946411132812
936;31.29166603088379
937;31.2913761138916
938;31.29110336303711
939;31.29083251953125
940;31.290571212768555
941;31.290302276611328
942;31.29005241394043
943;31.289791107177734
944;31.289546966552734
945;31.28929328918457
946;31.289052963256836
947;31.288808822631836
948;31.2885799407959
949;31.28835105895996
950;31.28812599182129
951;31.28789710998535
952;31.28768539428711
953;31.28745460510254
954;31.287240982055664
955;31.28703498840332
956;31.286834716796875
957;31.286630630493164
958;31.286422729492188
959;31.286212921142578
960;31.286027908325195
961;31.285837173461914
962;31.285648345947266
963;31.285457611083984
964;31.285282135009766
965;31.28510093688965
966;31.284921646118164
967;31.284738540649414
968;31.28456687927246
969;31.284404754638672
970;31.284221649169922
971;31.284061431884766
972;31.28390884399414
973;31.28373908996582
974;31.283601760864258
975;31.283428192138672
976;31.28326416015625
977;31.283111572265625
978;31.282974243164062
979;31.282821655273438
980;31.282670974731445
981;31.28253173828125
982;31.28238868713379
983;31.282257080078125
984;31.282108306884766
985;31.281972885131836
986;31.281843185424805
987;31.281707763671875
988;31.281579971313477
989;31.28144645690918
990;31.281326293945312
991;31.281206130981445
992;31.28108024597168
993;31.28096580505371
994;31.280839920043945
995;31.280731201171875
996;31.280597686767578
997;31.28049659729004
998;31.28037452697754
999;31.280269622802734
