;loss
0;1320.9835205078125
1;1318.62451171875
2;1316.589111328125
3;1314.4171142578125
4;1312.0047607421875
5;1309.55810546875
6;1307.1422119140625
7;1304.64990234375
8;1302.073974609375
9;1299.4036865234375
10;1296.6246337890625
11;1293.7154541015625
12;1290.66748046875
13;1287.45703125
14;1284.0574951171875
15;1280.4150390625
16;1276.5120849609375
17;1272.30908203125
18;1267.760009765625
19;1262.8604736328125
20;1257.5062255859375
21;1251.5535888671875
22;1245.036865234375
23;1237.690673828125
24;1229.5330810546875
25;1220.1820068359375
26;1209.4715576171875
27;1197.0579833984375
28;1182.4622802734375
29;1164.98583984375
30;1143.55078125
31;1116.76220703125
32;1081.63720703125
33;1033.866943359375
34;973.940673828125
35;911.3941040039062
36;859.4227294921875
37;820.762939453125
38;791.543701171875
39;768.04150390625
40;749.0354614257812
41;733.021484375
42;719.4005737304688
43;707.595703125
44;697.205322265625
45;687.9149780273438
46;679.554931640625
47;671.798095703125
48;664.5908813476562
49;657.8224487304688
50;651.4034423828125
51;645.3260498046875
52;639.4852905273438
53;633.7955932617188
54;628.32958984375
55;623.01220703125
56;617.7801513671875
57;612.662353515625
58;607.684326171875
59;602.7527465820312
60;597.8994140625
61;593.1528930664062
62;588.434326171875
63;583.7754516601562
64;579.1727294921875
65;574.6563720703125
66;570.1898193359375
67;565.7395629882812
68;561.337646484375
69;556.9835205078125
70;552.7063598632812
71;548.4780883789062
72;544.272216796875
73;540.146484375
74;536.074951171875
75;532.0338745117188
76;528.0751342773438
77;524.173583984375
78;520.305419921875
79;516.5165405273438
80;512.759521484375
81;509.05560302734375
82;505.4236755371094
83;501.8399658203125
84;498.3019714355469
85;494.7877197265625
86;491.33441162109375
87;487.92047119140625
88;484.5440979003906
89;481.20367431640625
90;477.8802185058594
91;474.60748291015625
92;471.3668212890625
93;468.1570739746094
94;464.9773254394531
95;461.8265380859375
96;458.68890380859375
97;455.57916259765625
98;452.49676513671875
99;449.45556640625
100;446.4259033203125
101;443.4356994628906
102;440.4566650390625
103;437.5157470703125
104;434.5855712890625
105;431.6920166015625
106;428.8087158203125
107;425.96099853515625
108;423.1357116699219
109;420.32037353515625
110;417.5271911621094
111;414.7557373046875
112;412.0059814453125
113;409.2886657714844
114;406.5811462402344
115;403.9052734375
116;401.23895263671875
117;398.5928955078125
118;395.9669189453125
119;393.370849609375
120;390.783935546875
121;388.2261962890625
122;385.6773986816406
123;383.1569519042969
124;380.6452331542969
125;378.1611328125
126;375.68572998046875
127;373.2282409667969
128;370.78839111328125
129;368.36602783203125
130;365.9694519042969
131;363.5899353027344
132;361.21875
133;358.87255859375
134;356.5427551269531
135;354.2213134765625
136;351.916015625
137;349.6346740722656
138;347.3690490722656
139;345.1190490722656
140;342.8846130371094
141;340.6654968261719
142;338.4616394042969
143;336.2657165527344
144;334.0919189453125
145;331.926025390625
146;329.7749938964844
147;327.64532470703125
148;325.5301208496094
149;323.4292297363281
150;321.336181640625
151;319.2572326660156
152;317.1986999511719
153;315.1478576660156
154;313.1170349121094
155;311.09381103515625
156;309.0903015136719
157;307.1003723144531
158;305.1181945800781
159;303.1495361328125
160;301.19976806640625
161;299.2630615234375
162;297.3392333984375
163;295.4228515625
164;293.5245666503906
165;291.6337585449219
166;289.7554626464844
167;287.8897705078125
168;286.0364685058594
169;284.2005310058594
170;282.3718566894531
171;280.5553283691406
172;278.75567626953125
173;276.9678955078125
174;275.1920166015625
175;273.4232482910156
176;271.6708984375
177;269.925537109375
178;268.1918029785156
179;266.4696044921875
180;264.7588195800781
181;263.05938720703125
182;261.3755187988281
183;259.70263671875
184;258.0408935546875
185;256.3861083984375
186;254.74620056152344
187;253.11715698242188
188;251.4950408935547
189;249.88742065429688
190;248.28668212890625
191;246.70033264160156
192;245.12445068359375
193;243.55897521972656
194;242.00021362304688
195;240.45176696777344
196;238.91720581054688
197;237.39271545410156
198;235.8782501220703
199;234.37388610839844
200;232.8761444091797
201;231.38832092285156
202;229.91363525390625
203;228.44873046875
204;226.99029541015625
205;225.54164123535156
206;224.10260009765625
207;222.6761932373047
208;221.25624084472656
209;219.8488006591797
210;218.4477081298828
211;217.0589141845703
212;215.67935180664062
213;214.30897521972656
214;212.94496154785156
215;211.5900115966797
216;210.24688720703125
217;208.91278076171875
218;207.58486938476562
219;206.26852416992188
220;204.95838928222656
221;203.65966796875
222;202.36961364746094
223;201.08572387695312
224;199.81295776367188
225;198.54876708984375
226;197.29061889648438
227;196.04339599609375
228;194.80455017089844
229;193.5717010498047
230;192.34715270996094
231;191.13323974609375
232;189.92758178710938
233;188.7301025390625
234;187.53839111328125
235;186.3549041748047
236;185.1793975830078
237;184.01187133789062
238;182.8524169921875
239;181.70082092285156
240;180.55712890625
241;179.42127990722656
242;178.29315185546875
243;177.17486572265625
244;176.06422424316406
245;174.95916748046875
246;173.86175537109375
247;172.7718963623047
248;171.69142150878906
249;170.618408203125
250;169.5527801513672
251;168.49456787109375
252;167.44174194335938
253;166.3980712890625
254;165.35989379882812
255;164.328857421875
256;163.30674743652344
257;162.29000854492188
258;161.28038024902344
259;160.2777862548828
260;159.28387451171875
261;158.2969207763672
262;157.31521606445312
263;156.34039306640625
264;155.3724822998047
265;154.41290283203125
266;153.46002197265625
267;152.51385498046875
268;151.5728759765625
269;150.63851928710938
270;149.7107696533203
271;148.78961181640625
272;147.87643432617188
273;146.96829223632812
274;146.06805419921875
275;145.17416381835938
276;144.28665161132812
277;143.4054412841797
278;142.53053283691406
279;141.66192626953125
280;140.7994384765625
281;139.94183349609375
282;139.09176635742188
283;138.24644470214844
284;137.40725708007812
285;136.57533264160156
286;135.74940490722656
287;134.9294891357422
288;134.11422729492188
289;133.30490112304688
290;132.502685546875
291;131.70504760742188
292;130.9144287109375
293;130.12838745117188
294;129.34808349609375
295;128.57351684570312
296;127.80458068847656
297;127.04238891601562
298;126.28579711914062
299;125.53475189208984
300;124.78815460205078
301;124.04708099365234
302;123.31145477294922
303;122.58229064941406
304;121.8585205078125
305;121.13914489746094
306;120.42508697509766
307;119.71731567382812
308;119.01480865478516
309;118.31654357910156
310;117.62448120117188
311;116.93755340576172
312;116.25579071044922
313;115.57911682128906
314;114.90750885009766
315;114.24098205566406
316;113.57854461669922
317;112.92198944091797
318;112.2703628540039
319;111.62281036376953
320;110.98104095458984
321;110.34410858154297
322;109.71202087402344
323;109.08389282226562
324;108.46055603027344
325;107.84201049804688
326;107.22895812988281
327;106.62059783935547
328;106.01688385009766
329;105.41703033447266
330;104.82257080078125
331;104.232666015625
332;103.64655303955078
333;103.06571960449219
334;102.48934936523438
335;101.91746520996094
336;101.34996795654297
337;100.78692626953125
338;100.22824096679688
339;99.67390441894531
340;99.12319946289062
341;98.57746887207031
342;98.03600311279297
343;97.49815368652344
344;96.96449279785156
345;96.43504333496094
346;95.91040802001953
347;95.38987731933594
348;94.87285614013672
349;94.36053466796875
350;93.85169219970703
351;93.34684753417969
352;92.84603881835938
353;92.34918212890625
354;91.8569107055664
355;91.36852264404297
356;90.88349151611328
357;90.40234375
358;89.92562866210938
359;89.45272827148438
360;88.98304748535156
361;88.51721954345703
362;88.05512237548828
363;87.59727478027344
364;87.1426010131836
365;86.69163513183594
366;86.24483489990234
367;85.8011703491211
368;85.3615951538086
369;84.92561340332031
370;84.49271392822266
371;84.06334686279297
372;83.63749694824219
373;83.21516418457031
374;82.79676055908203
375;82.38177490234375
376;81.97021484375
377;81.56206512451172
378;81.15727233886719
379;80.75586700439453
380;80.35730743408203
381;79.9625244140625
382;79.57100677490234
383;79.18234252929688
384;78.79730987548828
385;78.41551971435547
386;78.03649139404297
387;77.66067504882812
388;77.28799438476562
389;76.91885375976562
390;76.55244445800781
391;76.18948364257812
392;75.82960510253906
393;75.47238159179688
394;75.1185531616211
395;74.76736450195312
396;74.41954040527344
397;74.07467651367188
398;73.73274230957031
399;73.39335632324219
400;73.05692291259766
401;72.72367858886719
402;72.39297485351562
403;72.06509399414062
404;71.74003601074219
405;71.41812133789062
406;71.0989990234375
407;70.78260040283203
408;70.46895599365234
409;70.15804290771484
410;69.8495101928711
411;69.54364776611328
412;69.240478515625
413;68.94024658203125
414;68.64234161376953
415;68.34732055664062
416;68.05464172363281
417;67.7647705078125
418;67.47747039794922
419;67.19241333007812
420;66.90988159179688
421;66.6301040649414
422;66.35255432128906
423;66.07770538330078
424;65.8053207397461
425;65.53509521484375
426;65.26726531982422
427;65.00206756591797
428;64.73900604248047
429;64.47854614257812
430;64.22016143798828
431;63.96410369873047
432;63.71035385131836
433;63.45913314819336
434;63.21015930175781
435;62.96319580078125
436;62.71848678588867
437;62.4761962890625
438;62.23612594604492
439;61.99821090698242
440;61.76247787475586
441;61.52867126464844
442;61.29701232910156
443;61.06746292114258
444;60.84001159667969
445;60.61465072631836
446;60.39154815673828
447;60.17032241821289
448;59.95111846923828
449;59.734130859375
450;59.51897430419922
451;59.30598831176758
452;59.09477233886719
453;58.88554000854492
454;58.67840576171875
455;58.47303009033203
456;58.26975631713867
457;58.06838607788086
458;57.86888122558594
459;57.67124557495117
460;57.47532272338867
461;57.28119659423828
462;57.08892059326172
463;56.89845657348633
464;56.70978546142578
465;56.523075103759766
466;56.33793640136719
467;56.154754638671875
468;55.97312927246094
469;55.79323959350586
470;55.615203857421875
471;55.43873596191406
472;55.26393127441406
473;55.09080123901367
474;54.919349670410156
475;54.74966812133789
476;54.58161926269531
477;54.41519546508789
478;54.2503662109375
479;54.08699417114258
480;53.92533874511719
481;53.76512145996094
482;53.6065788269043
483;53.449440002441406
484;53.293846130371094
485;53.139888763427734
486;52.987422943115234
487;52.83644104003906
488;52.68694305419922
489;52.53879165649414
490;52.39221954345703
491;52.246952056884766
492;52.10313415527344
493;51.96084213256836
494;51.819950103759766
495;51.68043518066406
496;51.542213439941406
497;51.40535354614258
498;51.26984786987305
499;51.13570785522461
500;51.002864837646484
501;50.87150573730469
502;50.74131774902344
503;50.61254119873047
504;50.48493957519531
505;50.3586540222168
506;50.23369598388672
507;50.11001205444336
508;49.98756408691406
509;49.86627197265625
510;49.746219635009766
511;49.62745666503906
512;49.509796142578125
513;49.39341735839844
514;49.27815246582031
515;49.16413116455078
516;49.05119323730469
517;48.93942642211914
518;48.82876205444336
519;48.71925735473633
520;48.61088562011719
521;48.50367736816406
522;48.39750671386719
523;48.29251480102539
524;48.18860626220703
525;48.08574676513672
526;47.98396301269531
527;47.883235931396484
528;47.783546447753906
529;47.684898376464844
530;47.58727264404297
531;47.49066162109375
532;47.39506530761719
533;47.30046081542969
534;47.206844329833984
535;47.114200592041016
536;47.02254867553711
537;46.931854248046875
538;46.84210968017578
539;46.75331115722656
540;46.66542053222656
541;46.57843780517578
542;46.49235916137695
543;46.40718460083008
544;46.32298278808594
545;46.23967742919922
546;46.15724182128906
547;46.07569885253906
548;45.99501419067383
549;45.91514587402344
550;45.836124420166016
551;45.75794982910156
552;45.68062973022461
553;45.60417556762695
554;45.52854919433594
555;45.453739166259766
556;45.37974548339844
557;45.3065299987793
558;45.23411560058594
559;45.16249084472656
560;45.09164047241211
561;45.02150344848633
562;44.952178955078125
563;44.883583068847656
564;44.81574249267578
565;44.74863815307617
566;44.68229675292969
567;44.61665725708008
568;44.551734924316406
569;44.48754119873047
570;44.42402648925781
571;44.36124038696289
572;44.29914855957031
573;44.237709045410156
574;44.176998138427734
575;44.11688995361328
576;44.0575065612793
577;43.99878692626953
578;43.94065856933594
579;43.88325119018555
580;43.82645034790039
581;43.77027893066406
582;43.71474075317383
583;43.65983581542969
584;43.60554504394531
585;43.551856994628906
586;43.49878692626953
587;43.4462776184082
588;43.39436721801758
589;43.34305191040039
590;43.29230499267578
591;43.24216079711914
592;43.19253921508789
593;43.14353942871094
594;43.095035552978516
595;43.04713821411133
596;42.99974060058594
597;42.95292663574219
598;42.906620025634766
599;42.86083984375
600;42.81559753417969
601;42.77085494995117
602;42.72663497924805
603;42.68294143676758
604;42.63975524902344
605;42.59703063964844
606;42.554840087890625
607;42.51311492919922
608;42.47189712524414
609;42.43111801147461
610;42.39082336425781
611;42.35102462768555
612;42.31166458129883
613;42.27278137207031
614;42.23432922363281
615;42.196311950683594
616;42.15877151489258
617;42.121681213378906
618;42.0849723815918
619;42.04874038696289
620;42.01292419433594
621;41.97750473022461
622;41.94253921508789
623;41.90797805786133
624;41.87382125854492
625;41.840087890625
626;41.80672073364258
627;41.77376174926758
628;41.741214752197266
629;41.70902633666992
630;41.67721939086914
631;41.64579772949219
632;41.6147346496582
633;41.58406066894531
634;41.553768157958984
635;41.523826599121094
636;41.494232177734375
637;41.464996337890625
638;41.436119079589844
639;41.4076042175293
640;41.37941360473633
641;41.3515739440918
642;41.32406234741211
643;41.29685974121094
644;41.27003479003906
645;41.24351501464844
646;41.21733093261719
647;41.19146728515625
648;41.1658935546875
649;41.14064025878906
650;41.1157112121582
651;41.09109115600586
652;41.06676483154297
653;41.042724609375
654;41.01899719238281
655;40.99555206298828
656;40.972408294677734
657;40.94953918457031
658;40.92696762084961
659;40.90465545654297
660;40.88261795043945
661;40.86085510253906
662;40.83937454223633
663;40.818145751953125
664;40.79717254638672
665;40.77648162841797
666;40.75605392456055
667;40.73585510253906
668;40.71592712402344
669;40.69624710083008
670;40.67681884765625
671;40.65763854980469
672;40.63868713378906
673;40.619972229003906
674;40.601497650146484
675;40.583248138427734
676;40.56523895263672
677;40.54745101928711
678;40.5298957824707
679;40.51256561279297
680;40.49543380737305
681;40.47853088378906
682;40.46185302734375
683;40.445377349853516
684;40.42912673950195
685;40.41307067871094
686;40.39723205566406
687;40.381587982177734
688;40.366127014160156
689;40.350887298583984
690;40.33582305908203
691;40.320960998535156
692;40.30629348754883
693;40.291812896728516
694;40.277523040771484
695;40.26341247558594
696;40.24949645996094
697;40.235740661621094
698;40.22216033935547
699;40.20878219604492
700;40.195560455322266
701;40.1825065612793
702;40.16963577270508
703;40.156917572021484
704;40.14436721801758
705;40.131996154785156
706;40.11977005004883
707;40.10770797729492
708;40.0958137512207
709;40.084068298339844
710;40.07249450683594
711;40.06105041503906
712;40.049774169921875
713;40.038639068603516
714;40.02764129638672
715;40.016815185546875
716;40.00611877441406
717;39.99555969238281
718;39.98514175415039
719;39.974853515625
720;39.96470642089844
721;39.95469665527344
722;39.944820404052734
723;39.93509292602539
724;39.92547607421875
725;39.915992736816406
726;39.90664291381836
727;39.89741134643555
728;39.8883056640625
729;39.879310607910156
730;39.87046432495117
731;39.86172103881836
732;39.85309600830078
733;39.84457778930664
734;39.83619689941406
735;39.827911376953125
736;39.819740295410156
737;39.81167984008789
738;39.80373001098633
739;39.7958869934082
740;39.78816223144531
741;39.7805290222168
742;39.77301025390625
743;39.76558303833008
744;39.758262634277344
745;39.75104522705078
746;39.74393081665039
747;39.736907958984375
748;39.72998046875
749;39.72316360473633
750;39.7164192199707
751;39.70976638793945
752;39.70321273803711
753;39.696773529052734
754;39.69039535522461
755;39.68410873413086
756;39.67790985107422
757;39.67179489135742
758;39.66576385498047
759;39.65984344482422
760;39.653987884521484
761;39.648193359375
762;39.64250564575195
763;39.63689041137695
764;39.63134765625
765;39.62586975097656
766;39.62049102783203
767;39.61518859863281
768;39.609947204589844
769;39.60478210449219
770;39.59971237182617
771;39.59469223022461
772;39.58972930908203
773;39.584861755371094
774;39.58007049560547
775;39.57532501220703
776;39.57065963745117
777;39.566043853759766
778;39.561500549316406
779;39.5570182800293
780;39.552616119384766
781;39.54826354980469
782;39.543968200683594
783;39.53974151611328
784;39.535579681396484
785;39.5314826965332
786;39.527435302734375
787;39.5234375
788;39.519500732421875
789;39.51563262939453
790;39.511817932128906
791;39.50804901123047
792;39.50434494018555
793;39.50067901611328
794;39.49707794189453
795;39.4935188293457
796;39.490028381347656
797;39.486576080322266
798;39.48318099975586
799;39.479827880859375
800;39.47652816772461
801;39.47327423095703
802;39.47007369995117
803;39.46690368652344
804;39.463783264160156
805;39.460731506347656
806;39.457706451416016
807;39.45473098754883
808;39.4517936706543
809;39.44889450073242
810;39.44606018066406
811;39.44324493408203
812;39.44048309326172
813;39.43775177001953
814;39.4350700378418
815;39.43242263793945
816;39.429813385009766
817;39.42724609375
818;39.42472457885742
819;39.42223358154297
820;39.419769287109375
821;39.41734313964844
822;39.41496276855469
823;39.41263198852539
824;39.41032409667969
825;39.40803527832031
826;39.40578842163086
827;39.40359115600586
828;39.401405334472656
829;39.39925765991211
830;39.397151947021484
831;39.39506530761719
832;39.39301681518555
833;39.39099884033203
834;39.38901901245117
835;39.38705825805664
836;39.38512420654297
837;39.38323211669922
838;39.38134002685547
839;39.379512786865234
840;39.37769317626953
841;39.37591552734375
842;39.37415313720703
843;39.37240982055664
844;39.37071228027344
845;39.3690299987793
846;39.36737060546875
847;39.36574935913086
848;39.3641357421875
849;39.36256408691406
850;39.36099624633789
851;39.359466552734375
852;39.35795593261719
853;39.35647201538086
854;39.35500717163086
855;39.35357666015625
856;39.35215759277344
857;39.35075378417969
858;39.349369049072266
859;39.3480224609375
860;39.34669494628906
861;39.345375061035156
862;39.34408950805664
863;39.34280776977539
864;39.34156036376953
865;39.34033203125
866;39.339111328125
867;39.337921142578125
868;39.33674621582031
869;39.33559036254883
870;39.33444595336914
871;39.33332824707031
872;39.33221435546875
873;39.33113479614258
874;39.33005905151367
875;39.329002380371094
876;39.32798385620117
877;39.32694625854492
878;39.325931549072266
879;39.32493209838867
880;39.323974609375
881;39.32301330566406
882;39.322078704833984
883;39.32115173339844
884;39.32021713256836
885;39.31932830810547
886;39.318443298339844
887;39.31757736206055
888;39.316707611083984
889;39.31587600708008
890;39.31504821777344
891;39.31422424316406
892;39.313419342041016
893;39.31263732910156
894;39.31185531616211
895;39.31108856201172
896;39.310333251953125
897;39.3095817565918
898;39.30885314941406
899;39.308143615722656
900;39.307430267333984
901;39.30672836303711
902;39.30604934692383
903;39.30537414550781
904;39.30470657348633
905;39.30406188964844
906;39.30342102050781
907;39.30278396606445
908;39.30216598510742
909;39.301551818847656
910;39.30095291137695
911;39.30036544799805
912;39.29977798461914
913;39.2991943359375
914;39.29862976074219
915;39.29807662963867
916;39.29753112792969
917;39.2969970703125
918;39.29646301269531
919;39.295963287353516
920;39.295440673828125
921;39.29493713378906
922;39.29444122314453
923;39.293949127197266
924;39.293479919433594
925;39.293006896972656
926;39.29254150390625
927;39.29208755493164
928;39.291629791259766
929;39.291194915771484
930;39.29075622558594
931;39.29033279418945
932;39.289913177490234
933;39.289512634277344
934;39.28908920288086
935;39.28868865966797
936;39.28830337524414
937;39.28791046142578
938;39.28752899169922
939;39.28715896606445
940;39.28678894042969
941;39.28642272949219
942;39.28607177734375
943;39.28572463989258
944;39.28537368774414
945;39.285037994384766
946;39.284698486328125
947;39.28437805175781
948;39.284053802490234
949;39.28372573852539
950;39.28342056274414
951;39.28312683105469
952;39.282806396484375
953;39.28251647949219
954;39.28221893310547
955;39.28192901611328
956;39.28164291381836
957;39.2813720703125
958;39.28110885620117
959;39.28082275390625
960;39.28056716918945
961;39.28029251098633
962;39.28004837036133
963;39.27980041503906
964;39.27954864501953
965;39.279300689697266
966;39.2790641784668
967;39.27882385253906
968;39.27859878540039
969;39.27836608886719
970;39.278141021728516
971;39.27791976928711
972;39.27769470214844
973;39.277488708496094
974;39.27726745605469
975;39.27706527709961
976;39.27686309814453
977;39.27666091918945
978;39.27646255493164
979;39.276275634765625
980;39.27607727050781
981;39.27589416503906
982;39.27571105957031
983;39.2755241394043
984;39.27534484863281
985;39.27516555786133
986;39.27499008178711
987;39.274810791015625
988;39.27463912963867
989;39.274478912353516
990;39.27431869506836
991;39.2741584777832
992;39.27400207519531
993;39.27384567260742
994;39.273681640625
995;39.27353286743164
996;39.27337646484375
997;39.27323532104492
998;39.27308654785156
999;39.27293395996094
1000;39.272804260253906
1001;39.27266311645508
1002;39.27252960205078
1003;39.27239227294922
1004;39.272254943847656
1005;39.27212905883789
1006;39.27198791503906
1007;39.27186584472656
1008;39.2717399597168
1009;39.271602630615234
1010;39.2714729309082
1011;39.27134704589844
1012;39.271240234375
1013;39.271114349365234
1014;39.270999908447266
1015;39.27085876464844
1016;39.270751953125
1017;39.270633697509766
1018;39.270511627197266
1019;39.27040100097656
1020;39.27027893066406
1021;39.27016067504883
1022;39.27004623413086
1023;39.26993942260742
1024;39.26980209350586
1025;39.26968765258789
1026;39.269569396972656
1027;39.26945114135742
1028;39.269325256347656
1029;39.26918029785156
1030;39.269046783447266
1031;39.26890563964844
1032;39.26875305175781
1033;39.26860046386719
1034;39.26844787597656
1035;39.26826477050781
1036;39.26808166503906
1037;39.26786804199219
1038;39.26765441894531
1039;39.26741027832031
1040;39.26713180541992
1041;39.26679992675781
1042;39.26641082763672
1043;39.26591491699219
1044;39.265281677246094
1045;39.26444625854492
1046;39.26332473754883
1047;39.261810302734375
1048;39.2594108581543
1049;39.255279541015625
1050;39.24874496459961
1051;39.23910140991211
1052;39.22119903564453
1053;39.197261810302734
1054;39.171409606933594
1055;39.19495391845703
1056;39.225399017333984
1057;39.22673416137695
1058;39.20549774169922
1059;39.17399597167969
1060;39.16889190673828
1061;39.184234619140625
1062;39.19298553466797
1063;39.196014404296875
1064;39.19325256347656
1065;39.18590545654297
1066;39.17526626586914
1067;39.16065216064453
1068;39.15633773803711
1069;39.16941833496094
1070;39.172603607177734
1071;39.16709899902344
1072;39.15312194824219
1073;39.146018981933594
1074;39.15156555175781
1075;39.15505599975586
1076;39.15116500854492
1077;39.14017105102539
1078;39.126953125
1079;39.121158599853516
1080;39.11616516113281
1081;39.09416580200195
1082;39.08008575439453
1083;39.100624084472656
1084;39.10782241821289
1085;39.09406661987305
1086;39.07475280761719
1087;39.07138442993164
1088;39.0733642578125
1089;39.07719802856445
1090;39.07728576660156
1091;39.06971740722656
1092;39.0568962097168
1093;39.04766082763672
1094;39.04810333251953
1095;39.050540924072266
1096;39.0386848449707
1097;39.02434158325195
1098;39.01612091064453
1099;39.01322555541992
1100;39.027381896972656
1101;39.022560119628906
1102;39.00333023071289
1103;38.99571228027344
1104;38.99253845214844
1105;38.982582092285156
1106;38.95895004272461
1107;38.92073059082031
1108;38.91056823730469
1109;38.93010711669922
1110;38.9248046875
1111;38.89790344238281
1112;38.88896942138672
1113;38.8962287902832
1114;38.892826080322266
1115;38.876155853271484
1116;38.86349868774414
1117;38.852989196777344
1118;38.8504638671875
1119;38.84353256225586
1120;38.82379913330078
1121;38.81182098388672
1122;38.80693435668945
1123;38.80489730834961
1124;38.796199798583984
1125;38.77899932861328
1126;38.765869140625
1127;38.75590133666992
1128;38.747520446777344
1129;38.73667907714844
1130;38.72307586669922
1131;38.711368560791016
1132;38.6985969543457
1133;38.68624496459961
1134;38.67488098144531
1135;38.663185119628906
1136;38.64923858642578
1137;38.6348876953125
1138;38.62323760986328
1139;38.60898971557617
1140;38.598487854003906
1141;38.5827751159668
1142;38.569068908691406
1143;38.5558967590332
1144;38.53993225097656
1145;38.525169372558594
1146;38.50907897949219
1147;38.49550247192383
1148;38.47828674316406
1149;38.46329116821289
1150;38.446136474609375
1151;38.42434310913086
1152;38.41527557373047
1153;38.39253616333008
1154;38.373016357421875
1155;38.36515426635742
1156;38.338714599609375
1157;38.30523681640625
1158;38.29311752319336
1159;38.257652282714844
1160;38.24201965332031
1161;38.244117736816406
1162;38.19786834716797
1163;38.17470169067383
1164;38.15260696411133
1165;38.12111282348633
1166;38.11137390136719
1167;38.0850715637207
1168;38.04198455810547
1169;38.03258514404297
1170;38.00413513183594
1171;37.9673957824707
1172;37.94413757324219
1173;37.90994644165039
1174;37.88089370727539
1175;37.85359191894531
1176;37.82499694824219
1177;37.795440673828125
1178;37.76191711425781
1179;37.7321662902832
1180;37.70133590698242
1181;37.670108795166016
1182;37.635772705078125
1183;37.60014343261719
1184;37.563026428222656
1185;37.52668380737305
1186;37.49216079711914
1187;37.452632904052734
1188;37.40998840332031
1189;37.366695404052734
1190;37.3320198059082
1191;37.291019439697266
1192;37.23842239379883
1193;37.19108581542969
1194;37.15652847290039
1195;37.10515594482422
1196;37.05043029785156
1197;37.00839614868164
1198;36.948448181152344
1199;36.893550872802734
1200;36.844642639160156
1201;36.78736877441406
1202;36.730018615722656
1203;36.6706428527832
1204;36.60884094238281
1205;36.54823303222656
1206;36.48954772949219
1207;36.42646789550781
1208;36.36676788330078
1209;36.295799255371094
1210;36.23383712768555
1211;36.16877746582031
1212;36.094905853271484
1213;36.02622604370117
1214;35.96862030029297
1215;35.90997314453125
1216;35.84587860107422
1217;35.792152404785156
1218;35.72573471069336
1219;35.65803146362305
1220;35.60171127319336
1221;35.53401184082031
1222;35.48674011230469
1223;35.4070930480957
1224;35.36717987060547
1225;35.27747344970703
1226;35.25186538696289
1227;35.135292053222656
1228;35.10280990600586
1229;34.99497604370117
1230;34.963253021240234
1231;34.87034225463867
1232;34.823326110839844
1233;34.71479797363281
1234;34.675392150878906
1235;34.574745178222656
1236;34.54033660888672
1237;34.42710876464844
1238;34.3947868347168
1239;34.28261184692383
1240;34.21488952636719
1241;34.11590576171875
1242;34.06354522705078
1243;33.97819519042969
1244;33.8626708984375
1245;33.812538146972656
1246;33.69818878173828
1247;33.62958526611328
1248;33.5242919921875
1249;33.4599609375
1250;33.34919357299805
1251;33.28831481933594
1252;33.180206298828125
1253;33.08631896972656
1254;33.024635314941406
1255;32.904212951660156
1256;32.83903503417969
1257;32.73397445678711
1258;32.62781524658203
1259;32.58940124511719
1260;32.46326446533203
1261;32.41576385498047
1262;32.25018310546875
1263;32.160003662109375
1264;32.04380798339844
1265;31.83945083618164
1266;31.734432220458984
1267;31.633283615112305
1268;31.49995994567871
1269;31.32306671142578
1270;31.20728874206543
1271;31.075504302978516
1272;30.917890548706055
1273;30.785888671875
1274;30.63081932067871
1275;30.46973991394043
1276;30.31909942626953
1277;30.15091896057129
1278;29.99224090576172
1279;29.85478973388672
1280;29.692352294921875
1281;29.50826072692871
1282;29.342811584472656
1283;29.193878173828125
1284;29.09592056274414
1285;28.93919563293457
1286;28.72389793395996
1287;28.646310806274414
1288;28.47410774230957
1289;28.325477600097656
1290;28.141952514648438
1291;28.01527214050293
1292;27.831600189208984
1293;27.71954345703125
1294;27.545684814453125
1295;27.446571350097656
1296;27.28150749206543
1297;27.162126541137695
1298;27.017860412597656
1299;26.89676284790039
1300;26.7729549407959
1301;26.651262283325195
1302;26.538593292236328
1303;26.420373916625977
1304;26.31212043762207
1305;26.201154708862305
1306;26.098188400268555
1307;25.99077033996582
1308;25.88642120361328
1309;25.784332275390625
1310;25.679847717285156
1311;25.580644607543945
1312;25.47675895690918
1313;25.384124755859375
1314;25.276567459106445
1315;25.183273315429688
1316;25.070144653320312
1317;24.999658584594727
1318;24.85017967224121
1319;24.768796920776367
1320;24.64916229248047
1321;24.56749725341797
1322;24.475860595703125
1323;24.392301559448242
1324;24.31465721130371
1325;24.239816665649414
1326;24.173233032226562
1327;24.106475830078125
1328;24.039813995361328
1329;23.973196029663086
1330;23.904661178588867
1331;23.839147567749023
1332;23.77052116394043
1333;23.70763397216797
1334;23.64377212524414
1335;23.58275604248047
1336;23.518028259277344
1337;23.463863372802734
1338;23.403383255004883
1339;23.345726013183594
1340;23.292573928833008
1341;23.230682373046875
1342;23.173891067504883
1343;23.12338638305664
1344;23.073986053466797
1345;23.009685516357422
1346;22.951967239379883
1347;22.90193748474121
1348;22.85138511657715
1349;22.805763244628906
1350;22.74604034423828
1351;22.698820114135742
1352;22.63848114013672
1353;22.582971572875977
1354;22.53508758544922
1355;22.489776611328125
1356;22.48073387145996
1357;22.528444290161133
1358;22.46873664855957
1359;22.30516815185547
1360;22.33123016357422
1361;22.31336212158203
1362;22.318910598754883
1363;22.15764808654785
1364;22.24596405029297
1365;22.06235122680664
1366;22.11026954650879
1367;22.05046844482422
1368;21.959461212158203
1369;21.983461380004883
1370;21.85364532470703
1371;21.901077270507812
1372;21.794939041137695
1373;21.806737899780273
1374;21.712051391601562
1375;21.715559005737305
1376;21.64273452758789
1377;21.664947509765625
1378;21.54071044921875
1379;21.591665267944336
1380;21.468181610107422
1381;21.50103759765625
1382;21.438373565673828
1383;21.375389099121094
1384;21.37596893310547
1385;21.29286003112793
1386;21.305362701416016
1387;21.226608276367188
1388;21.228071212768555
1389;21.184690475463867
1390;21.126907348632812
1391;21.131853103637695
1392;21.077672958374023
1393;21.021265029907227
1394;21.010356903076172
1395;20.975025177001953
1396;20.923877716064453
1397;20.915157318115234
1398;20.898481369018555
1399;20.855918884277344
1400;20.800376892089844
1401;20.780546188354492
1402;20.756759643554688
1403;20.707603454589844
1404;20.68552017211914
1405;20.658750534057617
1406;20.613866806030273
1407;20.589149475097656
1408;20.57050132751465
1409;20.532432556152344
1410;20.48798370361328
1411;20.4700984954834
1412;20.45991325378418
1413;20.431461334228516
1414;20.417173385620117
1415;20.35207748413086
1416;20.314294815063477
1417;20.295940399169922
1418;20.24991226196289
1419;20.23444366455078
1420;20.23769187927246
1421;20.168148040771484
1422;20.12668800354004
1423;20.10725212097168
1424;20.07817268371582
1425;20.053319931030273
1426;20.01294708251953
1427;19.982769012451172
1428;19.9495906829834
1429;19.917118072509766
1430;19.885292053222656
1431;19.855323791503906
1432;19.82661247253418
1433;19.800827026367188
1434;19.791738510131836
1435;19.955081939697266
1436;20.054676055908203
1437;21.403894424438477
1438;19.76933479309082
1439;20.11949920654297
1440;20.128318786621094
1441;19.942880630493164
1442;20.01213836669922
1443;20.238208770751953
1444;19.90595245361328
1445;19.98365020751953
1446;20.005653381347656
1447;19.99606704711914
1448;19.971824645996094
1449;19.928855895996094
1450;19.863292694091797
1451;19.772342681884766
1452;19.690956115722656
1453;19.753055572509766
1454;19.605844497680664
1455;19.554107666015625
1456;19.566593170166016
1457;19.48243522644043
1458;19.385061264038086
1459;19.358835220336914
1460;19.341999053955078
1461;19.149263381958008
1462;19.046321868896484
1463;19.034557342529297
1464;19.004798889160156
1465;18.884782791137695
1466;18.74374771118164
1467;18.719697952270508
1468;18.66539764404297
1469;18.645187377929688
1470;18.53578758239746
1471;18.450122833251953
1472;18.394275665283203
1473;18.33506202697754
1474;18.30170440673828
1475;18.223875045776367
1476;18.177539825439453
1477;18.102352142333984
1478;18.064905166625977
1479;17.992088317871094
1480;17.953914642333984
1481;17.891490936279297
1482;17.85110855102539
1483;17.798871994018555
1484;17.73450469970703
1485;17.69658660888672
1486;17.632543563842773
1487;17.566680908203125
1488;17.533035278320312
1489;17.4650936126709
1490;17.381086349487305
1491;17.358936309814453
1492;17.29479217529297
1493;17.198001861572266
1494;17.19904136657715
1495;17.134431838989258
1496;17.042015075683594
1497;17.01907730102539
1498;16.908843994140625
1499;16.84397315979004
