;loss
0;1397.896728515625
1;1395.628173828125
2;1393.338623046875
3;1391.02294921875
4;1388.6741943359375
5;1386.38720703125
6;1383.9471435546875
7;1381.4439697265625
8;1378.902099609375
9;1376.260009765625
10;1373.505859375
11;1370.6248779296875
12;1367.60107421875
13;1364.4156494140625
14;1361.047119140625
15;1357.4942626953125
16;1353.68359375
17;1349.640869140625
18;1345.302490234375
19;1340.628662109375
20;1335.5728759765625
21;1330.0208740234375
22;1323.9595947265625
23;1317.317626953125
24;1310.0103759765625
25;1301.9395751953125
26;1292.988525390625
27;1283.1456298828125
28;1272.1563720703125
29;1259.6856689453125
30;1245.63720703125
31;1229.94580078125
32;1211.9427490234375
33;1191.699951171875
34;1168.637939453125
35;1142.3399658203125
36;1112.030517578125
37;1077.617431640625
38;1039.3370361328125
39;996.966552734375
40;950.7049560546875
41;902.5374755859375
42;855.3316650390625
43;810.8950805664062
44;772.5136108398438
45;740.5755004882812
46;715.2526245117188
47;695.37109375
48;679.0714111328125
49;665.3015747070312
50;653.2222290039062
51;642.2865600585938
52;632.2398681640625
53;622.8657836914062
54;614.1513061523438
55;605.852783203125
56;597.9840698242188
57;590.5038452148438
58;583.3682861328125
59;576.5401611328125
60;569.9912719726562
61;563.7479858398438
62;557.7000732421875
63;551.8826904296875
64;546.2904663085938
65;540.9105834960938
66;535.7265014648438
67;530.7269897460938
68;525.8986206054688
69;521.2239379882812
70;516.7183227539062
71;512.3057861328125
72;508.0037536621094
73;503.79974365234375
74;499.70928955078125
75;495.6700744628906
76;491.7007141113281
77;487.7940673828125
78;483.9446105957031
79;480.1703796386719
80;476.4214172363281
81;472.7172546386719
82;469.0760498046875
83;465.45281982421875
84;461.8666687011719
85;458.3363342285156
86;454.84075927734375
87;451.37896728515625
88;447.9313659667969
89;444.5163879394531
90;441.15045166015625
91;437.7981262207031
92;434.4933776855469
93;431.2183532714844
94;427.97271728515625
95;424.7397155761719
96;421.5355224609375
97;418.3600158691406
98;415.2126770019531
99;412.1082763671875
100;409.0308532714844
101;405.9661560058594
102;402.9285583496094
103;399.9179992675781
104;396.9339904785156
105;393.9762268066406
106;391.0450439453125
107;388.1401062011719
108;385.2742919921875
109;382.4222106933594
110;379.6082763671875
111;376.8078918457031
112;374.0443115234375
113;371.2937927246094
114;368.5786437988281
115;365.8870849609375
116;363.2188720703125
117;360.5632629394531
118;357.9307556152344
119;355.3209533691406
120;352.73358154296875
121;350.1684875488281
122;347.6350402832031
123;345.1135559082031
124;342.6229248046875
125;340.1440734863281
126;337.6861572265625
127;335.25787353515625
128;332.8411560058594
129;330.4446716308594
130;328.07666015625
131;325.7284240722656
132;323.3913269042969
133;321.08160400390625
134;318.78289794921875
135;316.50311279296875
136;314.2497253417969
137;312.00701904296875
138;309.7825622558594
139;307.5834045410156
140;305.40185546875
141;303.2378234863281
142;301.09100341796875
143;298.9544372558594
144;296.8348388671875
145;294.73870849609375
146;292.6591796875
147;290.5895690917969
148;288.5427551269531
149;286.5118713378906
150;284.49676513671875
151;282.49749755859375
152;280.5076599121094
153;278.53924560546875
154;276.5802917480469
155;274.64227294921875
156;272.7191467285156
157;270.8052062988281
158;268.9059143066406
159;267.02130126953125
160;265.1510314941406
161;263.2950134277344
162;261.45843505859375
163;259.6357421875
164;257.8217468261719
165;256.021484375
166;254.23489379882812
167;252.46656799316406
168;250.71165466308594
169;248.96510314941406
170;247.23171997070312
171;245.51136779785156
172;243.80397033691406
173;242.10934448242188
174;240.42733764648438
175;238.76234436035156
176;237.10549926757812
177;235.46519470214844
178;233.83297729492188
179;232.21702575683594
180;230.6130828857422
181;229.0210418701172
182;227.44085693359375
183;225.8723907470703
184;224.31175231933594
185;222.76266479492188
186;221.22515869140625
187;219.69908142089844
188;218.1842803955078
189;216.68080139160156
190;215.19203186035156
191;213.71426391601562
192;212.2439422607422
193;210.78794860839844
194;209.34274291992188
195;207.90493774414062
196;206.477783203125
197;205.0612030029297
198;203.65521240234375
199;202.26278686523438
200;200.87759399414062
201;199.50262451171875
202;198.1378936767578
203;196.78323364257812
204;195.43862915039062
205;194.10398864746094
206;192.77920532226562
207;191.46426391601562
208;190.1591033935547
209;188.8636016845703
210;187.58047485351562
211;186.306884765625
212;185.0426788330078
213;183.78518676757812
214;182.53707885742188
215;181.30078125
216;180.07119750976562
217;178.85072326660156
218;177.6393585205078
219;176.43707275390625
220;175.24378967285156
221;174.0594024658203
222;172.88389587402344
223;171.71714782714844
224;170.55921936035156
225;169.40992736816406
226;168.27146911621094
227;167.1415557861328
228;166.02008056640625
229;164.90484619140625
230;163.79794311523438
231;162.70152282714844
232;161.61331176757812
233;160.53330993652344
234;159.4613800048828
235;158.39752197265625
236;157.34161376953125
237;156.29176330566406
238;155.25177001953125
239;154.21963500976562
240;153.19528198242188
241;152.17677307128906
242;151.16786193847656
243;150.164794921875
244;149.16932678222656
245;148.18136596679688
246;147.20101928710938
247;146.2298126220703
248;145.2643280029297
249;144.3061981201172
250;143.35543823242188
251;142.4119110107422
252;141.47723388671875
253;140.54971313476562
254;139.6293182373047
255;138.71600341796875
256;137.80812072753906
257;136.90878295898438
258;136.01483154296875
259;135.12777709960938
260;134.2490692138672
261;133.37570190429688
262;132.51055908203125
263;131.6520538330078
264;130.8002471923828
265;129.95504760742188
266;129.1164093017578
267;128.282958984375
268;127.45600891113281
269;126.63550567626953
270;125.82144165039062
271;125.01502990722656
272;124.21369171142578
273;123.41858673095703
274;122.63101959228516
275;121.84841918945312
276;121.07198333740234
277;120.30167388916016
278;119.53744506835938
279;118.77928161621094
280;118.02713775634766
281;117.28092956542969
282;116.54183197021484
283;115.80859375
284;115.08116912841797
285;114.3584976196289
286;113.64155578613281
287;112.93037414550781
288;112.224853515625
289;111.52503204345703
290;110.83185577392578
291;110.14423370361328
292;109.46116638183594
293;108.78462219238281
294;108.11250305175781
295;107.44586944580078
296;106.78459930419922
297;106.12967681884766
298;105.47911834716797
299;104.83476257324219
300;104.1947250366211
301;103.55998229980469
302;102.93126678466797
303;102.30684661865234
304;101.6875
305;101.07327270507812
306;100.46495819091797
307;99.86161041259766
308;99.26322937011719
309;98.66981506347656
310;98.08128356933594
311;97.49679565429688
312;96.91719818115234
313;96.3423843383789
314;95.77237701416016
315;95.20709991455078
316;94.64730072021484
317;94.09143829345703
318;93.54019927978516
319;92.99359893798828
320;92.45230102539062
321;91.91558074951172
322;91.3833236694336
323;90.85488891601562
324;90.3309097290039
325;89.81137084960938
326;89.29621887207031
327;88.78547668457031
328;88.2790298461914
329;87.77689361572266
330;87.27908325195312
331;86.78610229492188
332;86.29674530029297
333;85.81156921386719
334;85.3311538696289
335;84.85426330566406
336;84.38147735595703
337;83.91277313232422
338;83.4481201171875
339;82.988037109375
340;82.53138732910156
341;82.07868194580078
342;81.62989807128906
343;81.18502807617188
344;80.74405670166016
345;80.30691528320312
346;79.87410736083984
347;79.44458770751953
348;79.01880645751953
349;78.5967788696289
350;78.17847442626953
351;77.76433563232422
352;77.35335540771484
353;76.94601440429688
354;76.54227447509766
355;76.14256286621094
356;75.7459487915039
357;75.35287475585938
358;74.96373748779297
359;74.57805633544922
360;74.19583129882812
361;73.81702423095703
362;73.441162109375
363;73.06868743896484
364;72.6995620727539
365;72.33375549316406
366;71.97124481201172
367;71.6124038696289
368;71.25643157958984
369;70.90406036376953
370;70.55451202392578
371;70.20848846435547
372;69.86563873291016
373;69.52589416503906
374;69.18929290771484
375;68.85572814941406
376;68.52485656738281
377;68.19703674316406
378;67.8722152709961
379;67.55038452148438
380;67.2315444946289
381;66.91561126708984
382;66.60262298583984
383;66.29254913330078
384;65.98567199707031
385;65.68130493164062
386;65.37977600097656
387;65.0810546875
388;64.7851333618164
389;64.49227905273438
390;64.20187377929688
391;63.91447830200195
392;63.62950134277344
393;63.34749221801758
394;63.06784439086914
395;62.79085159301758
396;62.51646423339844
397;62.244686126708984
398;61.97574234008789
399;61.70936965942383
400;61.44526672363281
401;61.18366622924805
402;60.92459487915039
403;60.667964935302734
404;60.413818359375
405;60.16209411621094
406;59.912803649902344
407;59.66615295410156
408;59.4216423034668
409;59.17949295043945
410;58.93965530395508
411;58.70218276977539
412;58.466983795166016
413;58.23408889770508
414;58.00345993041992
415;57.77529525756836
416;57.54911422729492
417;57.3251953125
418;57.10342788696289
419;56.88407516479492
420;56.666866302490234
421;56.451560974121094
422;56.23861312866211
423;56.02755355834961
424;55.81859588623047
425;55.61189651489258
426;55.40704345703125
427;55.20423889160156
428;55.00345993041992
429;54.80465316772461
430;54.60783386230469
431;54.41300964355469
432;54.220272064208984
433;54.029518127441406
434;53.84046936035156
435;53.653324127197266
436;53.46808624267578
437;53.28470230102539
438;53.10318374633789
439;52.92347717285156
440;52.74561309814453
441;52.5697135925293
442;52.39545822143555
443;52.223106384277344
444;52.05253982543945
445;51.88353729248047
446;51.71627426147461
447;51.550716400146484
448;51.38688278198242
449;51.224857330322266
450;51.06437301635742
451;50.90566635131836
452;50.74860763549805
453;50.59303283691406
454;50.43924331665039
455;50.286827087402344
456;50.13606643676758
457;49.987003326416016
458;49.83934020996094
459;49.6932258605957
460;49.54866409301758
461;49.40559005737305
462;49.26403045654297
463;49.12394332885742
464;48.9854736328125
465;48.84831619262695
466;48.71261978149414
467;48.5785026550293
468;48.44565200805664
469;48.31422805786133
470;48.18419647216797
471;48.0555305480957
472;47.92826843261719
473;47.80244064331055
474;47.6778678894043
475;47.55463790893555
476;47.43272018432617
477;47.31209182739258
478;47.19278335571289
479;47.07476043701172
480;46.958011627197266
481;46.84261703491211
482;46.728431701660156
483;46.615535736083984
484;46.50374221801758
485;46.3931884765625
486;46.2839241027832
487;46.17583084106445
488;46.06884002685547
489;45.9630126953125
490;45.85834884643555
491;45.754844665527344
492;45.65247344970703
493;45.551212310791016
494;45.45109176635742
495;45.35204315185547
496;45.25418472290039
497;45.15734100341797
498;45.0616455078125
499;44.96693420410156
500;44.87333679199219
501;44.78071212768555
502;44.68918228149414
503;44.59867477416992
504;44.50914764404297
505;44.42066192626953
506;44.33310317993164
507;44.246517181396484
508;44.16097640991211
509;44.07634735107422
510;43.992679595947266
511;43.91000747680664
512;43.82819366455078
513;43.74733352661133
514;43.667381286621094
515;43.5883903503418
516;43.51023864746094
517;43.43304443359375
518;43.35670471191406
519;43.28120803833008
520;43.20659255981445
521;43.13280487060547
522;43.059871673583984
523;42.98782730102539
524;42.91655731201172
525;42.84613037109375
526;42.776493072509766
527;42.70771789550781
528;42.63969039916992
529;42.57243347167969
530;42.505985260009766
531;42.44035720825195
532;42.37543869018555
533;42.311279296875
534;42.24789810180664
535;42.18528747558594
536;42.12339782714844
537;42.06224822998047
538;42.00172805786133
539;41.94200897216797
540;41.88291931152344
541;41.82455062866211
542;41.76691436767578
543;41.70991134643555
544;41.65361785888672
545;41.59798812866211
546;41.54304504394531
547;41.48871994018555
548;41.435062408447266
549;41.382022857666016
550;41.329647064208984
551;41.277854919433594
552;41.22669982910156
553;41.176185607910156
554;41.12626266479492
555;41.07694625854492
556;41.028221130371094
557;40.9801025390625
558;40.932552337646484
559;40.88555908203125
560;40.8391227722168
561;40.79328918457031
562;40.74800109863281
563;40.70326614379883
564;40.6590690612793
565;40.61540985107422
566;40.57228088378906
567;40.52965545654297
568;40.48759078979492
569;40.446006774902344
570;40.404972076416016
571;40.364437103271484
572;40.324398040771484
573;40.28483200073242
574;40.24576950073242
575;40.207157135009766
576;40.16903305053711
577;40.13139724731445
578;40.09422302246094
579;40.05752944946289
580;40.021297454833984
581;39.98548889160156
582;39.950130462646484
583;39.91522216796875
584;39.88074493408203
585;39.84672927856445
586;39.8131217956543
587;39.77992630004883
588;39.74715805053711
589;39.714786529541016
590;39.68284606933594
591;39.65130615234375
592;39.62014389038086
593;39.58939743041992
594;39.55903625488281
595;39.52906036376953
596;39.49947738647461
597;39.47026824951172
598;39.44142150878906
599;39.4129638671875
600;39.384849548339844
601;39.35709762573242
602;39.32970428466797
603;39.30268096923828
604;39.27600860595703
605;39.24967575073242
606;39.22368621826172
607;39.19801330566406
608;39.17268371582031
609;39.147666931152344
610;39.12298583984375
611;39.0986328125
612;39.0745735168457
613;39.05083084106445
614;39.02741241455078
615;39.00431442260742
616;38.98149871826172
617;38.958988189697266
618;38.93678283691406
619;38.914859771728516
620;38.89323806762695
621;38.87187576293945
622;38.85079574584961
623;38.829994201660156
624;38.80949020385742
625;38.78925323486328
626;38.76927185058594
627;38.74956130981445
628;38.73011016845703
629;38.71091079711914
630;38.691978454589844
631;38.67329406738281
632;38.65485382080078
633;38.63667297363281
634;38.61869812011719
635;38.60100173950195
636;38.583534240722656
637;38.56629180908203
638;38.549293518066406
639;38.53251647949219
640;38.51597595214844
641;38.49964904785156
642;38.48356246948242
643;38.467689514160156
644;38.4520149230957
645;38.43656539916992
646;38.421329498291016
647;38.40629577636719
648;38.391456604003906
649;38.37684631347656
650;38.36240768432617
651;38.34815216064453
652;38.33412551879883
653;38.320289611816406
654;38.30664825439453
655;38.29317092895508
656;38.279884338378906
657;38.266788482666016
658;38.25387954711914
659;38.24113082885742
660;38.22856903076172
661;38.216190338134766
662;38.2039680480957
663;38.19192886352539
664;38.18004608154297
665;38.1683349609375
666;38.15678787231445
667;38.1453971862793
668;38.13416290283203
669;38.12308883666992
670;38.1121826171875
671;38.101417541503906
672;38.0908088684082
673;38.0803337097168
674;38.07002258300781
675;38.05986404418945
676;38.049827575683594
677;38.03995895385742
678;38.03020095825195
679;38.02059555053711
680;38.01111602783203
681;38.00178909301758
682;37.992576599121094
683;37.98350524902344
684;37.974552154541016
685;37.96574020385742
686;37.957054138183594
687;37.94847869873047
688;37.940040588378906
689;37.931724548339844
690;37.92353057861328
691;37.91543197631836
692;37.907474517822266
693;37.89960861206055
694;37.891883850097656
695;37.88424301147461
696;37.87672805786133
697;37.869319915771484
698;37.86203384399414
699;37.85482406616211
700;37.84773254394531
701;37.84075164794922
702;37.8338623046875
703;37.82707595825195
704;37.82038497924805
705;37.813785552978516
706;37.80729675292969
707;37.80091094970703
708;37.79459762573242
709;37.788387298583984
710;37.782264709472656
711;37.77623748779297
712;37.770286560058594
713;37.76443862915039
714;37.7586669921875
715;37.752986907958984
716;37.747398376464844
717;37.74187469482422
718;37.736446380615234
719;37.73109817504883
720;37.72582244873047
721;37.72062301635742
722;37.715518951416016
723;37.71049499511719
724;37.70551300048828
725;37.70062255859375
726;37.695804595947266
727;37.691062927246094
728;37.6863899230957
729;37.681785583496094
730;37.677249908447266
731;37.67277908325195
732;37.66838455200195
733;37.6640510559082
734;37.65978240966797
735;37.65558624267578
736;37.651451110839844
737;37.64738082885742
738;37.643375396728516
739;37.6394157409668
740;37.63551330566406
741;37.63167190551758
742;37.62791061401367
743;37.62417984008789
744;37.620521545410156
745;37.616905212402344
746;37.61337661743164
747;37.60986328125
748;37.60642623901367
749;37.603031158447266
750;37.59969711303711
751;37.596435546875
752;37.59317398071289
753;37.59000778198242
754;37.58686828613281
755;37.583778381347656
756;37.58074188232422
757;37.5777473449707
758;37.574806213378906
759;37.5718994140625
760;37.569034576416016
761;37.56623840332031
762;37.56345748901367
763;37.56074142456055
764;37.55805969238281
765;37.555419921875
766;37.552818298339844
767;37.550254821777344
768;37.54774475097656
769;37.545265197753906
770;37.54282760620117
771;37.540428161621094
772;37.53807067871094
773;37.535743713378906
774;37.533447265625
775;37.531192779541016
776;37.52899169921875
777;37.52680587768555
778;37.52466583251953
779;37.52254104614258
780;37.52046585083008
781;37.518409729003906
782;37.516414642333984
783;37.51441955566406
784;37.51247024536133
785;37.51054763793945
786;37.5086669921875
787;37.50678634643555
788;37.504981994628906
789;37.503173828125
790;37.501399993896484
791;37.499656677246094
792;37.49795150756836
793;37.49626541137695
794;37.494606018066406
795;37.49297332763672
796;37.491355895996094
797;37.48978805541992
798;37.48822784423828
799;37.486690521240234
800;37.48518753051758
801;37.48371505737305
802;37.48225784301758
803;37.480812072753906
804;37.47939682006836
805;37.4780158996582
806;37.47664260864258
807;37.475318908691406
808;37.47399139404297
809;37.47269821166992
810;37.471412658691406
811;37.47015380859375
812;37.46892547607422
813;37.467716217041016
814;37.46651840209961
815;37.46534729003906
816;37.46417236328125
817;37.463035583496094
818;37.4619255065918
819;37.460819244384766
820;37.459739685058594
821;37.458683013916016
822;37.45762634277344
823;37.45659637451172
824;37.45558547973633
825;37.45458221435547
826;37.4536018371582
827;37.45263671875
828;37.45169448852539
829;37.45075607299805
830;37.449851989746094
831;37.448951721191406
832;37.44805908203125
833;37.447181701660156
834;37.44633102416992
835;37.44548797607422
836;37.444664001464844
837;37.443843841552734
838;37.44304275512695
839;37.4422607421875
840;37.441463470458984
841;37.44071960449219
842;37.43997573852539
843;37.439231872558594
844;37.43851852416992
845;37.437801361083984
846;37.43710708618164
847;37.43640899658203
848;37.43572998046875
849;37.43507385253906
850;37.43442916870117
851;37.43378448486328
852;37.433128356933594
853;37.432518005371094
854;37.431922912597656
855;37.43130111694336
856;37.430721282958984
857;37.43014144897461
858;37.4295768737793
859;37.42899703979492
860;37.42845916748047
861;37.42790985107422
862;37.4273796081543
863;37.42685317993164
864;37.426334381103516
865;37.42583465576172
866;37.42533874511719
867;37.42485427856445
868;37.424373626708984
869;37.42388916015625
870;37.42341995239258
871;37.42295837402344
872;37.42252731323242
873;37.42206954956055
874;37.42164611816406
875;37.42122268676758
876;37.42081069946289
877;37.420387268066406
878;37.41999053955078
879;37.41959762573242
880;37.419212341308594
881;37.41881561279297
882;37.41843795776367
883;37.41805648803711
884;37.417701721191406
885;37.417335510253906
886;37.41698455810547
887;37.41665267944336
888;37.41630935668945
889;37.41597366333008
890;37.415645599365234
891;37.41531753540039
892;37.415000915527344
893;37.41468048095703
894;37.414371490478516
895;37.41407012939453
896;37.41378402709961
897;37.41347885131836
898;37.413204193115234
899;37.412925720214844
900;37.41264724731445
901;37.41236114501953
902;37.412109375
903;37.411842346191406
904;37.411582946777344
905;37.411319732666016
906;37.411067962646484
907;37.410831451416016
908;37.41059494018555
909;37.41035079956055
910;37.41011047363281
911;37.40989303588867
912;37.40966796875
913;37.40945053100586
914;37.40923309326172
915;37.409019470214844
916;37.408809661865234
917;37.40858840942383
918;37.40839767456055
919;37.408199310302734
920;37.40799331665039
921;37.40780258178711
922;37.40760803222656
923;37.40742111206055
924;37.407249450683594
925;37.407066345214844
926;37.40687942504883
927;37.40672302246094
928;37.40654373168945
929;37.4063720703125
930;37.406211853027344
931;37.40604019165039
932;37.40589141845703
933;37.405723571777344
934;37.40557098388672
935;37.40542984008789
936;37.4052734375
937;37.40510940551758
938;37.40497589111328
939;37.40483474731445
940;37.40470504760742
941;37.40455627441406
942;37.4044189453125
943;37.404296875
944;37.4041633605957
945;37.40401840209961
946;37.403907775878906
947;37.40378952026367
948;37.40365982055664
949;37.403541564941406
950;37.403419494628906
951;37.40330505371094
952;37.40318298339844
953;37.40306854248047
954;37.40296173095703
955;37.40283966064453
956;37.402732849121094
957;37.40262985229492
958;37.40253448486328
959;37.40242385864258
960;37.402320861816406
961;37.402225494384766
962;37.40212631225586
963;37.402042388916016
964;37.40194320678711
965;37.40184020996094
966;37.40174865722656
967;37.401668548583984
968;37.401573181152344
969;37.4014778137207
970;37.40138244628906
971;37.401309967041016
972;37.40122985839844
973;37.401145935058594
974;37.401065826416016
975;37.40098571777344
976;37.40091323852539
977;37.400840759277344
978;37.40074157714844
979;37.40067672729492
980;37.40060043334961
981;37.40052032470703
982;37.400447845458984
983;37.40038299560547
984;37.40032196044922
985;37.400245666503906
986;37.40018081665039
987;37.40010452270508
988;37.4000358581543
989;37.39997863769531
990;37.39990997314453
991;37.399845123291016
992;37.3997802734375
993;37.39971923828125
994;37.399658203125
995;37.399600982666016
996;37.39952850341797
997;37.399478912353516
998;37.39940643310547
999;37.39936447143555
