;loss
0;1322.7711181640625
1;1320.037109375
2;1316.39453125
3;1312.7808837890625
4;1309.188232421875
5;1305.6077880859375
6;1302.02978515625
7;1298.4442138671875
8;1294.8397216796875
9;1291.2369384765625
10;1287.5765380859375
11;1283.8485107421875
12;1280.0413818359375
13;1276.1422119140625
14;1272.1373291015625
15;1268.0386962890625
16;1263.7784423828125
17;1259.36572265625
18;1254.78271484375
19;1250.0587158203125
20;1245.0787353515625
21;1239.866943359375
22;1234.4007568359375
23;1228.6531982421875
24;1222.5947265625
25;1216.2701416015625
26;1209.5772705078125
27;1202.47802734375
28;1194.8388671875
29;1186.694580078125
30;1177.9920654296875
31;1168.674072265625
32;1158.79443359375
33;1148.0550537109375
34;1136.4920654296875
35;1124.166015625
36;1110.715087890625
37;1096.1846923828125
38;1080.482177734375
39;1063.5123291015625
40;1045.1925048828125
41;1025.6541748046875
42;1004.4364013671875
43;981.7117919921875
44;957.4971923828125
45;932.121826171875
46;905.4902954101562
47;877.5484008789062
48;848.8806762695312
49;819.898193359375
50;791.0885620117188
51;763.2039184570312
52;736.493896484375
53;711.4161376953125
54;688.2827758789062
55;667.1310424804688
56;648.146728515625
57;631.4181518554688
58;616.4727172851562
59;603.2826538085938
60;591.3350830078125
61;580.4789428710938
62;570.52734375
63;561.3701171875
64;552.820556640625
65;544.8002319335938
66;537.2247314453125
67;529.9744262695312
68;523.0504760742188
69;516.463623046875
70;510.0880432128906
71;503.9928283691406
72;498.1087341308594
73;492.42474365234375
74;486.92724609375
75;481.5993957519531
76;476.4302978515625
77;471.3798828125
78;466.4736328125
79;461.73101806640625
80;457.1141052246094
81;452.5887451171875
82;448.1776123046875
83;443.8724365234375
84;439.68914794921875
85;435.5968322753906
86;431.5679931640625
87;427.62115478515625
88;423.7724609375
89;419.9966125488281
90;416.2893981933594
91;412.628173828125
92;409.04833984375
93;405.5106506347656
94;402.02923583984375
95;398.6184387207031
96;395.2418518066406
97;391.9151611328125
98;388.63671875
99;385.40472412109375
100;382.2176818847656
101;379.0733337402344
102;375.9700927734375
103;372.9063415527344
104;369.88092041015625
105;366.8924560546875
106;363.95318603515625
107;361.0358581542969
108;358.1526794433594
109;355.3028259277344
110;352.4853515625
111;349.6995849609375
112;346.94482421875
113;344.2201843261719
114;341.5249328613281
115;338.8693542480469
116;336.2415771484375
117;333.6305847167969
118;331.0467834472656
119;328.4895935058594
120;325.9585266113281
121;323.4534606933594
122;320.9830322265625
123;318.527587890625
124;316.09600830078125
125;313.68792724609375
126;311.3028869628906
127;308.9492492675781
128;306.6091003417969
129;304.2908935546875
130;302.0025634765625
131;299.7352600097656
132;297.48870849609375
133;295.2625732421875
134;293.056396484375
135;290.8625793457031
136;288.69580078125
137;286.54815673828125
138;284.4194641113281
139;282.30950927734375
140;280.2179260253906
141;278.14453125
142;276.082275390625
143;274.0379638671875
144;272.0112609863281
145;270.0018310546875
146;268.0096435546875
147;266.0343933105469
148;264.075927734375
149;262.13995361328125
150;260.2143859863281
151;258.30499267578125
152;256.4114990234375
153;254.533935546875
154;252.677490234375
155;250.83645629882812
156;249.005126953125
157;247.1943359375
158;245.39312744140625
159;243.606689453125
160;241.83995056152344
161;240.0826873779297
162;238.3396759033203
163;236.61578369140625
164;234.9058380126953
165;233.209716796875
166;231.52728271484375
167;229.85842895507812
168;228.198486328125
169;226.55194091796875
170;224.9186553955078
171;223.30282592773438
172;221.69566345214844
173;220.1013946533203
174;218.5199432373047
175;216.9511260986328
176;215.3988800048828
177;213.8589630126953
178;212.33135986328125
179;210.8158416748047
180;209.31234741210938
181;207.8208465576172
182;206.34112548828125
183;204.87307739257812
184;203.416748046875
185;201.9683380126953
186;200.5314483642578
187;199.10595703125
188;197.69517517089844
189;196.29551696777344
190;194.9069061279297
191;193.52601623535156
192;192.15931701660156
193;190.80337524414062
194;189.45814514160156
195;188.12042236328125
196;186.79632568359375
197;185.48272705078125
198;184.17945861816406
199;182.8865203857422
200;181.60372924804688
201;180.33111572265625
202;179.06849670410156
203;177.81591796875
204;176.57315063476562
205;175.3402557373047
206;174.11705017089844
207;172.90093994140625
208;171.697021484375
209;170.5026397705078
210;169.31771850585938
211;168.1421661376953
212;166.97593688964844
213;165.81654357910156
214;164.66871643066406
215;163.5276336669922
216;162.3956298828125
217;161.27496337890625
218;160.1609344482422
219;159.05577087402344
220;157.95941162109375
221;156.87400817871094
222;155.7972869873047
223;154.7290802001953
224;153.66943359375
225;152.61825561523438
226;151.57546997070312
227;150.54104614257812
228;149.51284790039062
229;148.49493408203125
230;147.48321533203125
231;146.4796142578125
232;145.48597717285156
233;144.49851989746094
234;143.52081298828125
235;142.55099487304688
236;141.58900451660156
237;140.63478088378906
238;139.6882781982422
239;138.74940490722656
240;137.81639099121094
241;136.89266967773438
242;135.9747772216797
243;135.06597900390625
244;134.16294860839844
245;133.26890563964844
246;132.38055419921875
247;131.49940490722656
248;130.6255340576172
249;129.75875854492188
250;128.89913940429688
251;128.04656982421875
252;127.20099639892578
253;126.36237335205078
254;125.53067016601562
255;124.70579528808594
256;123.88916015625
257;123.07925415039062
258;122.27606964111328
259;121.47947692871094
260;120.68949127197266
261;119.90473175048828
262;119.12782287597656
263;118.35735321044922
264;117.592041015625
265;116.83436584472656
266;116.0830078125
267;115.33794403076172
268;114.59786987304688
269;113.86404418945312
270;113.13751983642578
271;112.41596221923828
272;111.70049285888672
273;110.9910659790039
274;110.2876205444336
275;109.5911865234375
276;108.90066528320312
277;108.21600341796875
278;107.53713989257812
279;106.86300659179688
280;106.19562530517578
281;105.53295135498047
282;104.87590026855469
283;104.22547912597656
284;103.57962799072266
285;102.93936157226562
286;102.30551147460938
287;101.6771011352539
288;101.05411529541016
289;100.43557739257812
290;99.82237243652344
291;99.21536254882812
292;98.6136245727539
293;98.01705932617188
294;97.42570495605469
295;96.83950805664062
296;96.25753021240234
297;95.68147277832031
298;95.11045837402344
299;94.54440307617188
300;93.98255157470703
301;93.42640686035156
302;92.87434387207031
303;92.32714080810547
304;91.7847900390625
305;91.24797821044922
306;90.71591186523438
307;90.18781280517578
308;89.66439819335938
309;89.14562225341797
310;88.63147735595703
311;88.12263488769531
312;87.61759948730469
313;87.11711883544922
314;86.62175750732422
315;86.13019561767578
316;85.64305114746094
317;85.16030883789062
318;84.681884765625
319;84.20779418945312
320;83.73860931396484
321;83.27304077148438
322;82.81172180175781
323;82.35458374023438
324;81.9021987915039
325;81.45392608642578
326;81.00918579101562
327;80.56905364990234
328;80.13296508789062
329;79.70083618164062
330;79.27268981933594
331;78.84848022460938
332;78.42766571044922
333;78.01123046875
334;77.59864807128906
335;77.18987274169922
336;76.78441619873047
337;76.38318634033203
338;75.9856948852539
339;75.59142303466797
340;75.2008285522461
341;74.81387329101562
342;74.43053436279297
343;74.05081939697266
344;73.67465209960938
345;73.30203247070312
346;72.93291473388672
347;72.56729888916016
348;72.20555114746094
349;71.84725189208984
350;71.49231719970703
351;71.14078521728516
352;70.79257202148438
353;70.44766235351562
354;70.10568237304688
355;69.76734161376953
356;69.43183135986328
357;69.0999526977539
358;68.77124786376953
359;68.4457015991211
360;68.12330627441406
361;67.80364227294922
362;67.48706817626953
363;67.17354583740234
364;66.86310577392578
365;66.55565643310547
366;66.25151824951172
367;65.95005798339844
368;65.65151977539062
369;65.35590362548828
370;65.06349182128906
371;64.77395629882812
372;64.48726654052734
373;64.20341491699219
374;63.92233657836914
375;63.64404296875
376;63.36850357055664
377;63.09567642211914
378;62.82529830932617
379;62.55786895751953
380;62.29309844970703
381;62.03098678588867
382;61.77146530151367
383;61.51455307006836
384;61.26021957397461
385;61.00844192504883
386;60.7589111328125
387;60.51190185546875
388;60.26737594604492
389;60.02534866333008
390;59.78575897216797
391;59.54883575439453
392;59.31409454345703
393;59.08172607421875
394;58.85172653198242
395;58.62431335449219
396;58.39923095703125
397;58.17642593383789
398;57.9559326171875
399;57.73769760131836
400;57.52168655395508
401;57.30792236328125
402;57.09636688232422
403;56.886966705322266
404;56.67953872680664
405;56.47428894042969
406;56.27116394042969
407;56.070133209228516
408;55.87119674682617
409;55.67436599731445
410;55.47957229614258
411;55.28682327270508
412;55.09629821777344
413;54.90775680541992
414;54.72101593017578
415;54.53624725341797
416;54.3536262512207
417;54.17274475097656
418;53.993953704833984
419;53.81707000732422
420;53.64189147949219
421;53.46855926513672
422;53.29726791381836
423;53.127628326416016
424;52.95979690551758
425;52.79393768310547
426;52.62984085083008
427;52.4675407409668
428;52.30695724487305
429;52.14795684814453
430;51.99067687988281
431;51.835121154785156
432;51.68122863769531
433;51.52901077270508
434;51.378440856933594
435;51.22952651977539
436;51.082374572753906
437;50.93680953979492
438;50.792728424072266
439;50.650211334228516
440;50.5092658996582
441;50.36984634399414
442;50.23212432861328
443;50.09588623046875
444;49.961185455322266
445;49.82785415649414
446;49.69598388671875
447;49.56568908691406
448;49.436710357666016
449;49.309329986572266
450;49.18332290649414
451;49.05876922607422
452;48.93559265136719
453;48.813777923583984
454;48.69334030151367
455;48.574249267578125
456;48.45649337768555
457;48.34009552001953
458;48.224884033203125
459;48.11107635498047
460;47.99856185913086
461;47.88732147216797
462;47.77732467651367
463;47.668609619140625
464;47.561119079589844
465;47.45487594604492
466;47.34981918334961
467;47.24596405029297
468;47.143333435058594
469;47.041839599609375
470;46.941471099853516
471;46.84223556518555
472;46.74414825439453
473;46.647274017333984
474;46.55149459838867
475;46.456790924072266
476;46.363182067871094
477;46.270633697509766
478;46.17925262451172
479;46.088871002197266
480;45.999637603759766
481;45.91132354736328
482;45.8240852355957
483;45.73793029785156
484;45.65278625488281
485;45.56857681274414
486;45.4853515625
487;45.403194427490234
488;45.32193374633789
489;45.241634368896484
490;45.16229248046875
491;45.083946228027344
492;45.006473541259766
493;44.92999267578125
494;44.85434341430664
495;44.779624938964844
496;44.705848693847656
497;44.632965087890625
498;44.56095504760742
499;44.48979187011719
500;44.4194221496582
501;44.349998474121094
502;44.28132247924805
503;44.21354675292969
504;44.146602630615234
505;44.08039093017578
506;44.01499557495117
507;43.95045471191406
508;43.88665008544922
509;43.823665618896484
510;43.76140213012695
511;43.69990539550781
512;43.63916778564453
513;43.579200744628906
514;43.51993942260742
515;43.46140670776367
516;43.40364074707031
517;43.34658432006836
518;43.29023742675781
519;43.234588623046875
520;43.179595947265625
521;43.125308990478516
522;43.07167053222656
523;43.01873779296875
524;42.96646499633789
525;42.91484069824219
526;42.86381530761719
527;42.81345748901367
528;42.763710021972656
529;42.71458053588867
530;42.66613006591797
531;42.61821746826172
532;42.57093811035156
533;42.5242805480957
534;42.47822952270508
535;42.432708740234375
536;42.38780212402344
537;42.34344482421875
538;42.29966735839844
539;42.25645446777344
540;42.213775634765625
541;42.17161178588867
542;42.1300163269043
543;42.0889778137207
544;42.04841613769531
545;42.0084228515625
546;41.96891784667969
547;41.92990493774414
548;41.89141845703125
549;41.85343551635742
550;41.81591796875
551;41.77890396118164
552;41.74238204956055
553;41.70634078979492
554;41.670753479003906
555;41.63563537597656
556;41.60094451904297
557;41.56672668457031
558;41.53297424316406
559;41.49964141845703
560;41.46674346923828
561;41.43427276611328
562;41.40226364135742
563;41.37063980102539
564;41.33943176269531
565;41.30864715576172
566;41.278282165527344
567;41.24831008911133
568;41.21873474121094
569;41.189537048339844
570;41.160762786865234
571;41.13234329223633
572;41.10429763793945
573;41.07664108276367
574;41.04932403564453
575;41.02241516113281
576;40.99586486816406
577;40.96965026855469
578;40.94377899169922
579;40.91825485229492
580;40.89308166503906
581;40.86823654174805
582;40.84376525878906
583;40.819580078125
584;40.79573059082031
585;40.77223587036133
586;40.749053955078125
587;40.72615051269531
588;40.70357131958008
589;40.68132019042969
590;40.65933609008789
591;40.63767623901367
592;40.6163215637207
593;40.59524917602539
594;40.57447052001953
595;40.55397033691406
596;40.533756256103516
597;40.513797760009766
598;40.494110107421875
599;40.47471618652344
600;40.455589294433594
601;40.43672180175781
602;40.41811752319336
603;40.39975357055664
604;40.38166046142578
605;40.36379623413086
606;40.34620666503906
607;40.32884216308594
608;40.31171798706055
609;40.29484558105469
610;40.278202056884766
611;40.261783599853516
612;40.24561309814453
613;40.229644775390625
614;40.213897705078125
615;40.198368072509766
616;40.18307113647461
617;40.167972564697266
618;40.15309143066406
619;40.1384391784668
620;40.123958587646484
621;40.10969924926758
622;40.09565734863281
623;40.08179473876953
624;40.068111419677734
625;40.05463790893555
626;40.04134750366211
627;40.02825164794922
628;40.01535415649414
629;40.002620697021484
630;39.99007797241211
631;39.97770690917969
632;39.96549987792969
633;39.95347595214844
634;39.94162368774414
635;39.92994689941406
636;39.91842269897461
637;39.90707778930664
638;39.895877838134766
639;39.88484191894531
640;39.87395477294922
641;39.86322021484375
642;39.85264587402344
643;39.842220306396484
644;39.83196258544922
645;39.821842193603516
646;39.81184768676758
647;39.80199432373047
648;39.792320251464844
649;39.782745361328125
650;39.773319244384766
651;39.7640380859375
652;39.75486755371094
653;39.74583435058594
654;39.73692321777344
655;39.7281608581543
656;39.71951675415039
657;39.710968017578125
658;39.70256423950195
659;39.69428634643555
660;39.68611145019531
661;39.67805480957031
662;39.67011260986328
663;39.66228103637695
664;39.654563903808594
665;39.6469612121582
666;39.63945770263672
667;39.632057189941406
668;39.624755859375
669;39.617576599121094
670;39.610496520996094
671;39.60350036621094
672;39.59660339355469
673;39.58980178833008
674;39.58311080932617
675;39.576499938964844
676;39.56998825073242
677;39.563560485839844
678;39.557220458984375
679;39.55097961425781
680;39.54480743408203
681;39.53874588012695
682;39.532737731933594
683;39.52683639526367
684;39.52097702026367
685;39.515220642089844
686;39.509552001953125
687;39.50394058227539
688;39.4984130859375
689;39.49295425415039
690;39.48756790161133
691;39.482242584228516
692;39.47700119018555
693;39.4718132019043
694;39.46669006347656
695;39.46164321899414
696;39.4566535949707
697;39.45174026489258
698;39.44687271118164
699;39.442054748535156
700;39.437313079833984
701;39.43260955810547
702;39.427974700927734
703;39.42338562011719
704;39.41884994506836
705;39.414363861083984
706;39.409915924072266
707;39.40553283691406
708;39.401180267333984
709;39.39689254760742
710;39.39261245727539
711;39.38838577270508
712;39.38420104980469
713;39.380062103271484
714;39.37594223022461
715;39.37186050415039
716;39.367820739746094
717;39.36378479003906
718;39.359779357910156
719;39.35581588745117
720;39.351871490478516
721;39.34793472290039
722;39.34401321411133
723;39.34010314941406
724;39.33620834350586
725;39.33230972290039
726;39.328433990478516
727;39.32455062866211
728;39.32065200805664
729;39.31676483154297
730;39.31284713745117
731;39.30892562866211
732;39.30497741699219
733;39.300987243652344
734;39.296974182128906
735;39.29291915893555
736;39.28881072998047
737;39.28464126586914
738;39.28040313720703
739;39.276084899902344
740;39.27168273925781
741;39.26716232299805
742;39.26254653930664
743;39.25777816772461
744;39.25284194946289
745;39.24773406982422
746;39.24242401123047
747;39.23689651489258
748;39.23109436035156
749;39.22498321533203
750;39.218528747558594
751;39.21167755126953
752;39.2043571472168
753;39.19649887084961
754;39.18800354003906
755;39.17880630493164
756;39.16872024536133
757;39.15761947631836
758;39.14533996582031
759;39.13160705566406
760;39.11617660522461
761;39.098663330078125
762;39.07865905761719
763;39.05562210083008
764;39.028865814208984
765;38.99759292602539
766;38.960723876953125
767;38.91701889038086
768;38.865074157714844
769;38.80332946777344
770;38.73017501831055
771;38.64460754394531
772;38.5462532043457
773;38.43653869628906
774;38.32079315185547
775;38.208988189697266
776;38.11601257324219
777;38.053775787353516
778;38.028160095214844
779;38.03586196899414
780;38.06312561035156
781;38.09203338623047
782;38.108585357666016
783;38.10468673706055
784;38.080047607421875
785;38.038970947265625
786;37.98796081542969
787;37.93452835083008
788;37.885650634765625
789;37.84624481201172
790;37.81782531738281
791;37.79953384399414
792;37.78840637207031
793;37.78076171875
794;37.77291488647461
795;37.76354217529297
796;37.74986267089844
797;37.73149871826172
798;37.70915985107422
799;37.68431091308594
800;37.658382415771484
801;37.6330451965332
802;37.60963439941406
803;37.588966369628906
804;37.57114791870117
805;37.5557975769043
806;37.54200744628906
807;37.52859878540039
808;37.514652252197266
809;37.499481201171875
810;37.482994079589844
811;37.46529006958008
812;37.44682693481445
813;37.42811965942383
814;37.40972900390625
815;37.392024993896484
816;37.3751335144043
817;37.358978271484375
818;37.3433837890625
819;37.3280143737793
820;37.31256866455078
821;37.296775817871094
822;37.28054428100586
823;37.263824462890625
824;37.246665954589844
825;37.22919845581055
826;37.2115478515625
827;37.19378662109375
828;37.17596435546875
829;37.15800476074219
830;37.139827728271484
831;37.12128448486328
832;37.1021614074707
833;37.08229446411133
834;37.06147766113281
835;37.039527893066406
836;37.01625061035156
837;36.991432189941406
838;36.96479415893555
839;36.93596649169922
840;36.90447235107422
841;36.86967468261719
842;36.83079528808594
843;36.786956787109375
844;36.73697280883789
845;36.67954635620117
846;36.61339569091797
847;36.53757858276367
848;36.451698303222656
849;36.35703659057617
850;36.2574348449707
851;36.15987014770508
852;36.07439041137695
853;36.010589599609375
854;35.97420120239258
855;35.96317672729492
856;35.966941833496094
857;35.97181701660156
858;35.966190338134766
859;35.94386291503906
860;35.90479278564453
861;35.85301971435547
862;35.7949104309082
863;35.736854553222656
864;35.68373107910156
865;35.63795471191406
866;35.59942626953125
867;35.566131591796875
868;35.535194396972656
869;35.50374984741211
870;35.4695930480957
871;35.43143081665039
872;35.38868713378906
873;35.34135055541992
874;35.289913177490234
875;35.235050201416016
876;35.17768478393555
877;35.11804962158203
878;35.0560302734375
879;34.99122619628906
880;34.922821044921875
881;34.8502311706543
882;34.772850036621094
883;34.69036102294922
884;34.603111267089844
885;34.51225662231445
886;34.41981887817383
887;34.328521728515625
888;34.24152374267578
889;34.16195297241211
890;34.09196090698242
891;34.03239440917969
892;33.98272705078125
893;33.94084167480469
894;33.903263092041016
895;33.86626052856445
896;33.82680130004883
897;33.78327178955078
898;33.73455047607422
899;33.68062973022461
900;33.62232208251953
901;33.56080627441406
902;33.49758529663086
903;33.433753967285156
904;33.37057113647461
905;33.3088264465332
906;33.24897003173828
907;33.19129180908203
908;33.135498046875
909;33.081790924072266
910;33.02922439575195
911;32.97676086425781
912;32.92380905151367
913;32.869441986083984
914;32.81309509277344
915;32.75548553466797
916;32.69810104370117
917;32.64107894897461
918;32.5836181640625
919;32.5262451171875
920;32.468048095703125
921;32.408626556396484
922;32.34805679321289
923;32.28590774536133
924;32.22152328491211
925;32.15393829345703
926;32.08210754394531
927;32.004730224609375
928;31.92095184326172
929;31.828542709350586
930;31.725303649902344
931;31.60985565185547
932;31.480464935302734
933;31.33997344970703
934;31.19771385192871
935;31.06494903564453
936;30.95760154724121
937;30.886064529418945
938;30.846181869506836
939;30.81812858581543
940;30.78165054321289
941;30.72566032409668
942;30.646623611450195
943;30.549203872680664
944;30.44091033935547
945;30.332275390625
946;30.234445571899414
947;30.15308952331543
948;30.084835052490234
949;30.02042579650879
950;29.952566146850586
951;29.87934112548828
952;29.80054473876953
953;29.716217041015625
954;29.62611198425293
955;29.53213882446289
956;29.439002990722656
957;29.350704193115234
958;29.267385482788086
959;29.18621063232422
960;29.10331153869629
961;29.017826080322266
962;28.929840087890625
963;28.835025787353516
964;28.73291015625
965;28.625043869018555
966;28.512962341308594
967;28.393789291381836
968;28.263351440429688
969;28.117271423339844
970;27.959875106811523
971;27.789152145385742
972;27.60861587524414
973;27.427818298339844
974;27.25601577758789
975;27.105010986328125
976;26.97372055053711
977;26.85478401184082
978;26.73624038696289
979;26.608488082885742
980;26.472896575927734
981;26.338911056518555
982;26.20759391784668
983;26.07591438293457
984;25.94925308227539
985;25.819265365600586
986;25.685165405273438
987;25.55560302734375
988;25.42561149597168
989;25.294254302978516
990;25.164039611816406
991;25.03862190246582
992;24.91570472717285
993;24.793636322021484
994;24.67320442199707
995;24.555036544799805
996;24.43744659423828
997;24.322345733642578
998;24.204004287719727
999;24.0843448638916
1000;23.961679458618164
1001;23.839590072631836
1002;23.7167911529541
1003;23.595497131347656
1004;23.47437286376953
1005;23.356651306152344
1006;23.241416931152344
1007;23.129247665405273
1008;23.018863677978516
1009;22.914871215820312
1010;22.812700271606445
1011;22.71713638305664
1012;22.627695083618164
1013;22.54100227355957
1014;22.453474044799805
1015;22.37578010559082
1016;22.294158935546875
1017;22.219038009643555
1018;22.140119552612305
1019;22.074119567871094
1020;22.002347946166992
1021;21.93598175048828
1022;21.869384765625
1023;21.806869506835938
1024;21.743825912475586
1025;21.678592681884766
1026;21.612268447875977
1027;21.546146392822266
1028;21.481128692626953
1029;21.415489196777344
1030;21.35059928894043
1031;21.28550910949707
1032;21.21936798095703
1033;21.154918670654297
1034;21.088565826416016
1035;21.022764205932617
1036;20.957313537597656
1037;20.891399383544922
1038;20.82512664794922
1039;20.75872230529785
1040;20.690881729125977
1041;20.625093460083008
1042;20.559289932250977
1043;20.49306297302246
1044;20.427793502807617
1045;20.3629150390625
1046;20.299936294555664
1047;20.23472785949707
1048;20.167428970336914
1049;20.09920883178711
1050;20.030715942382812
1051;19.96152687072754
1052;19.89081573486328
1053;19.81999969482422
1054;19.74787139892578
1055;19.675697326660156
1056;19.60387420654297
1057;19.530275344848633
1058;19.457679748535156
1059;19.384809494018555
1060;19.313817977905273
1061;19.239818572998047
1062;19.167173385620117
1063;19.09374237060547
1064;19.02251434326172
1065;18.949113845825195
1066;18.878570556640625
1067;18.804847717285156
1068;18.734371185302734
1069;18.66345977783203
1070;18.59355926513672
1071;18.523252487182617
1072;18.453914642333984
1073;18.384950637817383
1074;18.317707061767578
1075;18.24936866760254
1076;18.179290771484375
1077;18.10832977294922
1078;18.035913467407227
1079;17.95929527282715
1080;17.881071090698242
1081;17.797761917114258
1082;17.710046768188477
1083;17.61572265625
1084;17.514177322387695
1085;17.40364646911621
1086;17.28974151611328
1087;17.17429542541504
1088;17.062658309936523
1089;16.960147857666016
1090;16.86837387084961
1091;16.78761100769043
1092;16.71173095703125
1093;16.652877807617188
1094;16.591384887695312
1095;16.523340225219727
1096;16.45820426940918
1097;16.386262893676758
1098;16.313039779663086
1099;16.237802505493164
1100;16.16303253173828
1101;16.09151268005371
1102;16.025474548339844
1103;15.963385581970215
1104;15.901750564575195
1105;15.84273910522461
1106;15.78173828125
1107;15.720491409301758
1108;15.660324096679688
1109;15.601008415222168
1110;15.542170524597168
1111;15.486136436462402
1112;15.431415557861328
1113;15.377554893493652
1114;15.32490062713623
1115;15.273310661315918
1116;15.224853515625
1117;15.17577075958252
1118;15.126506805419922
1119;15.079340934753418
1120;15.031914710998535
1121;14.984137535095215
1122;14.938766479492188
1123;14.89361572265625
1124;14.847854614257812
1125;14.8033447265625
1126;14.759319305419922
1127;14.715484619140625
1128;14.67249870300293
1129;14.629398345947266
1130;14.588114738464355
1131;14.547236442565918
1132;14.506244659423828
1133;14.46648120880127
1134;14.426191329956055
1135;14.38802719116211
1136;14.349864959716797
1137;14.311206817626953
1138;14.27330207824707
1139;14.234769821166992
1140;14.196850776672363
1141;14.15966796875
1142;14.122381210327148
1143;14.086310386657715
1144;14.04927921295166
1145;14.011882781982422
1146;13.976937294006348
1147;13.940624237060547
1148;13.904290199279785
1149;13.868888854980469
1150;13.831623077392578
1151;13.79641342163086
1152;13.76120662689209
1153;13.72397232055664
1154;13.68833065032959
1155;13.651235580444336
1156;13.614720344543457
1157;13.57891845703125
1158;13.541379928588867
1159;13.50395679473877
1160;13.467222213745117
1161;13.429361343383789
1162;13.391195297241211
1163;13.352986335754395
1164;13.31459903717041
1165;13.276515007019043
1166;13.237555503845215
1167;13.198233604431152
1168;13.158305168151855
1169;13.11802864074707
1170;13.077363967895508
1171;13.035887718200684
1172;12.994270324707031
1173;12.95120906829834
1174;12.909095764160156
1175;12.86511516571045
1176;12.821674346923828
1177;12.778093338012695
1178;12.734795570373535
1179;12.691360473632812
1180;12.647327423095703
1181;12.601869583129883
1182;12.556095123291016
1183;12.509688377380371
1184;12.462430953979492
1185;12.41482925415039
1186;12.3673095703125
1187;12.319561958312988
1188;12.273223876953125
1189;12.22609806060791
1190;12.178339958190918
1191;12.130572319030762
1192;12.081449508666992
1193;12.03309440612793
1194;11.98369026184082
1195;11.934372901916504
1196;11.884259223937988
1197;11.835683822631836
1198;11.785466194152832
1199;11.733659744262695
1200;11.681861877441406
1201;11.629481315612793
1202;11.576354026794434
1203;11.522133827209473
1204;11.4682035446167
1205;11.41596794128418
1206;11.367640495300293
1207;11.317991256713867
1208;11.26486587524414
1209;11.218914031982422
1210;11.172988891601562
1211;11.11709976196289
1212;11.076518058776855
1213;11.041974067687988
1214;10.978249549865723
1215;10.985054016113281
1216;11.021003723144531
1217;11.053802490234375
1218;10.977636337280273
1219;10.871131896972656
1220;10.829193115234375
1221;10.87157154083252
1222;10.744175910949707
1223;10.722527503967285
1224;10.72586441040039
1225;10.690669059753418
1226;10.597770690917969
1227;10.606081008911133
1228;10.593423843383789
1229;10.668449401855469
1230;10.66222858428955
1231;10.558694839477539
1232;10.47819709777832
1233;10.500996589660645
1234;10.509309768676758
1235;10.413989067077637
1236;10.354377746582031
1237;10.354930877685547
1238;10.351959228515625
1239;10.304917335510254
1240;10.249326705932617
1241;10.232192039489746
1242;10.233107566833496
1243;10.195191383361816
1244;10.148252487182617
1245;10.131270408630371
1246;10.121353149414062
1247;10.092138290405273
1248;10.053534507751465
1249;10.030670166015625
1250;10.020450592041016
1251;9.99283504486084
1252;9.95954704284668
1253;9.940768241882324
1254;9.92538833618164
1255;9.898969650268555
1256;9.869942665100098
1257;9.851008415222168
1258;9.834087371826172
1259;9.807491302490234
1260;9.784016609191895
1261;9.766852378845215
1262;9.745683670043945
1263;9.72036361694336
1264;9.698637008666992
1265;9.678926467895508
1266;9.653850555419922
1267;9.622703552246094
1268;9.538814544677734
1269;10.789651870727539
1270;10.502607345581055
1271;9.928230285644531
1272;10.245586395263672
1273;9.40936279296875
1274;10.893866539001465
1275;12.451494216918945
1276;9.282882690429688
1277;17.482791900634766
1278;10.273636817932129
1279;9.513733863830566
1280;10.252166748046875
1281;9.797449111938477
1282;9.833823204040527
1283;9.818424224853516
1284;9.801554679870605
1285;9.797403335571289
1286;9.798128128051758
1287;9.781891822814941
1288;9.723377227783203
1289;9.628911018371582
1290;9.529295921325684
1291;9.459920883178711
1292;9.427826881408691
1293;9.424516677856445
1294;9.434425354003906
1295;9.443756103515625
1296;9.445588111877441
1297;9.441701889038086
1298;9.432418823242188
1299;9.414416313171387
1300;9.386533737182617
1301;9.350007057189941
1302;9.31318473815918
1303;9.27920150756836
1304;9.251293182373047
1305;9.230823516845703
1306;9.216439247131348
1307;9.206470489501953
1308;9.197956085205078
1309;9.188915252685547
1310;9.17843246459961
1311;9.165706634521484
1312;9.150472640991211
1313;9.132930755615234
1314;9.114044189453125
1315;9.094995498657227
1316;9.076797485351562
1317;9.060637474060059
1318;9.046395301818848
1319;9.03328800201416
1320;9.02099609375
1321;9.009354591369629
1322;8.997730255126953
1323;8.98578929901123
1324;8.97384262084961
1325;8.96100902557373
1326;8.948145866394043
1327;8.935430526733398
1328;8.922868728637695
1329;8.910604476928711
1330;8.898816108703613
1331;8.887412071228027
1332;8.876338958740234
1333;8.865438461303711
1334;8.854541778564453
1335;8.843547821044922
1336;8.832439422607422
1337;8.82126235961914
1338;8.81008529663086
1339;8.7989501953125
1340;8.787887573242188
1341;8.776972770690918
1342;8.76620864868164
1343;8.75599479675293
1344;8.746028900146484
1345;8.736124992370605
1346;8.726164817810059
1347;8.716217994689941
1348;8.70630931854248
1349;8.696418762207031
1350;8.686541557312012
1351;8.676836013793945
1352;8.667275428771973
1353;8.657805442810059
1354;8.648444175720215
1355;8.639153480529785
1356;8.62986946105957
1357;8.620624542236328
1358;8.611445426940918
1359;8.602417945861816
1360;8.593456268310547
1361;8.58453369140625
1362;8.575751304626465
1363;8.56700325012207
1364;8.558258056640625
1365;8.54952335357666
1366;8.5408935546875
1367;8.532445907592773
1368;8.52405071258545
1369;8.515642166137695
1370;8.507238388061523
1371;8.498833656311035
1372;8.490467071533203
1373;8.482237815856934
1374;8.474066734313965
1375;8.465923309326172
1376;8.457803726196289
1377;8.44969654083252
1378;8.441605567932129
1379;8.433572769165039
1380;8.425576210021973
1381;8.417603492736816
1382;8.409666061401367
1383;8.401773452758789
1384;8.39394474029541
1385;8.386146545410156
1386;8.37836742401123
1387;8.37063980102539
1388;8.362950325012207
1389;8.355302810668945
1390;8.34770679473877
1391;8.340132713317871
1392;8.332588195800781
1393;8.3250732421875
1394;8.317584991455078
1395;8.310154914855957
1396;8.30276107788086
1397;8.295394897460938
1398;8.288077354431152
1399;8.28078556060791
1400;8.273530960083008
1401;8.266277313232422
1402;8.259076118469238
1403;8.251908302307129
1404;8.24476146697998
1405;8.23763656616211
1406;8.23055648803711
1407;8.223504066467285
1408;8.216468811035156
1409;8.209458351135254
1410;8.202471733093262
1411;8.195513725280762
1412;8.188606262207031
1413;8.181693077087402
1414;8.174825668334961
1415;8.167962074279785
1416;8.161157608032227
1417;8.15439224243164
1418;8.147690773010254
1419;8.141008377075195
1420;8.134368896484375
1421;8.127744674682617
1422;8.12115478515625
1423;8.114584922790527
1424;8.108036041259766
1425;8.10151195526123
1426;8.09500503540039
1427;8.088522911071777
1428;8.082056999206543
1429;8.0756254196167
1430;8.06920051574707
1431;8.062807083129883
1432;8.056442260742188
1433;8.050084114074707
1434;8.04373836517334
1435;8.037396430969238
1436;8.031065940856934
1437;8.024779319763184
1438;8.018499374389648
1439;8.012236595153809
1440;8.005992889404297
1441;7.999755859375
1442;7.993526935577393
1443;7.987311363220215
1444;7.981119632720947
1445;7.974947452545166
1446;7.968771934509277
1447;7.962608337402344
1448;7.956457138061523
1449;7.950319766998291
1450;7.944184303283691
1451;7.93806791305542
1452;7.9319610595703125
1453;7.925849914550781
1454;7.91975736618042
1455;7.913668155670166
1456;7.907581806182861
1457;7.901517391204834
1458;7.895457744598389
1459;7.889415264129639
1460;7.8833770751953125
1461;7.877338886260986
1462;7.871317386627197
1463;7.86530065536499
1464;7.85927677154541
1465;7.853273391723633
1466;7.847280025482178
1467;7.841283321380615
1468;7.83530330657959
1469;7.829319477081299
1470;7.823361873626709
1471;7.817419052124023
1472;7.811493873596191
1473;7.805594444274902
1474;7.79969596862793
1475;7.793797016143799
1476;7.78790283203125
1477;7.782016277313232
1478;7.776124000549316
1479;7.770255088806152
1480;7.764372825622559
1481;7.758486270904541
1482;7.75263786315918
1483;7.746776103973389
1484;7.7409186363220215
1485;7.7350592613220215
1486;7.729216575622559
1487;7.723365783691406
1488;7.717493057250977
1489;7.71161413192749
1490;7.705732345581055
1491;7.699858665466309
1492;7.693962097167969
1493;7.688093185424805
1494;7.682217121124268
1495;7.676322937011719
1496;7.670434951782227
1497;7.664540767669678
1498;7.658647537231445
1499;7.65273380279541
1500;7.646823406219482
1501;7.640897274017334
1502;7.6349616050720215
1503;7.62901496887207
1504;7.623063087463379
1505;7.617101669311523
1506;7.611135005950928
1507;7.605172157287598
1508;7.59920597076416
1509;7.593229293823242
1510;7.587247848510742
1511;7.581268310546875
1512;7.575582027435303
1513;7.5698981285095215
1514;7.56427526473999
1515;7.558752059936523
1516;7.553280353546143
1517;7.547842025756836
1518;7.54237699508667
1519;7.536876201629639
1520;7.531354904174805
1521;7.525809288024902
1522;7.520243167877197
1523;7.51466178894043
1524;7.509061813354492
1525;7.5034308433532715
1526;7.497809410095215
1527;7.49222469329834
1528;7.486602783203125
1529;7.480957984924316
1530;7.47531795501709
1531;7.469616413116455
1532;7.46390438079834
1533;7.4582061767578125
1534;7.452559471130371
1535;7.446865558624268
1536;7.441103458404541
1537;7.435275554656982
1538;7.429405212402344
1539;7.423533916473389
1540;7.417591571807861
1541;7.41155481338501
1542;7.405457496643066
1543;7.399251937866211
1544;7.39288854598999
1545;7.386349201202393
1546;7.379613399505615
1547;7.3726067543029785
1548;7.3651885986328125
1549;7.357059001922607
1550;7.3479437828063965
1551;7.337069034576416
1552;7.32263708114624
1553;7.2934112548828125
1554;7.112422466278076
1555;8.41779899597168
1556;8.302371978759766
1557;7.429413795471191
1558;9.010541915893555
1559;8.749249458312988
1560;7.4080023765563965
1561;7.38555908203125
1562;8.145801544189453
1563;7.630688190460205
1564;7.56597900390625
1565;7.489738464355469
1566;7.49356746673584
1567;7.555295467376709
1568;7.621527671813965
1569;7.638552188873291
1570;7.5901336669921875
1571;7.50499963760376
1572;7.426113605499268
1573;7.388894081115723
1574;7.399144649505615
1575;7.4306488037109375
1576;7.445098876953125
1577;7.423948287963867
1578;7.378471374511719
1579;7.33210563659668
1580;7.300995826721191
1581;7.286005020141602
1582;7.279918193817139
1583;7.270039081573486
1584;7.248546123504639
1585;7.21764612197876
1586;7.186398983001709
1587;7.163719177246094
1588;7.151994705200195
1589;7.146642684936523
1590;7.140474796295166
1591;7.127266883850098
1592;7.107526779174805
1593;7.086852073669434
1594;7.0713791847229
1595;7.062211990356445
1596;7.053177356719971
1597;7.037652969360352
1598;7.0165276527404785
1599;6.99586296081543
1600;6.979133605957031
1601;6.963972091674805
1602;6.9464311599731445
1603;6.924638748168945
1604;6.899525165557861
1605;6.873287200927734
1606;6.847092628479004
1607;6.820374965667725
1608;6.791621685028076
1609;6.7597336769104
1610;6.724836349487305
1611;6.6879448890686035
1612;6.64996862411499
1613;6.611851215362549
1614;6.57386589050293
1615;6.535705089569092
1616;6.497506618499756
1617;6.4597883224487305
1618;6.423315525054932
1619;6.388873100280762
1620;6.356814861297607
1621;6.32714319229126
1622;6.2994914054870605
1623;6.273569583892822
1624;6.24906587600708
1625;6.22601318359375
1626;6.204667091369629
1627;6.18480920791626
1628;6.165925979614258
1629;6.147577285766602
1630;6.129384994506836
1631;6.111293315887451
1632;6.093405723571777
1633;6.076425552368164
1634;6.06138801574707
1635;6.045819282531738
1636;6.02853536605835
1637;6.01340913772583
1638;5.999043941497803
1639;5.98369836807251
1640;5.967684268951416
1641;5.9525346755981445
1642;5.93869686126709
1643;5.923843860626221
1644;5.908864974975586
1645;5.8947296142578125
1646;5.880950450897217
1647;5.867177963256836
1648;5.8535003662109375
1649;5.840524673461914
1650;5.828237533569336
1651;5.815797805786133
1652;5.803454875946045
1653;5.791584014892578
1654;5.780004978179932
1655;5.768551349639893
1656;5.757148265838623
1657;5.7459330558776855
1658;5.734986305236816
1659;5.724230766296387
1660;5.7135419845581055
1661;5.702963829040527
1662;5.692584991455078
1663;5.6824469566345215
1664;5.672513008117676
1665;5.662664413452148
1666;5.652928829193115
1667;5.64338493347168
1668;5.634020805358887
1669;5.624759197235107
1670;5.61564826965332
1671;5.606687068939209
1672;5.597867965698242
1673;5.5892229080200195
1674;5.58070707321167
1675;5.57228422164917
1676;5.563975811004639
1677;5.555783748626709
1678;5.547725200653076
1679;5.539757251739502
1680;5.531883716583252
1681;5.5240912437438965
1682;5.516407489776611
1683;5.50881814956665
1684;5.501310348510742
1685;5.493910789489746
1686;5.4865522384643555
1687;5.479280471801758
1688;5.472118854522705
1689;5.465016841888428
1690;5.458002090454102
1691;5.451084136962891
1692;5.444190502166748
1693;5.437340259552002
1694;5.430597305297852
1695;5.423904895782471
1696;5.4172682762146
1697;5.410702228546143
1698;5.40411376953125
1699;5.39766263961792
1700;5.391244411468506
1701;5.384850978851318
1702;5.378529071807861
1703;5.37225341796875
1704;5.366016387939453
1705;5.359825611114502
1706;5.353677749633789
1707;5.347578048706055
1708;5.341521263122559
1709;5.335512161254883
1710;5.329578399658203
1711;5.32368803024292
1712;5.3178324699401855
1713;5.311999797821045
1714;5.3062262535095215
1715;5.300460338592529
1716;5.2947564125061035
1717;5.289087772369385
1718;5.283437728881836
1719;5.277830123901367
1720;5.272249221801758
1721;5.266678333282471
1722;5.261153697967529
1723;5.255650043487549
1724;5.250171184539795
1725;5.244705677032471
1726;5.239256858825684
1727;5.233854293823242
1728;5.228481769561768
1729;5.223104476928711
1730;5.217745304107666
1731;5.212411880493164
1732;5.207094192504883
1733;5.20180082321167
1734;5.196512222290039
1735;5.191244125366211
1736;5.185998439788818
1737;5.180745601654053
1738;5.175522327423096
1739;5.170337200164795
1740;5.165286540985107
1741;5.1611247062683105
1742;5.155048847198486
1743;5.1502485275268555
1744;5.145601749420166
1745;5.145702362060547
1746;5.142566204071045
1747;5.137176036834717
1748;5.1311516761779785
1749;5.123557090759277
1750;5.155324459075928
1751;5.258366107940674
1752;5.486618995666504
1753;5.576693534851074
1754;5.564043045043945
1755;5.529233932495117
1756;5.479396820068359
1757;5.411090850830078
1758;5.339359760284424
1759;5.2835612297058105
1760;5.248278617858887
1761;5.227578163146973
1762;5.218059539794922
1763;5.2146406173706055
1764;5.213101863861084
1765;5.210073947906494
1766;5.205257892608643
1767;5.199268341064453
1768;5.19153356552124
1769;5.180544853210449
1770;5.1663312911987305
1771;5.148326396942139
1772;5.126803398132324
1773;5.104658603668213
1774;5.0841217041015625
1775;5.067089557647705
1776;5.054363250732422
1777;5.046186447143555
1778;5.0409111976623535
1779;5.03708553314209
1780;5.033361434936523
1781;5.028248310089111
1782;5.019843101501465
1783;5.0076518058776855
1784;4.993282318115234
1785;4.979730606079102
1786;4.969264507293701
1787;4.96193790435791
1788;4.956419944763184
1789;4.95109748840332
1790;4.944858551025391
1791;4.93769645690918
1792;4.93035364151001
1793;4.923173427581787
1794;4.9159955978393555
1795;4.908285140991211
1796;4.89980411529541
1797;4.890920162200928
1798;4.88206672668457
1799;4.873481750488281
1800;4.8652424812316895
1801;4.8570942878723145
1802;4.848955154418945
1803;4.840753555297852
1804;4.832113265991211
1805;4.822789669036865
1806;4.812734603881836
1807;4.802324295043945
1808;4.791849136352539
1809;4.7814555168151855
1810;4.771141529083252
1811;4.760671615600586
1812;4.750223159790039
1813;4.73990535736084
1814;4.729867935180664
1815;4.72012996673584
1816;4.7105536460876465
1817;4.7011308670043945
1818;4.691956043243408
1819;4.6830620765686035
1820;4.674468517303467
1821;4.666143417358398
1822;4.658053398132324
1823;4.6502532958984375
1824;4.642567157745361
1825;4.634932994842529
1826;4.627360820770264
1827;4.619749546051025
1828;4.612146854400635
1829;4.604483127593994
1830;4.596843719482422
1831;4.589240074157715
1832;4.581600666046143
1833;4.573999881744385
1834;4.566429138183594
1835;4.558962345123291
1836;4.551641464233398
1837;4.54425573348999
1838;4.536837577819824
1839;4.5293684005737305
1840;4.522017478942871
1841;4.514655590057373
1842;4.507279872894287
1843;4.4999098777771
1844;4.492574214935303
1845;4.485288619995117
1846;4.478000164031982
1847;4.47072696685791
1848;4.463522911071777
1849;4.456489086151123
1850;4.449430465698242
1851;4.4423370361328125
1852;4.435322284698486
1853;4.428298473358154
1854;4.421413898468018
1855;4.414547443389893
1856;4.407695770263672
1857;4.400808811187744
1858;4.3939032554626465
1859;4.387099742889404
1860;4.380319595336914
1861;4.373536109924316
1862;4.366830825805664
1863;4.36015510559082
1864;4.353518962860107
1865;4.346955299377441
1866;4.3404221534729
1867;4.333896636962891
1868;4.327406883239746
1869;4.32096529006958
1870;4.314545631408691
1871;4.3081440925598145
1872;4.301835536956787
1873;4.295494079589844
1874;4.289242267608643
1875;4.283019542694092
1876;4.276814937591553
1877;4.270628929138184
1878;4.264462471008301
1879;4.258331298828125
1880;4.252223968505859
1881;4.246148109436035
1882;4.240103721618652
1883;4.234113693237305
1884;4.228147029876709
1885;4.222233295440674
1886;4.216360092163086
1887;4.210526943206787
1888;4.204698085784912
1889;4.198906421661377
1890;4.193121433258057
1891;4.187366485595703
1892;4.181630611419678
1893;4.175957679748535
1894;4.170280933380127
1895;4.164645195007324
1896;4.159059047698975
1897;4.153517246246338
1898;4.147972583770752
1899;4.142449378967285
1900;4.1369524002075195
1901;4.131474494934082
1902;4.1260175704956055
1903;4.120645523071289
1904;4.11523962020874
1905;4.109830856323242
1906;4.104480266571045
1907;4.099146842956543
1908;4.0938334465026855
1909;4.088534832000732
1910;4.083253860473633
1911;4.077981948852539
1912;4.072731018066406
1913;4.06751823425293
1914;4.062304973602295
1915;4.05711555480957
1916;4.0519514083862305
1917;4.046823501586914
1918;4.041722297668457
1919;4.0366082191467285
1920;4.0315046310424805
1921;4.026454448699951
1922;4.021407604217529
1923;4.016367435455322
1924;4.011414527893066
1925;4.0063958168029785
1926;4.001420974731445
1927;3.9965009689331055
1928;3.9915754795074463
1929;3.9866514205932617
1930;3.9817559719085693
1931;3.976884603500366
1932;3.9720137119293213
1933;3.9671483039855957
1934;3.962306499481201
1935;3.9574978351593018
1936;3.952802896499634
1937;3.948018789291382
1938;3.943207263946533
1939;3.938502311706543
1940;3.9338018894195557
1941;3.929107189178467
1942;3.9244189262390137
1943;3.9197442531585693
1944;3.915083169937134
1945;3.9104597568511963
1946;3.905878782272339
1947;3.9012374877929688
1948;3.8966569900512695
1949;3.8921139240264893
1950;3.8875813484191895
1951;3.883049964904785
1952;3.8785226345062256
1953;3.8740017414093018
1954;3.869501829147339
1955;3.8650381565093994
1956;3.860548734664917
1957;3.8560774326324463
1958;3.85172438621521
1959;3.84731125831604
1960;3.8428730964660645
1961;3.8385140895843506
1962;3.8341474533081055
1963;3.82979416847229
1964;3.8254683017730713
1965;3.8211374282836914
1966;3.816826343536377
1967;3.812527894973755
1968;3.808238983154297
1969;3.80405592918396
1970;3.799795389175415
1971;3.795530080795288
1972;3.7913272380828857
1973;3.787144660949707
1974;3.7829670906066895
1975;3.778803586959839
1976;3.7746477127075195
1977;3.7705068588256836
1978;3.76637601852417
1979;3.762253999710083
1980;3.7581470012664795
1981;3.754159688949585
1982;3.750081777572632
1983;3.7459683418273926
1984;3.7419543266296387
1985;3.737946033477783
1986;3.733947277069092
1987;3.72995924949646
1988;3.725985288619995
1989;3.722010612487793
1990;3.7180562019348145
1991;3.71411395072937
1992;3.710198402404785
1993;3.706267833709717
1994;3.7023985385894775
1995;3.69852876663208
1996;3.694676399230957
1997;3.69081449508667
1998;3.686997413635254
1999;3.6831822395324707
