;loss
0;1323.60791015625
1;1321.7701416015625
2;1320.1768798828125
3;1318.294677734375
4;1316.3765869140625
5;1314.498046875
6;1312.481201171875
7;1310.3983154296875
8;1308.2373046875
9;1305.9847412109375
10;1303.625732421875
11;1301.14404296875
12;1298.5213623046875
13;1295.7276611328125
14;1292.742919921875
15;1289.5411376953125
16;1286.11962890625
17;1282.425048828125
18;1278.4202880859375
19;1274.0172119140625
20;1269.25244140625
21;1264.0272216796875
22;1258.20654296875
23;1251.7633056640625
24;1244.686767578125
25;1236.69775390625
26;1227.8468017578125
27;1217.759765625
28;1206.334716796875
29;1193.487060546875
30;1178.6181640625
31;1161.5150146484375
32;1141.75732421875
33;1118.86083984375
34;1092.6138916015625
35;1061.876708984375
36;1026.47802734375
37;986.2307739257812
38;941.4800415039062
39;893.4906616210938
40;844.671142578125
41;798.7857055664062
42;758.50390625
43;725.3798217773438
44;699.8604125976562
45;680.613037109375
46;665.372314453125
47;653.1041870117188
48;642.657958984375
49;633.3864135742188
50;624.8421630859375
51;616.9161376953125
52;609.4596557617188
53;602.3672485351562
54;595.635009765625
55;589.102783203125
56;582.7978515625
57;576.7393798828125
58;570.804443359375
59;565.0682373046875
60;559.4660034179688
61;553.9478759765625
62;548.556640625
63;543.2882690429688
64;538.1488647460938
65;533.1781616210938
66;528.2981567382812
67;523.5403442382812
68;518.9046630859375
69;514.4198608398438
70;510.02197265625
71;505.7625732421875
72;501.57513427734375
73;497.48046875
74;493.4967956542969
75;489.5660705566406
76;485.73138427734375
77;481.9388122558594
78;478.2078552246094
79;474.5559997558594
80;470.9354248046875
81;467.3648986816406
82;463.841796875
83;460.3636474609375
84;456.9284973144531
85;453.55322265625
86;450.21685791015625
87;446.8999938964844
88;443.6373596191406
89;440.39263916015625
90;437.1824035644531
91;434.0057373046875
92;430.86163330078125
93;427.7494201660156
94;424.6836853027344
95;421.6325988769531
96;418.61126708984375
97;415.6187744140625
98;412.65478515625
99;409.7184753417969
100;406.8094482421875
101;403.9270324707031
102;401.0841064453125
103;398.26654052734375
104;395.461181640625
105;392.6808166503906
106;389.9368591308594
107;387.2167053222656
108;384.5080261230469
109;381.8226623535156
110;379.1600341796875
111;376.53094482421875
112;373.912841796875
113;371.3165283203125
114;368.7417297363281
115;366.1879577636719
116;363.6550598144531
117;361.15277099609375
118;358.6606140136719
119;356.1885681152344
120;353.73614501953125
121;351.30328369140625
122;348.89874267578125
123;346.5130310058594
124;344.1458740234375
125;341.7881774902344
126;339.4574279785156
127;337.14453125
128;334.8409729003906
129;332.55499267578125
130;330.28643798828125
131;328.0350646972656
132;325.80859375
133;323.5910949707031
134;321.3902587890625
135;319.20587158203125
136;317.0451354980469
137;314.8931579589844
138;312.75714111328125
139;310.63690185546875
140;308.5323486328125
141;306.4432067871094
142;304.36944580078125
143;302.3108825683594
144;300.267333984375
145;298.2451477050781
146;296.2375793457031
147;294.23828125
148;292.2533874511719
149;290.2890319824219
150;288.33270263671875
151;286.3904113769531
152;284.46221923828125
153;282.54779052734375
154;280.6470947265625
155;278.7655944824219
156;276.8919677734375
157;275.0317077636719
158;273.1847229003906
159;271.3508605957031
160;269.530029296875
161;267.7221984863281
162;265.9271545410156
163;264.14483642578125
164;262.3751220703125
165;260.6228332519531
166;258.87811279296875
167;257.1504211425781
168;255.43023681640625
169;253.72219848632812
170;252.02615356445312
171;250.34210205078125
172;248.6698455810547
173;247.00946044921875
174;245.36505126953125
175;243.7278594970703
176;242.10226440429688
177;240.48806762695312
178;238.88525390625
179;237.293701171875
180;235.71334838867188
181;234.14404296875
182;232.58583068847656
183;231.03857421875
184;229.50604248046875
185;227.98040771484375
186;226.4655303955078
187;224.96498107910156
188;223.47134399414062
189;221.9917449951172
190;220.51898193359375
191;219.0565948486328
192;217.6044921875
193;216.16259765625
194;214.7308349609375
195;213.31243896484375
196;211.90077209472656
197;210.50225830078125
198;209.11354064941406
199;207.73146057128906
200;206.35914611816406
201;204.99647521972656
202;203.64341735839844
203;202.29991149902344
204;200.96591186523438
205;199.64427185058594
206;198.32904052734375
207;197.02313232421875
208;195.729248046875
209;194.44451904296875
210;193.1661376953125
211;191.89683532714844
212;190.63917541503906
213;189.39044189453125
214;188.15054321289062
215;186.91690063476562
216;185.6945343017578
217;184.47837829589844
218;183.27085876464844
219;182.07443237304688
220;180.88414001464844
221;179.70469665527344
222;178.5336456298828
223;177.37098693847656
224;176.21661376953125
225;175.06826782226562
226;173.92816162109375
227;172.79624938964844
228;171.67465209960938
229;170.56109619140625
230;169.45553588867188
231;168.35586547851562
232;167.26409912109375
233;166.1822967529297
234;165.10626220703125
235;164.03802490234375
236;162.97752380371094
237;161.9247589111328
238;160.8815460205078
239;159.8459014892578
240;158.81593322753906
241;157.79344177246094
242;156.7783966064453
243;155.7708282470703
244;154.77059936523438
245;153.7794647216797
246;152.79383850097656
247;151.8171844482422
248;150.84597778320312
249;149.88194274902344
250;148.92665100097656
251;147.97842407226562
252;147.0371551513672
253;146.10284423828125
254;145.17543029785156
255;144.25332641601562
256;143.33802795410156
257;142.43112182617188
258;141.52940368652344
259;140.63441467285156
260;139.74612426757812
261;138.8659210205078
262;137.99087524414062
263;137.1223907470703
264;136.26040649414062
265;135.4049072265625
266;134.5572509765625
267;133.71458435058594
268;132.87960815429688
269;132.0496368408203
270;131.22723388671875
271;130.40975952148438
272;129.59848022460938
273;128.7933349609375
274;127.99433135986328
275;127.20143127441406
276;126.41452026367188
277;125.6336669921875
278;124.8587646484375
279;124.08980560302734
280;123.32671356201172
281;122.56952667236328
282;121.81809997558594
283;121.072509765625
284;120.33267211914062
285;119.59849548339844
286;118.87006378173828
287;118.14828491210938
288;117.43212890625
289;116.72047424316406
290;116.01435089111328
291;115.31473541259766
292;114.62057495117188
293;113.93087005615234
294;113.24649810791016
295;112.56751251220703
296;111.89385223388672
297;111.22547149658203
298;110.56237030029297
299;109.90543365478516
300;109.25365447998047
301;108.60609436035156
302;107.964599609375
303;107.3281478881836
304;106.69585418701172
305;106.06949615478516
306;105.44810485839844
307;104.8316650390625
308;104.22013092041016
309;103.61264038085938
310;103.0108642578125
311;102.41304016113281
312;101.82086944580078
313;101.23345184326172
314;100.65072631835938
315;100.07272338867188
316;99.4986343383789
317;98.9291763305664
318;98.36434173583984
319;97.80409240722656
320;97.24909973144531
321;96.69795989990234
322;96.15128326416016
323;95.60977935791016
324;95.07270050048828
325;94.53932189941406
326;94.01034545898438
327;93.48571014404297
328;92.96539306640625
329;92.45001983642578
330;91.9382553100586
331;91.43136596679688
332;90.92803192138672
333;90.42887878417969
334;89.93390655517578
335;89.44300842285156
336;88.95622253417969
337;88.47412109375
338;87.99542999267578
339;87.520751953125
340;87.0500717163086
341;86.58334350585938
342;86.12055969238281
343;85.66165161132812
344;85.20718383789062
345;84.75656127929688
346;84.30975341796875
347;83.86671447753906
348;83.42743682861328
349;82.99139404296875
350;82.55906677246094
351;82.13092803955078
352;81.70647430419922
353;81.28564453125
354;80.86791229248047
355;80.45426177978516
356;80.044189453125
357;79.63716125488281
358;79.2336654663086
359;78.8336181640625
360;78.43709564208984
361;78.04397583007812
362;77.65428161621094
363;77.26797485351562
364;76.885498046875
365;76.50633239746094
366;76.13048553466797
367;75.75790405273438
368;75.38861846923828
369;75.02216339111328
370;74.65933227539062
371;74.2992935180664
372;73.94284057617188
373;73.58914184570312
374;73.23855590820312
375;72.89112091064453
376;72.5467300415039
377;72.20543670654297
378;71.86717987060547
379;71.53192138671875
380;71.19969940185547
381;70.87042999267578
382;70.54413604736328
383;70.22074127197266
384;69.90028381347656
385;69.58271789550781
386;69.26802062988281
387;68.9561538696289
388;68.64744567871094
389;68.34154510498047
390;68.03842163085938
391;67.73772430419922
392;67.44009399414062
393;67.14486694335938
394;66.85233306884766
395;66.56280517578125
396;66.2756118774414
397;65.99105834960938
398;65.70915222167969
399;65.42981719970703
400;65.153076171875
401;64.87889099121094
402;64.60726165771484
403;64.338134765625
404;64.0715103149414
405;63.80738067626953
406;63.54596710205078
407;63.2869873046875
408;63.03042221069336
409;62.77627182006836
410;62.52451705932617
411;62.27510452270508
412;62.02804946899414
413;61.7830810546875
414;61.54042053222656
415;61.30006408691406
416;61.06198501586914
417;60.82615280151367
418;60.59257125854492
419;60.36121368408203
420;60.13206481933594
421;59.90509796142578
422;59.6802978515625
423;59.45787811279297
424;59.23756790161133
425;59.01920700073242
426;58.80311584472656
427;58.58911895751953
428;58.37718200683594
429;58.16709518432617
430;57.95905303955078
431;57.75321578979492
432;57.54918670654297
433;57.34733200073242
434;57.14725875854492
435;56.94931411743164
436;56.75331115722656
437;56.559059143066406
438;56.36668014526367
439;56.17622756958008
440;55.98780822753906
441;55.801231384277344
442;55.61651611328125
443;55.43360900878906
444;55.252357482910156
445;55.073055267333984
446;54.89554214477539
447;54.71976852416992
448;54.54576110839844
449;54.37350845336914
450;54.20280456542969
451;54.033973693847656
452;53.86666488647461
453;53.70120620727539
454;53.537384033203125
455;53.375083923339844
456;53.21455764770508
457;53.055660247802734
458;52.89836120605469
459;52.74251937866211
460;52.588260650634766
461;52.43558120727539
462;52.28444290161133
463;52.134979248046875
464;51.986915588378906
465;51.84035110473633
466;51.6953010559082
467;51.5518913269043
468;51.40991973876953
469;51.269412994384766
470;51.13036346435547
471;50.99272537231445
472;50.85653305053711
473;50.72172164916992
474;50.588340759277344
475;50.45621871948242
476;50.32547378540039
477;50.19618225097656
478;50.068260192871094
479;49.94155502319336
480;49.81621170043945
481;49.692142486572266
482;49.569480895996094
483;49.44813919067383
484;49.32804870605469
485;49.20912170410156
486;49.0915641784668
487;48.97523880004883
488;48.86015319824219
489;48.74618148803711
490;48.6334342956543
491;48.521881103515625
492;48.411529541015625
493;48.30234909057617
494;48.19440841674805
495;48.087650299072266
496;47.98201370239258
497;47.87742614746094
498;47.7740478515625
499;47.67179489135742
500;47.57053756713867
501;47.47048568725586
502;47.371429443359375
503;47.273521423339844
504;47.17658996582031
505;47.08071517944336
506;46.98588180541992
507;46.89216613769531
508;46.799381256103516
509;46.707637786865234
510;46.61697006225586
511;46.52718734741211
512;46.4384765625
513;46.35076141357422
514;46.26399612426758
515;46.17819595336914
516;46.09333038330078
517;46.00940704345703
518;45.926429748535156
519;45.844364166259766
520;45.76319885253906
521;45.68293380737305
522;45.603580474853516
523;45.52505111694336
524;45.447444915771484
525;45.37065124511719
526;45.29472351074219
527;45.219696044921875
528;45.14545822143555
529;45.07213592529297
530;44.99954605102539
531;44.92781066894531
532;44.8569221496582
533;44.78677749633789
534;44.71749496459961
535;44.64894485473633
536;44.581172943115234
537;44.51416778564453
538;44.44792175292969
539;44.38249969482422
540;44.31781005859375
541;44.25387191772461
542;44.19065856933594
543;44.12812042236328
544;44.066307067871094
545;44.0052604675293
546;43.94484329223633
547;43.885162353515625
548;43.8261604309082
549;43.76783752441406
550;43.71018600463867
551;43.65321350097656
552;43.596927642822266
553;43.54127502441406
554;43.48628234863281
555;43.43198013305664
556;43.3782844543457
557;43.32518768310547
558;43.2727165222168
559;43.22085952758789
560;43.16964340209961
561;43.11903381347656
562;43.069007873535156
563;43.01959228515625
564;42.97071838378906
565;42.92247009277344
566;42.87474060058594
567;42.82761764526367
568;42.78105163574219
569;42.73500061035156
570;42.68952941894531
571;42.644588470458984
572;42.60017395019531
573;42.55632781982422
574;42.51301574707031
575;42.47019577026367
576;42.4278678894043
577;42.386085510253906
578;42.344783782958984
579;42.303977966308594
580;42.2636833190918
581;42.22386169433594
582;42.184539794921875
583;42.14567565917969
584;42.1072998046875
585;42.06939697265625
586;42.03195571899414
587;41.994956970214844
588;41.958431243896484
589;41.92236328125
590;41.88673782348633
591;41.851531982421875
592;41.8167724609375
593;41.78242492675781
594;41.74850845336914
595;41.71498107910156
596;41.68190002441406
597;41.649227142333984
598;41.61695098876953
599;41.5850715637207
600;41.55358123779297
601;41.52250289916992
602;41.491790771484375
603;41.46147537231445
604;41.43153762817383
605;41.401981353759766
606;41.37281799316406
607;41.343990325927734
608;41.3155517578125
609;41.287445068359375
610;41.25972366333008
611;41.232330322265625
612;41.205291748046875
613;41.17856216430664
614;41.152198791503906
615;41.12614440917969
616;41.10044860839844
617;41.075069427490234
618;41.05001449584961
619;41.0252799987793
620;41.00084686279297
621;40.97674560546875
622;40.95294189453125
623;40.9294548034668
624;40.906272888183594
625;40.883365631103516
626;40.86076736450195
627;40.83845520019531
628;40.816429138183594
629;40.794681549072266
630;40.77324295043945
631;40.7520637512207
632;40.73115921020508
633;40.710540771484375
634;40.69017028808594
635;40.67007064819336
636;40.65021896362305
637;40.630638122558594
638;40.611297607421875
639;40.59224319458008
640;40.57344055175781
641;40.554840087890625
642;40.53649139404297
643;40.51842498779297
644;40.50056457519531
645;40.48294448852539
646;40.4655647277832
647;40.44841003417969
648;40.43147659301758
649;40.41477966308594
650;40.39828109741211
651;40.38203430175781
652;40.36598205566406
653;40.35016632080078
654;40.33454895019531
655;40.319129943847656
656;40.30393981933594
657;40.28892517089844
658;40.27412796020508
659;40.259521484375
660;40.245113372802734
661;40.23089599609375
662;40.21687698364258
663;40.203033447265625
664;40.18940353393555
665;40.175926208496094
666;40.16265106201172
667;40.14955139160156
668;40.13663101196289
669;40.12388229370117
670;40.11128616333008
671;40.098899841308594
672;40.086673736572266
673;40.07460403442383
674;40.06270217895508
675;40.05097198486328
676;40.03938674926758
677;40.02799606323242
678;40.01673126220703
679;40.00562286376953
680;39.99467468261719
681;39.98387145996094
682;39.97322463989258
683;39.96272277832031
684;39.95234680175781
685;39.942138671875
686;39.93207550048828
687;39.9221305847168
688;39.91233444213867
689;39.90267562866211
690;39.893150329589844
691;39.883750915527344
692;39.87449645996094
693;39.865360260009766
694;39.85635757446289
695;39.84748458862305
696;39.83871841430664
697;39.83008575439453
698;39.82158660888672
699;39.81319046020508
700;39.80492401123047
701;39.79676818847656
702;39.78872299194336
703;39.78080749511719
704;39.77299118041992
705;39.76529312133789
706;39.75770568847656
707;39.75021743774414
708;39.74284362792969
709;39.73556900024414
710;39.72840118408203
711;39.72135543823242
712;39.71437072753906
713;39.70751953125
714;39.70075607299805
715;39.69407653808594
716;39.6875114440918
717;39.68103790283203
718;39.67463302612305
719;39.66835403442383
720;39.66213607788086
721;39.65604782104492
722;39.650028228759766
723;39.64408874511719
724;39.63824462890625
725;39.63248825073242
726;39.62678527832031
727;39.62120819091797
728;39.61568069458008
729;39.61024856567383
730;39.60490036010742
731;39.59962463378906
732;39.59441375732422
733;39.58928680419922
734;39.584251403808594
735;39.57926940917969
736;39.57437515258789
737;39.569549560546875
738;39.56478500366211
739;39.56010055541992
740;39.55547332763672
741;39.55091857910156
742;39.546451568603516
743;39.54203796386719
744;39.53769302368164
745;39.53339385986328
746;39.5291633605957
747;39.5250129699707
748;39.520912170410156
749;39.51687240600586
750;39.512916564941406
751;39.50899124145508
752;39.5051383972168
753;39.5013313293457
754;39.49760055541992
755;39.49390411376953
756;39.49026107788086
757;39.4866943359375
758;39.48318099975586
759;39.47970199584961
760;39.476295471191406
761;39.47293472290039
762;39.4696159362793
763;39.46635437011719
764;39.46314239501953
765;39.459983825683594
766;39.45685958862305
767;39.45378494262695
768;39.45077133178711
769;39.44777297973633
770;39.44485855102539
771;39.441986083984375
772;39.43913650512695
773;39.43632507324219
774;39.43357467651367
775;39.43086242675781
776;39.428184509277344
777;39.42556381225586
778;39.422969818115234
779;39.42042922973633
780;39.41792297363281
781;39.41545486450195
782;39.413021087646484
783;39.410621643066406
784;39.40827178955078
785;39.40593719482422
786;39.40365982055664
787;39.40141677856445
788;39.39921188354492
789;39.39701843261719
790;39.394874572753906
791;39.39277648925781
792;39.39069366455078
793;39.388648986816406
794;39.38663101196289
795;39.38465118408203
796;39.38269805908203
797;39.38078308105469
798;39.37889099121094
799;39.377037048339844
800;39.375205993652344
801;39.37339401245117
802;39.37162780761719
803;39.36988830566406
804;39.368160247802734
805;39.36647415161133
806;39.36481475830078
807;39.363182067871094
808;39.361568450927734
809;39.359981536865234
810;39.3584098815918
811;39.35688781738281
812;39.35538101196289
813;39.3538818359375
814;39.35243225097656
815;39.350990295410156
816;39.34957504272461
817;39.34819030761719
818;39.34682083129883
819;39.3454704284668
820;39.344154357910156
821;39.34284973144531
822;39.3415412902832
823;39.340293884277344
824;39.33905029296875
825;39.33783721923828
826;39.33662033081055
827;39.3354377746582
828;39.33427047729492
829;39.3331413269043
830;39.33201217651367
831;39.33089828491211
832;39.329803466796875
833;39.3287467956543
834;39.327693939208984
835;39.32665252685547
836;39.32563018798828
837;39.32461166381836
838;39.32363510131836
839;39.32266616821289
840;39.32170486450195
841;39.320770263671875
842;39.319847106933594
843;39.31894302368164
844;39.318050384521484
845;39.31717300415039
846;39.31631088256836
847;39.315460205078125
848;39.31462478637695
849;39.31381607055664
850;39.31300354003906
851;39.312198638916016
852;39.3114128112793
853;39.31065368652344
854;39.309898376464844
855;39.309146881103516
856;39.30842971801758
857;39.30771255493164
858;39.307003021240234
859;39.30630874633789
860;39.305625915527344
861;39.30494689941406
862;39.30430221557617
863;39.30363845825195
864;39.303009033203125
865;39.3023796081543
866;39.3017578125
867;39.30116271972656
868;39.300567626953125
869;39.29997634887695
870;39.299415588378906
871;39.29884338378906
872;39.29829406738281
873;39.29773712158203
874;39.29719924926758
875;39.29667282104492
876;39.2961540222168
877;39.29564666748047
878;39.29513931274414
879;39.294654846191406
880;39.29417037963867
881;39.29369354248047
882;39.293212890625
883;39.29277038574219
884;39.29231262207031
885;39.29186248779297
886;39.29142761230469
887;39.29100036621094
888;39.29057312011719
889;39.29015350341797
890;39.28975296020508
891;39.28936004638672
892;39.28895568847656
893;39.28857421875
894;39.28819274902344
895;39.28782272338867
896;39.28746795654297
897;39.287105560302734
898;39.2867317199707
899;39.28639221191406
900;39.28604507446289
901;39.28570556640625
902;39.28538513183594
903;39.285064697265625
904;39.284732818603516
905;39.284420013427734
906;39.284114837646484
907;39.28380584716797
908;39.28351593017578
909;39.28322219848633
910;39.28292465209961
911;39.282657623291016
912;39.28237533569336
913;39.2821044921875
914;39.281822204589844
915;39.28157424926758
916;39.281314849853516
917;39.281063079833984
918;39.28080368041992
919;39.280555725097656
920;39.28031921386719
921;39.28007507324219
922;39.279842376708984
923;39.279624938964844
924;39.27938461303711
925;39.27918243408203
926;39.27896499633789
927;39.27875518798828
928;39.27853012084961
929;39.27832794189453
930;39.278133392333984
931;39.27793884277344
932;39.277732849121094
933;39.27754592895508
934;39.27735900878906
935;39.27717208862305
936;39.27700424194336
937;39.27680969238281
938;39.27664566040039
939;39.2764778137207
940;39.27629089355469
941;39.27613830566406
942;39.275978088378906
943;39.27581024169922
944;39.27565002441406
945;39.275508880615234
946;39.27534484863281
947;39.27519226074219
948;39.275054931640625
949;39.27490997314453
950;39.27476501464844
951;39.27462387084961
952;39.27449035644531
953;39.27436447143555
954;39.27422332763672
955;39.27409362792969
956;39.27397155761719
957;39.27385330200195
958;39.27372741699219
959;39.27360916137695
960;39.27349090576172
961;39.27337646484375
962;39.27326583862305
963;39.273155212402344
964;39.27303695678711
965;39.27293395996094
966;39.27283477783203
967;39.27272415161133
968;39.27262878417969
969;39.27253341674805
970;39.27242660522461
971;39.272342681884766
972;39.27224349975586
973;39.27215576171875
974;39.27205276489258
975;39.27198028564453
976;39.27188491821289
977;39.27179718017578
978;39.27171325683594
979;39.27164077758789
980;39.27155685424805
981;39.271484375
982;39.27140426635742
983;39.27131652832031
984;39.271240234375
985;39.27117156982422
986;39.27111053466797
987;39.271034240722656
988;39.270957946777344
989;39.270896911621094
990;39.27082443237305
991;39.2707633972168
992;39.27070236206055
993;39.2706298828125
994;39.27057647705078
995;39.27051544189453
996;39.27044677734375
997;39.2703857421875
998;39.27033615112305
999;39.27028274536133
1000;39.27022933959961
1001;39.270172119140625
1002;39.27012252807617
1003;39.27006530761719
1004;39.27001190185547
1005;39.26997375488281
1006;39.26991271972656
1007;39.26987838745117
1008;39.26982116699219
1009;39.26976776123047
1010;39.26972198486328
1011;39.26969528198242
1012;39.2696418762207
1013;39.269596099853516
1014;39.26955032348633
1015;39.26951217651367
1016;39.26947784423828
1017;39.26942443847656
1018;39.26938247680664
1019;39.26934814453125
1020;39.26931381225586
1021;39.26927947998047
1022;39.26923370361328
1023;39.269195556640625
1024;39.26914978027344
1025;39.26912307739258
1026;39.269100189208984
1027;39.26906967163086
1028;39.26902770996094
1029;39.26899719238281
1030;39.26896667480469
1031;39.2689323425293
1032;39.26890563964844
1033;39.26887130737305
1034;39.26885223388672
1035;39.26881408691406
1036;39.26877975463867
1037;39.26875305175781
1038;39.26872634887695
1039;39.26870346069336
1040;39.26866912841797
1041;39.26865768432617
1042;39.26862716674805
1043;39.26860046386719
1044;39.26857376098633
1045;39.268550872802734
1046;39.26853561401367
1047;39.26850128173828
1048;39.26847839355469
1049;39.268463134765625
1050;39.268428802490234
1051;39.26841735839844
1052;39.26839828491211
1053;39.26837158203125
1054;39.268348693847656
1055;39.26832580566406
1056;39.26829528808594
1057;39.268287658691406
1058;39.26827621459961
1059;39.26826095581055
1060;39.26823806762695
1061;39.26820755004883
1062;39.268192291259766
1063;39.26817321777344
1064;39.26817321777344
1065;39.26813888549805
1066;39.26813507080078
1067;39.26811981201172
1068;39.268096923828125
1069;39.26807403564453
1070;39.26806640625
1071;39.26804733276367
1072;39.26803207397461
1073;39.26802062988281
1074;39.26801300048828
1075;39.26798629760742
1076;39.267974853515625
1077;39.26797103881836
1078;39.2679443359375
1079;39.267940521240234
1080;39.26791763305664
1081;39.26790237426758
1082;39.26789093017578
1083;39.26787567138672
1084;39.26787185668945
1085;39.267860412597656
1086;39.267845153808594
1087;39.2678337097168
1088;39.267818450927734
1089;39.26780319213867
1090;39.267799377441406
1091;39.26778793334961
1092;39.26777267456055
1093;39.267765045166016
1094;39.26774978637695
1095;39.26774597167969
1096;39.26772689819336
1097;39.26771545410156
1098;39.267723083496094
1099;39.26770782470703
1100;39.26769256591797
1101;39.26769256591797
1102;39.26766586303711
1103;39.267662048339844
1104;39.26765441894531
1105;39.26765441894531
1106;39.267635345458984
1107;39.267616271972656
1108;39.26762390136719
1109;39.267608642578125
1110;39.26760482788086
1111;39.26758575439453
1112;39.267581939697266
1113;39.267578125
1114;39.26756286621094
1115;39.26756286621094
1116;39.26755142211914
1117;39.26754379272461
1118;39.26754379272461
1119;39.26753234863281
1120;39.267520904541016
1121;39.26750946044922
1122;39.26750183105469
1123;39.26750564575195
1124;39.267494201660156
1125;39.26748275756836
1126;39.267478942871094
1127;39.267478942871094
1128;39.2674560546875
1129;39.267452239990234
1130;39.2674446105957
1131;39.26744079589844
1132;39.26742935180664
1133;39.267425537109375
1134;39.267425537109375
1135;39.26741027832031
1136;39.26741027832031
1137;39.26740264892578
1138;39.26740264892578
1139;39.267391204833984
1140;39.26738739013672
1141;39.267391204833984
1142;39.26737976074219
1143;39.267372131347656
1144;39.267364501953125
1145;39.26734924316406
1146;39.2673454284668
1147;39.26736068725586
1148;39.2673454284668
1149;39.26734924316406
1150;39.26734161376953
1151;39.2673225402832
1152;39.267330169677734
1153;39.26730728149414
1154;39.26731491088867
1155;39.26729965209961
1156;39.26729202270508
1157;39.26729202270508
1158;39.26728820800781
1159;39.26728439331055
1160;39.267276763916016
1161;39.26727294921875
1162;39.26727294921875
1163;39.267269134521484
1164;39.26725769042969
1165;39.26725769042969
1166;39.267250061035156
1167;39.26725387573242
1168;39.267234802246094
1169;39.26722717285156
1170;39.26722717285156
1171;39.26722717285156
1172;39.26722717285156
1173;39.26721954345703
1174;39.26722717285156
1175;39.267208099365234
1176;39.267215728759766
1177;39.26719665527344
1178;39.26719665527344
1179;39.26718521118164
1180;39.267181396484375
1181;39.267181396484375
1182;39.26716995239258
1183;39.267173767089844
1184;39.267173767089844
1185;39.26715850830078
1186;39.267154693603516
1187;39.267147064208984
1188;39.26715087890625
1189;39.267147064208984
1190;39.26715087890625
1191;39.267147064208984
1192;39.26713180541992
1193;39.267127990722656
1194;39.26711654663086
1195;39.26712417602539
1196;39.267112731933594
1197;39.26711654663086
1198;39.26710891723633
1199;39.26708984375
1200;39.26710510253906
1201;39.2670783996582
1202;39.26710510253906
1203;39.267093658447266
1204;39.26708984375
1205;39.2670783996582
1206;39.2670783996582
1207;39.2670783996582
1208;39.26707458496094
1209;39.26705551147461
1210;39.267066955566406
1211;39.26705551147461
1212;39.26705551147461
1213;39.26704788208008
1214;39.26705551147461
1215;39.26704406738281
1216;39.26704406738281
1217;39.267032623291016
1218;39.267024993896484
1219;39.26702880859375
1220;39.26701736450195
1221;39.26701354980469
1222;39.26701354980469
1223;39.26700210571289
1224;39.26701354980469
1225;39.266998291015625
1226;39.26699447631836
1227;39.266990661621094
1228;39.26699447631836
1229;39.26698303222656
1230;39.26697540283203
1231;39.266971588134766
1232;39.2669677734375
1233;39.266963958740234
1234;39.2669677734375
1235;39.26695251464844
1236;39.2669563293457
1237;39.26694869995117
1238;39.26695251464844
1239;39.26694107055664
1240;39.26694107055664
1241;39.26694869995117
1242;39.266937255859375
1243;39.266929626464844
1244;39.26692581176758
1245;39.26692199707031
1246;39.266929626464844
1247;39.26691436767578
1248;39.266910552978516
1249;39.26689910888672
1250;39.26691436767578
1251;39.26689910888672
1252;39.26689147949219
1253;39.266883850097656
1254;39.26689147949219
1255;39.266876220703125
1256;39.26689147949219
1257;39.26687240600586
1258;39.266883850097656
1259;39.266876220703125
1260;39.26686477661133
1261;39.2668571472168
1262;39.2668571472168
1263;39.26685333251953
1264;39.266849517822266
1265;39.26683807373047
1266;39.26683807373047
1267;39.266841888427734
1268;39.26683807373047
1269;39.26683807373047
1270;39.26682662963867
1271;39.26681900024414
1272;39.266815185546875
1273;39.26680374145508
1274;39.266815185546875
1275;39.26680374145508
1276;39.266815185546875
1277;39.26679992675781
1278;39.26679992675781
1279;39.266788482666016
1280;39.26679229736328
1281;39.266780853271484
1282;39.26676940917969
1283;39.266780853271484
1284;39.26676940917969
1285;39.26676559448242
1286;39.26676559448242
1287;39.26676940917969
1288;39.26676559448242
1289;39.26675796508789
1290;39.26675033569336
1291;39.26674270629883
1292;39.26673889160156
1293;39.26673889160156
1294;39.26673889160156
1295;39.2667350769043
1296;39.2667236328125
1297;39.26671600341797
1298;39.26670837402344
1299;39.26671600341797
1300;39.2667236328125
1301;39.26670455932617
1302;39.26670837402344
1303;39.266700744628906
1304;39.266685485839844
1305;39.26668930053711
1306;39.26669692993164
1307;39.26667022705078
1308;39.26668167114258
1309;39.26667022705078
1310;39.26667022705078
1311;39.26667022705078
1312;39.26665496826172
1313;39.26665496826172
1314;39.26665496826172
1315;39.26664733886719
1316;39.26664733886719
1317;39.26664352416992
1318;39.26662826538086
1319;39.26663589477539
1320;39.26663589477539
1321;39.26661682128906
1322;39.26661682128906
1323;39.26661682128906
1324;39.26660919189453
1325;39.2666015625
1326;39.2666015625
1327;39.2666130065918
1328;39.266597747802734
1329;39.26658630371094
1330;39.26659393310547
1331;39.26658630371094
1332;39.266578674316406
1333;39.26658248901367
1334;39.266563415527344
1335;39.26655960083008
1336;39.266563415527344
1337;39.266563415527344
1338;39.26655197143555
1339;39.266536712646484
1340;39.26654815673828
1341;39.26654815673828
1342;39.26654052734375
1343;39.266536712646484
1344;39.26653289794922
1345;39.26652908325195
1346;39.26652145385742
1347;39.26652526855469
1348;39.26651382446289
1349;39.266517639160156
1350;39.26650619506836
1351;39.26650619506836
1352;39.26649475097656
1353;39.26649475097656
1354;39.26648712158203
1355;39.2664794921875
1356;39.26648712158203
1357;39.26647186279297
1358;39.2664680480957
1359;39.26646423339844
1360;39.266456604003906
1361;39.26646423339844
1362;39.26645278930664
1363;39.26644515991211
1364;39.266448974609375
1365;39.26642990112305
1366;39.26643753051758
1367;39.26643753051758
1368;39.26641845703125
1369;39.26641845703125
1370;39.26642608642578
1371;39.26640701293945
1372;39.26641845703125
1373;39.26640319824219
1374;39.266395568847656
1375;39.26639938354492
1376;39.266395568847656
1377;39.26639175415039
1378;39.266380310058594
1379;39.26637268066406
1380;39.26637649536133
1381;39.2663688659668
1382;39.26636505126953
1383;39.266357421875
1384;39.266353607177734
1385;39.266361236572266
1386;39.2663459777832
1387;39.266353607177734
1388;39.26634216308594
1389;39.26633071899414
1390;39.266334533691406
1391;39.266326904296875
1392;39.266319274902344
1393;39.26632308959961
1394;39.26631164550781
1395;39.26631164550781
1396;39.266300201416016
1397;39.266300201416016
1398;39.26630783081055
1399;39.26628875732422
1400;39.26628112792969
1401;39.26626968383789
1402;39.266273498535156
1403;39.266273498535156
1404;39.26626205444336
1405;39.266265869140625
1406;39.26625061035156
1407;39.26625061035156
1408;39.26624298095703
1409;39.266239166259766
1410;39.26622772216797
1411;39.2662239074707
1412;39.26622009277344
1413;39.266212463378906
1414;39.2662239074707
1415;39.266212463378906
1416;39.26619338989258
1417;39.266204833984375
1418;39.26618957519531
1419;39.26618957519531
1420;39.26618194580078
1421;39.266178131103516
1422;39.26617431640625
1423;39.26616287231445
1424;39.26615905761719
1425;39.26615905761719
1426;39.26615905761719
1427;39.26613998413086
1428;39.26613235473633
1429;39.26613235473633
1430;39.26612854003906
1431;39.26612091064453
1432;39.26611328125
1433;39.26611328125
1434;39.26609802246094
1435;39.26609802246094
1436;39.26609802246094
1437;39.26609802246094
1438;39.26607894897461
1439;39.26607131958008
1440;39.26607131958008
1441;39.26605987548828
1442;39.26606369018555
1443;39.266048431396484
1444;39.26604461669922
1445;39.26603698730469
1446;39.26603698730469
1447;39.266029357910156
1448;39.266029357910156
1449;39.26601791381836
1450;39.26601028442383
1451;39.266014099121094
1452;39.2660026550293
1453;39.2659912109375
1454;39.26599884033203
1455;39.265987396240234
1456;39.26598358154297
1457;39.26598358154297
1458;39.26596450805664
1459;39.26597213745117
1460;39.26596450805664
1461;39.26595687866211
1462;39.265953063964844
1463;39.26594161987305
1464;39.26594543457031
1465;39.26593780517578
1466;39.26593780517578
1467;39.26591873168945
1468;39.26593017578125
1469;39.26591873168945
1470;39.265907287597656
1471;39.26591110229492
1472;39.265892028808594
1473;39.26588821411133
1474;39.26589584350586
1475;39.26588439941406
1476;39.2658805847168
1477;39.26587677001953
1478;39.265869140625
1479;39.265865325927734
1480;39.265846252441406
1481;39.265846252441406
1482;39.265846252441406
1483;39.26583480834961
1484;39.26583480834961
1485;39.26582717895508
1486;39.265830993652344
1487;39.26582717895508
1488;39.26582336425781
1489;39.26580810546875
1490;39.26579284667969
1491;39.265804290771484
1492;39.26579284667969
1493;39.26579284667969
1494;39.26578140258789
1495;39.26577377319336
1496;39.26576614379883
1497;39.265769958496094
1498;39.265750885009766
1499;39.26576232910156
1500;39.2657470703125
1501;39.265750885009766
1502;39.26573181152344
1503;39.2657356262207
1504;39.26572036743164
1505;39.265716552734375
1506;39.265708923339844
1507;39.26570129394531
1508;39.26570129394531
1509;39.26570129394531
1510;39.265682220458984
1511;39.26569366455078
1512;39.265689849853516
1513;39.26567459106445
1514;39.265663146972656
1515;39.265663146972656
1516;39.26565933227539
1517;39.265647888183594
1518;39.26564407348633
1519;39.2656364440918
1520;39.2656364440918
1521;39.265625
1522;39.265625
1523;39.265621185302734
1524;39.265602111816406
1525;39.26560974121094
1526;39.265602111816406
1527;39.26559829711914
1528;39.26558303833008
1529;39.26557922363281
1530;39.26557540893555
1531;39.26557159423828
1532;39.265560150146484
1533;39.26555252075195
1534;39.26554870605469
1535;39.26554870605469
1536;39.265533447265625
1537;39.26553726196289
1538;39.26553726196289
1539;39.2655143737793
1540;39.26551818847656
1541;39.265506744384766
1542;39.265506744384766
1543;39.26548767089844
1544;39.2654914855957
1545;39.26548767089844
1546;39.265472412109375
1547;39.26546859741211
1548;39.26546859741211
1549;39.26544952392578
1550;39.26544189453125
1551;39.265438079833984
1552;39.26543426513672
1553;39.26543426513672
1554;39.26542663574219
1555;39.26541519165039
1556;39.26540756225586
1557;39.26540756225586
1558;39.26539611816406
1559;39.26539611816406
1560;39.26538848876953
1561;39.26538848876953
1562;39.26537322998047
1563;39.26537322998047
1564;39.26536178588867
1565;39.265350341796875
1566;39.26535415649414
1567;39.26534652709961
1568;39.26533889770508
1569;39.26533508300781
1570;39.26533126831055
1571;39.265323638916016
1572;39.26530838012695
1573;39.26530838012695
1574;39.265296936035156
1575;39.265289306640625
1576;39.26527404785156
1577;39.2652702331543
1578;39.26526641845703
1579;39.26526641845703
1580;39.26526641845703
1581;39.2652473449707
1582;39.265235900878906
1583;39.265228271484375
1584;39.26523208618164
1585;39.26523208618164
1586;39.26521301269531
1587;39.26521682739258
1588;39.265193939208984
1589;39.26519012451172
1590;39.26519012451172
1591;39.26518630981445
1592;39.26517105102539
1593;39.26517868041992
1594;39.265159606933594
1595;39.265159606933594
1596;39.26514434814453
1597;39.26514434814453
1598;39.26512145996094
1599;39.2651252746582
1600;39.26511764526367
1601;39.26511764526367
1602;39.265106201171875
1603;39.26509475708008
1604;39.26508331298828
1605;39.265071868896484
1606;39.26507568359375
1607;39.26506805419922
1608;39.26506042480469
1609;39.265037536621094
1610;39.265037536621094
1611;39.26502990722656
1612;39.26502990722656
1613;39.26502990722656
1614;39.2650146484375
1615;39.26499938964844
1616;39.2650032043457
1617;39.264984130859375
1618;39.26498031616211
1619;39.264976501464844
1620;39.264984130859375
1621;39.26496887207031
1622;39.26495361328125
1623;39.26495361328125
1624;39.26494216918945
1625;39.26494598388672
1626;39.264915466308594
1627;39.26491165161133
1628;39.264915466308594
1629;39.26490783691406
1630;39.26488494873047
1631;39.264896392822266
1632;39.26488494873047
1633;39.26486587524414
1634;39.26486587524414
1635;39.26485061645508
1636;39.26484298706055
1637;39.26483917236328
1638;39.264827728271484
1639;39.26482391357422
1640;39.26481246948242
1641;39.26481628417969
1642;39.26480484008789
1643;39.26478576660156
1644;39.26478576660156
1645;39.264774322509766
1646;39.2647705078125
1647;39.26475524902344
1648;39.26475143432617
1649;39.26474380493164
1650;39.26473617553711
1651;39.26472854614258
1652;39.26472091674805
1653;39.264713287353516
1654;39.26469421386719
1655;39.26470184326172
1656;39.26468276977539
1657;39.264671325683594
1658;39.26468276977539
1659;39.26466751098633
1660;39.26466751098633
1661;39.26465606689453
1662;39.26463317871094
1663;39.26462936401367
1664;39.264617919921875
1665;39.26461410522461
1666;39.26459884643555
1667;39.264591217041016
1668;39.264583587646484
1669;39.26457214355469
1670;39.26457214355469
1671;39.26456832885742
1672;39.264549255371094
1673;39.264556884765625
1674;39.26454162597656
1675;39.264530181884766
1676;39.26451873779297
1677;39.26450729370117
1678;39.26448059082031
1679;39.26448059082031
1680;39.26448059082031
1681;39.26447296142578
1682;39.264469146728516
1683;39.26445007324219
1684;39.26445007324219
1685;39.264442443847656
1686;39.26442337036133
1687;39.26441955566406
1688;39.26441192626953
1689;39.264404296875
1690;39.26438903808594
1691;39.26437759399414
1692;39.26437759399414
1693;39.264366149902344
1694;39.264366149902344
1695;39.26435470581055
1696;39.26433181762695
1697;39.26431655883789
1698;39.26432418823242
1699;39.26431655883789
1700;39.26429748535156
1701;39.264278411865234
1702;39.264286041259766
1703;39.26426696777344
1704;39.26426696777344
1705;39.264251708984375
1706;39.26425552368164
1707;39.264244079589844
1708;39.264225006103516
1709;39.26420593261719
1710;39.264198303222656
1711;39.26420211791992
1712;39.26418685913086
1713;39.26416778564453
1714;39.26416778564453
1715;39.2641487121582
1716;39.2641487121582
1717;39.26413345336914
1718;39.264122009277344
1719;39.26411819458008
1720;39.26410675048828
1721;39.26410675048828
1722;39.26407241821289
1723;39.264076232910156
1724;39.264068603515625
1725;39.26406478881836
1726;39.26405334472656
1727;39.26403045654297
1728;39.26402282714844
1729;39.26401138305664
1730;39.264007568359375
1731;39.26399612426758
1732;39.26398849487305
1733;39.26396560668945
1734;39.26396179199219
1735;39.26396179199219
1736;39.263946533203125
1737;39.2639274597168
1738;39.26392364501953
1739;39.263912200927734
1740;39.26390075683594
1741;39.263885498046875
1742;39.263885498046875
1743;39.26386260986328
1744;39.26384735107422
1745;39.26384735107422
1746;39.263832092285156
1747;39.26380920410156
1748;39.26380920410156
1749;39.26380157470703
1750;39.2637825012207
1751;39.2637825012207
1752;39.263771057128906
1753;39.26376724243164
1754;39.26374435424805
1755;39.263736724853516
1756;39.26371765136719
1757;39.26369857788086
1758;39.263694763183594
1759;39.263702392578125
1760;39.26367950439453
1761;39.263671875
1762;39.26365280151367
1763;39.263641357421875
1764;39.26362991333008
1765;39.26361846923828
1766;39.26360321044922
1767;39.26359558105469
1768;39.26357650756836
1769;39.26358413696289
1770;39.2635498046875
1771;39.26354217529297
1772;39.2635383605957
1773;39.26352310180664
1774;39.263519287109375
1775;39.263492584228516
1776;39.263484954833984
1777;39.26347351074219
1778;39.26344680786133
1779;39.26345443725586
1780;39.26344299316406
1781;39.26341247558594
1782;39.26341247558594
1783;39.26340103149414
1784;39.26338577270508
1785;39.26338577270508
1786;39.26336669921875
1787;39.263336181640625
1788;39.263336181640625
1789;39.26332092285156
1790;39.263309478759766
1791;39.26329803466797
1792;39.26328659057617
1793;39.26327133178711
1794;39.263248443603516
1795;39.26325225830078
1796;39.26322555541992
1797;39.263214111328125
1798;39.26319885253906
1799;39.263187408447266
1800;39.26316833496094
1801;39.26316833496094
1802;39.26315689086914
1803;39.263118743896484
1804;39.263118743896484
1805;39.26310348510742
1806;39.26309585571289
1807;39.263084411621094
1808;39.263065338134766
1809;39.26305389404297
1810;39.263023376464844
1811;39.26300811767578
1812;39.26300048828125
1813;39.26299285888672
1814;39.262977600097656
1815;39.262962341308594
1816;39.26295471191406
1817;39.262935638427734
1818;39.26291275024414
1819;39.26289749145508
1820;39.26289367675781
1821;39.26287078857422
1822;39.26286697387695
1823;39.26285171508789
1824;39.26282501220703
1825;39.2628173828125
1826;39.26279830932617
1827;39.262786865234375
1828;39.26277542114258
1829;39.26274871826172
1830;39.26274490356445
1831;39.26271438598633
1832;39.26270294189453
1833;39.262691497802734
1834;39.26267623901367
1835;39.26268005371094
1836;39.262638092041016
1837;39.262630462646484
1838;39.26261520385742
1839;39.26259231567383
1840;39.2625846862793
1841;39.26255798339844
1842;39.26254653930664
1843;39.26252746582031
1844;39.26251983642578
1845;39.26249313354492
1846;39.262474060058594
1847;39.26246643066406
1848;39.2624397277832
1849;39.26242446899414
1850;39.26241683959961
1851;39.26237869262695
1852;39.26237487792969
1853;39.26235580444336
1854;39.26234436035156
1855;39.26232147216797
1856;39.262298583984375
1857;39.26228332519531
1858;39.26226806640625
1859;39.26225280761719
1860;39.26222229003906
1861;39.26222229003906
1862;39.262184143066406
1863;39.262184143066406
1864;39.26215362548828
1865;39.26213836669922
1866;39.26211929321289
1867;39.26210021972656
1868;39.26207733154297
1869;39.262062072753906
1870;39.26205062866211
1871;39.26202392578125
1872;39.26200485229492
1873;39.26197814941406
1874;39.26197814941406
1875;39.261940002441406
1876;39.26193618774414
1877;39.26190948486328
1878;39.26188278198242
1879;39.26187515258789
1880;39.2618408203125
1881;39.26182556152344
1882;39.26179885864258
1883;39.26179122924805
1884;39.26176071166992
1885;39.261756896972656
1886;39.261722564697266
1887;39.26170349121094
1888;39.261680603027344
1889;39.261653900146484
1890;39.26165771484375
1891;39.261619567871094
1892;39.2615966796875
1893;39.26158142089844
1894;39.26155090332031
1895;39.26152801513672
1896;39.26150131225586
1897;39.26148223876953
1898;39.2614631652832
1899;39.261436462402344
1900;39.26142120361328
1901;39.26139450073242
1902;39.26137161254883
1903;39.261356353759766
1904;39.26133346557617
1905;39.26130294799805
1906;39.261268615722656
1907;39.261253356933594
1908;39.261226654052734
1909;39.26119613647461
1910;39.26118469238281
1911;39.26115798950195
1912;39.26113510131836
1913;39.26111602783203
1914;39.26107406616211
1915;39.26106262207031
1916;39.26102828979492
1917;39.26100158691406
1918;39.26097106933594
1919;39.260963439941406
1920;39.26091766357422
1921;39.26090621948242
1922;39.26088333129883
1923;39.26084899902344
1924;39.26081848144531
1925;39.26080322265625
1926;39.26076889038086
1927;39.260738372802734
1928;39.26071548461914
1929;39.260684967041016
1930;39.26066207885742
1931;39.2606315612793
1932;39.26061248779297
1933;39.26057434082031
1934;39.26054763793945
1935;39.2605094909668
1936;39.26048278808594
1937;39.26046371459961
1938;39.26042556762695
1939;39.26039123535156
1940;39.2603645324707
1941;39.26033020019531
1942;39.26031494140625
1943;39.26026916503906
1944;39.26022720336914
1945;39.26021194458008
1946;39.26018524169922
1947;39.260154724121094
1948;39.2601203918457
1949;39.26008224487305
1950;39.260040283203125
1951;39.2600212097168
1952;39.259979248046875
1953;39.259944915771484
1954;39.25990676879883
1955;39.259883880615234
1956;39.25984573364258
1957;39.25981521606445
1958;39.25978088378906
1959;39.25975036621094
1960;39.259700775146484
1961;39.259666442871094
1962;39.2596435546875
1963;39.25960922241211
1964;39.25956344604492
1965;39.259521484375
1966;39.25948715209961
1967;39.25945281982422
1968;39.25941848754883
1969;39.25938415527344
1970;39.25934600830078
1971;39.25929260253906
1972;39.25925827026367
1973;39.25922393798828
1974;39.259178161621094
1975;39.25914001464844
1976;39.259090423583984
1977;39.25905227661133
1978;39.25901412963867
1979;39.25898361206055
1980;39.25893783569336
1981;39.25889587402344
1982;39.25885009765625
1983;39.25880432128906
1984;39.258766174316406
1985;39.25871276855469
1986;39.2586784362793
1987;39.258636474609375
1988;39.258583068847656
1989;39.258541107177734
1990;39.25849533081055
1991;39.25845718383789
1992;39.258399963378906
1993;39.25835418701172
1994;39.25830841064453
1995;39.25825881958008
1996;39.258216857910156
1997;39.25816345214844
1998;39.25810241699219
1999;39.258052825927734
