;loss
0;1345.5411376953125
1;1344.9295654296875
2;1344.1099853515625
3;1343.291259765625
4;1342.4747314453125
5;1341.6610107421875
6;1340.849853515625
7;1340.0416259765625
8;1339.2474365234375
9;1338.451416015625
10;1337.6549072265625
11;1336.8582763671875
12;1336.0621337890625
13;1335.2691650390625
14;1334.474609375
15;1333.686279296875
16;1332.9002685546875
17;1332.1163330078125
18;1331.326904296875
19;1330.5465087890625
20;1329.767822265625
21;1328.990478515625
22;1328.2056884765625
23;1327.4219970703125
24;1326.638671875
25;1325.8560791015625
26;1325.0738525390625
27;1324.2916259765625
28;1323.5093994140625
29;1322.7362060546875
30;1321.953369140625
31;1321.1700439453125
32;1320.3861083984375
33;1319.6011962890625
34;1318.815185546875
35;1318.0367431640625
36;1317.2479248046875
37;1316.4664306640625
38;1315.6741943359375
39;1314.880126953125
40;1314.0924072265625
41;1313.293701171875
42;1312.5008544921875
43;1311.705078125
44;1310.90625
45;1310.1043701171875
46;1309.2908935546875
47;1308.4818115234375
48;1307.6611328125
49;1306.836181640625
50;1306.0147705078125
51;1305.1812744140625
52;1304.3428955078125
53;1303.499755859375
54;1302.6510009765625
55;1301.7967529296875
56;1300.9439697265625
57;1300.077880859375
58;1299.205322265625
59;1298.3262939453125
60;1297.4403076171875
61;1296.546875
62;1295.6527099609375
63;1294.7509765625
64;1293.834228515625
65;1292.9088134765625
66;1291.974609375
67;1291.0313720703125
68;1290.0784912109375
69;1289.1158447265625
70;1288.142822265625
71;1287.166015625
72;1286.1712646484375
73;1285.1651611328125
74;1284.1536865234375
75;1283.130126953125
76;1282.0877685546875
77;1281.0322265625
78;1279.963134765625
79;1278.886962890625
80;1277.7901611328125
81;1276.6787109375
82;1275.5523681640625
83;1274.4171142578125
84;1273.2657470703125
85;1272.0916748046875
86;1270.900634765625
87;1269.6925048828125
88;1268.466796875
89;1267.2232666015625
90;1265.961181640625
91;1264.6800537109375
92;1263.38671875
93;1262.067138671875
94;1260.7274169921875
95;1259.3671875
96;1257.986083984375
97;1256.5836181640625
98;1255.1595458984375
99;1253.720458984375
100;1252.2589111328125
101;1250.770263671875
102;1249.2666015625
103;1247.740234375
104;1246.183349609375
105;1244.6099853515625
106;1243.0123291015625
107;1241.3939208984375
108;1239.7562255859375
109;1238.0872802734375
110;1236.4014892578125
111;1234.6842041015625
112;1232.9490966796875
113;1231.181640625
114;1229.388916015625
115;1227.578857421875
116;1225.7354736328125
117;1223.873779296875
118;1221.9793701171875
119;1220.0592041015625
120;1218.1162109375
121;1216.1580810546875
122;1214.1678466796875
123;1212.1527099609375
124;1210.11328125
125;1208.048828125
126;1205.9603271484375
127;1203.8480224609375
128;1201.7200927734375
129;1199.560791015625
130;1197.38671875
131;1195.1826171875
132;1192.956298828125
133;1190.717041015625
134;1188.44921875
135;1186.1690673828125
136;1183.861572265625
137;1181.543212890625
138;1179.2093505859375
139;1176.865234375
140;1174.525146484375
141;1172.1646728515625
142;1169.7939453125
143;1167.418701171875
144;1165.0341796875
145;1162.6429443359375
146;1160.2689208984375
147;1157.882568359375
148;1155.4984130859375
149;1153.1080322265625
150;1150.7225341796875
151;1148.3431396484375
152;1145.9671630859375
153;1143.5955810546875
154;1141.2174072265625
155;1138.840087890625
156;1136.4644775390625
157;1134.0987548828125
158;1131.7301025390625
159;1129.364990234375
160;1127.0147705078125
161;1124.6654052734375
162;1122.3367919921875
163;1120.0294189453125
164;1117.7354736328125
165;1115.445068359375
166;1113.1710205078125
167;1110.9007568359375
168;1108.6431884765625
169;1106.4029541015625
170;1104.1820068359375
171;1101.9837646484375
172;1099.7984619140625
173;1097.628662109375
174;1095.4725341796875
175;1093.3232421875
176;1091.1929931640625
177;1089.0750732421875
178;1086.970947265625
179;1084.8851318359375
180;1082.8070068359375
181;1080.747802734375
182;1078.70361328125
183;1076.6728515625
184;1074.65576171875
185;1072.64892578125
186;1070.674560546875
187;1068.7142333984375
188;1066.767822265625
189;1064.8353271484375
190;1062.9144287109375
191;1061.0078125
192;1059.122802734375
193;1057.2557373046875
194;1055.4075927734375
195;1053.571044921875
196;1051.7542724609375
197;1049.9539794921875
198;1048.1732177734375
199;1046.404296875
200;1044.6561279296875
201;1042.9239501953125
202;1041.2054443359375
203;1039.5018310546875
204;1037.827392578125
205;1036.1680908203125
206;1034.5262451171875
207;1032.8948974609375
208;1031.282470703125
209;1029.682373046875
210;1028.1005859375
211;1026.5352783203125
212;1024.9815673828125
213;1023.4464111328125
214;1021.9246826171875
215;1020.4180908203125
216;1018.9243774414062
217;1017.4404296875
218;1015.9734497070312
219;1014.5209350585938
220;1013.0827026367188
221;1011.6551513671875
222;1010.2452392578125
223;1008.8473510742188
224;1007.4586791992188
225;1006.0856323242188
226;1004.7221069335938
227;1003.3717651367188
228;1002.03662109375
229;1000.7108154296875
230;999.3985595703125
231;998.0970458984375
232;996.8035278320312
233;995.5231323242188
234;994.2518920898438
235;992.9912109375
236;991.7448120117188
237;990.5065307617188
238;989.2791748046875
239;988.0620727539062
240;986.8558959960938
241;985.6641235351562
242;984.4812622070312
243;983.3075561523438
244;982.1450805664062
245;980.9896850585938
246;979.8436889648438
247;978.7113647460938
248;977.5883178710938
249;976.4717407226562
250;975.3660888671875
251;974.2672729492188
252;973.1771850585938
253;972.095703125
254;971.0252685546875
255;969.9622802734375
256;968.9092407226562
257;967.8618774414062
258;966.8233642578125
259;965.7925415039062
260;964.7688598632812
261;963.7503662109375
262;962.7385864257812
263;961.7359619140625
264;960.7382202148438
265;959.7484130859375
266;958.7645874023438
267;957.78515625
268;956.8133544921875
269;955.8458251953125
270;954.8849487304688
271;953.9296875
272;952.97998046875
273;952.0358276367188
274;951.0987548828125
275;950.1676635742188
276;949.24169921875
277;948.32080078125
278;947.4052734375
279;946.4946899414062
280;945.5875244140625
281;944.6851196289062
282;943.7886352539062
283;942.8956298828125
284;942.0087890625
285;941.1250610351562
286;940.2470092773438
287;939.37255859375
288;938.5037841796875
289;937.63818359375
290;936.7780151367188
291;935.9207763671875
292;935.0672607421875
293;934.2178344726562
294;933.3723754882812
295;932.5317993164062
296;931.69482421875
297;930.8616333007812
298;930.0321044921875
299;929.2059936523438
300;928.38330078125
301;927.5639038085938
302;926.7477416992188
303;925.9349975585938
304;925.1254272460938
305;924.3178100585938
306;923.5145874023438
307;922.71337890625
308;921.9166870117188
309;921.1234130859375
310;920.3330688476562
311;919.5447998046875
312;918.7603759765625
313;917.9778442382812
314;917.1991577148438
315;916.4223022460938
316;915.6480102539062
317;914.8768310546875
318;914.1082763671875
319;913.3433227539062
320;912.5798950195312
321;911.8187866210938
322;911.0601806640625
323;910.3041381835938
324;909.5507202148438
325;908.7998046875
326;908.0510864257812
327;907.3046875
328;906.5617065429688
329;905.8199462890625
330;905.0814819335938
331;904.3441772460938
332;903.6099243164062
333;902.8779296875
334;902.14794921875
335;901.4201049804688
336;900.6944580078125
337;899.9708251953125
338;899.2493896484375
339;898.5297241210938
340;897.8112182617188
341;897.0955810546875
342;896.3807373046875
343;895.6679077148438
344;894.9568481445312
345;894.2476196289062
346;893.5402221679688
347;892.8348388671875
348;892.1312866210938
349;891.4304809570312
350;890.73046875
351;890.0328369140625
352;889.3370971679688
353;888.6428833007812
354;887.9503784179688
355;887.2595825195312
356;886.5701904296875
357;885.8824462890625
358;885.1956176757812
359;884.51025390625
360;883.8264770507812
361;883.1439819335938
362;882.4631958007812
363;881.7838745117188
364;881.1068725585938
365;880.4306640625
366;879.755859375
367;879.0825805664062
368;878.4109497070312
369;877.7412719726562
370;877.0723266601562
371;876.4047241210938
372;875.7392578125
373;875.0751953125
374;874.4116821289062
375;873.7496337890625
376;873.0889282226562
377;872.4302368164062
378;871.7728881835938
379;871.1168823242188
380;870.4613647460938
381;869.8080444335938
382;869.1550903320312
383;868.5033569335938
384;867.8536376953125
385;867.2044677734375
386;866.5570678710938
387;865.9110107421875
388;865.2654418945312
389;864.6216430664062
390;863.9791870117188
391;863.3372192382812
392;862.6964111328125
393;862.0575561523438
394;861.4190063476562
395;860.7817993164062
396;860.1455688476562
397;859.5111694335938
398;858.8778076171875
399;858.2455444335938
400;857.6142578125
401;856.9840698242188
402;856.3550415039062
403;855.7269897460938
404;855.1000366210938
405;854.4740600585938
406;853.8490600585938
407;853.2245483398438
408;852.6015625
409;851.9796142578125
410;851.3588256835938
411;850.73828125
412;850.1187133789062
413;849.5001220703125
414;848.8831176757812
415;848.2664794921875
416;847.6514892578125
417;847.0372314453125
418;846.4239501953125
419;845.8115234375
420;845.2001342773438
421;844.5896606445312
422;843.9799194335938
423;843.3712158203125
424;842.7627563476562
425;842.1551513671875
426;841.5490112304688
427;840.9432983398438
428;840.3388671875
429;839.7353515625
430;839.1322021484375
431;838.5297241210938
432;837.9287109375
433;837.32861328125
434;836.7288208007812
435;836.1298217773438
436;835.5320434570312
437;834.9346923828125
438;834.3387451171875
439;833.7434692382812
440;833.1484375
441;832.5547485351562
442;831.9619140625
443;831.3699951171875
444;830.7781982421875
445;830.1871948242188
446;829.5974731445312
447;829.0081176757812
448;828.41943359375
449;827.8316040039062
450;827.2449951171875
451;826.6590576171875
452;826.0740966796875
453;825.4891357421875
454;824.9050903320312
455;824.32177734375
456;823.7396850585938
457;823.1577758789062
458;822.5771484375
459;821.9972534179688
460;821.4176025390625
461;820.8387451171875
462;820.2604370117188
463;819.6829833984375
464;819.1066284179688
465;818.5311279296875
466;817.9556274414062
467;817.3814086914062
468;816.8079223632812
469;816.2344970703125
470;815.6619262695312
471;815.0903930664062
472;814.5191650390625
473;813.9490356445312
474;813.3792114257812
475;812.8103637695312
476;812.2417602539062
477;811.6742553710938
478;811.1075439453125
479;810.5408935546875
480;809.9754028320312
481;809.4105834960938
482;808.8462524414062
483;808.2822875976562
484;807.7192993164062
485;807.1565551757812
486;806.5948486328125
487;806.0333251953125
488;805.4729614257812
489;804.91259765625
490;804.3529663085938
491;803.7939453125
492;803.2359008789062
493;802.6781005859375
494;802.1207885742188
495;801.5642700195312
496;801.0082397460938
497;800.4531860351562
498;799.8983154296875
499;799.3441162109375
500;798.7904663085938
501;798.2378540039062
502;797.6858520507812
503;797.1338500976562
504;796.5825805664062
505;796.0322265625
506;795.4821166992188
507;794.9328002929688
508;794.3838500976562
509;793.8353881835938
510;793.2875366210938
511;792.7401123046875
512;792.1937255859375
513;791.6474609375
514;791.1022338867188
515;790.5574951171875
516;790.0128784179688
517;789.4689331054688
518;788.9254760742188
519;788.3825073242188
520;787.8402099609375
521;787.2987060546875
522;786.7573852539062
523;786.2166748046875
524;785.6767578125
525;785.1375122070312
526;784.5983276367188
527;784.0595703125
528;783.5219116210938
529;782.9847412109375
530;782.4480590820312
531;781.9119873046875
532;781.3759765625
533;780.8408203125
534;780.3062744140625
535;779.7718505859375
536;779.23828125
537;778.7047729492188
538;778.1723022460938
539;777.6402587890625
540;777.1087646484375
541;776.5772705078125
542;776.0467529296875
543;775.5162963867188
544;774.9863891601562
545;774.45703125
546;773.9284057617188
547;773.3999633789062
548;772.8723754882812
549;772.3449096679688
550;771.818359375
551;771.2919311523438
552;770.7662963867188
553;770.2411499023438
554;769.7164306640625
555;769.1919555664062
556;768.6679077148438
557;768.1446533203125
558;767.6215209960938
559;767.0989379882812
560;766.57666015625
561;766.0549926757812
562;765.5341186523438
563;765.0132446289062
564;764.4930419921875
565;763.9735107421875
566;763.4544677734375
567;762.9358520507812
568;762.4172973632812
569;761.8992919921875
570;761.3818359375
571;760.8646850585938
572;760.3483276367188
573;759.8321533203125
574;759.31640625
575;758.8010864257812
576;758.2862548828125
577;757.7721557617188
578;757.2584838867188
579;756.7454223632812
580;756.2325439453125
581;755.7202758789062
582;755.2080688476562
583;754.6963500976562
584;754.1853637695312
585;753.6744384765625
586;753.1639404296875
587;752.654296875
588;752.1446533203125
589;751.6354370117188
590;751.1267700195312
591;750.6187744140625
592;750.1109008789062
593;749.603515625
594;749.0964965820312
595;748.5902099609375
596;748.083984375
597;747.5782470703125
598;747.0732421875
599;746.568359375
600;746.0641479492188
601;745.56005859375
602;745.056640625
603;744.5537109375
604;744.05126953125
605;743.5491333007812
606;743.0473022460938
607;742.5460205078125
608;742.0452270507812
609;741.5447387695312
610;741.0446166992188
611;740.544921875
612;740.04541015625
613;739.5462646484375
614;739.0477294921875
615;738.5493774414062
616;738.0514526367188
617;737.5540161132812
618;737.0567626953125
619;736.56005859375
620;736.06396484375
621;735.5682983398438
622;735.0730590820312
623;734.578125
624;734.0836791992188
625;733.5895385742188
626;733.0958251953125
627;732.6025390625
628;732.1096801757812
629;731.6170654296875
630;731.1248779296875
631;730.6328125
632;730.14111328125
633;729.6498413085938
634;729.1588745117188
635;728.6686401367188
636;728.1787719726562
637;727.6893310546875
638;727.2001953125
639;726.7112426757812
640;726.2228393554688
641;725.73486328125
642;725.2470092773438
643;724.759765625
644;724.27294921875
645;723.7865600585938
646;723.3002319335938
647;722.8141479492188
648;722.3285522460938
649;721.8433227539062
650;721.3585815429688
651;720.8741455078125
652;720.3902587890625
653;719.9065551757812
654;719.4231567382812
655;718.9400634765625
656;718.4575805664062
657;717.9755859375
658;717.4938354492188
659;717.0122680664062
660;716.53125
661;716.0504760742188
662;715.5700073242188
663;715.08984375
664;714.6100463867188
665;714.1305541992188
666;713.6517944335938
667;713.1731567382812
668;712.6947631835938
669;712.216796875
670;711.7391357421875
671;711.2618408203125
672;710.78515625
673;710.30859375
674;709.8325805664062
675;709.3567504882812
676;708.8812255859375
677;708.4060668945312
678;707.9312133789062
679;707.4567260742188
680;706.98291015625
681;706.5093383789062
682;706.0360107421875
683;705.5630493164062
684;705.0905151367188
685;704.6181640625
686;704.1460571289062
687;703.6746826171875
688;703.2032470703125
689;702.7322998046875
690;702.2617797851562
691;701.7916870117188
692;701.3216552734375
693;700.8519897460938
694;700.3829345703125
695;699.9139404296875
696;699.4453125
697;698.9771118164062
698;698.5092163085938
699;698.0414428710938
700;697.5741577148438
701;697.107421875
702;696.6409912109375
703;696.1746215820312
704;695.7088623046875
705;695.2434692382812
706;694.7780151367188
707;694.3130493164062
708;693.8486328125
709;693.3844604492188
710;692.9207153320312
711;692.4571533203125
712;691.9938354492188
713;691.53076171875
714;691.0680541992188
715;690.6057739257812
716;690.1438598632812
717;689.6820678710938
718;689.2206420898438
719;688.7597045898438
720;688.2989501953125
721;687.8385009765625
722;687.3786010742188
723;686.9188232421875
724;686.4592895507812
725;686.0000610351562
726;685.5411987304688
727;685.0828857421875
728;684.6249389648438
729;684.1669921875
730;683.7095947265625
731;683.2525024414062
732;682.7957763671875
733;682.3391723632812
734;681.8828125
735;681.4270629882812
736;680.9713134765625
737;680.51611328125
738;680.0610961914062
739;679.6064453125
740;679.1522216796875
741;678.6981201171875
742;678.2442626953125
743;677.7908325195312
744;677.3377685546875
745;676.8851318359375
746;676.4324951171875
747;675.9804077148438
748;675.5284423828125
749;675.0770263671875
750;674.6255493164062
751;674.1744995117188
752;673.7239990234375
753;673.2737426757812
754;672.8237915039062
755;672.3740234375
756;671.9243774414062
757;671.4751586914062
758;671.0264282226562
759;670.5778198242188
760;670.1294555664062
761;669.6814575195312
762;669.2339477539062
763;668.7864990234375
764;668.3394165039062
765;667.892578125
766;667.4462280273438
767;667.0
768;666.5540161132812
769;666.1083984375
770;665.6630859375
771;665.2180786132812
772;664.7733154296875
773;664.3287963867188
774;663.8847045898438
775;663.4411010742188
776;662.9974975585938
777;662.5542602539062
778;662.111328125
779;661.6688842773438
780;661.2264404296875
781;660.7843017578125
782;660.3427124023438
783;659.9014892578125
784;659.4602661132812
785;659.0193481445312
786;658.5789794921875
787;658.1387329101562
788;657.6988525390625
789;657.2593383789062
790;656.8200073242188
791;656.380859375
792;655.9420776367188
793;655.5034790039062
794;655.0654296875
795;654.6275634765625
796;654.1898193359375
797;653.7523803710938
798;653.3153686523438
799;652.8784790039062
800;652.4420776367188
801;652.005859375
802;651.5701293945312
803;651.1344604492188
804;650.6990356445312
805;650.2640380859375
806;649.8291015625
807;649.3946533203125
808;648.9605102539062
809;648.5266723632812
810;648.0928955078125
811;647.6595458984375
812;647.2263793945312
813;646.7933959960938
814;646.3607788085938
815;645.9284057617188
816;645.4962768554688
817;645.064453125
818;644.6331176757812
819;644.2018432617188
820;643.7710571289062
821;643.3405151367188
822;642.9100952148438
823;642.4801635742188
824;642.0502319335938
825;641.6207885742188
826;641.1915893554688
827;640.7626953125
828;640.3341064453125
829;639.9056396484375
830;639.4774169921875
831;639.0496826171875
832;638.6219482421875
833;638.1947631835938
834;637.767578125
835;637.3408813476562
836;636.9143676757812
837;636.4879760742188
838;636.0621337890625
839;635.6365966796875
840;635.2110595703125
841;634.7858276367188
842;634.3609008789062
843;633.9361572265625
844;633.5119018554688
845;633.087890625
846;632.6640625
847;632.2403564453125
848;631.8172607421875
849;631.3941040039062
850;630.9714965820312
851;630.5491333007812
852;630.126953125
853;629.705078125
854;629.2833251953125
855;628.8618774414062
856;628.4407348632812
857;628.0198974609375
858;627.5993041992188
859;627.1790161132812
860;626.7591552734375
861;626.3392333984375
862;625.9197998046875
863;625.50048828125
864;625.0813598632812
865;624.6625366210938
866;624.2440185546875
867;623.82568359375
868;623.40771484375
869;622.9901733398438
870;622.5726928710938
871;622.1557006835938
872;621.73876953125
873;621.3222045898438
874;620.9058227539062
875;620.4896240234375
876;620.0736694335938
877;619.6578979492188
878;619.2424926757812
879;618.8274536132812
880;618.4126586914062
881;617.9981689453125
882;617.5838623046875
883;617.1696166992188
884;616.7557983398438
885;616.3421630859375
886;615.9287109375
887;615.515625
888;615.1028442382812
889;614.6902465820312
890;614.27783203125
891;613.86572265625
892;613.4540405273438
893;613.0425415039062
894;612.6311645507812
895;612.22021484375
896;611.8095092773438
897;611.3991088867188
898;610.9889526367188
899;610.5789184570312
900;610.1690063476562
901;609.7594604492188
902;609.3501586914062
903;608.9412231445312
904;608.5325317382812
905;608.1239624023438
906;607.7158203125
907;607.3077392578125
908;606.9000854492188
909;606.49267578125
910;606.0855102539062
911;605.6785888671875
912;605.2717895507812
913;604.8652954101562
914;604.458984375
915;604.0530395507812
916;603.6472778320312
917;603.2418823242188
918;602.8366088867188
919;602.431640625
920;602.0269165039062
921;601.6224975585938
922;601.21826171875
923;600.8143310546875
924;600.41064453125
925;600.0070190429688
926;599.6038818359375
927;599.2008666992188
928;598.7981567382812
929;598.3956298828125
930;597.9933471679688
931;597.59130859375
932;597.189453125
933;596.7877807617188
934;596.3865356445312
935;595.9854125976562
936;595.58447265625
937;595.1838989257812
938;594.7835693359375
939;594.3834838867188
940;593.9837036132812
941;593.5840454101562
942;593.1846313476562
943;592.7855834960938
944;592.3867797851562
945;591.98828125
946;591.5899047851562
947;591.1918334960938
948;590.7939453125
949;590.3963623046875
950;589.9989013671875
951;589.6016235351562
952;589.2046508789062
953;588.8079833984375
954;588.4115600585938
955;588.0153198242188
956;587.6194458007812
957;587.2237548828125
958;586.8282470703125
959;586.43310546875
960;586.0380859375
961;585.6434326171875
962;585.2487182617188
963;584.8544921875
964;584.4603881835938
965;584.0667114257812
966;583.673095703125
967;583.27978515625
968;582.88671875
969;582.4938354492188
970;582.1011962890625
971;581.7086791992188
972;581.3165893554688
973;580.9246826171875
974;580.5330200195312
975;580.1414184570312
976;579.750244140625
977;579.3591918945312
978;578.9683837890625
979;578.5778198242188
980;578.1875
981;577.7973022460938
982;577.407470703125
983;577.0177612304688
984;576.6282958984375
985;576.2390747070312
986;575.8500366210938
987;575.46142578125
988;575.0728759765625
989;574.6845703125
990;574.2965087890625
991;573.90869140625
992;573.5211791992188
993;573.1337890625
994;572.7466430664062
995;572.3598022460938
996;571.9732666015625
997;571.5869140625
998;571.2008056640625
999;570.8148193359375
1000;570.4291381835938
1001;570.0437622070312
1002;569.6585693359375
1003;569.2735595703125
1004;568.8887939453125
1005;568.5042724609375
1006;568.1199340820312
1007;567.73583984375
1008;567.3519897460938
1009;566.96826171875
1010;566.5848999023438
1011;566.20166015625
1012;565.8186645507812
1013;565.4359130859375
1014;565.0534057617188
1015;564.6712036132812
1016;564.2891235351562
1017;563.9073486328125
1018;563.5258178710938
1019;563.1444702148438
1020;562.7632446289062
1021;562.38232421875
1022;562.0016479492188
1023;561.6212768554688
1024;561.2410278320312
1025;560.8609619140625
1026;560.4812622070312
1027;560.1016845703125
1028;559.7222290039062
1029;559.3432006835938
1030;558.96435546875
1031;558.5856323242188
1032;558.2072143554688
1033;557.8289794921875
1034;557.4510498046875
1035;557.0731811523438
1036;556.6956176757812
1037;556.3181762695312
1038;555.9409790039062
1039;555.56396484375
1040;555.187255859375
1041;554.8106689453125
1042;554.4343872070312
1043;554.0582885742188
1044;553.6825561523438
1045;553.3069458007812
1046;552.931640625
1047;552.5564575195312
1048;552.1814575195312
1049;551.8067016601562
1050;551.43212890625
1051;551.057861328125
1052;550.683837890625
1053;550.3099365234375
1054;549.9363403320312
1055;549.5628662109375
1056;549.1897583007812
1057;548.8167724609375
1058;548.4439697265625
1059;548.0714111328125
1060;547.6990966796875
1061;547.3269653320312
1062;546.9550170898438
1063;546.5833740234375
1064;546.2118530273438
1065;545.8406982421875
1066;545.4696655273438
1067;545.0988159179688
1068;544.7283325195312
1069;544.3578491210938
1070;543.9876708984375
1071;543.6177368164062
1072;543.2479858398438
1073;542.87841796875
1074;542.5090942382812
1075;542.1400146484375
1076;541.7711791992188
1077;541.4026489257812
1078;541.0342407226562
1079;540.6660766601562
1080;540.2980346679688
1081;539.9303588867188
1082;539.5628051757812
1083;539.1954956054688
1084;538.8283081054688
1085;538.4614868164062
1086;538.0947875976562
1087;537.728271484375
1088;537.3619995117188
1089;536.9960327148438
1090;536.6302490234375
1091;536.2646484375
1092;535.899169921875
1093;535.533935546875
1094;535.1689453125
1095;534.8040771484375
1096;534.4395141601562
1097;534.0751342773438
1098;533.7109985351562
1099;533.3470458984375
1100;532.9832763671875
1101;532.6198120117188
1102;532.2564697265625
1103;531.8934326171875
1104;531.5306396484375
1105;531.1680297851562
1106;530.8054809570312
1107;530.4432373046875
1108;530.0811767578125
1109;529.7194213867188
1110;529.3578491210938
1111;528.996337890625
1112;528.6351928710938
1113;528.2742919921875
1114;527.9135131835938
1115;527.5530395507812
1116;527.1926879882812
1117;526.8325805664062
1118;526.47265625
1119;526.1129760742188
1120;525.7534790039062
1121;525.3942260742188
1122;525.0350341796875
1123;524.6760864257812
1124;524.3173217773438
1125;523.9588012695312
1126;523.6005859375
1127;523.2425537109375
1128;522.8846435546875
1129;522.5270385742188
1130;522.1695556640625
1131;521.812255859375
1132;521.4552001953125
1133;521.0982666015625
1134;520.7416381835938
1135;520.3851928710938
1136;520.0289916992188
1137;519.6729125976562
1138;519.3171997070312
1139;518.9616088867188
1140;518.606201171875
1141;518.2509155273438
1142;517.8960571289062
1143;517.5411987304688
1144;517.1867065429688
1145;516.832275390625
1146;516.4781494140625
1147;516.1241455078125
1148;515.7703857421875
1149;515.4168701171875
1150;515.0635986328125
1151;514.7103881835938
1152;514.357421875
1153;514.0046997070312
1154;513.6521606445312
1155;513.2998046875
1156;512.9476318359375
1157;512.5956420898438
1158;512.2438354492188
1159;511.892333984375
1160;511.54095458984375
1161;511.18988037109375
1162;510.8388671875
1163;510.48809814453125
1164;510.13763427734375
1165;509.787353515625
1166;509.437255859375
1167;509.08734130859375
1168;508.7375793457031
1169;508.3880310058594
1170;508.0387268066406
1171;507.6896057128906
1172;507.3406066894531
1173;506.9919128417969
1174;506.64337158203125
1175;506.2950134277344
1176;505.9469299316406
1177;505.5989685058594
1178;505.2513122558594
1179;504.90386962890625
1180;504.55657958984375
1181;504.20941162109375
1182;503.862548828125
1183;503.51593017578125
1184;503.16943359375
1185;502.8231506347656
1186;502.47705078125
1187;502.1311340332031
1188;501.78546142578125
1189;501.4399719238281
1190;501.0946350097656
1191;500.74945068359375
1192;500.4045715332031
1193;500.05975341796875
1194;499.7153015136719
1195;499.37109375
1196;499.0268859863281
1197;498.6829528808594
1198;498.3392028808594
1199;497.99566650390625
1200;497.65234375
1201;497.3092346191406
1202;496.9663391113281
1203;496.62353515625
1204;496.28106689453125
1205;495.9387512207031
1206;495.5966796875
1207;495.25469970703125
1208;494.9128723144531
1209;494.5713195800781
1210;494.22998046875
1211;493.8888244628906
1212;493.5478820800781
1213;493.2070617675781
1214;492.86651611328125
1215;492.5261535644531
1216;492.18603515625
1217;491.8460388183594
1218;491.50628662109375
1219;491.1667175292969
1220;490.8273620605469
1221;490.48822021484375
1222;490.1492004394531
1223;489.81036376953125
1224;489.47174072265625
1225;489.13336181640625
1226;488.7951965332031
1227;488.4571838378906
1228;488.1193542480469
1229;487.7816467285156
1230;487.44427490234375
1231;487.10699462890625
1232;486.7699279785156
1233;486.43304443359375
1234;486.09637451171875
1235;485.7599182128906
1236;485.4235534667969
1237;485.0874328613281
1238;484.75146484375
1239;484.4157409667969
1240;484.08013916015625
1241;483.744873046875
1242;483.40972900390625
1243;483.0748596191406
1244;482.7400207519531
1245;482.4054870605469
1246;482.0710754394531
1247;481.7369689941406
1248;481.4029846191406
1249;481.0691833496094
1250;480.7356262207031
1251;480.40228271484375
1252;480.06903076171875
1253;479.7360534667969
1254;479.4032287597656
1255;479.070556640625
1256;478.7381896972656
1257;478.4058532714844
1258;478.0738220214844
1259;477.7419738769531
1260;477.41021728515625
1261;477.0787658691406
1262;476.7474060058594
1263;476.4162902832031
1264;476.0852966308594
1265;475.75457763671875
1266;475.4240417480469
1267;475.0935974121094
1268;474.7634582519531
1269;474.4335021972656
1270;474.1037292480469
1271;473.77410888671875
1272;473.4447326660156
1273;473.1154479980469
1274;472.7864074707031
1275;472.4574890136719
1276;472.12884521484375
1277;471.80035400390625
1278;471.4719543457031
1279;471.1438903808594
1280;470.8159484863281
1281;470.4881286621094
1282;470.1604919433594
1283;469.8332214355469
1284;469.50592041015625
1285;469.1789245605469
1286;468.8520812988281
1287;468.5254821777344
1288;468.1990661621094
1289;467.8728332519531
1290;467.5468444824219
1291;467.22088623046875
1292;466.895263671875
1293;466.56982421875
1294;466.24444580078125
1295;465.91925048828125
1296;465.5943908691406
1297;465.26959228515625
1298;464.945068359375
1299;464.6206970214844
1300;464.2964782714844
1301;463.9724426269531
1302;463.64862060546875
1303;463.3249816894531
1304;463.0014953613281
1305;462.67822265625
1306;462.3550720214844
1307;462.03216552734375
1308;461.70947265625
1309;461.38690185546875
1310;461.0645446777344
1311;460.7424011230469
1312;460.42034912109375
1313;460.0985412597656
1314;459.77685546875
1315;459.4554138183594
1316;459.1342468261719
1317;458.8131408691406
1318;458.4921875
1319;458.17144775390625
1320;457.8509216308594
1321;457.5306091308594
1322;457.2104797363281
1323;456.89056396484375
1324;456.57080078125
1325;456.2511291503906
1326;455.9317321777344
1327;455.61248779296875
1328;455.29345703125
1329;454.97467041015625
1330;454.65594482421875
1331;454.3374328613281
1332;454.0191955566406
1333;453.7009582519531
1334;453.3830261230469
1335;453.0652160644531
1336;452.7475891113281
1337;452.43023681640625
1338;452.1130676269531
1339;451.79608154296875
1340;451.4791564941406
1341;451.16241455078125
1342;450.8458557128906
1343;450.529541015625
1344;450.21337890625
1345;449.89739990234375
1346;449.58154296875
1347;449.2659606933594
1348;448.9505310058594
1349;448.6353454589844
1350;448.32025146484375
1351;448.00537109375
1352;447.6907043457031
1353;447.3761901855469
1354;447.0618591308594
1355;446.7476501464844
1356;446.4337463378906
1357;446.1199035644531
1358;445.80621337890625
1359;445.4928283691406
1360;445.1795349121094
1361;444.8664855957031
1362;444.55352783203125
1363;444.24078369140625
1364;443.92822265625
1365;443.6158752441406
1366;443.30364990234375
1367;442.99169921875
1368;442.6798400878906
1369;442.3681335449219
1370;442.056640625
1371;441.7453308105469
1372;441.4341735839844
1373;441.12322998046875
1374;440.81243896484375
1375;440.50189208984375
1376;440.19146728515625
1377;439.8811950683594
1378;439.57122802734375
1379;439.2612609863281
1380;438.9515686035156
1381;438.64202880859375
1382;438.3326110839844
1383;438.0234375
1384;437.71441650390625
1385;437.4056091308594
1386;437.0969543457031
1387;436.7884826660156
1388;436.4801940917969
1389;436.1720886230469
1390;435.86419677734375
1391;435.5564270019531
1392;435.2488098144531
1393;434.94140625
1394;434.63421630859375
1395;434.3271789550781
1396;434.0202941894531
1397;433.7136535644531
1398;433.40716552734375
1399;433.100830078125
1400;432.7947082519531
1401;432.48870849609375
1402;432.1829528808594
1403;431.8772888183594
1404;431.57183837890625
1405;431.2666015625
1406;430.96142578125
1407;430.65643310546875
1408;430.3517150878906
1409;430.0470886230469
1410;429.7427062988281
1411;429.4384765625
1412;429.1344299316406
1413;428.8305358886719
1414;428.52679443359375
1415;428.22332763671875
1416;427.919921875
1417;427.6167297363281
1418;427.3136901855469
1419;427.01080322265625
1420;426.7080993652344
1421;426.4056701660156
1422;426.1033020019531
1423;425.80120849609375
1424;425.4991760253906
1425;425.19732666015625
1426;424.8957214355469
1427;424.5942077636719
1428;424.29290771484375
1429;423.99176025390625
1430;423.6907653808594
1431;423.3899841308594
1432;423.08941650390625
1433;422.78900146484375
1434;422.4887390136719
1435;422.18865966796875
1436;421.88873291015625
1437;421.5890808105469
1438;421.2895202636719
1439;420.9901428222656
1440;420.6909484863281
1441;420.3918762207031
1442;420.09295654296875
1443;419.7942810058594
1444;419.4957580566406
1445;419.19744873046875
1446;418.8992614746094
1447;418.6012268066406
1448;418.30340576171875
1449;418.0057067871094
1450;417.70819091796875
1451;417.4107971191406
1452;417.11370849609375
1453;416.816650390625
1454;416.51983642578125
1455;416.2231750488281
1456;415.9266662597656
1457;415.6303405761719
1458;415.3341979980469
1459;415.0382385253906
1460;414.7424621582031
1461;414.44683837890625
1462;414.1513366699219
1463;413.85601806640625
1464;413.5608215332031
1465;413.2658996582031
1466;412.9710388183594
1467;412.6764831542969
1468;412.3820495605469
1469;412.08782958984375
1470;411.79364013671875
1471;411.4997253417969
1472;411.2059020996094
1473;410.9123229980469
1474;410.6189270019531
1475;410.3256530761719
1476;410.0325012207031
1477;409.7395324707031
1478;409.44677734375
1479;409.1541442871094
1480;408.8617248535156
1481;408.56951904296875
1482;408.27740478515625
1483;407.9854431152344
1484;407.6936950683594
1485;407.402099609375
1486;407.1106872558594
1487;406.81939697265625
1488;406.5283508300781
1489;406.23736572265625
1490;405.9466247558594
1491;405.6560363769531
1492;405.3655700683594
1493;405.0753479003906
1494;404.78521728515625
1495;404.4952697753906
1496;404.20556640625
1497;403.9159240722656
1498;403.62652587890625
1499;403.3372497558594
1500;403.0481262207031
1501;402.75921630859375
1502;402.4704284667969
1503;402.181884765625
1504;401.89349365234375
1505;401.6052551269531
1506;401.31719970703125
1507;401.0292663574219
1508;400.7414855957031
1509;400.45391845703125
1510;400.16650390625
1511;399.8792419433594
1512;399.59222412109375
1513;399.30523681640625
1514;399.0184631347656
1515;398.7317810058594
1516;398.44537353515625
1517;398.1591491699219
1518;397.873046875
1519;397.5871276855469
1520;397.30133056640625
1521;397.0157775878906
1522;396.7303161621094
1523;396.4450988769531
1524;396.1599426269531
1525;395.875
1526;395.59027099609375
1527;395.30560302734375
1528;395.0211486816406
1529;394.73687744140625
1530;394.4526672363281
1531;394.1686706542969
1532;393.8849792480469
1533;393.601318359375
1534;393.31787109375
1535;393.0345153808594
1536;392.7513732910156
1537;392.4684143066406
1538;392.185546875
1539;391.9029235839844
1540;391.62042236328125
1541;391.3381042480469
1542;391.0559387207031
1543;390.77392578125
1544;390.4920349121094
1545;390.21038818359375
1546;389.9288635253906
1547;389.6475524902344
1548;389.3664245605469
1549;389.08538818359375
1550;388.8045349121094
1551;388.52386474609375
1552;388.2433776855469
1553;387.96295166015625
1554;387.6827087402344
1555;387.40264892578125
1556;387.1227722167969
1557;386.843017578125
1558;386.5634460449219
1559;386.28399658203125
1560;386.00482177734375
1561;385.7257385253906
1562;385.4468078613281
1563;385.1680603027344
1564;384.88946533203125
1565;384.6110534667969
1566;384.33282470703125
1567;384.0546875
1568;383.77679443359375
1569;383.4990234375
1570;383.2214050292969
1571;382.94390869140625
1572;382.66668701171875
1573;382.38958740234375
1574;382.1125793457031
1575;381.8357849121094
1576;381.5591125488281
1577;381.2825622558594
1578;381.00628662109375
1579;380.7301330566406
1580;380.4541320800781
1581;380.1782531738281
1582;379.9026184082031
1583;379.6271057128906
1584;379.3517150878906
1585;379.0763854980469
1586;378.8013610839844
1587;378.52642822265625
1588;378.251708984375
1589;377.9771423339844
1590;377.7027893066406
1591;377.4284973144531
1592;377.1544494628906
1593;376.8804626464844
1594;376.6067199707031
1595;376.3330993652344
1596;376.05963134765625
1597;375.786376953125
1598;375.51318359375
1599;375.240234375
1600;374.96746826171875
1601;374.69476318359375
1602;374.4222717285156
1603;374.14996337890625
1604;373.87774658203125
1605;373.6057434082031
1606;373.3338928222656
1607;373.0622253417969
1608;372.79058837890625
1609;372.5192565917969
1610;372.248046875
1611;371.97698974609375
1612;371.7060241699219
1613;371.4352722167969
1614;371.1647033691406
1615;370.89422607421875
1616;370.6238708496094
1617;370.3537292480469
1618;370.083740234375
1619;369.81390380859375
1620;369.5441589355469
1621;369.2746887207031
1622;369.00531005859375
1623;368.7361145019531
1624;368.467041015625
1625;368.19818115234375
1626;367.9294128417969
1627;367.6608581542969
1628;367.3924255371094
1629;367.1242370605469
1630;366.8561096191406
1631;366.5881652832031
1632;366.3204040527344
1633;366.052734375
1634;365.78533935546875
1635;365.5179748535156
1636;365.2508239746094
1637;364.98388671875
1638;364.7170104980469
1639;364.45025634765625
1640;364.1837463378906
1641;363.9173889160156
1642;363.6511535644531
1643;363.38507080078125
1644;363.1191711425781
1645;362.8533630371094
1646;362.5877380371094
1647;362.3223571777344
1648;362.0570373535156
1649;361.79180908203125
1650;361.5268859863281
1651;361.2620544433594
1652;360.9974060058594
1653;360.7328796386719
1654;360.4685363769531
1655;360.204345703125
1656;359.9403381347656
1657;359.67633056640625
1658;359.4126281738281
1659;359.1490173339844
1660;358.8856506347656
1661;358.6223449707031
1662;358.3592834472656
1663;358.09625244140625
1664;357.83343505859375
1665;357.5707702636719
1666;357.3083190917969
1667;357.0459289550781
1668;356.7837219238281
1669;356.5216369628906
1670;356.259765625
1671;355.998046875
1672;355.7364807128906
1673;355.47503662109375
1674;355.2137756347656
1675;354.95263671875
1676;354.6916809082031
1677;354.4308776855469
1678;354.1701965332031
1679;353.9096374511719
1680;353.64935302734375
1681;353.3891296386719
1682;353.1290588378906
1683;352.8691711425781
1684;352.60943603515625
1685;352.349853515625
1686;352.09039306640625
1687;351.8311462402344
1688;351.5719909667969
1689;351.31304931640625
1690;351.0541687011719
1691;350.79547119140625
1692;350.5369567871094
1693;350.2785949707031
1694;350.0203552246094
1695;349.76239013671875
1696;349.50439453125
1697;349.24664306640625
1698;348.9890441894531
1699;348.73162841796875
1700;348.4742736816406
1701;348.2170715332031
1702;347.9600524902344
1703;347.7032165527344
1704;347.44647216796875
1705;347.18994140625
1706;346.9335632324219
1707;346.6772766113281
1708;346.4212341308594
1709;346.1653137207031
1710;345.9095153808594
1711;345.6538391113281
1712;345.3983459472656
1713;345.14300537109375
1714;344.88775634765625
1715;344.63275146484375
1716;344.37786865234375
1717;344.123046875
1718;343.86846923828125
1719;343.6140441894531
1720;343.3597106933594
1721;343.1056213378906
1722;342.8516540527344
1723;342.5977478027344
1724;342.3440856933594
1725;342.0905456542969
1726;341.837158203125
1727;341.5838928222656
1728;341.3307800292969
1729;341.0778503417969
1730;340.8251037597656
1731;340.57244873046875
1732;340.3199157714844
1733;340.0675964355469
1734;339.8153991699219
1735;339.5633850097656
1736;339.3114318847656
1737;339.0596618652344
1738;338.80810546875
1739;338.55657958984375
1740;338.3052673339844
1741;338.0541687011719
1742;337.8031921386719
1743;337.5523376464844
1744;337.3016662597656
1745;337.0511169433594
1746;336.8006896972656
1747;336.5505065917969
1748;336.3003234863281
1749;336.05035400390625
1750;335.8005676269531
1751;335.55084228515625
1752;335.3013610839844
1753;335.05194091796875
1754;334.802734375
1755;334.5536804199219
1756;334.3046875
1757;334.055908203125
1758;333.80731201171875
1759;333.5588073730469
1760;333.31048583984375
1761;333.0622863769531
1762;332.8142395019531
1763;332.5664367675781
1764;332.3186340332031
1765;332.0710144042969
1766;331.8235778808594
1767;331.5763244628906
1768;331.32916259765625
1769;331.08209228515625
1770;330.83526611328125
1771;330.58856201171875
1772;330.34197998046875
1773;330.0955505371094
1774;329.8493347167969
1775;329.60321044921875
1776;329.3572082519531
1777;329.1113586425781
1778;328.86566162109375
1779;328.6200866699219
1780;328.37469482421875
1781;328.1294860839844
1782;327.8843688964844
1783;327.639404296875
1784;327.3945617675781
1785;327.1499328613281
1786;326.9054260253906
1787;326.66107177734375
1788;326.4167785644531
1789;326.1727600097656
1790;325.9288635253906
1791;325.68505859375
1792;325.44140625
1793;325.1979675292969
1794;324.95458984375
1795;324.71142578125
1796;324.4684143066406
1797;324.2254333496094
1798;323.9826354980469
1799;323.7400207519531
1800;323.49755859375
1801;323.2551574707031
1802;323.0129699707031
1803;322.77093505859375
1804;322.52899169921875
1805;322.2872619628906
1806;322.045654296875
1807;321.8041687011719
1808;321.5628356933594
1809;321.32171630859375
1810;321.08062744140625
1811;320.83978271484375
1812;320.5989685058594
1813;320.3583984375
1814;320.117919921875
1815;319.8776550292969
1816;319.6374816894531
1817;319.3974609375
1818;319.1575622558594
1819;318.91790771484375
1820;318.67828369140625
1821;318.4388122558594
1822;318.19952392578125
1823;317.96038818359375
1824;317.7214050292969
1825;317.4825134277344
1826;317.2438049316406
1827;317.0051574707031
1828;316.7667541503906
1829;316.5284729003906
1830;316.290283203125
1831;316.05224609375
1832;315.81439208984375
1833;315.57666015625
1834;315.3390808105469
1835;315.10162353515625
1836;314.86431884765625
1837;314.627197265625
1838;314.3901672363281
1839;314.1533203125
1840;313.9165954589844
1841;313.679931640625
1842;313.4435119628906
1843;313.20721435546875
1844;312.9710998535156
1845;312.7350769042969
1846;312.4992370605469
1847;312.2634582519531
1848;312.0279235839844
1849;311.7924499511719
1850;311.5570983886719
1851;311.3219909667969
1852;311.0870056152344
1853;310.85205078125
1854;310.6173400878906
1855;310.38275146484375
1856;310.1483459472656
1857;309.9139709472656
1858;309.6798400878906
1859;309.4457702636719
1860;309.21197509765625
1861;308.97821044921875
1862;308.74456787109375
1863;308.5111389160156
1864;308.2777404785156
1865;308.04461669921875
1866;307.8115234375
1867;307.5786437988281
1868;307.3458557128906
1869;307.11328125
1870;306.88079833984375
1871;306.6484375
1872;306.4162292480469
1873;306.1841735839844
1874;305.9523010253906
1875;305.7204895019531
1876;305.4888610839844
1877;305.2574157714844
1878;305.02606201171875
1879;304.7948913574219
1880;304.56378173828125
1881;304.3327941894531
1882;304.10205078125
1883;303.87139892578125
1884;303.64093017578125
1885;303.4105529785156
1886;303.1803283691406
1887;302.95025634765625
1888;302.7203674316406
1889;302.4905090332031
1890;302.2608337402344
1891;302.0312805175781
1892;301.8018493652344
1893;301.5726013183594
1894;301.34356689453125
1895;301.11456298828125
1896;300.8857421875
1897;300.6570739746094
1898;300.428466796875
1899;300.2001037597656
1900;299.9718322753906
1901;299.74371337890625
1902;299.5156555175781
1903;299.2878723144531
1904;299.06011962890625
1905;298.83251953125
1906;298.60504150390625
1907;298.3777770996094
1908;298.1506042480469
1909;297.923583984375
1910;297.6967468261719
1911;297.4700012207031
1912;297.243408203125
1913;297.0169982910156
1914;296.79058837890625
1915;296.5644226074219
1916;296.3383483886719
1917;296.11248779296875
1918;295.8866882324219
1919;295.6610412597656
1920;295.4355163574219
1921;295.2101135253906
1922;294.9848937988281
1923;294.759765625
1924;294.5348815917969
1925;294.31005859375
1926;294.08538818359375
1927;293.8608703613281
1928;293.6364440917969
1929;293.41217041015625
1930;293.1880798339844
1931;292.9640808105469
1932;292.74017333984375
1933;292.5165100097656
1934;292.29290771484375
1935;292.0694274902344
1936;291.8461608886719
1937;291.6229553222656
1938;291.3999328613281
1939;291.17706298828125
1940;290.954345703125
1941;290.731689453125
1942;290.5092468261719
1943;290.286865234375
1944;290.06463623046875
1945;289.8426208496094
1946;289.6206359863281
1947;289.39886474609375
1948;289.17718505859375
1949;288.9556579589844
1950;288.7342529296875
1951;288.51300048828125
1952;288.2919006347656
1953;288.07086181640625
1954;287.85003662109375
1955;287.6293640136719
1956;287.40875244140625
1957;287.1883239746094
1958;286.9679870605469
1959;286.74786376953125
1960;286.5278625488281
1961;286.30792236328125
1962;286.0881042480469
1963;285.8685302734375
1964;285.64898681640625
1965;285.4296569824219
1966;285.21038818359375
1967;284.9913330078125
1968;284.7723693847656
1969;284.5534973144531
1970;284.3348693847656
1971;284.1163024902344
1972;283.8979187011719
1973;283.6796569824219
1974;283.46148681640625
1975;283.24346923828125
1976;283.0256042480469
1977;282.80792236328125
1978;282.59027099609375
1979;282.3728332519531
1980;282.155517578125
1981;281.938232421875
1982;281.7212219238281
1983;281.5042419433594
1984;281.2874755859375
1985;281.07080078125
1986;280.85430908203125
1987;280.6379089355469
1988;280.4216003417969
1989;280.20550537109375
1990;279.9895324707031
1991;279.7736511230469
1992;279.55792236328125
1993;279.34234619140625
1994;279.126953125
1995;278.9115905761719
1996;278.6963806152344
1997;278.4813537597656
1998;278.2665100097656
1999;278.0516662597656
2000;277.8370666503906
2001;277.6225280761719
2002;277.4081726074219
2003;277.1939392089844
2004;276.97979736328125
2005;276.765869140625
2006;276.5519714355469
2007;276.3382263183594
2008;276.12469482421875
2009;275.91119384765625
2010;275.69793701171875
2011;275.4847106933594
2012;275.271728515625
2013;275.05877685546875
2014;274.84600830078125
2015;274.6332702636719
2016;274.4208068847656
2017;274.20843505859375
2018;273.99615478515625
2019;273.7840576171875
2020;273.57208251953125
2021;273.3601989746094
2022;273.1484680175781
2023;272.9368896484375
2024;272.7253723144531
2025;272.5140686035156
2026;272.3028869628906
2027;272.0917663574219
2028;271.8808898925781
2029;271.6700134277344
2030;271.4593811035156
2031;271.2488098144531
2032;271.0384216308594
2033;270.8281555175781
2034;270.61798095703125
2035;270.4079284667969
2036;270.19805908203125
2037;269.98828125
2038;269.7786560058594
2039;269.5691833496094
2040;269.35986328125
2041;269.1506042480469
2042;268.9414978027344
2043;268.73260498046875
2044;268.5237121582031
2045;268.3150329589844
2046;268.1064453125
2047;267.89801025390625
2048;267.68975830078125
2049;267.4815368652344
2050;267.2734680175781
2051;267.0655822753906
2052;266.8577575683594
2053;266.6501159667969
2054;266.4425964355469
2055;266.2351989746094
2056;266.0279235839844
2057;265.8208312988281
2058;265.6138000488281
2059;265.40692138671875
2060;265.2001647949219
2061;264.9935607910156
2062;264.787109375
2063;264.58074951171875
2064;264.3744812011719
2065;264.16839599609375
2066;263.9624328613281
2067;263.7566223144531
2068;263.5508728027344
2069;263.3453063964844
2070;263.1398620605469
2071;262.9345703125
2072;262.7293395996094
2073;262.52435302734375
2074;262.31939697265625
2075;262.11456298828125
2076;261.9099426269531
2077;261.7053527832031
2078;261.5009460449219
2079;261.296630859375
2080;261.09246826171875
2081;260.88848876953125
2082;260.6846008300781
2083;260.4808654785156
2084;260.2772521972656
2085;260.0737609863281
2086;259.870361328125
2087;259.6671447753906
2088;259.4639892578125
2089;259.26104736328125
2090;259.05816650390625
2091;258.85540771484375
2092;258.6528625488281
2093;258.4502868652344
2094;258.2480163574219
2095;258.0458068847656
2096;257.84368896484375
2097;257.6416931152344
2098;257.43988037109375
2099;257.2381896972656
2100;257.0366516113281
2101;256.8351745605469
2102;256.63385009765625
2103;256.4326477050781
2104;256.2315979003906
2105;256.0306701660156
2106;255.82984924316406
2107;255.62918090820312
2108;255.42860412597656
2109;255.2281951904297
2110;255.0278778076172
2111;254.82774353027344
2112;254.62771606445312
2113;254.42776489257812
2114;254.2279815673828
2115;254.02835083007812
2116;253.8287811279297
2117;253.62937927246094
2118;253.43006896972656
2119;253.23097229003906
2120;253.0319061279297
2121;252.8330078125
2122;252.63429260253906
2123;252.4356231689453
2124;252.23709106445312
2125;252.03871154785156
2126;251.84048461914062
2127;251.64230346679688
2128;251.4443359375
2129;251.24647521972656
2130;251.04872131347656
2131;250.85107421875
2132;250.65359497070312
2133;250.4562225341797
2134;250.2589569091797
2135;250.0618438720703
2136;249.86483764648438
2137;249.66799926757812
2138;249.4712371826172
2139;249.27462768554688
2140;249.078125
2141;248.8817596435547
2142;248.6855010986328
2143;248.4893798828125
2144;248.2933807373047
2145;248.09750366210938
2146;247.90176391601562
2147;247.70616149902344
2148;247.5106658935547
2149;247.31539916992188
2150;247.1201171875
2151;246.92501831054688
2152;246.72999572753906
2153;246.5352020263672
2154;246.34043884277344
2155;246.1458740234375
2156;245.9513397216797
2157;245.75697326660156
2158;245.56272888183594
2159;245.36862182617188
2160;245.17465209960938
2161;244.98080444335938
2162;244.7870330810547
2163;244.5934295654297
2164;244.39993286132812
2165;244.2066192626953
2166;244.01339721679688
2167;243.8202362060547
2168;243.6272735595703
2169;243.4344024658203
2170;243.24166870117188
2171;243.049072265625
2172;242.8565673828125
2173;242.6642303466797
2174;242.47201538085938
2175;242.2798614501953
2176;242.08787536621094
2177;241.89601135253906
2178;241.70425415039062
2179;241.51266479492188
2180;241.3211669921875
2181;241.12979125976562
2182;240.9385528564453
2183;240.74742126464844
2184;240.5564422607422
2185;240.36550903320312
2186;240.1748046875
2187;239.98416137695312
2188;239.79367065429688
2189;239.60328674316406
2190;239.4130096435547
2191;239.22288513183594
2192;239.0328826904297
2193;238.84300231933594
2194;238.6532440185547
2195;238.46353149414062
2196;238.27406311035156
2197;238.0846405029297
2198;237.89537048339844
2199;237.7061767578125
2200;237.5171356201172
2201;237.32826232910156
2202;237.1394805908203
2203;236.95083618164062
2204;236.76234436035156
2205;236.5738983154297
2206;236.38558959960938
2207;236.19747924804688
2208;236.00942993164062
2209;235.8214569091797
2210;235.63368225097656
2211;235.44601440429688
2212;235.25843811035156
2213;235.071044921875
2214;234.8837127685547
2215;234.696533203125
2216;234.50942993164062
2217;234.322509765625
2218;234.13571166992188
2219;233.94900512695312
2220;233.76242065429688
2221;233.57595825195312
2222;233.3896026611328
2223;233.2034149169922
2224;233.01730346679688
2225;232.8313751220703
2226;232.6455078125
2227;232.45974731445312
2228;232.274169921875
2229;232.0886993408203
2230;231.90335083007812
2231;231.71810913085938
2232;231.5330352783203
2233;231.3480224609375
2234;231.16317749023438
2235;230.97836303710938
2236;230.7937774658203
2237;230.60923767089844
2238;230.42483520507812
2239;230.2406005859375
2240;230.0564727783203
2241;229.87242126464844
2242;229.68850708007812
2243;229.5047149658203
2244;229.32107543945312
2245;229.13755798339844
2246;228.95411682128906
2247;228.77078247070312
2248;228.58763122558594
2249;228.40455627441406
2250;228.2216796875
2251;228.03884887695312
2252;227.85610961914062
2253;227.67356872558594
2254;227.49110412597656
2255;227.3087615966797
2256;227.12655639648438
2257;226.94447326660156
2258;226.76248168945312
2259;226.58059692382812
2260;226.39889526367188
2261;226.21725463867188
2262;226.0358123779297
2263;225.85438537597656
2264;225.6731719970703
2265;225.49203491210938
2266;225.31101989746094
2267;225.13014221191406
2268;224.94932556152344
2269;224.76869201660156
2270;224.588134765625
2271;224.40771484375
2272;224.22743225097656
2273;224.0472412109375
2274;223.86720275878906
2275;223.68724060058594
2276;223.50746154785156
2277;223.32772827148438
2278;223.1481170654297
2279;222.9687042236328
2280;222.78932189941406
2281;222.61009216308594
2282;222.4309844970703
2283;222.25198364257812
2284;222.0731658935547
2285;221.8944091796875
2286;221.71580505371094
2287;221.53726196289062
2288;221.35888671875
2289;221.1805877685547
2290;221.00244140625
2291;220.8243865966797
2292;220.64651489257812
2293;220.4686737060547
2294;220.29103088378906
2295;220.11343383789062
2296;219.93603515625
2297;219.75868225097656
2298;219.5814971923828
2299;219.40443420410156
2300;219.22740173339844
2301;219.05056762695312
2302;218.87380981445312
2303;218.6971893310547
2304;218.52072143554688
2305;218.34432983398438
2306;218.16810607910156
2307;217.99192810058594
2308;217.81590270996094
2309;217.64002990722656
2310;217.46420288085938
2311;217.28857421875
2312;217.11294555664062
2313;216.93751525878906
2314;216.76223754882812
2315;216.58702087402344
2316;216.41189575195312
2317;216.2369384765625
2318;216.06210327148438
2319;215.88734436035156
2320;215.7127685546875
2321;215.5382537841797
2322;215.3638458251953
2323;215.18955993652344
2324;215.01547241210938
2325;214.84141540527344
2326;214.66751098632812
2327;214.49366760253906
2328;214.32003784179688
2329;214.146484375
2330;213.97299194335938
2331;213.79966735839844
2332;213.62646484375
2333;213.45338439941406
2334;213.2803955078125
2335;213.10752868652344
2336;212.93479919433594
2337;212.76217651367188
2338;212.58963012695312
2339;212.41725158691406
2340;212.2449493408203
2341;212.07276916503906
2342;211.90072631835938
2343;211.72879028320312
2344;211.5569305419922
2345;211.38525390625
2346;211.21365356445312
2347;211.0421905517578
2348;210.87083435058594
2349;210.6995849609375
2350;210.52842712402344
2351;210.357421875
2352;210.1865234375
2353;210.01576232910156
2354;209.8450927734375
2355;209.67453002929688
2356;209.50411987304688
2357;209.3337860107422
2358;209.16360473632812
2359;208.99351501464844
2360;208.82357788085938
2361;208.65367126464844
2362;208.48390197753906
2363;208.31430053710938
2364;208.14480590820312
2365;207.9754180908203
2366;207.8061065673828
2367;207.636962890625
2368;207.46791076660156
2369;207.29898071289062
2370;207.13015747070312
2371;206.96144104003906
2372;206.79286193847656
2373;206.6243896484375
2374;206.45602416992188
2375;206.2877655029297
2376;206.11964416503906
2377;205.95162963867188
2378;205.78372192382812
2379;205.61593627929688
2380;205.4482421875
2381;205.28073120117188
2382;205.11326599121094
2383;204.94590759277344
2384;204.77871704101562
2385;204.61160278320312
2386;204.4446258544922
2387;204.27772521972656
2388;204.11097717285156
2389;203.94432067871094
2390;203.7777557373047
2391;203.61135864257812
2392;203.44508361816406
2393;203.27890014648438
2394;203.11280822753906
2395;202.9468536376953
2396;202.78099060058594
2397;202.61524963378906
2398;202.44967651367188
2399;202.2841339111328
2400;202.1187286376953
2401;201.95347595214844
2402;201.78829956054688
2403;201.62319946289062
2404;201.45828247070312
2405;201.29347229003906
2406;201.1287384033203
2407;200.96412658691406
2408;200.7996368408203
2409;200.63525390625
2410;200.47097778320312
2411;200.3068084716797
2412;200.142822265625
2413;199.9788818359375
2414;199.81504821777344
2415;199.6513671875
2416;199.4877471923828
2417;199.3242645263672
2418;199.16090393066406
2419;198.9976806640625
2420;198.83450317382812
2421;198.67149353027344
2422;198.5085906982422
2423;198.3457794189453
2424;198.18310546875
2425;198.02049255371094
2426;197.85804748535156
2427;197.6957244873047
2428;197.53346252441406
2429;197.371337890625
2430;197.20933532714844
2431;197.0474090576172
2432;196.8856658935547
2433;196.7239227294922
2434;196.56239318847656
2435;196.4009246826172
2436;196.23960876464844
2437;196.0782928466797
2438;195.91720581054688
2439;195.75621032714844
2440;195.5952911376953
2441;195.43453979492188
2442;195.27383422851562
2443;195.11328125
2444;194.95278930664062
2445;194.79248046875
2446;194.6322479248047
2447;194.47213745117188
2448;194.31211853027344
2449;194.1522216796875
2450;193.99244689941406
2451;193.83277893066406
2452;193.67323303222656
2453;193.5137939453125
2454;193.3544158935547
2455;193.1951904296875
2456;193.0360870361328
2457;192.87704467773438
2458;192.71812438964844
2459;192.5594024658203
2460;192.4006805419922
2461;192.24215698242188
2462;192.0836639404297
2463;191.92532348632812
2464;191.76705932617188
2465;191.6089324951172
2466;191.450927734375
2467;191.2930450439453
2468;191.13523864746094
2469;190.9775390625
2470;190.81996154785156
2471;190.66249084472656
2472;190.505126953125
2473;190.34791564941406
2474;190.1907501220703
2475;190.03372192382812
2476;189.8768310546875
2477;189.7200469970703
2478;189.5633087158203
2479;189.40672302246094
2480;189.25027465820312
2481;189.09388732910156
2482;188.9376220703125
2483;188.781494140625
2484;188.6254425048828
2485;188.46951293945312
2486;188.31375122070312
2487;188.1580047607422
2488;188.0023956298828
2489;187.84695434570312
2490;187.69154357910156
2491;187.53628540039062
2492;187.381103515625
2493;187.22607421875
2494;187.07118225097656
2495;186.916259765625
2496;186.7615966796875
2497;186.60696411132812
2498;186.4524383544922
2499;186.2980499267578
2500;186.14376831054688
2501;185.9896240234375
2502;185.83554077148438
2503;185.6815643310547
2504;185.52774047851562
2505;185.37399291992188
2506;185.22035217285156
2507;185.06678771972656
2508;184.91342163085938
2509;184.76011657714844
2510;184.60690307617188
2511;184.45376586914062
2512;184.30081176757812
2513;184.14793395996094
2514;183.99514770507812
2515;183.84254455566406
2516;183.6899871826172
2517;183.5375518798828
2518;183.3851776123047
2519;183.23300170898438
2520;183.08084106445312
2521;182.92884826660156
2522;182.7769012451172
2523;182.6251220703125
2524;182.4734649658203
2525;182.32188415527344
2526;182.17041015625
2527;182.01901245117188
2528;181.86778259277344
2529;181.71664428710938
2530;181.56558227539062
2531;181.4146270751953
2532;181.2637939453125
2533;181.11312866210938
2534;180.9624786376953
2535;180.81201171875
2536;180.6615753173828
2537;180.51132202148438
2538;180.3611297607422
2539;180.21102905273438
2540;180.06106567382812
2541;179.91122436523438
2542;179.761474609375
2543;179.61181640625
2544;179.46226501464844
2545;179.31285095214844
2546;179.16355895996094
2547;179.01429748535156
2548;178.86521911621094
2549;178.71620178222656
2550;178.5673065185547
2551;178.41847229003906
2552;178.2698211669922
2553;178.12124633789062
2554;177.97274780273438
2555;177.8243865966797
2556;177.67613220214844
2557;177.5279541015625
2558;177.37991333007812
2559;177.2320098876953
2560;177.08419799804688
2561;176.93643188476562
2562;176.788818359375
2563;176.64132690429688
2564;176.49388122558594
2565;176.34658813476562
2566;176.19943237304688
2567;176.05227661132812
2568;175.90530395507812
2569;175.7584228515625
2570;175.61167907714844
2571;175.46499633789062
2572;175.3184356689453
2573;175.17196655273438
2574;175.02560424804688
2575;174.87936401367188
2576;174.73324584960938
2577;174.58717346191406
2578;174.44126892089844
2579;174.29542541503906
2580;174.1497344970703
2581;174.0040740966797
2582;173.8585662841797
2583;173.7131805419922
2584;173.56788635253906
2585;173.4226837158203
2586;173.277587890625
2587;173.1326446533203
2588;172.9877471923828
2589;172.8429412841797
2590;172.69827270507812
2591;172.55372619628906
2592;172.4092559814453
2593;172.2649383544922
2594;172.1206512451172
2595;171.97653198242188
2596;171.83248901367188
2597;171.6885223388672
2598;171.54469299316406
2599;171.40098571777344
2600;171.25735473632812
2601;171.1138458251953
2602;170.9704132080078
2603;170.82713317871094
2604;170.68392944335938
2605;170.54080200195312
2606;170.39784240722656
2607;170.2549285888672
2608;170.11216735839844
2609;169.96945190429688
2610;169.82687377929688
2611;169.68443298339844
2612;169.5420684814453
2613;169.3997344970703
2614;169.25758361816406
2615;169.11550903320312
2616;168.9735870361328
2617;168.8317413330078
2618;168.68997192382812
2619;168.54832458496094
2620;168.40675354003906
2621;168.26535034179688
2622;168.1239776611328
2623;167.98277282714844
2624;167.84165954589844
2625;167.70059204101562
2626;167.55967712402344
2627;167.4188690185547
2628;167.27816772460938
2629;167.13755798339844
2630;166.99703979492188
2631;166.85659790039062
2632;166.71629333496094
2633;166.57614135742188
2634;166.43603515625
2635;166.29598999023438
2636;166.15614318847656
2637;166.01632690429688
2638;165.87667846679688
2639;165.73707580566406
2640;165.59754943847656
2641;165.4581756591797
2642;165.3189239501953
2643;165.1797637939453
2644;165.04067993164062
2645;164.90170288085938
2646;164.7628631591797
2647;164.62413024902344
2648;164.4854278564453
2649;164.3468475341797
2650;164.2084197998047
2651;164.070068359375
2652;163.9318084716797
2653;163.79368591308594
2654;163.65562438964844
2655;163.5176544189453
2656;163.3798370361328
2657;163.24209594726562
2658;163.10446166992188
2659;162.9669189453125
2660;162.82948303222656
2661;162.69216918945312
2662;162.554931640625
2663;162.41783142089844
2664;162.28077697753906
2665;162.1438751220703
2666;162.00704956054688
2667;161.8703155517578
2668;161.73367309570312
2669;161.59715270996094
2670;161.4607391357422
2671;161.32443237304688
2672;161.18820190429688
2673;161.0520782470703
2674;160.91604614257812
2675;160.78016662597656
2676;160.64437866210938
2677;160.50865173339844
2678;160.373046875
2679;160.23751831054688
2680;160.1021270751953
2681;159.966796875
2682;159.8315887451172
2683;159.69651794433594
2684;159.5615234375
2685;159.42660522460938
2686;159.2918243408203
2687;159.15711975097656
2688;159.0225067138672
2689;158.8880157470703
2690;158.7535858154297
2691;158.6193389892578
2692;158.485107421875
2693;158.3510284423828
2694;158.21701049804688
2695;158.08311462402344
2696;157.9493408203125
2697;157.8155975341797
2698;157.6820068359375
2699;157.5485076904297
2700;157.4151153564453
2701;157.2818145751953
2702;157.1486053466797
2703;157.0155029296875
2704;156.88255310058594
2705;156.74961853027344
2706;156.61680603027344
2707;156.484130859375
2708;156.3514862060547
2709;156.21902465820312
2710;156.08663940429688
2711;155.95431518554688
2712;155.82212829589844
2713;155.6899871826172
2714;155.55799865722656
2715;155.42611694335938
2716;155.29429626464844
2717;155.16262817382812
2718;155.03102111816406
2719;154.89952087402344
2720;154.76815795898438
2721;154.63681030273438
2722;154.50563049316406
2723;154.37449645996094
2724;154.24349975585938
2725;154.1125946044922
2726;153.98179626464844
2727;153.85104370117188
2728;153.72042846679688
2729;153.5899200439453
2730;153.4595184326172
2731;153.32923889160156
2732;153.198974609375
2733;153.06886291503906
2734;152.93887329101562
2735;152.80892944335938
2736;152.6791534423828
2737;152.5493621826172
2738;152.41976928710938
2739;152.29025268554688
2740;152.1608123779297
2741;152.03146362304688
2742;151.90223693847656
2743;151.77310180664062
2744;151.6440887451172
2745;151.51515197753906
2746;151.38632202148438
2747;151.257568359375
2748;151.12892150878906
2749;151.00038146972656
2750;150.8719482421875
2751;150.74363708496094
2752;150.6153564453125
2753;150.48719787597656
2754;150.35916137695312
2755;150.231201171875
2756;150.1033477783203
2757;149.97557067871094
2758;149.847900390625
2759;149.7203369140625
2760;149.59288024902344
2761;149.4655303955078
2762;149.33824157714844
2763;149.2110595703125
2764;149.083984375
2765;148.95701599121094
2766;148.8301239013672
2767;148.7033233642578
2768;148.57664489746094
2769;148.45005798339844
2770;148.3235626220703
2771;148.19715881347656
2772;148.0708465576172
2773;147.9446563720703
2774;147.81857299804688
2775;147.69253540039062
2776;147.56661987304688
2777;147.44081115722656
2778;147.3151092529297
2779;147.18948364257812
2780;147.06396484375
2781;146.9385528564453
2782;146.8131866455078
2783;146.6879425048828
2784;146.5627899169922
2785;146.437744140625
2786;146.3128204345703
2787;146.18800354003906
2788;146.063232421875
2789;145.9385528564453
2790;145.8140106201172
2791;145.68954467773438
2792;145.565185546875
2793;145.44090270996094
2794;145.31674194335938
2795;145.19264221191406
2796;145.06871032714844
2797;144.94479370117188
2798;144.82101440429688
2799;144.6973114013672
2800;144.57369995117188
2801;144.45021057128906
2802;144.32679748535156
2803;144.20347595214844
2804;144.08023071289062
2805;143.95713806152344
2806;143.8341064453125
2807;143.71116638183594
2808;143.58834838867188
2809;143.46560668945312
2810;143.3429718017578
2811;143.2203826904297
2812;143.0979766845703
2813;142.97560119628906
2814;142.8533477783203
2815;142.73117065429688
2816;142.60910034179688
2817;142.4871368408203
2818;142.36520385742188
2819;142.2434539794922
2820;142.12173461914062
2821;142.00015258789062
2822;141.87867736816406
2823;141.7572479248047
2824;141.6359100341797
2825;141.5146942138672
2826;141.39356994628906
2827;141.27256774902344
2828;141.15164184570312
2829;141.03077697753906
2830;140.91001892089844
2831;140.78939819335938
2832;140.66883850097656
2833;140.5483856201172
2834;140.42799377441406
2835;140.30775451660156
2836;140.1875762939453
2837;140.06748962402344
2838;139.947509765625
2839;139.8275909423828
2840;139.70779418945312
2841;139.58810424804688
2842;139.46847534179688
2843;139.34896850585938
2844;139.22952270507812
2845;139.11019897460938
2846;138.99095153808594
2847;138.871826171875
2848;138.75279235839844
2849;138.63381958007812
2850;138.5149688720703
2851;138.3961944580078
2852;138.2775421142578
2853;138.15895080566406
2854;138.0404815673828
2855;137.9220733642578
2856;137.8037567138672
2857;137.68557739257812
2858;137.5674591064453
2859;137.44947814941406
2860;137.33151245117188
2861;137.2136993408203
2862;137.095947265625
2863;136.97828674316406
2864;136.86074829101562
2865;136.74330139160156
2866;136.62594604492188
2867;136.5086669921875
2868;136.3914794921875
2869;136.2743682861328
2870;136.15736389160156
2871;136.04049682617188
2872;135.9236602783203
2873;135.80699157714844
2874;135.69033813476562
2875;135.5738067626953
2876;135.45738220214844
2877;135.3410186767578
2878;135.2247772216797
2879;135.10861206054688
2880;134.99256896972656
2881;134.87660217285156
2882;134.7606964111328
2883;134.64491271972656
2884;134.5292510986328
2885;134.4136199951172
2886;134.29812622070312
2887;134.18270874023438
2888;134.06736755371094
2889;133.9521026611328
2890;133.8369903564453
2891;133.72193908691406
2892;133.6069793701172
2893;133.4921112060547
2894;133.3773651123047
2895;133.2626495361328
2896;133.14805603027344
2897;133.03358459472656
2898;132.91915893554688
2899;132.80484008789062
2900;132.6906280517578
2901;132.5764617919922
2902;132.4624481201172
2903;132.34854125976562
2904;132.23464965820312
2905;132.12086486816406
2906;132.00721740722656
2907;131.89361572265625
2908;131.78012084960938
2909;131.66671752929688
2910;131.55343627929688
2911;131.44021606445312
2912;131.32705688476562
2913;131.2140350341797
2914;131.10110473632812
2915;130.98825073242188
2916;130.87550354003906
2917;130.76280212402344
2918;130.6502227783203
2919;130.53775024414062
2920;130.4253387451172
2921;130.3130340576172
2922;130.2008056640625
2923;130.0886688232422
2924;129.9766845703125
2925;129.86471557617188
2926;129.75283813476562
2927;129.64109802246094
2928;129.52938842773438
2929;129.41783142089844
2930;129.3063507080078
2931;129.19491577148438
2932;129.08360290527344
2933;128.97239685058594
2934;128.8612823486328
2935;128.75022888183594
2936;128.63931274414062
2937;128.52842712402344
2938;128.41763305664062
2939;128.30697631835938
2940;128.1963653564453
2941;128.0858612060547
2942;127.97544860839844
2943;127.8651351928711
2944;127.7549057006836
2945;127.6447525024414
2946;127.53470611572266
2947;127.42475128173828
2948;127.31488037109375
2949;127.20508575439453
2950;127.09540557861328
2951;126.98579406738281
2952;126.87627410888672
2953;126.76688385009766
2954;126.65753173828125
2955;126.54828643798828
2956;126.43912506103516
2957;126.33006286621094
2958;126.22108459472656
2959;126.11222076416016
2960;126.00341796875
2961;125.89470672607422
2962;125.78608703613281
2963;125.67753601074219
2964;125.56910705566406
2965;125.46074676513672
2966;125.35247039794922
2967;125.24431610107422
2968;125.1362075805664
2969;125.02821350097656
2970;124.92032623291016
2971;124.81250762939453
2972;124.70475769042969
2973;124.59710693359375
2974;124.48956298828125
2975;124.38213348388672
2976;124.27474212646484
2977;124.1674575805664
2978;124.06023406982422
2979;123.95314025878906
2980;123.84611511230469
2981;123.73917388916016
2982;123.63232421875
2983;123.52558898925781
2984;123.41890716552734
2985;123.31233978271484
2986;123.2058334350586
2987;123.09941101074219
2988;122.99311828613281
2989;122.88689422607422
2990;122.7807388305664
2991;122.6746826171875
2992;122.5687255859375
2993;122.46282196044922
2994;122.3570556640625
2995;122.25135040283203
2996;122.14573669433594
2997;122.04022979736328
2998;121.93476867675781
2999;121.82939910888672
