;loss
0;1317.0970458984375
1;1316.4705810546875
2;1315.6285400390625
3;1314.7862548828125
4;1313.9432373046875
5;1313.0994873046875
6;1312.25537109375
7;1311.410400390625
8;1310.5645751953125
9;1309.7177734375
10;1308.869873046875
11;1308.0220947265625
12;1307.170654296875
13;1306.31591796875
14;1305.4581298828125
15;1304.6025390625
16;1303.7384033203125
17;1302.87841796875
18;1302.015869140625
19;1301.141845703125
20;1300.26416015625
21;1299.3828125
22;1298.50732421875
23;1297.6180419921875
24;1296.72412109375
25;1295.83642578125
26;1294.94384765625
27;1294.0462646484375
28;1293.133056640625
29;1292.2142333984375
30;1291.30029296875
31;1290.36962890625
32;1289.443359375
33;1288.5106201171875
34;1287.560302734375
35;1286.61376953125
36;1285.6488037109375
37;1284.67626953125
38;1283.69580078125
39;1282.706787109375
40;1281.709228515625
41;1280.70263671875
42;1279.6871337890625
43;1278.662109375
44;1277.628662109375
45;1276.585205078125
46;1275.531494140625
47;1274.4674072265625
48;1273.4027099609375
49;1272.3160400390625
50;1271.218017578125
51;1270.118408203125
52;1269.0067138671875
53;1267.873046875
54;1266.72705078125
55;1265.578369140625
56;1264.4166259765625
57;1263.232421875
58;1262.04443359375
59;1260.8333740234375
60;1259.6087646484375
61;1258.370361328125
62;1257.1273193359375
63;1255.8699951171875
64;1254.5885009765625
65;1253.29248046875
66;1251.981201171875
67;1250.65478515625
68;1249.31298828125
69;1247.96435546875
70;1246.591064453125
71;1245.2017822265625
72;1243.79638671875
73;1242.374755859375
74;1240.9461669921875
75;1239.49169921875
76;1238.020751953125
77;1236.5421142578125
78;1235.0372314453125
79;1233.51513671875
80;1231.9759521484375
81;1230.428466796875
82;1228.8548583984375
83;1227.263916015625
84;1225.65576171875
85;1224.039306640625
86;1222.40576171875
87;1220.7547607421875
88;1219.0775146484375
89;1217.39306640625
90;1215.69189453125
91;1213.966796875
92;1212.22509765625
93;1210.466552734375
94;1208.6910400390625
95;1206.90771484375
96;1205.098388671875
97;1203.28173828125
98;1201.4434814453125
99;1199.5948486328125
100;1197.7427978515625
101;1195.87548828125
102;1193.983154296875
103;1192.084228515625
104;1190.1611328125
105;1188.222900390625
106;1186.26904296875
107;1184.3087158203125
108;1182.3333740234375
109;1180.3350830078125
110;1178.3221435546875
111;1176.29541015625
112;1174.25439453125
113;1172.1995849609375
114;1170.1318359375
115;1168.05126953125
116;1165.958984375
117;1163.8607177734375
118;1161.759765625
119;1159.6448974609375
120;1157.527587890625
121;1155.39208984375
122;1153.25537109375
123;1151.1015625
124;1148.9390869140625
125;1146.7762451171875
126;1144.605712890625
127;1142.421142578125
128;1140.23095703125
129;1138.034912109375
130;1135.8333740234375
131;1133.6270751953125
132;1131.4190673828125
133;1129.216064453125
134;1127.0113525390625
135;1124.8079833984375
136;1122.603515625
137;1120.406005859375
138;1118.2086181640625
139;1116.01220703125
140;1113.8170166015625
141;1111.6168212890625
142;1109.4197998046875
143;1107.2269287109375
144;1105.038330078125
145;1102.8548583984375
146;1100.685791015625
147;1098.51708984375
148;1096.35595703125
149;1094.202392578125
150;1092.06396484375
151;1089.9290771484375
152;1087.803955078125
153;1085.6959228515625
154;1083.5994873046875
155;1081.5164794921875
156;1079.4453125
157;1077.381103515625
158;1075.336181640625
159;1073.30517578125
160;1071.2882080078125
161;1069.2801513671875
162;1067.292724609375
163;1065.3162841796875
164;1063.3612060546875
165;1061.42529296875
166;1059.50927734375
167;1057.628173828125
168;1055.76123046875
169;1053.9122314453125
170;1052.08154296875
171;1050.273681640625
172;1048.48388671875
173;1046.7115478515625
174;1044.953125
175;1043.2139892578125
176;1041.4945068359375
177;1039.7940673828125
178;1038.1121826171875
179;1036.4527587890625
180;1034.8150634765625
181;1033.1949462890625
182;1031.5924072265625
183;1030.011962890625
184;1028.44482421875
185;1026.894287109375
186;1025.36083984375
187;1023.8471069335938
188;1022.3451538085938
189;1020.8639526367188
190;1019.3977661132812
191;1017.9469604492188
192;1016.5076904296875
193;1015.0877685546875
194;1013.6823120117188
195;1012.2907104492188
196;1010.9130859375
197;1009.5474243164062
198;1008.200927734375
199;1006.8673095703125
200;1005.5465698242188
201;1004.236328125
202;1002.942138671875
203;1001.66015625
204;1000.3924560546875
205;999.1397705078125
206;997.8963623046875
207;996.666748046875
208;995.452392578125
209;994.2495727539062
210;993.0560913085938
211;991.8733520507812
212;990.7014770507812
213;989.540283203125
214;988.3893432617188
215;987.2479248046875
216;986.1185913085938
217;984.9985961914062
218;983.8856201171875
219;982.7841796875
220;981.692138671875
221;980.609130859375
222;979.5326538085938
223;978.4647216796875
224;977.405517578125
225;976.354248046875
226;975.3115234375
227;974.277099609375
228;973.2505493164062
229;972.2328491210938
230;971.2251586914062
231;970.2264404296875
232;969.2340698242188
233;968.2515258789062
234;967.2769165039062
235;966.3096923828125
236;965.349365234375
237;964.3958129882812
238;963.4490966796875
239;962.5090942382812
240;961.5753173828125
241;960.6484375
242;959.7275390625
243;958.8125
244;957.9016723632812
245;956.9981689453125
246;956.1004638671875
247;955.206787109375
248;954.3206176757812
249;953.438232421875
250;952.560791015625
251;951.6897583007812
252;950.8233642578125
253;949.9602661132812
254;949.1019897460938
255;948.25
256;947.4009399414062
257;946.5563354492188
258;945.717041015625
259;944.882080078125
260;944.052734375
261;943.2261352539062
262;942.4047241210938
263;941.5869140625
264;940.7716064453125
265;939.960205078125
266;939.1536254882812
267;938.3494873046875
268;937.5502319335938
269;936.7542114257812
270;935.9619140625
271;935.1728515625
272;934.3858642578125
273;933.6019897460938
274;932.8214111328125
275;932.0438232421875
276;931.269287109375
277;930.4979248046875
278;929.730712890625
279;928.9651489257812
280;928.2037963867188
281;927.4453125
282;926.6887817382812
283;925.936279296875
284;925.1864013671875
285;924.439208984375
286;923.6946411132812
287;922.9526977539062
288;922.2130126953125
289;921.4747314453125
290;920.7388305664062
291;920.0051879882812
292;919.2741088867188
293;918.544921875
294;917.818359375
295;917.0951538085938
296;916.375
297;915.6572265625
298;914.9405517578125
299;914.2269897460938
300;913.5155029296875
301;912.8059692382812
302;912.0985107421875
303;911.3930053710938
304;910.689453125
305;909.98681640625
306;909.2869873046875
307;908.588134765625
308;907.8919067382812
309;907.196533203125
310;906.50390625
311;905.81201171875
312;905.1220092773438
313;904.433837890625
314;903.7473754882812
315;903.0623779296875
316;902.3792724609375
317;901.6976928710938
318;901.0187377929688
319;900.3412475585938
320;899.6646728515625
321;898.989501953125
322;898.31591796875
323;897.6439208984375
324;896.9743041992188
325;896.3052368164062
326;895.6376953125
327;894.9715576171875
328;894.307861328125
329;893.6454467773438
330;892.9844970703125
331;892.324951171875
332;891.665771484375
333;891.0081176757812
334;890.3526611328125
335;889.6983642578125
336;889.0447387695312
337;888.3924560546875
338;887.7413940429688
339;887.0924682617188
340;886.4440307617188
341;885.7967529296875
342;885.1507568359375
343;884.5060424804688
344;883.8627319335938
345;883.2216796875
346;882.5808715820312
347;881.9412841796875
348;881.302978515625
349;880.665771484375
350;880.0303344726562
351;879.396240234375
352;878.7623291015625
353;878.1295776367188
354;877.497802734375
355;876.8670654296875
356;876.237548828125
357;875.6098022460938
358;874.9822387695312
359;874.3558349609375
360;873.73046875
361;873.10693359375
362;872.4837646484375
363;871.8616943359375
364;871.240478515625
365;870.6204833984375
366;870.001953125
367;869.3839111328125
368;868.767333984375
369;868.151123046875
370;867.5357666015625
371;866.9214477539062
372;866.3081665039062
373;865.6959228515625
374;865.0845336914062
375;864.4739990234375
376;863.864501953125
377;863.2565307617188
378;862.6494750976562
379;862.042724609375
380;861.4368286132812
381;860.8323364257812
382;860.2281494140625
383;859.6254272460938
384;859.0235595703125
385;858.422607421875
386;857.82177734375
387;857.2224731445312
388;856.6240844726562
389;856.0264892578125
390;855.4298095703125
391;854.833740234375
392;854.238525390625
393;853.6442260742188
394;853.0505981445312
395;852.4578857421875
396;851.8657836914062
397;851.2745971679688
398;850.683349609375
399;850.0930786132812
400;849.5042114257812
401;848.916015625
402;848.3286743164062
403;847.741455078125
404;847.1549072265625
405;846.5692749023438
406;845.9842529296875
407;845.400634765625
408;844.817138671875
409;844.2343139648438
410;843.65283203125
411;843.0722045898438
412;842.4921875
413;841.912841796875
414;841.333740234375
415;840.755859375
416;840.1780395507812
417;839.6010131835938
418;839.024658203125
419;838.448974609375
420;837.8744506835938
421;837.300048828125
422;836.7263793945312
423;836.1534423828125
424;835.5816040039062
425;835.0104370117188
426;834.4398803710938
427;833.8700561523438
428;833.3008422851562
429;832.7322387695312
430;832.163818359375
431;831.595947265625
432;831.029296875
433;830.46337890625
434;829.8980102539062
435;829.332763671875
436;828.7681274414062
437;828.2046508789062
438;827.641845703125
439;827.0795288085938
440;826.5173950195312
441;825.9563598632812
442;825.3955078125
443;824.835693359375
444;824.2764282226562
445;823.7177734375
446;823.1597290039062
447;822.602294921875
448;822.0448608398438
449;821.488525390625
450;820.9328002929688
451;820.377685546875
452;819.822509765625
453;819.2680053710938
454;818.714599609375
455;818.1618041992188
456;817.609375
457;817.0576782226562
458;816.5064086914062
459;815.955322265625
460;815.4048461914062
461;814.855224609375
462;814.3057861328125
463;813.7568359375
464;813.2084350585938
465;812.6610717773438
466;812.1142578125
467;811.5675048828125
468;811.021728515625
469;810.47607421875
470;809.930908203125
471;809.38671875
472;808.8425903320312
473;808.299560546875
474;807.7564086914062
475;807.2139282226562
476;806.67236328125
477;806.1314086914062
478;805.5908203125
479;805.0504150390625
480;804.510498046875
481;803.9710083007812
482;803.43212890625
483;802.8941040039062
484;802.3566284179688
485;801.8197021484375
486;801.2832641601562
487;800.747314453125
488;800.2114868164062
489;799.676513671875
490;799.1416015625
491;798.6072387695312
492;798.0733642578125
493;797.5398559570312
494;797.0070190429688
495;796.4744873046875
496;795.9425659179688
497;795.4111328125
498;794.880126953125
499;794.3495483398438
500;793.819580078125
501;793.2899780273438
502;792.7609252929688
503;792.232177734375
504;791.7041015625
505;791.1763916015625
506;790.649169921875
507;790.1223754882812
508;789.5964965820312
509;789.0706787109375
510;788.5453491210938
511;788.0205078125
512;787.4960327148438
513;786.9719848632812
514;786.448486328125
515;785.9258422851562
516;785.403564453125
517;784.8818359375
518;784.360107421875
519;783.8389282226562
520;783.3179931640625
521;782.7980346679688
522;782.2781982421875
523;781.759033203125
524;781.239990234375
525;780.7218017578125
526;780.2036743164062
527;779.6859130859375
528;779.168701171875
529;778.65185546875
530;778.1354370117188
531;777.619384765625
532;777.1038208007812
533;776.5887451171875
534;776.074462890625
535;775.5606079101562
536;775.046630859375
537;774.5336303710938
538;774.0206909179688
539;773.508544921875
540;772.9963989257812
541;772.4849853515625
542;771.9740600585938
543;771.4631958007812
544;770.9526977539062
545;770.442626953125
546;769.9330444335938
547;769.423828125
548;768.9150390625
549;768.406982421875
550;767.8989868164062
551;767.3917846679688
552;766.8845825195312
553;766.378173828125
554;765.8717651367188
555;765.3662719726562
556;764.8607177734375
557;764.3555908203125
558;763.8508911132812
559;763.3465576171875
560;762.843017578125
561;762.3394775390625
562;761.8363037109375
563;761.3336791992188
564;760.8317260742188
565;760.3297119140625
566;759.8285522460938
567;759.327392578125
568;758.826904296875
569;758.326904296875
570;757.8269653320312
571;757.327392578125
572;756.8285522460938
573;756.3301391601562
574;755.8320922851562
575;755.3340454101562
576;754.8367309570312
577;754.3395385742188
578;753.8429565429688
579;753.3465576171875
580;752.8504028320312
581;752.354736328125
582;751.8593139648438
583;751.3644409179688
584;750.8702392578125
585;750.3763427734375
586;749.8828125
587;749.389404296875
588;748.896240234375
589;748.4039306640625
590;747.9115600585938
591;747.4196166992188
592;746.928466796875
593;746.4374389648438
594;745.9468994140625
595;745.4563598632812
596;744.9666137695312
597;744.4768676757812
598;743.987548828125
599;743.4983520507812
600;743.009765625
601;742.5217895507812
602;742.0341186523438
603;741.546630859375
604;741.0593872070312
605;740.5728759765625
606;740.086669921875
607;739.6008911132812
608;739.1150512695312
609;738.6296997070312
610;738.1446533203125
611;737.659912109375
612;737.1755981445312
613;736.691650390625
614;736.2080078125
615;735.7247924804688
616;735.2418212890625
617;734.7594604492188
618;734.2772827148438
619;733.7953491210938
620;733.3137817382812
621;732.8328857421875
622;732.3524169921875
623;731.8721923828125
624;731.3920288085938
625;730.9122314453125
626;730.4330444335938
627;729.9542846679688
628;729.4757690429688
629;728.99755859375
630;728.519775390625
631;728.0422973632812
632;727.5651245117188
633;727.088134765625
634;726.6114501953125
635;726.1353149414062
636;725.6595458984375
637;725.1841430664062
638;724.708740234375
639;724.2340087890625
640;723.7595825195312
641;723.2855224609375
642;722.8118286132812
643;722.3384399414062
644;721.8650512695312
645;721.3920288085938
646;720.919677734375
647;720.4473876953125
648;719.9756469726562
649;719.504150390625
650;719.0331420898438
651;718.5623168945312
652;718.0916748046875
653;717.621337890625
654;717.1513671875
655;716.681640625
656;716.2122192382812
657;715.7431640625
658;715.2748413085938
659;714.806396484375
660;714.3385009765625
661;713.8710327148438
662;713.4038696289062
663;712.93701171875
664;712.470458984375
665;712.0042724609375
666;711.538330078125
667;711.0728149414062
668;710.6074829101562
669;710.1425170898438
670;709.6776733398438
671;709.21337890625
672;708.7493286132812
673;708.28564453125
674;707.822021484375
675;707.3588256835938
676;706.8958129882812
677;706.4331665039062
678;705.9708862304688
679;705.5089111328125
680;705.04736328125
681;704.5862426757812
682;704.1253662109375
683;703.66455078125
684;703.204345703125
685;702.7444458007812
686;702.2846069335938
687;701.8252563476562
688;701.3660278320312
689;700.9074096679688
690;700.4487915039062
691;699.990478515625
692;699.5327758789062
693;699.0750122070312
694;698.61767578125
695;698.1605834960938
696;697.7040405273438
697;697.2478637695312
698;696.7918701171875
699;696.3361206054688
700;695.8807373046875
701;695.4256591796875
702;694.970947265625
703;694.5162963867188
704;694.0619506835938
705;693.608154296875
706;693.154296875
707;692.7011108398438
708;692.2482299804688
709;691.7955322265625
710;691.3432006835938
711;690.8912353515625
712;690.439208984375
713;689.987548828125
714;689.536376953125
715;689.0853881835938
716;688.634765625
717;688.1845092773438
718;687.734375
719;687.2847290039062
720;686.8353271484375
721;686.38623046875
722;685.9373779296875
723;685.4889526367188
724;685.04052734375
725;684.5924072265625
726;684.14453125
727;683.6971435546875
728;683.2499389648438
729;682.8031616210938
730;682.3565063476562
731;681.9103393554688
732;681.4644775390625
733;681.018798828125
734;680.5733032226562
735;680.1282348632812
736;679.68359375
737;679.2389526367188
738;678.7945556640625
739;678.3506469726562
740;677.9069213867188
741;677.4633178710938
742;677.0201416015625
743;676.5772094726562
744;676.134521484375
745;675.692138671875
746;675.250244140625
747;674.8084716796875
748;674.3668823242188
749;673.9259033203125
750;673.4849243164062
751;673.0444946289062
752;672.60400390625
753;672.1641845703125
754;671.724365234375
755;671.2847290039062
756;670.845458984375
757;670.4066772460938
758;669.968017578125
759;669.5296630859375
760;669.091552734375
761;668.65380859375
762;668.2162475585938
763;667.7788696289062
764;667.3418579101562
765;666.9052734375
766;666.4688110351562
767;666.0325927734375
768;665.5968627929688
769;665.161376953125
770;664.7260131835938
771;664.2908325195312
772;663.85595703125
773;663.4214477539062
774;662.9872436523438
775;662.553466796875
776;662.1197509765625
777;661.6864013671875
778;661.2534790039062
779;660.8206787109375
780;660.38818359375
781;659.9558715820312
782;659.5239868164062
783;659.0921630859375
784;658.6608276367188
785;658.2294921875
786;657.7984619140625
787;657.36767578125
788;656.9371948242188
789;656.507080078125
790;656.077392578125
791;655.6477661132812
792;655.2183227539062
793;654.7892456054688
794;654.3603515625
795;653.9317626953125
796;653.5035400390625
797;653.075439453125
798;652.6475830078125
799;652.22021484375
800;651.79296875
801;651.3659057617188
802;650.9392700195312
803;650.5128784179688
804;650.0867309570312
805;649.6608276367188
806;649.235107421875
807;648.809814453125
808;648.3847045898438
809;647.9598388671875
810;647.5352172851562
811;647.11083984375
812;646.6866455078125
813;646.262939453125
814;645.8394775390625
815;645.416259765625
816;644.993408203125
817;644.5707397460938
818;644.1483154296875
819;643.7261352539062
820;643.3042602539062
821;642.8825073242188
822;642.4608764648438
823;642.039794921875
824;641.6189575195312
825;641.1981811523438
826;640.7776489257812
827;640.357421875
828;639.9373779296875
829;639.5177612304688
830;639.0983276367188
831;638.6791381835938
832;638.2603149414062
833;637.841552734375
834;637.42333984375
835;637.0051879882812
836;636.5874633789062
837;636.169921875
838;635.7526245117188
839;635.3356323242188
840;634.918701171875
841;634.5020141601562
842;634.0855712890625
843;633.6693725585938
844;633.2534790039062
845;632.837890625
846;632.4224243164062
847;632.00732421875
848;631.592529296875
849;631.1780395507812
850;630.7637939453125
851;630.3495483398438
852;629.935791015625
853;629.5223388671875
854;629.1089477539062
855;628.6957397460938
856;628.2828369140625
857;627.8702392578125
858;627.4579467773438
859;627.0457153320312
860;626.6339721679688
861;626.222412109375
862;625.8112182617188
863;625.4000854492188
864;624.9893798828125
865;624.578857421875
866;624.1683349609375
867;623.7581787109375
868;623.348388671875
869;622.9387817382812
870;622.529541015625
871;622.120361328125
872;621.7116088867188
873;621.302978515625
874;620.8945922851562
875;620.4864501953125
876;620.07861328125
877;619.6708374023438
878;619.2633666992188
879;618.856201171875
880;618.4493408203125
881;618.042724609375
882;617.6364135742188
883;617.230224609375
884;616.8244018554688
885;616.418701171875
886;616.0132446289062
887;615.6080322265625
888;615.203125
889;614.7984008789062
890;614.3939819335938
891;613.9896240234375
892;613.585693359375
893;613.181884765625
894;612.7784423828125
895;612.3750610351562
896;611.9718627929688
897;611.5689697265625
898;611.166259765625
899;610.7638549804688
900;610.3616333007812
901;609.9597778320312
902;609.55810546875
903;609.1565551757812
904;608.7554931640625
905;608.3546142578125
906;607.9539794921875
907;607.5535278320312
908;607.1533813476562
909;606.7535400390625
910;606.3538208007812
911;605.954345703125
912;605.55517578125
913;605.156005859375
914;604.7572021484375
915;604.3585815429688
916;603.9602661132812
917;603.562255859375
918;603.1643676757812
919;602.766845703125
920;602.3694458007812
921;601.9722290039062
922;601.575439453125
923;601.1785888671875
924;600.7820434570312
925;600.3859252929688
926;599.989990234375
927;599.5941772460938
928;599.1985473632812
929;598.8033447265625
930;598.4081420898438
931;598.0132446289062
932;597.6185913085938
933;597.2242431640625
934;596.8299560546875
935;596.4360961914062
936;596.0422973632812
937;595.64892578125
938;595.255615234375
939;594.8626098632812
940;594.4698486328125
941;594.0771484375
942;593.6849365234375
943;593.2927856445312
944;592.9009399414062
945;592.5093383789062
946;592.117919921875
947;591.7267456054688
948;591.335693359375
949;590.945068359375
950;590.5546875
951;590.1644287109375
952;589.7744140625
953;589.3845825195312
954;588.9949340820312
955;588.6055908203125
956;588.2163696289062
957;587.8275146484375
958;587.4389038085938
959;587.0504760742188
960;586.662353515625
961;586.2742919921875
962;585.886474609375
963;585.4990234375
964;585.111572265625
965;584.7245483398438
966;584.3377075195312
967;583.9509887695312
968;583.5645751953125
969;583.1784057617188
970;582.7925415039062
971;582.4067993164062
972;582.021240234375
973;581.6359252929688
974;581.2508544921875
975;580.865966796875
976;580.4812622070312
977;580.0968017578125
978;579.7127685546875
979;579.3287353515625
980;578.945068359375
981;578.5615844726562
982;578.1784057617188
983;577.7952270507812
984;577.4124145507812
985;577.0298461914062
986;576.6475219726562
987;576.265380859375
988;575.883544921875
989;575.5017700195312
990;575.1202392578125
991;574.7388916015625
992;574.35791015625
993;573.9771118164062
994;573.5965576171875
995;573.2162475585938
996;572.8360595703125
997;572.4560546875
998;572.076416015625
999;571.69677734375
