;loss
0;1327.337646484375
1;1327.123046875
2;1326.83544921875
3;1326.5745849609375
4;1326.28857421875
5;1326.0032958984375
6;1325.7274169921875
7;1325.4437255859375
8;1325.16455078125
9;1324.8818359375
10;1324.6011962890625
11;1324.3194580078125
12;1324.03759765625
13;1323.7562255859375
14;1323.473388671875
15;1323.1917724609375
16;1322.9097900390625
17;1322.6273193359375
18;1322.3441162109375
19;1322.0599365234375
20;1321.7716064453125
21;1321.48486328125
22;1321.1934814453125
23;1320.9033203125
24;1320.611083984375
25;1320.316650390625
26;1320.01611328125
27;1319.7125244140625
28;1319.4058837890625
29;1319.0960693359375
30;1318.7860107421875
31;1318.4681396484375
32;1318.150146484375
33;1317.8275146484375
34;1317.500244140625
35;1317.1678466796875
36;1316.8302001953125
37;1316.4869384765625
38;1316.134033203125
39;1315.7747802734375
40;1315.408935546875
41;1315.0404052734375
42;1314.664306640625
43;1314.277099609375
44;1313.885986328125
45;1313.4827880859375
46;1313.0712890625
47;1312.6510009765625
48;1312.2216796875
49;1311.78271484375
50;1311.334228515625
51;1310.87939453125
52;1310.4141845703125
53;1309.93408203125
54;1309.442626953125
55;1308.94384765625
56;1308.4285888671875
57;1307.90087890625
58;1307.36474609375
59;1306.8154296875
60;1306.252197265625
61;1305.6751708984375
62;1305.08349609375
63;1304.4769287109375
64;1303.850341796875
65;1303.2078857421875
66;1302.5535888671875
67;1301.87744140625
68;1301.183837890625
69;1300.4769287109375
70;1299.7513427734375
71;1299.00146484375
72;1298.2318115234375
73;1297.4412841796875
74;1296.6346435546875
75;1295.800537109375
76;1294.94384765625
77;1294.0634765625
78;1293.16455078125
79;1292.2406005859375
80;1291.285400390625
81;1290.3035888671875
82;1289.2943115234375
83;1288.2625732421875
84;1287.19580078125
85;1286.099365234375
86;1284.9720458984375
87;1283.8131103515625
88;1282.621826171875
89;1281.4039306640625
90;1280.1519775390625
91;1278.86474609375
92;1277.5341796875
93;1276.1666259765625
94;1274.7611083984375
95;1273.3167724609375
96;1271.83984375
97;1270.3218994140625
98;1268.7626953125
99;1267.161376953125
100;1265.50830078125
101;1263.8111572265625
102;1262.0692138671875
103;1260.2900390625
104;1258.4556884765625
105;1256.5740966796875
106;1254.6539306640625
107;1252.677978515625
108;1250.654296875
109;1248.5826416015625
110;1246.4627685546875
111;1244.295166015625
112;1242.0799560546875
113;1239.8277587890625
114;1237.5198974609375
115;1235.1676025390625
116;1232.7818603515625
117;1230.3448486328125
118;1227.8775634765625
119;1225.36181640625
120;1222.8201904296875
121;1220.2354736328125
122;1217.6197509765625
123;1214.9754638671875
124;1212.315673828125
125;1209.63427734375
126;1206.933837890625
127;1204.218505859375
128;1201.491943359375
129;1198.7567138671875
130;1196.006103515625
131;1193.2652587890625
132;1190.518310546875
133;1187.7879638671875
134;1185.0687255859375
135;1182.3624267578125
136;1179.6705322265625
137;1176.9971923828125
138;1174.3441162109375
139;1171.716064453125
140;1169.11474609375
141;1166.53564453125
142;1163.9859619140625
143;1161.4681396484375
144;1158.983154296875
145;1156.5399169921875
146;1154.1236572265625
147;1151.7440185546875
148;1149.408935546875
149;1147.11181640625
150;1144.846923828125
151;1142.62060546875
152;1140.441650390625
153;1138.29736328125
154;1136.1971435546875
155;1134.13525390625
156;1132.11767578125
157;1130.1378173828125
158;1128.195556640625
159;1126.29296875
160;1124.42822265625
161;1122.60009765625
162;1120.8070068359375
163;1119.04345703125
164;1117.3170166015625
165;1115.6226806640625
166;1113.9556884765625
167;1112.323486328125
168;1110.7152099609375
169;1109.1395263671875
170;1107.5911865234375
171;1106.067626953125
172;1104.569091796875
173;1103.0948486328125
174;1101.6435546875
175;1100.209716796875
176;1098.796875
177;1097.404296875
178;1096.0343017578125
179;1094.6806640625
180;1093.3475341796875
181;1092.0357666015625
182;1090.737548828125
183;1089.455810546875
184;1088.1895751953125
185;1086.9381103515625
186;1085.7015380859375
187;1084.482177734375
188;1083.2730712890625
189;1082.076416015625
190;1080.89208984375
191;1079.7222900390625
192;1078.5614013671875
193;1077.4114990234375
194;1076.27490234375
195;1075.148681640625
196;1074.0302734375
197;1072.9241943359375
198;1071.8250732421875
199;1070.7354736328125
200;1069.6571044921875
201;1068.5853271484375
202;1067.52392578125
203;1066.47119140625
204;1065.426025390625
205;1064.3870849609375
206;1063.3580322265625
207;1062.3341064453125
208;1061.3203125
209;1060.3114013671875
210;1059.31201171875
211;1058.319091796875
212;1057.3306884765625
213;1056.350830078125
214;1055.3775634765625
215;1054.4090576171875
216;1053.4462890625
217;1052.4896240234375
218;1051.5390625
219;1050.5938720703125
220;1049.65380859375
221;1048.7193603515625
222;1047.79052734375
223;1046.866455078125
224;1045.947265625
225;1045.032958984375
226;1044.12353515625
227;1043.2208251953125
228;1042.3223876953125
229;1041.4266357421875
230;1040.53515625
231;1039.64794921875
232;1038.76611328125
233;1037.88671875
234;1037.011962890625
235;1036.14111328125
236;1035.27392578125
237;1034.411865234375
238;1033.5533447265625
239;1032.6982421875
240;1031.8448486328125
241;1030.994873046875
242;1030.1480712890625
243;1029.3050537109375
244;1028.4666748046875
245;1027.6317138671875
246;1026.79833984375
247;1025.96923828125
248;1025.1434326171875
249;1024.3192138671875
250;1023.4993286132812
251;1022.6807861328125
252;1021.865234375
253;1021.0521850585938
254;1020.2418823242188
255;1019.4358520507812
256;1018.631103515625
257;1017.8285522460938
258;1017.0288696289062
259;1016.2328491210938
260;1015.4379272460938
261;1014.645751953125
262;1013.8558959960938
263;1013.068359375
264;1012.2843017578125
265;1011.5014038085938
266;1010.7218017578125
267;1009.943115234375
268;1009.166748046875
269;1008.3924560546875
270;1007.620361328125
271;1006.8514404296875
272;1006.0835571289062
273;1005.317626953125
274;1004.5535888671875
275;1003.7915649414062
276;1003.0315551757812
277;1002.2748413085938
278;1001.518798828125
279;1000.7659301757812
280;1000.0137939453125
281;999.2647705078125
282;998.5177001953125
283;997.772705078125
284;997.0281982421875
285;996.2868041992188
286;995.5460205078125
287;994.8079223632812
288;994.0718383789062
289;993.3372192382812
290;992.603271484375
291;991.8709716796875
292;991.1403198242188
293;990.4124145507812
294;989.685302734375
295;988.9603881835938
296;988.2373046875
297;987.5146484375
298;986.7935180664062
299;986.074951171875
300;985.3568725585938
301;984.6401977539062
302;983.9248046875
303;983.2109375
304;982.4995727539062
305;981.7885131835938
306;981.079833984375
307;980.3716430664062
308;979.6647338867188
309;978.959228515625
310;978.255126953125
311;977.5520629882812
312;976.8504638671875
313;976.1512451171875
314;975.4522705078125
315;974.7545776367188
316;974.0581665039062
317;973.3639526367188
318;972.669921875
319;971.9782104492188
320;971.2866821289062
321;970.5973510742188
322;969.9093017578125
323;969.221435546875
324;968.5358276367188
325;967.8512573242188
326;967.1671142578125
327;966.4846801757812
328;965.8037109375
329;965.1237182617188
330;964.4440307617188
331;963.7655029296875
332;963.0880126953125
333;962.4125366210938
334;961.7381591796875
335;961.0641479492188
336;960.3919067382812
337;959.719970703125
338;959.0501098632812
339;958.381103515625
340;957.713134765625
341;957.0463256835938
342;956.3804321289062
343;955.7159423828125
344;955.0524291992188
345;954.389892578125
346;953.727783203125
347;953.0665283203125
348;952.4063720703125
349;951.748046875
350;951.090576171875
351;950.4342651367188
352;949.7788696289062
353;949.1244506835938
354;948.470947265625
355;947.8176879882812
356;947.1653442382812
357;946.514892578125
358;945.8645629882812
359;945.2152709960938
360;944.5669555664062
361;943.9196166992188
362;943.2737426757812
363;942.6282348632812
364;941.983642578125
365;941.340576171875
366;940.6979370117188
367;940.0560913085938
368;939.4161376953125
369;938.7770385742188
370;938.138916015625
371;937.5016479492188
372;936.8653564453125
373;936.229736328125
374;935.5950317382812
375;934.9605102539062
376;934.3276977539062
377;933.6947631835938
378;933.0628051757812
379;932.431640625
380;931.8020629882812
381;931.1725463867188
382;930.5438232421875
383;929.916015625
384;929.2890625
385;928.662841796875
386;928.0374145507812
387;927.4135131835938
388;926.7903442382812
389;926.1674194335938
390;925.5453491210938
391;924.924560546875
392;924.3046875
393;923.685546875
394;923.06640625
395;922.4487915039062
396;921.831298828125
397;921.215087890625
398;920.5990600585938
399;919.984619140625
400;919.3707885742188
401;918.757080078125
402;918.144775390625
403;917.532470703125
404;916.9217529296875
405;916.3110961914062
406;915.7012939453125
407;915.0927734375
408;914.4850463867188
409;913.8780517578125
410;913.271240234375
411;912.665283203125
412;912.0604248046875
413;911.4563598632812
414;910.8529663085938
415;910.2503051757812
416;909.6477661132812
417;909.0465087890625
418;908.4458618164062
419;907.8453979492188
420;907.2454833984375
421;906.6469116210938
422;906.049072265625
423;905.451171875
424;904.854736328125
425;904.2587890625
426;903.6636352539062
427;903.0690307617188
428;902.47509765625
429;901.88134765625
430;901.288818359375
431;900.69677734375
432;900.1050415039062
433;899.5137939453125
434;898.9236450195312
435;898.333740234375
436;897.744873046875
437;897.15625
438;896.5686645507812
439;895.981201171875
440;895.3944091796875
441;894.8082885742188
442;894.2227172851562
443;893.6376953125
444;893.0534057617188
445;892.4696044921875
446;891.8869018554688
447;891.3043823242188
448;890.7227783203125
449;890.1419067382812
450;889.5615234375
451;888.9817504882812
452;888.4022216796875
453;887.8230590820312
454;887.2445678710938
455;886.6671752929688
456;886.0897216796875
457;885.513427734375
458;884.9376831054688
459;884.3619995117188
460;883.787353515625
461;883.2132568359375
462;882.6393432617188
463;882.0658569335938
464;881.4934692382812
465;880.921142578125
466;880.349365234375
467;879.778076171875
468;879.2073974609375
469;878.6372680664062
470;878.067626953125
471;877.49853515625
472;876.9299926757812
473;876.362060546875
474;875.7946166992188
475;875.2275390625
476;874.6611938476562
477;874.0953979492188
478;873.5303955078125
479;872.9654541015625
480;872.4016723632812
481;871.8381958007812
482;871.275390625
483;870.7130126953125
484;870.1506958007812
485;869.5894165039062
486;869.028564453125
487;868.4676513671875
488;867.9078979492188
489;867.3485107421875
490;866.789794921875
491;866.2313232421875
492;865.673095703125
493;865.1156616210938
494;864.558837890625
495;864.001953125
496;863.446044921875
497;862.890625
498;862.3352661132812
499;861.7803344726562
500;861.2263793945312
501;860.6728515625
502;860.1194458007812
503;859.5669555664062
504;859.014892578125
505;858.4631958007812
506;857.912109375
507;857.3614501953125
508;856.8112182617188
509;856.2615356445312
510;855.7117919921875
511;855.16259765625
512;854.6139526367188
513;854.065673828125
514;853.517822265625
515;852.9708862304688
516;852.4239501953125
517;851.8775024414062
518;851.3319091796875
519;850.7868041992188
520;850.2421875
521;849.6978759765625
522;849.1537475585938
523;848.6103515625
524;848.0675048828125
525;847.5250854492188
526;846.982666015625
527;846.440673828125
528;845.8995971679688
529;845.3585815429688
530;844.8182983398438
531;844.278564453125
532;843.7391357421875
533;843.1998901367188
534;842.6609497070312
535;842.1224975585938
536;841.5845336914062
537;841.0473022460938
538;840.5101928710938
539;839.973876953125
540;839.4375
541;838.9016723632812
542;838.3662719726562
543;837.8316040039062
544;837.29736328125
545;836.7632446289062
546;836.2294311523438
547;835.6961669921875
548;835.1632080078125
549;834.6306762695312
550;834.09912109375
551;833.56787109375
552;833.0366821289062
553;832.5059814453125
554;831.9755859375
555;831.446044921875
556;830.9165649414062
557;830.3878173828125
558;829.859130859375
559;829.3308715820312
560;828.802978515625
561;828.2759399414062
562;827.7492065429688
563;827.2228393554688
564;826.6969604492188
565;826.171142578125
566;825.6456909179688
567;825.1205444335938
568;824.5960083007812
569;824.0717163085938
570;823.5481567382812
571;823.0247802734375
572;822.501708984375
573;821.9790649414062
574;821.456787109375
575;820.9349365234375
576;820.4133911132812
577;819.892333984375
578;819.371826171875
579;818.8519897460938
580;818.3321533203125
581;817.812744140625
582;817.2941284179688
583;816.7755126953125
584;816.257568359375
585;815.7398071289062
586;815.22265625
587;814.70556640625
588;814.1890258789062
589;813.6727294921875
590;813.1569213867188
591;812.641357421875
592;812.1264038085938
593;811.6116943359375
594;811.0977172851562
595;810.5838012695312
596;810.0706176757812
597;809.5577392578125
598;809.0452270507812
599;808.5328979492188
600;808.0208129882812
601;807.5090942382812
602;806.997802734375
603;806.4869995117188
604;805.9766235351562
605;805.4664916992188
606;804.9569702148438
607;804.447509765625
608;803.9386596679688
609;803.4303588867188
610;802.921875
611;802.413818359375
612;801.9061889648438
613;801.39892578125
614;800.8919677734375
615;800.3856811523438
616;799.8795166015625
617;799.3736572265625
618;798.8681640625
619;798.36328125
620;797.8584594726562
621;797.3543090820312
622;796.8502197265625
623;796.3468017578125
624;795.8436889648438
625;795.3406372070312
626;794.8381958007812
627;794.3359375
628;793.8339233398438
629;793.332275390625
630;792.8309326171875
631;792.3300170898438
632;791.8294067382812
633;791.3291015625
634;790.8292236328125
635;790.3299560546875
636;789.8309326171875
637;789.3320922851562
638;788.8338623046875
639;788.335693359375
640;787.8377685546875
641;787.3402099609375
642;786.8430786132812
643;786.3464965820312
644;785.8499755859375
645;785.3538208007812
646;784.8582153320312
647;784.36279296875
648;783.8676147460938
649;783.373046875
650;782.8787841796875
651;782.3846435546875
652;781.890869140625
653;781.3974609375
654;780.9042358398438
655;780.411376953125
656;779.919189453125
657;779.4270629882812
658;778.9352416992188
659;778.4437866210938
660;777.95263671875
661;777.4617309570312
662;776.97119140625
663;776.4812622070312
664;775.9916381835938
665;775.502197265625
666;775.01318359375
667;774.5245971679688
668;774.0360107421875
669;773.548095703125
670;773.0601806640625
671;772.572509765625
672;772.0855102539062
673;771.5986328125
674;771.1121826171875
675;770.6259155273438
676;770.139892578125
677;769.654296875
678;769.169189453125
679;768.6843872070312
680;768.1998901367188
681;767.7157592773438
682;767.231689453125
683;766.7479248046875
684;766.2647094726562
685;765.7818603515625
686;765.2991943359375
687;764.8167114257812
688;764.334716796875
689;763.8529052734375
690;763.3716430664062
691;762.890380859375
692;762.4096069335938
693;761.92919921875
694;761.4489135742188
695;760.9689331054688
696;760.4892578125
697;760.0100708007812
698;759.5311889648438
699;759.052490234375
700;758.5739135742188
701;758.0960083007812
702;757.618408203125
703;757.140869140625
704;756.6636352539062
705;756.1867065429688
706;755.7102661132812
707;755.2339477539062
708;754.7581176757812
709;754.282470703125
710;753.8070068359375
711;753.3319091796875
712;752.8571166992188
713;752.382568359375
714;751.9085693359375
715;751.4347534179688
716;750.9610595703125
717;750.48779296875
718;750.0147705078125
719;749.5421142578125
720;749.0696411132812
721;748.5975341796875
722;748.1259765625
723;747.6546020507812
724;747.1837158203125
725;746.7130126953125
726;746.2422485351562
727;745.77197265625
728;745.3021850585938
729;744.8326416015625
730;744.3632202148438
731;743.89404296875
732;743.4252319335938
733;742.9566650390625
734;742.488525390625
735;742.0208129882812
736;741.5530395507812
737;741.085693359375
738;740.61865234375
739;740.1520385742188
740;739.6854858398438
741;739.21923828125
742;738.7532958984375
743;738.28759765625
744;737.8222045898438
745;737.357177734375
746;736.8923950195312
747;736.4281005859375
748;735.9638061523438
749;735.5001220703125
750;735.03662109375
751;734.5735473632812
752;734.1105346679688
753;733.6478271484375
754;733.1856079101562
755;732.7235717773438
756;732.2615966796875
757;731.8002319335938
758;731.3390502929688
759;730.878173828125
760;730.4175415039062
761;729.957275390625
762;729.4970092773438
763;729.0370483398438
764;728.5775756835938
765;728.1182861328125
766;727.6592407226562
767;727.2003784179688
768;726.7418823242188
769;726.2837524414062
770;725.8258056640625
771;725.3682861328125
772;724.9110107421875
773;724.4539794921875
774;723.9971923828125
775;723.54052734375
776;723.084228515625
777;722.628173828125
778;722.17236328125
779;721.7168579101562
780;721.2615966796875
781;720.8067016601562
782;720.352294921875
783;719.8977661132812
784;719.4439086914062
785;718.9901123046875
786;718.5364990234375
787;718.0831909179688
788;717.63037109375
789;717.1776733398438
790;716.72509765625
791;716.27294921875
792;715.8211059570312
793;715.3695068359375
794;714.9182739257812
795;714.4671630859375
796;714.0164794921875
797;713.56591796875
798;713.1155395507812
799;712.6655883789062
800;712.2160034179688
801;711.7664184570312
802;711.3171997070312
803;710.8682861328125
804;710.4195556640625
805;709.9711303710938
806;709.5228881835938
807;709.0750732421875
808;708.6276245117188
809;708.1802368164062
810;707.7330932617188
811;707.286376953125
812;706.8399658203125
813;706.3937377929688
814;705.94775390625
815;705.501953125
816;705.056396484375
817;704.6111450195312
818;704.166259765625
819;703.721435546875
820;703.277099609375
821;702.8328247070312
822;702.388916015625
823;701.9451904296875
824;701.5018310546875
825;701.0587158203125
826;700.6157836914062
827;700.17333984375
828;699.7310180664062
829;699.2888793945312
830;698.8470458984375
831;698.4055786132812
832;697.9642944335938
833;697.523193359375
834;697.0824584960938
835;696.641845703125
836;696.2015991210938
837;695.761474609375
838;695.3219604492188
839;694.8823852539062
840;694.443115234375
841;694.0040893554688
842;693.5656127929688
843;693.1270751953125
844;692.688720703125
845;692.2509155273438
846;691.8132934570312
847;691.375732421875
848;690.938720703125
849;690.501953125
850;690.0653686523438
851;689.629150390625
852;689.193115234375
853;688.7572631835938
854;688.32177734375
855;687.886474609375
856;687.4513549804688
857;687.016357421875
858;686.581787109375
859;686.1473388671875
860;685.7132568359375
861;685.2794189453125
862;684.8457641601562
863;684.4122924804688
864;683.9791259765625
865;683.5462036132812
866;683.113525390625
867;682.6813354492188
868;682.249267578125
869;681.8173217773438
870;681.3856811523438
871;680.954345703125
872;680.523193359375
873;680.09228515625
874;679.6616821289062
875;679.2313232421875
876;678.8011474609375
877;678.3712768554688
878;677.9417114257812
879;677.5122680664062
880;677.083251953125
881;676.654296875
882;676.2256469726562
883;675.797119140625
884;675.368896484375
885;674.941162109375
886;674.5134887695312
887;674.086181640625
888;673.6591186523438
889;673.232177734375
890;672.8053588867188
891;672.3790893554688
892;671.9528198242188
893;671.5267944335938
894;671.10107421875
895;670.6757202148438
896;670.2505493164062
897;669.8255004882812
898;669.4007568359375
899;668.976318359375
900;668.5521850585938
901;668.1282958984375
902;667.7044067382812
903;667.2809448242188
904;666.8575439453125
905;666.4345703125
906;666.0117797851562
907;665.5892944335938
908;665.1670532226562
909;664.7450561523438
910;664.3231811523438
911;663.9015502929688
912;663.480224609375
913;663.05908203125
914;662.63818359375
915;662.2175903320312
916;661.7972412109375
917;661.3771362304688
918;660.9571533203125
919;660.5374755859375
920;660.1181640625
921;659.6988525390625
922;659.2799072265625
923;658.8612060546875
924;658.442626953125
925;658.0243530273438
926;657.6062622070312
927;657.1885986328125
928;656.7710571289062
929;656.353759765625
930;655.936767578125
931;655.5198974609375
932;655.1032104492188
933;654.6868286132812
934;654.2708129882812
935;653.8549194335938
936;653.4392700195312
937;653.0238037109375
938;652.6085205078125
939;652.193603515625
940;651.7789916992188
941;651.3643188476562
942;650.9500122070312
943;650.5361938476562
944;650.1223754882812
945;649.7088012695312
946;649.2955322265625
947;648.88232421875
948;648.469482421875
949;648.056884765625
950;647.6444702148438
951;647.2323608398438
952;646.820556640625
953;646.408935546875
954;645.9973754882812
955;645.5861206054688
956;645.1749877929688
957;644.7640991210938
958;644.353515625
959;643.943115234375
960;643.532958984375
961;643.1229858398438
962;642.7132568359375
963;642.303955078125
964;641.894775390625
965;641.4859008789062
966;641.0772094726562
967;640.6686401367188
968;640.2603149414062
969;639.852294921875
970;639.4445190429688
971;639.0369262695312
972;638.629638671875
973;638.222412109375
974;637.8154296875
975;637.4088134765625
976;637.0023803710938
977;636.5960693359375
978;636.190185546875
979;635.7843017578125
980;635.3787841796875
981;634.9735107421875
982;634.568359375
983;634.1634521484375
984;633.7587890625
985;633.3543701171875
986;632.9501953125
987;632.5463256835938
988;632.142578125
989;631.739013671875
990;631.335693359375
991;630.9325561523438
992;630.52978515625
993;630.1271362304688
994;629.724609375
995;629.3223876953125
996;628.92041015625
997;628.518798828125
998;628.1171875
999;627.7159423828125
