;loss
0;1319.55419921875
1;1318.8231201171875
2;1318.0947265625
3;1317.36865234375
4;1316.6451416015625
5;1315.954345703125
6;1315.2342529296875
7;1314.514892578125
8;1313.7960205078125
9;1313.0770263671875
10;1312.3575439453125
11;1311.6380615234375
12;1310.915771484375
13;1310.1905517578125
14;1309.4664306640625
15;1308.74072265625
16;1308.0078125
17;1307.2786865234375
18;1306.54736328125
19;1305.81396484375
20;1305.07080078125
21;1304.33251953125
22;1303.5836181640625
23;1302.84033203125
24;1302.093994140625
25;1301.34423828125
26;1300.591552734375
27;1299.8350830078125
28;1299.0748291015625
29;1298.3109130859375
30;1297.5333251953125
31;1296.7510986328125
32;1295.96435546875
33;1295.1820068359375
34;1294.3968505859375
35;1293.606201171875
36;1292.8101806640625
37;1292.00830078125
38;1291.1910400390625
39;1290.3760986328125
40;1289.5455322265625
41;1288.7164306640625
42;1287.8709716796875
43;1287.0264892578125
44;1286.173583984375
45;1285.3035888671875
46;1284.4248046875
47;1283.536865234375
48;1282.64794921875
49;1281.7493896484375
50;1280.8406982421875
51;1279.91357421875
52;1278.97509765625
53;1278.0343017578125
54;1277.08203125
55;1276.118408203125
56;1275.1429443359375
57;1274.15576171875
58;1273.15625
59;1272.1356201171875
60;1271.1099853515625
61;1270.0628662109375
62;1269.009765625
63;1267.9346923828125
64;1266.85302734375
65;1265.757568359375
66;1264.6473388671875
67;1263.5135498046875
68;1262.3720703125
69;1261.2144775390625
70;1260.04052734375
71;1258.849853515625
72;1257.6336669921875
73;1256.407958984375
74;1255.1644287109375
75;1253.9022216796875
76;1252.6129150390625
77;1251.312744140625
78;1249.984619140625
79;1248.6448974609375
80;1247.27587890625
81;1245.89404296875
82;1244.49072265625
83;1243.06494140625
84;1241.6162109375
85;1240.1441650390625
86;1238.6485595703125
87;1237.1302490234375
88;1235.5870361328125
89;1234.0111083984375
90;1232.4122314453125
91;1230.7872314453125
92;1229.1348876953125
93;1227.4552001953125
94;1225.7564697265625
95;1224.02978515625
96;1222.273681640625
97;1220.4786376953125
98;1218.66357421875
99;1216.8255615234375
100;1214.9471435546875
101;1213.036376953125
102;1211.101318359375
103;1209.124755859375
104;1207.123779296875
105;1205.0777587890625
106;1203.00390625
107;1200.8916015625
108;1198.7308349609375
109;1196.539306640625
110;1194.30615234375
111;1192.033935546875
112;1189.71728515625
113;1187.3751220703125
114;1184.99169921875
115;1182.5533447265625
116;1180.0791015625
117;1177.5506591796875
118;1174.9769287109375
119;1172.371337890625
120;1169.72021484375
121;1167.020751953125
122;1164.280517578125
123;1161.4901123046875
124;1158.66015625
125;1155.7835693359375
126;1152.878662109375
127;1149.928466796875
128;1146.9349365234375
129;1143.8978271484375
130;1140.81494140625
131;1137.6917724609375
132;1134.540771484375
133;1131.36767578125
134;1128.1495361328125
135;1124.9227294921875
136;1121.6656494140625
137;1118.3992919921875
138;1115.1138916015625
139;1111.8074951171875
140;1108.506591796875
141;1105.18505859375
142;1101.8641357421875
143;1098.5687255859375
144;1095.28955078125
145;1092.02001953125
146;1088.8133544921875
147;1085.6265869140625
148;1082.4873046875
149;1079.3914794921875
150;1076.3326416015625
151;1073.3092041015625
152;1070.325927734375
153;1067.4005126953125
154;1064.52294921875
155;1061.703857421875
156;1058.9432373046875
157;1056.23681640625
158;1053.5823974609375
159;1050.9774169921875
160;1048.4393310546875
161;1045.95654296875
162;1043.5242919921875
163;1041.1593017578125
164;1038.8597412109375
165;1036.606689453125
166;1034.3905029296875
167;1032.225341796875
168;1030.1046142578125
169;1028.02587890625
170;1025.9920654296875
171;1023.9927368164062
172;1022.0305786132812
173;1020.105712890625
174;1018.2166748046875
175;1016.3665161132812
176;1014.5484008789062
177;1012.7596435546875
178;1011.0028076171875
179;1009.2809448242188
180;1007.5897216796875
181;1005.9276123046875
182;1004.2911376953125
183;1002.685302734375
184;1001.1109008789062
185;999.5647583007812
186;998.0491333007812
187;996.5704345703125
188;995.115234375
189;993.68359375
190;992.272705078125
191;990.886474609375
192;989.518798828125
193;988.1751098632812
194;986.8511352539062
195;985.5457763671875
196;984.2584838867188
197;982.9862060546875
198;981.7317504882812
199;980.4942626953125
200;979.2763671875
201;978.073974609375
202;976.8864135742188
203;975.7110595703125
204;974.5526123046875
205;973.406005859375
206;972.272705078125
207;971.1514892578125
208;970.0421142578125
209;968.9450073242188
210;967.864501953125
211;966.7958984375
212;965.73828125
213;964.6909790039062
214;963.6536254882812
215;962.6241455078125
216;961.606201171875
217;960.595703125
218;959.5962524414062
219;958.6033935546875
220;957.620849609375
221;956.6446533203125
222;955.677978515625
223;954.7191772460938
224;953.7659301757812
225;952.8198852539062
226;951.8804321289062
227;950.9493408203125
228;950.0227661132812
229;949.1033935546875
230;948.191650390625
231;947.2876586914062
232;946.3892211914062
233;945.494873046875
234;944.6063232421875
235;943.723388671875
236;942.847412109375
237;941.9771118164062
238;941.1118774414062
239;940.249755859375
240;939.3922729492188
241;938.5391845703125
242;937.6922607421875
243;936.8480834960938
244;936.0082397460938
245;935.173828125
246;934.3434448242188
247;933.515625
248;932.691650390625
249;931.8731689453125
250;931.0584716796875
251;930.24609375
252;929.4370727539062
253;928.6317138671875
254;927.8297729492188
255;927.031005859375
256;926.2356567382812
257;925.4448852539062
258;924.6558227539062
259;923.8699951171875
260;923.087646484375
261;922.308349609375
262;921.533203125
263;920.759765625
264;919.9905395507812
265;919.224853515625
266;918.4610595703125
267;917.701171875
268;916.944091796875
269;916.1897583007812
270;915.4368286132812
271;914.6878051757812
272;913.9412841796875
273;913.1959838867188
274;912.454345703125
275;911.715087890625
276;910.9769897460938
277;910.2410888671875
278;909.508544921875
279;908.7782592773438
280;908.0501098632812
281;907.3228149414062
282;906.5977172851562
283;905.8746337890625
284;905.1534423828125
285;904.435546875
286;903.718505859375
287;903.0044555664062
288;902.2913208007812
289;901.580078125
290;900.870849609375
291;900.1644897460938
292;899.4588623046875
293;898.755126953125
294;898.0542602539062
295;897.3541259765625
296;896.656982421875
297;895.9616088867188
298;895.2669067382812
299;894.5740966796875
300;893.884033203125
301;893.1944580078125
302;892.5067138671875
303;891.82080078125
304;891.1373901367188
305;890.4545288085938
306;889.773193359375
307;889.0933837890625
308;888.415283203125
309;887.7386474609375
310;887.0635986328125
311;886.3901977539062
312;885.7183837890625
313;885.048095703125
314;884.3792724609375
315;883.7129516601562
316;883.0471801757812
317;882.3837890625
318;881.7220458984375
319;881.060791015625
320;880.4019775390625
321;879.7444458007812
322;879.0883178710938
323;878.4326171875
324;877.7783203125
325;877.1259765625
326;876.4742431640625
327;875.8236694335938
328;875.17529296875
329;874.528076171875
330;873.8812255859375
331;873.2356567382812
332;872.59130859375
333;871.9489135742188
334;871.3069458007812
335;870.6663208007812
336;870.0269165039062
337;869.3894653320312
338;868.753173828125
339;868.117919921875
340;867.4830322265625
341;866.8491821289062
342;866.2172241210938
343;865.5863647460938
344;864.95654296875
345;864.3271484375
346;863.69873046875
347;863.0714111328125
348;862.4456787109375
349;861.8211669921875
350;861.1975708007812
351;860.5744018554688
352;859.9526977539062
353;859.3322143554688
354;858.7127685546875
355;858.09423828125
356;857.476806640625
357;856.8595581054688
358;856.2440185546875
359;855.6294555664062
360;855.01513671875
361;854.4024658203125
362;853.7899169921875
363;853.178955078125
364;852.5690307617188
365;851.959228515625
366;851.3510131835938
367;850.7431640625
368;850.1367797851562
369;849.530517578125
370;848.9259643554688
371;848.321533203125
372;847.718505859375
373;847.116455078125
374;846.5153198242188
375;845.9148559570312
376;845.3153686523438
377;844.7159423828125
378;844.1179809570312
379;843.5209350585938
380;842.9246826171875
381;842.3286743164062
382;841.7340698242188
383;841.1403198242188
384;840.5467529296875
385;839.9540405273438
386;839.36279296875
387;838.7722778320312
388;838.1826782226562
389;837.59375
390;837.005615234375
391;836.418212890625
392;835.8316040039062
393;835.2449340820312
394;834.6597900390625
395;834.0747680664062
396;833.4910278320312
397;832.907470703125
398;832.3251953125
399;831.7429809570312
400;831.16162109375
401;830.5814819335938
402;830.0020751953125
403;829.4227294921875
404;828.8446655273438
405;828.267333984375
406;827.6901245117188
407;827.1136474609375
408;826.538330078125
409;825.9638671875
410;825.3899536132812
411;824.816162109375
412;824.2435913085938
413;823.671142578125
414;823.099365234375
415;822.5283203125
416;821.9578857421875
417;821.3881225585938
418;820.819580078125
419;820.2516479492188
420;819.683837890625
421;819.1173095703125
422;818.5512084960938
423;817.9852905273438
424;817.4200439453125
425;816.8558959960938
426;816.2918090820312
427;815.7290649414062
428;815.166259765625
429;814.6046142578125
430;814.0436401367188
431;813.482666015625
432;812.9223022460938
433;812.362548828125
434;811.8034057617188
435;811.244873046875
436;810.6868286132812
437;810.1295776367188
438;809.5733032226562
439;809.0176391601562
440;808.4625244140625
441;807.9080200195312
442;807.3536376953125
443;806.8002319335938
444;806.2474975585938
445;805.6947021484375
446;805.1426391601562
447;804.591064453125
448;804.0406494140625
449;803.4901123046875
450;802.9407958984375
451;802.3914184570312
452;801.8431396484375
453;801.2950439453125
454;800.747314453125
455;800.2002563476562
456;799.6537475585938
457;799.1082763671875
458;798.5628051757812
459;798.0178833007812
460;797.4735107421875
461;796.93017578125
462;796.3868408203125
463;795.8440551757812
464;795.3019409179688
465;794.7606811523438
466;794.219482421875
467;793.6793212890625
468;793.1392211914062
469;792.6000366210938
470;792.0614624023438
471;791.5233764648438
472;790.9853515625
473;790.4478149414062
474;789.910888671875
475;789.3749389648438
476;788.8389282226562
477;788.303955078125
478;787.7694091796875
479;787.2349853515625
480;786.7014770507812
481;786.1680908203125
482;785.635498046875
483;785.1035766601562
484;784.5715942382812
485;784.0401611328125
486;783.5095825195312
487;782.9791870117188
488;782.4495239257812
489;781.9201049804688
490;781.3910522460938
491;780.863037109375
492;780.3353881835938
493;779.8081665039062
494;779.2815551757812
495;778.7550048828125
496;778.229248046875
497;777.7039794921875
498;777.17919921875
499;776.654541015625
500;776.1301879882812
501;775.6064453125
502;775.0835571289062
503;774.5612182617188
504;774.038818359375
505;773.5172729492188
506;772.995849609375
507;772.474853515625
508;771.9542846679688
509;771.4345703125
510;770.9149780273438
511;770.396240234375
512;769.8778686523438
513;769.359619140625
514;768.841796875
515;768.3248901367188
516;767.808349609375
517;767.292236328125
518;766.7763061523438
519;766.2610473632812
520;765.7459716796875
521;765.231689453125
522;764.7178955078125
523;764.2040405273438
524;763.691162109375
525;763.1781616210938
526;762.6661376953125
527;762.1541137695312
528;761.642822265625
529;761.1320190429688
530;760.6212158203125
531;760.1113891601562
532;759.6014404296875
533;759.092041015625
534;758.5833129882812
535;758.0750732421875
536;757.5672607421875
537;757.0595703125
538;756.5526123046875
539;756.0460815429688
540;755.5396728515625
541;755.033935546875
542;754.5283203125
543;754.023193359375
544;753.5187377929688
545;753.0147094726562
546;752.5108032226562
547;752.0072021484375
548;751.504150390625
549;751.00146484375
550;750.49951171875
551;749.9979858398438
552;749.496826171875
553;748.9957885742188
554;748.4954223632812
555;747.9951782226562
556;747.4956665039062
557;746.9965209960938
558;746.497802734375
559;745.99951171875
560;745.5015869140625
561;745.003662109375
562;744.5062255859375
563;744.009521484375
564;743.5131225585938
565;743.0172729492188
566;742.5216064453125
567;742.0264282226562
568;741.53173828125
569;741.036865234375
570;740.5425415039062
571;740.0487060546875
572;739.5551147460938
573;739.0619506835938
574;738.5694580078125
575;738.077392578125
576;737.5856323242188
577;737.0942993164062
578;736.6033935546875
579;736.1128540039062
580;735.622314453125
581;735.1325073242188
582;734.6431274414062
583;734.1536865234375
584;733.6647338867188
585;733.1760864257812
586;732.6881103515625
587;732.2003173828125
588;731.7127685546875
589;731.2257080078125
590;730.7392578125
591;730.253173828125
592;729.7673950195312
593;729.28173828125
594;728.7968139648438
595;728.3118896484375
596;727.82763671875
597;727.3438720703125
598;726.8600463867188
599;726.376953125
600;725.893798828125
601;725.4111328125
602;724.9288330078125
603;724.447021484375
604;723.9658203125
605;723.4849243164062
606;723.0039672851562
607;722.5234375
608;722.043212890625
609;721.5635375976562
610;721.0844116210938
611;720.60546875
612;720.1270751953125
613;719.64892578125
614;719.1712036132812
615;718.69384765625
616;718.216552734375
617;717.739501953125
618;717.2632446289062
619;716.7872314453125
620;716.311279296875
621;715.835693359375
622;715.3604736328125
623;714.8859252929688
624;714.4115600585938
625;713.937744140625
626;713.4638671875
627;712.9903564453125
628;712.5173950195312
629;712.0446166992188
630;711.5720825195312
631;711.1002807617188
632;710.6284790039062
633;710.1570434570312
634;709.6859130859375
635;709.2155151367188
636;708.745361328125
637;708.2752075195312
638;707.8054809570312
639;707.336181640625
640;706.8673095703125
641;706.3988647460938
642;705.9307250976562
643;705.462890625
644;704.9952392578125
645;704.5278930664062
646;704.06103515625
647;703.59423828125
648;703.1278686523438
649;702.6618041992188
650;702.1961059570312
651;701.7308959960938
652;701.265869140625
653;700.8012084960938
654;700.3367309570312
655;699.8726196289062
656;699.4091186523438
657;698.9459228515625
658;698.4830932617188
659;698.0205078125
660;697.55810546875
661;697.09619140625
662;696.6345825195312
663;696.1734008789062
664;695.7124633789062
665;695.2518310546875
666;694.791259765625
667;694.3311767578125
668;693.8715209960938
669;693.4119262695312
670;692.952880859375
671;692.4940795898438
672;692.035400390625
673;691.5772705078125
674;691.1192626953125
675;690.6619262695312
676;690.2047729492188
677;689.7481079101562
678;689.2914428710938
679;688.8352661132812
680;688.3795166015625
681;687.9240112304688
682;687.4686279296875
683;687.013671875
684;686.5589599609375
685;686.1044921875
686;685.6504516601562
687;685.1968994140625
688;684.7432861328125
689;684.2901000976562
690;683.837158203125
691;683.3845825195312
692;682.9323120117188
693;682.4803466796875
694;682.0286254882812
695;681.5774536132812
696;681.126708984375
697;680.6762084960938
698;680.2259521484375
699;679.7760009765625
700;679.326171875
701;678.8766479492188
702;678.427490234375
703;677.978759765625
704;677.5300903320312
705;677.08203125
706;676.6340942382812
707;676.1864013671875
708;675.739013671875
709;675.292236328125
710;674.8453979492188
711;674.3987426757812
712;673.9528198242188
713;673.507080078125
714;673.0614624023438
715;672.6160888671875
716;672.1710815429688
717;671.7265625
718;671.2821044921875
719;670.8379516601562
720;670.394287109375
721;669.9507446289062
722;669.5076904296875
723;669.064697265625
724;668.622314453125
725;668.179931640625
726;667.7378540039062
727;667.2962646484375
728;666.8547973632812
729;666.413818359375
730;665.9730834960938
731;665.5327758789062
732;665.092529296875
733;664.6527099609375
734;664.2131958007812
735;663.7739868164062
736;663.3349609375
737;662.8963012695312
738;662.4577026367188
739;662.0196533203125
740;661.581787109375
741;661.1441040039062
742;660.7066650390625
743;660.2694702148438
744;659.832763671875
745;659.3963623046875
746;658.9602661132812
747;658.5242309570312
748;658.0887451171875
749;657.6532592773438
750;657.21826171875
751;656.7835693359375
752;656.3489379882812
753;655.9146118164062
754;655.4807739257812
755;655.0469970703125
756;654.6137084960938
757;654.1806640625
758;653.747802734375
759;653.3153076171875
760;652.883056640625
761;652.451171875
762;652.0194091796875
763;651.5880737304688
764;651.1567993164062
765;650.7260131835938
766;650.2952270507812
767;649.8650512695312
768;649.4348754882812
769;649.005126953125
770;648.5756225585938
771;648.1463012695312
772;647.7174682617188
773;647.2886352539062
774;646.8601684570312
775;646.431884765625
776;646.0042114257812
777;645.5767822265625
778;645.1494750976562
779;644.7225341796875
780;644.295654296875
781;643.8692626953125
782;643.443115234375
783;643.01708984375
784;642.5912475585938
785;642.165771484375
786;641.7407836914062
787;641.3160400390625
788;640.891357421875
789;640.467041015625
790;640.0429077148438
791;639.6190185546875
792;639.1956176757812
793;638.7722778320312
794;638.349365234375
795;637.9267578125
796;637.5042114257812
797;637.0819091796875
798;636.66015625
799;636.238525390625
800;635.8170776367188
801;635.3960571289062
802;634.9752807617188
803;634.5545654296875
804;634.1341552734375
805;633.7140502929688
806;633.2941284179688
807;632.874755859375
808;632.4555053710938
809;632.036376953125
810;631.6176147460938
811;631.1990356445312
812;630.7808837890625
813;630.36279296875
814;629.945068359375
815;629.5276489257812
816;629.1104736328125
817;628.6935424804688
818;628.2767944335938
819;627.8605346679688
820;627.4442749023438
821;627.0285034179688
822;626.6127319335938
823;626.197265625
824;625.7822265625
825;625.367431640625
826;624.9529418945312
827;624.5386962890625
828;624.124755859375
829;623.7111206054688
830;623.297607421875
831;622.8843383789062
832;622.4713745117188
833;622.0586547851562
834;621.6461791992188
835;621.2339477539062
836;620.822021484375
837;620.4102172851562
838;619.998779296875
839;619.587646484375
840;619.1766357421875
841;618.765869140625
842;618.355224609375
843;617.9450073242188
844;617.534912109375
845;617.125244140625
846;616.7158203125
847;616.3065185546875
848;615.8975219726562
849;615.4888916015625
850;615.0803833007812
851;614.672119140625
852;614.2640380859375
853;613.8562622070312
854;613.4488525390625
855;613.0416870117188
856;612.6348266601562
857;612.2282104492188
858;611.82177734375
859;611.41552734375
860;611.0096435546875
861;610.6040649414062
862;610.1986083984375
863;609.7933349609375
864;609.3883666992188
865;608.983642578125
866;608.5792236328125
867;608.1749267578125
868;607.7710571289062
869;607.3673706054688
870;606.9639282226562
871;606.5606079101562
872;606.157470703125
873;605.7548217773438
874;605.352294921875
875;604.9500732421875
876;604.5479736328125
877;604.146240234375
878;603.7448120117188
879;603.3435668945312
880;602.942626953125
881;602.5418090820312
882;602.1412963867188
883;601.7410888671875
884;601.3408813476562
885;600.941162109375
886;600.5415649414062
887;600.142333984375
888;599.7432861328125
889;599.3443603515625
890;598.9456787109375
891;598.5473022460938
892;598.149169921875
893;597.7511596679688
894;597.353515625
895;596.9560546875
896;596.558837890625
897;596.161865234375
898;595.7650756835938
899;595.36865234375
900;594.9724731445312
901;594.5764770507812
902;594.1806640625
903;593.7852172851562
904;593.3900146484375
905;592.9949340820312
906;592.6002197265625
907;592.20556640625
908;591.811279296875
909;591.417236328125
910;591.0232543945312
911;590.6295776367188
912;590.236083984375
913;589.843017578125
914;589.449951171875
915;589.057373046875
916;588.6649780273438
917;588.2727661132812
918;587.8807373046875
919;587.489013671875
920;587.0975341796875
921;586.7063598632812
922;586.315185546875
923;585.92431640625
924;585.53369140625
925;585.1433715820312
926;584.753173828125
927;584.3632202148438
928;583.9735717773438
929;583.584228515625
930;583.1948852539062
931;582.805908203125
932;582.417236328125
933;582.0287475585938
934;581.6405029296875
935;581.2523803710938
936;580.8646850585938
937;580.4771118164062
938;580.08984375
939;579.7026977539062
940;579.315673828125
941;578.9290771484375
942;578.542724609375
943;578.1564331054688
944;577.7705078125
945;577.3848266601562
946;576.999267578125
947;576.614013671875
948;576.22900390625
949;575.8441162109375
950;575.4596557617188
951;575.0752563476562
952;574.6911010742188
953;574.30712890625
954;573.9234008789062
955;573.539794921875
956;573.156494140625
957;572.7733764648438
958;572.3905639648438
959;572.008056640625
960;571.6257934570312
961;571.24365234375
962;570.861572265625
963;570.47998046875
964;570.0985107421875
965;569.7172241210938
966;569.336181640625
967;568.9554443359375
968;568.574951171875
969;568.1946411132812
970;567.8146362304688
971;567.4345703125
972;567.054931640625
973;566.6753540039062
974;566.296142578125
975;565.9171142578125
976;565.5382690429688
977;565.1597290039062
978;564.7813110351562
979;564.403076171875
980;564.0252685546875
981;563.6475830078125
982;563.2700805664062
983;562.8930053710938
984;562.5160522460938
985;562.1393432617188
986;561.7627563476562
987;561.3863525390625
988;561.0101318359375
989;560.6342163085938
990;560.258544921875
991;559.883056640625
992;559.5079345703125
993;559.1328735351562
994;558.7581176757812
995;558.3834838867188
996;558.0090942382812
997;557.635009765625
998;557.2610473632812
999;556.8873901367188
