;loss
0;1315.3941650390625
1;1314.89404296875
2;1314.220947265625
3;1313.547119140625
4;1312.871826171875
5;1312.19580078125
6;1311.5181884765625
7;1310.83935546875
8;1310.15869140625
9;1309.4764404296875
10;1308.79541015625
11;1308.1102294921875
12;1307.4217529296875
13;1306.72900390625
14;1306.0325927734375
15;1305.3370361328125
16;1304.6387939453125
17;1303.937744140625
18;1303.2337646484375
19;1302.5264892578125
20;1301.81591796875
21;1301.09375
22;1300.3756103515625
23;1299.6536865234375
24;1298.918701171875
25;1298.187744140625
26;1297.4434814453125
27;1296.6942138671875
28;1295.9483642578125
29;1295.1971435546875
30;1294.4405517578125
31;1293.6778564453125
32;1292.9090576171875
33;1292.1341552734375
34;1291.34375
35;1290.555419921875
36;1289.76025390625
37;1288.9576416015625
38;1288.1390380859375
39;1287.3212890625
40;1286.48681640625
41;1285.6441650390625
42;1284.79296875
43;1283.93310546875
44;1283.07275390625
45;1282.2030029296875
46;1281.3238525390625
47;1280.43505859375
48;1279.5361328125
49;1278.6265869140625
50;1277.706787109375
51;1276.776123046875
52;1275.8343505859375
53;1274.880859375
54;1273.91552734375
55;1272.9384765625
56;1271.948974609375
57;1270.94677734375
58;1269.9315185546875
59;1268.89501953125
60;1267.85302734375
61;1266.7972412109375
62;1265.7274169921875
63;1264.64306640625
64;1263.5360107421875
65;1262.4219970703125
66;1261.28466796875
67;1260.1319580078125
68;1258.965087890625
69;1257.7822265625
70;1256.5831298828125
71;1255.36767578125
72;1254.1434326171875
73;1252.89404296875
74;1251.627685546875
75;1250.3516845703125
76;1249.0499267578125
77;1247.72998046875
78;1246.3919677734375
79;1245.034912109375
80;1243.66748046875
81;1242.28125
82;1240.86767578125
83;1239.434326171875
84;1237.981689453125
85;1236.5091552734375
86;1235.02490234375
87;1233.51220703125
88;1231.9796142578125
89;1230.426513671875
90;1228.853271484375
91;1227.2684326171875
92;1225.6634521484375
93;1224.0299072265625
94;1222.37939453125
95;1220.7191162109375
96;1219.039794921875
97;1217.342041015625
98;1215.616943359375
99;1213.8736572265625
100;1212.112548828125
101;1210.3338623046875
102;1208.5382080078125
103;1206.726318359375
104;1204.898681640625
105;1203.0557861328125
106;1201.1988525390625
107;1199.330078125
108;1197.4493408203125
109;1195.56494140625
110;1193.669921875
111;1191.7569580078125
112;1189.8387451171875
113;1187.9224853515625
114;1186.01123046875
115;1184.08837890625
116;1182.1630859375
117;1180.236572265625
118;1178.3095703125
119;1176.38330078125
120;1174.46728515625
121;1172.554443359375
122;1170.638916015625
123;1168.72900390625
124;1166.8328857421875
125;1164.9388427734375
126;1163.0528564453125
127;1161.17626953125
128;1159.3165283203125
129;1157.4696044921875
130;1155.641357421875
131;1153.8199462890625
132;1152.0186767578125
133;1150.22607421875
134;1148.4539794921875
135;1146.6981201171875
136;1144.9549560546875
137;1143.2275390625
138;1141.523193359375
139;1139.830322265625
140;1138.159912109375
141;1136.5074462890625
142;1134.8687744140625
143;1133.247314453125
144;1131.64794921875
145;1130.0655517578125
146;1128.499755859375
147;1126.960693359375
148;1125.4384765625
149;1123.933349609375
150;1122.4456787109375
151;1120.977294921875
152;1119.525634765625
153;1118.09521484375
154;1116.681640625
155;1115.28466796875
156;1113.9063720703125
157;1112.5458984375
158;1111.200927734375
159;1109.870849609375
160;1108.55517578125
161;1107.249755859375
162;1105.9583740234375
163;1104.680419921875
164;1103.4197998046875
165;1102.1719970703125
166;1100.9366455078125
167;1099.714111328125
168;1098.50341796875
169;1097.3050537109375
170;1096.1148681640625
171;1094.9393310546875
172;1093.776123046875
173;1092.623779296875
174;1091.4815673828125
175;1090.346923828125
176;1089.22509765625
177;1088.113037109375
178;1087.0072021484375
179;1085.912353515625
180;1084.825927734375
181;1083.7469482421875
182;1082.676025390625
183;1081.6121826171875
184;1080.552490234375
185;1079.502685546875
186;1078.4598388671875
187;1077.4244384765625
188;1076.3936767578125
189;1075.36865234375
190;1074.35009765625
191;1073.33935546875
192;1072.3309326171875
193;1071.3272705078125
194;1070.3306884765625
195;1069.33837890625
196;1068.35009765625
197;1067.3656005859375
198;1066.3848876953125
199;1065.40771484375
200;1064.433349609375
201;1063.4603271484375
202;1062.490478515625
203;1061.52392578125
204;1060.5623779296875
205;1059.603271484375
206;1058.647216796875
207;1057.6915283203125
208;1056.73876953125
209;1055.7906494140625
210;1054.8428955078125
211;1053.8975830078125
212;1052.95458984375
213;1052.0157470703125
214;1051.0794677734375
215;1050.143798828125
216;1049.2127685546875
217;1048.282470703125
218;1047.356201171875
219;1046.43212890625
220;1045.508544921875
221;1044.58740234375
222;1043.6702880859375
223;1042.75537109375
224;1041.84228515625
225;1040.9312744140625
226;1040.0224609375
227;1039.1141357421875
228;1038.209716796875
229;1037.3060302734375
230;1036.4063720703125
231;1035.509033203125
232;1034.61376953125
233;1033.72119140625
234;1032.8306884765625
235;1031.9429931640625
236;1031.05810546875
237;1030.17578125
238;1029.2962646484375
239;1028.41943359375
240;1027.5433349609375
241;1026.67138671875
242;1025.80029296875
243;1024.9334716796875
244;1024.0675048828125
245;1023.2057495117188
246;1022.3451538085938
247;1021.487060546875
248;1020.631591796875
249;1019.7801513671875
250;1018.931396484375
251;1018.0850830078125
252;1017.2413330078125
253;1016.3999633789062
254;1015.5614013671875
255;1014.7237548828125
256;1013.8901977539062
257;1013.0588989257812
258;1012.230224609375
259;1011.40234375
260;1010.578369140625
261;1009.7569580078125
262;1008.9378051757812
263;1008.1212158203125
264;1007.3055419921875
265;1006.4937133789062
266;1005.6841430664062
267;1004.8755493164062
268;1004.069091796875
269;1003.264892578125
270;1002.4641723632812
271;1001.6641845703125
272;1000.8665161132812
273;1000.0709838867188
274;999.2777709960938
275;998.488037109375
276;997.6990966796875
277;996.913818359375
278;996.129150390625
279;995.34765625
280;994.5669555664062
281;993.7880859375
282;993.012451171875
283;992.239990234375
284;991.468994140625
285;990.7000732421875
286;989.9341430664062
287;989.1690673828125
288;988.4055786132812
289;987.6439819335938
290;986.8854370117188
291;986.128662109375
292;985.3727416992188
293;984.6196899414062
294;983.866943359375
295;983.1171875
296;982.3690185546875
297;981.621337890625
298;980.8762817382812
299;980.133056640625
300;979.3910522460938
301;978.6509399414062
302;977.9111328125
303;977.1739501953125
304;976.437255859375
305;975.702392578125
306;974.968994140625
307;974.2369995117188
308;973.506591796875
309;972.7777709960938
310;972.0503540039062
311;971.324462890625
312;970.6011352539062
313;969.8790283203125
314;969.1585083007812
315;968.4383544921875
316;967.7198486328125
317;967.0034790039062
318;966.2877807617188
319;965.5745239257812
320;964.8628540039062
321;964.1526489257812
322;963.4437866210938
323;962.7362060546875
324;962.0299682617188
325;961.3250732421875
326;960.6215209960938
327;959.9192504882812
328;959.2183227539062
329;958.5186767578125
330;957.8201904296875
331;957.1221923828125
332;956.4254760742188
333;955.7299194335938
334;955.0366821289062
335;954.343994140625
336;953.6533203125
337;952.9630126953125
338;952.2748413085938
339;951.588134765625
340;950.9024658203125
341;950.218017578125
342;949.5347290039062
343;948.852783203125
344;948.1712036132812
345;947.4916381835938
346;946.8133544921875
347;946.1361694335938
348;945.4602661132812
349;944.7854614257812
350;944.1116333007812
351;943.438232421875
352;942.766845703125
353;942.096435546875
354;941.4264526367188
355;940.7582397460938
356;940.0911254882812
357;939.4251098632812
358;938.7601928710938
359;938.0963745117188
360;937.43359375
361;936.7710571289062
362;936.110595703125
363;935.4501953125
364;934.7916870117188
365;934.1334838867188
366;933.4769897460938
367;932.8209838867188
368;932.166748046875
369;931.5128173828125
370;930.8606567382812
371;930.2095336914062
372;929.5594482421875
373;928.910400390625
374;928.261474609375
375;927.6142578125
376;926.9680786132812
377;926.3228149414062
378;925.677734375
379;925.034423828125
380;924.3919067382812
381;923.7504272460938
382;923.109130859375
383;922.469482421875
384;921.830810546875
385;921.193115234375
386;920.5562133789062
387;919.919677734375
388;919.2838745117188
389;918.6497192382812
390;918.0164794921875
391;917.3842163085938
392;916.7528076171875
393;916.1215209960938
394;915.4918823242188
395;914.863037109375
396;914.2344970703125
397;913.607421875
398;912.9805908203125
399;912.3551635742188
400;911.7299194335938
401;911.105712890625
402;910.4827270507812
403;909.8601684570312
404;909.239013671875
405;908.6185913085938
406;907.9991455078125
407;907.3802490234375
408;906.7623901367188
409;906.1453857421875
410;905.5285034179688
411;904.9124145507812
412;904.297119140625
413;903.6826171875
414;903.0689697265625
415;902.4559936523438
416;901.8445434570312
417;901.2330932617188
418;900.6231689453125
419;900.013916015625
420;899.405517578125
421;898.7971801757812
422;898.190185546875
423;897.584228515625
424;896.9783325195312
425;896.3738403320312
426;895.7695922851562
427;895.1660766601562
428;894.5639038085938
429;893.96240234375
430;893.3616333007812
431;892.760986328125
432;892.1616821289062
433;891.5630493164062
434;890.964599609375
435;890.3668212890625
436;889.770263671875
437;889.1744384765625
438;888.579345703125
439;887.984375
440;887.3905639648438
441;886.7969360351562
442;886.2045288085938
443;885.6121826171875
444;885.0206909179688
445;884.4303588867188
446;883.840576171875
447;883.25146484375
448;882.6630859375
449;882.0753784179688
450;881.4881591796875
451;880.9016723632812
452;880.3158569335938
453;879.730712890625
454;879.1456298828125
455;878.561767578125
456;877.9784545898438
457;877.395751953125
458;876.8137817382812
459;876.2323608398438
460;875.651611328125
461;875.0714721679688
462;874.491455078125
463;873.9119262695312
464;873.333251953125
465;872.7550048828125
466;872.1774291992188
467;871.600341796875
468;871.0241088867188
469;870.4487915039062
470;869.8735961914062
471;869.299072265625
472;868.7255859375
473;868.152099609375
474;867.5794677734375
475;867.0072021484375
476;866.4356079101562
477;865.8645629882812
478;865.294677734375
479;864.724853515625
480;864.156005859375
481;863.5872192382812
482;863.0191040039062
483;862.4515380859375
484;861.885009765625
485;861.3190307617188
486;860.753173828125
487;860.1879272460938
488;859.6231689453125
489;859.0594482421875
490;858.4957885742188
491;857.9326782226562
492;857.3706665039062
493;856.8091430664062
494;856.2479858398438
495;855.6875610351562
496;855.127685546875
497;854.5682983398438
498;854.0094604492188
499;853.451171875
500;852.8930053710938
501;852.3357543945312
502;851.779052734375
503;851.2228393554688
504;850.667236328125
505;850.112060546875
506;849.5574340820312
507;849.0033569335938
508;848.44970703125
509;847.8966674804688
510;847.34375
511;846.791259765625
512;846.2393188476562
513;845.6878051757812
514;845.136962890625
515;844.5869140625
516;844.0369262695312
517;843.487548828125
518;842.9385986328125
519;842.3901977539062
520;841.84228515625
521;841.2952880859375
522;840.7483520507812
523;840.202392578125
524;839.6568603515625
525;839.1114501953125
526;838.5664672851562
527;838.0224609375
528;837.4788208007812
529;836.9357299804688
530;836.3931884765625
531;835.8505859375
532;835.30859375
533;834.7670288085938
534;834.2260131835938
535;833.685302734375
536;833.1455078125
537;832.6058959960938
538;832.0667114257812
539;831.5283813476562
540;830.9904174804688
541;830.45263671875
542;829.9157104492188
543;829.379150390625
544;828.8427734375
545;828.3072509765625
546;827.7716674804688
547;827.2369384765625
548;826.7026977539062
549;826.1690673828125
550;825.6356811523438
551;825.102783203125
552;824.5703125
553;824.0383911132812
554;823.5067749023438
555;822.9757080078125
556;822.445068359375
557;821.914794921875
558;821.385009765625
559;820.8553466796875
560;820.326416015625
561;819.797607421875
562;819.269287109375
563;818.74169921875
564;818.2145385742188
565;817.687744140625
566;817.161376953125
567;816.6355590820312
568;816.110107421875
569;815.5851440429688
570;815.0601196289062
571;814.535888671875
572;814.0119018554688
573;813.4881591796875
574;812.9649658203125
575;812.4424438476562
576;811.9203491210938
577;811.3984375
578;810.8768310546875
579;810.355712890625
580;809.8349609375
581;809.314697265625
582;808.7951049804688
583;808.27587890625
584;807.7568359375
585;807.2380981445312
586;806.7198486328125
587;806.2023315429688
588;805.684814453125
589;805.1681518554688
590;804.6514282226562
591;804.13525390625
592;803.6193237304688
593;803.1041870117188
594;802.589111328125
595;802.074462890625
596;801.5606079101562
597;801.0470581054688
598;800.5335083007812
599;800.0203857421875
600;799.5076904296875
601;798.9957275390625
602;798.48388671875
603;797.97265625
604;797.4615478515625
605;796.9508666992188
606;796.4404907226562
607;795.9307861328125
608;795.4215698242188
609;794.9122924804688
610;794.403564453125
611;793.8951416015625
612;793.3870239257812
613;792.87939453125
614;792.3723754882812
615;791.8655395507812
616;791.3590087890625
617;790.8528442382812
618;790.3471069335938
619;789.8419799804688
620;789.3372192382812
621;788.8328857421875
622;788.328857421875
623;787.8253173828125
624;787.3220825195312
625;786.8189697265625
626;786.316162109375
627;785.8140869140625
628;785.312255859375
629;784.8108520507812
630;784.3095703125
631;783.8086547851562
632;783.3080444335938
633;782.8081665039062
634;782.3082885742188
635;781.8090209960938
636;781.3099365234375
637;780.8114624023438
638;780.3132934570312
639;779.815185546875
640;779.3175659179688
641;778.8202514648438
642;778.323486328125
643;777.8272094726562
644;777.3311767578125
645;776.835205078125
646;776.339599609375
647;775.844482421875
648;775.349853515625
649;774.8554077148438
650;774.3612060546875
651;773.8677368164062
652;773.374267578125
653;772.8814086914062
654;772.388916015625
655;771.8965454101562
656;771.4044799804688
657;770.9127807617188
658;770.4213256835938
659;769.9304809570312
660;769.4398193359375
661;768.9497680664062
662;768.4599609375
663;767.9703979492188
664;767.4810180664062
665;766.9923095703125
666;766.503662109375
667;766.015625
668;765.5280151367188
669;765.0403442382812
670;764.5530395507812
671;764.06640625
672;763.5799560546875
673;763.09375
674;762.60791015625
675;762.1221923828125
676;761.636962890625
677;761.1520385742188
678;760.6674194335938
679;760.18310546875
680;759.6991577148438
681;759.215576171875
682;758.732177734375
683;758.249267578125
684;757.7666625976562
685;757.284423828125
686;756.8024291992188
687;756.3207397460938
688;755.839599609375
689;755.358642578125
690;754.878173828125
691;754.3980712890625
692;753.9180908203125
693;753.4385375976562
694;752.9593505859375
695;752.480224609375
696;752.0015258789062
697;751.5231323242188
698;751.0452880859375
699;750.5675659179688
700;750.090087890625
701;749.613037109375
702;749.1361083984375
703;748.65966796875
704;748.183837890625
705;747.7078857421875
706;747.2323608398438
707;746.757080078125
708;746.282470703125
709;745.8080444335938
710;745.333984375
711;744.8603515625
712;744.3866577148438
713;743.9132690429688
714;743.4405517578125
715;742.9677124023438
716;742.495361328125
717;742.023193359375
718;741.5516967773438
719;741.0803833007812
720;740.6091918945312
721;740.1384887695312
722;739.6680297851562
723;739.19775390625
724;738.727783203125
725;738.2581176757812
726;737.7888793945312
727;737.3197021484375
728;736.8510131835938
729;736.382568359375
730;735.9144287109375
731;735.4468383789062
732;734.9796142578125
733;734.512451171875
734;734.045654296875
735;733.5789184570312
736;733.11279296875
737;732.6467895507812
738;732.1809692382812
739;731.715576171875
740;731.25048828125
741;730.785888671875
742;730.3212890625
743;729.8572387695312
744;729.3934936523438
745;728.9298706054688
746;728.4664916992188
747;728.00341796875
748;727.540771484375
749;727.078369140625
750;726.6161499023438
751;726.1542358398438
752;725.692626953125
753;725.2313232421875
754;724.7705688476562
755;724.309814453125
756;723.849365234375
757;723.3892211914062
758;722.9296264648438
759;722.47021484375
760;722.0111083984375
761;721.5520629882812
762;721.0934448242188
763;720.635009765625
764;720.1769409179688
765;719.7191162109375
766;719.261474609375
767;718.8042602539062
768;718.3472900390625
769;717.8907470703125
770;717.434326171875
771;716.978271484375
772;716.5224609375
773;716.0668334960938
774;715.611572265625
775;715.156494140625
776;714.7018432617188
777;714.2474365234375
778;713.7933349609375
779;713.3394775390625
780;712.8858642578125
781;712.4327392578125
782;711.979736328125
783;711.5271606445312
784;711.074951171875
785;710.622802734375
786;710.1708984375
787;709.71923828125
788;709.2681884765625
789;708.8170776367188
790;708.366455078125
791;707.9158935546875
792;707.4659423828125
793;707.0161743164062
794;706.56640625
795;706.1170043945312
796;705.6680908203125
797;705.21923828125
798;704.770751953125
799;704.3226928710938
800;703.8746337890625
801;703.4270629882812
802;702.9796142578125
803;702.532470703125
804;702.0855102539062
805;701.6387329101562
806;701.1925659179688
807;700.7466430664062
808;700.30078125
809;699.855224609375
810;699.409912109375
811;698.9649047851562
812;698.520263671875
813;698.0758056640625
814;697.6317138671875
815;697.18798828125
816;696.7442626953125
817;696.3009033203125
818;695.8578491210938
819;695.4151000976562
820;694.9724731445312
821;694.5302734375
822;694.0881958007812
823;693.6463623046875
824;693.2050170898438
825;692.763916015625
826;692.3228759765625
827;691.8821411132812
828;691.4417724609375
829;691.0015869140625
830;690.5617065429688
831;690.1221313476562
832;689.6826171875
833;689.2435913085938
834;688.804931640625
835;688.366455078125
836;687.9280395507812
837;687.4900512695312
838;687.0523681640625
839;686.614990234375
840;686.1777954101562
841;685.7408447265625
842;685.30419921875
843;684.8677978515625
844;684.4317626953125
845;683.995849609375
846;683.5602416992188
847;683.1248168945312
848;682.689697265625
849;682.2548217773438
850;681.820068359375
851;681.3856201171875
852;680.951416015625
853;680.517578125
854;680.0841064453125
855;679.6506958007812
856;679.2177124023438
857;678.784912109375
858;678.3524169921875
859;677.920166015625
860;677.4878540039062
861;677.05615234375
862;676.6246948242188
863;676.1934204101562
864;675.7623291015625
865;675.3316040039062
866;674.90087890625
867;674.470458984375
868;674.0404052734375
869;673.6106567382812
870;673.18115234375
871;672.7518920898438
872;672.32275390625
873;671.8941040039062
874;671.465576171875
875;671.037353515625
876;670.6091918945312
877;670.1812744140625
878;669.7537841796875
879;669.3265991210938
880;668.899658203125
881;668.4727783203125
882;668.046142578125
883;667.6197509765625
884;667.193603515625
885;666.767822265625
886;666.34228515625
887;665.9168701171875
888;665.49169921875
889;665.0668334960938
890;664.6421508789062
891;664.2178344726562
892;663.7936401367188
893;663.3697509765625
894;662.9462280273438
895;662.5228271484375
896;662.099853515625
897;661.677001953125
898;661.2545776367188
899;660.8322143554688
900;660.4100341796875
901;659.9882202148438
902;659.5665893554688
903;659.14501953125
904;658.7239990234375
905;658.30322265625
906;657.8826904296875
907;657.4622192382812
908;657.0420532226562
909;656.622314453125
910;656.20263671875
911;655.7832641601562
912;655.3641357421875
913;654.9452514648438
914;654.526611328125
915;654.108154296875
916;653.68994140625
917;653.2719116210938
918;652.854248046875
919;652.4366455078125
920;652.019287109375
921;651.6022338867188
922;651.185546875
923;650.7689208984375
924;650.3526611328125
925;649.9365234375
926;649.5206909179688
927;649.1051635742188
928;648.6896362304688
929;648.2745971679688
930;647.859619140625
931;647.44482421875
932;647.0304565429688
933;646.6162719726562
934;646.2024536132812
935;645.7887573242188
936;645.3751831054688
937;644.9620971679688
938;644.549072265625
939;644.1363525390625
940;643.723876953125
941;643.3117065429688
942;642.8997192382812
943;642.4879760742188
944;642.0762939453125
945;641.6648559570312
946;641.2537841796875
947;640.8428955078125
948;640.4322509765625
949;640.021728515625
950;639.611572265625
951;639.2015380859375
952;638.7918090820312
953;638.3825073242188
954;637.97314453125
955;637.564208984375
956;637.1554565429688
957;636.746826171875
958;636.33837890625
959;635.930419921875
960;635.522705078125
961;635.114990234375
962;634.7075805664062
963;634.3004760742188
964;633.8936767578125
965;633.487060546875
966;633.0805053710938
967;632.6742553710938
968;632.2682495117188
969;631.8623657226562
970;631.456787109375
971;631.051513671875
972;630.646240234375
973;630.2415161132812
974;629.8368530273438
975;629.432373046875
976;629.0281982421875
977;628.624267578125
978;628.2205810546875
979;627.8170776367188
980;627.4138793945312
981;627.0107421875
982;626.60791015625
983;626.2053833007812
984;625.8030395507812
985;625.4010620117188
986;624.9992065429688
987;624.59765625
988;624.1962890625
989;623.795166015625
990;623.3942260742188
991;622.9935302734375
992;622.5929565429688
993;622.192626953125
994;621.7926025390625
995;621.392822265625
996;620.9931640625
997;620.5936279296875
998;620.1943969726562
999;619.7955932617188
1000;619.3968505859375
1001;618.9984130859375
1002;618.600341796875
1003;618.2021484375
1004;617.8042602539062
1005;617.4066162109375
1006;617.0093383789062
1007;616.612060546875
1008;616.215087890625
1009;615.8182983398438
1010;615.4218139648438
1011;615.025634765625
1012;614.6295166015625
1013;614.2337646484375
1014;613.838134765625
1015;613.4428100585938
1016;613.0476684570312
1017;612.6527709960938
1018;612.258056640625
1019;611.863525390625
1020;611.4693603515625
1021;611.0753784179688
1022;610.6814575195312
1023;610.2879028320312
1024;609.89453125
1025;609.5014038085938
1026;609.1085205078125
1027;608.7158203125
1028;608.3233642578125
1029;607.9309692382812
1030;607.538818359375
1031;607.1470947265625
1032;606.7554931640625
1033;606.364013671875
1034;605.9728393554688
1035;605.5819091796875
1036;605.191162109375
1037;604.8005981445312
1038;604.4102172851562
1039;604.02001953125
1040;603.6300659179688
1041;603.2403564453125
1042;602.8508911132812
1043;602.4615478515625
1044;602.072509765625
1045;601.6837158203125
1046;601.295166015625
1047;600.9067993164062
1048;600.5186767578125
1049;600.130615234375
1050;599.7428588867188
1051;599.3552856445312
1052;598.968017578125
1053;598.5809326171875
1054;598.1941528320312
1055;597.8075561523438
1056;597.4210205078125
1057;597.034912109375
1058;596.6488037109375
1059;596.2630004882812
1060;595.8775024414062
1061;595.4921875
1062;595.1071166992188
1063;594.7220458984375
1064;594.3373413085938
1065;593.952880859375
1066;593.5684814453125
1067;593.1843872070312
1068;592.800537109375
1069;592.4169921875
1070;592.0335083007812
1071;591.650146484375
1072;591.2672729492188
1073;590.8843994140625
1074;590.5017700195312
1075;590.119384765625
1076;589.7373046875
1077;589.3552856445312
1078;588.9736328125
1079;588.592041015625
1080;588.2107543945312
1081;587.8296508789062
1082;587.4487915039062
1083;587.068115234375
1084;586.6876220703125
1085;586.307373046875
1086;585.92724609375
1087;585.5473022460938
1088;585.167724609375
1089;584.7881469726562
1090;584.4089965820312
1091;584.0299682617188
1092;583.6510009765625
1093;583.2724609375
1094;582.8939819335938
1095;582.515869140625
1096;582.1378784179688
1097;581.760009765625
1098;581.3824462890625
1099;581.0050659179688
1100;580.6278076171875
1101;580.2507934570312
1102;579.8740844726562
1103;579.4974975585938
1104;579.1211547851562
1105;578.7449951171875
1106;578.3690795898438
1107;577.993408203125
1108;577.617919921875
1109;577.2425537109375
1110;576.8676147460938
1111;576.4926147460938
1112;576.117919921875
1113;575.7435302734375
1114;575.3692626953125
1115;574.9950561523438
1116;574.6212158203125
1117;574.2476806640625
1118;573.8741455078125
1119;573.5007934570312
1120;573.1279296875
1121;572.755126953125
1122;572.382568359375
1123;572.0101928710938
1124;571.6380004882812
1125;571.2660522460938
1126;570.894287109375
1127;570.522705078125
1128;570.1511840820312
1129;569.780029296875
1130;569.4091796875
1131;569.038330078125
1132;568.667724609375
1133;568.2973022460938
1134;567.9270629882812
1135;567.5570678710938
1136;567.187255859375
1137;566.817626953125
1138;566.4483032226562
1139;566.0790405273438
1140;565.7100830078125
1141;565.3411865234375
1142;564.9727783203125
1143;564.6043701171875
1144;564.236328125
1145;563.8682861328125
1146;563.5005493164062
1147;563.1329956054688
1148;562.7655639648438
1149;562.3984985351562
1150;562.0315551757812
1151;561.664794921875
1152;561.2982788085938
1153;560.9319458007812
1154;560.5657348632812
1155;560.1998291015625
1156;559.8341674804688
1157;559.4686279296875
1158;559.103271484375
1159;558.7382202148438
1160;558.373291015625
1161;558.008544921875
1162;557.6441650390625
1163;557.2797241210938
1164;556.9155883789062
1165;556.5516357421875
1166;556.18798828125
1167;555.824462890625
1168;555.4612426757812
1169;555.09814453125
1170;554.7351684570312
1171;554.3724365234375
1172;554.010009765625
1173;553.647705078125
1174;553.2854614257812
1175;552.923583984375
1176;552.5618896484375
1177;552.2003173828125
1178;551.8389282226562
1179;551.4778442382812
1180;551.116943359375
1181;550.756103515625
1182;550.3955688476562
1183;550.03515625
1184;549.6749877929688
1185;549.31494140625
1186;548.9552001953125
1187;548.5955810546875
1188;548.2362060546875
1189;547.8770141601562
1190;547.5179443359375
1191;547.1590576171875
1192;546.8004760742188
1193;546.4420776367188
1194;546.0839233398438
1195;545.7259521484375
1196;545.3682861328125
1197;545.0106201171875
1198;544.6533203125
1199;544.296142578125
1200;543.9391479492188
1201;543.582275390625
1202;543.2256469726562
1203;542.8692016601562
1204;542.5130004882812
1205;542.156982421875
1206;541.8012084960938
1207;541.445556640625
1208;541.090087890625
1209;540.7348022460938
1210;540.3797607421875
1211;540.0249633789062
1212;539.670166015625
1213;539.315673828125
1214;538.9615478515625
1215;538.6073608398438
1216;538.2535400390625
1217;537.8998413085938
1218;537.5462646484375
1219;537.19287109375
1220;536.8397216796875
1221;536.4867553710938
1222;536.134033203125
1223;535.781494140625
1224;535.4290771484375
1225;535.0768432617188
1226;534.7249145507812
1227;534.3731689453125
1228;534.0216064453125
1229;533.670166015625
1230;533.3190307617188
1231;532.968017578125
1232;532.6172485351562
1233;532.2666015625
1234;531.9161376953125
1235;531.5657958984375
1236;531.2157592773438
1237;530.865966796875
1238;530.516357421875
1239;530.166748046875
1240;529.8175048828125
1241;529.4684448242188
1242;529.1194458007812
1243;528.770751953125
1244;528.4221801757812
1245;528.0739135742188
1246;527.725830078125
1247;527.3778076171875
1248;527.0301513671875
1249;526.6825561523438
1250;526.335205078125
1251;525.9879760742188
1252;525.6409301757812
1253;525.294189453125
1254;524.947509765625
1255;524.6011962890625
1256;524.2550048828125
1257;523.9088745117188
1258;523.5630493164062
1259;523.2174682617188
1260;522.8718872070312
1261;522.5266723632812
1262;522.1815185546875
1263;521.836669921875
1264;521.491943359375
1265;521.1473999023438
1266;520.8030395507812
1267;520.4588012695312
1268;520.1148071289062
1269;519.7710571289062
1270;519.427490234375
1271;519.0840454101562
1272;518.74072265625
1273;518.397705078125
1274;518.0548095703125
1275;517.7120971679688
1276;517.3695678710938
1277;517.0272827148438
1278;516.6852416992188
1279;516.34326171875
1280;516.0015869140625
1281;515.6600341796875
1282;515.318603515625
1283;514.9774169921875
1284;514.636474609375
1285;514.295654296875
1286;513.955078125
1287;513.6146850585938
1288;513.2743530273438
1289;512.934326171875
1290;512.5944213867188
1291;512.2546997070312
1292;511.9151916503906
1293;511.5758361816406
1294;511.2366027832031
1295;510.8976135253906
1296;510.5588684082031
1297;510.22021484375
1298;509.8817138671875
1299;509.5436096191406
1300;509.20556640625
1301;508.86767578125
1302;508.5299987792969
1303;508.1925354003906
1304;507.8552551269531
1305;507.51812744140625
1306;507.18121337890625
1307;506.8443908691406
1308;506.5078125
1309;506.1715087890625
1310;505.8352966308594
1311;505.4992370605469
1312;505.1634216308594
1313;504.82769775390625
1314;504.4921875
1315;504.1569519042969
1316;503.82177734375
1317;503.4869384765625
1318;503.1521301269531
1319;502.8175354003906
1320;502.4831848144531
1321;502.14892578125
1322;501.81488037109375
1323;501.48101806640625
1324;501.1473388671875
1325;500.8138427734375
1326;500.48052978515625
1327;500.14739990234375
1328;499.81451416015625
1329;499.4818115234375
1330;499.1492919921875
1331;498.81695556640625
1332;498.4845886230469
1333;498.1526794433594
1334;497.82086181640625
1335;497.4891357421875
1336;497.15771484375
1337;496.8263854980469
1338;496.4952392578125
1339;496.1642761230469
1340;495.83349609375
1341;495.5029296875
1342;495.1725158691406
1343;494.84228515625
1344;494.5123291015625
1345;494.1824645996094
1346;493.8528137207031
1347;493.5232849121094
1348;493.1940002441406
1349;492.8648681640625
1350;492.5359191894531
1351;492.2071533203125
1352;491.8785705566406
1353;491.5501708984375
1354;491.2218933105469
1355;490.8938903808594
1356;490.56597900390625
1357;490.23828125
1358;489.9107666015625
1359;489.5833740234375
1360;489.25634765625
1361;488.9293212890625
1362;488.6025390625
1363;488.27581787109375
1364;487.9494934082031
1365;487.6231689453125
1366;487.2970886230469
1367;486.97113037109375
1368;486.64544677734375
1369;486.3199462890625
1370;485.9944763183594
1371;485.6692810058594
1372;485.34423828125
1373;485.01947021484375
1374;484.69476318359375
1375;484.3703918457031
1376;484.0460205078125
1377;483.7218933105469
1378;483.39788818359375
1379;483.07415771484375
1380;482.75054931640625
1381;482.4271240234375
1382;482.1038818359375
1383;481.7809143066406
1384;481.4580078125
1385;481.13525390625
1386;480.8128356933594
1387;480.4904479980469
1388;480.1683044433594
1389;479.84619140625
1390;479.52435302734375
1391;479.2027587890625
1392;478.8812255859375
1393;478.5599060058594
1394;478.23876953125
1395;477.9177551269531
1396;477.5970458984375
1397;477.27642822265625
1398;476.95599365234375
1399;476.63580322265625
1400;476.3157043457031
1401;475.9958190917969
1402;475.6760559082031
1403;475.35650634765625
1404;475.0369873046875
1405;474.7178955078125
1406;474.3987731933594
1407;474.0799560546875
1408;473.76116943359375
1409;473.4427185058594
1410;473.1243591308594
1411;472.80615234375
1412;472.4881591796875
1413;472.17034912109375
1414;471.8526611328125
1415;471.53515625
1416;471.2177734375
1417;470.9007263183594
1418;470.5837707519531
1419;470.2669677734375
1420;469.9503173828125
1421;469.6339111328125
1422;469.3176574707031
1423;469.00152587890625
1424;468.6856689453125
1425;468.3699645996094
1426;468.0543518066406
1427;467.7389221191406
1428;467.4236755371094
1429;467.1086120605469
1430;466.7936706542969
1431;466.47900390625
1432;466.1644287109375
1433;465.85009765625
1434;465.5358581542969
1435;465.2218017578125
1436;464.9079895019531
1437;464.59429931640625
1438;464.28082275390625
1439;463.9675598144531
1440;463.654296875
1441;463.34130859375
1442;463.0285339355469
1443;462.7158203125
1444;462.4033203125
1445;462.0910949707031
1446;461.7789306640625
1447;461.4670104980469
1448;461.1551513671875
1449;460.8435974121094
1450;460.5321044921875
1451;460.2208251953125
1452;459.90966796875
1453;459.5987548828125
1454;459.2879333496094
1455;458.9773254394531
1456;458.6668701171875
1457;458.3565673828125
1458;458.04644775390625
1459;457.7364807128906
1460;457.42669677734375
1461;457.1170654296875
1462;456.80767822265625
1463;456.4983825683594
1464;456.1893005371094
1465;455.88031005859375
1466;455.5715026855469
1467;455.2629089355469
1468;454.95452880859375
1469;454.6463317871094
1470;454.3382263183594
1471;454.0303039550781
1472;453.7225646972656
1473;453.4150085449219
1474;453.1075744628906
1475;452.80035400390625
1476;452.4932556152344
1477;452.1863708496094
1478;451.8796691894531
1479;451.5731201171875
1480;451.2666931152344
1481;450.96038818359375
1482;450.6543884277344
1483;450.3485107421875
1484;450.0428466796875
1485;449.7372131347656
1486;449.4318542480469
1487;449.1266174316406
1488;448.82159423828125
1489;448.5167236328125
1490;448.2120361328125
1491;447.9074401855469
1492;447.6031188964844
1493;447.2988586425781
1494;446.9947509765625
1495;446.69085693359375
1496;446.38720703125
1497;446.0836181640625
1498;445.78021240234375
1499;445.47698974609375
1500;445.1739501953125
1501;444.87103271484375
1502;444.56829833984375
1503;444.2657470703125
1504;443.96331787109375
1505;443.6611022949219
1506;443.3590393066406
1507;443.05712890625
1508;442.7554016113281
1509;442.4538269042969
1510;442.1523742675781
1511;441.8511657714844
1512;441.55010986328125
1513;441.2491760253906
1514;440.9485168457031
1515;440.64788818359375
1516;440.3475646972656
1517;440.0473327636719
1518;439.7472839355469
1519;439.4474182128906
1520;439.1476135253906
1521;438.8480224609375
1522;438.5486755371094
1523;438.2493896484375
1524;437.9503479003906
1525;437.6514892578125
1526;437.3526916503906
1527;437.0540771484375
1528;436.7557067871094
1529;436.4573974609375
1530;436.1592712402344
1531;435.8612976074219
1532;435.5635986328125
1533;435.2659912109375
1534;434.96844482421875
1535;434.6712341308594
1536;434.3741149902344
1537;434.07708740234375
1538;433.7803649902344
1539;433.4837341308594
1540;433.1872253417969
1541;432.89093017578125
1542;432.59478759765625
1543;432.298828125
1544;432.0029602050781
1545;431.7073059082031
1546;431.4117736816406
1547;431.116455078125
1548;430.8213195800781
1549;430.5263366699219
1550;430.2314758300781
1551;429.9367980957031
1552;429.64227294921875
1553;429.34796142578125
1554;429.05377197265625
1555;428.7597961425781
1556;428.46588134765625
1557;428.1722412109375
1558;427.8786315917969
1559;427.5853271484375
1560;427.29205322265625
1561;426.9989929199219
1562;426.70611572265625
1563;426.4134216308594
1564;426.120849609375
1565;425.8284606933594
1566;425.5362548828125
1567;425.2442626953125
1568;424.9522705078125
1569;424.6605224609375
1570;424.3689270019531
1571;424.0775146484375
1572;423.7862854003906
1573;423.4950866699219
1574;423.20416259765625
1575;422.9133605957031
1576;422.6226806640625
1577;422.3321838378906
1578;422.0419006347656
1579;421.7518005371094
1580;421.46173095703125
1581;421.1719055175781
1582;420.8822326660156
1583;420.5927429199219
1584;420.3033752441406
1585;420.0141906738281
1586;419.7251892089844
1587;419.4361877441406
1588;419.1475524902344
1589;418.8590087890625
1590;418.5706481933594
1591;418.28240966796875
1592;417.9943542480469
1593;417.7064208984375
1594;417.41864013671875
1595;417.1310729980469
1596;416.8436584472656
1597;416.5563659667969
1598;416.2691650390625
1599;415.9822998046875
1600;415.6954345703125
1601;415.4088439941406
1602;415.1223449707031
1603;414.8360595703125
1604;414.54986572265625
1605;414.26385498046875
1606;413.97802734375
1607;413.6923522949219
1608;413.4067687988281
1609;413.1214599609375
1610;412.8362121582031
1611;412.5511779785156
1612;412.26629638671875
1613;411.9815979003906
1614;411.697021484375
1615;411.41259765625
1616;411.1283264160156
1617;410.84423828125
1618;410.560302734375
1619;410.2765197753906
1620;409.99285888671875
1621;409.7093505859375
1622;409.42608642578125
1623;409.1429443359375
1624;408.8599548339844
1625;408.57708740234375
1626;408.2944030761719
1627;408.01190185546875
1628;407.72955322265625
1629;407.4472961425781
1630;407.16522216796875
1631;406.88336181640625
1632;406.6016540527344
1633;406.3200378417969
1634;406.03857421875
1635;405.7572937011719
1636;405.4761962890625
1637;405.19525146484375
1638;404.9144287109375
1639;404.6337585449219
1640;404.3532409667969
1641;404.0729675292969
1642;403.79278564453125
1643;403.5127868652344
1644;403.2329406738281
1645;402.95318603515625
1646;402.67364501953125
1647;402.3941955566406
1648;402.11505126953125
1649;401.83587646484375
1650;401.55694580078125
1651;401.2781982421875
1652;400.9995422363281
1653;400.72100830078125
1654;400.44268798828125
1655;400.1645202636719
1656;399.8865051269531
1657;399.6086730957031
1658;399.33099365234375
1659;399.0533752441406
1660;398.7760009765625
1661;398.49871826171875
1662;398.2216796875
1663;397.9447021484375
1664;397.66796875
1665;397.39129638671875
1666;397.1148376464844
1667;396.8385009765625
1668;396.5623474121094
1669;396.28631591796875
1670;396.010498046875
1671;395.73480224609375
1672;395.4592590332031
1673;395.1839294433594
1674;394.90869140625
1675;394.63360595703125
1676;394.35870361328125
1677;394.08392333984375
1678;393.809326171875
1679;393.5348815917969
1680;393.26055908203125
1681;392.9864501953125
1682;392.71246337890625
1683;392.4385986328125
1684;392.1648864746094
1685;391.8913269042969
1686;391.6179504394531
1687;391.3447265625
1688;391.0716247558594
1689;390.7986755371094
1690;390.52587890625
1691;390.2532653808594
1692;389.980712890625
1693;389.7084045410156
1694;389.43621826171875
1695;389.1642150878906
1696;388.89239501953125
1697;388.62066650390625
1698;388.34906005859375
1699;388.07763671875
1700;387.806396484375
1701;387.53533935546875
1702;387.26434326171875
1703;386.9935607910156
1704;386.7229309082031
1705;386.45245361328125
1706;386.18206787109375
1707;385.9118957519531
1708;385.641845703125
1709;385.3719177246094
1710;385.1021728515625
1711;384.8326110839844
1712;384.56317138671875
1713;384.2939147949219
1714;384.02484130859375
1715;383.75579833984375
1716;383.4869384765625
1717;383.21832275390625
1718;382.9497985839844
1719;382.68145751953125
1720;382.4132080078125
1721;382.14508056640625
1722;381.877197265625
1723;381.6094055175781
1724;381.3417663574219
1725;381.07427978515625
1726;380.8069763183594
1727;380.5397644042969
1728;380.27276611328125
1729;380.0058898925781
1730;379.7391662597656
1731;379.47259521484375
1732;379.2062072753906
1733;378.93988037109375
1734;378.6737976074219
1735;378.4078369140625
1736;378.1419982910156
1737;377.8763732910156
1738;377.6108093261719
1739;377.3454284667969
1740;377.0802001953125
1741;376.8151550292969
1742;376.55023193359375
1743;376.2855224609375
1744;376.0208740234375
1745;375.75640869140625
1746;375.4920959472656
1747;375.2279052734375
1748;374.9638671875
1749;374.7000732421875
1750;374.43634033203125
1751;374.1727294921875
1752;373.9093322753906
1753;373.6461181640625
1754;373.38299560546875
1755;373.1199951171875
1756;372.857177734375
1757;372.5944519042969
1758;372.3319396972656
1759;372.06951904296875
1760;371.8072814941406
1761;371.5451965332031
1762;371.28326416015625
1763;371.02142333984375
1764;370.759765625
1765;370.4983215332031
1766;370.2369384765625
1767;369.9757080078125
1768;369.7147216796875
1769;369.4537658691406
1770;369.1930236816406
1771;368.9324035644531
1772;368.6719665527344
1773;368.41168212890625
1774;368.1514892578125
1775;367.8914794921875
1776;367.631591796875
1777;367.3718566894531
1778;367.1123352050781
1779;366.85296630859375
1780;366.5936279296875
1781;366.3345031738281
1782;366.07550048828125
1783;365.816650390625
1784;365.55792236328125
1785;365.29937744140625
1786;365.04095458984375
1787;364.78271484375
1788;364.524658203125
1789;364.2667541503906
1790;364.0089416503906
1791;363.7512512207031
1792;363.49371337890625
1793;363.2363586425781
1794;362.9790954589844
1795;362.7220458984375
1796;362.4651184082031
1797;362.20831298828125
1798;361.9516296386719
1799;361.6951904296875
1800;361.4388427734375
1801;361.1825866699219
1802;360.9265441894531
1803;360.6706237792969
1804;360.4148254394531
1805;360.1593017578125
1806;359.9037780761719
1807;359.6484069824219
1808;359.3931884765625
1809;359.13824462890625
1810;358.88330078125
1811;358.6285705566406
1812;358.3739013671875
1813;358.1195068359375
1814;357.86517333984375
1815;357.61102294921875
1816;357.3570251464844
1817;357.1031799316406
1818;356.8494567871094
1819;356.5958557128906
1820;356.3424072265625
1821;356.089111328125
1822;355.8359375
1823;355.5828857421875
1824;355.3300476074219
1825;355.0773620605469
1826;354.8247985839844
1827;354.57232666015625
1828;354.320068359375
1829;354.06787109375
1830;353.81591796875
1831;353.5640869140625
1832;353.31231689453125
1833;353.0608215332031
1834;352.80938720703125
1835;352.55816650390625
1836;352.3070068359375
1837;352.0560302734375
1838;351.80523681640625
1839;351.55450439453125
1840;351.30401611328125
1841;351.0536193847656
1842;350.8033447265625
1843;350.55322265625
1844;350.30328369140625
1845;350.0534362792969
1846;349.8036804199219
1847;349.55419921875
1848;349.3046875
1849;349.05548095703125
1850;348.8063659667969
1851;348.5574035644531
1852;348.30859375
1853;348.0599365234375
1854;347.81134033203125
1855;347.56292724609375
1856;347.3146667480469
1857;347.0665283203125
1858;346.81854248046875
1859;346.57073974609375
1860;346.32305908203125
1861;346.0755615234375
1862;345.82806396484375
1863;345.580810546875
1864;345.3336486816406
1865;345.0867004394531
1866;344.83984375
1867;344.5931701660156
1868;344.3466796875
1869;344.1002197265625
1870;343.8539123535156
1871;343.60784912109375
1872;343.3619384765625
1873;343.11602783203125
1874;342.87030029296875
1875;342.624755859375
1876;342.37933349609375
1877;342.1340637207031
1878;341.8888854980469
1879;341.6438903808594
1880;341.3990478515625
1881;341.154296875
1882;340.9097595214844
1883;340.66534423828125
1884;340.4210510253906
1885;340.17694091796875
1886;339.9329528808594
1887;339.6891174316406
1888;339.4454040527344
1889;339.2017822265625
1890;338.9583740234375
1891;338.7150573730469
1892;338.471923828125
1893;338.2288818359375
1894;337.9859924316406
1895;337.7432861328125
1896;337.5006408691406
1897;337.25823974609375
1898;337.01593017578125
1899;336.7737121582031
1900;336.5316467285156
1901;336.289794921875
1902;336.0480651855469
1903;335.8064880371094
1904;335.56500244140625
1905;335.3236389160156
1906;335.0824279785156
1907;334.8414001464844
1908;334.60052490234375
1909;334.3597412109375
1910;334.11907958984375
1911;333.878662109375
1912;333.6382751464844
1913;333.3980712890625
1914;333.1580505371094
1915;332.9180603027344
1916;332.6782531738281
1917;332.4385986328125
1918;332.1990966796875
1919;331.95977783203125
1920;331.7205505371094
1921;331.48138427734375
1922;331.242431640625
1923;331.0036315917969
1924;330.76495361328125
1925;330.5263366699219
1926;330.2879943847656
1927;330.0496826171875
1928;329.8116455078125
1929;329.5736083984375
1930;329.3358154296875
1931;329.09808349609375
1932;328.8604736328125
1933;328.62310791015625
1934;328.3858337402344
1935;328.1486511230469
1936;327.9116516113281
1937;327.6747741699219
1938;327.4380798339844
1939;327.2014465332031
1940;326.9649658203125
1941;326.7286682128906
1942;326.4925231933594
1943;326.2564392089844
1944;326.0205078125
1945;325.7847900390625
1946;325.5491943359375
1947;325.31365966796875
1948;325.0783386230469
1949;324.8431396484375
1950;324.6080322265625
1951;324.37310791015625
1952;324.1383056640625
1953;323.90362548828125
1954;323.6690673828125
1955;323.4346923828125
1956;323.20037841796875
1957;322.96630859375
1958;322.7323303222656
1959;322.49847412109375
1960;322.2647705078125
1961;322.03118896484375
1962;321.7976989746094
1963;321.5644226074219
1964;321.3313293457031
1965;321.09820556640625
1966;320.8653564453125
1967;320.6325988769531
1968;320.4000244140625
1969;320.1675109863281
1970;319.9351501464844
1971;319.70294189453125
1972;319.4708557128906
1973;319.2388916015625
1974;319.00714111328125
1975;318.7755126953125
1976;318.5439758300781
1977;318.3125
1978;318.0813293457031
1979;317.8502197265625
1980;317.61920166015625
1981;317.388427734375
1982;317.15771484375
1983;316.9271240234375
1984;316.69671630859375
1985;316.4664306640625
1986;316.2362976074219
1987;316.0062561035156
1988;315.7763671875
1989;315.5466003417969
1990;315.3170471191406
1991;315.0875244140625
1992;314.8581848144531
1993;314.6290283203125
1994;314.3998718261719
1995;314.1709289550781
1996;313.9421081542969
1997;313.7135009765625
1998;313.48492431640625
1999;313.2564697265625
