;loss
0;1402.4783935546875
1;1401.4583740234375
2;1400.4393310546875
3;1399.5133056640625
4;1398.559326171875
5;1397.544189453125
6;1396.5301513671875
7;1395.5177001953125
8;1394.5062255859375
9;1393.495849609375
10;1392.4866943359375
11;1391.4786376953125
12;1390.4715576171875
13;1389.4625244140625
14;1388.457275390625
15;1387.4461669921875
16;1386.4425048828125
17;1385.4302978515625
18;1384.417724609375
19;1383.4046630859375
20;1382.390625
21;1381.3865966796875
22;1380.382080078125
23;1379.3763427734375
24;1378.3692626953125
25;1377.3609619140625
26;1376.3389892578125
27;1375.3265380859375
28;1374.30029296875
29;1373.271240234375
30;1372.2393798828125
31;1371.20458984375
32;1370.1666259765625
33;1369.136962890625
34;1368.1038818359375
35;1367.054931640625
36;1366.0137939453125
37;1364.96826171875
38;1363.918212890625
39;1362.863525390625
40;1361.803955078125
41;1360.7391357421875
42;1359.6693115234375
43;1358.5936279296875
44;1357.51220703125
45;1356.425048828125
46;1355.3314208984375
47;1354.2313232421875
48;1353.11376953125
49;1351.989501953125
50;1350.8580322265625
51;1349.71875
52;1348.58203125
53;1347.4373779296875
54;1346.274169921875
55;1345.102294921875
56;1343.9312744140625
57;1342.754638671875
58;1341.560546875
59;1340.36669921875
60;1339.162841796875
61;1337.9490966796875
62;1336.7249755859375
63;1335.480712890625
64;1334.2344970703125
65;1332.9676513671875
66;1331.6890869140625
67;1330.398193359375
68;1329.0948486328125
69;1327.7877197265625
70;1326.4671630859375
71;1325.1239013671875
72;1323.766357421875
73;1322.394775390625
74;1321.0081787109375
75;1319.6065673828125
76;1318.1890869140625
77;1316.7557373046875
78;1315.314697265625
79;1313.84814453125
80;1312.364013671875
81;1310.8621826171875
82;1309.35107421875
83;1307.8214111328125
84;1306.2728271484375
85;1304.696044921875
86;1303.0999755859375
87;1301.49267578125
88;1299.855712890625
89;1298.206298828125
90;1296.5299072265625
91;1294.8359375
92;1293.11962890625
93;1291.38916015625
94;1289.6265869140625
95;1287.8397216796875
96;1286.037109375
97;1284.2122802734375
98;1282.3533935546875
99;1280.477294921875
100;1278.565673828125
101;1276.6353759765625
102;1274.6773681640625
103;1272.69189453125
104;1270.6785888671875
105;1268.63623046875
106;1266.5640869140625
107;1264.4610595703125
108;1262.327392578125
109;1260.1617431640625
110;1257.9554443359375
111;1255.7261962890625
112;1253.464111328125
113;1251.1593017578125
114;1248.8299560546875
115;1246.4669189453125
116;1244.0604248046875
117;1241.6312255859375
118;1239.167236328125
119;1236.6705322265625
120;1234.1307373046875
121;1231.5657958984375
122;1228.95654296875
123;1226.32275390625
124;1223.66162109375
125;1220.960693359375
126;1218.2369384765625
127;1215.48095703125
128;1212.684326171875
129;1209.8671875
130;1207.0208740234375
131;1204.146240234375
132;1201.2437744140625
133;1198.3143310546875
134;1195.3497314453125
135;1192.3746337890625
136;1189.3770751953125
137;1186.371337890625
138;1183.35400390625
139;1180.31396484375
140;1177.2598876953125
141;1174.2037353515625
142;1171.13720703125
143;1168.0628662109375
144;1164.9825439453125
145;1161.889892578125
146;1158.8055419921875
147;1155.7132568359375
148;1152.6346435546875
149;1149.5531005859375
150;1146.47998046875
151;1143.427734375
152;1140.3890380859375
153;1137.367919921875
154;1134.3717041015625
155;1131.394775390625
156;1128.4517822265625
157;1125.559326171875
158;1122.691162109375
159;1119.8604736328125
160;1117.0601806640625
161;1114.295654296875
162;1111.565673828125
163;1108.86962890625
164;1106.20751953125
165;1103.58251953125
166;1100.9945068359375
167;1098.44189453125
168;1095.926025390625
169;1093.449462890625
170;1091.01025390625
171;1088.609619140625
172;1086.2484130859375
173;1083.9229736328125
174;1081.6358642578125
175;1079.3856201171875
176;1077.168701171875
177;1074.98193359375
178;1072.8353271484375
179;1070.732421875
180;1068.6744384765625
181;1066.6470947265625
182;1064.6593017578125
183;1062.695556640625
184;1060.7652587890625
185;1058.8641357421875
186;1056.988525390625
187;1055.1456298828125
188;1053.3331298828125
189;1051.541259765625
190;1049.77490234375
191;1048.0335693359375
192;1046.318603515625
193;1044.6270751953125
194;1042.962646484375
195;1041.31982421875
196;1039.6937255859375
197;1038.0877685546875
198;1036.504150390625
199;1034.93994140625
200;1033.3973388671875
201;1031.8690185546875
202;1030.362060546875
203;1028.872314453125
204;1027.3995361328125
205;1025.9437255859375
206;1024.5048828125
207;1023.0821533203125
208;1021.6751098632812
209;1020.2826538085938
210;1018.9077758789062
211;1017.5445556640625
212;1016.1980590820312
213;1014.8628540039062
214;1013.5410766601562
215;1012.2345581054688
216;1010.9378051757812
217;1009.655517578125
218;1008.3836669921875
219;1007.123291015625
220;1005.874755859375
221;1004.6358032226562
222;1003.4081420898438
223;1002.1921997070312
224;1000.9871826171875
225;999.7950439453125
226;998.611572265625
227;997.4381713867188
228;996.2774658203125
229;995.1246337890625
230;993.9820556640625
231;992.851806640625
232;991.7310180664062
233;990.6190185546875
234;989.5155639648438
235;988.4185180664062
236;987.3319091796875
237;986.2557373046875
238;985.1868896484375
239;984.1260375976562
240;983.0737915039062
241;982.0319213867188
242;980.9974975585938
243;979.9717407226562
244;978.9534912109375
245;977.9423217773438
246;976.937744140625
247;975.9393310546875
248;974.947509765625
249;973.9603881835938
250;972.9811401367188
251;972.0061645507812
252;971.038818359375
253;970.0775756835938
254;969.1220703125
255;968.1702880859375
256;967.2257690429688
257;966.2865600585938
258;965.3529052734375
259;964.4244995117188
260;963.5009765625
261;962.5809936523438
262;961.6660766601562
263;960.7562255859375
264;959.851318359375
265;958.953125
266;958.0615234375
267;957.1770629882812
268;956.2977905273438
269;955.424072265625
270;954.5548095703125
271;953.6898193359375
272;952.8287353515625
273;951.9720458984375
274;951.1193237304688
275;950.2710571289062
276;949.4249877929688
277;948.5827026367188
278;947.7449951171875
279;946.909423828125
280;946.0772094726562
281;945.2496337890625
282;944.424072265625
283;943.6016235351562
284;942.7835693359375
285;941.9674682617188
286;941.1542358398438
287;940.3452758789062
288;939.5381469726562
289;938.735107421875
290;937.9348754882812
291;937.1373901367188
292;936.341796875
293;935.5499877929688
294;934.7610473632812
295;933.9752197265625
296;933.1920166015625
297;932.41015625
298;931.6309814453125
299;930.8551025390625
300;930.0816040039062
301;929.3093872070312
302;928.5394897460938
303;927.7720336914062
304;927.0078125
305;926.2459716796875
306;925.4852294921875
307;924.726806640625
308;923.9717407226562
309;923.21875
310;922.4679565429688
311;921.7194213867188
312;920.972900390625
313;920.2284545898438
314;919.4860229492188
315;918.7457275390625
316;918.0072631835938
317;917.2709350585938
318;916.5364379882812
319;915.803955078125
320;915.0733032226562
321;914.3446655273438
322;913.6168212890625
323;912.8917846679688
324;912.1695556640625
325;911.4493408203125
326;910.7301025390625
327;910.0135498046875
328;909.2979125976562
329;908.5838623046875
330;907.872802734375
331;907.1632690429688
332;906.4547119140625
333;905.7476806640625
334;905.0430908203125
335;904.340087890625
336;903.6387939453125
337;902.9381713867188
338;902.2391967773438
339;901.542724609375
340;900.8468627929688
341;900.1533813476562
342;899.4606323242188
343;898.7701416015625
344;898.0811157226562
345;897.3927001953125
346;896.7067260742188
347;896.022216796875
348;895.3390502929688
349;894.656494140625
350;893.9755249023438
351;893.2957153320312
352;892.617431640625
353;891.9412841796875
354;891.265869140625
355;890.5927124023438
356;889.9210815429688
357;889.2507934570312
358;888.5816040039062
359;887.9129028320312
360;887.2454223632812
361;886.5792236328125
362;885.9142456054688
363;885.2503662109375
364;884.5879516601562
365;883.9268798828125
366;883.267822265625
367;882.6097412109375
368;881.9530029296875
369;881.2966918945312
370;880.6414184570312
371;879.9881591796875
372;879.3359985351562
373;878.6848754882812
374;878.0349731445312
375;877.3863525390625
376;876.7387084960938
377;876.0914306640625
378;875.4459838867188
379;874.8016967773438
380;874.158447265625
381;873.5164184570312
382;872.8751831054688
383;872.235107421875
384;871.5960083007812
385;870.9572143554688
386;870.3204345703125
387;869.683837890625
388;869.0482788085938
389;868.4141845703125
390;867.78125
391;867.1493530273438
392;866.518310546875
393;865.8876953125
394;865.2579345703125
395;864.6299438476562
396;864.0029907226562
397;863.3762817382812
398;862.751220703125
399;862.1270751953125
400;861.5032348632812
401;860.880859375
402;860.2589721679688
403;859.6380004882812
404;859.017822265625
405;858.3985595703125
406;857.7802734375
407;857.1629028320312
408;856.5463256835938
409;855.9312744140625
410;855.3170776367188
411;854.7037963867188
412;854.0906372070312
413;853.478515625
414;852.8671875
415;852.2567749023438
416;851.647216796875
417;851.0389404296875
418;850.4309692382812
419;849.8245849609375
420;849.2189331054688
421;848.613525390625
422;848.009521484375
423;847.4058837890625
424;846.803466796875
425;846.2013549804688
426;845.6005859375
427;845.0001220703125
428;844.4010620117188
429;843.8020629882812
430;843.2040405273438
431;842.6072998046875
432;842.0111694335938
433;841.416015625
434;840.8209838867188
435;840.2266845703125
436;839.633056640625
437;839.040283203125
438;838.4483032226562
439;837.857421875
440;837.2667846679688
441;836.677001953125
442;836.0880126953125
443;835.4996337890625
444;834.9119262695312
445;834.3248901367188
446;833.7386474609375
447;833.1532592773438
448;832.568359375
449;831.9847412109375
450;831.4019165039062
451;830.8191528320312
452;830.2371215820312
453;829.65625
454;829.076171875
455;828.4961547851562
456;827.9168701171875
457;827.3382568359375
458;826.7609252929688
459;826.18359375
460;825.607421875
461;825.031494140625
462;824.456787109375
463;823.882568359375
464;823.30859375
465;822.7352905273438
466;822.1630859375
467;821.5910034179688
468;821.0195922851562
469;820.448974609375
470;819.87890625
471;819.3099975585938
472;818.7412719726562
473;818.173583984375
474;817.6060180664062
475;817.0391845703125
476;816.4734497070312
477;815.9078369140625
478;815.3428344726562
479;814.7783813476562
480;814.2147216796875
481;813.6515502929688
482;813.0889892578125
483;812.5274658203125
484;811.966064453125
485;811.4057006835938
486;810.8460083007812
487;810.2864379882812
488;809.7276611328125
489;809.1692504882812
490;808.611572265625
491;808.054931640625
492;807.4988403320312
493;806.9432983398438
494;806.387939453125
495;805.8330688476562
496;805.279296875
497;804.7256469726562
498;804.1725463867188
499;803.6199951171875
500;803.0679931640625
501;802.5165405273438
502;801.9656372070312
503;801.4153442382812
504;800.8655395507812
505;800.3162841796875
506;799.7676391601562
507;799.2199096679688
508;798.6722412109375
509;798.1256713867188
510;797.5794677734375
511;797.0338745117188
512;796.4884033203125
513;795.9434814453125
514;795.3994750976562
515;794.8560180664062
516;794.3126220703125
517;793.7697143554688
518;793.2279052734375
519;792.6864624023438
520;792.1452026367188
521;791.6047973632812
522;791.0650024414062
523;790.5255126953125
524;789.9866943359375
525;789.4480590820312
526;788.9102172851562
527;788.3728637695312
528;787.835693359375
529;787.2993774414062
530;786.7632446289062
531;786.2274780273438
532;785.6925659179688
533;785.158203125
534;784.6244506835938
535;784.0907592773438
536;783.5578002929688
537;783.025146484375
538;782.4932250976562
539;781.9615478515625
540;781.4306030273438
541;780.8998413085938
542;780.3699340820312
543;779.8405151367188
544;779.3115844726562
545;778.7830810546875
546;778.2546997070312
547;777.7267456054688
548;777.199462890625
549;776.6724853515625
550;776.1459350585938
551;775.620361328125
552;775.0951538085938
553;774.5701904296875
554;774.0455932617188
555;773.521484375
556;772.9982299804688
557;772.4749755859375
558;771.9523315429688
559;771.4300537109375
560;770.9083862304688
561;770.3870849609375
562;769.8662719726562
563;769.3463745117188
564;768.8262939453125
565;768.3068237304688
566;767.7882080078125
567;767.2696533203125
568;766.7515869140625
569;766.2342529296875
570;765.7174682617188
571;765.2006225585938
572;764.6846313476562
573;764.1690673828125
574;763.6539306640625
575;763.1393432617188
576;762.624755859375
577;762.1109619140625
578;761.59765625
579;761.084716796875
580;760.5718994140625
581;760.059814453125
582;759.5479125976562
583;759.0364379882812
584;758.525390625
585;758.0150756835938
586;757.5048217773438
587;756.9950561523438
588;756.4861450195312
589;755.9772338867188
590;755.4686889648438
591;754.9606323242188
592;754.4530029296875
593;753.9461059570312
594;753.439208984375
595;752.9332275390625
596;752.4271850585938
597;751.9216918945312
598;751.4169311523438
599;750.9121704101562
600;750.4081420898438
601;749.904296875
602;749.4007568359375
603;748.8980712890625
604;748.3956909179688
605;747.8933715820312
606;747.3916625976562
607;746.8902587890625
608;746.3892211914062
609;745.8886108398438
610;745.388427734375
611;744.888916015625
612;744.3898315429688
613;743.8907470703125
614;743.3922119140625
615;742.8941040039062
616;742.3963623046875
617;741.899169921875
618;741.4024658203125
619;740.90625
620;740.4099731445312
621;739.9144897460938
622;739.4193115234375
623;738.9246215820312
624;738.4303588867188
625;737.9361572265625
626;737.4422607421875
627;736.9488525390625
628;736.455810546875
629;735.963134765625
630;735.4710693359375
631;734.9795532226562
632;734.488037109375
633;733.9969482421875
634;733.5062255859375
635;733.015869140625
636;732.5261840820312
637;732.0366821289062
638;731.5474853515625
639;731.0588989257812
640;730.5708618164062
641;730.0828247070312
642;729.5951538085938
643;729.1077880859375
644;728.6212158203125
645;728.1348876953125
646;727.6489868164062
647;727.1632080078125
648;726.6778564453125
649;726.1928100585938
650;725.7084350585938
651;725.2244873046875
652;724.7407836914062
653;724.2575073242188
654;723.7745361328125
655;723.2920532226562
656;722.809814453125
657;722.3277587890625
658;721.8460693359375
659;721.364990234375
660;720.8842163085938
661;720.4036865234375
662;719.9234619140625
663;719.443603515625
664;718.9639892578125
665;718.4849243164062
666;718.006103515625
667;717.5279541015625
668;717.0498657226562
669;716.5721435546875
670;716.0947875976562
671;715.6180419921875
672;715.1414184570312
673;714.6651000976562
674;714.189208984375
675;713.7135620117188
676;713.2384033203125
677;712.7634887695312
678;712.2889404296875
679;711.8151245117188
680;711.3412475585938
681;710.8678588867188
682;710.3947143554688
683;709.9219360351562
684;709.4495239257812
685;708.9777221679688
686;708.5059814453125
687;708.034912109375
688;707.5637817382812
689;707.0934448242188
690;706.623291015625
691;706.1533813476562
692;705.68359375
693;705.2142944335938
694;704.745361328125
695;704.2767333984375
696;703.8084716796875
697;703.3406372070312
698;702.873046875
699;702.406005859375
700;701.9393310546875
701;701.47265625
702;701.0067138671875
703;700.540771484375
704;700.0751953125
705;699.6100463867188
706;699.1453247070312
707;698.680908203125
708;698.216796875
709;697.7528686523438
710;697.289306640625
711;696.8262939453125
712;696.3634033203125
713;695.9007568359375
714;695.4387817382812
715;694.9769287109375
716;694.515625
717;694.0543823242188
718;693.5936279296875
719;693.133056640625
720;692.6730346679688
721;692.2130737304688
722;691.753662109375
723;691.2943725585938
724;690.8355712890625
725;690.3770751953125
726;689.9187622070312
727;689.4608154296875
728;689.0031127929688
729;688.5459594726562
730;688.089111328125
731;687.6326904296875
732;687.1763305664062
733;686.720458984375
734;686.2647094726562
735;685.8095092773438
736;685.3543701171875
737;684.8995971679688
738;684.4451293945312
739;683.990966796875
740;683.537109375
741;683.0838623046875
742;682.630615234375
743;682.177978515625
744;681.7254028320312
745;681.2733764648438
746;680.8214721679688
747;680.3698120117188
748;679.9186401367188
749;679.4676513671875
750;679.0170288085938
751;678.5667724609375
752;678.1167602539062
753;677.6670532226562
754;677.2175903320312
755;676.7686767578125
756;676.320068359375
757;675.8716430664062
758;675.423583984375
759;674.9756469726562
760;674.528076171875
761;674.080810546875
762;673.634033203125
763;673.1873779296875
764;672.7412719726562
765;672.2951049804688
766;671.849365234375
767;671.4041748046875
768;670.958984375
769;670.5140991210938
770;670.0697631835938
771;669.6255493164062
772;669.1817626953125
773;668.7381591796875
774;668.2947998046875
775;667.8516845703125
776;667.4089965820312
777;666.966552734375
778;666.5243530273438
779;666.0825805664062
780;665.6411743164062
781;665.1998901367188
782;664.7590942382812
783;664.3184204101562
784;663.8782348632812
785;663.4381713867188
786;662.9985961914062
787;662.5592651367188
788;662.1200561523438
789;661.6813354492188
790;661.2428588867188
791;660.8047485351562
792;660.3666381835938
793;659.9288940429688
794;659.4916381835938
795;659.0546264648438
796;658.6177978515625
797;658.1812133789062
798;657.7450561523438
799;657.3092651367188
800;656.8735961914062
801;656.438232421875
802;656.0031127929688
803;655.5684204101562
804;655.1338500976562
805;654.6995849609375
806;654.2657470703125
807;653.8321533203125
808;653.3988647460938
809;652.9657592773438
810;652.5330810546875
811;652.1005249023438
812;651.6683349609375
813;651.2365112304688
814;650.804931640625
815;650.3737182617188
816;649.942626953125
817;649.511962890625
818;649.0814819335938
819;648.6511840820312
820;648.2211303710938
821;647.7915649414062
822;647.3619995117188
823;646.9328002929688
824;646.5040283203125
825;646.0755004882812
826;645.6471557617188
827;645.2190551757812
828;644.7913818359375
829;644.364013671875
830;643.9368286132812
831;643.5100708007812
832;643.0836181640625
833;642.6571655273438
834;642.231201171875
835;641.8056030273438
836;641.3800048828125
837;640.9547729492188
838;640.5298461914062
839;640.1053466796875
840;639.6809692382812
841;639.2569580078125
842;638.8331909179688
843;638.4097900390625
844;637.986572265625
845;637.5635986328125
846;637.1409912109375
847;636.718505859375
848;636.2963256835938
849;635.8745727539062
850;635.4529418945312
851;635.0316162109375
852;634.6105346679688
853;634.1897583007812
854;633.7693481445312
855;633.3489379882812
856;632.928955078125
857;632.5092163085938
858;632.08984375
859;631.6707153320312
860;631.2518310546875
861;630.8331298828125
862;630.4148559570312
863;629.9967041015625
864;629.578857421875
865;629.1613159179688
866;628.7439575195312
867;628.326904296875
868;627.91015625
869;627.4935913085938
870;627.0772094726562
871;626.6610717773438
872;626.2452392578125
873;625.8297119140625
874;625.414306640625
875;624.9993286132812
876;624.5845336914062
877;624.169921875
878;623.755615234375
879;623.3416748046875
880;622.9278564453125
881;622.5145263671875
882;622.1012573242188
883;621.6881713867188
884;621.275390625
885;620.8629150390625
886;620.4505615234375
887;620.0386352539062
888;619.6270141601562
889;619.2156982421875
890;618.8046264648438
891;618.3937377929688
892;617.9832153320312
893;617.5729370117188
894;617.1629028320312
895;616.7530517578125
896;616.343505859375
897;615.9342651367188
898;615.5252075195312
899;615.1162109375
900;614.7075805664062
901;614.2991333007812
902;613.8909301757812
903;613.4832153320312
904;613.0755004882812
905;612.668212890625
906;612.2612915039062
907;611.8543090820312
908;611.4478149414062
909;611.0415649414062
910;610.6355590820312
911;610.2297973632812
912;609.82421875
913;609.4188842773438
914;609.013671875
915;608.6087646484375
916;608.2042236328125
917;607.7999877929688
918;607.3959350585938
919;606.9921875
920;606.5886840820312
921;606.1854248046875
922;605.7822875976562
923;605.3795776367188
924;604.976806640625
925;604.5743408203125
926;604.1722412109375
927;603.7704467773438
928;603.368896484375
929;602.9674072265625
930;602.5662841796875
931;602.1652221679688
932;601.7647094726562
933;601.3641967773438
934;600.9641723632812
935;600.5643310546875
936;600.1646118164062
937;599.7651977539062
938;599.3659057617188
939;598.9671020507812
940;598.5684204101562
941;598.1699829101562
942;597.771728515625
943;597.3738403320312
944;596.9762573242188
945;596.5789184570312
946;596.181640625
947;595.7848510742188
948;595.3881225585938
949;594.9917602539062
950;594.5955200195312
951;594.1995849609375
952;593.8037109375
953;593.4083251953125
954;593.0128784179688
955;592.617919921875
956;592.2230834960938
957;591.8285522460938
958;591.4342041015625
959;591.0401000976562
960;590.6463623046875
961;590.252685546875
962;589.8591918945312
963;589.4660034179688
964;589.0731201171875
965;588.6804809570312
966;588.2880249023438
967;587.8958129882812
968;587.5038452148438
969;587.1122436523438
970;586.7207641601562
971;586.3294677734375
972;585.9383544921875
973;585.5476684570312
974;585.1571655273438
975;584.7667846679688
976;584.3766479492188
977;583.9866943359375
978;583.5970458984375
979;583.207763671875
980;582.8185424804688
981;582.4295654296875
982;582.0408935546875
983;581.65234375
984;581.2642822265625
985;580.8760986328125
986;580.4884643554688
987;580.1010131835938
988;579.7137451171875
989;579.3267822265625
990;578.9400634765625
991;578.553466796875
992;578.1671752929688
993;577.7811279296875
994;577.395263671875
995;577.009521484375
996;576.6240844726562
997;576.2388916015625
998;575.8538208007812
999;575.468994140625
1000;575.0845947265625
1001;574.7002563476562
1002;574.3162841796875
1003;573.9324340820312
1004;573.5487060546875
1005;573.165283203125
1006;572.7820434570312
1007;572.399169921875
1008;572.0164794921875
1009;571.6340942382812
1010;571.2518310546875
1011;570.8697509765625
1012;570.4879150390625
1013;570.1063842773438
1014;569.7251586914062
1015;569.3441162109375
1016;568.9632568359375
1017;568.5827026367188
1018;568.2022094726562
1019;567.8220825195312
1020;567.4420776367188
1021;567.0623779296875
1022;566.6829223632812
1023;566.3035888671875
1024;565.9246215820312
1025;565.5458984375
1026;565.1671752929688
1027;564.7888793945312
1028;564.4107055664062
1029;564.0326538085938
1030;563.6549682617188
1031;563.2774658203125
1032;562.9002075195312
1033;562.5230712890625
1034;562.146240234375
1035;561.769775390625
1036;561.3934936523438
1037;561.017333984375
1038;560.6414794921875
1039;560.2658081054688
1040;559.890380859375
1041;559.5151977539062
1042;559.1400756835938
1043;558.7653198242188
1044;558.390625
1045;558.0162963867188
1046;557.6422119140625
1047;557.268310546875
1048;556.8946533203125
1049;556.5211791992188
1050;556.1480102539062
1051;555.7749633789062
1052;555.402099609375
1053;555.0294799804688
1054;554.6570434570312
1055;554.2847900390625
1056;553.9127807617188
1057;553.5409545898438
1058;553.1695556640625
1059;552.798095703125
1060;552.427001953125
1061;552.0560913085938
1062;551.685546875
1063;551.3151245117188
1064;550.9448852539062
1065;550.5748901367188
1066;550.205078125
1067;549.8355102539062
1068;549.466064453125
1069;549.0969848632812
1070;548.7281494140625
1071;548.3594970703125
1072;547.990966796875
1073;547.6226806640625
1074;547.2546997070312
1075;546.8867797851562
1076;546.5191650390625
1077;546.1517333984375
1078;545.7844848632812
1079;545.4176025390625
1080;545.0509033203125
1081;544.684326171875
1082;544.318115234375
1083;543.951904296875
1084;543.5859985351562
1085;543.2203979492188
1086;542.8549194335938
1087;542.4896850585938
1088;542.1246337890625
1089;541.7597045898438
1090;541.3951416015625
1091;541.03076171875
1092;540.6666259765625
1093;540.3026123046875
1094;539.9387817382812
1095;539.5751953125
1096;539.2117919921875
1097;538.8487548828125
1098;538.4857788085938
1099;538.123046875
1100;537.760498046875
1101;537.3982543945312
1102;537.0361938476562
1103;536.6742553710938
1104;536.3126220703125
1105;535.9512939453125
1106;535.5901489257812
1107;535.2290649414062
1108;534.8682250976562
1109;534.5076904296875
1110;534.1472778320312
1111;533.787109375
1112;533.4270629882812
1113;533.0673217773438
1114;532.707763671875
1115;532.348388671875
1116;531.9893798828125
1117;531.6304931640625
1118;531.2718505859375
1119;530.9133911132812
1120;530.5552368164062
1121;530.1971435546875
1122;529.8392333984375
1123;529.4816284179688
1124;529.1241455078125
1125;528.7669067382812
1126;528.4100341796875
1127;528.0531616210938
1128;527.6966552734375
1129;527.3402709960938
1130;526.9840698242188
1131;526.6280517578125
1132;526.272216796875
1133;525.9166870117188
1134;525.561279296875
1135;525.2060546875
1136;524.8510131835938
1137;524.4962158203125
1138;524.1417236328125
1139;523.787353515625
1140;523.4332275390625
1141;523.079345703125
1142;522.7255859375
1143;522.3719482421875
1144;522.0186157226562
1145;521.6654052734375
1146;521.3125
1147;520.9598388671875
1148;520.6072998046875
1149;520.2550659179688
1150;519.9030151367188
1151;519.5510864257812
1152;519.1993408203125
1153;518.8478393554688
1154;518.4966430664062
1155;518.1455688476562
1156;517.794677734375
1157;517.444091796875
1158;517.093505859375
1159;516.7431640625
1160;516.3931274414062
1161;516.0432739257812
1162;515.693603515625
1163;515.343994140625
1164;514.9947509765625
1165;514.6456298828125
1166;514.2967529296875
1167;513.9481811523438
1168;513.5996704101562
1169;513.2514038085938
1170;512.9033813476562
1171;512.5555419921875
1172;512.2078857421875
1173;511.8604736328125
1174;511.5132141113281
1175;511.1661376953125
1176;510.8192138671875
1177;510.4725341796875
1178;510.1260681152344
1179;509.77978515625
1180;509.4337158203125
1181;509.0877685546875
1182;508.7420959472656
1183;508.3966064453125
1184;508.0513610839844
1185;507.7063293457031
1186;507.36138916015625
1187;507.01678466796875
1188;506.6722717285156
1189;506.32794189453125
1190;505.9837341308594
1191;505.63983154296875
1192;505.2961730957031
1193;504.9526062011719
1194;504.6092529296875
1195;504.2661437988281
1196;503.9233093261719
1197;503.58050537109375
1198;503.2380065917969
1199;502.89569091796875
1200;502.55364990234375
1201;502.2117004394531
1202;501.87005615234375
1203;501.5284729003906
1204;501.1871337890625
1205;500.8460388183594
1206;500.50506591796875
1207;500.1643981933594
1208;499.8238220214844
1209;499.4834289550781
1210;499.14324951171875
1211;498.8033447265625
1212;498.4634704589844
1213;498.1238708496094
1214;497.7845153808594
1215;497.44525146484375
1216;497.10626220703125
1217;496.7673645019531
1218;496.4287109375
1219;496.0902404785156
1220;495.75201416015625
1221;495.41400146484375
1222;495.07611083984375
1223;494.7385559082031
1224;494.4010925292969
1225;494.0638732910156
1226;493.72686767578125
1227;493.39007568359375
1228;493.0534362792969
1229;492.7169189453125
1230;492.38067626953125
1231;492.0446472167969
1232;491.7087707519531
1233;491.3730773925781
1234;491.0375061035156
1235;490.7021789550781
1236;490.3670654296875
1237;490.03216552734375
1238;489.6974182128906
1239;489.3628845214844
1240;489.0284729003906
1241;488.6943359375
1242;488.3603515625
1243;488.0266418457031
1244;487.69305419921875
1245;487.3597106933594
1246;487.02655029296875
1247;486.69354248046875
1248;486.3606872558594
1249;486.0279846191406
1250;485.6955871582031
1251;485.3633117675781
1252;485.03131103515625
1253;484.69940185546875
1254;484.3677673339844
1255;484.03631591796875
1256;483.705078125
1257;483.3739929199219
1258;483.04296875
1259;482.7122802734375
1260;482.38177490234375
1261;482.0513610839844
1262;481.72113037109375
1263;481.3911437988281
1264;481.0613098144531
1265;480.73162841796875
1266;480.40228271484375
1267;480.0729675292969
1268;479.7439270019531
1269;479.4150695800781
1270;479.0863952636719
1271;478.7578125
1272;478.42950439453125
1273;478.1014404296875
1274;477.77349853515625
1275;477.4457702636719
1276;477.1181640625
1277;476.7907409667969
1278;476.4635314941406
1279;476.1366271972656
1280;475.8096923828125
1281;475.4831237792969
1282;475.1567077636719
1283;474.8304138183594
1284;474.50439453125
1285;474.17852783203125
1286;473.8528747558594
1287;473.5273742675781
1288;473.2021484375
1289;472.87701416015625
1290;472.5520935058594
1291;472.2273864746094
1292;471.90283203125
1293;471.5784912109375
1294;471.2542419433594
1295;470.93023681640625
1296;470.6064453125
1297;470.2827453613281
1298;469.95928955078125
1299;469.6360168457031
1300;469.3128967285156
1301;468.9900207519531
1302;468.6673278808594
1303;468.34478759765625
1304;468.0224304199219
1305;467.70025634765625
1306;467.3782653808594
1307;467.0565185546875
1308;466.73486328125
1309;466.4134216308594
1310;466.0921936035156
1311;465.7711486816406
1312;465.45025634765625
1313;465.1296081542969
1314;464.8090515136719
1315;464.4888000488281
1316;464.1685485839844
1317;463.84857177734375
1318;463.5287780761719
1319;463.2091064453125
1320;462.8896789550781
1321;462.5703430175781
1322;462.2513122558594
1323;461.9324645996094
1324;461.6136779785156
1325;461.29510498046875
1326;460.9768371582031
1327;460.6586608886719
1328;460.3406982421875
1329;460.02288818359375
1330;459.7052001953125
1331;459.3878173828125
1332;459.0705871582031
1333;458.7533874511719
1334;458.4364929199219
1335;458.1198425292969
1336;457.80322265625
1337;457.4869079589844
1338;457.1707458496094
1339;456.8547668457031
1340;456.53900146484375
1341;456.22332763671875
1342;455.9078369140625
1343;455.59259033203125
1344;455.27752685546875
1345;454.96258544921875
1346;454.6478576660156
1347;454.3332824707031
1348;454.0188903808594
1349;453.7047119140625
1350;453.39068603515625
1351;453.0768127441406
1352;452.7632141113281
1353;452.44964599609375
1354;452.1363220214844
1355;451.8232421875
1356;451.5103454589844
1357;451.1976013183594
1358;450.8850402832031
1359;450.5726318359375
1360;450.2603454589844
1361;449.9483337402344
1362;449.63641357421875
1363;449.3247375488281
1364;449.0132141113281
1365;448.7018737792969
1366;448.3907470703125
1367;448.0797424316406
1368;447.7689208984375
1369;447.4582214355469
1370;447.1477966308594
1371;446.8375549316406
1372;446.52740478515625
1373;446.2174987792969
1374;445.9078369140625
1375;445.5982360839844
1376;445.2888488769531
1377;444.9796142578125
1378;444.6705627441406
1379;444.3616638183594
1380;444.0530090332031
1381;443.74444580078125
1382;443.4360656738281
1383;443.1279296875
1384;442.8199157714844
1385;442.5121154785156
1386;442.2044982910156
1387;441.89697265625
1388;441.58966064453125
1389;441.2826232910156
1390;440.97564697265625
1391;440.66888427734375
1392;440.3623046875
1393;440.0558776855469
1394;439.7496032714844
1395;439.4436340332031
1396;439.13775634765625
1397;438.8320007324219
1398;438.52642822265625
1399;438.2210998535156
1400;437.9158935546875
1401;437.61090087890625
1402;437.3061218261719
1403;437.0014343261719
1404;436.6968688964844
1405;436.39263916015625
1406;436.0885009765625
1407;435.7845764160156
1408;435.4807434082031
1409;435.1771545410156
1410;434.87371826171875
1411;434.57049560546875
1412;434.2673645019531
1413;433.9643859863281
1414;433.6616516113281
1415;433.3591003417969
1416;433.05670166015625
1417;432.7545166015625
1418;432.4524841308594
1419;432.15057373046875
1420;431.8487854003906
1421;431.5472717285156
1422;431.24591064453125
1423;430.9446716308594
1424;430.6436767578125
1425;430.34283447265625
1426;430.0420837402344
1427;429.7416076660156
1428;429.44134521484375
1429;429.1411437988281
1430;428.8411560058594
1431;428.5413513183594
1432;428.2417297363281
1433;427.94219970703125
1434;427.6429748535156
1435;427.3438720703125
1436;427.04486083984375
1437;426.74609375
1438;426.4473876953125
1439;426.1489562988281
1440;425.8506774902344
1441;425.5526123046875
1442;425.25469970703125
1443;424.9568786621094
1444;424.6593322753906
1445;424.3618469238281
1446;424.0646057128906
1447;423.7676086425781
1448;423.470703125
1449;423.17388916015625
1450;422.8772888183594
1451;422.58087158203125
1452;422.2846374511719
1453;421.9885559082031
1454;421.69268798828125
1455;421.3968811035156
1456;421.1012878417969
1457;420.80584716796875
1458;420.5106201171875
1459;420.2154846191406
1460;419.9205627441406
1461;419.62591552734375
1462;419.3313903808594
1463;419.0369873046875
1464;418.7427062988281
1465;418.4486999511719
1466;418.1548156738281
1467;417.86114501953125
1468;417.5675354003906
1469;417.2741394042969
1470;416.9809875488281
1471;416.68798828125
1472;416.3951110839844
1473;416.10235595703125
1474;415.8097839355469
1475;415.5174560546875
1476;415.2252502441406
1477;414.9331970214844
1478;414.64141845703125
1479;414.3496398925781
1480;414.0580749511719
1481;413.76666259765625
1482;413.4754943847656
1483;413.1844787597656
1484;412.89361572265625
1485;412.60296630859375
1486;412.3123779296875
1487;412.0220031738281
1488;411.7317810058594
1489;411.4417419433594
1490;411.15191650390625
1491;410.86224365234375
1492;410.5727844238281
1493;410.28338623046875
1494;409.99420166015625
1495;409.7051086425781
1496;409.41619873046875
1497;409.1275329589844
1498;408.83905029296875
1499;408.5506286621094
