;loss
0;1339.259521484375
1;1338.774658203125
2;1338.21484375
3;1337.621337890625
4;1337.00830078125
5;1336.3546142578125
6;1335.7005615234375
7;1335.0455322265625
8;1334.39013671875
9;1333.7396240234375
10;1333.0855712890625
11;1332.4285888671875
12;1331.7694091796875
13;1331.10693359375
14;1330.4451904296875
15;1329.781982421875
16;1329.1119384765625
17;1328.4395751953125
18;1327.7646484375
19;1327.0867919921875
20;1326.40625
21;1325.7298583984375
22;1325.0433349609375
23;1324.3612060546875
24;1323.6761474609375
25;1322.987548828125
26;1322.2955322265625
27;1321.591552734375
28;1320.8839111328125
29;1320.1802978515625
30;1319.46435546875
31;1318.744140625
32;1318.02783203125
33;1317.299072265625
34;1316.5650634765625
35;1315.82666015625
36;1315.0833740234375
37;1314.3348388671875
38;1313.5811767578125
39;1312.822265625
40;1312.065673828125
41;1311.29541015625
42;1310.5277099609375
43;1309.753662109375
44;1308.973876953125
45;1308.187744140625
46;1307.38720703125
47;1306.580078125
48;1305.76611328125
49;1304.9453125
50;1304.1248779296875
51;1303.28955078125
52;1302.44677734375
53;1301.59619140625
54;1300.7376708984375
55;1299.871337890625
56;1299.0045166015625
57;1298.12939453125
58;1297.24560546875
59;1296.345947265625
60;1295.4371337890625
61;1294.526123046875
62;1293.5986328125
63;1292.668212890625
64;1291.7208251953125
65;1290.76318359375
66;1289.795166015625
67;1288.8162841796875
68;1287.83349609375
69;1286.83251953125
70;1285.8267822265625
71;1284.8031005859375
72;1283.767822265625
73;1282.7203369140625
74;1281.660400390625
75;1280.58740234375
76;1279.5084228515625
77;1278.4095458984375
78;1277.296875
79;1276.17041015625
80;1275.0299072265625
81;1273.8751220703125
82;1272.71240234375
83;1271.534912109375
84;1270.3424072265625
85;1269.134765625
86;1267.90478515625
87;1266.666259765625
88;1265.4114990234375
89;1264.140380859375
90;1262.8460693359375
91;1261.5416259765625
92;1260.21337890625
93;1258.874755859375
94;1257.5118408203125
95;1256.1375732421875
96;1254.7392578125
97;1253.32958984375
98;1251.8948974609375
99;1250.4417724609375
100;1248.9700927734375
101;1247.4808349609375
102;1245.979736328125
103;1244.453125
104;1242.91455078125
105;1241.3499755859375
106;1239.7738037109375
107;1238.1785888671875
108;1236.56494140625
109;1234.92529296875
110;1233.2669677734375
111;1231.5897216796875
112;1229.9012451171875
113;1228.19482421875
114;1226.4703369140625
115;1224.7208251953125
116;1222.953857421875
117;1221.1702880859375
118;1219.3773193359375
119;1217.56103515625
120;1215.7362060546875
121;1213.88916015625
122;1212.02734375
123;1210.151611328125
124;1208.26220703125
125;1206.361572265625
126;1204.44921875
127;1202.5257568359375
128;1200.591796875
129;1198.6480712890625
130;1196.6962890625
131;1194.74365234375
132;1192.7838134765625
133;1190.8182373046875
134;1188.840087890625
135;1186.85791015625
136;1184.8802490234375
137;1182.895751953125
138;1180.9107666015625
139;1178.9248046875
140;1176.9393310546875
141;1174.9556884765625
142;1172.9749755859375
143;1170.9971923828125
144;1169.023193359375
145;1167.0543212890625
146;1165.0968017578125
147;1163.1419677734375
148;1161.19482421875
149;1159.2559814453125
150;1157.3287353515625
151;1155.41845703125
152;1153.5140380859375
153;1151.6220703125
154;1149.746826171875
155;1147.8922119140625
156;1146.04638671875
157;1144.2154541015625
158;1142.3997802734375
159;1140.60400390625
160;1138.82373046875
161;1137.0533447265625
162;1135.303466796875
163;1133.5645751953125
164;1131.8428955078125
165;1130.142822265625
166;1128.4593505859375
167;1126.79248046875
168;1125.137939453125
169;1123.50439453125
170;1121.888427734375
171;1120.29052734375
172;1118.7171630859375
173;1117.1588134765625
174;1115.62060546875
175;1114.104248046875
176;1112.602783203125
177;1111.1229248046875
178;1109.661376953125
179;1108.213623046875
180;1106.783447265625
181;1105.3736572265625
182;1103.9775390625
183;1102.5986328125
184;1101.236083984375
185;1099.8890380859375
186;1098.557373046875
187;1097.24462890625
188;1095.9468994140625
189;1094.6605224609375
190;1093.388427734375
191;1092.130859375
192;1090.8902587890625
193;1089.66357421875
194;1088.44970703125
195;1087.248291015625
196;1086.0594482421875
197;1084.8836669921875
198;1083.7193603515625
199;1082.5645751953125
200;1081.420654296875
201;1080.29052734375
202;1079.172119140625
203;1078.0635986328125
204;1076.962890625
205;1075.87451171875
206;1074.795654296875
207;1073.72607421875
208;1072.66357421875
209;1071.61181640625
210;1070.56640625
211;1069.529541015625
212;1068.501220703125
213;1067.4808349609375
214;1066.4700927734375
215;1065.4644775390625
216;1064.4664306640625
217;1063.47705078125
218;1062.4918212890625
219;1061.5128173828125
220;1060.53955078125
221;1059.573974609375
222;1058.612548828125
223;1057.6563720703125
224;1056.70751953125
225;1055.7620849609375
226;1054.82177734375
227;1053.887939453125
228;1052.95703125
229;1052.0308837890625
230;1051.1107177734375
231;1050.1925048828125
232;1049.278076171875
233;1048.36767578125
234;1047.4627685546875
235;1046.561279296875
236;1045.661376953125
237;1044.7666015625
238;1043.87548828125
239;1042.9862060546875
240;1042.1019287109375
241;1041.218505859375
242;1040.3397216796875
243;1039.46240234375
244;1038.5875244140625
245;1037.71533203125
246;1036.8472900390625
247;1035.9818115234375
248;1035.1185302734375
249;1034.25634765625
250;1033.3970947265625
251;1032.5404052734375
252;1031.685546875
253;1030.8331298828125
254;1029.9832763671875
255;1029.13525390625
256;1028.291015625
257;1027.4468994140625
258;1026.60498046875
259;1025.7666015625
260;1024.928466796875
261;1024.092529296875
262;1023.2598876953125
263;1022.427734375
264;1021.5993041992188
265;1020.771240234375
266;1019.9450073242188
267;1019.1207885742188
268;1018.299560546875
269;1017.4790649414062
270;1016.6600341796875
271;1015.8428955078125
272;1015.0276489257812
273;1014.2142944335938
274;1013.402587890625
275;1012.5930786132812
276;1011.786865234375
277;1010.9822998046875
278;1010.178466796875
279;1009.3776245117188
280;1008.577392578125
281;1007.779052734375
282;1006.982666015625
283;1006.1891479492188
284;1005.3974609375
285;1004.607666015625
286;1003.8186645507812
287;1003.0326538085938
288;1002.2483520507812
289;1001.46484375
290;1000.684326171875
291;999.9057006835938
292;999.1276245117188
293;998.3515625
294;997.5771484375
295;996.8046875
296;996.0340576171875
297;995.2650756835938
298;994.4979248046875
299;993.7337036132812
300;992.9702758789062
301;992.2086791992188
302;991.448974609375
303;990.691162109375
304;989.9351196289062
305;989.181884765625
306;988.429443359375
307;987.6788330078125
308;986.9296875
309;986.18359375
310;985.439208984375
311;984.6957397460938
312;983.9539794921875
313;983.214111328125
314;982.4768676757812
315;981.740478515625
316;981.005615234375
317;980.273681640625
318;979.5422973632812
319;978.8126220703125
320;978.085693359375
321;977.3602294921875
322;976.6356201171875
323;975.9125366210938
324;975.1919555664062
325;974.4722290039062
326;973.7540283203125
327;973.038330078125
328;972.3232421875
329;971.610595703125
330;970.8985595703125
331;970.1883544921875
332;969.4805908203125
333;968.7734375
334;968.068603515625
335;967.365234375
336;966.6625366210938
337;965.9620361328125
338;965.262939453125
339;964.5643310546875
340;963.8681640625
341;963.1724243164062
342;962.4779663085938
343;961.7850341796875
344;961.0942993164062
345;960.404052734375
346;959.7151489257812
347;959.0284423828125
348;958.3421020507812
349;957.6571044921875
350;956.973388671875
351;956.291015625
352;955.6106567382812
353;954.9317626953125
354;954.25390625
355;953.5764770507812
356;952.900390625
357;952.2254638671875
358;951.5518798828125
359;950.8801879882812
360;950.208984375
361;949.5396118164062
362;948.8713989257812
363;948.2035522460938
364;947.536865234375
365;946.8713989257812
366;946.207763671875
367;945.5446166992188
368;944.8825073242188
369;944.2221069335938
370;943.562255859375
371;942.9034423828125
372;942.2457885742188
373;941.589111328125
374;940.9342651367188
375;940.2797241210938
376;939.6262817382812
377;938.9739379882812
378;938.322509765625
379;937.6727294921875
380;937.0233154296875
381;936.375
382;935.7276611328125
383;935.0811767578125
384;934.4365234375
385;933.7921142578125
386;933.1487426757812
387;932.507080078125
388;931.8655395507812
389;931.2249145507812
390;930.5852661132812
391;929.9467163085938
392;929.3090209960938
393;928.672119140625
394;928.0362548828125
395;927.4019165039062
396;926.768310546875
397;926.1358642578125
398;925.5034790039062
399;924.8719482421875
400;924.241455078125
401;923.6117553710938
402;922.9829711914062
403;922.3550415039062
404;921.7278442382812
405;921.1022338867188
406;920.4766845703125
407;919.852783203125
408;919.2289428710938
409;918.6065673828125
410;917.985107421875
411;917.364501953125
412;916.7445678710938
413;916.1254272460938
414;915.506591796875
415;914.888427734375
416;914.2717895507812
417;913.6559448242188
418;913.040283203125
419;912.4259033203125
420;911.8118286132812
421;911.1983642578125
422;910.5858154296875
423;909.974609375
424;909.363525390625
425;908.7532348632812
426;908.1442260742188
427;907.5361328125
428;906.9285278320312
429;906.3211669921875
430;905.7151489257812
431;905.1092529296875
432;904.504638671875
433;903.900146484375
434;903.2964477539062
435;902.6940307617188
436;902.091552734375
437;901.4905395507812
438;900.8896484375
439;900.2899169921875
440;899.6905517578125
441;899.0917358398438
442;898.4935913085938
443;897.8966674804688
444;897.3004760742188
445;896.704833984375
446;896.1099853515625
447;895.5157470703125
448;894.922119140625
449;894.3287353515625
450;893.7359619140625
451;893.143798828125
452;892.5528564453125
453;891.9620361328125
454;891.371826171875
455;890.7822875976562
456;890.1939697265625
457;889.6055908203125
458;889.0185546875
459;888.4314575195312
460;887.8450317382812
461;887.25927734375
462;886.674072265625
463;886.0901489257812
464;885.5061645507812
465;884.9229125976562
466;884.3406982421875
467;883.7592163085938
468;883.1776733398438
469;882.5968627929688
470;882.0166015625
471;881.4375610351562
472;880.8584594726562
473;880.2799682617188
474;879.7020874023438
475;879.124755859375
476;878.548583984375
477;877.972412109375
478;877.3969116210938
479;876.8219604492188
480;876.2481079101562
481;875.6742553710938
482;875.1011352539062
483;874.5283813476562
484;873.9563598632812
485;873.3851928710938
486;872.8143920898438
487;872.243896484375
488;871.6744995117188
489;871.1056518554688
490;870.537353515625
491;869.9691162109375
492;869.4015502929688
493;868.8347778320312
494;868.268310546875
495;867.7022705078125
496;867.1372680664062
497;866.572265625
498;866.0082397460938
499;865.4443359375
500;864.8814697265625
501;864.319091796875
502;863.7572021484375
503;863.1959838867188
504;862.6347045898438
505;862.073974609375
506;861.5137939453125
507;860.9541625976562
508;860.3949584960938
509;859.8367919921875
510;859.2787475585938
511;858.7210693359375
512;858.1640014648438
513;857.6079711914062
514;857.0519409179688
515;856.4967651367188
516;855.942138671875
517;855.3875732421875
518;854.833984375
519;854.28076171875
520;853.7282104492188
521;853.1756591796875
522;852.6239624023438
523;852.07275390625
524;851.521728515625
525;850.9711303710938
526;850.4210815429688
527;849.8714599609375
528;849.3223876953125
529;848.7737426757812
530;848.2255249023438
531;847.677978515625
532;847.1310424804688
533;846.584716796875
534;846.0383911132812
535;845.4931030273438
536;844.94775390625
537;844.4029541015625
538;843.85888671875
539;843.3154296875
540;842.7723388671875
541;842.229736328125
542;841.6875610351562
543;841.1455078125
544;840.6041870117188
545;840.0634155273438
546;839.522705078125
547;838.9825439453125
548;838.442626953125
549;837.9032592773438
550;837.3643798828125
551;836.825927734375
552;836.2881469726562
553;835.7509155273438
554;835.2142333984375
555;834.6778564453125
556;834.1419067382812
557;833.606201171875
558;833.0708618164062
559;832.535888671875
560;832.0012817382812
561;831.4673461914062
562;830.9340209960938
563;830.4011840820312
564;829.8687744140625
565;829.33642578125
566;828.8045654296875
567;828.2731323242188
568;827.7420043945312
569;827.211669921875
570;826.6815185546875
571;826.1517333984375
572;825.6227416992188
573;825.0941772460938
574;824.5659790039062
575;824.0382080078125
576;823.5108032226562
577;822.98388671875
578;822.4573364257812
579;821.9312133789062
580;821.405517578125
581;820.8798828125
582;820.3551635742188
583;819.8305053710938
584;819.3062133789062
585;818.7821655273438
586;818.2586669921875
587;817.7355346679688
588;817.2130737304688
589;816.690673828125
590;816.1691284179688
591;815.647705078125
592;815.1266479492188
593;814.6061401367188
594;814.0861206054688
595;813.5665283203125
596;813.0469970703125
597;812.5277709960938
598;812.009033203125
599;811.4906005859375
600;810.9729614257812
601;810.4557495117188
602;809.938720703125
603;809.4222412109375
604;808.9059448242188
605;808.3898315429688
606;807.8742065429688
607;807.3589477539062
608;806.843994140625
609;806.3295288085938
610;805.8157348632812
611;805.3020629882812
612;804.7886962890625
613;804.2756958007812
614;803.7634887695312
615;803.251220703125
616;802.7393798828125
617;802.228271484375
618;801.7172241210938
619;801.20654296875
620;800.696533203125
621;800.1868286132812
622;799.6771850585938
623;799.1680297851562
624;798.6594848632812
625;798.151123046875
626;797.6429443359375
627;797.1351318359375
628;796.6278686523438
629;796.1211547851562
630;795.614501953125
631;795.1082153320312
632;794.6023559570312
633;794.0968627929688
634;793.5919799804688
635;793.08740234375
636;792.583251953125
637;792.0791015625
638;791.5757446289062
639;791.072509765625
640;790.5698852539062
641;790.0675659179688
642;789.5654907226562
643;789.0637817382812
644;788.5625
645;788.0615234375
646;787.5609130859375
647;787.0604858398438
648;786.560302734375
649;786.0604248046875
650;785.561279296875
651;785.0621337890625
652;784.5633544921875
653;784.06494140625
654;783.567138671875
655;783.0693969726562
656;782.572265625
657;782.0755615234375
658;781.578857421875
659;781.0825805664062
660;780.5868530273438
661;780.0911254882812
662;779.595947265625
663;779.100830078125
664;778.6065063476562
665;778.112548828125
666;777.6188354492188
667;777.12548828125
668;776.6325073242188
669;776.1398315429688
670;775.6474609375
671;775.155517578125
672;774.663818359375
673;774.1722412109375
674;773.6813354492188
675;773.1903076171875
676;772.7000732421875
677;772.2098388671875
678;771.72021484375
679;771.2308959960938
680;770.7416381835938
681;770.252685546875
682;769.764404296875
683;769.2763671875
684;768.7884521484375
685;768.3008422851562
686;767.8135986328125
687;767.326904296875
688;766.8405151367188
689;766.3544921875
690;765.8688354492188
691;765.3834228515625
692;764.8983764648438
693;764.4136962890625
694;763.92919921875
695;763.445068359375
696;762.9613647460938
697;762.4778442382812
698;761.9944458007812
699;761.511474609375
700;761.0287475585938
701;760.5463256835938
702;760.064453125
703;759.5828857421875
704;759.1017456054688
705;758.620849609375
706;758.1403198242188
707;757.6598510742188
708;757.179931640625
709;756.7002563476562
710;756.220947265625
711;755.7416381835938
712;755.262939453125
713;754.7846069335938
714;754.3063354492188
715;753.8285522460938
716;753.35107421875
717;752.8737182617188
718;752.3966674804688
719;751.9200439453125
720;751.4436645507812
721;750.9678955078125
722;750.4923095703125
723;750.01708984375
724;749.5420532226562
725;749.0674438476562
726;748.593017578125
727;748.1189575195312
728;747.645263671875
729;747.171630859375
730;746.698486328125
731;746.2254638671875
732;745.752685546875
733;745.2802734375
734;744.8081665039062
735;744.33642578125
736;743.8649291992188
737;743.3939208984375
738;742.9232177734375
739;742.4528198242188
740;741.9827270507812
741;741.5128784179688
742;741.0433959960938
743;740.5742797851562
744;740.1054077148438
745;739.6365356445312
746;739.168212890625
747;738.699951171875
748;738.2323608398438
749;737.7647705078125
750;737.2975463867188
751;736.8305053710938
752;736.364013671875
753;735.8976440429688
754;735.4314575195312
755;734.9656372070312
756;734.5000610351562
757;734.0350341796875
758;733.5700073242188
759;733.1055908203125
760;732.6414184570312
761;732.177490234375
762;731.7137451171875
763;731.2504272460938
764;730.7872314453125
765;730.3243408203125
766;729.8617553710938
767;729.3995971679688
768;728.9375
769;728.475830078125
770;728.014404296875
771;727.5535278320312
772;727.0928344726562
773;726.6321411132812
774;726.1719360351562
775;725.7120971679688
776;725.2523193359375
777;724.7927856445312
778;724.3336791992188
779;723.874755859375
780;723.4161987304688
781;722.9578247070312
782;722.5
783;722.042236328125
784;721.5847778320312
785;721.1277465820312
786;720.671142578125
787;720.2144775390625
788;719.7582397460938
789;719.3021850585938
790;718.8466796875
791;718.391357421875
792;717.9360961914062
793;717.481201171875
794;717.0265502929688
795;716.5721435546875
796;716.1180419921875
797;715.6644287109375
798;715.2111206054688
799;714.7578125
800;714.3048095703125
801;713.8521118164062
802;713.3998413085938
803;712.9476318359375
804;712.495849609375
805;712.0441284179688
806;711.593017578125
807;711.1421508789062
808;710.6912841796875
809;710.2407836914062
810;709.790771484375
811;709.3408203125
812;708.89111328125
813;708.4419555664062
814;707.992919921875
815;707.544189453125
816;707.0955200195312
817;706.6472778320312
818;706.199462890625
819;705.7516479492188
820;705.3042602539062
821;704.8571166992188
822;704.4100952148438
823;703.96337890625
824;703.5171508789062
825;703.0709838867188
826;702.6250610351562
827;702.1795654296875
828;701.7341918945312
829;701.2891845703125
830;700.844482421875
831;700.39990234375
832;699.9556274414062
833;699.5115966796875
834;699.0679931640625
835;698.624755859375
836;698.181396484375
837;697.73876953125
838;697.2960205078125
839;696.853759765625
840;696.4115600585938
841;695.9696655273438
842;695.5281982421875
843;695.0867919921875
844;694.6458740234375
845;694.2050170898438
846;693.7646484375
847;693.3242797851562
848;692.8844604492188
849;692.444580078125
850;692.0050659179688
851;691.5657958984375
852;691.1268310546875
853;690.68798828125
854;690.2496337890625
855;689.8114013671875
856;689.3734130859375
857;688.935791015625
858;688.4984741210938
859;688.0613403320312
860;687.6246337890625
861;687.1879272460938
862;686.7515258789062
863;686.3154296875
864;685.879638671875
865;685.4441528320312
866;685.0090942382812
867;684.5740356445312
868;684.139404296875
869;683.704833984375
870;683.2705688476562
871;682.8364868164062
872;682.4027709960938
873;681.9693603515625
874;681.5362548828125
875;681.1033325195312
876;680.670654296875
877;680.2381591796875
878;679.8059692382812
879;679.3740234375
880;678.9421997070312
881;678.5106811523438
882;678.0794677734375
883;677.6486206054688
884;677.2178344726562
885;676.7875366210938
886;676.3572387695312
887;675.92724609375
888;675.4974975585938
889;675.068115234375
890;674.6389770507812
891;674.210205078125
892;673.7815551757812
893;673.3531494140625
894;672.9248046875
895;672.4970703125
896;672.0693359375
897;671.641845703125
898;671.21484375
899;670.787841796875
900;670.361083984375
901;669.934814453125
902;669.508544921875
903;669.0825805664062
904;668.656982421875
905;668.231689453125
906;667.8064575195312
907;667.381591796875
908;666.9568481445312
909;666.5324096679688
910;666.1082153320312
911;665.6842651367188
912;665.2607421875
913;664.837158203125
914;664.4140625
915;663.9911499023438
916;663.568359375
917;663.1460571289062
918;662.723876953125
919;662.302001953125
920;661.8802490234375
921;661.4589233398438
922;661.0376586914062
923;660.6168212890625
924;660.196044921875
925;659.7755126953125
926;659.3552856445312
927;658.9352416992188
928;658.515380859375
929;658.0957641601562
930;657.676513671875
931;657.2575073242188
932;656.838623046875
933;656.4200439453125
934;656.0015869140625
935;655.5834350585938
936;655.1657104492188
937;654.748046875
938;654.330810546875
939;653.91357421875
940;653.4967651367188
941;653.080078125
942;652.66357421875
943;652.2473754882812
944;651.8313598632812
945;651.4155883789062
946;651.0001220703125
947;650.5847778320312
948;650.1698608398438
949;649.755126953125
950;649.3405151367188
951;648.92626953125
952;648.5120849609375
953;648.0982666015625
954;647.6846313476562
955;647.271240234375
956;646.8582153320312
957;646.4454956054688
958;646.0328979492188
959;645.6204223632812
960;645.208251953125
961;644.7962646484375
962;644.384521484375
963;643.9730834960938
964;643.561767578125
965;643.1506958007812
966;642.739990234375
967;642.3295288085938
968;641.919189453125
969;641.509033203125
970;641.0992431640625
971;640.689697265625
972;640.2803955078125
973;639.871337890625
974;639.4622802734375
975;639.0535888671875
976;638.645263671875
977;638.2369995117188
978;637.8289184570312
979;637.421142578125
980;637.0136108398438
981;636.6063232421875
982;636.1994018554688
983;635.7926635742188
984;635.3861694335938
985;634.9799194335938
986;634.5737915039062
987;634.1678466796875
988;633.76220703125
989;633.356689453125
990;632.9514770507812
991;632.5465698242188
992;632.141845703125
993;631.7374267578125
994;631.3331909179688
995;630.9290771484375
996;630.5252075195312
997;630.12158203125
998;629.7180786132812
999;629.3150024414062
1000;628.9120483398438
1001;628.5094604492188
1002;628.1069946289062
1003;627.704833984375
1004;627.3027954101562
1005;626.9010009765625
1006;626.49951171875
1007;626.09814453125
1008;625.697021484375
1009;625.2960205078125
1010;624.895263671875
1011;624.494873046875
1012;624.0947875976562
1013;623.6947021484375
1014;623.294921875
1015;622.895263671875
1016;622.4960327148438
1017;622.096923828125
1018;621.6979370117188
1019;621.2991943359375
1020;620.900634765625
1021;620.50244140625
1022;620.1044921875
1023;619.706787109375
1024;619.3092041015625
1025;618.9119262695312
1026;618.5148315429688
1027;618.1178588867188
1028;617.7213134765625
1029;617.3247680664062
1030;616.9286499023438
1031;616.5325927734375
1032;616.1367797851562
1033;615.7411499023438
1034;615.345947265625
1035;614.9507446289062
1036;614.5558471679688
1037;614.1611328125
1038;613.7666015625
1039;613.372314453125
1040;612.9783325195312
1041;612.5845947265625
1042;612.19091796875
1043;611.797607421875
1044;611.4044799804688
1045;611.0115356445312
1046;610.6188354492188
1047;610.226318359375
1048;609.833984375
1049;609.44189453125
1050;609.050048828125
1051;608.658447265625
1052;608.2669677734375
1053;607.875732421875
1054;607.48486328125
1055;607.0941772460938
1056;606.70361328125
1057;606.3131713867188
1058;605.9230346679688
1059;605.5330810546875
1060;605.1433715820312
1061;604.7537841796875
1062;604.3645629882812
1063;603.975341796875
1064;603.586669921875
1065;603.197998046875
1066;602.8097534179688
1067;602.4214477539062
1068;602.0335693359375
1069;601.6458129882812
1070;601.2582397460938
1071;600.8709106445312
1072;600.4838256835938
1073;600.096923828125
1074;599.7102661132812
1075;599.3237915039062
1076;598.9374389648438
1077;598.551513671875
1078;598.1657104492188
1079;597.7799682617188
1080;597.39453125
1081;597.0093994140625
1082;596.6244506835938
1083;596.2398071289062
1084;595.855224609375
1085;595.4708862304688
1086;595.086669921875
1087;594.7027587890625
1088;594.3190307617188
1089;593.9356689453125
1090;593.5523071289062
1091;593.169189453125
1092;592.786376953125
1093;592.4038696289062
1094;592.0214233398438
1095;591.6390991210938
1096;591.2572021484375
1097;590.87548828125
1098;590.493896484375
1099;590.1126098632812
1100;589.7315063476562
1101;589.3505249023438
1102;588.9699096679688
1103;588.58935546875
1104;588.2091064453125
1105;587.8290405273438
1106;587.4490966796875
1107;587.0694580078125
1108;586.6900024414062
1109;586.3106689453125
1110;585.9315795898438
1111;585.5526123046875
1112;585.174072265625
1113;584.7955932617188
1114;584.4172973632812
1115;584.0392456054688
1116;583.6613159179688
1117;583.28369140625
1118;582.9063110351562
1119;582.529052734375
1120;582.152099609375
1121;581.7752685546875
1122;581.398681640625
1123;581.0223388671875
1124;580.646240234375
1125;580.270263671875
1126;579.8945922851562
1127;579.51904296875
1128;579.1436767578125
1129;578.7684936523438
1130;578.3936157226562
1131;578.0188598632812
1132;577.6444091796875
1133;577.27001953125
1134;576.8958740234375
1135;576.5220947265625
1136;576.1483764648438
1137;575.7749633789062
1138;575.4016723632812
1139;575.028564453125
1140;574.6555786132812
1141;574.2828369140625
1142;573.9103393554688
1143;573.5380859375
1144;573.166015625
1145;572.794189453125
1146;572.4224853515625
1147;572.0509643554688
1148;571.6796875
1149;571.3084716796875
1150;570.9376831054688
1151;570.5670166015625
1152;570.196533203125
1153;569.8262329101562
1154;569.4562377929688
1155;569.0863037109375
1156;568.7166137695312
1157;568.34716796875
1158;567.9778442382812
1159;567.6087646484375
1160;567.2399291992188
1161;566.8712158203125
1162;566.5027465820312
1163;566.134521484375
1164;565.7665405273438
1165;565.398681640625
1166;565.0309448242188
1167;564.6634521484375
1168;564.2962036132812
1169;563.9290771484375
1170;563.562255859375
1171;563.1956787109375
1172;562.8292236328125
1173;562.4629516601562
1174;562.0968627929688
1175;561.7310180664062
1176;561.3653564453125
1177;560.9998779296875
1178;560.6346435546875
1179;560.2697143554688
1180;559.90478515625
1181;559.5401611328125
1182;559.1756591796875
1183;558.8114624023438
1184;558.4473876953125
1185;558.0835571289062
1186;557.7199096679688
1187;557.3563842773438
1188;556.9931030273438
1189;556.6300659179688
1190;556.26708984375
1191;555.9044189453125
1192;555.5419311523438
1193;555.1796875
1194;554.817626953125
1195;554.4557495117188
1196;554.0939331054688
1197;553.7324829101562
1198;553.37109375
1199;553.010009765625
1200;552.649169921875
1201;552.2883911132812
1202;551.9279174804688
1203;551.567626953125
1204;551.2074584960938
1205;550.8475341796875
1206;550.48779296875
1207;550.1282958984375
1208;549.76904296875
1209;549.409912109375
1210;549.0509643554688
1211;548.692138671875
1212;548.3336181640625
1213;547.975341796875
1214;547.6171875
1215;547.2591552734375
1216;546.9013061523438
1217;546.543701171875
1218;546.186279296875
1219;545.8290405273438
1220;545.47216796875
1221;545.1152954101562
1222;544.7586669921875
1223;544.4022827148438
1224;544.0460815429688
1225;543.6900634765625
1226;543.334228515625
1227;542.9785766601562
1228;542.6231689453125
1229;542.2680053710938
1230;541.9129028320312
1231;541.5579833984375
1232;541.203369140625
1233;540.848876953125
1234;540.4945678710938
1235;540.1404418945312
1236;539.78662109375
1237;539.4329223632812
1238;539.0795288085938
1239;538.7261352539062
1240;538.3731079101562
1241;538.0201416015625
1242;537.6674194335938
1243;537.31494140625
1244;536.962646484375
1245;536.6104125976562
1246;536.258544921875
1247;535.9066162109375
1248;535.5551147460938
1249;535.2037353515625
1250;534.8525390625
1251;534.5015869140625
1252;534.1507568359375
1253;533.800048828125
1254;533.4495849609375
1255;533.0993041992188
1256;532.749267578125
1257;532.3994140625
1258;532.0496826171875
1259;531.7002563476562
1260;531.3510131835938
1261;531.0018310546875
1262;530.6529541015625
1263;530.3042602539062
1264;529.9556884765625
1265;529.6073608398438
1266;529.2591552734375
1267;528.9111328125
1268;528.563232421875
1269;528.2156982421875
1270;527.8681640625
1271;527.52099609375
1272;527.1738891601562
1273;526.8270263671875
1274;526.4802856445312
1275;526.1337890625
1276;525.7874755859375
1277;525.4413452148438
1278;525.095458984375
1279;524.7496337890625
1280;524.404052734375
1281;524.0586547851562
1282;523.7135620117188
1283;523.3684692382812
1284;523.023681640625
1285;522.6790161132812
1286;522.3345947265625
1287;521.9902954101562
1288;521.646240234375
1289;521.3024291992188
1290;520.9586791992188
1291;520.6151733398438
1292;520.2717895507812
1293;519.9287109375
1294;519.5858154296875
1295;519.2429809570312
1296;518.900390625
1297;518.5579223632812
1298;518.2157592773438
1299;517.873779296875
1300;517.531982421875
1301;517.1903686523438
1302;516.848876953125
1303;516.507568359375
1304;516.1663818359375
1305;515.8255615234375
1306;515.4847412109375
1307;515.1442260742188
1308;514.8038330078125
1309;514.463623046875
1310;514.1236572265625
1311;513.7838745117188
1312;513.4441528320312
1313;513.104736328125
1314;512.7654418945312
1315;512.4263916015625
1316;512.0875244140625
1317;511.7487487792969
1318;511.4102783203125
1319;511.0718994140625
1320;510.7337341308594
1321;510.3957824707031
1322;510.0579833984375
1323;509.7203674316406
1324;509.3830261230469
1325;509.0457458496094
1326;508.7087707519531
1327;508.3719482421875
1328;508.0352783203125
1329;507.69879150390625
1330;507.3624267578125
1331;507.0263671875
1332;506.6904296875
1333;506.3546447753906
1334;506.01904296875
1335;505.68359375
1336;505.3483581542969
1337;505.0133056640625
1338;504.6783752441406
1339;504.34368896484375
1340;504.00921630859375
1341;503.6749267578125
1342;503.3408203125
1343;503.0068359375
1344;502.6731262207031
1345;502.3394775390625
1346;502.0060119628906
1347;501.6727294921875
1348;501.33978271484375
1349;501.0069580078125
1350;500.6741943359375
1351;500.3416442871094
1352;500.00927734375
1353;499.6771240234375
1354;499.34527587890625
1355;499.0133972167969
1356;498.6817932128906
1357;498.3504638671875
1358;498.0192565917969
1359;497.6882019042969
1360;497.3572998046875
1361;497.0265808105469
1362;496.6960754394531
1363;496.36572265625
1364;496.0354919433594
1365;495.70556640625
1366;495.3757629394531
1367;495.0461730957031
1368;494.7166748046875
1369;494.3874206542969
1370;494.0582275390625
1371;493.7292785644531
1372;493.4005432128906
1373;493.0719909667969
1374;492.74359130859375
1375;492.4153747558594
1376;492.0872497558594
1377;491.75933837890625
1378;491.431640625
1379;491.1041259765625
1380;490.7767333984375
1381;490.4495849609375
1382;490.1226806640625
1383;489.79583740234375
1384;489.46917724609375
1385;489.1427307128906
1386;488.81640625
1387;488.49029541015625
1388;488.1643371582031
1389;487.8386535644531
1390;487.51312255859375
1391;487.1876525878906
1392;486.8624572753906
1393;486.5373229980469
1394;486.2125549316406
1395;485.8879089355469
1396;485.56341552734375
1397;485.2390441894531
1398;484.9148254394531
1399;484.59088134765625
1400;484.26708984375
1401;483.94342041015625
1402;483.6198425292969
1403;483.2966003417969
1404;482.9735107421875
1405;482.6506042480469
1406;482.3278503417969
1407;482.00531005859375
1408;481.6828308105469
1409;481.3606262207031
1410;481.03851318359375
1411;480.7166442871094
1412;480.39495849609375
1413;480.0734558105469
1414;479.7521057128906
1415;479.4308776855469
1416;479.10986328125
1417;478.78900146484375
1418;478.4683837890625
1419;478.1478271484375
1420;477.82763671875
1421;477.5074768066406
1422;477.1876220703125
1423;476.8678283691406
1424;476.5482177734375
1425;476.2288513183594
1426;475.90960693359375
1427;475.5904846191406
1428;475.27154541015625
1429;474.9528503417969
1430;474.63421630859375
1431;474.31591796875
1432;473.99761962890625
1433;473.6795654296875
1434;473.3616638183594
1435;473.04388427734375
1436;472.7264099121094
1437;472.4090576171875
1438;472.09185791015625
1439;471.77484130859375
1440;471.4580078125
1441;471.1412658691406
1442;470.82476806640625
1443;470.5084228515625
1444;470.1922302246094
1445;469.8763122558594
1446;469.56048583984375
1447;469.2448425292969
1448;468.9293518066406
1449;468.6140441894531
1450;468.2989807128906
1451;467.98394775390625
1452;467.6692199707031
1453;467.35455322265625
1454;467.04010009765625
1455;466.7257995605469
1456;466.4117736816406
1457;466.0978698730469
1458;465.7840576171875
1459;465.4704895019531
1460;465.1570739746094
1461;464.8438720703125
1462;464.53070068359375
1463;464.2177734375
1464;463.9049987792969
1465;463.5924987792969
1466;463.2801208496094
1467;462.9679260253906
1468;462.6558837890625
1469;462.3439025878906
1470;462.0322265625
1471;461.720703125
1472;461.4093017578125
1473;461.09808349609375
1474;460.7869873046875
1475;460.47613525390625
1476;460.16546630859375
1477;459.85498046875
1478;459.5445861816406
1479;459.2344970703125
1480;458.92437744140625
1481;458.6145324707031
1482;458.3048095703125
1483;457.9952697753906
1484;457.68597412109375
1485;457.3767395019531
1486;457.0677490234375
1487;456.7589416503906
1488;456.45025634765625
1489;456.1417236328125
1490;455.8333740234375
1491;455.5251770019531
1492;455.21722412109375
1493;454.90936279296875
1494;454.6016845703125
1495;454.2942199707031
1496;453.9869079589844
1497;453.6797180175781
1498;453.3727111816406
1499;453.0659484863281
