;loss
0;1325.302734375
1;1324.916748046875
2;1324.47021484375
3;1323.94970703125
4;1323.427734375
5;1322.9044189453125
6;1322.395263671875
7;1321.8795166015625
8;1321.3507080078125
9;1320.82421875
10;1320.2928466796875
11;1319.7564697265625
12;1319.217041015625
13;1318.67431640625
14;1318.12841796875
15;1317.578857421875
16;1317.0257568359375
17;1316.463623046875
18;1315.90234375
19;1315.330810546875
20;1314.760498046875
21;1314.185302734375
22;1313.5985107421875
23;1313.012939453125
24;1312.4146728515625
25;1311.8175048828125
26;1311.214111328125
27;1310.59716796875
28;1309.9732666015625
29;1309.3424072265625
30;1308.7042236328125
31;1308.0657958984375
32;1307.41943359375
33;1306.75732421875
34;1306.09423828125
35;1305.42236328125
36;1304.7337646484375
37;1304.0430908203125
38;1303.3426513671875
39;1302.6319580078125
40;1301.9110107421875
41;1301.1710205078125
42;1300.4200439453125
43;1299.6649169921875
44;1298.8900146484375
45;1298.1026611328125
46;1297.302490234375
47;1296.496337890625
48;1295.6768798828125
49;1294.84326171875
50;1293.9873046875
51;1293.1165771484375
52;1292.2381591796875
53;1291.3363037109375
54;1290.41796875
55;1289.4830322265625
56;1288.531005859375
57;1287.5614013671875
58;1286.5740966796875
59;1285.56787109375
60;1284.5430908203125
61;1283.49853515625
62;1282.4425048828125
63;1281.3658447265625
64;1280.2689208984375
65;1279.1424560546875
66;1277.9937744140625
67;1276.831298828125
68;1275.645751953125
69;1274.4283447265625
70;1273.1868896484375
71;1271.92919921875
72;1270.63818359375
73;1269.329833984375
74;1267.986572265625
75;1266.6163330078125
76;1265.21826171875
77;1263.80126953125
78;1262.355224609375
79;1260.870849609375
80;1259.3653564453125
81;1257.8250732421875
82;1256.25634765625
83;1254.6658935546875
84;1253.0433349609375
85;1251.3876953125
86;1249.6884765625
87;1247.954833984375
88;1246.1885986328125
89;1244.39599609375
90;1242.5660400390625
91;1240.6978759765625
92;1238.7823486328125
93;1236.8377685546875
94;1234.8419189453125
95;1232.80322265625
96;1230.7213134765625
97;1228.5963134765625
98;1226.4375
99;1224.2230224609375
100;1221.973876953125
101;1219.67724609375
102;1217.31982421875
103;1214.917724609375
104;1212.48974609375
105;1210.00048828125
106;1207.471435546875
107;1204.884033203125
108;1202.2548828125
109;1199.572265625
110;1196.8292236328125
111;1194.046630859375
112;1191.19677734375
113;1188.29736328125
114;1185.35400390625
115;1182.3568115234375
116;1179.323974609375
117;1176.2373046875
118;1173.1025390625
119;1169.9320068359375
120;1166.7005615234375
121;1163.4442138671875
122;1160.154052734375
123;1156.86474609375
124;1153.5711669921875
125;1150.26416015625
126;1146.9566650390625
127;1143.63818359375
128;1140.32861328125
129;1137.025390625
130;1133.72119140625
131;1130.4285888671875
132;1127.16748046875
133;1123.9405517578125
134;1120.74755859375
135;1117.60205078125
136;1114.47509765625
137;1111.3994140625
138;1108.38671875
139;1105.4158935546875
140;1102.4921875
141;1099.605712890625
142;1096.77685546875
143;1094.0146484375
144;1091.2955322265625
145;1088.633544921875
146;1086.0430908203125
147;1083.5010986328125
148;1081.020263671875
149;1078.602294921875
150;1076.25
151;1073.948974609375
152;1071.7174072265625
153;1069.5528564453125
154;1067.449951171875
155;1065.401611328125
156;1063.3939208984375
157;1061.4306640625
158;1059.517333984375
159;1057.6533203125
160;1055.82470703125
161;1054.0390625
162;1052.29833984375
163;1050.5889892578125
164;1048.9149169921875
165;1047.278564453125
166;1045.675537109375
167;1044.1036376953125
168;1042.55908203125
169;1041.042724609375
170;1039.558837890625
171;1038.098876953125
172;1036.6685791015625
173;1035.26025390625
174;1033.8834228515625
175;1032.537353515625
176;1031.21875
177;1029.92724609375
178;1028.6585693359375
179;1027.40576171875
180;1026.173095703125
181;1024.96044921875
182;1023.7685546875
183;1022.590087890625
184;1021.4301147460938
185;1020.284423828125
186;1019.1552734375
187;1018.0366821289062
188;1016.9323120117188
189;1015.83984375
190;1014.7612915039062
191;1013.6936645507812
192;1012.6364135742188
193;1011.5872192382812
194;1010.5489501953125
195;1009.5200805664062
196;1008.502685546875
197;1007.4920654296875
198;1006.4923095703125
199;1005.5005493164062
200;1004.515625
201;1003.541015625
202;1002.5715942382812
203;1001.611572265625
204;1000.6567993164062
205;999.7086791992188
206;998.767578125
207;997.8333129882812
208;996.9058227539062
209;995.9866333007812
210;995.0714111328125
211;994.163818359375
212;993.2620239257812
213;992.365966796875
214;991.4755859375
215;990.5903930664062
216;989.7106323242188
217;988.8338623046875
218;987.9622192382812
219;987.0952758789062
220;986.2349243164062
221;985.3772583007812
222;984.524169921875
223;983.677001953125
224;982.833984375
225;981.9952392578125
226;981.1588745117188
227;980.327880859375
228;979.5008544921875
229;978.6759033203125
230;977.856201171875
231;977.0401611328125
232;976.2274169921875
233;975.4182739257812
234;974.612548828125
235;973.808837890625
236;973.0083618164062
237;972.212646484375
238;971.4200439453125
239;970.629150390625
240;969.843017578125
241;969.0582885742188
242;968.2766723632812
243;967.497802734375
244;966.721923828125
245;965.9503173828125
246;965.179931640625
247;964.4122314453125
248;963.6484375
249;962.885986328125
250;962.1260986328125
251;961.3685913085938
252;960.6135864257812
253;959.8626098632812
254;959.1126098632812
255;958.3648071289062
256;957.6207885742188
257;956.87890625
258;956.1382446289062
259;955.399658203125
260;954.6632080078125
261;953.9301147460938
262;953.1989135742188
263;952.4698486328125
264;951.7416381835938
265;951.015380859375
266;950.291015625
267;949.5697631835938
268;948.8505859375
269;948.1323852539062
270;947.416015625
271;946.7025756835938
272;945.989990234375
273;945.279052734375
274;944.5698852539062
275;943.8635864257812
276;943.1588745117188
277;942.4559326171875
278;941.7545776367188
279;941.0548095703125
280;940.3555908203125
281;939.657958984375
282;938.9617919921875
283;938.2684326171875
284;937.575439453125
285;936.885009765625
286;936.1959838867188
287;935.5075073242188
288;934.8214111328125
289;934.13671875
290;933.4524536132812
291;932.7696533203125
292;932.089111328125
293;931.4100341796875
294;930.732421875
295;930.0551147460938
296;929.3792114257812
297;928.7045288085938
298;928.0322265625
299;927.3612060546875
300;926.6905517578125
301;926.0211791992188
302;925.3528442382812
303;924.6860961914062
304;924.0203857421875
305;923.3569946289062
306;922.6939086914062
307;922.0327758789062
308;921.3719482421875
309;920.7133178710938
310;920.054931640625
311;919.3985595703125
312;918.7432861328125
313;918.0881958007812
314;917.4344482421875
315;916.7826538085938
316;916.131103515625
317;915.4814453125
318;914.83203125
319;914.1844482421875
320;913.5380859375
321;912.8919067382812
322;912.246826171875
323;911.6029663085938
324;910.9608154296875
325;910.3189086914062
326;909.6788940429688
327;909.0398559570312
328;908.401123046875
329;907.76416015625
330;907.1272583007812
331;906.4915161132812
332;905.8574829101562
333;905.2238159179688
334;904.591552734375
335;903.9605102539062
336;903.3296508789062
337;902.6996459960938
338;902.0706176757812
339;901.4432373046875
340;900.8169555664062
341;900.190673828125
342;899.5653076171875
343;898.9417114257812
344;898.319091796875
345;897.696533203125
346;897.0748901367188
347;896.454833984375
348;895.8357543945312
349;895.217529296875
350;894.599365234375
351;893.9829711914062
352;893.3666381835938
353;892.751220703125
354;892.1373291015625
355;891.5235595703125
356;890.9105834960938
357;890.2991943359375
358;889.6879272460938
359;889.0774536132812
360;888.4678344726562
361;887.8597412109375
362;887.251708984375
363;886.6444091796875
364;886.0386962890625
365;885.433837890625
366;884.8294677734375
367;884.2261352539062
368;883.6228637695312
369;883.0203857421875
370;882.4192504882812
371;881.8189697265625
372;881.2186279296875
373;880.6192626953125
374;880.0204467773438
375;879.423095703125
376;878.8258056640625
377;878.2300415039062
378;877.63427734375
379;877.039306640625
380;876.445068359375
381;875.8515625
382;875.2593383789062
383;874.6673583984375
384;874.0759887695312
385;873.4853515625
386;872.8953857421875
387;872.3067626953125
388;871.71826171875
389;871.1304321289062
390;870.5438842773438
391;869.9580078125
392;869.3722534179688
393;868.7871704101562
394;868.2032470703125
395;867.6195678710938
396;867.0370483398438
397;866.4546508789062
398;865.87353515625
399;865.2930297851562
400;864.7133178710938
401;864.1334838867188
402;863.554931640625
403;862.9765625
404;862.3994140625
405;861.8222045898438
406;861.2456665039062
407;860.6703491210938
408;860.095703125
409;859.5216064453125
410;858.9476318359375
411;858.374267578125
412;857.801513671875
413;857.2294921875
414;856.657958984375
415;856.0870971679688
416;855.516845703125
417;854.9476318359375
418;854.3786010742188
419;853.8101806640625
420;853.2427978515625
421;852.6760864257812
422;852.1094970703125
423;851.5439453125
424;850.9790649414062
425;850.4141845703125
426;849.850341796875
427;849.28662109375
428;848.7239990234375
429;848.161865234375
430;847.5999145507812
431;847.0383911132812
432;846.4780883789062
433;845.917724609375
434;845.3578491210938
435;844.7991333007812
436;844.240966796875
437;843.682861328125
438;843.125244140625
439;842.5686645507812
440;842.0126953125
441;841.457275390625
442;840.90234375
443;840.3473510742188
444;839.79345703125
445;839.2396850585938
446;838.6868896484375
447;838.1340942382812
448;837.5823364257812
449;837.0311279296875
450;836.4803466796875
451;835.9297485351562
452;835.3795166015625
453;834.8304443359375
454;834.2813110351562
455;833.733154296875
456;833.1851196289062
457;832.6375122070312
458;832.0904541015625
459;831.5442504882812
460;830.9987182617188
461;830.4531860351562
462;829.9085693359375
463;829.364013671875
464;828.8203735351562
465;828.27734375
466;827.734130859375
467;827.1920166015625
468;826.6504516601562
469;826.1092529296875
470;825.568115234375
471;825.0274658203125
472;824.4873046875
473;823.9476318359375
474;823.4088745117188
475;822.87060546875
476;822.3323364257812
477;821.7949829101562
478;821.257568359375
479;820.7208251953125
480;820.184814453125
481;819.6494140625
482;819.1144409179688
483;818.5794067382812
484;818.0448608398438
485;817.5108642578125
486;816.977294921875
487;816.4445190429688
488;815.911865234375
489;815.379638671875
490;814.847900390625
491;814.3170776367188
492;813.7865600585938
493;813.256591796875
494;812.7266845703125
495;812.1972045898438
496;811.6685791015625
497;811.139892578125
498;810.6121215820312
499;810.08447265625
500;809.5576782226562
501;809.0311889648438
502;808.5052490234375
503;807.9797973632812
504;807.4542846679688
505;806.9295654296875
506;806.4054565429688
507;805.8812255859375
508;805.3578491210938
509;804.8349609375
510;804.3120727539062
511;803.7896118164062
512;803.2679443359375
513;802.7467651367188
514;802.2255859375
515;801.704833984375
516;801.1848754882812
517;800.6653442382812
518;800.1458129882812
519;799.627197265625
520;799.1088256835938
521;798.590576171875
522;798.0728759765625
523;797.5557250976562
524;797.0386962890625
525;796.5221557617188
526;796.0059204101562
527;795.4901733398438
528;794.9747924804688
529;794.4601440429688
530;793.945556640625
531;793.431396484375
532;792.9176025390625
533;792.4042358398438
534;791.8912963867188
535;791.3790893554688
536;790.8673095703125
537;790.35546875
538;789.8441162109375
539;789.3331298828125
540;788.822998046875
541;788.3126831054688
542;787.8034057617188
543;787.2938842773438
544;786.784912109375
545;786.2763061523438
546;785.7684326171875
547;785.2606201171875
548;784.753173828125
549;784.2463989257812
550;783.739990234375
551;783.234130859375
552;782.728515625
553;782.2230224609375
554;781.7182006835938
555;781.2138061523438
556;780.7097778320312
557;780.205810546875
558;779.7022094726562
559;779.19921875
560;778.6967163085938
561;778.1942138671875
562;777.692138671875
563;777.1903686523438
564;776.6890869140625
565;776.1884155273438
566;775.687744140625
567;775.1874389648438
568;774.6879272460938
569;774.1884765625
570;773.6892700195312
571;773.1905517578125
572;772.692138671875
573;772.1943359375
574;771.697021484375
575;771.199951171875
576;770.7030029296875
577;770.2064208984375
578;769.710205078125
579;769.2146606445312
580;768.7191772460938
581;768.224365234375
582;767.729736328125
583;767.2356567382812
584;766.7416381835938
585;766.2481079101562
586;765.7546997070312
587;765.2620849609375
588;764.7693481445312
589;764.27734375
590;763.785400390625
591;763.2938232421875
592;762.802490234375
593;762.3115844726562
594;761.821044921875
595;761.3310546875
596;760.8411254882812
597;760.3516235351562
598;759.8624267578125
599;759.3735961914062
600;758.885009765625
601;758.3968505859375
602;757.9089965820312
603;757.421875
604;756.9349975585938
605;756.4482421875
606;755.961669921875
607;755.4755859375
608;754.98974609375
609;754.5043334960938
610;754.0192260742188
611;753.5347900390625
612;753.05029296875
613;752.56640625
614;752.0827026367188
615;751.5991821289062
616;751.1163330078125
617;750.633544921875
618;750.1514282226562
619;749.669677734375
620;749.1881713867188
621;748.7066650390625
622;748.2255249023438
623;747.7449951171875
624;747.2648315429688
625;746.78466796875
626;746.3048706054688
627;745.8256225585938
628;745.3468017578125
629;744.867919921875
630;744.3897094726562
631;743.9114990234375
632;743.43359375
633;742.9563598632812
634;742.4793090820312
635;742.0025024414062
636;741.526123046875
637;741.0499267578125
638;740.573974609375
639;740.098388671875
640;739.6233520507812
641;739.1486206054688
642;738.6742553710938
643;738.1998901367188
644;737.725830078125
645;737.25244140625
646;736.7789916992188
647;736.3059692382812
648;735.8334350585938
649;735.3610229492188
650;734.8888549804688
651;734.417236328125
652;733.946044921875
653;733.4751586914062
654;733.0042114257812
655;732.533935546875
656;732.063720703125
657;731.593994140625
658;731.1246337890625
659;730.655517578125
660;730.1864624023438
661;729.7177124023438
662;729.2496337890625
663;728.7815551757812
664;728.3137817382812
665;727.8464965820312
666;727.3793334960938
667;726.9124145507812
668;726.4461059570312
669;725.9801025390625
670;725.51416015625
671;725.0485229492188
672;724.5831909179688
673;724.118408203125
674;723.6539306640625
675;723.1893310546875
676;722.7252807617188
677;722.2614135742188
678;721.7978515625
679;721.334716796875
680;720.871826171875
681;720.409423828125
682;719.9471435546875
683;719.485107421875
684;719.0234375
685;718.5620727539062
686;718.1008911132812
687;717.6403198242188
688;717.1798706054688
689;716.7195434570312
690;716.2599487304688
691;715.8002319335938
692;715.3409423828125
693;714.882080078125
694;714.423583984375
695;713.965087890625
696;713.5071411132812
697;713.049560546875
698;712.5919189453125
699;712.1345825195312
700;711.6776123046875
701;711.2210693359375
702;710.7647094726562
703;710.3087768554688
704;709.8529052734375
705;709.3973388671875
706;708.9423217773438
707;708.487548828125
708;708.0328369140625
709;707.5786743164062
710;707.124755859375
711;706.6708984375
712;706.217529296875
713;705.7645263671875
714;705.3115234375
715;704.8587646484375
716;704.4063110351562
717;703.9542846679688
718;703.5023193359375
719;703.0509033203125
720;702.5995483398438
721;702.148681640625
722;701.697998046875
723;701.24755859375
724;700.79736328125
725;700.3474731445312
726;699.8981323242188
727;699.448974609375
728;699.0000610351562
729;698.55126953125
730;698.102783203125
731;697.6546020507812
732;697.2067260742188
733;696.7589721679688
734;696.3116455078125
735;695.86474609375
736;695.4180908203125
737;694.9718017578125
738;694.5255126953125
739;694.0794677734375
740;693.6339721679688
741;693.1885375976562
742;692.743408203125
743;692.2987060546875
744;691.8541870117188
745;691.4097290039062
746;690.9656982421875
747;690.5218505859375
748;690.0783081054688
749;689.63525390625
750;689.1921997070312
751;688.74951171875
752;688.3072509765625
753;687.865234375
754;687.4232788085938
755;686.981689453125
756;686.54052734375
757;686.099365234375
758;685.6586303710938
759;685.2183227539062
760;684.7781982421875
761;684.338134765625
762;683.8986206054688
763;683.4590454101562
764;683.019775390625
765;682.580810546875
766;682.14208984375
767;681.703857421875
768;681.2656860351562
769;680.8279418945312
770;680.3903198242188
771;679.952880859375
772;679.5159301757812
773;679.0790405273438
774;678.6424560546875
775;678.2061767578125
776;677.770263671875
777;677.3344116210938
778;676.899169921875
779;676.464111328125
780;676.0291748046875
781;675.5944213867188
782;675.159912109375
783;674.7258911132812
784;674.2921142578125
785;673.8583374023438
786;673.425048828125
787;672.991943359375
788;672.5589599609375
789;672.126220703125
790;671.6939086914062
791;671.2619018554688
792;670.8302001953125
793;670.398681640625
794;669.96728515625
795;669.5361938476562
796;669.10546875
797;668.675048828125
798;668.24462890625
799;667.8147583007812
800;667.3848876953125
801;666.955322265625
802;666.5260009765625
803;666.0970458984375
804;665.6682739257812
805;665.23974609375
806;664.8115234375
807;664.383544921875
808;663.9558715820312
809;663.528564453125
810;663.1012573242188
811;662.67431640625
812;662.2476196289062
813;661.8212280273438
814;661.3950805664062
815;660.9690551757812
816;660.5432739257812
817;660.1179809570312
818;659.6926879882812
819;659.2676391601562
820;658.8428344726562
821;658.41845703125
822;657.9943237304688
823;657.5704345703125
824;657.146728515625
825;656.72314453125
826;656.2998657226562
827;655.8767700195312
828;655.4542236328125
829;655.03173828125
830;654.609619140625
831;654.1876220703125
832;653.7658081054688
833;653.344482421875
834;652.92333984375
835;652.50244140625
836;652.0818481445312
837;651.6612548828125
838;651.240966796875
839;650.821044921875
840;650.4014282226562
841;649.9820556640625
842;649.5628662109375
843;649.1439819335938
844;648.7252197265625
845;648.3067626953125
846;647.8885498046875
847;647.4706420898438
848;647.0527954101562
849;646.6351318359375
850;646.2177734375
851;645.8008422851562
852;645.3839721679688
853;644.967529296875
854;644.5510864257812
855;644.135009765625
856;643.7191772460938
857;643.3035278320312
858;642.8883056640625
859;642.4730834960938
860;642.058349609375
861;641.643798828125
862;641.2294921875
863;640.8153076171875
864;640.4013671875
865;639.9876708984375
866;639.5743408203125
867;639.1611328125
868;638.748046875
869;638.335205078125
870;637.9228515625
871;637.5107421875
872;637.098876953125
873;636.6869506835938
874;636.2755737304688
875;635.8641967773438
876;635.4531860351562
877;635.0425415039062
878;634.6318359375
879;634.221435546875
880;633.8114624023438
881;633.4015502929688
882;632.9918212890625
883;632.5823974609375
884;632.1731567382812
885;631.76416015625
886;631.3554077148438
887;630.9469604492188
888;630.538818359375
889;630.1309204101562
890;629.7230224609375
891;629.315673828125
892;628.9083251953125
893;628.5014038085938
894;628.094482421875
895;627.68798828125
896;627.2816772460938
897;626.8755493164062
898;626.4696044921875
899;626.0640258789062
900;625.65869140625
901;625.2534790039062
902;624.848388671875
903;624.4436645507812
904;624.039306640625
905;623.635009765625
906;623.2308349609375
907;622.8271484375
908;622.4236450195312
909;622.020263671875
910;621.6171264648438
911;621.2142944335938
912;620.811767578125
913;620.409423828125
914;620.0072021484375
915;619.6053466796875
916;619.2036743164062
917;618.8021850585938
918;618.40087890625
919;617.999755859375
920;617.5989990234375
921;617.198486328125
922;616.7982788085938
923;616.3981323242188
924;615.998291015625
925;615.5986328125
926;615.1990966796875
927;614.800048828125
928;614.40087890625
929;614.0021362304688
930;613.6036987304688
931;613.2052612304688
932;612.8072509765625
933;612.4093017578125
934;612.0115966796875
935;611.6141967773438
936;611.2171020507812
937;610.820068359375
938;610.4234008789062
939;610.0267944335938
940;609.6304321289062
941;609.2343139648438
942;608.838623046875
943;608.4429321289062
944;608.0474853515625
945;607.6522827148438
946;607.2575073242188
947;606.8627319335938
948;606.4683227539062
949;606.0740966796875
950;605.6799926757812
951;605.2861328125
952;604.8924560546875
953;604.4991455078125
954;604.1060180664062
955;603.7130737304688
956;603.3201904296875
957;602.9276733398438
958;602.5354614257812
959;602.1434326171875
960;601.7516479492188
961;601.3599853515625
962;600.9686279296875
963;600.5775756835938
964;600.1866455078125
965;599.7959594726562
966;599.405517578125
967;599.0153198242188
968;598.625244140625
969;598.2352294921875
970;597.8457641601562
971;597.456298828125
972;597.067138671875
973;596.67822265625
974;596.28955078125
975;595.901123046875
976;595.5126953125
977;595.1245727539062
978;594.7366333007812
979;594.348876953125
980;593.9614868164062
981;593.5744018554688
982;593.1874389648438
983;592.8007202148438
984;592.4140625
985;592.0277709960938
986;591.6414794921875
987;591.255615234375
988;590.869873046875
989;590.484375
990;590.0990600585938
991;589.7139282226562
992;589.3289794921875
993;588.9445190429688
994;588.5599975585938
995;588.17578125
996;587.791748046875
997;587.4080200195312
998;587.0244140625
999;586.6411743164062
1000;586.2579956054688
1001;585.8751220703125
1002;585.492431640625
1003;585.1098022460938
1004;584.7275390625
1005;584.3455810546875
1006;583.9637451171875
1007;583.5820922851562
1008;583.2007446289062
1009;582.8195190429688
1010;582.4385986328125
1011;582.057861328125
1012;581.6771850585938
1013;581.2968139648438
1014;580.9166870117188
1015;580.536865234375
1016;580.1571655273438
1017;579.7776489257812
1018;579.3984375
1019;579.019287109375
1020;578.6405029296875
1021;578.2619018554688
1022;577.8834228515625
1023;577.505126953125
1024;577.127197265625
1025;576.7494506835938
1026;576.371826171875
1027;575.994384765625
1028;575.6171875
1029;575.2402954101562
1030;574.8634033203125
1031;574.4869384765625
1032;574.110595703125
1033;573.734375
1034;573.3585205078125
1035;572.9827270507812
1036;572.6072387695312
1037;572.23193359375
1038;571.8568725585938
1039;571.48193359375
1040;571.1072998046875
1041;570.7327880859375
1042;570.3585205078125
1043;569.9844360351562
1044;569.6104736328125
1045;569.2369384765625
1046;568.863525390625
1047;568.4902954101562
1048;568.1172485351562
1049;567.7445068359375
1050;567.3719482421875
1051;566.9996948242188
1052;566.6275634765625
1053;566.255615234375
1054;565.8839111328125
1055;565.5123901367188
1056;565.1410522460938
1057;564.7698364257812
1058;564.3989868164062
1059;564.0283203125
1060;563.6577758789062
1061;563.2874145507812
1062;562.9173583984375
1063;562.5475463867188
1064;562.1778564453125
1065;561.8082885742188
1066;561.4390869140625
1067;561.0700073242188
1068;560.7012329101562
1069;560.3325805664062
1070;559.964111328125
1071;559.5957641601562
1072;559.227783203125
1073;558.8598022460938
1074;558.4922485351562
1075;558.124755859375
1076;557.7574462890625
1077;557.3904418945312
1078;557.0235595703125
1079;556.6567993164062
1080;556.2904663085938
1081;555.9241333007812
1082;555.5582275390625
1083;555.1923217773438
1084;554.8268432617188
1085;554.4613647460938
1086;554.0961303710938
1087;553.731201171875
1088;553.3663330078125
1089;553.001708984375
1090;552.6373291015625
1091;552.2730712890625
1092;551.9090576171875
1093;551.5452270507812
1094;551.1815795898438
1095;550.8181762695312
1096;550.4550170898438
1097;550.092041015625
1098;549.729248046875
1099;549.36669921875
1100;549.0042724609375
1101;548.6420288085938
1102;548.2800903320312
1103;547.9182739257812
1104;547.556640625
1105;547.1951904296875
1106;546.8340454101562
1107;546.4730224609375
1108;546.1121826171875
1109;545.7515869140625
1110;545.3912353515625
1111;545.031005859375
1112;544.6710205078125
1113;544.3111572265625
1114;543.9514770507812
1115;543.5921020507812
1116;543.23291015625
1117;542.8739013671875
1118;542.5150146484375
1119;542.156494140625
1120;541.7980346679688
1121;541.439697265625
1122;541.0816650390625
1123;540.7238159179688
1124;540.3662109375
1125;540.0087890625
1126;539.6514892578125
1127;539.2943725585938
1128;538.9376220703125
1129;538.5809326171875
1130;538.2244873046875
1131;537.8682250976562
1132;537.5121459960938
1133;537.15625
1134;536.800537109375
1135;536.445068359375
1136;536.0897827148438
1137;535.7346801757812
1138;535.3796997070312
1139;535.025146484375
1140;534.670654296875
1141;534.3162841796875
1142;533.962158203125
1143;533.608154296875
1144;533.2545166015625
1145;532.9009399414062
1146;532.547607421875
1147;532.1943969726562
1148;531.8414916992188
1149;531.48876953125
1150;531.13623046875
1151;530.7838745117188
1152;530.431640625
1153;530.0797729492188
1154;529.7279663085938
1155;529.3765258789062
1156;529.0250244140625
1157;528.673828125
1158;528.3228759765625
1159;527.9719848632812
1160;527.621337890625
1161;527.2708740234375
1162;526.920654296875
1163;526.5706176757812
1164;526.2208251953125
1165;525.8712158203125
1166;525.521728515625
1167;525.17236328125
1168;524.8232421875
1169;524.474365234375
1170;524.125732421875
1171;523.7771606445312
1172;523.428955078125
1173;523.080810546875
1174;522.7328491210938
1175;522.3851928710938
1176;522.0377197265625
1177;521.6903076171875
1178;521.3431396484375
1179;520.9962158203125
1180;520.6494750976562
1181;520.3028564453125
1182;519.9564208984375
1183;519.6102905273438
1184;519.2642822265625
1185;518.91845703125
1186;518.5728149414062
1187;518.2274169921875
1188;517.882080078125
1189;517.5370483398438
1190;517.1921997070312
1191;516.847412109375
1192;516.5029907226562
1193;516.15869140625
1194;515.814697265625
1195;515.470703125
1196;515.126953125
1197;514.783447265625
1198;514.4400634765625
1199;514.096923828125
1200;513.7540283203125
1201;513.4112548828125
1202;513.068603515625
1203;512.7261962890625
1204;512.3839111328125
1205;512.0418090820312
1206;511.6999206542969
1207;511.3582763671875
1208;511.0167541503906
1209;510.6754455566406
1210;510.33441162109375
1211;509.9934387207031
1212;509.6527099609375
1213;509.3121643066406
1214;508.9718322753906
1215;508.6315612792969
1216;508.29156494140625
1217;507.9517822265625
1218;507.6121520996094
1219;507.2727355957031
1220;506.9334716796875
1221;506.5943908691406
1222;506.2555236816406
1223;505.9168701171875
1224;505.5783386230469
1225;505.2400817871094
1226;504.9020080566406
1227;504.5641174316406
1228;504.2263488769531
1229;503.8888244628906
1230;503.5513916015625
1231;503.21429443359375
1232;502.8772888183594
1233;502.54046630859375
1234;502.2039489746094
1235;501.8674621582031
1236;501.53118896484375
1237;501.1951904296875
1238;500.8592529296875
1239;500.52349853515625
1240;500.18792724609375
1241;499.8526611328125
1242;499.5174255371094
1243;499.1824645996094
1244;498.84765625
1245;498.5130310058594
1246;498.1785888671875
1247;497.8443908691406
1248;497.5103759765625
1249;497.1765441894531
1250;496.8429870605469
1251;496.5093994140625
1252;496.1761474609375
1253;495.8430480957031
1254;495.5101013183594
1255;495.17724609375
1256;494.84466552734375
1257;494.51226806640625
1258;494.1800537109375
1259;493.8479919433594
1260;493.51611328125
1261;493.1844177246094
1262;492.8529052734375
1263;492.5216064453125
1264;492.1904296875
1265;491.8595886230469
1266;491.52874755859375
1267;491.19818115234375
1268;490.8678894042969
1269;490.5377197265625
1270;490.20758056640625
1271;489.8778076171875
1272;489.5481262207031
1273;489.2186279296875
1274;488.8892822265625
1275;488.56011962890625
1276;488.2311706542969
1277;487.9024658203125
1278;487.5738525390625
1279;487.2454833984375
1280;486.9173278808594
1281;486.58935546875
1282;486.2614440917969
1283;485.9338073730469
1284;485.60638427734375
1285;485.2791442871094
1286;484.9519958496094
1287;484.62493896484375
1288;484.2982177734375
1289;483.9715576171875
1290;483.6451416015625
1291;483.31890869140625
1292;482.9928283691406
1293;482.6669921875
1294;482.34130859375
1295;482.0157470703125
1296;481.6904296875
1297;481.365234375
1298;481.0403747558594
1299;480.7154846191406
1300;480.3909912109375
1301;480.0665588378906
1302;479.7423095703125
1303;479.4183044433594
1304;479.0943603515625
1305;478.77056884765625
1306;478.4470520019531
1307;478.1236572265625
1308;477.8004455566406
1309;477.4773864746094
1310;477.1545715332031
1311;476.83197021484375
1312;476.5094299316406
1313;476.1871643066406
1314;475.8650817871094
1315;475.5431823730469
1316;475.2213439941406
1317;474.8997802734375
1318;474.5783386230469
1319;474.2571105957031
1320;473.93603515625
1321;473.6151123046875
1322;473.29449462890625
1323;472.9739074707031
1324;472.6535339355469
1325;472.33343505859375
1326;472.0134582519531
1327;471.6935729980469
1328;471.37396240234375
1329;471.0545349121094
1330;470.7351989746094
1331;470.41607666015625
1332;470.09716796875
1333;469.7784729003906
1334;469.45989990234375
1335;469.1414489746094
1336;468.82318115234375
1337;468.5051574707031
1338;468.1872863769531
1339;467.8695068359375
1340;467.5519104003906
1341;467.2345886230469
1342;466.91741943359375
1343;466.6004638671875
1344;466.2835693359375
1345;465.9670104980469
1346;465.6505126953125
1347;465.3341979980469
1348;465.01800537109375
1349;464.7020263671875
1350;464.38623046875
1351;464.0705871582031
1352;463.7552185058594
1353;463.43988037109375
1354;463.1247253417969
1355;462.8099060058594
1356;462.4951171875
1357;462.1804504394531
1358;461.8660583496094
1359;461.55181884765625
1360;461.23773193359375
1361;460.923828125
1362;460.6101989746094
1363;460.2966613769531
1364;459.9832763671875
1365;459.6701354980469
1366;459.3570861816406
1367;459.0441589355469
1368;458.73150634765625
1369;458.41900634765625
1370;458.1066589355469
1371;457.7945556640625
1372;457.48248291015625
1373;457.1707458496094
1374;456.8591613769531
1375;456.5476379394531
1376;456.23638916015625
1377;455.92523193359375
1378;455.61419677734375
1379;455.3035583496094
1380;454.9929504394531
1381;454.6824951171875
1382;454.372314453125
1383;454.0621643066406
1384;453.7522888183594
1385;453.4425048828125
1386;453.1329345703125
1387;452.8234558105469
1388;452.5142822265625
1389;452.20526123046875
1390;451.8963623046875
1391;451.5876159667969
1392;451.2790222167969
1393;450.9706726074219
1394;450.6624755859375
1395;450.3544006347656
1396;450.0465087890625
1397;449.73876953125
1398;449.43121337890625
1399;449.1238708496094
1400;448.8167419433594
1401;448.509765625
1402;448.20281982421875
1403;447.896240234375
1404;447.5896301269531
1405;447.2833251953125
1406;446.9771728515625
1407;446.67108154296875
1408;446.3652648925781
1409;446.05963134765625
1410;445.7540283203125
1411;445.44873046875
1412;445.14361572265625
1413;444.8385925292969
1414;444.5338134765625
1415;444.2291564941406
1416;443.9247131347656
1417;443.6204833984375
1418;443.31634521484375
1419;443.01239013671875
1420;442.7085876464844
1421;442.4049072265625
1422;442.1014709472656
1423;441.7981872558594
1424;441.4950256347656
1425;441.1920166015625
1426;440.8892822265625
1427;440.586669921875
1428;440.2842712402344
1429;439.98193359375
1430;439.6798095703125
1431;439.3778381347656
1432;439.07611083984375
1433;438.77447509765625
1434;438.4730224609375
1435;438.1717224121094
1436;437.87060546875
1437;437.5696716308594
1438;437.2688293457031
1439;436.9682922363281
1440;436.66778564453125
1441;436.3675231933594
1442;436.0673828125
1443;435.76751708984375
1444;435.4677734375
1445;435.1681213378906
1446;434.86871337890625
1447;434.5694274902344
1448;434.27032470703125
1449;433.9713439941406
1450;433.6726379394531
1451;433.3739929199219
1452;433.0755920410156
1453;432.7772216796875
1454;432.4791564941406
1455;432.1812438964844
1456;431.8834533691406
1457;431.58587646484375
1458;431.2884216308594
1459;430.9910888671875
1460;430.6939697265625
1461;430.39703369140625
1462;430.1002197265625
1463;429.8035583496094
1464;429.5071105957031
1465;429.2108154296875
1466;428.9146728515625
1467;428.6186828613281
1468;428.32293701171875
1469;428.0272216796875
1470;427.7318115234375
1471;427.43646240234375
1472;427.14129638671875
1473;426.84637451171875
1474;426.551513671875
1475;426.2568054199219
1476;425.9623107910156
1477;425.66802978515625
1478;425.3738098144531
1479;425.07977294921875
1480;424.78594970703125
1481;424.4923400878906
1482;424.1988220214844
1483;423.9054870605469
1484;423.6122741699219
1485;423.3193359375
1486;423.0264892578125
1487;422.7337951660156
1488;422.44122314453125
1489;422.14886474609375
1490;421.856689453125
1491;421.5646057128906
1492;421.2727355957031
1493;420.9809875488281
1494;420.68951416015625
1495;420.39813232421875
1496;420.10687255859375
1497;419.81585693359375
1498;419.52496337890625
1499;419.23419189453125
1500;418.943603515625
1501;418.6531982421875
1502;418.36297607421875
1503;418.07293701171875
1504;417.7829895019531
1505;417.49322509765625
1506;417.2037353515625
1507;416.9142150878906
1508;416.6249694824219
1509;416.3358154296875
1510;416.0469055175781
1511;415.7581481933594
1512;415.469482421875
1513;415.18109130859375
1514;414.89276123046875
1515;414.6046142578125
1516;414.3166809082031
1517;414.02886962890625
1518;413.74114990234375
1519;413.45367431640625
1520;413.1662902832031
1521;412.8791198730469
1522;412.5921325683594
1523;412.3052978515625
1524;412.0185852050781
1525;411.7320556640625
1526;411.4456787109375
1527;411.1595153808594
1528;410.8734130859375
1529;410.5875244140625
1530;410.3017272949219
1531;410.0162353515625
1532;409.7308349609375
1533;409.44561767578125
1534;409.1605224609375
1535;408.87554931640625
1536;408.59075927734375
1537;408.30615234375
1538;408.0216979980469
1539;407.7374267578125
1540;407.4532775878906
1541;407.1693115234375
1542;406.8853759765625
1543;406.6017761230469
1544;406.3182678222656
1545;406.0349426269531
1546;405.75177001953125
1547;405.4687805175781
1548;405.1858825683594
1549;404.9031982421875
1550;404.6206359863281
1551;404.33819580078125
1552;404.0559997558594
1553;403.77398681640625
1554;403.4920349121094
1555;403.21026611328125
1556;402.9286193847656
1557;402.647216796875
1558;402.3658752441406
1559;402.0847473144531
1560;401.8038024902344
1561;401.5230407714844
1562;401.2423400878906
1563;400.9619140625
1564;400.6815490722656
1565;400.4013671875
1566;400.12127685546875
1567;399.8414611816406
1568;399.5617980957031
1569;399.2821960449219
1570;399.0028381347656
1571;398.7236633300781
1572;398.44464111328125
1573;398.1656494140625
1574;397.886962890625
1575;397.60833740234375
1576;397.3299255371094
1577;397.05157470703125
1578;396.7734680175781
1579;396.49554443359375
1580;396.2176818847656
1581;395.9400634765625
1582;395.66259765625
1583;395.3852844238281
1584;395.1081237792969
1585;394.83111572265625
1586;394.5542297363281
1587;394.2774658203125
1588;394.00103759765625
1589;393.724609375
1590;393.4483947753906
1591;393.1723327636719
1592;392.89642333984375
1593;392.6206970214844
1594;392.3450622558594
1595;392.0696105957031
1596;391.7943115234375
1597;391.5191650390625
1598;391.2441101074219
1599;390.96923828125
1600;390.694580078125
1601;390.4200744628906
1602;390.14569091796875
1603;389.8714904785156
1604;389.59747314453125
1605;389.3235778808594
1606;389.0498352050781
1607;388.7762451171875
1608;388.5028076171875
1609;388.22955322265625
1610;387.9564208984375
1611;387.68341064453125
1612;387.41064453125
1613;387.13800048828125
1614;386.865478515625
1615;386.5930480957031
1616;386.32086181640625
1617;386.0487976074219
1618;385.7768859863281
1619;385.5051574707031
1620;385.2335205078125
1621;384.9620666503906
1622;384.6908264160156
1623;384.4197082519531
1624;384.1487731933594
1625;383.8778991699219
1626;383.6072998046875
1627;383.3367614746094
1628;383.0664367675781
1629;382.7962341308594
1630;382.52618408203125
1631;382.2562561035156
1632;381.9865417480469
1633;381.71697998046875
1634;381.4474792480469
1635;381.1781921386719
1636;380.9090576171875
1637;380.64013671875
1638;380.3713073730469
1639;380.1025695800781
1640;379.83404541015625
1641;379.565673828125
1642;379.2974853515625
1643;379.02947998046875
1644;378.76153564453125
1645;378.4937744140625
1646;378.2261962890625
1647;377.9587097167969
1648;377.69146728515625
1649;377.42431640625
1650;377.1573181152344
1651;376.8905029296875
1652;376.6238708496094
1653;376.3572998046875
1654;376.09088134765625
1655;375.8245849609375
1656;375.5584716796875
1657;375.2926330566406
1658;375.0268249511719
1659;374.76116943359375
1660;374.4956970214844
1661;374.23040771484375
1662;373.9651794433594
1663;373.70013427734375
1664;373.435302734375
1665;373.17059326171875
1666;372.9060363769531
1667;372.64166259765625
1668;372.3773193359375
1669;372.11322021484375
1670;371.8492736816406
1671;371.5854187011719
1672;371.32177734375
1673;371.0582580566406
1674;370.7949523925781
1675;370.53167724609375
1676;370.2686767578125
1677;370.0057373046875
1678;369.7430114746094
1679;369.48040771484375
1680;369.2178955078125
1681;368.9555969238281
1682;368.6934509277344
1683;368.4314880371094
1684;368.1695861816406
1685;367.90789794921875
1686;367.6463928222656
1687;367.38494873046875
1688;367.1236572265625
1689;366.86260986328125
1690;366.60162353515625
1691;366.3409118652344
1692;366.0802001953125
1693;365.8196716308594
1694;365.55926513671875
1695;365.299072265625
1696;365.03900146484375
1697;364.779052734375
1698;364.5193176269531
1699;364.2596740722656
1700;364.0002136230469
1701;363.7408752441406
1702;363.48175048828125
1703;363.2227478027344
1704;362.96380615234375
1705;362.70513916015625
1706;362.44659423828125
1707;362.1881103515625
1708;361.92987060546875
1709;361.6717224121094
1710;361.41375732421875
1711;361.1558837890625
1712;360.8982238769531
1713;360.64068603515625
1714;360.38323974609375
1715;360.1260070800781
1716;359.868896484375
1717;359.6119384765625
1718;359.3551330566406
1719;359.0985107421875
1720;358.8419494628906
1721;358.5855712890625
1722;358.3294372558594
1723;358.0733642578125
1724;357.8175048828125
1725;357.56170654296875
1726;357.3060302734375
1727;357.0506286621094
1728;356.7953186035156
1729;356.5401306152344
1730;356.28509521484375
1731;356.0302429199219
1732;355.7755126953125
1733;355.5209655761719
1734;355.2665100097656
1735;355.01220703125
1736;354.758056640625
1737;354.5040588378906
1738;354.2502746582031
1739;353.9965515136719
1740;353.7429504394531
1741;353.4895935058594
1742;353.2362976074219
1743;352.9832458496094
1744;352.7301940917969
1745;352.4774169921875
1746;352.2247314453125
1747;351.9721374511719
1748;351.71978759765625
1749;351.467529296875
1750;351.2154541015625
1751;350.9635009765625
1752;350.7117004394531
1753;350.46002197265625
1754;350.20855712890625
1755;349.95721435546875
1756;349.7059631347656
1757;349.45489501953125
1758;349.2039794921875
1759;348.953125
1760;348.7025146484375
1761;348.4520568847656
1762;348.20166015625
1763;347.9515075683594
1764;347.7015075683594
1765;347.4515380859375
1766;347.2018127441406
1767;346.9521789550781
1768;346.7027282714844
1769;346.45343017578125
1770;346.2042236328125
1771;345.9552001953125
1772;345.70635986328125
1773;345.4576110839844
1774;345.20904541015625
1775;344.9605407714844
1776;344.7122497558594
1777;344.46405029296875
1778;344.21600341796875
1779;343.9681396484375
1780;343.7203674316406
1781;343.4727783203125
1782;343.225341796875
1783;342.97802734375
1784;342.7308349609375
1785;342.4837951660156
1786;342.2369689941406
1787;341.9902648925781
1788;341.74365234375
1789;341.4971923828125
1790;341.2509460449219
1791;341.0047607421875
1792;340.7587890625
1793;340.5128479003906
1794;340.26715087890625
1795;340.0216064453125
1796;339.776123046875
1797;339.5308532714844
1798;339.2857360839844
1799;339.0407409667969
1800;338.7958679199219
1801;338.5511169433594
1802;338.3064880371094
1803;338.0621337890625
1804;337.8178405761719
1805;337.5736083984375
1806;337.32965087890625
1807;337.0857849121094
1808;336.842041015625
1809;336.5984802246094
1810;336.35504150390625
1811;336.1117248535156
1812;335.8686218261719
1813;335.6256103515625
1814;335.38275146484375
1815;335.1400146484375
1816;334.89739990234375
1817;334.6549377441406
1818;334.4126892089844
1819;334.1705017089844
1820;333.9284362792969
1821;333.6865539550781
1822;333.44488525390625
1823;333.2032470703125
1824;332.96185302734375
1825;332.72052001953125
1826;332.4794006347656
1827;332.2384338378906
1828;331.9974670410156
1829;331.7567138671875
1830;331.5162353515625
1831;331.2757263183594
1832;331.035400390625
1833;330.7951965332031
1834;330.5551452636719
1835;330.3152160644531
1836;330.0754699707031
1837;329.83587646484375
1838;329.5964050292969
1839;329.3570556640625
1840;329.117919921875
1841;328.8788757324219
1842;328.6400146484375
1843;328.4012145996094
1844;328.16253662109375
1845;327.9241027832031
1846;327.6857604980469
1847;327.44757080078125
1848;327.2095031738281
1849;326.9715576171875
1850;326.73382568359375
1851;326.4961242675781
1852;326.2586669921875
1853;326.0212707519531
1854;325.7840576171875
1855;325.5469970703125
1856;325.3100280761719
1857;325.0732421875
1858;324.8365783691406
1859;324.60003662109375
1860;324.3636474609375
1861;324.12744140625
1862;323.8912658691406
1863;323.6553039550781
1864;323.4195251464844
1865;323.183837890625
1866;322.9482727050781
1867;322.71282958984375
1868;322.4776611328125
1869;322.2425231933594
1870;322.0074768066406
1871;321.7726745605469
1872;321.5379333496094
1873;321.3033142089844
1874;321.0689392089844
1875;320.8346252441406
1876;320.6004638671875
1877;320.3664855957031
1878;320.1325988769531
1879;319.8987731933594
1880;319.66522216796875
1881;319.4317626953125
1882;319.19842529296875
1883;318.9652099609375
1884;318.7322082519531
1885;318.499267578125
1886;318.2665100097656
1887;318.0338439941406
1888;317.8013916015625
1889;317.5689697265625
1890;317.3367919921875
1891;317.1047058105469
1892;316.8727722167969
1893;316.6410217285156
1894;316.4093322753906
1895;316.17779541015625
1896;315.9464111328125
1897;315.7151184082031
1898;315.4840087890625
1899;315.2530517578125
1900;315.0222473144531
1901;314.79150390625
1902;314.5609436035156
1903;314.33050537109375
1904;314.1002197265625
1905;313.87005615234375
1906;313.64007568359375
1907;313.41015625
1908;313.1803894042969
1909;312.9508361816406
1910;312.7212829589844
1911;312.4919738769531
1912;312.2628173828125
1913;312.03375244140625
1914;311.8048095703125
1915;311.5760192871094
1916;311.34735107421875
1917;311.11883544921875
1918;310.8905029296875
1919;310.6622619628906
1920;310.4341735839844
1921;310.2062072753906
1922;309.9783630371094
1923;309.7507019042969
1924;309.52313232421875
1925;309.2956848144531
1926;309.06842041015625
1927;308.8412780761719
1928;308.6142883300781
1929;308.38739013671875
1930;308.16064453125
1931;307.9340515136719
1932;307.7076110839844
1933;307.4812316894531
1934;307.2550048828125
1935;307.02899169921875
1936;306.8030700683594
1937;306.5772399902344
1938;306.35162353515625
1939;306.1260986328125
1940;305.9007263183594
1941;305.6754455566406
1942;305.4503479003906
1943;305.2253112792969
1944;305.00048828125
1945;304.7757568359375
1946;304.5511779785156
1947;304.3267822265625
1948;304.1024169921875
1949;303.8782958984375
1950;303.6542663574219
1951;303.4303283691406
1952;303.20654296875
1953;302.98297119140625
1954;302.7594299316406
1955;302.5360412597656
1956;302.3128662109375
1957;302.0897216796875
1958;301.8667907714844
1959;301.64398193359375
1960;301.4212646484375
1961;301.19866943359375
1962;300.9762878417969
1963;300.7540283203125
1964;300.5318603515625
1965;300.3099060058594
1966;300.0879821777344
1967;299.8661804199219
1968;299.6446533203125
1969;299.423095703125
1970;299.20172119140625
1971;298.98052978515625
1972;298.75946044921875
1973;298.5384826660156
1974;298.31768798828125
1975;298.0970153808594
1976;297.87652587890625
1977;297.6560974121094
1978;297.4357604980469
1979;297.2156677246094
1980;296.99566650390625
1981;296.7757568359375
1982;296.5559997558594
1983;296.33636474609375
1984;296.116943359375
1985;295.8975830078125
1986;295.6783447265625
1987;295.45928955078125
1988;295.2403564453125
1989;295.0215148925781
1990;294.8028259277344
1991;294.5843200683594
1992;294.3658752441406
1993;294.1476135253906
1994;293.929443359375
1995;293.7114562988281
1996;293.4935302734375
1997;293.2757873535156
1998;293.0581359863281
1999;292.84063720703125
2000;292.623291015625
2001;292.4060363769531
2002;292.18896484375
2003;291.9720153808594
2004;291.7551574707031
2005;291.5384521484375
2006;291.3218994140625
2007;291.10546875
2008;290.88916015625
2009;290.6729736328125
2010;290.4569091796875
2011;290.24102783203125
2012;290.0252685546875
2013;289.8096008300781
2014;289.5941162109375
2015;289.3786926269531
2016;289.1634521484375
2017;288.9483642578125
2018;288.7333679199219
2019;288.5185241699219
2020;288.3038024902344
2021;288.08917236328125
2022;287.87469482421875
2023;287.6604309082031
2024;287.4461975097656
2025;287.2321472167969
2026;287.0182189941406
2027;286.80438232421875
2028;286.5907287597656
2029;286.377197265625
2030;286.1637268066406
2031;285.95050048828125
2032;285.7373352050781
2033;285.5242919921875
2034;285.3114013671875
2035;285.0986022949219
2036;284.885986328125
2037;284.6734924316406
2038;284.46112060546875
2039;284.24884033203125
2040;284.0367736816406
2041;283.8248291015625
2042;283.6129150390625
2043;283.40118408203125
2044;283.1895751953125
2045;282.9781188964844
2046;282.7667236328125
2047;282.5555419921875
2048;282.344482421875
2049;282.133544921875
2050;281.9227294921875
2051;281.7120056152344
2052;281.5014953613281
2053;281.29107666015625
2054;281.08074951171875
2055;280.8705749511719
2056;280.6605529785156
2057;280.4506530761719
2058;280.2408752441406
2059;280.03125
2060;279.8216857910156
2061;279.6122741699219
2062;279.4029846191406
2063;279.1939392089844
2064;278.9848937988281
2065;278.7760009765625
2066;278.5672607421875
2067;278.3586120605469
2068;278.150146484375
2069;277.9418029785156
2070;277.73358154296875
2071;277.52545166015625
2072;277.3174743652344
2073;277.1096496582031
2074;276.90191650390625
2075;276.6943054199219
2076;276.4868469238281
2077;276.2795104980469
2078;276.0723571777344
2079;275.865234375
2080;275.65826416015625
2081;275.4514465332031
2082;275.2447509765625
2083;275.0382080078125
2084;274.8318176269531
2085;274.62542724609375
2086;274.4193115234375
2087;274.2132568359375
2088;274.0073547363281
2089;273.80157470703125
2090;273.5958557128906
2091;273.39031982421875
2092;273.1849365234375
2093;272.9796142578125
2094;272.7744445800781
2095;272.5694580078125
2096;272.364501953125
2097;272.15972900390625
2098;271.9551086425781
2099;271.75054931640625
2100;271.546142578125
2101;271.3419189453125
2102;271.1378173828125
2103;270.9337158203125
2104;270.7298583984375
2105;270.52606201171875
2106;270.3224792480469
2107;270.118896484375
2108;269.91552734375
2109;269.7123107910156
2110;269.5091552734375
2111;269.3061828613281
2112;269.103271484375
2113;268.90057373046875
2114;268.69793701171875
2115;268.4954528808594
2116;268.2930908203125
2117;268.0908203125
2118;267.8887023925781
2119;267.6867370605469
2120;267.4848937988281
2121;267.28314208984375
2122;267.08154296875
2123;266.8800354003906
2124;266.6786804199219
2125;266.47747802734375
2126;266.2763977050781
2127;266.0753479003906
2128;265.8745422363281
2129;265.6737976074219
2130;265.4731750488281
2131;265.2727355957031
2132;265.0723876953125
2133;264.8721008300781
2134;264.6720275878906
2135;264.4720764160156
2136;264.2722473144531
2137;264.072509765625
2138;263.8729248046875
2139;263.6734619140625
2140;263.4740905761719
2141;263.2747802734375
2142;263.0757751464844
2143;262.8768005371094
2144;262.67791748046875
2145;262.479248046875
2146;262.2806701660156
2147;262.0821533203125
2148;261.8838195800781
2149;261.6856384277344
2150;261.48748779296875
2151;261.2895202636719
2152;261.0916748046875
2153;260.8939514160156
2154;260.69635009765625
2155;260.4988708496094
2156;260.30157470703125
2157;260.1043395996094
2158;259.9071960449219
2159;259.7102355957031
2160;259.51336669921875
2161;259.31658935546875
2162;259.1200256347656
2163;258.923583984375
2164;258.7271423339844
2165;258.5309143066406
2166;258.3348388671875
2167;258.13885498046875
2168;257.94305419921875
2169;257.7472839355469
2170;257.5516662597656
2171;257.356201171875
2172;257.1607971191406
2173;256.9655456542969
2174;256.77044677734375
2175;256.5754089355469
2176;256.380615234375
2177;256.1858215332031
2178;255.9912109375
2179;255.79673767089844
2180;255.60235595703125
2181;255.4081268310547
2182;255.21397399902344
2183;255.01998901367188
2184;254.8260955810547
2185;254.63229370117188
2186;254.43869018554688
2187;254.2451934814453
2188;254.0517578125
2189;253.85853576660156
2190;253.6653594970703
2191;253.47230529785156
2192;253.27940368652344
2193;253.08663940429688
2194;252.89398193359375
2195;252.70147705078125
2196;252.509033203125
2197;252.31671142578125
2198;252.12454223632812
2199;251.9325408935547
2200;251.74061584472656
2201;251.548828125
2202;251.3571014404297
2203;251.1656036376953
2204;250.97415161132812
2205;250.78282165527344
2206;250.59165954589844
2207;250.40057373046875
2208;250.2096405029297
2209;250.01882934570312
2210;249.82818603515625
2211;249.63751220703125
2212;249.44708251953125
2213;249.25677490234375
2214;249.06654357910156
2215;248.87643432617188
2216;248.68646240234375
2217;248.49664306640625
2218;248.30691528320312
2219;248.11729431152344
2220;247.9278106689453
2221;247.7384490966797
2222;247.54920959472656
2223;247.360107421875
2224;247.1710662841797
2225;246.98223876953125
2226;246.79345703125
2227;246.6048126220703
2228;246.41632080078125
2229;246.22792053222656
2230;246.0396270751953
2231;245.8514862060547
2232;245.6634063720703
2233;245.47555541992188
2234;245.28773498535156
2235;245.10009765625
2236;244.91253662109375
2237;244.72506713867188
2238;244.5377655029297
2239;244.3505859375
2240;244.16354370117188
2241;243.97662353515625
2242;243.78976440429688
2243;243.60302734375
2244;243.41644287109375
2245;243.23004150390625
2246;243.04367065429688
2247;242.85745239257812
2248;242.67135620117188
2249;242.4853515625
2250;242.29945373535156
2251;242.11373901367188
2252;241.92811584472656
2253;241.7425994873047
2254;241.55723571777344
2255;241.37193298339844
2256;241.18682861328125
2257;241.0017852783203
2258;240.81686401367188
2259;240.632080078125
2260;240.44737243652344
2261;240.2628631591797
2262;240.07843017578125
2263;239.8941192626953
2264;239.70989990234375
2265;239.52584838867188
2266;239.34193420410156
2267;239.15809631347656
2268;238.97433471679688
2269;238.79083251953125
2270;238.60731506347656
2271;238.4239959716797
2272;238.24075317382812
2273;238.0576171875
2274;237.87464904785156
2275;237.69178771972656
2276;237.50900268554688
2277;237.32635498046875
2278;237.14385986328125
2279;236.96139526367188
2280;236.77915954589844
2281;236.59695434570312
2282;236.4149627685547
2283;236.2329864501953
2284;236.0511932373047
2285;235.86952209472656
2286;235.6879119873047
2287;235.50645446777344
2288;235.32513427734375
2289;235.1438751220703
2290;234.9628143310547
2291;234.78179931640625
2292;234.60096740722656
2293;234.42019653320312
2294;234.2395782470703
2295;234.05905151367188
2296;233.87863159179688
2297;233.6984100341797
2298;233.5182342529297
2299;233.33816528320312
2300;233.1582794189453
2301;232.97845458984375
2302;232.79876708984375
2303;232.6192169189453
2304;232.43972778320312
2305;232.26039123535156
2306;232.08119201660156
2307;231.902099609375
2308;231.72308349609375
2309;231.54425048828125
2310;231.365478515625
2311;231.1868438720703
2312;231.00836181640625
2313;230.82997131347656
2314;230.65164184570312
2315;230.47349548339844
2316;230.29544067382812
2317;230.11753845214844
2318;229.93972778320312
2319;229.76199340820312
2320;229.58441162109375
2321;229.406982421875
2322;229.22962951660156
2323;229.0524139404297
2324;228.87530517578125
2325;228.69830322265625
2326;228.5214080810547
2327;228.34461975097656
2328;228.16799926757812
2329;227.99148559570312
2330;227.81504821777344
2331;227.63877868652344
2332;227.46253967285156
2333;227.2865447998047
2334;227.11061096191406
2335;226.93472290039062
2336;226.75901794433594
2337;226.58343505859375
2338;226.407958984375
2339;226.23257446289062
2340;226.0573272705078
2341;225.88218688964844
2342;225.70721435546875
2343;225.53228759765625
2344;225.3574676513672
2345;225.1828155517578
2346;225.00823974609375
2347;224.83383178710938
2348;224.65943908691406
2349;224.48529052734375
2350;224.31118774414062
2351;224.13714599609375
2352;223.96331787109375
2353;223.78955078125
2354;223.6159210205078
2355;223.44244384765625
2356;223.26901245117188
2357;223.0957794189453
2358;222.92259216308594
2359;222.74952697753906
2360;222.5766143798828
2361;222.4037628173828
2362;222.23106384277344
2363;222.0584259033203
2364;221.88597106933594
2365;221.71363830566406
2366;221.54139709472656
2367;221.36920166015625
2368;221.19717407226562
2369;221.0252685546875
2370;220.8534698486328
2371;220.68182373046875
2372;220.51025390625
2373;220.33880615234375
2374;220.16741943359375
2375;219.99623107910156
2376;219.82513427734375
2377;219.65415954589844
2378;219.48324584960938
2379;219.31251525878906
2380;219.1418914794922
2381;218.9712677001953
2382;218.80087280273438
2383;218.63058471679688
2384;218.46038818359375
2385;218.29029846191406
2386;218.12034606933594
2387;217.95053100585938
2388;217.78079223632812
2389;217.61111450195312
2390;217.44158935546875
2391;217.27220153808594
2392;217.1029052734375
2393;216.9337615966797
2394;216.76470947265625
2395;216.59573364257812
2396;216.4269256591797
2397;216.25820922851562
2398;216.08963012695312
2399;215.921142578125
2400;215.75274658203125
2401;215.58445739746094
2402;215.4163055419922
2403;215.248291015625
2404;215.08038330078125
2405;214.91253662109375
2406;214.74485778808594
2407;214.57728576660156
2408;214.40982055664062
2409;214.242431640625
2410;214.07516479492188
2411;213.90805053710938
2412;213.7410430908203
2413;213.57415771484375
2414;213.40736389160156
2415;213.24066162109375
2416;213.0740966796875
2417;212.9076385498047
2418;212.74127197265625
2419;212.5750274658203
2420;212.40892028808594
2421;212.24288940429688
2422;212.07704162597656
2423;211.9112091064453
2424;211.74554443359375
2425;211.57998657226562
2426;211.41453552246094
2427;211.24920654296875
2428;211.08396911621094
2429;210.91883850097656
2430;210.7538299560547
2431;210.58897399902344
2432;210.4241943359375
2433;210.259521484375
2434;210.09494018554688
2435;209.9304962158203
2436;209.76617431640625
2437;209.60198974609375
2438;209.43785095214844
2439;209.27386474609375
2440;209.10997009277344
2441;208.9462127685547
2442;208.7825469970703
2443;208.61898803710938
2444;208.4555206298828
2445;208.29220581054688
2446;208.12896728515625
2447;207.96588134765625
2448;207.8028564453125
2449;207.63999938964844
2450;207.47723388671875
2451;207.31459045410156
2452;207.1520233154297
2453;206.98959350585938
2454;206.82725524902344
2455;206.66502380371094
2456;206.5029296875
2457;206.34095764160156
2458;206.17904663085938
2459;206.01727294921875
2460;205.85560607910156
2461;205.69406127929688
2462;205.53260803222656
2463;205.3712615966797
2464;205.21002197265625
2465;205.04891967773438
2466;204.88790893554688
2467;204.72703552246094
2468;204.56622314453125
2469;204.40557861328125
2470;204.2450408935547
2471;204.08453369140625
2472;203.92420959472656
2473;203.76397705078125
2474;203.6038360595703
2475;203.44384765625
2476;203.283935546875
2477;203.1240997314453
2478;202.96449279785156
2479;202.80491638183594
2480;202.6454315185547
2481;202.48609924316406
2482;202.3268280029297
2483;202.16773986816406
2484;202.0087127685547
2485;201.8497314453125
2486;201.69097900390625
2487;201.53228759765625
2488;201.37368774414062
2489;201.2152099609375
2490;201.05685424804688
2491;200.8985595703125
2492;200.7404327392578
2493;200.5824432373047
2494;200.42446899414062
2495;200.26666259765625
2496;200.10891723632812
2497;199.95130920410156
2498;199.7938232421875
2499;199.63645935058594
2500;199.4791717529297
2501;199.32196044921875
2502;199.16493225097656
2503;199.00799560546875
2504;198.85113525390625
2505;198.6944122314453
2506;198.5377960205078
2507;198.3813018798828
2508;198.22488403320312
2509;198.06857299804688
2510;197.91238403320312
2511;197.75628662109375
2512;197.60035705566406
2513;197.44444274902344
2514;197.28871154785156
2515;197.13307189941406
2516;196.97752380371094
2517;196.8220977783203
2518;196.66671752929688
2519;196.5115509033203
2520;196.3564453125
2521;196.20144653320312
2522;196.04652404785156
2523;195.89173889160156
2524;195.7371063232422
2525;195.58248901367188
2526;195.4280242919922
2527;195.273681640625
2528;195.11944580078125
2529;194.96531677246094
2530;194.8112335205078
2531;194.6573486328125
2532;194.50350952148438
2533;194.3498077392578
2534;194.1962127685547
2535;194.04270935058594
2536;193.88931274414062
2537;193.73605346679688
2538;193.58285522460938
2539;193.4298095703125
2540;193.27687072753906
2541;193.12399291992188
2542;192.9712677001953
2543;192.8186492919922
2544;192.6660919189453
2545;192.513671875
2546;192.3613739013672
2547;192.20916748046875
2548;192.0570526123047
2549;191.90505981445312
2550;191.75315856933594
2551;191.6013946533203
2552;191.4497528076172
2553;191.29815673828125
2554;191.1466827392578
2555;190.995361328125
2556;190.84405517578125
2557;190.6929473876953
2558;190.5419464111328
2559;190.39097595214844
2560;190.24012756347656
2561;190.08944702148438
2562;189.93881225585938
2563;189.788330078125
2564;189.63787841796875
2565;189.48764038085938
2566;189.33746337890625
2567;189.18736267089844
2568;189.03736877441406
2569;188.88754272460938
2570;188.73773193359375
2571;188.5880889892578
2572;188.43856811523438
2573;188.2891082763672
2574;188.13975524902344
2575;187.9905242919922
2576;187.84140014648438
2577;187.6923828125
2578;187.54345703125
2579;187.39463806152344
2580;187.24591064453125
2581;187.09732055664062
2582;186.9488525390625
2583;186.8004608154297
2584;186.65216064453125
2585;186.5039520263672
2586;186.35592651367188
2587;186.20790100097656
2588;186.06005859375
2589;185.91229248046875
2590;185.76466369628906
2591;185.61708068847656
2592;185.46966552734375
2593;185.32232666015625
2594;185.175048828125
2595;185.02792358398438
2596;184.88092041015625
2597;184.7339630126953
2598;184.58714294433594
2599;184.44044494628906
2600;184.2938232421875
2601;184.14732360839844
2602;184.0009307861328
2603;183.85464477539062
2604;183.70843505859375
2605;183.56234741210938
2606;183.4163818359375
2607;183.27049255371094
2608;183.12472534179688
2609;182.97906494140625
2610;182.83351135253906
2611;182.6880340576172
2612;182.54266357421875
2613;182.39743041992188
2614;182.2522735595703
2615;182.10723876953125
2616;181.96229553222656
2617;181.81744384765625
2618;181.67271423339844
2619;181.52809143066406
2620;181.38357543945312
2621;181.23915100097656
2622;181.09483337402344
2623;180.95062255859375
2624;180.80653381347656
2625;180.66253662109375
2626;180.5186004638672
2627;180.37481689453125
2628;180.23110961914062
2629;180.08750915527344
2630;179.9440155029297
2631;179.80064392089844
2632;179.65737915039062
2633;179.51419067382812
2634;179.37109375
2635;179.2281494140625
2636;179.08526611328125
2637;178.94252014160156
2638;178.7998046875
2639;178.65724182128906
2640;178.5148162841797
2641;178.37246704101562
2642;178.23019409179688
2643;178.08802795410156
2644;177.94601440429688
2645;177.80406188964844
2646;177.66220092773438
2647;177.5205078125
2648;177.37887573242188
2649;177.23733520507812
2650;177.09588623046875
2651;176.95455932617188
2652;176.81332397460938
2653;176.67218017578125
2654;176.53121948242188
2655;176.3902587890625
2656;176.24948120117188
2657;176.1087188720703
2658;175.96810913085938
2659;175.82760620117188
2660;175.6872100830078
2661;175.5469207763672
2662;175.40670776367188
2663;175.26663208007812
2664;175.1266326904297
2665;174.98672485351562
2666;174.84689331054688
2667;174.7071990966797
2668;174.56761169433594
2669;174.4281463623047
2670;174.2887420654297
2671;174.1494598388672
2672;174.01025390625
2673;173.87115478515625
2674;173.73220825195312
2675;173.59332275390625
2676;173.4545135498047
2677;173.3158416748047
2678;173.17726135253906
2679;173.0387725830078
2680;172.90037536621094
2681;172.76214599609375
2682;172.62396240234375
2683;172.48587036132812
2684;172.3479461669922
2685;172.2100372314453
2686;172.07229614257812
2687;171.9345703125
2688;171.79702758789062
2689;171.65957641601562
2690;171.52218627929688
2691;171.38491821289062
2692;171.2477569580078
2693;171.11068725585938
2694;170.97373962402344
2695;170.8369140625
2696;170.7001495361328
2697;170.56344604492188
2698;170.4269256591797
2699;170.29043579101562
2700;170.1540985107422
2701;170.0177764892578
2702;169.88165283203125
2703;169.74562072753906
2704;169.60964965820312
2705;169.47377014160156
2706;169.3380126953125
2707;169.20233154296875
2708;169.06683349609375
2709;168.93138122558594
2710;168.7959747314453
2711;168.66070556640625
2712;168.5255889892578
2713;168.3905029296875
2714;168.25558471679688
2715;168.1206817626953
2716;167.98593139648438
2717;167.85128784179688
2718;167.7167205810547
2719;167.5822296142578
2720;167.4478759765625
2721;167.31361389160156
2722;167.17945861816406
2723;167.04542541503906
2724;166.91143798828125
2725;166.777587890625
2726;166.64378356933594
2727;166.51016235351562
2728;166.37655639648438
2729;166.2431182861328
2730;166.1097412109375
2731;165.97645568847656
2732;165.84332275390625
2733;165.7102508544922
2734;165.57728576660156
2735;165.44439697265625
2736;165.31161499023438
2737;165.178955078125
2738;165.04638671875
2739;164.91390991210938
2740;164.78152465820312
2741;164.64923095703125
2742;164.51708984375
2743;164.3849639892578
2744;164.25299072265625
2745;164.12112426757812
2746;163.98936462402344
2747;163.85765075683594
2748;163.72604370117188
2749;163.59454345703125
2750;163.46316528320312
2751;163.33184814453125
2752;163.20069885253906
2753;163.069580078125
2754;162.93856811523438
2755;162.8076934814453
2756;162.6768798828125
2757;162.5461883544922
2758;162.4155731201172
2759;162.28504943847656
2760;162.15463256835938
2761;162.0243377685547
2762;161.89410400390625
2763;161.7639923095703
2764;161.63397216796875
2765;161.50405883789062
2766;161.3742218017578
2767;161.2445068359375
2768;161.11488342285156
2769;160.98533630371094
2770;160.8559112548828
2771;160.72654724121094
2772;160.5973358154297
2773;160.46820068359375
2774;160.33912658691406
2775;160.21017456054688
2776;160.08132934570312
2777;159.9525604248047
2778;159.82391357421875
2779;159.6953887939453
2780;159.56692504882812
2781;159.4385528564453
2782;159.3102569580078
2783;159.1820831298828
2784;159.05398559570312
2785;158.92604064941406
2786;158.79815673828125
2787;158.6703643798828
2788;158.5426788330078
2789;158.4151153564453
2790;158.28758239746094
2791;158.1602020263672
2792;158.03289794921875
2793;157.90570068359375
2794;157.77857971191406
2795;157.65158081054688
2796;157.524658203125
2797;157.3978271484375
2798;157.27113342285156
2799;157.14451599121094
2800;157.01797485351562
2801;156.8915557861328
2802;156.76522827148438
2803;156.63897705078125
2804;156.5128173828125
2805;156.38677978515625
2806;156.26084899902344
2807;156.135009765625
2808;156.00921630859375
2809;155.883544921875
2810;155.75799560546875
2811;155.6324920654297
2812;155.50714111328125
2813;155.38182067871094
2814;155.25665283203125
2815;155.131591796875
2816;155.0065460205078
2817;154.88165283203125
2818;154.75686645507812
2819;154.6321563720703
2820;154.50753784179688
2821;154.3830108642578
2822;154.25860595703125
2823;154.13426208496094
2824;154.0100555419922
2825;153.88592529296875
2826;153.7618865966797
2827;153.63795471191406
2828;153.5141143798828
2829;153.39031982421875
2830;153.26666259765625
2831;153.1431121826172
2832;153.0196533203125
2833;152.89625549316406
2834;152.77297973632812
2835;152.64979553222656
2836;152.52671813964844
2837;152.4037322998047
2838;152.28082275390625
2839;152.15802001953125
2840;152.03529357910156
2841;151.9126739501953
2842;151.79017639160156
2843;151.667724609375
2844;151.54539489746094
2845;151.42315673828125
2846;151.301025390625
2847;151.17897033691406
2848;151.0570068359375
2849;150.93519592285156
2850;150.81341552734375
2851;150.69171142578125
2852;150.57017517089844
2853;150.44866943359375
2854;150.32728576660156
2855;150.2059783935547
2856;150.0847930908203
2857;149.96368408203125
2858;149.84266662597656
2859;149.72177124023438
2860;149.60093688964844
2861;149.48019409179688
2862;149.35955810546875
2863;149.23899841308594
2864;149.1185302734375
2865;148.99819946289062
2866;148.87791442871094
2867;148.7577667236328
2868;148.6376495361328
2869;148.51768493652344
2870;148.39781188964844
2871;148.27801513671875
2872;148.15826416015625
2873;148.03868103027344
2874;147.91917419433594
2875;147.79977416992188
2876;147.68045043945312
2877;147.56121826171875
2878;147.44204711914062
2879;147.32302856445312
2880;147.20404052734375
2881;147.08518981933594
2882;146.9663848876953
2883;146.8477325439453
2884;146.72914123535156
2885;146.61065673828125
2886;146.49224853515625
2887;146.37393188476562
2888;146.25570678710938
2889;146.13760375976562
2890;146.01959228515625
2891;145.9016571044922
2892;145.7837677001953
2893;145.66607666015625
2894;145.5483856201172
2895;145.4308319091797
2896;145.31333923339844
2897;145.19595336914062
2898;145.07867431640625
2899;144.96148681640625
2900;144.84437561035156
2901;144.72735595703125
2902;144.61044311523438
2903;144.49359130859375
2904;144.37686157226562
2905;144.26022338867188
2906;144.14369201660156
2907;144.02719116210938
2908;143.9108428955078
2909;143.79457092285156
2910;143.6783905029297
2911;143.56231689453125
2912;143.4462890625
2913;143.33038330078125
2914;143.21456909179688
2915;143.0988311767578
2916;142.98321533203125
2917;142.86766052246094
2918;142.75221252441406
2919;142.63685607910156
2920;142.52157592773438
2921;142.40638732910156
2922;142.29132080078125
2923;142.17630004882812
2924;142.06138610839844
2925;141.94659423828125
2926;141.83189392089844
2927;141.71725463867188
2928;141.60272216796875
2929;141.48826599121094
2930;141.3739013671875
2931;141.25962829589844
2932;141.14544677734375
2933;141.03138732910156
2934;140.91737365722656
2935;140.8035125732422
2936;140.6896514892578
2937;140.575927734375
2938;140.4623260498047
2939;140.34878540039062
2940;140.2353515625
2941;140.12200927734375
2942;140.00872802734375
2943;139.8955535888672
2944;139.7824249267578
2945;139.66943359375
2946;139.5565643310547
2947;139.4437255859375
2948;139.33099365234375
2949;139.2183837890625
2950;139.1058349609375
2951;138.9933624267578
2952;138.88099670410156
2953;138.76873779296875
2954;138.65655517578125
2955;138.54444885253906
2956;138.43243408203125
2957;138.32049560546875
2958;138.20870971679688
2959;138.09698486328125
2960;137.98529052734375
2961;137.873779296875
2962;137.7622833251953
2963;137.65093994140625
2964;137.53961181640625
2965;137.42840576171875
2966;137.31732177734375
2967;137.20626831054688
2968;137.09536743164062
2969;136.9845428466797
2970;136.873779296875
2971;136.76312255859375
2972;136.65255737304688
2973;136.5420684814453
2974;136.43167114257812
2975;136.3213653564453
2976;136.21116638183594
2977;136.1010284423828
2978;135.99102783203125
2979;135.8810577392578
2980;135.77117919921875
2981;135.6614227294922
2982;135.55174255371094
2983;135.4421844482422
2984;135.33265686035156
2985;135.22323608398438
2986;135.11390686035156
2987;135.00466918945312
2988;134.89552307128906
2989;134.78648376464844
2990;134.67747497558594
2991;134.56861877441406
2992;134.45985412597656
2993;134.35113525390625
2994;134.2425079345703
2995;134.1339874267578
2996;134.02557373046875
2997;133.91720581054688
2998;133.80892944335938
2999;133.70074462890625
