;loss
0;1301.7794189453125
1;1300.875244140625
2;1299.970458984375
3;1299.146240234375
4;1298.238525390625
5;1297.3292236328125
6;1296.417724609375
7;1295.504150390625
8;1294.5885009765625
9;1293.670166015625
10;1292.75390625
11;1291.832275390625
12;1290.906982421875
13;1289.9781494140625
14;1289.0457763671875
15;1288.1099853515625
16;1287.162841796875
17;1286.2183837890625
18;1285.26953125
19;1284.3155517578125
20;1283.3565673828125
21;1282.3814697265625
22;1281.400146484375
23;1280.412353515625
24;1279.4290771484375
25;1278.4278564453125
26;1277.4307861328125
27;1276.4146728515625
28;1275.402587890625
29;1274.3829345703125
30;1273.3426513671875
31;1272.2933349609375
32;1271.2474365234375
33;1270.1920166015625
34;1269.126953125
35;1268.0516357421875
36;1266.965576171875
37;1265.8560791015625
38;1264.747314453125
39;1263.6143798828125
40;1262.481201171875
41;1261.322998046875
42;1260.163330078125
43;1258.990234375
44;1257.790771484375
45;1256.5765380859375
46;1255.346923828125
47;1254.101806640625
48;1252.8404541015625
49;1251.5618896484375
50;1250.2783203125
51;1248.976806640625
52;1247.6573486328125
53;1246.3189697265625
54;1244.9493408203125
55;1243.5718994140625
56;1242.173828125
57;1240.7548828125
58;1239.3026123046875
59;1237.827880859375
60;1236.3424072265625
61;1234.833740234375
62;1233.3016357421875
63;1231.7332763671875
64;1230.1512451171875
65;1228.5435791015625
66;1226.9093017578125
67;1225.2481689453125
68;1223.5472412109375
69;1221.8177490234375
70;1220.071044921875
71;1218.2822265625
72;1216.4754638671875
73;1214.627197265625
74;1212.7584228515625
75;1210.857177734375
76;1208.9219970703125
77;1206.9403076171875
78;1204.935302734375
79;1202.8817138671875
80;1200.802978515625
81;1198.685791015625
82;1196.5164794921875
83;1194.3072509765625
84;1192.0562744140625
85;1189.762939453125
86;1187.4388427734375
87;1185.0709228515625
88;1182.6588134765625
89;1180.2000732421875
90;1177.6815185546875
91;1175.114990234375
92;1172.5123291015625
93;1169.8460693359375
94;1167.131591796875
95;1164.366943359375
96;1161.5631103515625
97;1158.6922607421875
98;1155.7816162109375
99;1152.8162841796875
100;1149.7818603515625
101;1146.69140625
102;1143.5589599609375
103;1140.3548583984375
104;1137.0928955078125
105;1133.7901611328125
106;1130.4306640625
107;1127.014404296875
108;1123.52734375
109;1119.998779296875
110;1116.3992919921875
111;1112.7596435546875
112;1109.051025390625
113;1105.308837890625
114;1101.52783203125
115;1097.686279296875
116;1093.8189697265625
117;1089.9036865234375
118;1085.9505615234375
119;1081.9808349609375
120;1077.9775390625
121;1073.9464111328125
122;1069.8824462890625
123;1065.8092041015625
124;1061.738525390625
125;1057.6446533203125
126;1053.5433349609375
127;1049.4451904296875
128;1045.3675537109375
129;1041.304443359375
130;1037.2484130859375
131;1033.229736328125
132;1029.2215576171875
133;1025.2562255859375
134;1021.3154296875
135;1017.4277954101562
136;1013.58935546875
137;1009.8031616210938
138;1006.0714111328125
139;1002.3988647460938
140;998.8047485351562
141;995.265625
142;991.8109741210938
143;988.4314575195312
144;985.1265258789062
145;981.9013671875
146;978.7510375976562
147;975.6622314453125
148;972.6517944335938
149;969.7337036132812
150;966.8800048828125
151;964.1052856445312
152;961.3974609375
153;958.7546997070312
154;956.1760864257812
155;953.6753540039062
156;951.2376708984375
157;948.8731689453125
158;946.5748291015625
159;944.3405151367188
160;942.1690673828125
161;940.0523071289062
162;937.9959716796875
163;935.9965209960938
164;934.0441284179688
165;932.1451416015625
166;930.2982788085938
167;928.4916381835938
168;926.7342529296875
169;925.0242919921875
170;923.3482055664062
171;921.7130126953125
172;920.1227416992188
173;918.5703125
174;917.0547485351562
175;915.5711669921875
176;914.1165161132812
177;912.685546875
178;911.2833862304688
179;909.9083862304688
180;908.5630493164062
181;907.2384033203125
182;905.9381713867188
183;904.6580810546875
184;903.3941650390625
185;902.15234375
186;900.9324951171875
187;899.7271728515625
188;898.5386352539062
189;897.3665771484375
190;896.2103881835938
191;895.0693969726562
192;893.9451904296875
193;892.8368530273438
194;891.7413330078125
195;890.6586303710938
196;889.5882568359375
197;888.52734375
198;887.4799194335938
199;886.4430541992188
200;885.4168701171875
201;884.4006958007812
202;883.3961181640625
203;882.4009399414062
204;881.4171142578125
205;880.4429321289062
206;879.4788208007812
207;878.52197265625
208;877.5732421875
209;876.6325073242188
210;875.6997680664062
211;874.7772827148438
212;873.8619384765625
213;872.9515380859375
214;872.0477905273438
215;871.15234375
216;870.26318359375
217;869.3782958984375
218;868.4993896484375
219;867.6279907226562
220;866.76220703125
221;865.9017944335938
222;865.0467529296875
223;864.197265625
224;863.3509521484375
225;862.5115966796875
226;861.6754760742188
227;860.8441772460938
228;860.0193481445312
229;859.1975708007812
230;858.3817138671875
231;857.5701904296875
232;856.7613525390625
233;855.95654296875
234;855.1559448242188
235;854.359375
236;853.5665893554688
237;852.7789916992188
238;851.9952392578125
239;851.2151489257812
240;850.4370727539062
241;849.6641845703125
242;848.89453125
243;848.1282958984375
244;847.3638305664062
245;846.6043090820312
246;845.8477783203125
247;845.0943603515625
248;844.3441772460938
249;843.5955810546875
250;842.8501586914062
251;842.1090087890625
252;841.3707885742188
253;840.6353149414062
254;839.9026489257812
255;839.1725463867188
256;838.4439086914062
257;837.7178344726562
258;836.9957885742188
259;836.2763061523438
260;835.5592651367188
261;834.8434448242188
262;834.13134765625
263;833.4215698242188
264;832.7144165039062
265;832.0094604492188
266;831.3067626953125
267;830.6063232421875
268;829.9078979492188
269;829.2117919921875
270;828.5166625976562
271;827.8247680664062
272;827.1337280273438
273;826.4447021484375
274;825.7577514648438
275;825.0738525390625
276;824.3909301757812
277;823.7110595703125
278;823.0321044921875
279;822.35595703125
280;821.6817626953125
281;821.0083618164062
282;820.3377685546875
283;819.6691284179688
284;819.0012817382812
285;818.3360595703125
286;817.6724853515625
287;817.009765625
288;816.3486328125
289;815.6890869140625
290;815.0322265625
291;814.3760375976562
292;813.7213745117188
293;813.068359375
294;812.4168701171875
295;811.7669067382812
296;811.1185913085938
297;810.4716796875
298;809.8262939453125
299;809.1835327148438
300;808.5424194335938
301;807.9019165039062
302;807.2638549804688
303;806.6272583007812
304;805.9920043945312
305;805.3572387695312
306;804.7237548828125
307;804.091796875
308;803.4612426757812
309;802.8319091796875
310;802.2047729492188
311;801.5784301757812
312;800.9539794921875
313;800.3307495117188
314;799.7080078125
315;799.0864868164062
316;798.4671020507812
317;797.8489379882812
318;797.2312622070312
319;796.6156005859375
320;796.0012817382812
321;795.3871459960938
322;794.7750854492188
323;794.1633911132812
324;793.5535888671875
325;792.9449462890625
326;792.3367309570312
327;791.7294921875
328;791.1234741210938
329;790.5192260742188
330;789.9161376953125
331;789.3132934570312
332;788.7122192382812
333;788.1122436523438
334;787.5125732421875
335;786.9146728515625
336;786.3169555664062
337;785.72119140625
338;785.1256103515625
339;784.5310668945312
340;783.9381713867188
341;783.3455810546875
342;782.75390625
343;782.1632080078125
344;781.57421875
345;780.9854736328125
346;780.3976440429688
347;779.8108520507812
348;779.2255859375
349;778.6412963867188
350;778.0573120117188
351;777.4749145507812
352;776.8931884765625
353;776.3125
354;775.7319946289062
355;775.1531372070312
356;774.5750732421875
357;773.9972534179688
358;773.4209594726562
359;772.8450317382812
360;772.2704467773438
361;771.6961669921875
362;771.1226196289062
363;770.5498657226562
364;769.97802734375
365;769.4070434570312
366;768.83740234375
367;768.26806640625
368;767.7000732421875
369;767.13232421875
370;766.56591796875
371;765.9996948242188
372;765.4344482421875
373;764.8698120117188
374;764.3060913085938
375;763.7431030273438
376;763.1815185546875
377;762.6201171875
378;762.0593872070312
379;761.5000610351562
380;760.9407958984375
381;760.3823852539062
382;759.8251953125
383;759.2687377929688
384;758.7131958007812
385;758.1576538085938
386;757.6033935546875
387;757.04931640625
388;756.4964599609375
389;755.94384765625
390;755.3919067382812
391;754.8412475585938
392;754.2913818359375
393;753.7421875
394;753.1930541992188
395;752.6452026367188
396;752.0975341796875
397;751.5511474609375
398;751.0048217773438
399;750.4591674804688
400;749.9142456054688
401;749.3705444335938
402;748.8274536132812
403;748.2850341796875
404;747.7432861328125
405;747.2015991210938
406;746.6605834960938
407;746.1201171875
408;745.5809936523438
409;745.0424194335938
410;744.50439453125
411;743.9666137695312
412;743.4298095703125
413;742.8932495117188
414;742.3572998046875
415;741.8223876953125
416;741.2880859375
417;740.7539672851562
418;740.2203369140625
419;739.6879272460938
420;739.1561279296875
421;738.6243896484375
422;738.0932006835938
423;737.5631103515625
424;737.03369140625
425;736.5042114257812
426;735.9759521484375
427;735.4482421875
428;734.9205932617188
429;734.39404296875
430;733.8677368164062
431;733.3423461914062
432;732.8176879882812
433;732.2935180664062
434;731.7694702148438
435;731.2459106445312
436;730.7229614257812
437;730.2005615234375
438;729.67919921875
439;729.1583251953125
440;728.6376342773438
441;728.1173095703125
442;727.5977172851562
443;727.07861328125
444;726.56005859375
445;726.0420532226562
446;725.5245361328125
447;725.0076293945312
448;724.4916381835938
449;723.9762573242188
450;723.4613647460938
451;722.9464111328125
452;722.4321899414062
453;721.9188232421875
454;721.4060668945312
455;720.8936767578125
456;720.3820190429688
457;719.8704223632812
458;719.3593139648438
459;718.8486328125
460;718.3386840820312
461;717.8295288085938
462;717.3208618164062
463;716.8126831054688
464;716.3046264648438
465;715.7975463867188
466;715.29052734375
467;714.7840576171875
468;714.2780151367188
469;713.7725830078125
470;713.267578125
471;712.7633666992188
472;712.259765625
473;711.7562866210938
474;711.2535400390625
475;710.7514038085938
476;710.2496948242188
477;709.7484741210938
478;709.2476806640625
479;708.7470092773438
480;708.2471923828125
481;707.7474365234375
482;707.2485961914062
483;706.7496948242188
484;706.2513427734375
485;705.75390625
486;705.2568359375
487;704.7603149414062
488;704.2640991210938
489;703.7684326171875
490;703.2732543945312
491;702.7780151367188
492;702.2833251953125
493;701.7890625
494;701.2957153320312
495;700.8023681640625
496;700.3097534179688
497;699.8178100585938
498;699.3257446289062
499;698.8341674804688
500;698.3434448242188
501;697.8531494140625
502;697.36328125
503;696.8739013671875
504;696.3849487304688
505;695.8963623046875
506;695.4082641601562
507;694.9207153320312
508;694.43310546875
509;693.9461059570312
510;693.4594116210938
511;692.9735107421875
512;692.4880981445312
513;692.0030517578125
514;691.5180053710938
515;691.0338745117188
516;690.5501708984375
517;690.06689453125
518;689.583984375
519;689.1012573242188
520;688.619140625
521;688.1375732421875
522;687.6563720703125
523;687.1754760742188
524;686.6951293945312
525;686.21484375
526;685.7353515625
527;685.255859375
528;684.7767944335938
529;684.2984619140625
530;683.8203125
531;683.3424682617188
532;682.8653564453125
533;682.3887329101562
534;681.9125366210938
535;681.4367065429688
536;680.9613037109375
537;680.4862670898438
538;680.0115966796875
539;679.5374145507812
540;679.0633544921875
541;678.58984375
542;678.11669921875
543;677.6441040039062
544;677.1715087890625
545;676.6995849609375
546;676.22802734375
547;675.7569580078125
548;675.2861938476562
549;674.8154907226562
550;674.3455810546875
551;673.8755493164062
552;673.4060668945312
553;672.9368286132812
554;672.4683227539062
555;671.9999389648438
556;671.5322265625
557;671.0648803710938
558;670.5978393554688
559;670.1312866210938
560;669.6647338867188
561;669.1987915039062
562;668.7333374023438
563;668.2681274414062
564;667.8031005859375
565;667.3383178710938
566;666.8743286132812
567;666.4102783203125
568;665.9469604492188
569;665.4837646484375
570;665.0211181640625
571;664.5589599609375
572;664.0966796875
573;663.6348876953125
574;663.173828125
575;662.7130737304688
576;662.2523803710938
577;661.7920532226562
578;661.3324584960938
579;660.8727416992188
580;660.4137573242188
581;659.9552001953125
582;659.4969482421875
583;659.0386352539062
584;658.5811157226562
585;658.1235961914062
586;657.6668090820312
587;657.2098999023438
588;656.7538452148438
589;656.2979736328125
590;655.8422241210938
591;655.3871459960938
592;654.9322509765625
593;654.4778442382812
594;654.0234375
595;653.5697631835938
596;653.1160278320312
597;652.6626586914062
598;652.2096557617188
599;651.7572631835938
600;651.3049926757812
601;650.8529663085938
602;650.4012451171875
603;649.9501953125
604;649.4993286132812
605;649.0486450195312
606;648.5985717773438
607;648.1488647460938
608;647.6992797851562
609;647.2501831054688
610;646.80126953125
611;646.3528442382812
612;645.9048461914062
613;645.4569091796875
614;645.0094604492188
615;644.5620727539062
616;644.115234375
617;643.6685180664062
618;643.2224731445312
619;642.7767944335938
620;642.3313598632812
621;641.88623046875
622;641.44140625
623;640.9967651367188
624;640.5523681640625
625;640.1083984375
626;639.6649169921875
627;639.2218017578125
628;638.7787475585938
629;638.3360595703125
630;637.8936157226562
631;637.4518432617188
632;637.0103149414062
633;636.5691528320312
634;636.1281127929688
635;635.6876831054688
636;635.2471923828125
637;634.8072509765625
638;634.36767578125
639;633.9284057617188
640;633.4893798828125
641;633.05078125
642;632.6121826171875
643;632.1742553710938
644;631.7365112304688
645;631.2988891601562
646;630.8618774414062
647;630.4251098632812
648;629.9883422851562
649;629.5521850585938
650;629.1163330078125
651;628.6808471679688
652;628.2454833984375
653;627.810546875
654;627.3759765625
655;626.9417114257812
656;626.5076904296875
657;626.0737915039062
658;625.6403198242188
659;625.2071533203125
660;624.7741088867188
661;624.341796875
662;623.9093627929688
663;623.4776000976562
664;623.0458374023438
665;622.6143188476562
666;622.1834716796875
667;621.7526245117188
668;621.3220825195312
669;620.8919677734375
670;620.4620971679688
671;620.0324096679688
672;619.6030883789062
673;619.1742553710938
674;618.7455444335938
675;618.3173217773438
676;617.8893432617188
677;617.4614868164062
678;617.0338745117188
679;616.6065673828125
680;616.1796264648438
681;615.7529907226562
682;615.3265991210938
683;614.9004516601562
684;614.4749145507812
685;614.0496826171875
686;613.6246337890625
687;613.1998901367188
688;612.7754516601562
689;612.3511352539062
690;611.9273071289062
691;611.5034790039062
692;611.0802001953125
693;610.6570434570312
694;610.2341918945312
695;609.8115234375
696;609.3894653320312
697;608.9676513671875
698;608.5460205078125
699;608.1245727539062
700;607.70361328125
701;607.28271484375
702;606.8621215820312
703;606.4418334960938
704;606.0217895507812
705;605.6021728515625
706;605.1829223632812
707;604.7637329101562
708;604.3448486328125
709;603.9264526367188
710;603.5081176757812
711;603.0902709960938
712;602.6727294921875
713;602.25537109375
714;601.8381958007812
715;601.4213256835938
716;601.0045776367188
717;600.5883178710938
718;600.1721801757812
719;599.7565307617188
720;599.34130859375
721;598.9260864257812
722;598.5110473632812
723;598.0966186523438
724;597.6823120117188
725;597.2684326171875
726;596.8545532226562
727;596.4409790039062
728;596.02783203125
729;595.6149291992188
730;595.2022094726562
731;594.7897338867188
732;594.3775024414062
733;593.9656372070312
734;593.5538940429688
735;593.1425170898438
736;592.7315673828125
737;592.3208618164062
738;591.9102783203125
739;591.5001831054688
740;591.0901489257812
741;590.6805419921875
742;590.2711791992188
743;589.8622436523438
744;589.4532470703125
745;589.0444946289062
746;588.6361083984375
747;588.22802734375
748;587.8203125
749;587.4127197265625
750;587.00537109375
751;586.5985107421875
752;586.1918334960938
753;585.7852172851562
754;585.3790893554688
755;584.9730834960938
756;584.5672607421875
757;584.1619262695312
758;583.7569580078125
759;583.3521118164062
760;582.9475708007812
761;582.5430908203125
762;582.1390991210938
763;581.7353515625
764;581.3316650390625
765;580.928466796875
766;580.5253295898438
767;580.1226196289062
768;579.7201538085938
769;579.3179931640625
770;578.916015625
771;578.5143432617188
772;578.11279296875
773;577.7114868164062
774;577.3106079101562
775;576.9097900390625
776;576.5093994140625
777;576.1090698242188
778;575.7092895507812
779;575.3096313476562
780;574.9103393554688
781;574.5111694335938
782;574.1123657226562
783;573.7136840820312
784;573.3153686523438
785;572.9172973632812
786;572.5194702148438
787;572.1219482421875
788;571.7244262695312
789;571.3272705078125
790;570.9302978515625
791;570.53369140625
792;570.137451171875
793;569.7412719726562
794;569.3452758789062
795;568.9497680664062
796;568.5543823242188
797;568.1593017578125
798;567.7645263671875
799;567.3698120117188
800;566.9754028320312
801;566.5811767578125
802;566.1875
803;565.7939453125
804;565.4005126953125
805;565.0074462890625
806;564.6146850585938
807;564.22216796875
808;563.8297729492188
809;563.437744140625
810;563.0458374023438
811;562.6541748046875
812;562.2626953125
813;561.8715209960938
814;561.4807739257812
815;561.0900268554688
816;560.6997680664062
817;560.3097534179688
818;559.9197998046875
819;559.5302124023438
820;559.1409912109375
821;558.7517700195312
822;558.3629760742188
823;557.9744262695312
824;557.5860595703125
825;557.1978759765625
826;556.809814453125
827;556.4222412109375
828;556.0349731445312
829;555.6478271484375
830;555.2610473632812
831;554.8742065429688
832;554.48779296875
833;554.1016845703125
834;553.7158203125
835;553.3302001953125
836;552.9446411132812
837;552.5594482421875
838;552.1746215820312
839;551.7898559570312
840;551.4053344726562
841;551.0211181640625
842;550.6371459960938
843;550.2534790039062
844;549.8699951171875
845;549.4866333007812
846;549.1034545898438
847;548.7205200195312
848;548.337890625
849;547.9556274414062
850;547.5734252929688
851;547.1915893554688
852;546.8099365234375
853;546.428466796875
854;546.0472412109375
855;545.6661987304688
856;545.2854614257812
857;544.9049682617188
858;544.5248413085938
859;544.144775390625
860;543.7649536132812
861;543.3854370117188
862;543.0060424804688
863;542.6271362304688
864;542.2484741210938
865;541.8699951171875
866;541.49169921875
867;541.1135864257812
868;540.7357788085938
869;540.3582153320312
870;539.98095703125
871;539.6038818359375
872;539.2269287109375
873;538.8502807617188
874;538.4738159179688
875;538.0977172851562
876;537.7216796875
877;537.345947265625
878;536.9703979492188
879;536.5952758789062
880;536.2202758789062
881;535.845458984375
882;535.4707641601562
883;535.0965576171875
884;534.7225341796875
885;534.3485717773438
886;533.9749145507812
887;533.6015625
888;533.2283325195312
889;532.8554077148438
890;532.4827880859375
891;532.1103515625
892;531.738037109375
893;531.3660888671875
894;530.9942626953125
895;530.6226196289062
896;530.2514038085938
897;529.8803100585938
898;529.5093994140625
899;529.1387939453125
900;528.7683715820312
901;528.3983154296875
902;528.0283813476562
903;527.6586303710938
904;527.2891235351562
905;526.9197387695312
906;526.5506591796875
907;526.1818237304688
908;525.8131713867188
909;525.4447021484375
910;525.0765380859375
911;524.7085571289062
912;524.3408813476562
913;523.9732666015625
914;523.6060791015625
915;523.2391967773438
916;522.8722534179688
917;522.5056762695312
918;522.13916015625
919;521.7731323242188
920;521.4072875976562
921;521.0416259765625
922;520.6762084960938
923;520.31103515625
924;519.9459838867188
925;519.5812377929688
926;519.2166137695312
927;518.8523559570312
928;518.4881591796875
929;518.1243286132812
930;517.7605590820312
931;517.3970336914062
932;517.0337524414062
933;516.6707763671875
934;516.3080444335938
935;515.9453735351562
936;515.5831298828125
937;515.2208862304688
938;514.8589477539062
939;514.4971923828125
940;514.1356811523438
941;513.7742919921875
942;513.4133911132812
943;513.0526123046875
944;512.6920166015625
945;512.3316650390625
946;511.9714050292969
947;511.61151123046875
948;511.2518005371094
949;510.89239501953125
950;510.5330505371094
951;510.1739196777344
952;509.815185546875
953;509.45660400390625
954;509.09820556640625
955;508.739990234375
956;508.3820495605469
957;508.02423095703125
958;507.6667785644531
959;507.3094787597656
960;506.9524230957031
961;506.5954895019531
962;506.23876953125
963;505.88226318359375
964;505.52593994140625
965;505.169921875
966;504.8141784667969
967;504.45849609375
968;504.10302734375
969;503.7479553222656
970;503.3929748535156
971;503.0382995605469
972;502.6837463378906
973;502.32928466796875
974;501.9751281738281
975;501.6213684082031
976;501.2676696777344
977;500.9143371582031
978;500.5610656738281
979;500.20806884765625
980;499.8553161621094
981;499.5027770996094
982;499.15045166015625
983;498.79833984375
984;498.4464416503906
985;498.0946350097656
986;497.7431335449219
987;497.3918762207031
988;497.04071044921875
989;496.6897888183594
990;496.3392028808594
991;495.98876953125
992;495.6385192871094
993;495.2884216308594
994;494.93865966796875
995;494.58892822265625
996;494.23944091796875
997;493.89031982421875
998;493.5413513183594
999;493.19244384765625
1000;492.8439636230469
1001;492.49560546875
1002;492.1474914550781
1003;491.7995300292969
1004;491.4518127441406
1005;491.10430908203125
1006;490.7570495605469
1007;490.40985107421875
1008;490.0630187988281
1009;489.71636962890625
1010;489.3699035644531
1011;489.0237121582031
1012;488.6775817871094
1013;488.3316345214844
1014;487.9861145019531
1015;487.640625
1016;487.2953186035156
1017;486.9503479003906
1018;486.60540771484375
1019;486.26080322265625
1020;485.91632080078125
1021;485.57220458984375
1022;485.2281799316406
1023;484.8844299316406
1024;484.54095458984375
1025;484.1975402832031
1026;483.8544616699219
1027;483.5114440917969
1028;483.1686706542969
1029;482.8260192871094
1030;482.4836730957031
1031;482.1415100097656
1032;481.799560546875
1033;481.4578552246094
1034;481.11627197265625
1035;480.77508544921875
1036;480.4339904785156
1037;480.0931091308594
1038;479.75238037109375
1039;479.4117736816406
1040;479.0715637207031
1041;478.73150634765625
1042;478.3915710449219
1043;478.05181884765625
1044;477.7123718261719
1045;477.37310791015625
1046;477.0340270996094
1047;476.6952209472656
1048;476.3565979003906
1049;476.01812744140625
1050;475.6799011230469
1051;475.34185791015625
1052;475.0040588378906
1053;474.6663513183594
1054;474.328857421875
1055;473.99163818359375
1056;473.6545715332031
1057;473.3177185058594
1058;472.98101806640625
1059;472.64459228515625
1060;472.3082580566406
1061;471.9721374511719
1062;471.63623046875
1063;471.3005065917969
1064;470.9650573730469
1065;470.62982177734375
1066;470.2947082519531
1067;469.9598693847656
1068;469.6252136230469
1069;469.2907409667969
1070;468.9565734863281
1071;468.6225891113281
1072;468.2887268066406
1073;467.95513916015625
1074;467.62164306640625
1075;467.2883605957031
1076;466.955322265625
1077;466.6224670410156
1078;466.28973388671875
1079;465.95721435546875
1080;465.625
1081;465.2929992675781
1082;464.961181640625
1083;464.6294860839844
1084;464.29803466796875
1085;463.96673583984375
1086;463.6356506347656
1087;463.3046569824219
1088;462.9739685058594
1089;462.6435546875
1090;462.3132629394531
1091;461.98309326171875
1092;461.6532287597656
1093;461.3235778808594
1094;460.99407958984375
1095;460.664794921875
1096;460.3356628417969
1097;460.0066833496094
1098;459.67803955078125
1099;459.34954833984375
1100;459.0212097167969
1101;458.6930236816406
1102;458.3650207519531
1103;458.0373229980469
1104;457.7096862792969
1105;457.38238525390625
1106;457.0552062988281
1107;456.7283020019531
1108;456.4015808105469
1109;456.0750427246094
1110;455.7486877441406
1111;455.4225769042969
1112;455.0965270996094
1113;454.7707824707031
1114;454.4452209472656
1115;454.11981201171875
1116;453.7946472167969
1117;453.46966552734375
1118;453.14483642578125
1119;452.8201599121094
1120;452.4958190917969
1121;452.1716613769531
1122;451.84765625
1123;451.5237121582031
1124;451.2000427246094
1125;450.8766174316406
1126;450.55340576171875
1127;450.2303771972656
1128;449.9075012207031
1129;449.584716796875
1130;449.26220703125
1131;448.9397888183594
1132;448.61773681640625
1133;448.2958984375
1134;447.97418212890625
1135;447.6526794433594
1136;447.33135986328125
1137;447.0102233886719
1138;446.6893615722656
1139;446.36859130859375
1140;446.04803466796875
1141;445.7276916503906
1142;445.40740966796875
1143;445.08734130859375
1144;444.767578125
1145;444.44781494140625
1146;444.1284484863281
1147;443.8092956542969
1148;443.490234375
1149;443.17132568359375
1150;442.8525695800781
1151;442.53399658203125
1152;442.2157287597656
1153;441.8975524902344
1154;441.5797424316406
1155;441.2619323730469
1156;440.94439697265625
1157;440.62701416015625
1158;440.30987548828125
1159;439.992919921875
1160;439.6761169433594
1161;439.35943603515625
1162;439.0431213378906
1163;438.7268981933594
1164;438.410888671875
1165;438.0950622558594
1166;437.7794494628906
1167;437.46392822265625
1168;437.14862060546875
1169;436.83343505859375
1170;436.5185546875
1171;436.20379638671875
1172;435.88922119140625
1173;435.5748596191406
1174;435.2607116699219
1175;434.9468078613281
1176;434.6330261230469
1177;434.3193664550781
1178;434.0059509277344
1179;433.69281005859375
1180;433.3797912597656
1181;433.0668640136719
1182;432.75421142578125
1183;432.44171142578125
1184;432.12945556640625
1185;431.81732177734375
1186;431.5054016113281
1187;431.1936950683594
1188;430.882080078125
1189;430.5706481933594
1190;430.2594909667969
1191;429.9484558105469
1192;429.6376647949219
1193;429.32696533203125
1194;429.01654052734375
1195;428.7062683105469
1196;428.3962097167969
1197;428.0862121582031
1198;427.7765808105469
1199;427.4670104980469
1200;427.15765380859375
1201;426.8484191894531
1202;426.5393981933594
1203;426.2306213378906
1204;425.92205810546875
1205;425.613525390625
1206;425.30535888671875
1207;424.9973449707031
1208;424.68951416015625
1209;424.38177490234375
1210;424.0743713378906
1211;423.7670593261719
1212;423.45989990234375
1213;423.1528625488281
1214;422.8461608886719
1215;422.53955078125
1216;422.2331848144531
1217;421.9269104003906
1218;421.6208801269531
1219;421.31500244140625
1220;421.00933837890625
1221;420.7037658691406
1222;420.3984375
1223;420.0932312011719
1224;419.7882995605469
1225;419.4833984375
1226;419.1788635253906
1227;418.8744201660156
1228;418.5701599121094
1229;418.26611328125
1230;417.9621887207031
1231;417.65850830078125
1232;417.3550109863281
1233;417.0516662597656
1234;416.7484436035156
1235;416.4454040527344
1236;416.1426696777344
1237;415.840087890625
1238;415.53759765625
1239;415.23541259765625
1240;414.93328857421875
1241;414.6314392089844
1242;414.32965087890625
1243;414.0281677246094
1244;413.7267761230469
1245;413.4256286621094
1246;413.12469482421875
1247;412.8239440917969
1248;412.52325439453125
1249;412.22271728515625
1250;411.922607421875
1251;411.6224670410156
1252;411.3225402832031
1253;411.02276611328125
1254;410.72314453125
1255;410.4237976074219
1256;410.12457275390625
1257;409.8254699707031
1258;409.526611328125
1259;409.2278747558594
1260;408.9294738769531
1261;408.63116455078125
1262;408.33294677734375
1263;408.0349426269531
1264;407.73712158203125
1265;407.4396057128906
1266;407.14215087890625
1267;406.8449401855469
1268;406.5478515625
1269;406.25091552734375
1270;405.9542541503906
1271;405.6576843261719
1272;405.361328125
1273;405.0651550292969
1274;404.7691345214844
1275;404.4732360839844
1276;404.1775817871094
1277;403.882080078125
1278;403.58673095703125
1279;403.29156494140625
1280;402.99664306640625
1281;402.7018127441406
1282;402.4072265625
1283;402.1127624511719
1284;401.8184509277344
1285;401.52435302734375
1286;401.23052978515625
1287;400.9367980957031
1288;400.6432189941406
1289;400.3498229980469
1290;400.0566101074219
1291;399.76361083984375
1292;399.470703125
1293;399.1780090332031
1294;398.885498046875
1295;398.5931091308594
1296;398.3009948730469
1297;398.0090026855469
1298;397.71722412109375
1299;397.42559814453125
1300;397.1341247558594
1301;396.8428039550781
1302;396.5516662597656
1303;396.2607421875
1304;395.9700012207031
1305;395.679443359375
1306;395.3890075683594
1307;395.09869384765625
1308;394.80865478515625
1309;394.5187683105469
1310;394.22900390625
1311;393.9394226074219
1312;393.65008544921875
1313;393.3608093261719
1314;393.0717468261719
1315;392.782958984375
1316;392.4942321777344
1317;392.2057800292969
1318;391.91741943359375
1319;391.6291809082031
1320;391.3412170410156
1321;391.05340576171875
1322;390.7657775878906
1323;390.4782409667969
1324;390.19091796875
1325;389.90374755859375
1326;389.6168518066406
1327;389.33001708984375
1328;389.0433654785156
1329;388.75689697265625
1330;388.470703125
1331;388.1845703125
1332;387.8986511230469
1333;387.61279296875
1334;387.32720947265625
1335;387.0417785644531
1336;386.7565002441406
1337;386.471435546875
1338;386.1865234375
1339;385.90185546875
1340;385.61724853515625
1341;385.3328552246094
1342;385.0486145019531
1343;384.7644958496094
1344;384.4806823730469
1345;384.1969299316406
1346;383.9133605957031
1347;383.62994384765625
1348;383.34674072265625
1349;383.0636291503906
1350;382.78076171875
1351;382.498046875
1352;382.2154846191406
1353;381.9331359863281
1354;381.6509094238281
1355;381.3689270019531
1356;381.0871276855469
1357;380.805419921875
1358;380.52392578125
1359;380.2425231933594
1360;379.9613952636719
1361;379.6803894042969
1362;379.3995056152344
1363;379.1188659667969
1364;378.83837890625
1365;378.5580139160156
1366;378.2778015136719
1367;377.9978332519531
1368;377.7179870605469
1369;377.4383239746094
1370;377.15875244140625
1371;376.8794250488281
1372;376.6002502441406
1373;376.3212585449219
1374;376.0424499511719
1375;375.7638244628906
1376;375.48529052734375
1377;375.20697021484375
1378;374.92877197265625
1379;374.6507873535156
1380;374.37298583984375
1381;374.0953063964844
1382;373.8177185058594
1383;373.54046630859375
1384;373.2633361816406
1385;372.98638916015625
1386;372.70953369140625
1387;372.432861328125
1388;372.15643310546875
1389;371.88006591796875
1390;371.6038513183594
1391;371.327880859375
1392;371.0520324707031
1393;370.7763366699219
1394;370.5008850097656
1395;370.2255554199219
1396;369.9504089355469
1397;369.67535400390625
1398;369.4004821777344
1399;369.1258239746094
1400;368.8513488769531
1401;368.5769958496094
1402;368.30279541015625
1403;368.02886962890625
1404;367.75494384765625
1405;367.4812316894531
1406;367.20770263671875
1407;366.9343566894531
1408;366.6611633300781
1409;366.38818359375
1410;366.11529541015625
1411;365.84259033203125
1412;365.570068359375
1413;365.2977600097656
1414;365.02557373046875
1415;364.75347900390625
1416;364.4816589355469
1417;364.20989990234375
1418;363.93841552734375
1419;363.6670837402344
1420;363.3958435058594
1421;363.12481689453125
1422;362.85394287109375
1423;362.5832214355469
1424;362.3125915527344
1425;362.042236328125
1426;361.77197265625
1427;361.50189208984375
1428;361.23199462890625
1429;360.9622497558594
1430;360.6926574707031
1431;360.42315673828125
1432;360.1539611816406
1433;359.884765625
1434;359.61590576171875
1435;359.3471374511719
1436;359.07855224609375
1437;358.8100280761719
1438;358.5417175292969
1439;358.27362060546875
1440;358.0057067871094
1441;357.7379455566406
1442;357.4703674316406
1443;357.202880859375
1444;356.935546875
1445;356.6684875488281
1446;356.40142822265625
1447;356.1346130371094
1448;355.8679504394531
1449;355.6015319824219
1450;355.33514404296875
1451;355.06903076171875
1452;354.8030090332031
1453;354.5371398925781
1454;354.2713317871094
1455;354.005859375
1456;353.7404479980469
1457;353.4752502441406
1458;353.210205078125
1459;352.94525146484375
1460;352.6805114746094
1461;352.4159240722656
1462;352.1515197753906
1463;351.8872375488281
1464;351.6231384277344
1465;351.35919189453125
1466;351.095458984375
1467;350.8318176269531
1468;350.5683898925781
1469;350.3050842285156
1470;350.04193115234375
1471;349.7789611816406
1472;349.51611328125
1473;349.2534484863281
1474;348.9909973144531
1475;348.7287292480469
1476;348.4665222167969
1477;348.2044982910156
1478;347.942626953125
1479;347.6809387207031
1480;347.41943359375
1481;347.1579895019531
1482;346.8967590332031
1483;346.6357421875
1484;346.3747863769531
1485;346.1140441894531
1486;345.85345458984375
1487;345.5930480957031
1488;345.3327941894531
1489;345.07269287109375
1490;344.8127136230469
1491;344.5529479980469
1492;344.29327392578125
1493;344.0337829589844
1494;343.7745056152344
1495;343.5153503417969
1496;343.2563171386719
1497;342.99749755859375
1498;342.73876953125
1499;342.4802551269531
